ill or has a M 1048
ill it was a M 844
ill at ease i M 838
ill is not a M 703
ill or had a M 560
ill to bear a M 438
ill to see a M 368
ill so that i M 339
ill so far i M 240
ill thing for a M 198
ill the day i M 198
ill he had a M 170
ill of him i M 148
ill or with a M 120
ill by eating a M 120
ill at ease a M 119
ill he was a M 110
ill to use a M 108
ill to sit a M 106
ill or that i M 100
ill in bed i D 233
ill in bed a D 146
