ill health of his M 3142
ill able to bear M 2878
ill when he was M 2530
ill health he was M 2242
ill health or death M 1848
ill will of his M 1670
ill health is not M 1158
ill health in his M 962
ill health he had M 916
ill will to any M 890
ill during the day M 838
ill health or old M 832
ill health of her M 812
ill used by his M 788
ill health as his M 734
ill will to him M 728
ill during the year M 699
ill talk to you M 649
ill will of all M 594
ill will on both M 570
ill will in his M 564
ill from the heat M 522
ill health of one M 514
ill used by her M 490
ill will to his M 488
ill will of any M 472
ill when it was M 464
ill when he had M 462
ill have to get M 420
ill health is due M 418
ill will at all M 413
ill along the way M 413
ill health or any M 412
ill will or bad M 410
ill able to pay M 406
ill health in this M 396
ill word of any M 388
ill turn to any M 388
ill will is not M 380
ill used by them M 378
ill used in this M 372
ill word to say M 364
ill health or for M 364
ill luck in his M 360
ill used by him M 358
ill omen of his M 354
ill will to them M 350
ill when he has M 346
ill talk to him M 342
ill done of you M 340
ill will on that M 322
ill during the war M 321
ill used by any M 317
ill luck to get M 316
ill health of both M 304
ill health is one M 304
ill will on his M 300
ill health at this M 300
ill will of one M 298
ill will to you M 296
ill when he got M 292
ill word or ill M 278
ill health in old M 278
ill will of her M 276
ill most of his M 275
ill health of any M 268
ill will of our M 254
ill most of her M 251
ill health or age M 251
ill will of both M 250
ill luck to them M 250
ill luck he had M 250
ill luck of being M 248
ill health of its M 248
ill will of men M 246
ill luck to all M 242
ill luck it was M 242
ill health do not M 242
ill have to ask M 242
ill health in her M 230
ill when he saw M 228
ill health to his M 226
ill health he did M 226
ill luck to his M 224
ill used in being M 220
ill part in all M 220
ill luck in that M 219
ill luck to him M 218
ill there is one M 216
ill from the day M 215
ill health it was M 210
ill when he ate M 208
ill will to this M 206
ill five or six M 204
ill luck in not M 202
ill health or ill M 202
ill health at that M 202
ill fate of his M 202
ill when we are M 200
ill health or bad M 198
ill will in our M 196
ill name in this M 196
ill luck in all M 196
ill health in our M 192
ill luck to see M 190
ill health of our M 190
ill word of him M 186
ill from the long M 184
ill upon the way M 182
ill upon the man M 182
ill luck of one M 182
ill will in her M 180
ill used by this M 179
ill health of all M 178
ill done if you M 177
ill when he did M 176
ill done of him M 175
ill will he had M 174
ill luck in this M 174
ill talk to her M 173
ill will of its M 172
ill luck to run M 172
ill health in any M 172
ill word of her M 170
ill just as she M 170
ill have to see M 169
ill when the day M 166
ill will of this M 162
ill will of that M 160
ill health or low M 160
ill health is that M 158
ill health in that M 156
ill said of them M 154
ill health or who M 154
ill health in may M 154
ill face of things M 154
ill health in all M 152
ill dealing in this M 152
ill will to her M 150
ill will in this M 150
ill luck of his M 150
ill health so that M 150
ill during the long M 150
ill health in one M 148
ill will to that M 146
ill omen to his M 144
ill faith of his M 144
ill health he has M 142
ill keep an eye M 139
ill will or ill M 138
ill will on our M 134
ill side of things M 132
ill done of men M 132
ill even if they M 128
ill during the two M 128
ill luck of any M 125
ill will or any M 124
ill done of them M 124
ill health or that M 123
ill luck in being M 122
ill health of this M 122
ill from the end M 121
ill will in him M 120
ill luck to you M 120
ill health on his M 120
ill used in not M 118
ill most of that M 118
ill from it for M 118
ill even to see M 118
ill will to each M 116
ill health or with M 116
ill much of his M 114
ill during the run M 114
ill speak to him M 113
ill will do not M 112
ill prior to his M 112
ill health at all M 112
ill done by them M 112
ill when he set M 110
ill luck to die M 110
ill kept the day M 110
ill health in man M 110
ill done as not M 110
ill came to him M 109
ill omen to her M 108
ill luck is not M 108
ill health is now M 108
ill health is being M 108
ill from the bad M 107
ill when he does M 106
ill turn if she M 106
ill luck or bad M 106
ill luck on all M 106
ill luck is his M 106
ill just as they M 106
ill from the new M 106
ill even of his M 106
ill turn he hath M 104
ill health at age M 104
ill ways in use M 102
ill here on earth M 102
ill will to our M 100
ill wind of war M 98
ill will in any M 98
ill will if they M 98
ill used by being M 98
ill even to read M 98
ill kept in this M 97
ill will in its M 96
ill omen to him M 96
ill gift to bring M 96
ill dream is but M 96
ill will on all M 94
ill will by his M 94
ill omen to see M 94
ill made in our M 94
ill luck go with M 94
ill just at this M 94
ill like to see M 93
ill when we got M 92
ill luck he was M 92
ill health or are M 92
ill kept at our M 91
ill omen to them M 90
ill luck on our M 90
ill just at that M 90
ill much of that M 88
ill luck if they M 88
ill fate or ill M 88
ill turn to his M 86
ill till it was M 86
ill dream on this M 86
ill poets is but M 84
ill omen to all M 84
ill luck to any M 84
ill fate it was M 84
ill faith of any M 84
ill even to get M 84
ill name on his M 82
ill fate of this M 82
ill have to put M 56
ill used if they M 44
ill used by all M 44
ill have to try M 44
ill used in that M 43
ill used by you M 43
ill there is not M 41
ill will to one M 40
ill from the man M 40
ill news of his D 412
ill fame of his D 346
ill news at our D 342
ill fame or with D 302
ill fame in new D 200
ill news of our D 138
ill will ye had D 122
ill news we had D 120
ill luck to hit D 108
ill paid as they D 106
ill health we met D 100
ill news of one D 98
ill done of thee D 96
ill news to his D 92
ill during the hot D 84
ill news to her D 82
ill when he met D 80
ill news he had D 80
