glad that he had M 59958
glad that he was M 32045
glad that it was M 26617
glad you do not M 22033
glad that he did M 13288
glad that he has M 12196
glad that we had M 11624
glad that we are M 9336
glad that it had M 5730
glad that it has M 5686
glad that no one M 4632
glad that we did M 4010
glad they do not M 3170
glad she is not M 2802
glad that we can M 2582
glad that it did M 2252
glad and sing for M 2018
glad that the old M 1952
glad that he and M 1754
glad that the war M 1712
glad not to see M 1668
glad that in this M 1576
glad you is not M 1476
glad that he does M 1394
glad that the man M 1393
glad that the end M 1390
glad that the two M 1260
glad that he can M 1226
glad this is not M 1140
glad that he got M 1112
glad that the day M 1015
glad with the joy M 989
glad for my own M 986
glad she is going M 976
glad that the new M 931
glad that it does M 912
glad that the boy M 866
glad that the long M 786
glad she is that M 754
glad that we got M 704
glad that my son M 649
glad now he had M 598
glad not to hear M 548
glad all of you M 516
glad that my own M 506
glad that the sun M 505
glad that the men M 502
glad that in his M 502
glad and the earth M 483
glad that on this M 482
glad that my old M 472
glad that so far M 435
glad she is out M 435
glad that he now M 406
glad she is dead M 406
glad that my weak M 402
glad that it can M 400
glad that the idea M 386
glad for the new M 378
glad now to see M 358
glad was he that M 352
glad that my dear M 352
glad that he saw M 342
glad she is with M 328
glad that we all M 326
glad for it now M 326
glad are we that M 323
glad that it all M 320
glad for to see M 304
glad one of them M 300
glad now we did M 296
glad they is not M 288
glad that we may M 278
glad that at this M 278
glad both of you M 276
glad that is not M 274
glad that in our M 268
glad this is all M 264
glad for the day M 263
glad that we saw M 262
glad that at long M 256
glad that in her M 252
glad with the cry M 246
glad that we now M 236
glad for the boy M 232
glad one of you M 230
glad that at that M 226
glad for the one M 222
glad for the few M 220
glad now to get M 216
glad for the job M 210
glad that the way M 206
glad for the way M 206
glad for me and M 206
glad was he who M 204
glad that we both M 202
glad that the dear M 200
glad song to song M 198
glad that the one M 196
glad that the big M 188
glad and the sad M 186
glad too to hear M 184
glad cry of joy M 184
glad god is not M 182
glad that the law M 181
glad that the dog M 180
glad now to hear M 180
glad for the old M 180
glad for the long M 178
glad now to say M 176
glad for the sun M 176
glad that he too M 174
glad with me that M 172
glad for the two M 170
glad you do him M 168
glad too if you M 168
glad that at any M 168
glad and he was M 166
glad that the job M 164
glad that my long M 162
glad that is all M 152
glad that in all M 152
glad too to see M 144
glad now he did M 144
glad that my lot M 142
glad not to get M 142
glad for me that M 136
glad that he won M 134
glad that he ate M 132
glad but the one M 132
glad for the things M 130
glad for it and M 130
glad two of them M 124
glad she do not M 124
glad for the heat M 124
glad for the dim M 124
glad was the man M 122
glad that he who M 122
glad that on that M 120
glad then to get M 116
glad that so few M 112
glad that the net M 110
glad that he ran M 110
glad than of all M 110
glad for the death M 110
glad that the heat M 109
glad that he sat M 108
glad that he put M 108
glad that by this M 108
glad one of his M 106
glad for the dog M 106
glad with the song M 104
glad and so was M 104
glad now it was M 102
glad all the day M 102
glad was of that M 100
glad this is going M 100
glad cry as she M 98
glad that the year M 96
glad that the real M 96
glad that the cat M 96
glad that the act M 96
glad she is thus M 96
glad for the man M 96
glad that the sky M 94
glad that my boy M 94
glad day it was M 92
glad you do too M 90
glad that the lot M 90
glad that the head M 90
glad that he hath M 90
glad that the death M 88
glad that the air M 88
glad that my new M 88
glad now to pay M 88
glad for the end M 88
glad that my two M 86
glad than of any M 86
glad she is doing M 86
glad that the bad M 84
glad then to see M 80
glad that we get M 80
glad that of all M 80
glad and we can M 80
glad and at ease M 80
glad all of them M 80
glad that the dead M 62
glad for the air M 40
glad that the hon D 2154
glee that he had D 1159
glee how he had D 642
gleam was in his D 595
glad that we met D 582
glow with the heat D 552
glad that my hon D 460
glow lit the sky D 373
glee that he was D 368
gleam lit up his D 339
glue may be bad D 328
glad that ye are D 314
glee that it was D 285
glow lit up his D 282
glee that we had D 282
glue one to each D 272
glow with the new D 272
glow was on her D 272
glow with the joy D 266
glow all the way D 262
glue them on top D 245
glow than in that D 230
glue all the way D 226
glow and it was D 226
glow one or two D 216
glow that he had D 212
glad thus to fling D 196
glue that is not D 192
glow that it was D 192
glow and the heat D 188
glad that my dad D 188
glad that the car D 184
glad that my mom D 182
glen that he was D 178
glean out of this D 178
glue for the job D 174
glue them to each D 172
glow was in his D 172
glad that the ice D 171
glow with the sun D 170
glow with the red D 156
glow one by one D 154
gleam out of his D 152
glue for the year D 145
glue them on with D 142
glad that the riot D 140
glow with the idea D 138
glen with the air D 138
glow that is not D 136
glad eve of its D 130
glee than he had D 129
glow lit up her D 120
gleam lit up her D 120
glad that the leaf D 120
glad that the fog D 118
glut with my meat D 116
glue one on each D 116
glean that he was D 114
gleam was in her D 114
glean out of his D 112
glee that he has D 110
glad that the lad D 110
glue them to one D 106
glow with the old D 104
glean one or two D 104
glue his or her D 102
glen got up and D 102
glow was the old D 100
glow was in her D 100
glow was on his D 96
glee out of his D 96
glad that it rang D 96
gleam that he had D 93
glow that we had D 92
glow out of her D 92
glow and the air D 92
glad that he met D 92
glue them on for D 90
glean any thing for D 88
glow but do not D 86
glow and the sky D 86
glow all the dead D 86
glow that he was D 84
gleam out at you D 84
glad for the hot D 82
glow that the sun D 54
glue one or two D 51
gleam out of her D 45
glum all the way D 40
