culture is to be M 22416
current is to be M 19015
current is in the M 16688
culture as it is M 13874
current as of the M 8648
culture is in the M 7518
culture so as to M 5952
current is of the M 5454
current as to the M 5443
current so as to M 4654
culture or in the M 4018
current in it is M 3676
culture is at the M 3602
culture to be the M 3344
current up to the M 3332
culture as if it M 2930
current of up to M 2814
current in the ring M 2668
culture up to the M 2596
culture as in the M 2552
culture is by no M 2506
culture is on the M 2472
culture or of the M 2406
culture it is the M 2321
culture or to the M 2212
customs as to the M 2178
current is at the M 2044
culture if it is M 2018
current as in the M 1956
culture is of the M 1810
current is on the M 1802
culture as to be M 1642
current as it is M 1461
culture is to the M 1452
current is to the M 1346
culture to be an M 1342
customs is to be M 1338
culture of the tea M 1329
current if it is M 1285
current or in the M 1244
culprit is to be M 1219
current on to the M 1212
culture as is the M 1150
culture as to the M 1134
customs of the king M 1036
culture or by the M 1000
current to be the M 997
culture of the so M 977
current or by the M 964
customs so as to M 938
current or of the M 908
culture or on the M 890
culture on to the M 854
customs or of the M 802
culture to be of M 784
current or to the M 778
culture to do so M 708
culture is in no M 700
current to be in M 690
culture to be in M 626
current as if it M 598
customs to the king M 584
customs or to the M 570
customs as in the M 552
current in the on M 512
customs as of the M 510
culture is of no M 478
current is of no M 476
culture or is it M 470
culture as of the M 468
current is by no M 456
current is if the M 454
culture as he is M 454
current is by the M 424
current it in the M 416
current as if the M 412
culture or as an M 402
culture or as the M 398
current id in the M 396
culture it is an M 384
current is is the M 378
curable if it is M 368
current as to be M 366
culture as on the M 366
current it is the M 364
culture of it is M 364
culture to be so M 363
current to be of M 359
current be in the M 350
culture of it in M 346
culture as we do M 334
current is on or M 332
culture is or is M 330
culture is in an M 328
current to do the M 324
customs or by the M 320
culture if he is M 320
current it is to M 318
current king of the M 316
culture or in an M 316
culture as by the M 316
customs of the so M 315
culture as do the M 310
customs is in the M 298
current to go to M 296
current is up to M 296
culture or of an M 294
current or on the M 280
culture it is in M 279
current as is the M 278
culture or to be M 278
current to be as M 270
current is it is M 266
current in the nth M 265
current or by an M 264
culture to do the M 264
culprit to be the M 262
customs as it is M 256
current of it is M 256
culture to be as M 254
current in it to M 253
current if in the M 248
culture is by the M 248
culture is to do M 246
culture in the so M 245
customs or in the M 242
culture it is no M 238
culture if we do M 234
culture or at the M 230
current be if the M 228
culture of the the M 228
culprit is in the M 228
customs up to the M 226
customs of the the M 226
customs to be the M 224
current as if we M 224
culture to be at M 222
current to it is M 216
culture is the so M 216
culture it is to M 212
current in it in M 211
current in it by M 204
current in it at M 204
culture is to an M 204
current in it as M 202
culture is so to M 198
customs as to be M 196
current is the so M 195
culture of tea in M 192
culture is to go M 188
culture is at an M 184
current or if the M 182
current as at the M 182
current to be at M 181
culture as if the M 180
culture to be on M 176
culture is of an M 172
culture as he or M 170
culture it is of M 168
current in the so M 167
current or as the M 160
culture to go to M 156
culture of it to M 156
culture as an in M 156
culture he is in M 150
culture to do it M 146
culture is the thing M 144
current or to be M 142
culture is as an M 142
culture if he or M 142
culture of the in M 141
current is in an M 140
culture or it is M 140
culture or if the M 140
current in it be M 138
culture is in my M 138
current to ring the M 136
culture it in the M 132
current is in no M 131
culture so it is M 130
current is at an M 127
culture or by an M 126
current is at or M 123
current by up to M 122
culture or to an M 122
culture of the it M 120
current or at the M 118
current is of an M 118
culture is as it M 118
customs it is the M 116
culture as at the M 116
customs of the tea M 114
current or up to M 114
culture of the king M 114
current as on the M 112
culture or if it M 112
culture it is so M 112
current or if it M 110
culture is as the M 110
current of the ring M 109
current of the so M 108
current it is in M 108
current if it be M 108
current id of the M 108
culprit is in it M 106
current to go in M 105
current of my woe M 104
customs to be in M 102
current to do so M 102
current to go on M 101
customs as if he M 100
current on in the M 100
current it is of M 100
current is to go M 100
customs as we do M 96
culture he is the M 96
culture go to the M 96
current to be an M 94
current so it is M 94
culture of tea is M 94
current as in an M 92
current to be so M 90
culture as if he M 90
culprit up to the M 90
current or of an M 88
current as do the M 88
culture is up to M 88
current of in the M 87
culture to the so M 87
customs to us at M 82
customs on to the M 82
customs to go on M 73
current at the ring M 70
current in the in M 67
culture it is as M 57
current on the ring M 56
current in at the M 56
current at the nth M 52
current of the on M 51
current in the the M 48
current of the nth M 46
current at up to M 46
current of the king M 45
culture to go on M 45
current is if we M 43
current in the king M 42
current of the the M 41
current in in the M 41
custody of the king D 9576
curtain to go up D 4757
customs of the sea D 4298
current of the sea D 3114
custody is to be D 2210
custody is in the D 1746
current in the sea D 1538
custody of the thing D 1528
custody or in the D 1432
cuddled up to me D 1235
cuddled up on the D 1188
cuddled up in the D 1174
current to the sea D 1154
curtain is to be D 878
culture of the sea D 866
curtain so as to D 848
cuddled up to the D 826
curtain go up at D 730
custody of it to D 662
culvert is to be D 594
current in the dc D 575
custody of the sea D 557
curtain go up on D 482
current of the dc D 482
custody so as to D 444
custody by the king D 436
custody if he is D 394
custody in the king D 370
current to the dc D 365
custody to be in D 360
cuisine is of the D 346
culture of the ear D 332
custody up to the D 316
cushions so as to D 314
curtain on to the D 296
cuddled up in my D 292
current of the ion D 278
curtain ring to the D 272
curtail it in the D 262
custody if it is D 260
custody as to the D 260
current to the ion D 256
curtain up to the D 252
curator of the king D 250
current in the ion D 239
custody or to be D 238
curtain as if to D 222
culture of the la D 222
cuisine is to be D 222
current at the sea D 214
curtain or in the D 210
custody or to the D 202
curtain up on the D 202
cuddles up to me D 201
cuisine is in the D 198
cuticle as in the D 196
curtain or so at D 188
custody or if it D 182
cursory as it is D 182
custody he is to D 178
curtain as if it D 178
cuddled up to my D 177
curtain is in the D 176
curator of the via D 174
custody of the the D 170
cuisine is on the D 170
cuddles up to the D 167
cuticle is to be D 166
custody of it is D 166
custody or at the D 162
custard is to be D 156
cushions or on the D 156
cursory as to be D 152
curates to do the D 150
curtain of the sea D 149
curtain as it is D 148
cushions as if he D 146
cushions on to the D 143
cuisine as it is D 143
cutters so as to D 142
custody of or the D 140
curtain as if he D 138
culture of the ex D 135
custody of it in D 134
curtain as in the D 134
current on the dc D 134
culture in the sea D 134
custody of the so D 132
cuticle or in the D 130
custody as it is D 130
cushions in the via D 128
cuticle so as to D 126
custody of the ring D 126
custody if he or D 126
curtain up at the D 126
custody or on the D 124
custody as if he D 124
curtain to be the D 124
curtain is on the D 124
custody or if the D 118
custody of it by D 116
cursory to be of D 114
curried on by the D 114
cuticle of the ear D 112
cutters to do the D 106
custody go to the D 106
custody or of the D 104
curtain is up the D 104
cubicle or in the D 102
current to the ear D 100
culturing it in the D 100
cuddled up on my D 100
cuisine is at the D 98
current in rs is D 96
custody of me to D 94
curtain is up on D 94
current of an ion D 93
custody as in the D 92
custody as if the D 92
custody as of the D 90
curator is to be D 88
custody to go to D 86
custody of it as D 86
curried on in the D 86
curtain or on the D 84
cushions or in the D 82
cubicle to go to D 82
curtain is of the D 80
current on the sea D 70
current in an ion D 53
custody of the ex D 46
cuddled up to it D 46
cuticle of the wing D 42
