boy and girl . M 40009
both are true . M 13250
boy was born . M 10554
both are wrong . M 9420
both sat down . M 6872
both his eyes . M 6049
boy was gone . M 5918
both his arms . M 5744
both her arms . M 3572
both are used . M 3508
both are good . M 2936
boy any more . M 2848
boy had said . M 2600
both his sons . M 2596
both doing well . M 2482
both his feet . M 2376
boy had gone . M 2256
boy had died . M 2128
bow our heads . M 1984
boy ran away . M 1956
boy this time . M 1854
boy had done . M 1854
both are gone . M 1722
box was gone . M 1714
boy was saying . M 1676
boy had been . M 1630
boy was there . M 1624
both her sons . M 1620
both her eyes . M 1511
boy was crying . M 1460
boy and girl ? M 1364
both are lost . M 1328
both sit down . M 1322
both its ends . M 1316
both are free . M 1302
both are rare . M 1196
boy who died . M 1140
boy does fine . M 1110
box was full . M 1098
both are zero . M 1078
both are living . M 968
boy was sick . M 966
both are well . M 962
both too young . M 960
both our heads . M 951
both and more . M 934
box was open . M 908
both had died . M 908
both are there . M 886
both did well . M 770
boy was safe . M 750
bow and left . M 703
both for years . M 690
boy sat down . M 688
both doing fine . M 682
boy his name . M 670
both are high . M 668
both her feet . M 666
both men died . M 664
boy was lost . M 652
boy too much . M 640
boy had left . M 628
both for coming . M 614
both ran away . M 610
boy she knew . M 604
both for ever . M 602
boy out there . M 562
both our eyes . M 552
boy and youth . M 546
boy was here . M 542
boy and girl ! M 540
box and left . M 536
both are here . M 524
box was used . M 516
box had been . M 516
box any more . M 516
both are fine . M 514
boy doing here ? M 510
boy for life . M 480
both are great . M 478
boy has gone . M 464
both men well . M 460
boy had come . M 432
both are open . M 430
box this time . M 428
boy was back . M 426
boy was young . M 424
boy you were . M 420
box was there . M 414
boy has done . M 412
both are moving . M 404
boy had made . M 402
boy was hurt . M 400
bow was made . M 400
both get away . M 394
boy was good . M 392
box each time . M 392
both had been . M 390
boy was gone ! M 388
bow and stem . M 388
both too much . M 384
boy that died . M 378
box for years . M 378
boy was well . M 374
boy got well . M 370
both sit down ? M 368
both had lost . M 364
boy was three . M 358
boy for years . M 356
both too late . M 356
both too busy . M 354
boy was nine . M 348
boy was five . M 348
boy than ever . M 336
both for life . M 336
box was heavy . M 332
both are ready . M 328
both now lost . M 326
box goes away . M 324
both get hurt . M 322
both are true ? M 320
boy you know . M 318
boy ran home . M 318
both his eyes ? M 318
both may live . M 316
boy was ready . M 314
boy his heir . M 314
both men fell . M 314
both did good . M 314
both and left . M 312
boy can have . M 310
boy for ever . M 308
both got away . M 308
both had seen . M 306
boy had seen . M 304
both had jobs . M 298
boy was living . M 296
both are done . M 294
boy can know . M 290
box you want . M 284
both his poems . M 284
box was kept . M 282
bow and leave . M 278
both run away . M 276
boy you want . M 274
both lay down . M 274
boy lying there . M 272
both too well . M 272
boy has died . M 268
box was made . M 266
boy for help . M 260
both get home . M 258
boy was coming . M 256
both our time . M 254
both get rich . M 254
boy was four . M 252
boy was fine . M 252
boy his life . M 250
boy you have . M 248
both its eyes . M 240
both get nothing . M 240
bow and exit . M 239
both for ever ! M 238
both ate food . M 232
both are safe . M 232
boy was free . M 230
boy this time ? M 230
both this time . M 229
both may fall . M 228
both his eyes ! M 222
boy was like . M 220
boy for nothing . M 216
both out there . M 216
bow and bend . M 215
boy than girl . M 212
both doing here ? M 212
boy you like . M 210
both long gone . M 210
both going down . M 210
boy was left . M 208
boy nor girl . M 208
both can lose . M 208
both are same . M 208
both men left . M 204
both far away . M 204
both being true . M 204
both are mine . M 204
boy was glad . M 202
both men down . M 200
boy was wrong . M 198
boy was home . M 198
boy has been . M 198
box for show . M 198
both men said . M 198
boy you love . M 194
boy all along . M 194
box can hold . M 194
both are cold . M 194
boy they knew . M 192
box she held . M 192
bow was bent . M 192
box was gone ! M 188
box are used . M 188
both men knew . M 188
both his boys . M 188
both had gone . M 188
both get jobs . M 188
both being used . M 188
both are seen . M 188
boy was late . M 186
both are meant . M 186
boy was reading . M 184
bow was used . M 184
both out here . M 184
both her boys . M 184
both can live . M 184
both are made . M 184
boy out here . M 182
both can work . M 182
boy you have ! M 180
both off duty . M 180
both may lose . M 180
both are male . M 180
boy got away . M 178
boy who left . M 176
boy was angry . M 176
both our jobs . M 176
both doing wrong . M 176
both are even . M 176
boy and left . M 174
both are hard . M 174
boy with aids . M 172
boy for sure . M 172
both too high . M 172
both cut ends . M 172
both are clear . M 172
box for food . M 170
both got jobs . M 170
both are young . M 170
boy out there ? M 168
both men jump . M 168
boy too hard . M 166
boy has come . M 166
box and type . M 166
both going home . M 166
both are poor . M 166
both are best . M 166
box and back . M 164
both are worn . M 164
boy hung back . M 160
boy any harm . M 160
both are true ! M 160
boy was hiding . M 158
box for mail . M 158
boy was sent . M 156
both then living . M 156
both can fail . M 156
box was lost . M 154
both things well . M 154
both doing great . M 154
box was dark . M 152
box than ever . M 152
bow our heads ? M 152
both with care . M 152
both got sick . M 152
box each week . M 151
boy ran fast . M 150
boy his size . M 150
bow and pray . M 150
both mean well . M 150
both may know . M 150
both its aims . M 150
both had left . M 150
boy was born ? M 148
boy got home . M 148
boy and beast . M 148
both too poor . M 148
both now living . M 148
both men were . M 148
boy you knew . M 144
boy she meant ! M 144
boy can make . M 144
box for help . M 144
both sat there . M 144
both are soft . M 144
box with care . M 142
bow you down . M 142
both can learn . M 142
both are open ? M 142
both are evil . M 142
boy you like ? M 140
boy run away ? M 140
boy goes home . M 140
bow and obey . M 139
box each other . M 138
both lying down . M 138
both for nothing . M 138
both are single . M 138
both out cold . M 136
both had come . M 136
both got hurt . M 136
box with food . M 134
bow was bent ! M 134
boy any good . M 132
box had gone . M 132
both are wrong ! M 132
boy was told . M 130
boy was away . M 130
both now gone . M 130
boy was over . M 128
boy had none . M 128
boy can play . M 128
boy all over . M 128
bow for ever ! M 128
both read zero . M 128
both its feet . M 128
both are full . M 128
boy you were ! M 126
boy was busy . M 126
boy did well . M 126
box was hope . M 126
box and wait . M 126
box and drag . M 126
bow him down . M 126
both die here . M 126
boy was making . M 124
both set free . M 124
both can gain . M 124
both are wrong ? M 124
boy had told . M 122
box out there . M 122
bow was gone . M 122
both being zero . M 122
both are good ? M 120
boy who died ? M 118
boy was born ! M 118
boy has said . M 118
boy got sick . M 118
box was safe . M 118
bow this time . M 118
both our sons . M 118
both had done . M 118
boy this time ! M 116
both are gone ! M 116
boy had fled . M 114
boy was seen . M 112
both got lost . M 112
both are vain . M 112
boy are well . M 110
box this week . M 110
both you boys . M 110
boy was ugly ? M 108
boy was asking . M 108
boy get away . M 108
box with text . M 108
box was ready . M 108
box has gone . M 108
box and leave . M 108
both his aims . M 108
both get there . M 108
both get back . M 108
boy you were ? M 106
box and wept . M 106
both her love . M 106
both are boys . M 106
boy was wise . M 104
boy got there . M 104
boy got hurt . M 104
box and fled . M 104
both was great . M 104
both had made . M 104
both got well . M 104
both get lost . M 104
boy that time . M 102
boy you know ? M 100
both his jobs . M 100
both are reading . M 100
both are clean . M 100
boy too well . M 98
boy had lost . M 98
boy can learn . M 98
box for ever . M 98
bow them down . M 98
both are void . M 98
boy run away . M 96
boy had worn . M 96
boy had heard . M 96
boy for good . M 96
box was left . M 96
box for more . M 96
bow was kept . M 96
bow for lies . M 96
both our boys . M 96
both are heard . M 96
both are blue . M 96
boy had eaten . M 94
boy goes away . M 94
box for days . M 94
both her kids . M 94
both had said . M 94
both dead ends . M 94
box you have . M 92
box for nothing . M 92
bow her forth . M 92
both sky blue . M 92
both sat back . M 92
both put down . M 92
both its arms . M 92
both for good . M 92
both are pure . M 92
boy out there ! M 90
box you need . M 90
both had aids . M 90
both dead wrong . M 90
both can come . M 90
boy his hand . M 88
boy doing there ? M 88
box for good . M 88
both too great . M 88
both had heard . M 88
both had felt . M 88
boy with dread . M 86
box had come . M 86
both with love . M 86
both our arms . M 86
both men love . M 86
both may fail . M 86
both lie down . M 86
both his were . M 86
both being lost . M 86
both are part . M 86
both are holy . M 86
both all along . M 86
boy was wild . M 84
boy has seen . M 84
both men away . M 84
both had sons . M 84
both are open ! M 84
boy was made . M 82
both its heads . M 82
both got there . M 82
both going away . M 82
both are ours . M 82
both are angry . M 82
boy got lost . M 80
box for free . M 80
both that much . M 80
both near tears . M 80
both are poets . M 80
