both prior to and M 28748
both knew it was M 17758
bow down to them M 16390
box like the one M 15782
both ends of each M 15550
bow down to him M 13518
both ends of this M 11924
boy when he was M 10874
both during the day M 10824
boy whom he had M 10558
both during the war M 9097
bow down to you M 7995
both from the east M 5722
boy next to him M 5266
both knew he was M 5086
box next to each M 5084
boy said to his M 4910
both when he was M 4900
both from the old M 4850
both told me that M 4837
box asking if you M 4756
both ends of his M 4724
boy told me that M 4219
both ends so that M 4127
both from my own M 3758
boy back to his M 3708
both true or both M 3482
boy came in and M 3455
boy said he was M 3426
boy went to his M 3292
boy said he had M 3136
both from the air M 3083
boy came up and M 3064
boy came in with M 3026
both ends of its M 3024
boy grew up and M 3006
both felt it was M 2886
boy next to her M 2870
bow down to his M 2795
bow down to her M 2768
both when it was M 2746
both part of and M 2686
box from the top M 2658
both from the top M 2610
both tell us that M 2522
bow down to any M 2437
box asks if you M 2428
both said it was M 2428
boy when he had M 2330
boy said to him M 2308
both want to see M 2230
both ends of all M 2220
both what is and M 2098
both ways to see M 2074
both need to get M 2042
both want to get M 2038
bow down to that M 1996
both went to see M 1978
both from the new M 1973
both ends of that M 1960
box full of old M 1929
both trying to get M 1876
both from the sun M 1811
boy said it was M 1792
both knew he had M 1776
both have to get M 1774
boy said he did M 1762
both feet on each M 1740
both know it was M 1726
boy came to his M 1684
boy came to him M 1614
both came to see M 1604
bow down to this M 1587
both from the earth M 1586
box when it was M 1584
both came up with M 1576
both from the law M 1513
bow down to and M 1476
both eyes on one M 1474
both what we are M 1472
both even or both M 1472
both ends of our M 1464
boy grew up with M 1420
both ends of one M 1413
boy came up with M 1390
both here on earth M 1385
both knew we had M 1376
both arms or both M 1368
boy came of age M 1362
box only if you M 1341
both glad to see M 1324
both look at each M 1318
boy held up his M 1302
both from it and M 1302
box next to any M 1272
bow down at his M 1258
box full of them M 1227
both have to deal M 1222
boy came to see M 1212
both feet on one M 1192
both what he had M 1184
boy trying to get M 1172
boy knew he was M 1170
both were in use M 1170
both told me they M 1166
both when we are M 1156
bow down my head M 1106
both live to see M 1104
both such as are M 1100
both ahead of and M 1090
both from me and M 1084
both knew it had M 1078
box next to his M 1076
boy when he saw M 1058
boy said to her M 1058
both born in new M 1052
boy whom we had M 1044
boy told us that M 1044
boy home to his M 1038
boy what he was M 1034
boy fell on his M 1024
both ends of both M 1022
both have to pay M 1008
both come up with M 1006
box next to her M 994
both ways in this M 994
boy felt he had M 984
box next to that M 983
bow down to all M 978
boy came to our M 974
both what is being M 974
both from the way M 974
boy from the east M 972
both arms up and M 968
both draw on and M 966
both come to see M 966
box when he was M 960
both from the one M 954
both what he was M 946
boy during the war M 940
both knew it and M 936
box tied up with M 932
both were at one M 932
both ways on this M 924
both ways up and M 922
both upon the law M 922
boy whom he has M 916
both tell me that M 914
boy from the old M 905
box next to him M 904
both part of this M 898
boy clinging to his M 896
both part of our M 892
both ends of her M 886
both ends by two M 885
boy came to her M 884
bow down to god M 884
both what he has M 882
boy life in our M 872
both from the heat M 871
both like to see M 866
boy clinging to her M 864
boy whom he was M 856
boy into the man M 854
both north or both M 854
both felt we had M 854
boy will be all M 853
boy made up his M 852
box just as you M 852
boy ahead of him M 844
both fail to see M 844
boy over the head M 842
both sets of men M 838
both were in his M 836
box next to its M 834
both from us and M 830
both ends of any M 830
boy says to his M 816
box next to this M 799
both grow in one M 798
both what it was M 790
boy knew it was M 786
both part of one M 781
both ways so that M 776
both what to say M 772
both eyes to see M 770
bow down to one M 765
both grew up with M 762
boy went on his M 760
both want to use M 758
both knew he did M 758
both used in this M 754
boy woke up and M 752
boy what he had M 748
boy from the dead M 737
boy will be hung M 736
boy when he has M 728
box next to use M 728
both among the men M 726
both here in this M 724
both came to this M 716
both those of his M 713
boy went to see M 712
bow down the head M 712
both good or bad M 706
both part of his M 704
both from the use M 700
both know it and M 696
both arms to his M 684
both what we mean M 680
both during the pre M 678
both look at him M 676
boy over the age M 674
boy whom no one M 673
both know we are M 672
both eyes so that M 666
both came of age M 666
both arms of his M 664
both were to die M 656
both came to him M 652
box open at one M 651
box full of his M 651
both born in this M 650
both were at that M 642
both arms to her M 638
box back in his M 632
both arms so that M 628
boy when it was M 626
both have to say M 626
boy knew he had M 624
both wish to see M 624
both take it for M 624
boy from the age M 622
boy coming of age M 622
both their king and M 612
box such as that M 606
both sets of wings M 604
both from the long M 596
both from the real M 594
both know we can M 592
boy held in his M 590
both during the year M 589
boy over to his M 588
both among us and M 586
boy gets up and M 584
both from the end M 584
both were in this M 582
boy into the air M 580
both from the area M 578
boy when he got M 572
box back to its M 572
both want to win M 568
both high or both M 566
both into the air M 562
both were of one M 560
both live in new M 557
both sets of his M 556
both eyes do not M 556
boy when the war M 552
both meet to hear M 552
both eager to get M 552
box back in its M 550
box full of all M 549
both keep an eye M 548
both what we see M 546
both made up our M 544
bow down to our M 542
boy puts on his M 540
both went to our M 540
both over the age M 540
boy will go far M 536
boy fell to his M 536
both were at this M 536
boy over to him M 534
bow down in awe M 533
box from the bag M 530
boy used to say M 528
box next to them M 528
both feet on his M 526
both arms on his M 526
boy nine or ten M 522
both went in and M 516
both feet or both M 514
both good to get M 510
both ways in that M 506
both over the long M 504
boy from the one M 502
both must be one M 502
both love of god M 502
both know he was M 502
both from the low M 502
boy till he was M 498
both coming in and M 498
both arms of this M 498
both from the dead M 496
boy went in and M 494
both rely on and M 494
both ways as far M 492
both feet so that M 492
both must be read M 488
both teach us that M 487
boy upon the head M 486
boy during the day M 484
both ways of being M 484
boy went on with M 482
both ways in his M 482
both look at her M 480
boy like me was M 476
both born in one M 476
boy from the top M 474
bow bent in his M 474
boy whom it was M 472
both speak of him M 472
both areas of law M 470
boy said in his M 468
boy from the man M 468
both were in new M 468
both from the men M 468
both adds to and M 468
both ways as near M 467
both eager to see M 466
both when he had M 464
both high or low M 464
both from the war M 463
both part of that M 462
both come to this M 462
both came up for M 458
boy whom he saw M 456
boy like he was M 456
box from the rear M 456
both sets of our M 456
both leads to and M 456
both came in for M 454
both knew in our M 452
both feet in one M 450
both lost in our M 446
both speak by and M 444
both living in new M 444
both glad to get M 444
both from the head M 442
boy came by and M 440
both will be with M 438
both upon it and M 438
boy felt he was M 436
both grew up and M 436
boy from the day M 435
boy five or six M 430
both feet in his M 428
both come in for M 428
box such as this M 427
both like to read M 426
box during the day M 425
both died in that M 424
bow down to its M 423
box back to her M 422
boy back to her M 420
both able to see M 420
both those in and M 419
boy went to him M 418
boy next to you M 418
box over the head M 418
both what we can M 418
both were so far M 418
both eyes of each M 418
both ways if you M 416
both come in and M 414
boy says he has M 412
both ends of two M 412
both time of day M 410
boy what it was M 406
bow into the air M 406
both have to die M 406
both from the two M 406
box full of things M 403
boy whom he did M 400
both told me how M 400
both eyes to one M 392
both come to you M 392
both back in new M 392
boy down on his M 390
box full of earth M 390
boy used to get M 388
both arms as she M 388
boy when he goes M 386
both went to her M 386
both like to get M 386
both from the man M 386
both were at war M 384
boy gave up his M 382
boy went to her M 380
box made to fit M 380
both were of that M 378
both look up and M 378
both have to put M 378
both from the non M 378
both work to buy M 376
both said he was M 376
box into the air M 375
boy into an old M 374
both what he saw M 372
both talk to him M 372
boy said he saw M 368
boy when he did M 366
boy down to his M 366
boy came to say M 366
both feet to one M 366
both back to his M 366
boy whom we saw M 364
both know it can M 364
both have an eye M 364
both among the old M 364
both able to get M 364
boy left in him M 362
both want to and M 362
boy died in his M 360
boy came in for M 360
both fell to earth M 360
both told us that M 359
both arms to him M 356
boy such as you M 354
both heads or both M 354
both came in and M 354
both along the way M 350
both have to use M 348
both what he does M 346
both ways of using M 346
both from the idea M 344
both boys or both M 344
both went on with M 342
both ways it was M 342
both came to her M 342
box open so that M 341
box open on one M 341
both sets of them M 340
both seem to say M 340
both know is not M 340
both have so far M 338
both ends to fit M 338
both glad to hear M 336
both from king and M 336
both eyes is not M 336
both died in this M 336
boy went up and M 334
box over the top M 334
box back to his M 334
box till he has M 332
box into the pit M 332
both went to his M 330
both upon the east M 330
both sets of kin M 330
box from me and M 328
both years it was M 328
both from the red M 328
boy went on and M 326
boy must be put M 326
box when the box M 326
both speak of this M 326
both know the real M 326
both from the few M 326
both fell to with M 326
box over in his M 322
both what is now M 322
both know he has M 322
both knew the way M 322
both from the act M 322
both sets of her M 320
boy from the big M 318
bow when he was M 318
both went up and M 318
both speak of god M 318
both past the age M 318
both ends do not M 318
both arms at his M 318
boy over to her M 316
boy came by with M 316
both went to war M 316
both from us both M 316
boy went to get M 314
boy leading the way M 314
both what he did M 314
both know he can M 314
both knew of and M 314
both need to see M 312
both from the year M 311
boy told me how M 310
both what it can M 310
both from the far M 309
boy were to die M 308
boy told me his M 308
both like it and M 308
both from the pre M 308
both feet up and M 308
both died in one M 308
both been up all M 308
both arms to get M 308
both what we say M 306
both look at and M 306
both come to him M 306
both came to our M 306
both came to new M 306
boy ahead of her M 304
boy think he was M 302
box over to her M 302
box open at both M 302
box full of her M 302
both ways is not M 302
both know it does M 302
both knew it did M 302
both from the fear M 302
both among the new M 302
boy says he can M 300
both what is going M 300
both part of her M 300
bow down in fear M 299
both know he did M 298
both come to our M 298
both came up and M 298
box like it was M 296
both need to use M 296
both male or both M 296
boy came to you M 294
box will do for M 294
both when he goes M 294
both what is not M 294
both were in bad M 294
both eyes in one M 294
both went in for M 292
both ends of them M 292
both areas it was M 292
boy living in new M 290
box used to set M 290
both what it does M 290
both what is due M 290
both want to hear M 290
both love to read M 290
both done to death M 290
boy look on his M 288
boy like me can M 288
box over it and M 288
both ends of long M 288
both during the long M 288
boy here in this M 286
both more at ease M 286
both these in one M 284
both pair of wings M 284
boy back in his M 282
box must be set M 282
both wrong by being M 282
both sums up and M 282
both must be and M 282
both give to and M 282
box will be set M 280
both what it has M 280
both live in this M 280
boy came to ask M 278
box back to him M 278
bow only to god M 277
boy when he and M 276
box used in this M 276
both what the law M 276
both were in our M 276
both there is one M 276
both talk to her M 276
both obey the law M 276
both know the way M 276
both ends is not M 276
both when the two M 275
both those he had M 275
boy sent by his M 274
both puts an end M 274
both must be set M 274
boy will go with M 272
boy said of his M 272
boy come to you M 272
boy back on his M 270
both upon us and M 270
both shut up and M 270
boy till he had M 268
both ways to get M 268
both must be put M 268
both knew the real M 268
both early on and M 268
both during the two M 268
both among the top M 268
both ends in one M 267
both upon the one M 266
both upon me and M 266
both arms of her M 266
box next to one M 265
both ways in one M 265
both open to and M 264
both know me and M 264
both ends in his M 264
both arms as far M 263
boy some of his M 262
boy said to them M 262
both what he can M 262
both have an idea M 262
both those of our M 261
boy used to sit M 260
boy runs to his M 260
both were to him M 260
both know it has M 260
boy from the new M 258
both when it has M 258
both seem to get M 258
both look at them M 258
box when he had M 256
both ways of doing M 256
both react to and M 256
both died in his M 256
box over to him M 254
both were in all M 254
both went to him M 254
both used to being M 254
both have in them M 254
both feet on top M 253
boy sort of way M 252
bow acting at one M 251
both went to new M 250
both those in use M 250
both gone so far M 250
both been to see M 250
boy when he for M 248
boy came to this M 248
both need to hear M 248
both have to try M 248
both have to sit M 248
both seem to fit M 246
both said to him M 246
both come of age M 246
both when in and M 244
both think it was M 244
both hanging up and M 244
both give it being M 244
both faith in god M 244
both adding to and M 244
both know he does M 242
both into it and M 242
both hard to get M 242
both born in that M 242
both able to use M 242
box along the top M 241
both know is that M 241
boy will be going M 240
boy must be mad M 240
both woke up and M 240
both want to buy M 240
both open up and M 240
both eyes or both M 240
both eyes on him M 240
bow down to earth M 239
bow down in his M 239
box when he saw M 238
box trying to get M 238
box even if you M 238
both used to say M 238
both ends in this M 238
boy told me you M 236
both years of this M 236
both ways do not M 236
both these do not M 236
both take in and M 236
both kept an eye M 236
both heard it and M 236
boy says he was M 234
boy must be dead M 234
both when we ask M 234
both plus or both M 234
both been so long M 234
boy told me they M 232
boy saying to his M 232
box made of oak M 232
both seek to bring M 232
both ready to get M 232
boy like the one M 231
boy whom we are M 230
boy lies on his M 230
boy gave of his M 230
box open so you M 230
both used to mean M 230
both those of men M 230
both from the eye M 230
boy sits on his M 228
boy come in and M 228
box back in her M 228
bow when it was M 228
both upon the man M 228
boy clings to her M 226
both some of his M 226
both poems the poet M 226
both look on one M 226
boy tied to his M 224
boy felt in his M 224
boy came to them M 224
boy came on his M 224
both part of its M 224
both over the air M 224
both gave up and M 224
both have an air M 223
both down to earth M 223
boy told of his M 222
boy told me this M 222
both wind up with M 222
both what we may M 222
both knew at that M 222
both felt it and M 222
box from the end M 220
both want to say M 220
both take up and M 220
both pray to god M 220
both love it and M 220
both here in our M 220
both come up and M 220
boy from the rear M 219
both upon the earth M 219
box full of red M 218
bow made of two M 218
both ways as they M 218
both tell us how M 218
both eyes at one M 217
boy living in his M 216
boy kind of way M 216
boy fell in with M 216
both said to each M 216
both said as they M 216
both prior to his M 216
both meet in one M 216
both from the poem M 216
both felt he was M 216
both back to her M 216
both among the dead M 216
both able to read M 216
boy from my own M 214
both will be dead M 214
both good or both M 214
both feet to both M 214
both ends or one M 214
both ahead of him M 214
boy whom we all M 212
box when he got M 212
both from the sky M 211
boy clinging to him M 210
both were to being M 210
both trying to win M 210
both speak of them M 210
both open to all M 210
both like us and M 210
both think we can M 208
both live in and M 208
both have to act M 208
boy just is not M 206
boy grow up with M 206
boy from an old M 206
boy born in this M 206
box hill to see M 206
both want it and M 206
both tied up with M 206
both these in his M 206
both seem to him M 206
both have to bear M 206
both make up one M 205
boy will be with M 204
boy like me who M 204
boy grow up and M 204
both trying to use M 204
both side of this M 204
both prior to its M 204
boy half to death M 203
boy born to her M 202
box over the area M 202
both ways as she M 202
both these he was M 202
both speak of his M 202
both here in new M 202
both feet or one M 202
both eyes in all M 202
box from the one M 201
boy told the old M 200
boy meant it for M 200
boy grew up his M 200
box such an air M 200
both were in one M 200
both like the idea M 200
both laid up with M 200
both been in this M 200
boy says he does M 198
box made of two M 198
box from an old M 198
both wish we had M 198
both were by this M 198
both over so that M 198
both give to him M 198
boy trying to leap M 196
boy clings to his M 196
both left wing and M 196
both fell in with M 196
both arms in his M 196
both along the path M 196
boy when he does M 194
boy used to put M 194
boy here is not M 194
both hope to see M 194
both eager to hear M 194
boy when he ran M 192
both years he was M 192
both used to get M 192
both poems is that M 192
both over the head M 192
both like to hear M 192
both have the idea M 192
both give up and M 192
boy back to him M 190
both what we now M 190
both seen as being M 190
both nearing the end M 190
both love to god M 190
both feet in her M 190
both eyes in any M 190
both come in with M 190
boy like me and M 188
boy come to see M 188
box when it has M 188
box down on his M 188
box down on her M 188
box ahead of him M 188
both think we are M 188
both feet as you M 188
both during the act M 188
both ends at one M 187
boy were to say M 186
box like an old M 186
both want to read M 186
both true to his M 186
both think of you M 186
both some of its M 186
both made the team M 186
both join me for M 186
both feel at ease M 186
both faith in and M 186
both eyes to bear M 186
both eyes on her M 186
both coming to see M 186
both ends to two M 185
boy whom no man M 184
both went on our M 184
both trying to put M 184
both time to get M 184
both sons of his M 184
both pick up and M 184
both ends to get M 184
both able to and M 184
boy such as this M 182
box over my head M 182
both said we had M 182
both ends so they M 182
both came to his M 182
both areas is that M 182
boy felt at ease M 180
box over to his M 180
box from the seat M 180
bow when he saw M 180
both were up and M 180
both want to run M 180
both need to put M 180
both giving to and M 180
both feet in this M 180
both ends in its M 180
both been in use M 180
boy trying to put M 178
boy think it does M 178
both told me not M 178
both living in and M 178
both knew the end M 178
both ideas in his M 178
both from us all M 178
bow many of them M 177
both will be one M 177
both over the top M 177
both live so long M 177
boy when the boy M 176
boy kept up his M 176
box over in her M 176
both work in this M 176
both more to fear M 176
both jump up and M 176
both feet on that M 176
both eyes in this M 176
box down so that M 175
both upon the path M 174
both knew we did M 174
both good to use M 174
both eyes or with M 174
both during the dry M 174
both angry at and M 174
both those in his M 173
boy will be dead M 172
boy trying to act M 172
boy says he did M 172
boy over on his M 172
boy from the far M 172
both when he has M 172
both were as yet M 172
both went to get M 172
both want to end M 172
both unto us and M 172
both sure it was M 172
both sets up and M 172
both high up and M 172
both from the arm M 172
both feed on and M 172
both from the rear M 171
boy will do his M 170
boy used to bring M 170
box over on its M 170
both when he saw M 170
both living at this M 170
both feet to get M 170
both arms on her M 170
boy will go out M 169
boy come to his M 168
both what it had M 168
both leading to and M 168
both eyes or one M 168
boy have to say M 166
box full of new M 166
box fell on his M 166
both told me you M 166
both part of god M 166
both died of old M 166
both arms at her M 166
both were in that M 165
both know by now M 165
boy said as they M 164
both teams as they M 164
both have to see M 164
both hate the east M 164
both from the mid M 164
both early in his M 164
both during the era M 164
boy well on his M 162
boy must go with M 162
boy left to his M 162
boy gave me his M 162
box sits on top M 162
box five or six M 162
both will be set M 162
both will be read M 162
both ways in its M 162
both love me and M 162
both grow up and M 162
both back to our M 162
both arms as they M 162
boy came by his M 160
box only by using M 160
bow down on his M 160
both woke up with M 160
both were to get M 160
both trying to say M 160
both there is that M 160
both seem to mean M 160
both saying is that M 160
both ready to put M 160
both over it and M 160
both ends to see M 160
both away in her M 160
box full of air M 159
boy when he read M 158
boy says to him M 158
boy came to get M 158
boy born to them M 158
both ways on that M 158
both rise or both M 158
both from the things M 158
both among my own M 158
boy what he did M 156
box just as she M 156
both when we get M 156
both when in use M 156
both turn on him M 156
both till the end M 156
both ready to die M 156
both make up our M 156
both keep up with M 156
both have to run M 156
both eyes of one M 156
box from the two M 155
boy went to one M 154
boy over at his M 154
both ways in two M 154
both take it with M 154
both seek to win M 154
both over to his M 154
both hold up our M 154
both come up for M 154
both came in with M 154
boy sits in his M 152
boy most of all M 152
boy down to him M 152
boy along the way M 152
both wish to get M 152
both want to try M 152
both such as had M 152
both said he had M 152
both need it and M 152
both know in our M 152
both knew it but M 152
both fell on our M 152
both ends or with M 152
both died on that M 152
both from the age M 151
boy used to lie M 150
boy grew up they M 150
boy even in his M 150
box used to add M 150
box laid on its M 150
both when the sun M 150
both were to see M 150
both told me this M 150
both tied to and M 150
both part of man M 150
both heard of and M 150
both eyes at this M 150
both coming up with M 150
both among the non M 150
bow down to each M 149
bow back to its M 149
boy there is not M 148
boy give up his M 148
box upon the earth M 148
box tied to his M 148
both work on this M 148
both what we had M 148
both upon the way M 148
both trying to bring M 148
both these he has M 148
both sets of law M 148
both seem to see M 148
both moving the arm M 148
both move on with M 148
both longing to see M 148
both left or both M 148
both knew the old M 148
both fail in doing M 148
both come to his M 148
both back to earth M 148
boy over the top M 146
boy coming to his M 146
boy born to him M 146
both ways in our M 146
both these we are M 146
both seem to use M 146
both made up for M 146
both love to see M 146
both have the two M 146
both have it and M 146
both felt at that M 146
both boys as they M 146
both born of and M 146
both areas of his M 146
boy trying to read M 144
boy gave the dog M 144
box when in use M 144
box upon the top M 144
box just the way M 144
both were on his M 144
both open to him M 144
both living in this M 144
both like to buy M 144
both into the pit M 144
both have an area M 144
both ends of him M 144
both back up and M 144
both show us that M 143
both ends by one M 143
boy went on all M 142
boy told the man M 142
boy like me had M 142
boy left in his M 142
boy died at age M 142
boy came in who M 142
boy came in his M 142
box full of rings M 142
bow down at her M 142
both were in her M 142
both those in our M 142
both sons of god M 142
both some of our M 142
both rule of law M 142
both knew in that M 142
both hold the eye M 142
both help to bring M 142
both fail of its M 142
both come to new M 142
both come to her M 142
both arms as you M 142
bow down to man M 141
boy will do all M 140
boy living on his M 140
box from the old M 140
both were to act M 140
both went up for M 140
both want to lead M 140
both upon the old M 140
both think of this M 140
both said we did M 140
both prior to this M 140
both must be cut M 140
both full of joy M 140
both from the day M 140
both what is fit M 139
boy know he was M 138
boy born in that M 138
boy born in new M 138
boy back to you M 138
bow down to men M 138
both want to put M 138
both true to its M 138
both speak to and M 138
both learn to use M 138
both felt at ease M 138
both eyes of all M 138
both ends on one M 138
both came up out M 138
both arms to one M 138
box full of that M 137
both areas so that M 137
boy came to new M 136
box made in two M 136
box back up and M 136
bow when he had M 136
both upon the head M 136
both true or they M 136
both need to sit M 136
both make up for M 136
both know if you M 136
both gone to see M 136
both from me both M 136
both feet in both M 136
both feel we are M 136
both fall in this M 136
both died in new M 136
both arms of each M 136
boy will do for M 134
boy what do you M 134
boy went so far M 134
boy told us was M 134
both upon the real M 134
both made it out M 134
both lost to her M 134
both have the long M 134
both give the lie M 134
box over so that M 133
boy when he can M 132
boy says he saw M 132
boy must do his M 132
boy gets the idea M 132
boy from the area M 132
box till the big M 132
box into the bag M 132
bow held in his M 132
both zero or both M 132
both want to bring M 132
both tell me they M 132
both seen it and M 132
both made up and M 132
both along the east M 132
both those of its M 131
boy sees the man M 130
boy lost in his M 130
boy hero of this M 130
boy bearing the key M 130
box full of this M 130
bow when the sun M 130
both upon king and M 130
both sure of that M 130
both open up new M 130
both open or both M 130
both have an easy M 130
both felt the heat M 130
both felt it had M 130
both fell to our M 130
both feel in our M 130
both back to new M 130
both areas it has M 130
both ahead of his M 130
both went to that M 129
boy will be one M 128
boy were to get M 128
boy told me all M 128
boy must be his M 128
boy look in his M 128
boy died of his M 128
boy come up with M 128
boy come in with M 128
bow ready to let M 128
both ways in all M 128
both wake up and M 128
both used to that M 128
both turn on and M 128
both seem to act M 128
both over king and M 128
both made by god M 128
both laid in one M 128
both into the new M 128
both here to see M 128
both heir to and M 128
both have in our M 128
both hate it and M 128
both from the poet M 128
both feet on this M 128
both even or odd M 128
boy pick up his M 126
boy made in his M 126
boy left on his M 126
boy gave up and M 126
box into the new M 126
both were to use M 126
both were on our M 126
both went to sit M 126
both uses of this M 126
both upon the top M 126
both turn to see M 126
both those he has M 126
both seem to lead M 126
both good to see M 126
both from the bar M 126
both fell by our M 126
both been in that M 126
both arms in air M 126
boy next to his M 124
boy lies in his M 124
boy leads the way M 124
boy gave to his M 124
boy early in his M 124
boy born to his M 124
both wind up dead M 124
both were at his M 124
both went to hear M 124
both upon my own M 124
both those on earth M 124
both knew of his M 124
both into the sky M 124
both have the one M 124
both gave to and M 124
both ends by its M 124
both down on our M 124
both died at age M 124
box down on top M 123
boy went in with M 122
boy want to get M 122
boy think of his M 122
boy knew of his M 122
box said it was M 122
both upon the men M 122
both there is not M 122
both there is but M 122
both take an oath M 122
both seek to use M 122
both make it out M 122
both lost to him M 122
both eyes on his M 122
both during the run M 122
both like it that M 121
boy what he has M 120
boy such as him M 120
boy sees in his M 120
boy here is going M 120
boy asks an old M 120
box were the two M 120
both true of his M 120
both those of her M 120
both sets of rings M 120
both seem to deal M 120
both made it and M 120
both left the area M 120
both knew by now M 120
both full of men M 120
both eyes of two M 120
both ends by long M 120
box when no one M 119
boy whom he does M 118
boy over to you M 118
boy make up his M 118
boy life do not M 118
boy home to her M 118
boy coming in with M 118
box must be put M 118
box just to see M 118
bow moving as you M 118
both ways to and M 118
both there to see M 118
both open to new M 118
both look at how M 118
both keen to see M 118
both ideas in one M 118
both back to him M 118
both arms on top M 118
both ways at one M 117
boy half my age M 116
boy during the year M 116
boy come to him M 116
box when he has M 116
box over the pit M 116
box held in his M 116
bow from the head M 116
both your king and M 116
both speak of its M 116
both sign up for M 116
both made in god M 116
both heard the cry M 116
both have the day M 116
both from the big M 116
both eyes on you M 116
both crying as they M 116
both arms or one M 116
boy want to see M 114
boy used to read M 114
boy made up for M 114
boy come up and M 114
boy away to his M 114
boy ahead of them M 114
boy able to read M 114
box open at top M 114
bow came up and M 114
both will be doing M 114
both when the day M 114
both ways is that M 114
both there is this M 114
both look up with M 114
both know the law M 114
both know it now M 114
both jobs to see M 114
both from the set M 114
both free to act M 114
both eyes if they M 114
both during the wet M 114
both down in one M 114
both died the day M 114
both boys in his M 114
both among the few M 114
both able to act M 114
boy woke up with M 112
boy went in for M 112
boy next to them M 112
boy like me doing M 112
boy from the path M 112
boy down in his M 112
box made of one M 112
box came to him M 112
both will be put M 112
both what by his M 112
both were by then M 112
both went so far M 112
both ways as long M 112
both wary of and M 112
both want to sit M 112
both think of and M 112
both sets of things M 112
both knew it for M 112
both ends so you M 112
both died the year M 112
both back in his M 112
boy whom we can M 110
boy whom he can M 110
boy were it not M 110
boy grew up not M 110
boy down to see M 110
boy down the path M 110
bow like the one M 110
both will be too M 110
both whom he had M 110
both ways if they M 110
both told us they M 110
both take the day M 110
both sons of one M 110
both good at and M 110
both from the map M 110
both ends if you M 110
both during the meal M 110
both died in her M 110
both look at one M 109
boy will go and M 108
boy whom he and M 108
boy were the son M 108
boy trying to run M 108
boy says it was M 108
boy lost an eye M 108
box open on his M 108
box made of deal M 108
box full of dry M 108
box full of dead M 108
box from the boy M 108
bow tied to his M 108
bow from the two M 108
both young in age M 108
both what is new M 108
both upon the things M 108
both take it and M 108
both show the way M 108
both need to let M 108
both left the old M 108
both gave in this M 108
both from the too M 108
both ages in its M 108
boy upon the top M 107
boy went to this M 106
boy pile on his M 106
boy gets to his M 106
boy came in one M 106
boy back to say M 106
box made of lead M 106
box from the man M 106
box done up with M 106
bow from the top M 106
both will be low M 106
both were to end M 106
both show us how M 106
both seek the one M 106
both part of him M 106
both must be had M 106
both make up and M 106
both look so sad M 106
both link up with M 106
both knew the man M 106
both knew by then M 106
both here on this M 106
both eyes on its M 106
both come to one M 106
both arms in that M 106
both acts on and M 106
both acts of god M 106
box told me that M 105
both will be out M 105
both eyes on top M 105
both come in two M 105
boy when we get M 104
boy trying to fly M 104
boy till he has M 104
boy till he can M 104
boy said to you M 104
boy safe in his M 104
boy runs up and M 104
boy puts up his M 104
boy gave it all M 104
boy came at him M 104
box into the top M 104
both young or old M 104
both when he does M 104
both what the poet M 104
both upon the near M 104
both trying to act M 104
both over the arm M 104
both eyes we see M 104
both came to mean M 104
boy says to her M 102
boy prior to his M 102
boy must be won M 102
boy gave in and M 102
boy felt it was M 102
boy born of our M 102
box down on its M 102
both when he got M 102
both what is real M 102
both went to law M 102
both well to die M 102
both ways on all M 102
both ways at this M 102
both taking in and M 102
both speak of her M 102
both seem to bear M 102
both said to her M 102
both making it and M 102
both live in that M 102
both gave up our M 102
both eyes on them M 102
both arms or with M 102
both areas is not M 102
both acting on and M 102
box open on her M 101
box full of big M 101
both zero so that M 101
boy time to get M 100
boy part of him M 100
boy learn to read M 100
box over the way M 100
box next to you M 100
box along the way M 100
both turn on you M 100
both those of old M 100
both speak to him M 100
both need to deal M 100
both made by men M 100
both like to put M 100
both know it did M 100
both here at this M 100
both hard to read M 100
both eyes as with M 100
both back to that M 100
both areas of our M 100
boy just my age M 99
boy held it out M 99
both must go out M 99
boy will be far M 98
boy were to ask M 98
boy used to run M 98
boy sent to him M 98
boy most of his M 98
boy like my own M 98
boy just as she M 98
boy here to see M 98
boy from the red M 98
box sent to him M 98
bow tied at her M 98
bow over the top M 98
both years of his M 98
both wore the red M 98
both will be for M 98
both when the new M 98
both were in for M 98
both were in due M 98
both used it for M 98
both swear by him M 98
both need to try M 98
both life on earth M 98
both leave us with M 98
both into the way M 98
both here in his M 98
both held in new M 98
both heir at law M 98
both have to let M 98
both have the aim M 98
both give up our M 98
both from the ease M 98
both from the dry M 98
both from the death M 98
both from the bad M 98
both from an old M 98
both feet on her M 98
both feet as far M 98
both ends on each M 98
both come to that M 98
both been up for M 98
both those on and M 97
both ends is that M 97
boy trying to earn M 96
boy said the man M 96
boy past the age M 96
boy from the way M 96
box next to set M 96
box made of this M 96
box into it and M 96
box fell on her M 96
bow bent to its M 96
both years of our M 96
both years in all M 96
both wish it may M 96
both were by now M 96
both talk to and M 96
both reach the age M 96
both much of that M 96
both lost it and M 96
both just as they M 96
both find it easy M 96
both feet do not M 96
both ends to one M 96
both during it and M 96
both came to them M 96
both came at him M 96
both been in our M 96
both ahead of its M 96
both able to say M 96
boy tell me that M 95
boy will be put M 94
boy will be old M 94
boy told me with M 94
boy meant to him M 94
boy living in one M 94
boy down the long M 94
box till he had M 94
box back on its M 94
bow will be cut M 94
bow over the head M 94
both when the head M 94
both were on this M 94
both were of low M 94
both upon the dead M 94
both trying to read M 94
both trying to buy M 94
both these the law M 94
both talk to them M 94
both speak of you M 94
both sign it and M 94
both sick to death M 94
both next to and M 94
both lost in this M 94
both learn to read M 94
both just to them M 94
both from the sin M 94
both five or six M 94
both fail to bring M 94
both been on our M 94
both areas of her M 94
boy must go out M 93
boy grew to man M 93
box will be one M 93
both tell me you M 93
both live in one M 93
boy over to them M 92
boy kept up with M 92
boy into it and M 92
boy have to die M 92
boy came to that M 92
boy born on that M 92
both wish to use M 92
both when we use M 92
both when on and M 92
both ways by using M 92
both think of each M 92
both seen in this M 92
both rest on and M 92
both move up and M 92
both make it easy M 92
both help in this M 92
both have to ask M 92
both have an odd M 92
both from the path M 92
both fell in this M 92
both feet as she M 92
both eyes on that M 92
both eyes of this M 92
both ends it was M 92
both coming to this M 92
box full of odd M 91
both want it that M 91
both into the one M 91
both during the new M 91
boy must be her M 90
boy like the son M 90
boy have to pay M 90
boy from the bar M 90
box tops to get M 90
box once it has M 90
both went to this M 90
both went to one M 90
both went on and M 90
both used by him M 90
both trying to see M 90
both trying to deal M 90
both tied up and M 90
both show the use M 90
both sent by god M 90
both reach the end M 90
both like to win M 90
both left me and M 90
both knew if they M 90
both from the boy M 90
both feel it and M 90
both eyes of his M 90
both clear on that M 90
both arms to hang M 90
both areas of low M 90
both areas he was M 90
bow made of one M 89
boy will do him M 88
boy what he saw M 88
boy went to new M 88
boy sits at his M 88
boy sent to his M 88
boy living in this M 88
boy into the pit M 88
boy hold up her M 88
boy during the long M 88
boy clinging to its M 88
boy came up out M 88
boy came up for M 88
boy along to see M 88
box made of red M 88
box ever in his M 88
box down to her M 88
bow down in all M 88
both young at this M 88
both when the war M 88
both were of too M 88
both ways we are M 88
both wars it was M 88
both trying to run M 88
both think of him M 88
both sets of new M 88
both sent to him M 88
both must be non M 88
both made by and M 88
both look at this M 88
both fell in and M 88
both eyes as they M 88
both ends is too M 88
both been in new M 88
both been by this M 88
both back to you M 88
boy went to ask M 86
boy went by with M 86
boy used to ask M 86
boy must be going M 86
boy ends up with M 86
boy done to you M 86
boy come to our M 86
boy born in his M 86
box when we got M 86
box just as they M 86
box away in her M 86
both zero in this M 86
both were in war M 86
both were at ease M 86
both ways on each M 86
both ways in her M 86
both treat of things M 86
both those in this M 86
both ready to fly M 86
both meet in his M 86
both mark the end M 86
both make up but M 86
both look at you M 86
both like to die M 86
both have to earn M 86
both have of this M 86
both good or ill M 86
both felt at this M 86
both feel we can M 86
both down to his M 86
both been so ill M 86
both back to its M 86
both areas do not M 86
both angry at his M 86
bow tied on top M 85
both half to death M 85
both gone to new M 85
both came to that M 85
boy used to beat M 84
boy told us how M 84
boy told me she M 84
boy just to get M 84
boy just do not M 84
boy from the log M 84
boy fell in and M 84
boy down to that M 84
boy away in her M 84
box into my own M 84
box during the new M 84
both what it did M 84
both were up for M 84
both were of age M 84
both ways we can M 84
both ways he was M 84
both used to set M 84
both used to and M 84
both tears of joy M 84
both speak to this M 84
both side of his M 84
both must be got M 84
both making up for M 84
both like to use M 84
both know the man M 84
both know of this M 84
both jobs in one M 84
both have to buy M 84
both good in dry M 84
both glad of that M 84
both giving it and M 84
both give the year M 84
both from the job M 84
both find it and M 84
both felt in our M 84
both felt he had M 84
both bind to and M 84
both been in and M 84
both ahead of her M 84
both acting in this M 84
both ways on one M 83
both living in that M 83
both ends on two M 83
boy when he sat M 82
boy taking the lead M 82
boy must be led M 82
boy look at him M 82
boy among us who M 82
box onto the seat M 82
box next to all M 82
box from the box M 82
box back at him M 82
both years the two M 82
both when the old M 82
both when he did M 82
both what is out M 82
both what he and M 82
both were as one M 82
both ways at all M 82
both used by and M 82
both told us how M 82
both till we are M 82
both those of long M 82
both there is sin M 82
both take it easy M 82
both sons of men M 82
both seen in one M 82
both seem as they M 82
both said it had M 82
both live in our M 82
both kids or both M 82
both heads of this M 82
both have to bring M 82
both glad it was M 82
both from the near M 82
both free of any M 82
both felt as they M 82
both feet in and M 82
both ends up and M 82
both deep in our M 82
both come to lie M 82
both arms at him M 82
both these the being M 81
boy will be too M 80
boy when the two M 80
boy when he put M 80
boy trying to win M 80
boy look at her M 80
boy home on his M 80
boy from my old M 80
bow down on one M 80
both work in and M 80
both want to die M 80
both wake up with M 80
both used it and M 80
both turn to him M 80
both take me for M 80
both speak of war M 80
both seem to run M 80
both join us for M 80
both hope to get M 80
both giving up and M 80
both gave in and M 80
both feet on all M 80
both feed on each M 80
both ends as they M 80
both eaten up with M 80
both born in and M 80
both arms in this M 80
both areas we are M 80
both areas as they M 80
both among the lay M 71
box such as one M 68
bow down so that M 65
bow from the box M 57
boy must be out M 52
both ends is one M 51
boy will be out M 50
both from the mean M 50
bow high in air M 47
both years so that M 46
boy when no one M 45
both will go out M 44
both those of one M 43
both from the lay M 43
both along the top M 43
box into the rear M 42
both make is that M 42
box open at each M 41
box back on top M 41
bow ready in his M 41
bow back to his M 41
both ends so far M 41
both upon the age M 40
both knew no one M 40
bow down to thee D 7474
both went to bed D 3402
bob told me that D 2557
boy went to bed D 1597
bob said he did D 1324
bob said he was D 1218
both legs on one D 1194
boy clung to his D 1090
both took it for D 1028
bob said he had D 914
both from sea and D 892
bob said it was D 872
both gone to bed D 850
boy rose to his D 848
both drew on and D 832
boy took me out D 823
boy clung to her D 778
boy took to his D 766
box pops up and D 724
boy took it and D 708
both legs or both D 692
bob came up with D 682
bob when he was D 678
both from the pen D 618
boy took up his D 610
both tend to see D 584
both legs up and D 544
bob used to say D 544
box made of thin D 524
both must be met D 510
boy whom he met D 508
box pops up with D 496
bob came in and D 462
bob went to his D 456
box from the car D 446
both legs to one D 433
both rose to our D 432
bow down thy head D 428
bob told us that D 423
boy whom we met D 418
bob smith of new D 415
bob knew he was D 412
both tend to use D 398
boy clung to him D 396
both legs of his D 392
both legs so that D 379
both from the art D 378
both legs of one D 376
both legs in one D 370
boy threw up his D 366
bob came to see D 366
bob went to see D 360
both chew the cud D 356
boy into the car D 352
both were in bed D 350
bob held up his D 336
box when the lid D 320
bob knew he had D 312
bob knew it was D 304
bow guns to bear D 303
boy when he met D 294
boy from the inn D 294
box onto the bed D 287
both sets of sex D 282
both shot to death D 280
box pops up that D 279
both legs of each D 276
bob came in with D 276
both deep sea and D 272
both fond of him D 268
box into the car D 266
bow into the seas D 260
both took the oath D 260
box made of tin D 258
boy full of fun D 244
both onto the bed D 244
both flew to her D 240
bob said to him D 230
boy from the car D 228
bob said to his D 224
boy bled to death D 222
both akin to and D 220
boy riding on his D 218
bob felt he was D 216
bob felt it was D 214
both tend to get D 212
both into the car D 210
bob said as they D 210
both heard the car D 202
bob told me how D 202
boy clung in his D 198
bob said in his D 198
both sick in bed D 196
bob told me you D 196
boy flew at him D 194
bog down in mud D 193
boy leaning on his D 192
both shot at and D 192
both full of fun D 192
bob felt he had D 192
boy took it with D 188
both legs as far D 188
bob said to her D 188
both tend to bring D 186
both pave the way D 186
bob hope in his D 186
both from the oil D 185
bob rose to his D 184
boy drew in his D 182
both from the gas D 182
bob went to get D 182
bob dole is not D 182
bob came up and D 182
bob took the dead D 180
both when he sang D 178
both dating as far D 178
both fond of her D 176
bow made of yew D 175
bob dole in his D 170
both rose up and D 168
bob says he has D 168
boy took the lead D 166
box from the bed D 166
both spin up and D 166
bob went to bed D 166
boy lies in bed D 162
both their sea and D 162
boy took it for D 160
boy took the gun D 158
both from the hot D 158
boy upon my lap D 156
boy flat on his D 154
boy took the old D 152
boy sank to his D 152
box from the van D 152
both paws on his D 152
both legs at one D 152
bob what he was D 152
both north sea and D 150
bog down in its D 150
bob threw up his D 150
bow slung on his D 149
both tend to lead D 148
box full of gas D 146
both sets of toes D 146
both from the bed D 146
both over sea and D 144
boy back to bed D 143
boy drew up his D 142
box full of ice D 142
bob told me this D 142
bob hope on his D 140
bob gave me his D 140
both from the tax D 139
bow wave as she D 138
both guns in his D 138
bob made up his D 138
both clung to each D 136
bob says he does D 136
both from the raw D 135
boy rose up and D 134
boy grin on his D 134
boy bore up long D 134
both high in fat D 134
bob told me his D 134
boy took the bag D 132
both riding on one D 132
bob says it was D 132
boy whim to its D 130
both took an oath D 130
bob went on his D 130
boy took it all D 128
box seats at each D 128
both took to our D 126
both legs of this D 126
bog down in this D 126
box tool to add D 124
bog down at this D 124
bob when he had D 124
bob says he can D 124
bob came to her D 124
both fond of and D 122
both clung to him D 122
bob dole as his D 122
bow when he met D 121
boy from the bus D 120
both legs to his D 120
both gazing at her D 120
both fond of each D 120
boy away to bed D 118
bow into the tie D 118
bow here to sir D 118
both took on new D 118
both tend to run D 118
both tend to put D 118
box like the bed D 116
box into the van D 116
both have to wear D 116
both from the car D 116
bob went up and D 116
bob came to his D 116
bob back to his D 116
both axes so that D 113
bow into the mud D 112
boy shot to death D 110
box seats to see D 110
bow slung at his D 108
both john doe and D 108
both work of art D 107
bob took the lead D 107
both paws on her D 106
both legs is not D 106
both legs as you D 106
both into the lap D 106
boy sobs in his D 104
bow shot or two D 104
both lied to each D 104
both hers on his D 104
bob went on with D 104
bob went in and D 104
boy took an oath D 102
boy flung up his D 102
both legs or one D 102
both gazing at him D 102
both gazing at each D 102
bow shot of each D 100
both upon sea and D 100
both legs on each D 100
both fond of this D 100
bob took it and D 100
boy when we met D 98
boy rode up and D 98
both these in thee D 98
both left the car D 98
bog down if you D 98
box full of hay D 97
boy upon the bed D 96
boy from the bed D 96
both when we met D 96
both shot at him D 96
both rows of his D 96
both eyes on thee D 96
both ends to seal D 96
both blew up with D 96
bob woke up and D 96
bob said he saw D 96
bob said he and D 96
both took the lead D 95
boy leaning on her D 94
both paws to his D 94
both from the bay D 94
both felt the sting D 94
bob when he got D 94
boy took the bow D 92
boy firm of fox D 92
both tend to act D 92
both legs or wings D 92
both hips or both D 92
both fond of you D 92
both been in bed D 92
bob went to put D 92
bob fell in with D 92
boy gaping at its D 90
box rose as one D 90
both clung to her D 90
both clad in long D 90
bob says he was D 90
box into the bed D 89
boy when the earl D 88
boy took the cup D 88
boy shot at her D 88
boy rose up who D 88
bow rose up and D 88
both took the day D 88
both tall or both D 88
both legs on his D 88
bob came by and D 88
bog down in red D 87
both taxing me and D 86
both knew the guy D 86
both bled to death D 86
bob gets up and D 86
bob came in for D 86
both took to each D 84
both into the mud D 84
both from the gag D 84
both arms to rub D 84
bob leading the way D 84
bob came to our D 84
boy took the box D 82
both must be fed D 82
both legs in this D 82
bog down in his D 82
bob what he had D 82
bob gave up his D 82
boy hears the hum D 80
both sped up and D 80
both sets of ears D 80
bob from the top D 53
box full of hot D 42
both pale as death D 40
