boring you ? " M 4086
born with . " M 3600
born yet . " M 2566
boring you . " M 2434
boys are . " M 2132
born dead . " M 1800
born son . " M 1768
body bag . " M 1698
boys doing ? " M 1510
born then . " M 1342
body heat . " M 1290
born men . " M 1269
born for . " M 1214
book yet ? " M 1181
book now . " M 1132
book going ? " M 1056
body now ? " M 996
book yet . " M 968
boys now . " M 880
book now ? " M 880
bone dry . " M 873
book too . " M 862
body too . " M 782
boys did . " M 776
boys say . " M 762
book for ? " M 736
body now . " M 710
book out . " M 676
body yet . " M 664
book say ? " M 648
body out . " M 646
born yet ? " M 640
boys too . " M 634
body does . " M 630
book him . " M 622
born with ? " M 608
boys going ? " M 606
boys now ? " M 582
body was . " M 572
book bag . " M 562
born one . " M 551
born old . " M 536
body yet ? " M 536
boys out . " M 514
boys are ! " M 482
born man . " M 476
boys off . " M 466
born yet ! " M 453
bold man . " M 438
book deal . " M 424
born bad . " M 398
boys are ? " M 392
book you . " M 392
born poet . " M 386
bold one . " M 384
book does . " M 364
boring job . " M 314
book one . " M 308
born for ? " M 292
bold men . " M 292
book too ? " M 270
born then ? " M 260
book then . " M 252
body bag ? " M 252
boring things . " M 248
book was ? " M 248
boys say ? " M 246
born now . " M 246
body then ? " M 244
book out ? " M 242
book bag ? " M 242
boys yet . " M 240
born dead ? " M 234
boys yet ? " M 232
book then ? " M 228
body ego . " M 222
born with ! " M 220
body lay . " M 220
book has . " M 210
boys too ? " M 194
bone meal . " M 193
book two . " M 186
born then ! " M 184
book for . " M 180
body was ? " M 180
bold lead . " M 176
bows out . " M 174
boys now ! " M 166
boys can . " M 166
boring day . " M 166
boys with . " M 164
bone age . " M 162
book doing ? " M 156
body bag ! " M 156
book was . " M 154
body did . " M 154
book now ! " M 152
body then . " M 150
book him ? " M 148
book man . " M 147
book deal ? " M 147
body heat ? " M 145
book idea . " M 144
boring too . " M 143
born dead ! " M 142
boys out ? " M 136
boys then . " M 134
body out ? " M 134
book her . " M 132
body off . " M 130
book them . " M 128
book you ? " M 127
boring man . " M 124
boring you ! " M 122
book too ! " M 120
body now ! " M 120
boys then ? " M 118
boring him . " M 118
born son ? " M 112
boring one . " M 111
boys for ? " M 110
body too ? " M 110
body both . " M 108
body for ? " M 106
boys had . " M 104
born him . " M 104
body heal . " M 102
bold man ! " M 98
born day . " M 97
boring now . " M 96
body has . " M 92
body too ! " M 90
born too . " M 89
boys with ? " M 88
born for ! " M 88
boring them . " M 86
boys get ? " M 84
bold one ! " M 84
body out ! " M 84
body can . " M 83
book read . " M 82
born son ! " M 68
body man . " M 56
bone man . " M 51
