spa tub for two D 318
spa and hot tub D 247
spy who was not D 237
spy out all his D 214
spy them out and D 184
spy who can not D 177
spy who did not D 176
spy and that she D 170
spy and that his D 166
spy out all that D 164
spy who does not D 160
spy for him and D 152
spy thee near her D 138
spy for them and D 129
spy and did not D 119
spy who was with D 118
spa has its own D 111
spy and that you D 110
spy out how ill D 100
spy her out and D 96
spy for his own D 94
spy and who was D 94
spa with its own D 94
spy out all our D 86
spy and had him D 84
spy and you are D 80
spy and she was D 80
