key and a public M 1358
key and a letter M 764
key for a moment M 704
key and a secret M 381
key for a better M 313
key and a number M 312
key for a second M 298
key for a record M 281
key and a little M 266
key has a unique M 256
key with a number M 248
key and a second M 240
key has a special M 184
key with a little M 178
key has a number M 160
key and a unique M 158
key with a letter M 143
key for a proper M 140
key with a friend M 136
key was a symbol M 114
key was a simple M 110
key for a minute M 107
key things i learned M 102
key with a becoming M 98
key was a common M 88
key and a record M 73
key and a special M 56
key for a number M 55
key and a couple M 55
key for a couple M 51
key and a master M 51
key and a candle M 51
key with a public M 49
key for a person M 48
key and a random M 47
key with a second M 43
key and a person M 43
key and a matching M 43
key with a slight M 41
key for a future M 41
ken and i walked D 306
ken and i looked D 220
ken and i talked D 210
ken was a little D 202
ken and i worked D 162
ken and i agreed D 146
key and a silver D 130
ken and i thought D 106
key was a lawyer D 102
ken and i shared D 94
ken was a member D 92
ken that a kindly D 91
ken and i became D 90
key was a recent D 86
