ivy clings to the D 1311
ivy clinging to the D 989
ivy clung to the D 610
ivy grew up the D 207
ivy went to the D 160
ivy says so in D 144
ivy grew on the D 142
ivy swinging in the D 136
ivy vine on the D 130
ivy clinging to it D 94
