years went by . M 49374
years gone by . M 38902
years went on . M 16492
years pass by . M 4328
years were up . M 2618
years from us . M 2434
years wore on . M 2230
years gone by ? M 1512
years pass on . M 1078
years from ca . M 822
years gone by ! M 800
years upon it . M 656
years over it . M 634
years will be . M 626
yell went up . M 528
years into it . M 510
years among us . M 476
years from me . M 462
years from it . M 398
years went by ? M 346
years will do . M 338
years move on . M 336
years from the . M 268
years pile up . M 238
years pass by ? M 178
years left me . M 152
years making it . M 142
years went by ! M 140
years told me . M 136
years must go . M 130
years upon me . M 126
years went on ? M 110
years prior to . M 108
years must be . M 106
years were up ? M 98
years flow on . M 90
years coming up . M 88
years rush by . M 86
years flow by . M 80
yell into it . M 40
