yellow and green . M 18561
yellow and white . M 17005
yellow and black . M 15607
yellow and brown . M 10493
yellow and orange . M 9594
yellow and round . M 472
yelled out again . M 456
yellow than green . M 446
yellow than white . M 388
yellow and faded . M 336
yellow and sweet . M 326
yearned for action . M 318
yellow end point . M 290
yelled his father . M 246
yearned for sleep . M 238
yelled and cried . M 206
yellow and black ? M 196
yellow than brown . M 186
yellow with light . M 184
yelled for quiet . M 176
yellow with white . M 162
yellow than usual . M 160
yearnings and hopes . M 158
yearned for change . M 156
yellow and green ? M 154
yellow and small . M 152
yellow with acids . M 150
yellow bug light . M 146
yellow and white ! M 140
yellow and white ? M 134
yelled and swore . M 134
yelled her father . M 132
yellow than others . M 130
yearnings and dreams . M 122
yellow and strong . M 120
yelled his mother . M 116
yellow than black . M 108
yellow with black . M 106
yellow and lined . M 102
yellow and tough . M 100
yellow and drawn . M 94
yellow and falling . M 92
yelled her mother . M 92
yellow than orange . M 90
yellow and black ! M 86
yelled for order . M 86
yellow and orange ? M 84
yearned for light . M 84
yellow for women . M 82
yellow and green ! M 82
yearnings and needs . M 82
yellow with green . M 80
