blood , " he M 33052
black , " the M 21675
blood , " the M 18076
black , " he M 12786
blood , " as M 9442
blind , " he M 8767
block , " the M 6623
blame , " he M 6244
blood , " or M 5784
blood , " in M 5753
black , " or M 5504
block , " he M 4587
blood , " is M 4109
bliss , " the M 3832
blind , " the M 3759
blood , " to M 3686
black , " in M 3673
black , " as M 3460
blood , " it M 2955
black , " is M 2443
bliss , " he M 1937
blood , " we M 1775
black , " it M 1770
blind , " as M 1722
blind , " in M 1720
blows , " he M 1716
blood , " by M 1671
blind , " or M 1622
blood , " so M 1585
block , " or M 1578
blame , " the M 1573
block , " as M 1325
blood , " of M 1320
black , " to M 1298
blood : " the M 1289
black : " the M 1197
black , " an M 1111
block , " in M 1098
black , " on M 1018
blood , " an M 964
black , " we M 964
blowing , " he M 898
bliss , " as M 871
blows , " the M 786
blame : " the M 767
blood , " if M 756
block , " an M 736
blind , " is M 701
bless , " he M 681
blind , " to M 672
black , " by M 670
blind , " by M 635
block , " is M 604
bliss , " in M 599
bliss , " or M 562
block , " on M 550
bliss , " is M 547
black , " so M 543
blind , " it M 538
blind , " so M 490
blood , " my M 482
block : " the M 466
black , " of M 466
blood : " it M 464
blown , " he M 458
blame , " as M 436
blowing , " the M 416
blood , " on M 413
blows , " as M 394
blame : " it M 388
block , " to M 385
blood : " he M 364
block , " it M 361
blame , " is M 352
black , " at M 338
bliss : " the M 336
blame , " in M 316
bliss , " to M 315
black , " if M 312
blood , " no M 311
blowing , " or M 308
blame , " or M 308
bliss , " we M 305
blows , " or M 300
block , " so M 295
blood : " in M 290
blind , " we M 290
blowing , " as M 279
black : " it M 271
blood : " we M 268
blood : " if M 250
blood , " at M 238
blowing , " in M 231
blows , " is M 228
black , " do M 228
block , " of M 225
bless , " the M 224
blown , " the M 220
blame , " it M 212
blame : " we M 204
blood , " be M 201
blows , " we M 200
bliss , " of M 200
bliss , " it M 199
black : " we M 198
bless , " or M 193
black : " in M 189
blame : " if M 186
blows , " it M 182
blown , " as M 179
block , " we M 172
bless , " is M 163
block , " if M 161
blind , " an M 160
black , " my M 160
blood : " my M 158
blown , " or M 153
blind , " if M 152
black , " no M 147
blame : " he M 136
blame , " to M 136
blind : " the M 135
blood , " do M 133
bliss , " by M 128
blind , " my M 126
block , " by M 116
blind , " be M 116
blind , " on M 115
blowing , " is M 114
blood : " to M 101
blame , " if M 101
block : " we M 100
blind , " of M 100
black : " my M 98
blood : " so M 90
blood : " do M 90
blown , " it M 88
bless , " as M 70
blame , " we M 63
blows , " so M 61
bliss , " so M 54
blows , " to M 50
blame , " my M 48
blows : " the M 47
blame : " my M 46
black : " no M 44
blows , " in M 43
bless , " in M 43
blood : " no M 42
block : " it M 41
blame : " in M 41
