black with a red M 4039
blame you a bit M 4008
black with a few M 2471
blood for a long M 2068
black and i was M 1812
blame him a bit M 1788
blood for a few M 1779
black and a red M 1639
blame her a bit M 1629
blood and a few M 1461
black with a long M 1241
black and a few M 1164
blind for a long M 1097
black for a year M 1088
black for a few M 983
blood and i was M 959
blind for a few M 944
blowing out a long M 936
blood that i had M 932
blame them a bit M 892
blame for a lot M 872
blood with a low M 850
blood for a year M 842
black and i had M 790
blind that i can M 768
blame for a bad M 768
blood and a new M 722
black man i had M 636
blood that i can M 623
blind now i see M 620
block for a few M 576
blood that i was M 562
bless god i can M 555
block for a new M 554
block with a new M 544
blood has a low M 528
block with a long M 512
block for a long M 512
blowing for a long M 494
black for a long M 484
block and a new M 466
blind for a year M 462
blood and i had M 446
blind that i did M 424
blood and i can M 422
blows for a few M 420
blind that i was M 411
blood and a lot M 409
blind and i was M 394
block with a few M 384
black with a big M 384
blind and i can M 382
block and a few M 376
black and i can M 362
blowing for a few M 348
blood with a few M 339
blown for a long M 330
black was a man M 330
blows for a long M 329
blowing and i was M 324
block with a low M 322
block and i was M 320
blood and i did M 296
blind but i can M 286
blood for a day M 284
block that i had M 278
block out a lot M 277
black that i was M 272
bless god i was M 268
bliss that i was M 267
black and i did M 256
blame not a man M 254
black and a man M 254
blood goes a long M 252
bliss for a man M 246
blood and a low M 244
blood than i had M 242
black and a bit M 240
blows with a man M 233
bliss that i had M 232
black that i had M 232
black that i can M 226
black with a lot M 220
black eye i had M 220
blood and a man M 219
blood and i all M 218
bliss for a few M 216
blood and a red M 209
black for a day M 206
black and i are M 204
black for a man M 202
blame for a war M 199
block and i had M 194
blood that i did M 192
blood and a long M 192
blown for a few M 188
blood that i may M 188
blows out a long M 186
blind man i did M 184
blame that i did M 183
block with a big M 182
black man a few M 182
blame than i had M 180
black men i had M 180
black and a long M 178
blood and a bit M 177
bliss for a long M 177
black men i mean M 176
blame than i was M 172
blood with a new M 171
blood with a dry M 168
blood and a big M 166
blame that i can M 162
block with a two M 161
blown off a few M 160
block that i was M 160
blowing out a few M 158
blood for a man M 158
blind that i had M 157
blind for a day M 157
black with a bit M 157
bless with a long M 155
blood that i now M 154
blood that a man M 154
blood than a man M 152
block and a long M 152
black that a man M 150
block was a long M 149
blame for a death M 149
blood and i saw M 148
blind path i had M 148
blood with a wet M 146
blood but i did M 146
block for a year M 146
block with a lot M 144
blowing out a big M 142
black that i did M 142
blood for a new M 138
block and a set M 138
blood has a red M 134
black man i was M 134
black with a low M 132
blood with a cup M 130
blows with a long M 128
blood and i got M 128
block out a few M 128
blind and a few M 128
blowing and i had M 126
blind man i had M 126
blowing off a lot M 124
blowing and a few M 124
black but a few M 124
blood with a red M 123
blood and a dead M 122
black man i saw M 122
black has a red M 120
blame for a man M 118
bless god i had M 117
black and i saw M 116
block with a set M 114
blows that i had M 112
black and i say M 112
blood that i saw M 110
blame that i was M 110
black one i had M 110
black and a lot M 110
block and a low M 109
blowing for a day M 108
block and i can M 108
black that i saw M 108
black and a new M 108
blown out a few M 106
block and a bit M 106
bless you i saw M 106
black bear i had M 106
blows that i was M 105
blown and i got M 105
block has a long M 104
blown but a few M 102
blood has a long M 102
block and i saw M 102
blows and a year M 100
blood with a man M 100
black man a job M 98
block and a man M 97
blows and a few M 96
blood with a song M 96
bless god i did M 96
blood was a bit M 94
blood has a lot M 94
blood but i was M 92
block with a sun M 92
block was a big M 92
block for a head M 92
blind man i was M 92
black but i can M 92
blood and a weak M 90
block was a new M 90
black with a top M 90
black man i can M 90
blowing out a lot M 88
blood add a few M 86
bliss was a man M 82
blind and i had M 82
blown off a lot M 80
bliss and i had M 80
blind fear i let M 80
blame for a long M 72
block and a two M 59
blood with a mean M 57
blame for a few M 56
blame and i was M 51
block and a box M 48
blame for a job M 48
blows for a day M 46
blame that i had M 41
block for a man M 40
bloom for a long D 1676
blend for a few D 1658
blank for a few D 1375
blade and a long D 924
bleed for a long D 759
black with a thin D 612
bloom for a few D 562
bleed for a few D 518
blade with a long D 512
black with a tinge D 511
blows with a rod D 489
blurt out a few D 481
blank for a long D 392
blank that i was D 390
blues and i can D 348
bluer than i had D 324
block with a thin D 298
black with a row D 263
blaze for a few D 261
bloom for a day D 246
blast for a few D 244
blink for a long D 222
blank and i was D 214
blade for a few D 212
blazing with a new D 208
bloom for a year D 197
blank that i had D 192
blade and a new D 186
blank and i can D 178
bleach for a few D 175
blink for a few D 174
black and a bay D 173
blush that i was D 164
blood with a rag D 164
blues and a few D 162
blade and a few D 160
blade that i had D 156
blowing out a thin D 152
blade for a long D 152
blazing for a few D 150
blind and a deaf D 142
blank with a sum D 142
bloke with a big D 140
black with a hat D 138
blank that i did D 136
blade and a tang D 136
blaze for a long D 135
blank for a new D 132
blade with a thin D 132
bloom and a big D 130
block with a hot D 130
blood and a thin D 122
blast and i was D 122
black with a tan D 121
bloom and a few D 119
blade with a new D 112
bluff for a long D 110
blank for a job D 110
blush and a bow D 108
blots out a sin D 108
blues for a long D 106
bloom and i was D 104
bleed and i was D 104
blade with a tang D 104
blaze with a new D 102
blank with a low D 102
bland was a man D 102
blast out a few D 100
blade has a long D 100
blaze out a new D 98
black and a thin D 98
blank and i had D 96
blurt out a lot D 94
black with a gun D 94
blown with a fan D 92
blank with a few D 92
bluff that i was D 91
block was a row D 90
blind man i met D 88
blade with a rag D 88
blade nor a leaf D 88
blade and a low D 88
black with a ski D 86
blazing with a mad D 84
blurb for a new D 80
blaze put a new D 80
blond with a long D 53
blush that i had D 48
bluff for a few D 44
block with a pin D 44
blond with a big D 42
blend with a few D 41
blaze out a path D 40
