exist in a state M 46972
exist in a world M 21276
exist in a given M 15014
exist as a state M 6502
exist at a given M 5898
exist in a large M 5552
exist as a human M 3638
exist as a whole M 3610
exist as a legal M 3448
exist in a small M 3318
exist in a place M 3232
exist as a people M 3230
exist as a group M 2524
exist on a large M 2520
exist as a solid M 2517
exist at a point M 2380
exist as a class M 2123
exist in a space M 2116
exist as a party M 1954
exist as a viable M 1908
exist in a group M 1819
exist in a human M 1560
exist in a solid M 1548
exist in a fluid M 1468
exist to a large M 1452
exist in a healthy M 1376
exist on a plane M 1166
exist on a small M 1154
exist as a thinking M 1145
exist in a legal M 1120
exist on a scale M 1108
exist at a lower M 1096
exist in a child M 1074
exist as a small M 1006
exist on a given M 1002
exist in a field M 976
exist in a fixed M 922
exist as a major M 898
exist as a power M 896
exist as a force M 846
exist at a later M 843
exist in a moral M 812
exist as a unity M 806
exist in a steady M 794
exist as a moral M 720
exist in a class M 683
exist in a period M 653
exist as a world M 641
exist as a place M 636
exile in a world M 618
exist as a vital M 596
exile to a place M 594
exist as a right M 589
exist in a linear M 576
exist in a mixed M 562
exist in a wider M 560
exist in a sense M 560
exist in a close M 556
exist in a fully M 552
exist in a whole M 548
exist in a rather M 544
exact as i could M 542
exist in a truly M 536
exist as a local M 518
exist in a local M 516
exist as a cause M 468
exist as a woman M 466
exist in a woman M 464
exist in a plant M 460
exile in a small M 450
exist in a lower M 440
exist on a local M 434
exist as a large M 434
exist in a water M 427
exist in a model M 418
exist as a given M 418
exist in a people M 410
exist on a lower M 408
exist in a total M 406
exist as a valid M 398
exist as a field M 395
exist as a fixed M 394
exist as a fully M 392
exist at a place M 384
exist in a still M 378
exist in a sound M 372
exist in a strong M 370
exist as a kingdom M 364
exist on a world M 360
exist in a table M 334
exist in a piece M 320
exist in a plane M 314
exist in a house M 314
exist as a resting M 314
exist as a piece M 314
exist as a strong M 312
exist as a value M 311
exist as a point M 297
exist as a basic M 290
exist as a stand M 285
exist in a vague M 280
exist to a small M 272
exist in a short M 272
exist on a daily M 266
exile is a state M 260
exist at a stage M 246
exist at a local M 246
exist in a nearly M 240
exist in a chain M 237
exile in a place M 236
exist in a power M 234
exist in a loose M 232
exist in a known M 231
extra or a missing M 229
exist in a viable M 228
exist in a fourth M 228
exist in a study M 224
exist in a slave M 222
exist in a cloud M 222
exist in a unity M 214
exist by a cause M 212
exact as a piece M 212
exist in a civil M 210
exist as a total M 210
exile of a large M 204
exert at a given M 204
exist as a first M 202
extra in a crowd M 200
exist at a price M 198
exist at a fixed M 194
exile on a small M 194
exist at a period M 192
exist as a fluid M 192
exist in a resting M 188
exist in a layer M 188
exist in a happy M 188
exist in a white M 186
exist in a shape M 186
exist in a black M 186
exist of a large M 184
exist as a guide M 184
exist as a feeling M 182
exist in a right M 180
exist in a cause M 178
exist as a working M 178
exist in a point M 177
exist in a vital M 176
exist in a brain M 175
exist in a stage M 174
exist as a method M 174
exist as a check M 172
exile as a child M 172
exist to a given M 170
exist as a mixed M 170
exist as a black M 170
exist on a state M 169
exist as a model M 168
exist on a table M 166
exist in a rough M 166
exist in a phase M 164
exist in a stream M 162
exist in a later M 162
exist as a slave M 162
exist in a first M 158
exist in a kingdom M 156
exist at a world M 156
exist in a thinking M 152
exist in a newly M 152
exist in a growing M 152
exist in a green M 152
exist in a frame M 152
exile as a state M 152
exist on a grand M 148
exist in a joint M 148
exist in a quite M 147
exist as a close M 146
exist as a table M 144
exist in a really M 142
exile of a people M 142
exist if a given M 140
exist as a house M 140
exist at a short M 134
exist in a major M 133
exist if a large M 132
exist at a scale M 132
exist as a linear M 132
exist in a story M 130
exist as a truly M 130
exist as a healthy M 130
exist in a river M 128
exist as a loose M 128
exert in a given M 128
exist on a wider M 126
exist at a small M 126
exile to a small M 126
exile of a whole M 126
exist to a varying M 122
exist as a focus M 122
exist in a train M 118
exist in a clearing M 118
exert on a large M 118
exist in a shell M 116
exist in a false M 116
exist at a large M 116
exist as a white M 116
exert on a child M 116
exist in a looking M 113
exist in a cross M 113
exist in a quiet M 112
exist in a value M 110
exist in a tight M 110
exist in a harsh M 110
exist on a piece M 108
exist as a steady M 108
exist as a space M 107
exist as a child M 107
exist in a never M 106
exist in a cycle M 104
exist as a layer M 102
exist as a happy M 102
exist in a basic M 100
exist as a story M 99
exist is a major M 98
exist as a river M 98
exist as a reason M 98
exist in a graph M 96
exist in a block M 96
exist as a cloud M 96
exert on a given M 96
exist is a small M 94
exist in a naked M 94
exist if a group M 94
exist on a steady M 92
exist on a still M 90
exist if a change M 90
exist as a phase M 90
exist as a joint M 90
exist as a forum M 90
exist as a block M 90
exile by a group M 90
exist in a working M 89
exist is a strong M 88
exist is a naive M 88
exist is a first M 88
exist if a child M 88
exist as i write M 88
exist as a limit M 87
exist on a rather M 86
exist in a weaker M 86
exist as a vague M 86
exist as a trace M 86
exile in a state M 86
exile as a place M 86
exert on a small M 86
exist if i could M 84
exist as a stream M 84
exist as a crime M 84
exile is a place M 84
exist in a party M 82
exist at a white M 82
exist as a relic M 82
exist as a crowd M 82
exist as a habit M 80
exact as a price M 80
exist in a drawing M 64
exist in a super M 50
exits in a hurry M 49
exert on a newly M 46
exile to a close M 42
exist at a state M 41
exile as a whole M 41
exist as a nation D 11260
exist in a social D 7448
exist as a social D 2776
exist in a region D 2484
exist at a level D 2010
exist in a nation D 1783
exist on a level D 1184
exist as a dimer D 860
exist as a tribe D 806
exist on a basis D 744
exist as a basis D 668
extra in a movie D 575
exist in a limbo D 560
exist in a changing D 543
exist in a broad D 526
excel in a sport D 519
exist as a vapor D 510
exist in a setting D 492
exist in a cubic D 420
exist in a mingled D 342
exist on a broad D 334
exist in a rural D 334
exist in a court D 282
excel in a field D 276
exist in a metal D 268
exist as a minor D 256
excel at a sport D 256
excel in a given D 244
exist as a ghost D 240
exist as a genre D 240
exist in a bound D 234
extol as a model D 230
excel as a leader D 230
exist in a trade D 226
exist in a quasi D 218
exist as a broad D 206
exist as a stock D 204
exist in a myriad D 198
exist in a novel D 188
exult in a glory D 184
exist in a harem D 184
exist as a court D 184
exist in a purer D 172
exist as a quasi D 172
exist as a trading D 164
exist in a scene D 154
excel in a world D 154
exist by a court D 152
exist in a moist D 146
exile to a throne D 142
exist in a rigid D 140
exist in a tense D 139
exist as a trade D 135
exist in a dense D 134
exist as a singlet D 134
exile in a petty D 134
exist in a thinly D 132
exist in a dozen D 124
exist in a glass D 123
exist in a tribe D 118
exist as a rigid D 118
exist in a minor D 117
exist at a locus D 116
exult as a happy D 112
exist on a meager D 112
exist in a steel D 112
exile to a penal D 110
exist in a caste D 108
exist in a plate D 104
exact to a farthing D 104
exist in a teeming D 100
exist in a crude D 100
extra on a movie D 98
exist on a social D 98
exist on a sliding D 98
exist in a solar D 98
exist in a flock D 98
exuding of a white D 96
exist as a dense D 96
exult if i could D 94
exist in a polar D 92
exist in a horse D 90
exist in a stone D 86
excel as a group D 86
exist to a minor D 84
exile in a villa D 84
exist as a region D 82
extra in a scene D 80
exist in a score D 80
exist in a stock D 49
exist as a rival D 44
