dry in a few M 4096
dry or a wet M 1041
dry as a dead M 648
dry at a low M 636
dry in a day M 536
dry to a wet M 427
dry in a dry M 420
dry as i can M 334
dry up a bit M 265
dry as a red M 264
dry in a box M 257
dry as a bit M 216
dry as a dog M 195
dry is a man M 190
dry on a low M 169
dry as i was M 168
dry as a man M 160
dry in a low M 143
dry in a wet M 139
dry as i had M 128
dry on a bar M 116
dry on a new M 114
dry in a year M 114
dry as a dry M 114
dry in a way M 100
dry if i had M 95
dry in a bag M 90
dry up a man M 84
dry as a cat M 84
dry on a long M 63
dry so i can M 55
dry to a low M 53
dry it a bit M 52
dry in a long M 47
dry on a day M 40
dry in a hot D 931
dry on a hot D 473
dry as a cow D 288
dry to a thin D 204
dry up a cow D 190
dry in a thin D 186
dry as a leaf D 177
dry as a nut D 158
dry on a mud D 123
dry on a gel D 104
dry on a bed D 101
dry on a mat D 87
