images for me . M 426
impact may be . M 406
import for me . M 397
images can be . M 374
images for us . M 346
impact for me . M 292
import for us . M 288
impact can be . M 228
import may be . M 201
images for it . M 180
impact with it . M 175
images with it . M 162
images may be . M 160
impact for us . M 106
images with me . M 92
images with us . M 84
