ahead of the other M 81268
ahead of the game M 69069
ahead of the rest M 68188
ahead of the main M 38062
ahead to the next M 29915
ahead of the time M 15978
ahead of the ship M 13840
ahead on the road M 8635
ahead to the time M 8006
ahead of the line M 7842
ahead of the army M 7794
ahead of the next M 7444
ahead on the left M 6296
ahead of my time M 5312
ahead of us were M 5236
ahead of the leading M 4620
ahead of the fire M 4457
ahead at the road M 4304
ahead of the body M 4191
ahead of the dogs M 3922
ahead of the date M 3894
ahead of the west M 3696
ahead in the game M 3437
ahead of the face M 3235
ahead of us there M 3211
ahead of me were M 3177
ahead of me when M 3157
ahead in the next M 3094
ahead of the boys M 3062
ahead of me into M 3032
ahead of the moving M 3030
ahead of the last M 3028
ahead to be sure M 2784
ahead of the warm M 2718
ahead of the great M 2610
ahead of us when M 2585
ahead of the cold M 2434
ahead of the more M 2410
ahead in the face M 2383
ahead of the most M 2241
ahead in the same M 2208
ahead at the same M 2202
ahead of the left M 2137
ahead to the left M 2105
ahead of the slow M 2038
ahead of me like M 2033
ahead in the dark M 2004
ahead of us like M 1998
ahead of the work M 1980
ahead of us into M 1912
ahead of us will M 1911
ahead of the rate M 1878
ahead of me there M 1825
ahead of me down M 1788
ahead of the three M 1776
ahead of the third M 1773
ahead of the young M 1772
ahead of the best M 1746
ahead of the south M 1736
ahead of the wind M 1733
ahead of the band M 1612
ahead to the coming M 1604
ahead of the north M 1592
ahead in the line M 1553
ahead to the last M 1470
ahead of us lies M 1463
ahead at the time M 1460
ahead on the other M 1426
ahead of the mass M 1416
ahead to the north M 1371
ahead to the other M 1354
ahead of the same M 1354
ahead at the next M 1342
ahead at the rate M 1320
ahead of the show M 1316
ahead to the west M 1310
ahead on the same M 1294
ahead in the early M 1282
ahead of the need M 1260
ahead in the hope M 1252
ahead of the lord M 1238
ahead of us down M 1237
ahead of the union M 1221
ahead in the book M 1190
ahead of us from M 1142
ahead in the arms M 1132
ahead of the rain M 1123
ahead of the rush M 1098
ahead of us here M 1078
ahead of the bird M 1075
ahead of the moon M 1074
ahead in the last M 1073
ahead of the data M 1054
ahead of the tail M 1052
ahead in the road M 1043
ahead of the girl M 1002
ahead in the text M 998
ahead of the high M 988
ahead of the fish M 987
ahead as if nothing M 986
ahead of the play M 970
ahead of me along M 950
ahead of the city M 933
ahead of the good M 886
ahead on the port M 881
ahead of the flow M 836
ahead to the days M 822
ahead of the true M 816
ahead on the main M 804
ahead of the rise M 792
ahead to be able M 790
ahead of me from M 785
ahead of the four M 780
ahead of us along M 778
ahead of the baby M 777
ahead to the south M 771
ahead of it into M 728
ahead in the years M 726
ahead of me here M 715
ahead of the fast M 704
ahead of the base M 701
ahead of the less M 700
ahead of the test M 696
ahead to the more M 683
ahead of the heavy M 682
ahead in the late M 682
ahead in the form M 676
ahead of the teams M 672
ahead of the full M 668
ahead by the time M 664
ahead of us over M 655
ahead to the rest M 652
ahead on the line M 652
ahead of the coming M 644
ahead as to what M 642
ahead of the load M 636
ahead to the great M 632
ahead of the snow M 621
ahead in the work M 620
ahead of the bank M 618
ahead of the cost M 615
ahead of the kids M 614
ahead on the next M 610
ahead of the flying M 608
ahead in the coming M 608
ahead of the road M 592
ahead as if there M 592
ahead to the post M 572
ahead of it like M 572
ahead of the plan M 566
ahead in the mist M 565
ahead of the text M 560
ahead of the male M 560
ahead of the word M 557
ahead of the land M 557
ahead to the main M 552
ahead to the third M 545
ahead in the great M 541
ahead of the poor M 540
ahead is to work M 534
ahead of the many M 524
ahead to the years M 514
ahead of the pain M 514
ahead in the spring M 514
ahead of the truth M 512
ahead of the very M 505
ahead of the fifth M 502
ahead of it were M 501
ahead of me just M 496
ahead of the early M 490
ahead of the feet M 488
ahead to the town M 486
ahead to do what M 484
ahead in my life M 484
ahead of us just M 482
ahead to the door M 481
ahead of the unit M 478
ahead to the most M 476
ahead of the home M 475
ahead of us came M 474
ahead of the flag M 474
ahead of the bows M 474
ahead up the hill M 470
ahead to the work M 470
ahead of us have M 465
ahead in the most M 465
ahead of the post M 462
ahead in the army M 462
ahead of the means M 458
ahead to the city M 457
ahead of the hand M 455
ahead of the fact M 454
ahead of the hour M 451
ahead at the dark M 449
ahead to the ship M 448
ahead is to find M 448
ahead of the blue M 446
ahead of the mail M 443
ahead to the goal M 442
ahead of the trap M 442
ahead of me over M 441
ahead of the vast M 440
ahead of the ever M 434
ahead of the norm M 433
ahead of the health M 433
ahead up the road M 432
ahead of the host M 428
ahead of the book M 428
ahead of the town M 422
ahead in the third M 422
ahead of us some M 416
ahead of the theory M 404
ahead of my body M 404
ahead in the other M 404
ahead of the well M 403
ahead of us must M 401
ahead is to make M 396
ahead of the five M 392
ahead of the back M 390
ahead to the very M 382
ahead of it when M 382
ahead of us went M 381
ahead to be ready M 378
ahead to the kind M 376
ahead of the much M 376
ahead of the threat M 372
ahead at the other M 372
ahead in the north M 371
ahead to the early M 370
ahead of the spring M 370
ahead of the self M 370
ahead of the mark M 368
ahead of the edge M 368
ahead of an army M 366
ahead in the south M 363
ahead in the past M 362
ahead of us during M 360
ahead of the ideas M 358
ahead of me said M 358
ahead at the back M 357
ahead of the food M 356
ahead in the wake M 356
ahead to the edge M 354
ahead at the last M 354
ahead of the video M 347
ahead of the step M 347
ahead of us what M 346
ahead or go back M 344
ahead of the user M 344
ahead of the single M 344
ahead on the side M 339
ahead in the case M 338
ahead of the hole M 331
ahead to the road M 330
ahead to the late M 330
ahead to the good M 330
ahead is the most M 329
ahead to the full M 326
ahead to the gate M 322
ahead of the open M 319
ahead of the free M 317
ahead to the fall M 316
ahead of the mind M 314
ahead of so many M 314
ahead in the city M 314
ahead to the same M 312
ahead of the stem M 308
ahead at the great M 308
ahead of the goal M 306
ahead in the west M 305
ahead of the pair M 304
ahead in my work M 304
ahead of the late M 303
ahead of my feet M 298
ahead of the verb M 296
ahead in the name M 294
ahead of the ones M 292
ahead of the hunt M 292
ahead of the port M 291
ahead at the half M 291
ahead of me back M 288
ahead is the only M 288
ahead to the best M 286
ahead of the trial M 286
ahead of the pile M 286
ahead at the door M 286
ahead of us even M 283
ahead is the best M 281
ahead to the need M 278
ahead to be done M 278
ahead of my tale M 276
ahead of the core M 274
ahead of the dark M 273
ahead of the birth M 272
ahead in the cold M 271
ahead of the huge M 270
ahead in the high M 270
ahead in the areas M 268
ahead at the turn M 263
ahead of it will M 262
ahead by the same M 260
ahead of the hard M 259
ahead of the dawn M 259
ahead of the half M 257
ahead on the part M 255
ahead of the lady M 254
ahead of me during M 254
ahead of the tour M 252
ahead of the feed M 252
ahead of the bell M 250
ahead in the very M 250
ahead of the fall M 248
ahead of me made M 248
ahead of us only M 247
ahead of me lies M 247
ahead at the line M 246
ahead on the beach M 244
ahead of the eyes M 244
ahead of me came M 244
ahead of the move M 242
ahead of or even M 242
ahead of the break M 241
ahead of the name M 240
ahead of my work M 240
ahead by as much M 240
ahead of the hearing M 239
ahead of the call M 238
ahead in the fall M 238
ahead on the last M 236
ahead at the edge M 236
ahead as we have M 236
ahead as the next M 234
ahead at an even M 232
ahead in the life M 231
ahead to the many M 228
ahead as the road M 228
ahead on the high M 227
ahead of the trip M 226
ahead in the snow M 226
ahead in the post M 226
ahead on the edge M 224
ahead of the only M 224
ahead of the bait M 224
ahead to the spring M 222
ahead to do some M 222
ahead of me went M 222
ahead is to take M 222
ahead at an angle M 222
ahead as we were M 222
ahead of the zero M 220
ahead as to have M 220
ahead as he went M 220
ahead of the past M 218
ahead is to move M 218
ahead of the prior M 216
ahead of us once M 215
ahead of me will M 215
ahead of me only M 215
ahead of the beast M 214
ahead at the very M 214
ahead in the rest M 212
ahead of the root M 210
ahead of the loop M 210
ahead in the file M 210
ahead of the door M 209
ahead of me even M 208
ahead is the main M 206
ahead to the open M 204
ahead of the life M 204
ahead is to keep M 204
ahead to an even M 202
ahead on the theory M 202
ahead of the site M 202
ahead of the holy M 202
ahead is to lose M 202
ahead in the best M 201
ahead of the debt M 199
ahead as the most M 199
ahead of the will M 198
ahead of the reading M 198
ahead of me till M 198
ahead is to have M 198
ahead in the realm M 198
ahead as to make M 198
ahead on the open M 194
ahead of the wild M 194
ahead of the file M 194
ahead if it were M 194
ahead at the open M 194
ahead of the gate M 192
ahead of the cell M 192
ahead is the same M 192
ahead of the gray M 191
ahead to the role M 190
ahead to the peace M 190
ahead to the back M 190
ahead on the bank M 190
ahead in the time M 189
ahead in an open M 188
ahead at the high M 188
ahead as he said M 188
ahead in the rain M 186
ahead as it were M 186
ahead at the side M 184
ahead as the work M 184
ahead by the wind M 183
ahead of the angry M 182
ahead in my mind M 181
ahead to the life M 179
ahead to the fact M 178
ahead to my next M 178
ahead of us made M 178
ahead of the worm M 178
ahead of the stop M 177
ahead of the gale M 177
ahead to the part M 176
ahead of it have M 176
ahead of it along M 176
ahead of me have M 175
ahead of it from M 174
ahead of an angry M 174
ahead if we were M 174
ahead to the beach M 170
ahead of the youth M 170
ahead of the seed M 170
ahead of the curl M 169
ahead of the part M 168
ahead of me what M 168
ahead of the mode M 164
ahead of my mind M 164
ahead by the other M 164
ahead of us back M 162
ahead of the turn M 162
ahead of the days M 162
ahead in the fast M 162
ahead as the ship M 162
ahead to the line M 161
ahead to the site M 158
ahead on the north M 158
ahead on the list M 158
ahead of the rich M 158
ahead of the lift M 158
ahead of the exit M 158
ahead in the open M 158
ahead in the days M 158
ahead to the dark M 156
ahead of us four M 156
ahead of the bend M 156
ahead if he were M 156
ahead as the leading M 156
ahead of us till M 154
ahead as if seeing M 154
ahead on the back M 153
ahead of the hero M 152
ahead of the arms M 152
ahead in the full M 152
ahead to the room M 150
ahead to the high M 150
ahead to the birth M 150
ahead of me some M 150
ahead by the side M 150
ahead is to look M 149
ahead on the work M 148
ahead of the jump M 148
ahead of the case M 148
ahead in the list M 148
ahead do we plan M 148
ahead to the ending M 147
ahead of us very M 146
ahead of the thread M 146
ahead is the great M 146
ahead in the wrong M 146
ahead at the risk M 146
ahead as if trying M 146
ahead of the shop M 144
ahead at the cost M 144
ahead in the ninth M 142
ahead on my left M 141
ahead on the hill M 140
ahead of the exam M 140
ahead on the third M 139
ahead of the heart M 138
ahead of the gain M 138
ahead of or just M 138
ahead of it during M 138
ahead is to learn M 138
ahead to the trial M 137
ahead of us last M 137
ahead of us making M 136
ahead of us also M 136
ahead of the fine M 135
ahead on the plan M 134
ahead of the anti M 134
ahead of me three M 134
ahead of it down M 134
ahead at the rain M 134
ahead as to leave M 134
ahead on the dark M 132
ahead of the side M 132
ahead of my ship M 132
ahead is to help M 132
ahead of the kind M 130
ahead in the ship M 130
ahead as we seek M 130
ahead of the drop M 129
ahead to the land M 128
ahead to an open M 128
ahead or to turn M 128
ahead of it there M 128
ahead in the land M 128
ahead in the deep M 128
ahead in so many M 128
ahead on the great M 126
ahead of us gave M 126
ahead of the term M 126
ahead in an hour M 126
ahead of the ideal M 124
ahead of me gave M 124
ahead in the clear M 124
ahead at the most M 124
ahead at the huge M 124
ahead as the last M 124
ahead to the base M 123
ahead is the road M 123
ahead in the left M 123
ahead of us among M 122
ahead in the sixth M 122
ahead in the more M 122
ahead on the west M 120
ahead of us upon M 120
ahead of the mixing M 120
ahead at the vast M 120
ahead on an even M 119
ahead of the acid M 119
ahead of me once M 119
ahead to the turn M 118
ahead of the mine M 118
ahead of the form M 118
ahead in the main M 118
ahead if we want M 118
ahead at the rest M 118
ahead in the three M 117
ahead of me next M 116
ahead of me kept M 116
ahead of me fell M 116
ahead is the next M 116
ahead on the south M 115
ahead in the fifth M 115
ahead of my years M 114
ahead as the other M 114
ahead as he made M 114
ahead to the side M 112
ahead on the true M 112
ahead of us most M 112
ahead of the years M 112
ahead of the wake M 112
ahead of the tale M 112
ahead of the soft M 112
ahead of the month M 112
ahead in the good M 112
ahead to the three M 111
ahead to the vast M 110
ahead of the weary M 110
ahead of the vice M 110
ahead to the living M 109
ahead or to make M 108
ahead on the wrong M 108
ahead of us many M 108
ahead of the take M 108
ahead of the sons M 108
ahead of me onto M 108
ahead as we came M 108
ahead at the goal M 106
ahead as he came M 106
ahead on the look M 104
ahead of us leading M 104
ahead of the deep M 104
ahead by the more M 104
ahead at the base M 104
ahead on the wide M 102
ahead on the most M 102
ahead of the loss M 102
ahead of me leading M 102
ahead to the fifth M 101
ahead of me whom M 101
ahead to the home M 100
ahead to the bank M 100
ahead to be seen M 100
ahead of me most M 100
ahead is an open M 100
ahead in the union M 100
ahead in the blue M 100
ahead at the fire M 100
ahead of the item M 99
ahead at the third M 99
ahead to the trip M 98
ahead of the logs M 98
ahead of or fall M 98
ahead of as many M 98
ahead at the gate M 98
ahead as we need M 98
ahead to be there M 97
ahead to the past M 96
ahead to the moving M 96
ahead to be safe M 96
ahead so we will M 96
ahead on the game M 96
ahead of us grew M 96
ahead of the tree M 96
ahead of the note M 96
ahead of the duty M 96
ahead of me among M 96
ahead to the type M 94
ahead of my face M 94
ahead at an early M 94
ahead as the rest M 94
ahead as if into M 94
ahead on the time M 93
ahead to the case M 92
ahead to do just M 92
ahead or to take M 92
ahead on the spring M 92
ahead of the maid M 92
ahead of me four M 92
ahead is to stay M 92
ahead in the shop M 92
ahead in the half M 92
ahead at the tree M 92
ahead at the best M 92
ahead of the living M 91
ahead of the cast M 91
ahead to the lake M 90
ahead of us having M 90
ahead of the sign M 90
ahead of the pure M 90
ahead as to lose M 90
ahead to the plan M 88
ahead of the odds M 88
ahead of it must M 88
ahead in the gray M 88
ahead at the city M 88
ahead as we move M 88
ahead of us next M 87
ahead of it only M 87
ahead to the data M 86
ahead to an early M 86
ahead of us three M 86
ahead of us fell M 86
ahead of the cave M 86
ahead of me making M 86
ahead in the town M 86
ahead of us said M 84
ahead of the list M 84
ahead of me left M 84
ahead in the fury M 84
ahead of the risk M 83
ahead or to stop M 82
ahead on the home M 82
ahead of us coming M 82
ahead of the eager M 82
ahead of the busy M 82
ahead of my life M 82
ahead is to give M 82
ahead in the peace M 82
ahead by an hour M 82
ahead at the bend M 82
ahead as if their M 82
ahead to the sixth M 80
ahead of the love M 80
ahead of the areas M 80
ahead in the wind M 80
ahead if we fail M 80
ahead at an ever M 71
ahead to the port M 68
ahead of the boring M 68
ahead of us more M 67
ahead to my left M 64
ahead of the raging M 58
ahead of me more M 55
ahead at the three M 54
ahead of us past M 52
ahead of the ocean M 51
ahead to the well M 49
ahead on the book M 47
ahead at the coming M 46
ahead of the laying M 44
ahead to be more M 42
ahead on the three M 42
ahead on the ocean M 42
ahead of the push M 42
ahead is no less M 42
ahead at the snow M 42
ahead at the blue M 42
ahead of the once M 41
ahead in the reading M 41
ahead of the peace M 40
ahead of the evil M 40
ahead of the pack D 25141
ahead of the ball D 9110
ahead of the boat D 8028
ahead in the race D 7180
ahead of the wave D 4845
ahead of the herd D 3940
ahead of the news D 2003
ahead at the wall D 1728
ahead of the tool D 1650
ahead of the rising D 1599
ahead of the canoe D 1538
ahead of the weld D 1162
ahead of the bull D 1122
ahead of the nose D 1034
ahead of the race D 958
ahead of the pace D 921
ahead of the bill D 902
ahead of the cart D 898
ahead of the bulk D 898
ahead of the steam D 860
ahead of the foot D 820
ahead of the tide D 818
ahead of the pump D 817
ahead of the club D 809
ahead of the cops D 798
ahead of the tank D 790
ahead of the throw D 782
ahead by at least D 768
ahead of the iron D 681
ahead of the brig D 674
ahead of us rose D 668
ahead of the wolf D 627
ahead of the task D 620
ahead of the crew D 614
ahead of the plow D 608
ahead of the cars D 599
ahead of the tube D 595
ahead of the guns D 594
ahead of the pipe D 568
ahead of the spot D 542
ahead of the mast D 529
ahead of the fork D 510
ahead of the axle D 504
ahead or at least D 496
ahead of the casing D 488
ahead of the jeep D 485
ahead of the oxen D 482
ahead of the rank D 472
ahead of the star D 470
ahead of the film D 470
ahead of the puck D 459
ahead of the dust D 445
ahead of the media D 442
ahead of the camp D 442
ahead of the deer D 425
ahead of the zone D 412
ahead of the axis D 395
ahead of the raft D 385
ahead of the sled D 384
ahead of at least D 384
ahead of the duke D 372
ahead of the wall D 371
ahead of the flux D 363
ahead of the giant D 348
ahead of the mouth D 336
ahead of the lure D 336
ahead of the hook D 336
ahead of the navy D 334
ahead of the mule D 332
ahead of the sale D 330
ahead of the cows D 322
ahead to the camp D 312
ahead of the mill D 310
ahead of my wife D 308
ahead of the crop D 305
ahead of the wire D 296
ahead of the vote D 290
ahead of the rent D 284
ahead of the firing D 284
ahead of the fuel D 283
ahead of the firm D 279
ahead in the canoe D 268
ahead of the racing D 262
ahead of the lamp D 262
ahead of the knee D 256
ahead of the teeth D 252
ahead in the teeth D 252
ahead of the heel D 246
ahead of the cubs D 238
ahead of the boss D 232
ahead of the reds D 230
ahead of the plot D 230
ahead to the spot D 226
ahead of the rail D 225
ahead of the throng D 222
ahead of the hips D 220
ahead of the laws D 218
ahead to the mouth D 214
ahead in the dusk D 214
ahead of the hind D 212
ahead to the fort D 210
ahead in the task D 210
ahead of the corn D 208
ahead of the duck D 207
ahead of the ford D 206
ahead to the task D 204
ahead of the guys D 204
ahead of the drum D 198
ahead of the bier D 198
ahead of the hare D 196
ahead of the cowl D 196
ahead of the bugs D 196
ahead of the bolt D 196
ahead of the bike D 196
ahead in the boat D 196
ahead of the pony D 194
ahead of the bees D 194
ahead of the pole D 191
ahead of the shot D 190
ahead of the cane D 190
ahead of my yarn D 190
ahead of the mare D 188
ahead of the drying D 186
ahead of the coal D 186
ahead in the firm D 185
ahead of the disk D 184
ahead of the bomb D 184
ahead on the dirt D 182
ahead of the string D 182
ahead of the prow D 182
ahead of the boom D 182
ahead of the slit D 179
ahead of the rock D 174
ahead of the mere D 174
ahead of the legs D 174
ahead at the pace D 174
ahead of the wife D 172
ahead of the plug D 172
ahead of the anal D 172
ahead of the mining D 170
ahead to the dining D 168
ahead to the boat D 168
ahead of us took D 164
ahead of the pope D 164
ahead by the mere D 164
ahead of the reel D 163
ahead of the apex D 163
ahead of the card D 156
ahead of the twin D 154
ahead of the shear D 154
ahead of the drug D 151
ahead of the flap D 148
ahead of the lens D 146
ahead of the ewes D 146
ahead of my boat D 146
ahead as the boat D 146
ahead of the radio D 144
ahead of the wheat D 143
ahead of the fore D 141
ahead of the gold D 140
ahead of the roll D 139
ahead of me took D 139
ahead of the singer D 138
ahead of the coil D 136
ahead as he rode D 136
ahead to the farm D 134
ahead of the taxi D 134
ahead of the grim D 134
ahead of the sowing D 132
ahead of the feds D 132
ahead of the calf D 132
ahead of the peaks D 130
ahead of the hull D 130
ahead of the tips D 128
ahead of the belt D 128
ahead in the thick D 128
ahead to the foot D 127
ahead of the finger D 127
ahead of the farm D 125
ahead of the sand D 124
ahead of the york D 123
ahead to the park D 122
ahead of the slot D 122
ahead of the ruck D 122
ahead on the flat D 121
ahead of the tape D 120
ahead of the lava D 120
ahead of the cone D 120
ahead of the lien D 119
ahead in the pale D 118
ahead so he wins D 116
ahead of the auto D 116
ahead to at least D 114
ahead on the farm D 114
ahead of the raid D 112
ahead of the foam D 112
ahead to the club D 110
ahead of the babe D 110
ahead at the foot D 108
ahead of the pool D 106
ahead of the tire D 104
ahead of the melt D 104
ahead of the cash D 104
ahead of the audio D 103
ahead to the pool D 102
ahead on the task D 102
ahead of the tiny D 102
ahead of my mouth D 102
ahead of the wage D 101
ahead on the wall D 100
ahead of the gulf D 100
ahead of my theme D 100
ahead is at least D 100
ahead in the poll D 99
ahead of the friar D 98
ahead to the tune D 96
ahead of the surf D 96
ahead of the hood D 96
ahead of the tooth D 94
ahead in the vote D 94
ahead at the rows D 94
ahead of the bass D 92
ahead to the barn D 90
ahead of the scud D 90
ahead of the rust D 90
ahead of the fuse D 90
ahead of the buck D 90
ahead of me rose D 90
ahead of the paving D 89
ahead of the tall D 88
ahead of the heating D 88
ahead of the diode D 88
ahead in the haze D 88
ahead of the boll D 87
ahead of the mess D 86
ahead in at least D 86
ahead as he took D 86
ahead of the cape D 84
ahead of the soil D 80
ahead of the ramp D 49
ahead of the semi D 47
ahead of the voting D 45
ahead of the ruling D 45
ahead on the leash D 43
ahead in the dust D 40
