phial in the hand D 362
phial of the holy D 200
phial in my hand D 174
phial at the same D 168
phial of the friar D 166
phial of the drug D 136
phial of the same D 134
phis in the city D 117
phial to my mouth D 112
