full human beings . M 4130
full human life . M 2566
full scale reading . M 1244
full motion video . M 1138
full every month . M 1044
full legal name . M 1022
full seven years . M 1004
full teaching load . M 988
full seven days . M 964
full adult size . M 892
full outer join . M 784
full thirty years . M 748
full blown aids . M 738
full front view . M 724
full force here . M 704
full eight years . M 692
full fifty years . M 664
full working days . M 628
full forty years . M 624
full first name . M 534
full grown tree . M 506
full working week . M 490
full scale range . M 480
full solid angle . M 466
full thirty days . M 432
full adult life . M 398
full eight days . M 370
full forty days . M 348
full working length . M 346
fury broke forth . M 324
full given name . M 314
full order book . M 298
full working life . M 294
full nursing care . M 278
full moral life . M 276
full block away . M 276
full white moon . M 258
full scale trial . M 256
full scale test . M 256
full panic mode . M 244
full human form . M 242
full sixty years . M 240
full color range . M 230
full round face . M 214
full frame rate . M 212
full thirty feet . M 202
full grown male . M 200
full waiting room . M 192
full force there . M 188
full adult fare . M 184
full story here . M 182
full class name . M 182
full working time . M 174
full class load . M 172
full working load . M 170
full grown ones . M 168
full every time . M 164
full right away . M 148
full block form . M 148
full board only . M 146
full working range . M 140
full black eyes . M 140
full scale ship . M 138
full human meaning . M 132
full round moon . M 130
full adult rate . M 128
full power rating . M 124
full fifty feet . M 122
full sixty feet . M 120
full scale unit . M 120
full scale data . M 116
full legal form . M 114
full engine load . M 112
full seven feet . M 110
full loads only . M 104
full right here . M 102
full legal rate . M 102
full vocal range . M 100
full music size . M 100
full grown fish . M 100
full state name . M 98
full scope here . M 98
full human living . M 92
fury burst forth . M 90
full forty feet . M 88
full brown eyes . M 88
full running time . M 86
full eight feet . M 86
full right angle . M 84
full every week . M 82
full round trip . M 80
full house here . M 80
