skip it and go M 2602
skip it for the M 536
skip to top of M 494
skip it and do M 232
skip the use of M 230
skip to them at M 188
skip to end of M 117
skip if you do M 102
skip the idea of M 94
skip the end of M 94
skip so that the M 48
skip on top of M 43
skip to one of M 42
skin so that the D 6280
skin is one of D 6033
skin of one of D 5938
skin so that it D 4430
skin is due to D 4372
skin on top of D 2852
skin is wet or D 2704
skin is not the D 2474
skin is apt to D 2378
skin as far as D 2316
skin is not so D 2118
skin is not as D 1784
skin by way of D 1730
skin to see if D 1726
skin is that of D 1524
skin of all the D 1218
skin is not an D 1144
skin is dry or D 1112
skim the top of D 1107
skin is going to D 1086
skiing is one of D 993
skin so that he D 976
skin is cut or D 976
skin to that of D 892
skim of ice on D 870
skin of ice on D 808
skin of man is D 782
skin is now in D 772
skin of each of D 754
skin as long as D 742
skin is not in D 710
skin is that it D 682
skin it may be D 652
skin of man or D 650
skin to act as D 649
skin as thin as D 640
skin is put on D 590
skin on one of D 578
skin as dry as D 556
skin is not of D 550
skin or fur of D 518
skin is not to D 518
skin of both the D 512
skin in one of D 496
skin is that the D 494
skin of one or D 442
skin is red or D 438
skin in two or D 414
skin is not at D 408
skin is cut in D 406
skin or may be D 398
skin it can be D 386
skin or that of D 385
skin so that no D 378
skin to get the D 366
skin by use of D 366
skin in one or D 354
skin is thin or D 348
skin in that it D 348
skin is easy to D 334
skin if you do D 334
skin of any of D 328
skin so far as D 310
skin in all the D 308
skin as red as D 302
skin as one of D 296
skin or with the D 288
skin is then to D 288
skin is hot or D 286
skim the mud of D 284
skin is for the D 282
skim it off the D 281
skin as they do D 280
skin to see the D 278
skin to get at D 278
skin of man in D 278
skin the way it D 274
skin to let the D 264
skin is hot to D 264
skin by using the D 258
skin on one or D 256
skin to aid in D 248
skin so that we D 248
skin or two of D 238
skin the way he D 236
skin of one in D 236
skin of man by D 236
skis on top of D 229
skin to get to D 228
skin of man to D 228
skin in each of D 226
skin by one of D 226
skin to sit on D 221
skin the hue of D 220
skin on both the D 220
skin is owing to D 220
skin to bring the D 216
skin so long as D 216
skiing is not the D 216
skin to try to D 214
skin by one or D 210
skin as that of D 210
skin to him at D 208
skin in both the D 208
skin as low as D 208
skin to lie on D 207
skin is dry in D 206
skin as you go D 204
skin of all of D 200
skin of one is D 196
skin to use as D 180
skin to one of D 180
skis so that the D 179
skin to put on D 178
skin in man is D 178
skin as big as D 178
skin is all the D 176
skin if this is D 176
skin is put in D 175
skin is due in D 174
skin at one of D 174
skin or eye or D 172
skin in area of D 172
skin at one or D 172
skin of her ear D 170
skin is now to D 170
skiing is that it D 170
skin is dry it D 168
skin is out of D 166
skim of ice in D 166
skin or near the D 164
skin or can be D 160
skin on each of D 160
skin is hung up D 160
skin or any of D 156
skin in any of D 156
skin is dry to D 154
skin is cut by D 154
skin to dry in D 148
skin is cut to D 148
skin is red in D 146
skin or for the D 144
skin he had to D 140
skin as being of D 140
skin the seat of D 138
skin as does the D 138
skin as can be D 138
skin to hang in D 136
skin to dry it D 136
skin to ease the D 134
skin is cut up D 134
skin to get it D 128
skin of man be D 128
skit on one of D 126
skin to all the D 126
skin in that the D 126
skin of ice in D 124
skin is near the D 124
skin to dry up D 122
skin so that an D 120
skin or two to D 120
skin is hot as D 120
skin or head of D 118
skin the way the D 116
skin of his or D 116
skin it has no D 114
skiing at one of D 114
skin of both is D 112
skin as you do D 112
skin is not no D 111
skin to set up D 110
skin it with the D 110
skin is raw or D 110
skin to add to D 108
skin so thin it D 108
skin it for me D 108
skin is thin to D 106
skin is thin in D 106
skin is hung on D 106
skin up with the D 104
skin to rid the D 104
skin to fit the D 104
skin the cat on D 104
skin on them is D 104
skin is cut at D 104
skim it for the D 103
skin on two of D 102
skin as not to D 102
skin is thin as D 101
skin is dry the D 100
skin as for the D 100
skin or out of D 98
skin as may be D 98
skin or mat of D 96
skin or eye is D 96
skin as this is D 96
skin as are the D 96
skin to act in D 94
skin of one to D 94
skin is set up D 94
skin or one of D 92
skin it out of D 92
skin in all of D 92
skin as hot as D 92
skiing is that the D 92
skin to dry on D 88
skin is put to D 88
skin as with the D 88
skiing on one of D 88
skin the head of D 86
skin it and eat D 86
skin at each of D 86
skin of men or D 84
skin of all is D 84
skin so that my D 82
skin me out of D 82
skin is both the D 82
skin by heat or D 82
skin or that the D 80
skin of his ear D 80
skin he saw the D 80
skim to get the D 61
skew so that the D 55
skim as long as D 52
skiing or going to D 48
skiing is not as D 48
skin of man as D 42
skin on them so D 40
