skip it for a M 258
skin is not a D 3488
skin so that a D 790
skin by using a D 618
skin to get a D 390
skiing is not a D 371
skin or with a D 367
skin so that i D 364
skin is but a D 278
skin he had a D 234
skin the way a D 178
skin is now a D 152
skin is both a D 140
skin of one i D 122
skin it has a D 118
skin is thus a D 114
skin as for a D 106
skin is with a D 102
skin it had a D 100
skin it was a D 96
skin as being a D 92
skim to get a D 91
skin he was a D 86
skin as with a D 86
skin it with a D 82
skew is not a D 41
skim it for a D 40
