ho ho ho chi D 570
hoe or an axe D 204
hoe in the air D 126
hoe at the end D 118
hoe or the axe D 112
ho is the head D 103
hoe in the hot D 93
hoe in the earth D 80
ho to the fox D 62
ho on the idea D 49
ho is it that D 45
ho is the man D 40
