ho told me that D 761
ho said he had D 426
ho said he was D 406
ho said it was D 376
ho took up his D 265
ho used to say D 247
ho told us that D 225
ho held in his D 205
ho said to his D 178
ho fell in with D 164
hoe into the earth D 154
ho part of this D 143
ho said to him D 118
ho made up his D 114
ho went to his D 111
ho says in his D 107
ho gave up his D 106
ho said in his D 104
ho came to his D 103
ho said to them D 92
ho died at his D 90
ho club in new D 84
ho knew it was D 82
ho went to bed D 45
