how they should be M 177557
how they relate to M 151450
how things should be M 49152
how they affect the M 46561
how this should be M 43734
how you intend to M 29390
how long before the M 26906
how she wanted to M 25888
how you choose to M 22900
how long should the M 21275
how far should the M 16853
how they manage to M 16138
how they wanted to M 15520
how can anyone be M 14740
how you relate to M 14082
how they intend to M 13758
how long before we M 12626
how long should it M 11763
how you looked at M 11478
how they choose to M 11412
how then should we M 10808
how they reacted to M 10494
how far should we M 9545
how you manage to M 9514
how they behave in M 9209
how they differ in M 8096
how you handle the M 7950
how they should do M 7798
how she looked at M 7544
how long before he M 7512
how far beyond the M 7256
how you expect to M 6924
how then should the M 6834
how she should be M 6528
how they seemed to M 6514
how you should be M 6434
how long before it M 6374
how you decide to M 6150
how far behind the M 6102
how you handle it M 6068
how they learned to M 6068
how they should go M 6006
how that should be M 5872
how long should we M 5842
how they viewed the M 5824
how they looked at M 5334
how they thought the M 5072
how god created the M 5071
how she learned to M 4966
how you wanted to M 4960
how she thought of M 4816
how they arrive at M 4736
how this occurs is M 4700
how you learned to M 4686
how they handle the M 4626
how she looked in M 4607
how she seemed to M 4586
how they wished to M 4484
how can something be M 4480
how you define the M 4426
how you arrive at M 4423
how they impact on M 4335
how each member of M 4306
how she wanted it M 4080
how this system of M 4022
how this aspect of M 3994
how big should the M 3980
how one should go M 3968
how things happen in M 3967
how they define the M 3962
how you happen to M 3942
how you played the M 3916
how they expect to M 3878
how she reacted to M 3836
how they prefer to M 3666
how this effect is M 3616
how and whether to M 3568
how they affect us M 3548
how things worked in M 3532
how they depend on M 3488
how they measure up M 3472
how they impact the M 3366
how far should it M 3358
how and whether the M 3265
how you should do M 3246
how you manage it M 3236
how they solved the M 3120
how she wished to M 3032
how this worked in M 3026
how this result is M 2964
how can someone be M 2935
how that person is M 2922
how they treated the M 2868
how you prefer to M 2814
how one wishes to M 2810
how they sought to M 2788
how she wished he M 2766
how each should be M 2724
how they manage the M 2722
how you should go M 2718
how you answer the M 2694
how she needed to M 2678
how you reacted to M 2656
how can something so M 2656
how you behave in M 2612
how then should he M 2612
how they needed to M 2568
how this system is M 2512
how they looked in M 2496
how one looked at M 2466
how this energy is M 2420
how they reached the M 2420
how they thought of M 2418
how they manage it M 2406
how are changes in M 2382
how they happen to M 2374
how long should he M 2344
how you solved the M 2334
how they became so M 2311
how you manage the M 2282
how they worked in M 2248
how you measure up M 2207
how each person is M 2204
how one should be M 2188
how this matter is M 2174
how they failed to M 2162
how you define it M 2142
how this occurs in M 2106
how long should an M 2106
how she looked to M 2034
how god clothes the M 2028
how then should it M 1994
how they wanted the M 1980
how she wanted the M 1938
how they decide to M 1920
how she thought the M 1872
how you expect me M 1862
how they passed the M 1822
how you listen to M 1784
how she appears to M 1776
how one aspect of M 1776
how they became the M 1774
how they treated me M 1766
how they wanted it M 1764
how far should he M 1744
how was anyone to M 1742
how they thought it M 1728
how they looked to M 1688
how you helped me M 1678
how far across the M 1672
how she became the M 1658
how they regard the M 1654
how she wished it M 1636
how you treated me M 1626
how they learned it M 1598
how she missed the M 1590
how you measure it M 1588
how you expect the M 1582
how then stands the M 1568
how can anyone in M 1566
how this changes the M 1564
how you figure it M 1524
how things should go M 1515
how they helped to M 1498
how our system of M 1470
how things seemed to M 1450
how they changed the M 1438
how she should go M 1436
how you wanted it M 1424
how far changes in M 1420
how you arrange the M 1418
how can anyone do M 1400
how god should be M 1394
how can something as M 1383
how things looked to M 1376
how they played the M 1376
how men should be M 1376
how she thought it M 1360
how they shaped the M 1348
how can changes in M 1342
how she yearned to M 1338
how far behind he M 1334
how she passed the M 1330
how they handle it M 1324
how they assess the M 1312
how things relate to M 1297
how each aspect of M 1282
how things looked in M 1264
how you scared me M 1260
how did changes in M 1260
how any number of M 1258
how you thought of M 1246
how far behind we M 1246
how they should or M 1242
how she became so M 1212
how you learned of M 1210
how one appears to M 1197
how you turned to M 1196
how she wishes to M 1194
how they treated us M 1188
how far through the M 1188
how she looked as M 1186
how they worked to M 1180
how they adjust to M 1180
how one judges the M 1174
how this figure is M 1156
how one member of M 1146
how they answer the M 1144
how far afield the M 1144
how you learned it M 1140
how they learned the M 1130
how they behave as M 1126
how she looked or M 1116
how far should an M 1104
how they effect the M 1100
how they looked on M 1099
how long should be M 1088
how and whether it M 1081
how god worked in M 1078
how each person in M 1076
how you solved it M 1068
how far toward the M 1062
how this person is M 1044
how things happen to M 1040
how they listen to M 1034
how you measure the M 1028
how war should be M 1024
how you access the M 1020
how they expect the M 1008
how this choice is M 1000
how she viewed the M 1000
how they learned of M 990
how any member of M 984
how they worked it M 966
how they figure in M 963
how big should it M 946
how can someone so M 945
how she should do M 938
how they solved it M 934
how you looked in M 928
how they killed the M 928
how they modify the M 922
how she treated me M 922
how that system is M 916
how far around the M 904
how two groups of M 900
how they follow the M 898
how she learned the M 896
how long something is M 896
how this version of M 894
how that energy is M 894
how you thought it M 892
how you taught me M 892
how you select the M 890
how man learned to M 886
how this branch of M 878
how any amount of M 874
how you learned the M 872
how they helped the M 870
how she wished the M 866
how long before my M 866
how she looked on M 864
how far better it M 852
how she reached the M 848
how this matter of M 830
how you created the M 826
how they looked or M 820
how long should my M 818
how this spirit of M 816
how this number is M 816
how they behave is M 812
how she thought he M 808
how they divide the M 804
how can matter be M 800
how men relate to M 796
how can pupils be M 796
how she wanted me M 790
how they result in M 788
how they missed the M 786
how you worked it M 778
how any system of M 776
how this amount is M 774
how one begins to M 770
how they fought the M 762
how they become the M 756
how that object is M 746
how with regard to M 742
how she stands it M 742
how you regard the M 740
how she sought to M 736
how men behave in M 736
how she dreaded the M 734
how this object is M 732
how long before is M 732
how they behave to M 728
how they created the M 726
how she learned of M 726
how she turned to M 724
how she became an M 720
how god created us M 717
how one should do M 714
how you remind me M 696
how any person of M 696
how all through the M 690
how they relate in M 680
how she failed to M 674
how and whether we M 670
how are issues of M 668
how she caught the M 666
how they attend to M 660
how man should be M 660
how you phrase it M 652
how she worked in M 648
how this belief in M 646
how long before or M 646
how they define it M 644
how they behave on M 637
how they served the M 636
how they behave at M 636
how you design the M 634
how things looked at M 630
how his family is M 626
how you divide the M 624
how each member is M 622
how both relate to M 622
how his desire to M 620
how this appears in M 618
how they worked on M 616
how this manner of M 612
how they measure the M 612
how they raised the M 610
how she played the M 608
how they affect it M 594
how you seemed to M 588
how she picked up M 586
how one person is M 585
how you became so M 584
how they fought in M 584
how you assess the M 582
how they picked up M 578
how you expect it M 576
how men learned to M 576
how they thought he M 570
how and access to M 568
how they affect me M 566
how they worked the M 564
how they changed in M 559
how they obtain the M 558
how you became the M 556
how they behave or M 556
how law should be M 556
how you obtain the M 552
how she looked the M 552
how they fitted in M 550
how they engaged in M 550
how they differ is M 548
how you choose the M 546
how they choose the M 544
how you failed to M 542
how things worked at M 542
how this measure is M 540
how they should eat M 538
how did school go M 538
how can nature be M 538
how you reached the M 532
how this alters the M 532
how they caught the M 532
how old someone is M 532
how they turned the M 530
how you answer it M 528
how they affect an M 528
how can anyone go M 526
how they divide up M 524
how they manage in M 521
how things should or M 516
how can access to M 516
how that reality is M 512
how all manner of M 512
how this degree of M 510
how far afield he M 510
how that changes the M 506
how she envied the M 506
how this disease is M 504
how they worked or M 500
how his belief in M 500
how that effect is M 498
how she treated the M 498
how this amount of M 496
how they worked as M 494
how they filled the M 494
how she helped me M 494
how you wanted the M 492
how they relate the M 492
how can thought be M 490
how god dwells in M 489
how far behind is M 489
how one stands in M 488
how far behind us M 488
how you wanted me M 486
how one viewed the M 486
how they gained the M 484
how you pulled it M 482
how you behave at M 480
how this factor is M 476
how she appears in M 476
how they shared the M 470
how this appears to M 468
how they enable the M 468
how that result is M 466
how they fought to M 462
how big something is M 460
how you desire to M 458
how this reality is M 458
how one should or M 458
how one branch of M 458
how you passed the M 456
how they viewed it M 456
how she smiled at M 454
how old something is M 454
how they served to M 452
how she taught me M 452
how you credit it M 450
how can prices be M 450
how can memory be M 450
how they inform the M 448
how god wanted to M 448
how you treated the M 446
how you adjust the M 446
how that aspect of M 446
how they enable us M 444
how can energy be M 444
how you picked up M 443
how they looked as M 442
how they travel to M 440
how they assist in M 439
how they agreed to M 438
how each letter is M 438
how she helped the M 436
how this shapes the M 432
how they played it M 430
how they affect my M 430
how you phrase the M 428
how this belief is M 428
how they served as M 428
how they taught the M 426
how any changes in M 424
how you behave as M 422
how that matter is M 422
how she dreamed of M 422
how aid should be M 422
how you needed to M 420
how you divide up M 420
how you answer me M 420
how they turned to M 420
how you called me M 414
how they select the M 414
how they return to M 414
how they helped me M 414
how they formed the M 414
how they expect us M 414
how that amount is M 414
how they wanted me M 410
how one counts the M 410
how his choice of M 410
how can prayer be M 410
how can anyone so M 410
how one engages in M 409
how our choice of M 408
how they changed as M 406
how our belief in M 406
how they become so M 402
how one moment of M 402
how can someone as M 401
how this worked is M 400
how long before an M 400
how and whether he M 400
how you killed the M 398
how they decide on M 398
how she worked to M 396
how our system is M 396
how can humans be M 396
how they emerge in M 394
how far afield it M 394
how this measure of M 392
how they report it M 392
how they judged the M 392
how she missed it M 392
how you thought the M 390
how they thought we M 390
how they refuse to M 390
how they desire to M 390
how his version of M 390
how you arrange it M 386
how this fitted in M 386
how they taught it M 386
how they differ on M 386
how they called it M 386
how she fought to M 386
how two pieces of M 384
how they evolve in M 384
how did events in M 384
how you missed it M 382
how death should be M 380
how she looked up M 378
how this course of M 376
how they endure the M 376
how one enters the M 374
how you behave to M 370
how this scheme is M 370
how they wished the M 370
how they obtain it M 370
how you became an M 368
how this thought of M 368
how this effect of M 368
how they pulled it M 368
how that system of M 368
how she begins to M 368
how this debate is M 366
how can values be M 366
how you helped us M 364
how they differ by M 364
how his friend the M 364
how you changed the M 362
how she solved the M 362
how they valued the M 360
how they tackle the M 360
how far inside the M 360
how this source of M 358
how this scheme of M 358
how you played it M 356
how far behind it M 356
how each factor is M 356
how you regard it M 354
how they access the M 354
how low should the M 354
how men looked at M 352
how this crisis is M 350
how this changes as M 350
how they report the M 350
how far afield we M 350
how does someone go M 350
how this demand is M 348
how they resist the M 348
how they affect or M 348
how can changes be M 346
how they reacted in M 344
how god wanted it M 344
how his system of M 342
how this desire to M 340
how you looked to M 338
how you deduce it M 338
how this defect is M 338
how they worked at M 338
how this serves to M 336
how you figure to M 334
how can stress be M 334
how they stayed in M 331
how this occurs we M 330
how things affect us M 330
how that choice is M 330
how she learned it M 330
how new methods of M 330
how far behind in M 330
how you affect me M 328
how this moment of M 328
how things worked on M 328
how each object is M 326
how each branch of M 326
how any person in M 326
how you define an M 324
how you manage in M 320
how things looked on M 319
how one reaches the M 319
how you behave is M 318
how this figure of M 318
how she taught the M 318
how she pulled it M 318
how far beyond my M 318
how each system is M 318
how they measure it M 316
how they varied in M 314
how she spends the M 314
how far behind me M 314
how you caught the M 312
how they govern the M 312
how she thanked me M 312
how they taught us M 310
how they follow in M 310
how they direct the M 310
how she joined the M 310
how can vanity be M 310
how can reality be M 309
how this thought is M 308
how they relied on M 308
how his person is M 308
how you wished to M 306
how they called the M 306
how one stands on M 306
how you should eat M 304
how you helped to M 304
how this choice of M 304
how his feelings of M 304
how you worked to M 302
how they adhere to M 302
how she worked on M 302
how she opened the M 302
how one weighs the M 302
how one values the M 302
how this sounds to M 300
how you reward me M 298
how they played in M 298
how they joined the M 298
how they differ as M 298
how does access to M 298
how any aspect of M 298
how age changes in M 298
how one frames the M 297
how you viewed the M 296
how they arrange the M 296
how she turned the M 296
how you should or M 294
how you affect the M 294
how that number is M 294
how far better is M 294
how this signal is M 292
how they expect me M 292
how she changed the M 292
how they regard it M 290
how they expect it M 290
how god creates the M 290
how you showed me M 288
how you attend to M 288
how they closed the M 288
how far something is M 288
how are readers to M 288
how she worked it M 286
how her family is M 286
how does belief in M 286
how you become an M 284
how she created the M 284
how her desire to M 284
how this seemed to M 282
how any degree of M 282
how you figure the M 280
how they failed in M 280
how easy something is M 280
how can virtue be M 280
how can anyone of M 280
how this phrase is M 278
how this family of M 278
how this changed the M 278
how this allows us M 278
how one person or M 278
how you helped the M 276
how this spirit is M 276
how things happen as M 276
how men reacted to M 276
how can belief in M 276
how they opened the M 274
how you record the M 272
how this memory is M 272
how far beyond it M 272
how things behave in M 271
how you worked the M 270
how that person or M 270
how can anyone eat M 270
how things worked or M 269
how you follow the M 268
how you adjust to M 268
how this design is M 268
how one appears in M 268
how far better to M 268
how this affair of M 266
how they prayed to M 266
how they attach to M 266
how god helped me M 266
how easy should it M 266
how you worked in M 264
how you missed the M 264
how this limits the M 264
how she spends it M 264
how one version of M 264
how you regard me M 262
how they thought or M 262
how they fought at M 262
how that secret of M 262
how they depict the M 260
how she stayed so M 260
how she played it M 258
how she helped to M 258
how god appears to M 257
how this strange thing M 256
how heat energy is M 256
how she filled the M 254
how big should my M 254
how this training is M 252
how this school of M 252
how they treated it M 252
how god wishes to M 252
how this talent of M 250
how they wanted us M 250
how they should he M 250
how they remind me M 250
how they accept the M 250
how she stands in M 250
how any friend of M 250
how this number of M 248
how they report on M 248
how any report of M 248
how you modify the M 246
how they attack the M 246
how they answer to M 246
how she worked at M 246
how may changes in M 246
how they helped us M 244
how they decide the M 244
how she raised the M 244
how you viewed it M 242
how his brother is M 242
how are changes to M 242
how you opened the M 240
how you depend on M 240
how you access it M 240
how this factor of M 240
how this became the M 240
how they taught me M 240
how they embody the M 240
how that output is M 240
how she turned on M 240
how few events or M 240
how far before the M 240
how you looked on M 238
how you fought the M 238
how this solves the M 238
how this charge is M 238
how they missed it M 238
how one wanted to M 238
how few realize the M 238
how few attain to M 238
how each moment of M 238
how bad something is M 238
how you finish the M 236
how they reduce the M 236
how they evaded the M 236
how that worked in M 236
how that belief is M 236
how she missed me M 236
how may pupils be M 236
how can planning be M 236
how can errors be M 236
how you follow up M 235
how you looked or M 234
how they landed in M 234
how they always do M 234
how that memory is M 234
how you worked on M 233
how you accept the M 232
how this causes the M 232
how they thought to M 232
how they reward us M 232
how one reacted to M 232
how her choice of M 232
how and whether or M 231
how you served at M 230
how this occurs by M 230
how things happen is M 230
how they forced the M 230
how that nature is M 230
how can someone in M 230
how our family is M 228
how far reality is M 228
how you divide it M 226
how you decide on M 226
how this changes in M 226
how they caused the M 226
how they walked on M 225
how they differ or M 224
how she looked so M 224
how her feelings of M 224
how can theories of M 224
how you behave on M 223
how things happen or M 222
how she called me M 222
how they figure it M 220
how they backed the M 220
how she thought we M 220
how his manner of M 220
how his handling of M 220
how she relied on M 219
how you raised me M 218
how you created it M 218
how this output is M 218
how they missed me M 218
how that figure is M 218
how one viewed it M 218
how can someone do M 218
how can feelings be M 218
how you looked the M 216
how you expect us M 216
how this sample of M 216
how they picked the M 216
how they helped or M 216
how she viewed it M 216
how this return to M 214
how they caught it M 214
how she stayed in M 214
how she gained the M 214
how god wanted me M 214
how you travel to M 212
how you reached it M 212
how this desire is M 212
how you obtain it M 210
how this person or M 210
how this excess of M 210
how they burned the M 210
how that sounds to M 210
how she prayed to M 210
how one should eat M 210
how few remain to M 210
how both should be M 210
how they relate or M 208
how they cleared the M 208
how she seemed so M 208
how one person in M 208
how one creates the M 208
how his shadow in M 208
how god taught me M 207
how they helped in M 206
how they called me M 206
how she called the M 206
how one wishes the M 206
how this letter is M 204
how this helped to M 204
how this friend of M 204
how this course is M 204
how they reached it M 204
how she needed the M 204
how she dreaded it M 204
how our images of M 204
how our desire to M 204
how old should the M 204
how each reacted to M 204
how does nature do M 204
how you turned the M 202
how they extend the M 202
how they caught me M 202
how can training be M 202
how any person or M 202
how they placed the M 200
how they assume the M 200
how she turned up M 200
how one solves the M 200
how both groups of M 200
how are images of M 200
how this school is M 198
how this reasoning is M 198
how they changed it M 198
how that seemed to M 198
how that entity is M 198
how she bought the M 198
how you remind us M 196
how you looked as M 196
how you format the M 196
how you caught me M 196
how they treated my M 196
how they should in M 196
how they relate it M 196
how they pursue the M 196
how they needed the M 196
how one degree of M 196
how each detail of M 196
how you remove the M 194
how you become the M 194
how this reaction is M 194
how this allows the M 194
how they remain in M 194
how they hunted the M 194
how this shaped the M 192
how this curious thing M 192
how long seemed the M 192
how its effect is M 192
how god raised up M 192
how all should be M 192
how you missed me M 190
how you assign the M 190
how this church of M 190
how they matter to M 190
how they escape the M 190
how she helped us M 190
how they walked in M 189
how you killed my M 188
how this report is M 188
how this looked to M 188
how this family is M 188
how they showed the M 188
how she fought the M 188
how can plants be M 188
how and whether an M 188
how they turned up M 187
how you answer my M 186
how they thought in M 186
how they rushed to M 186
how they occupy the M 186
how they insist on M 186
how they framed the M 186
how she fought it M 186
how she formed the M 186
how can speech be M 186
how you tackle the M 184
how things needed to M 184
how they walked the M 184
how our methods of M 184
how one learned to M 184
how can feelings of M 184
how they pulled the M 182
how they marked the M 182
how one object is M 182
how they passed on M 181
how god exists in M 181
how they stayed on M 180
how she worked the M 180
how one system of M 180
how far indeed the M 180
how each source of M 180
how you refuse to M 178
how you profit by M 178
how you gained the M 178
how you caught it M 178
how you always do M 178
how this burden is M 178
how they should by M 178
how they deemed of M 178
how they assist the M 178
how that something is M 178
how that market is M 178
how its output is M 178
how his memory is M 178
how you planning to M 176
how this serves the M 176
how this impact is M 176
how they unfold in M 176
how our actions in M 176
how each number in M 176
how any person is M 176
how this volume of M 174
how this custom of M 174
how they tested the M 174
how they enrich the M 174
how one teaches is M 174
how men thought at M 174
how god created it M 174
how god caused the M 174
how they stayed up M 173
how you intend it M 172
how you design it M 172
how this latter is M 172
how this answer is M 172
how they looked so M 172
how that amount of M 172
how she wanted us M 172
how she treated us M 172
how far thought is M 172
how you return to M 170
how this battle is M 170
how this access is M 170
how they should so M 170
how then should an M 170
how his theories of M 170
how his letter to M 170
how far belief in M 170
how all nature is M 170
how all matter is M 170
how that shapes the M 169
how this symbol is M 168
how they violate the M 168
how they killed my M 168
how one builds up M 168
how long someone is M 168
how ill chosen the M 168
how each letter of M 168
how far changes of M 166
how does belonging to M 166
how this occurs or M 164
how she smiles at M 164
how she enjoys the M 164
how his thought is M 164
how his return to M 164
how each version of M 164
how each phrase is M 164
how any scheme of M 164
how you treated us M 162
how you prefer it M 162
how you handle an M 162
how they behave if M 162
how our friend is M 162
how one source of M 162
how being forced to M 162
how they looked up M 161
how this volume is M 160
how this effort to M 160
how they manage on M 160
how one misses the M 160
how far useful in M 160
how each animal is M 160
how can models be M 160
how you pulled the M 158
how you placed the M 158
how you forgot to M 158
how you behave or M 158
how this moment is M 158
how they wished it M 158
how they wander in M 158
how they relate as M 158
how they realize the M 158
how they learned in M 158
how they abound in M 158
how she purged the M 158
how she begged me M 158
how one starts to M 158
how long standing the M 158
how its object is M 158
how far behind or M 158
how this mission is M 156
how this changed in M 156
how they placed it M 156
how they landed on M 156
how they buried the M 156
how they become an M 156
how that future is M 156
how she turned it M 156
how she pulled the M 156
how she killed the M 156
how our feelings of M 156
how one writes the M 156
how one played the M 156
how few should we M 156
how this aspect is M 154
how they phrase it M 154
how they design the M 154
how that demand is M 154
how that alters the M 154
how she needed it M 154
how god guides us M 154
how you warned me M 152
how you forced me M 152
how this worked at M 152
how this market is M 152
how they created an M 152
how she taught us M 152
how not merely the M 152
how long before in M 152
how his genius is M 152
how god wishes us M 152
how each viewed the M 152
how each number is M 152
how they opened up M 151
how you threaten me M 150
how this nature is M 150
how they became an M 150
how that desire is M 150
how new points of M 150
how his reaction to M 150
how each family is M 150
how you relate the M 148
how you begged me M 148
how this affair is M 148
how they threaten to M 148
how they ruined the M 148
how they ensure the M 148
how they craved it M 148
how that thought is M 148
how that profit is M 148
how that access is M 148
how pay should be M 148
how its energy is M 148
how and whither the M 148
how they worked so M 147
how they reacted on M 147
how you sought to M 146
how you smiled to M 146
how you resist the M 146
how they suffer the M 146
how they evolve as M 146
how they bought the M 146
how that mission is M 146
how she stands on M 146
how she enjoys it M 146
how one corner of M 146
how one changes the M 146
how can methods of M 146
how can groups be M 146
how can errors in M 146
how are errors in M 146
how you reacted in M 144
how you endure it M 144
how this profit is M 144
how this helped the M 144
how this creation is M 144
how they remain the M 144
how that pleases me M 144
how she seized the M 144
how she raised me M 144
how she dreaded to M 144
how she cursed the M 144
how his hatred of M 144
how her belief in M 144
how did someone so M 144
how are pieces of M 144
how god seemed to M 143
how this effort is M 142
how this appears on M 142
how they raised me M 142
how they matter in M 142
how she worded it M 142
how she washed the M 142
how she placed the M 142
how his memory of M 142
how far beyond is M 142
how each measure is M 142
how can wisdom be M 142
how can rights be M 142
how you cleaned up M 141
how you served the M 140
how you intend the M 140
how this stands in M 140
how they seized the M 140
how they loaded the M 140
how they adjust the M 140
how that effort is M 140
how one belongs to M 140
how now stands the M 140
how long periods of M 140
how his powers of M 140
how his actions in M 140
how each minute of M 140
how all phases of M 140
how all around us M 140
how you supply the M 138
how you decide the M 138
how they relate is M 138
how that branch of M 138
how she served me M 138
how our version of M 138
how one wished to M 138
how men arrive at M 138
how god teaches us M 138
how can adults be M 138
how you treated my M 136
how this damage is M 136
how things changed in M 136
how they fooled the M 136
how they damage the M 136
how they arrive in M 136
how that wicked king M 136
how she walked the M 136
how she caused the M 136
how one models the M 136
how one little thing M 136
how does anyone do M 136
how all through my M 136
how you taught us M 134
how you grieve me M 134
how you fooled me M 134
how they weight the M 134
how they permit the M 134
how they figure the M 134
how they agreed in M 134
how she summed up M 134
how old should my M 134
how her brother in M 134
how few listen to M 134
how can cities be M 134
how but through the M 134
how they passed by M 133
how this worked to M 132
how this supply of M 132
how this medium is M 132
how things happen at M 132
how they record the M 132
how they defend the M 132
how she walked in M 132
how she caught it M 132
how one became an M 132
how men choose to M 132
how its nature is M 132
how her reaction to M 132
how few copies of M 132
how each person or M 132
how does training in M 132
how does someone in M 132
how you joined the M 130
how you bought it M 130
how this record is M 130
how this proves the M 130
how they seemed so M 130
how they guided the M 130
how that weight is M 130
how that degree of M 130
how she agreed to M 130
how our reaction to M 130
how far owners of M 130
how can anyone as M 130
how any measure of M 130
how she stands up M 129
how this master of M 128
how this begins to M 128
how they sorted the M 128
how they regard us M 128
how they played on M 128
how they differ at M 128
how they define or M 128
how that amused me M 128
how she writes to M 128
how she walked on M 128
how she lifted the M 128
how sad appears the M 128
how his mission is M 128
how each virtue is M 128
how can training in M 128
how can peoples of M 128
how you escape the M 126
how this training in M 126
how things shaped up M 126
how they suffer in M 126
how they proved to M 126
how that changed the M 126
how one result of M 126
how one envies the M 126
how long through the M 126
how his methods of M 126
how far already the M 126
how any friend to M 126
how all speech is M 126
how she worked as M 125
how you thought we M 124
how you excuse my M 124
how you bought the M 124
how you attach the M 124
how this shifts the M 124
how this clause is M 124
how they walked to M 124
how they shared in M 124
how they injure the M 124
how our school is M 124
how our future is M 124
how one dwells on M 124
how its effect on M 124
how his sister is M 124
how god helped the M 124
how few remain of M 124
how far credit is M 124
how each stands in M 124
how does something so M 124
how can groups of M 124
how she landed in M 123
how this pathway is M 122
how this occurs at M 122
how things happen the M 122
how they picked me M 122
how they filled in M 122
how that phrase is M 122
how that domain is M 122
how she shared the M 122
how our habits of M 122
how each moment is M 122
how each column is M 122
how you learned so M 120
how this effect on M 120
how this domain is M 120
how this appeals to M 120
how they viewed me M 120
how they further the M 120
how they called to M 120
how that impact is M 120
how she solved it M 120
how one thought of M 120
how one reached the M 120
how one begins the M 120
how men manage to M 120
how god became an M 120
how few points of M 120
how few amongst us M 120
how far beyond us M 120
how each record is M 120
how can credit be M 120
how are feelings of M 120
how and advise on M 120
how you tested the M 118
how you raised the M 118
how this worked on M 118
how things happen by M 118
how they created it M 118
how they assist us M 118
how she relies on M 118
how new models of M 118
how meat should be M 118
how god worked to M 118
how far genius is M 118
how each system of M 118
how each symbol is M 118
how each module is M 118
how can someone go M 118
how can habits of M 118
how they showed up M 117
how you worked as M 116
how you turned it M 116
how you picked it M 116
how you beckon or M 116
how they supply the M 116
how they signal the M 116
how they should sing M 116
how they lifted the M 116
how they abused the M 116
how that course of M 116
how she misses the M 116
how she denied it M 116
how she adored the M 116
how its impact on M 116
how his speech is M 116
how his friend is M 116
how his attack on M 116
how god created me M 116
how far someone is M 116
how easy access to M 116
how each aspect is M 116
how all orders of M 116
how all around the M 116
how they emerge as M 115
how you suffer the M 114
how this arises in M 114
how they yearned to M 114
how they chased the M 114
how that spirit of M 114
how she needed me M 114
how she laughs at M 114
how our sample of M 114
how one effect of M 114
how his regard be M 114
how god turned the M 114
how far theories of M 114
how far regard to M 114
how did something so M 114
how can issues of M 114
how you planning on M 112
how you landed in M 112
how you formed the M 112
how this attack on M 112
how they smiled at M 112
how they retire to M 112
how they recall the M 112
how they raised it M 112
how they encode the M 112
how they betray the M 112
how they answer it M 112
how they always go M 112
how they accept or M 112
how she yelled at M 112
how she should or M 112
how she forgot to M 112
how men sought to M 112
how her sister is M 112
how god appears in M 112
how far before we M 112
how can demand be M 112
how being unable to M 112
how are judges to M 112
how and training of M 111
how you picked the M 110
how you expect or M 110
how you amused me M 110
how you accept it M 110
how this virtue is M 110
how this should go M 110
how this corner of M 110
how they turned on M 110
how they toiled in M 110
how they remind us M 110
how they profit by M 110
how they prayed in M 110
how they define an M 110
how they absorb the M 110
how she thought to M 110
how she called at M 110
how one wishes it M 110
how one school of M 110
how ill excess in M 110
how god parted the M 110
how you taught the M 108
how you stayed in M 108
how you learned my M 108
how you figure he M 108
how you define or M 108
how this matrix is M 108
how this church is M 108
how this avoids the M 108
how this arises we M 108
how they regard me M 108
how they raised us M 108
how they pursue it M 108
how they ignore the M 108
how they attain the M 108
how that fitted in M 108
how that agency is M 108
how our nature is M 108
how old anyone is M 108
how man stands in M 108
how its system is M 108
how god wanted us M 108
how god helped us M 108
how few authors of M 108
how few attain the M 108
how far useful to M 108
how far merely to M 108
how far greater is M 108
how each clause is M 108
how did belief in M 108
how any should be M 108
how you market it M 106
how you called the M 106
how you agreed to M 106
how this belongs to M 106
how they proved it M 106
how they prefer the M 106
how they master the M 106
how they engaged the M 106
how they called up M 106
how that weakening of M 106
how that little is M 106
how that burden is M 106
how she raised us M 106
how she engaged in M 106
how one seemed to M 106
how its system of M 106
how has access to M 106
how both affect the M 106
how any choice of M 106
how all creation is M 106
how you showed up M 105
how this occurs as M 105
how can access be M 105
how you marked the M 104
how you direct the M 104
how you changed it M 104
how you attack the M 104
how this stress on M 104
how this shifting of M 104
how this return is M 104
how this prayer is M 104
how this crisis of M 104
how they wished he M 104
how they manage at M 104
how they fought on M 104
how they filled up M 104
how they dreaded the M 104
how that spirit is M 104
how she quotes the M 104
how one treated the M 104
how one needed to M 104
how far greater the M 104
how each detail is M 104
how can states be M 104
how can damage to M 104
how all reality is M 104
how you walked in M 103
how you treated it M 102
how this wisdom is M 102
how this marvel of M 102
how this emotion is M 102
how things seemed at M 102
how they turned it M 102
how they formed in M 102
how they extend to M 102
how they denied the M 102
how they cleaned the M 102
how they caught on M 102
how that little thing M 102
how she always is M 102
how low should we M 102
how long beyond the M 102
how its design is M 102
how god causes the M 102
how can methods be M 102
how bad someone is M 102
how any changes to M 102
how you report the M 100
how you report it M 100
how you record it M 100
how you endure the M 100
how was reform to M 100
how this weight is M 100
how this version is M 100
how this burden of M 100
how things matter to M 100
how they travel in M 100
how they pushed the M 100
how they needed it M 100
how they inform us M 100
how they braved the M 100
how that should so M 100
how that occurs is M 100
how that affair of M 100
how she stands the M 100
how she cleaned the M 100
how she changes the M 100
how our powers of M 100
how our measure of M 100
how one thought is M 100
how one engages the M 100
how old should he M 100
how going through the M 100
how god judges the M 100
how each figure is M 100
how are habits of M 100
how you turned my M 98
how you traced me M 98
how you thought to M 98
how you release the M 98
how you pitied me M 98
how this worked by M 98
how this stress is M 98
how this hatred of M 98
how this entity is M 98
how things should he M 98
how things happen on M 98
how they showed it M 98
how they secure the M 98
how they played at M 98
how they looked by M 98
how they joined in M 98
how they fitted the M 98
how they dreamed of M 98
how they detect the M 98
how they changed or M 98
how that version of M 98
how that helped me M 98
how she valued the M 98
how she should eat M 98
how she caught me M 98
how one teaches it M 98
how one family of M 98
how his habits of M 98
how his effort to M 98
how god opened the M 98
how far training in M 98
how far nature is M 98
how far access to M 98
how each serves to M 98
how and impart it M 98
how you reduce the M 96
how you finish it M 96
how you figure on M 96
how you changed my M 96
how this gospel is M 96
how they valued it M 96
how they matter is M 96
how they happen in M 96
how they changed my M 96
how our models of M 96
how our friend the M 96
how one causes the M 96
how not merely to M 96
how men differ in M 96
how its claims to M 96
how his school is M 96
how her nature is M 96
how her memory of M 96
how god formed the M 96
how fear should be M 96
how each school of M 96
how big should an M 96
how are prices of M 96
how you reward my M 94
how you pushed me M 94
how you ensure the M 94
how you backed up M 94
how wit should be M 94
how two peoples so M 94
how this reality of M 94
how this member of M 94
how this creation of M 94
how this creates an M 94
how things around us M 94
how they worked me M 94
how they worked is M 94
how they washed the M 94
how they waited in M 94
how they thought an M 94
how they remove the M 94
how they fought it M 94
how they foster the M 94
how that training is M 94
how she writes of M 94
how she teaches it M 94
how she summed it M 94
how one wishes he M 94
how one looked in M 94
how men thought of M 94
how long anyone is M 94
how her family of M 94
how god called me M 94
how few pieces of M 94
how far merely the M 94
how far member of M 94
how far existing in M 94
how far behind my M 94
how each sought to M 94
how each seemed to M 94
how each person on M 94
how can images be M 94
how big around it M 94
how are groups of M 94
how any mention of M 94
how you dreamed of M 92
how you defend the M 92
how you called it M 92
how two streams of M 92
how this prayer of M 92
how this margin is M 92
how this creates the M 92
how this attack is M 92
how this agenda is M 92
how things seemed in M 92
how things passed in M 92
how they toiled to M 92
how they threaten the M 92
how they showed in M 92
how they retain the M 92
how they resort to M 92
how they cheated the M 92
how that appears to M 92
how she treated my M 92
how she pitied the M 92
how she enters the M 92
how she engages in M 92
how one writes of M 92
how one exists in M 92
how its impact is M 92
how his pupils or M 92
how his master is M 92
how his family of M 92
how her version of M 92
how her brother is M 92
how god wanted the M 92
how god changed my M 92
how far behind do M 92
how far before he M 92
how each worker is M 92
how each school is M 92
how each client is M 92
how does altering the M 92
how you turned up M 91
how this serves as M 91
how they caught up M 91
how you update the M 90
how you tackle it M 90
how you looked so M 90
how you detect the M 90
how this strain of M 90
how this points to M 90
how this advice is M 90
how they resist it M 90
how they report to M 90
how they formed an M 90
how that family is M 90
how she wishes the M 90
how she solves the M 90
how she called to M 90
how she appears on M 90
how men thought in M 90
how may plants be M 90
how long standing is M 90
how ill agrees it M 90
how his family in M 90
how god through the M 90
how far methods of M 90
how each letter in M 90
how each course of M 90
how does studying the M 90
how can hatred be M 90
how can actions be M 90
how are values of M 90
how are likely to M 90
how and whither he M 90
how she showed up M 89
how you thought he M 88
how you served me M 88
how you learned in M 88
how you figure in M 88
how this building is M 88
how things affect me M 88
how they traced the M 88
how they smiled in M 88
how they envies us M 88
how they envied the M 88
how they endure it M 88
how they defied the M 88
how they decide it M 88
how they choose or M 88
how they called on M 88
how she wishes it M 88
how she wished we M 88
how she sought the M 88
how she failed in M 88
how she called on M 88
how our friend of M 88
how one spends the M 88
how one grasps the M 88
how may errors in M 88
how his system is M 88
how few prefer at M 88
how far caused by M 88
how far afield to M 88
how does someone do M 88
how are pupils to M 88
how are crimes to M 88
how you should in M 86
how you rotate the M 86
how you needed the M 86
how you market to M 86
how you fought to M 86
how this served to M 86
how this reform is M 86
how this prince of M 86
how this lesson is M 86
how this circle of M 86
how this battle of M 86
how they tackle it M 86
how they looked the M 86
how they divide it M 86
how they accept it M 86
how that return is M 86
how that charge is M 86
how she teaches the M 86
how she rushed to M 86
how she passes the M 86
how she covers it M 86
how our theories of M 86
how his spirit is M 86
how his nature is M 86
how god rested on M 86
how far justly is M 86
how each column of M 86
how can safety be M 86
how can emotion be M 86
how big should we M 86
how are claims to M 86
how all unlike the M 86
how air enters the M 86
how you wished it M 84
how you travel in M 84
how you handle me M 84
how you fought in M 84
how you fought at M 84
how this sample is M 84
how this format is M 84
how this charge of M 84
how they purged the M 84
how they manage or M 84
how they intend the M 84
how they failed or M 84
how she willed it M 84
how she waited to M 84
how she served the M 84
how she avoids the M 84
how our states of M 84
how our reality is M 84
how our actions or M 84
how one serves the M 84
how one engaged in M 84
how long before no M 84
how kings should be M 84
how his writings on M 84
how his weight is M 84
how his circle of M 84
how god changes the M 84
how each tenant of M 84
how does anyone go M 84
how can someone of M 84
how can another be M 84
how you filled in M 83
how you turned on M 82
how you smiled at M 82
how you regard my M 82
how you punish me M 82
how you prefer the M 82
how you picked me M 82
how you impact the M 82
how you helped my M 82
how you expand the M 82
how two bodies of M 82
how this nature of M 82
how this branch is M 82
how they viewed my M 82
how they sought the M 82
how they commit or M 82
how that looked to M 82
how that answer is M 82
how that agenda is M 82
how she changed in M 82
how our family of M 82
how one friend of M 82
how his visits to M 82
how his master of M 82
how god enters the M 82
how can purity be M 82
how being raised in M 82
how are humans to M 82
how you failed in M 80
how this ordering is M 80
how this gathering of M 80
how this desire of M 80
how this became an M 80
how this animal is M 80
how they worked by M 80
how they seized on M 80
how they record it M 80
how they reached me M 80
how they loaded me M 80
how they couple to M 80
how they called us M 80
how that occurs in M 80
how she values the M 80
how she reacted in M 80
how she became my M 80
how one writes an M 80
how man became the M 80
how god wished to M 80
how few errors the M 80
how far feelings of M 80
how can mothers be M 80
how all around is M 80
how she fitted in M 58
how did someone as M 53
how she walked up M 50
how they became as M 49
how you looked up M 47
how does something as M 46
how and desire to M 44
how they agreed on M 43
how one minute he M 41
how you manage on M 40
how and wanted to M 40
how and training to M 40
hot air through the D 3302
hot and stuffy in D 2829
hot and sticky in D 1392
how long refuse ye D 1340
hot and should be D 1242
how she talked to D 1186
how they tended to D 1172
hot bath should be D 1166
how they talked to D 1138
how this feature of D 990
how that income is D 936
how far inland the D 906
hot with plenty of D 888
how and whence it D 882
how this tension is D 880
how that portion of D 874
hot air inside the D 872
how this series of D 832
how one portion of D 830
hot air around the D 824
how each section of D 802
how you talked to D 786
how this policy is D 770
how you sliced it D 756
how they stared at D 754
how this portion of D 736
how this income is D 728
hot and sticky as D 708
how this section of D 706
how they strive to D 706
how she stared at D 706
hot air instead of D 690
hot and tender to D 684
how art should be D 682
how our notions of D 680
hot and begins to D 670
how they strove to D 654
hot and bright as D 652
hot dry summer of D 642
how this feature is D 636
hot for anyone to D 606
hot and sultry in D 604
how she loathed the D 602
hot air enters the D 598
how she strove to D 588
hot and cheese is D 582
how they talked of D 576
how and whence the D 568
how this policy of D 566
hot gas through the D 560
hot and bright in D 550
how that policy is D 532
hot with butter or D 520
hot air should be D 498
how she talked of D 496
how one section of D 496
how they cooked it D 490
hot air seemed to D 488
how each portion of D 474
how hot something is D 470
hot and stifling in D 468
hot sun through the D 452
how this device is D 444
how you strike me D 436
how they scored on D 432
how they employ it D 432
hot air through it D 422
hot air entering the D 416
how two plates of D 406
how this section is D 406
how far astray the D 406
hot sun seemed to D 398
hot and bright on D 396
hot and stuffy as D 386
how sex should be D 382
how his career as D 370
how you kissed me D 366
hot and wanted to D 362
how any portion of D 358
how are courts to D 354
how they employ the D 352
how real estate is D 350
hot gas inside the D 348
hot and seemed to D 348
how she refers to D 346
how low levels of D 338
how they ranked the D 336
hot and stifling as D 334
hot and sultry as D 333
hot and fierce as D 332
how they struck me D 330
how each section is D 328
hot and sticky to D 326
how this impinges on D 318
how they strike the D 316
how all levels of D 316
hot and thirsty in D 316
hot air across the D 312
how and whence he D 310
hot and smelling of D 304
how one refers to D 294
how net income is D 290
how one adapts to D 288
how she tended to D 286
hot gas enters the D 284
how each feature is D 282
how this varies by D 280
how they danced in D 280
hot and sticky on D 280
how they convey the D 278
hot dog stands in D 278
hot and fierce in D 278
how and skills to D 276
how and skills of D 275
hot long enough to D 274
hot dry plains of D 268
how you scored on D 264
how few traces of D 264
how far astray we D 264
hot dog vendor at D 264
how each dollar of D 262
hot and stuffy to D 258
how you talked me D 256
how she sucked in D 256
how can slaves be D 256
hot for nelson to D 254
how you messed up D 249
how they mediate the D 246
how she struck me D 246
hot sun before the D 244
how each feature of D 242
how death lurked in D 240
hot sun should be D 238
how and whence to D 236
how does focusing on D 234
how far barred by D 232
how they strike me D 230
how are armies to D 230
hot dry regions of D 226
hot and placed in D 226
how can rebels be D 224
how far courts of D 222
hot day toward the D 222
how this empire of D 220
hot oil through the D 220
hot and plenty of D 220
hot dog stands to D 218
how our planet is D 216
hot bath before the D 216
how they talked in D 214
hot dry summer is D 212
how this varies in D 208
how this status is D 208
how his opinion of D 208
how all facets of D 208
hot and violent in D 208
hot and pungent to D 208
hot and sultry to D 206
how far astray he D 204
hot red pepper to D 202
how she repays me D 200
hoes and spades to D 197
how this tended to D 196
how they render the D 196
how they impinged on D 195
how hot should the D 194
how and skills in D 194
how they struck the D 192
how that status is D 192
hot red pepper or D 192
hot air system is D 190
how they strike at D 188
how they ranked in D 188
how its courts or D 188
hot and burned the D 188
how you invoke the D 186
how they impede the D 186
how are levels of D 186
hot bath before tea D 186
how this opinion is D 184
how all traces of D 184
how that tension is D 182
hot air enters at D 180
how thou earnest to D 178
how can leaders be D 178
hot with slices of D 178
hot with excess of D 178
hot sun across the D 178
how thou earnest by D 176
how she stares at D 176
how his status as D 176
how and whence is D 176
hot long before the D 176
hot and starting to D 176
how they feature in D 174
how far notions of D 174
hot gas around the D 174
how that swarming of D 172
how that spending is D 172
how are notions of D 172
hot dog recipe is D 172
hot and stuffy it D 172
hot air before it D 170
hot rum poured on D 168
hot and winter is D 168
how that portion is D 164
hot and violent as D 164
hot and thirsty to D 164
hot and smells of D 164
hot all through the D 164
how you strive to D 162
how god tastes an D 162
hot gas entering the D 162
hot sun blazed in D 161
hot sun shines on D 160
hot dog vendor on D 160
hot dry summer in D 158
hot air begins to D 158
how you strike the D 156
how one series of D 156
hot and cooled in D 156
how this varies as D 155
how you stared at D 154
how they sailed the D 154
how far inland it D 154
hot and needed to D 154
hot air causes the D 154
how you struck me D 152
how can oxygen be D 152
how they ruffle the D 150
how each dollar is D 150
hot air filled the D 150
how they orient to D 148
hot sun kindle no D 148
hot bath instead of D 148
hot and earnest in D 148
how they settle in D 147
how this butter is D 146
how they settle it D 146
how they render it D 146
hot dog vendor in D 146
hot and tasted of D 146
hot and reeked of D 146
how they mocked me D 144
how our muster is D 144
hot end toward the D 144
hot and bitter as D 144
how they invest in D 143
how they robbed the D 142
how that section of D 142
how she kissed me D 142
hot gas behind the D 142
how does doubling the D 140
hot dog stands on D 140
hot day through the D 140
how can cancer be D 138
hot with passion or D 138
hot and starts to D 138
hot and barren as D 138
how you invest the D 136
how this struck me D 136
hot sun melted the D 136
hot and sticky at D 136
how they messed up D 135
how two levels of D 134
how one slices the D 134
how each device is D 134
hot oil should be D 134
hot air toward the D 134
how you employ it D 132
how they mirror the D 132
how may starch be D 132
hot sun before he D 132
how you reckon he D 130
how you insult me D 130
how things strike us D 130
how they locate the D 130
how man adapts to D 130
hot gas enters at D 130
hot dog instead of D 130
hot and clammy in D 130
hot and bitter to D 130
hot air beyond the D 130
hot air passes up D 129
how you invest it D 128
how you hooked up D 128
how she sticks to D 128
how new levels of D 128
how each sector of D 128
how does reducing the D 128
hot and thirsty as D 128
how you excite me D 126
how this diagram is D 126
how they danced on D 126
how his notions of D 126
how can nations be D 126
how this opinion of D 124
how god reveals to D 124
hot and stuffy on D 124
hot and ignite the D 124
hot and allowing it D 124
hot and worked up D 123
how you offend the D 122
how you employ the D 122
how you convey it D 122
how this sector is D 122
how they derive the D 122
how they bribed the D 122
how that feature is D 122
how can nurses be D 122
hot sun begins to D 122
hot gas should be D 122
hot and sultry on D 122
how one slices it D 120
how his policy of D 120
how his income is D 120
hot and sultry it D 120
hot air system of D 120
how they strike us D 118
how they debase the D 118
how that budget is D 118
how she viewed thy D 118
how she spells it D 118
hot and thirsty by D 118
how they packed the D 116
how she mourns thy D 116
how one labels the D 116
how one feature of D 116
how can policy be D 116
how can morale be D 116
hot red pepper in D 116
hot and burned my D 116
hot and bitter in D 116
hot air system in D 116
how you relish the D 114
how you locate the D 114
how that orchid is D 114
how she gnawed it D 114
how its policy is D 114
how his errand is D 114
how each player is D 114
how can racism be D 114
how can levels of D 114
how art therapy is D 114
how our steeds eat D 112
how his career in D 112
hot meal before the D 112
hot and stuffy the D 112
how you settle it D 110
how this schema is D 110
how she adapts to D 110
how may oxygen be D 110
how and whence of D 110
hot and before the D 110
how you tickle my D 108
how they invade the D 108
how they cohere in D 108
how can theology be D 108
how can opinion be D 108
hot and unable to D 108
hot and stuffy at D 108
hop has become the D 108
hoed and thinned to D 108
how this coupling is D 106
how they hooked up D 106
how his estate is D 106
hot and causes the D 106
hop and breadths of D 106
how you stowed so D 104
how this influx of D 104
how that divers of D 104
how one sector of D 104
how far inland he D 104
how can focusing on D 104
hot they should be D 104
hot dog stands or D 104
hot and urgent on D 104
hot and smelly in D 104
hoes and spades of D 104
hoes and spades in D 104
how they deploy the D 102
how tax policy is D 102
how she nursed thy D 102
how our policy of D 102
how its income is D 102
how ill suited the D 102
how her status as D 102
how few ounces of D 102
how can erosion be D 102
how are stocks in D 102
how this strand of D 100
how this ritual is D 100
how this dismal thing D 100
how they linked the D 100
how that stacks up D 100
how one climbs it D 100
how her career as D 100
hot and furious in D 100
hog and tossed it D 100
hog and hominy to D 100
how you kissed my D 98
how you invest in D 98
how they daubed it D 98
how they bridge the D 98
how she stacks up D 98
how she courts in D 98
how one strand of D 98
how his career is D 98
hot with wedges of D 98
hot and sticky it D 98
hot and dazzling as D 98
hot and bright the D 98
how this target is D 96
how this island is D 96
how they harass us D 96
how they danced to D 96
how that impinges on D 96
how its status as D 96
how and whence do D 96
hot sun watching the D 96
hot she wanted to D 96
hot air through an D 96
how they should doe D 94
how they settle on D 94
how they popped in D 94
how she clawed it D 94
how new notions of D 94
how ill suited to D 94
how few starve of D 94
how each parcel of D 94
how can copper be D 94
how and whence we D 94
hot that summer in D 94
hot dry summer the D 94
hot and placed on D 94
hot and furious as D 94
hot air supply to D 94
hot air inside it D 94
hot air around it D 94
how she flared up D 93
how yon crowds of D 92
how that opinion of D 92
how that opinion is D 92
how she cooked it D 92
hot gas created by D 92
hot dry periods in D 92
hot and clouds of D 92
hot air entering at D 92
hot air created by D 92
how you danced in D 90
how was dinner at D 90
how this sector of D 90
how they lashed the D 90
how they lacked the D 90
how she hooked up D 90
how real tennis is D 90
hot with labour or D 90
hot meal should be D 90
hot and sultry the D 90
hot and opened the D 90
hoes and pieces of D 90
how you juggle the D 88
how you insert the D 88
how you employ an D 88
how you derive the D 88
how this recipe is D 88
how they danced the D 88
how they cooked the D 88
how that flower of D 88
how real income is D 88
how far inland we D 88
hot sun caused the D 88
hot dry spells in D 88
hot dry periods of D 88
hot and urgent as D 88
hot and stuffy or D 88
how you repine at D 86
how you peeped in D 86
how you orient the D 86
how this flower of D 86
how this enzyme is D 86
how this blending of D 86
how they linked to D 86
how they infect the D 86
how they glared at D 86
how they danced at D 86
how she sighed to D 86
how may ammonia be D 86
how few troops he D 86
how did notions of D 86
hot with desire to D 86
hot sun instead of D 86
hot and sultry at D 86
hot and stifling to D 86
hot and sticky by D 86
hot and bright to D 86
hot and before it D 86
hot air blower or D 86
hop all around the D 86
how you invoke it D 84
how you excite my D 84
how two series of D 84
how this theology of D 84
how this series is D 84
how they scored the D 84
how they resent the D 84
how that series of D 84
how she messed up D 84
hot dog market in D 84
hot and zealous in D 84
hot and wearied as D 84
hot and devoid of D 84
how you cooked it D 82
how this regime is D 82
how this office is D 82
how they talked at D 82
how they settle the D 82
how they relish the D 82
how she hugged me D 82
how one parses the D 82
how can equity be D 82
hot sun blazed on D 82
hot lead through the D 82
hot and thirsty on D 82
hot and stifling by D 82
hot and likely to D 82
hot and dipped in D 82
how you strove to D 80
how you repaid me D 80
how you jumped to D 80
how you convey the D 80
how thou likest it D 80
how this refers to D 80
how they convey it D 80
how old hamlet is D 80
how his cousin the D 80
how can scores on D 80
hot sun warmed the D 80
hot sun beside the D 80
hot oil instead of D 80
hot day before the D 80
hot and thirsty he D 80
hoed and weeded the D 53
hot and stuffy so D 48
hot and turned on D 43
how she harped on D 40
how one stacks up D 40
hot air rushed in D 40
hoeing and stirring the D 40
