hope was that the M 41308
hold his own in M 33774
hold its own in M 31728
holy see and the M 29984
home with him to M 23598
hope that this is M 22694
hope one day to M 22006
hope that one of M 20648
hold out for the M 18240
hold his head up M 18160
hope that all the M 17448
hope that with the M 16970
hope you may be M 16454
home and try to M 15783
hold her own in M 15510
home with all the M 15506
hold that this is M 14238
hope that all of M 14124
hope for was to M 14068
hope with all my M 13864
home was one of M 13648
hope that you do M 13537
hold one end of M 13038
home can not be M 12220
hour day and the M 11930
hold her head up M 11437
home and for the M 10211
home and all the M 10067
home and out of M 9646
hope was that he M 9428
home and that the M 9348
home with them to M 9292
home and that he M 9243
hope they may be M 9162
home with her to M 9036
home and put it M 8970
hope that out of M 8734
home with one of M 8616
home with him in M 8604
hoping that one of M 8324
home for fear of M 8008
home and with the M 7699
home one day to M 7540
home and read the M 7414
home may not be M 7310
hope that she is M 7238
home and read it M 7054
home and had to M 6981
hold our own in M 6742
hope you are in M 6695
hold them for the M 6602
hope ere long to M 6574
hold that god is M 6487
home and put on M 6467
hour set for the M 6362
holy one and the M 6246
home and not in M 6173
hope that one or M 6096
home for all the M 6034
home and that of M 5978
home and see if M 5971
home and going to M 5917
hold that all the M 5847
hope that they do M 5752
home and get the M 5714
hole was cut in M 5690
home and bring up M 5568
hope can not be M 5546
home and not to M 5522
hold for all the M 5259
hope and fear in M 5122
hoping one day to M 5110
hope you can do M 5110
hope was that it M 5062
home was not the M 5034
home and set up M 5018
hope you get the M 4989
holy see for the M 4926
home with him at M 4916
home for two or M 4886
hour each day to M 4867
home and see the M 4798
home and saw the M 4772
home with him the M 4746
hope that each of M 4726
home and put the M 4714
home and let the M 4554
hope was that by M 4526
hope for all of M 4514
hope you are as M 4489
home with you to M 4454
home and see my M 4452
home with him as M 4370
hope this may be M 4334
hold that man is M 4318
home and get my M 4296
hope you are the M 4262
holy war for the M 4254
hope that was in M 4244
home for all of M 4220
hope you and the M 4130
hope and joy in M 4084
hour for him to M 4042
home with them in M 4000
hold its own as M 3978
home was near the M 3960
home and get to M 3952
home for one of M 3934
hour and that the M 3912
hope that for the M 3898
hope was not to M 3873
hope you got my M 3872
home with her in M 3852
hold his head in M 3843
home and then to M 3838
hour and day to M 3786
hope for any of M 3770
hope and joy of M 3736
hope was that if M 3727
hope that any of M 3726
hope you got the M 3712
hope may not be M 3706
hour and day by M 3682
home for them in M 3639
hold its head up M 3621
hope for all the M 3582
home with them as M 3564
hope now was to M 3557
hour day for the M 3532
hour and then the M 3528
home and had no M 3521
hour for them to M 3504
home and goes to M 3503
home with them the M 3474
home with him on M 3468
hope that both the M 3434
hole can not be M 3412
hour can not be M 3307
hope and joy to M 3297
hold him for the M 3276
home and let me M 3270
hope for that we M 3226
hour each day in M 3169
hope you get it M 3158
hold she had on M 3155
home that can be M 3130
hold this for me M 3128
home and that it M 3119
hope that all is M 3076
home and get it M 3050
hole cut out of M 3043
hope she may be M 3040
hour was one of M 3038
home was going to M 3014
holy man and the M 3010
hold out for an M 2989
hope you get to M 2979
home with them at M 2964
holy see and to M 2955
hope for him in M 2953
hold them all in M 2951
hold all things in M 2910
holy war and the M 2900
hope and fear of M 2898
hold that they do M 2879
home and not be M 2824
hope for you is M 2822
home for him to M 2814
home and all of M 2814
hour with him in M 2794
hold for all of M 2744
home with all of M 2738
home and put to M 2737
home and not go M 2734
home one day in M 2714
hope you see the M 2710
hope for them in M 2710
home and not at M 2691
hoping that with the M 2626
home for her to M 2626
hour for each of M 2615
hold his own at M 2606
hope you mean to M 2597
hope you can be M 2565
hope was that we M 2550
home and one of M 2550
holy see and of M 2539
home was not in M 2518
hope was that in M 2515
home was that of M 2506
hope that god is M 2502
hope that that is M 2496
home for him in M 2494
home was out of M 2488
home and put in M 2488
hope now lay in M 2467
hope for them to M 2454
home and get on M 2440
hold for each of M 2420
home and had the M 2415
home was not an M 2384
home was not so M 2375
home and how to M 2354
host can not be M 2349
hope for was the M 2310
hour for you to M 2308
hour for going to M 2292
home with her at M 2281
home and sit in M 2273
home for them to M 2262
hope now that the M 2254
hour for her to M 2244
holy men and the M 2238
home with one or M 2232
hope and with the M 2211
home and bring it M 2208
home for her in M 2204
hold and use the M 2204
home and this is M 2190
home and use it M 2180
hole that can be M 2178
hold his own on M 2171
hope for him to M 2140
home run for the M 2140
hoping that all the M 2132
holy see with the M 2130
hope that may be M 2108
hold its own on M 2108
hour and for the M 2105
hold that one of M 2105
home and was in M 2094
hope and fear as M 2085
home they had to M 2066
home and then the M 2059
hour and day of M 2050
home and that is M 2050
home and use the M 2038
hold his own as M 2036
hope was for the M 2019
home that was to M 2008
home and can be M 1998
hold any one of M 1986
home each day to M 1977
hour and then we M 1976
home and got the M 1976
home for you to M 1968
hold them with the M 1964
home and then in M 1939
hope that death is M 1934
home and then he M 1934
hold that all of M 1932
home and try it M 1930
home run with the M 1928
home was not as M 1905
hope was one of M 1902
hope they can be M 1900
hope and fear to M 1897
home was not to M 1888
hope you rot in M 1885
hour may not be M 1875
hope that can be M 1868
hope that both of M 1864
home and then go M 1859
home and did the M 1859
hold and that the M 1847
hope than that of M 1846
home with you in M 1840
home she had to M 1840
hope they had of M 1824
hope for any thing M 1824
hope that all my M 1820
home and may be M 1818
hold them out to M 1790
home and sat in M 1789
host was one of M 1786
home and see to M 1784
hour each way to M 1783
hold that for the M 1780
hope being that the M 1779
home and say to M 1772
hold out for at M 1770
hour day was the M 1766
home and she is M 1754
hope for now is M 1753
home and that we M 1736
home and you do M 1721
hope that doing so M 1718
holy see that the M 1716
hold his seat in M 1712
hour for all the M 1701
hope and aim of M 1700
hour and then he M 1665
home and sat on M 1657
home and one in M 1644
home and then we M 1626
hold for both the M 1626
hour and can be M 1624
hold out for as M 1620
home and not the M 1595
hold out for so M 1581
home that was the M 1578
hope lay with the M 1569
home and bring the M 1560
home but not in M 1557
hope she had of M 1556
hold can not be M 1548
holy one who is M 1543
hold they had on M 1538
hold that both the M 1537
home for one or M 1524
home for both of M 1512
hour with one of M 1508
hope and all the M 1497
home with her on M 1486
hope for you to M 1480
hole and put the M 1478
hole cut for the M 1462
hope this can be M 1459
home and let us M 1454
holy war with the M 1444
home and set it M 1438
hoping that this is M 1436
hope you got it M 1434
home and put my M 1426
home was that the M 1420
home all day to M 1420
home and run the M 1418
home than any of M 1414
hoping you are the M 1410
home with her as M 1404
home and then at M 1402
hold that each of M 1401
hour and then go M 1398
home that day to M 1394
home but for the M 1386
hold her head in M 1386
hope that was the M 1384
home pay for the M 1380
hold them both in M 1380
hope that now the M 1370
home but not at M 1367
home and one at M 1362
hoping they may be M 1354
holy man who is M 1350
home with her the M 1348
home with you at M 1344
home and got my M 1344
hour and all the M 1341
hour and then to M 1329
home with you as M 1322
hour with all the M 1309
hold him and he M 1304
hoping for one of M 1302
home and was the M 1292
hope that god in M 1290
hole that was the M 1286
home was now in M 1282
home she was in M 1280
hope was not in M 1279
hope you had the M 1275
hope but that of M 1273
hoping with all my M 1272
home and they do M 1270
hour ago and he M 1262
hoping that one or M 1262
home and put up M 1259
host may not be M 1253
home for use in M 1244
hoping that was the M 1242
home run and the M 1242
home and got to M 1242
holy things for the M 1239
home that may be M 1234
home and how he M 1230
hour day and an M 1228
hold out with the M 1222
home with him or M 1208
home and sit on M 1208
home than they do M 1204
home with them on M 1202
hold them and the M 1202
hope for was an M 1199
hour that was to M 1196
hour law and the M 1196
home and get in M 1193
hole and saw the M 1186
home and put me M 1182
hold its own at M 1180
hope too that the M 1178
hope for one of M 1178
home with any of M 1176
hour day with no M 1174
home and hid it M 1174
hope you are at M 1173
hold its own by M 1168
hole that led to M 1158
hour and with the M 1155
home with all my M 1152
home and with my M 1152
hold her for the M 1152
hour ago that he M 1150
hope that men of M 1150
hour and that he M 1149
hoping that out of M 1148
hold all that is M 1145
home for each of M 1142
home and read to M 1142
hope that use of M 1138
home and has no M 1138
home than that of M 1130
hold one set of M 1130
home you may be M 1126
home and who is M 1122
home with his or M 1116
home was that he M 1116
hour and had to M 1115
home and how it M 1108
home and that in M 1107
holy god and the M 1107
hold that one is M 1103
hope for them is M 1102
hope are all in M 1101
home with you if M 1100
hoping for him to M 1096
hold them out of M 1096
hold her own as M 1088
hour that can be M 1087
hope was that an M 1087
home and has to M 1078
home now that the M 1077
home with that of M 1076
home and ask my M 1072
hour and may be M 1065
hoping you may be M 1064
hope one day we M 1063
home and all my M 1058
hold his men in M 1056
holy see was the M 1048
hold one end in M 1046
home and had it M 1044
home and die in M 1044
hold for any of M 1042
hour was near at M 1040
home that you do M 1038
hope you are so M 1035
hour they sat in M 1027
hope for you in M 1024
holy day for the M 1019
home with two or M 1018
hope for and the M 1016
home was with the M 1016
home was due to M 1016
home she was so M 1016
hope you had no M 1012
home can lead to M 1012
home team and the M 1011
home with him so M 1010
hold his head as M 1010
home was set up M 1004
home and set to M 1004
home and ask the M 1004
hope for man in M 1003
hold her own on M 1003
hoping you are in M 998
hold him and the M 996
hour each day on M 994
home was that it M 990
home and not on M 990
home and act as M 982
hold them for me M 982
home than with the M 980
hope you and my M 978
hold you for the M 978
hold that she is M 978
hold for him the M 974
hope for and to M 971
hour she was in M 969
hope and try to M 968
hold her own at M 968
hole and then the M 967
hour ago and the M 966
hold them and to M 966
hope you can go M 964
hold you both in M 962
home use and the M 954
hope that any thing M 946
hope and fear is M 942
hour and then at M 941
home with two of M 936
home with him an M 930
hold that all is M 929
hope for her to M 924
home and had an M 924
holy man that he M 924
hope they get the M 922
hope for things to M 922
home and saw my M 922
home was for the M 918
home and how the M 914
hour with her in M 910
home and was on M 910
hope all this is M 909
hoping that all of M 906
hope that now at M 906
hope and that the M 894
home and set the M 894
hope you are by M 893
home run off the M 890
hold that war is M 889
home are going to M 888
home and way of M 888
hope now that he M 886
hole being cut in M 884
hole and out the M 881
host and that the M 879
hole can then be M 879
hope they are in M 878
home that was so M 878
home that day in M 876
hold him out as M 874
hour and then it M 871
holy than that of M 866
hold out long in M 866
hold with all my M 864
hold him for me M 864
hour and that it M 863
hold each end of M 862
hold that that is M 861
home for any of M 860
hour they had to M 859
hour day and to M 858
hour for two or M 857
hour that now is M 854
home may lead to M 854
home but not to M 851
hope they are the M 850
hope for him is M 846
home for use as M 845
hole and that the M 845
home they may be M 844
home and hear the M 844
home she was the M 842
hole for him to M 840
hold them off as M 840
hour she had to M 839
hope was that as M 837
hold her and to M 836
home and let my M 834
home with you on M 826
hoping this was the M 824
hope they are as M 823
hole and had to M 823
host and all the M 822
home and let it M 822
holy see was to M 822
hope you are to M 821
hold out and the M 820
hour ago that the M 818
hope and for the M 818
home for his tea M 816
home all day in M 815
hour was now at M 814
home run out of M 814
holy law and the M 814
hold them all at M 814
hold his head so M 813
holy things and the M 812
holy can not be M 812
hole and put in M 812
hope you mean it M 810
home are not the M 810
hope you had an M 809
hold with all the M 809
home and had my M 808
hold out one of M 808
home and hung it M 804
hold his own by M 804
home with you or M 798
hole and set the M 796
hold off for the M 794
hold that with the M 793
hour day with the M 792
hope that was to M 790
hope for than to M 790
home with you the M 790
hold its own if M 790
hour with him at M 789
home that day he M 788
home are apt to M 780
hour may lay it M 774
holy see had no M 774
hope for him at M 772
home for that of M 772
holy see and in M 772
hold out and to M 772
hope was not the M 771
hope then that the M 770
hold them off the M 770
home and all it M 769
holy god who is M 769
hour with each of M 768
hope this one is M 767
home and with no M 767
hope that now we M 760
home with him if M 760
home but had to M 760
hope that man is M 758
home for you in M 758
hold his head on M 756
home and was so M 755
hole that was in M 752
hold out for it M 752
hold all that he M 750
hour day was to M 747
home and see it M 746
hold his head to M 746
hoping ere long to M 744
hold them out as M 742
hope for her in M 740
hour each day is M 738
hope for both of M 736
hold its own or M 736
hope you may do M 735
home and pay the M 735
hope you are no M 734
home and hang it M 734
hope and that of M 733
hope that his or M 732
home and got on M 732
hold she has on M 732
hold one and the M 731
hope they may do M 730
home but that he M 730
home and out in M 728
hole and try to M 728
hope you and he M 726
home and off the M 726
hole may not be M 726
hold them for an M 726
hope that one is M 718
hope now that we M 718
hour and try to M 715
hour each day at M 714
hope for man is M 712
hope now was in M 711
hour each day of M 707
hope that they in M 706
home with them or M 704
hope not for the M 702
hope may lie in M 702
hope was that my M 701
hour and that of M 700
hope they get it M 700
home and has the M 700
hope you had my M 698
home and sit at M 698
home and got in M 696
hold out for me M 695
hour was that of M 694
home with both of M 694
hope you read the M 690
home all day on M 689
home was not at M 684
home now that he M 684
hope you saw the M 682
holy day and the M 682
hope for out of M 681
home led him to M 680
hope and joy is M 678
home that was in M 678
hold him with the M 678
home and now he M 676
home with her so M 675
home and ask if M 675
hope and fear the M 674
holy man with the M 674
hold and use it M 674
hold that any of M 671
host and one of M 670
hold and let go M 669
holy see had to M 668
home and beat the M 666
hold him and to M 666
hold her head to M 666
hope was that at M 664
home than did the M 662
hope with all the M 660
hope that now he M 660
home has led to M 660
hole and out of M 657
hold his end up M 657
home she was to M 656
home and sit by M 656
hope and joy as M 655
hold and act on M 655
hope may yet be M 654
hour was not the M 652
home and that if M 652
hole and let the M 650
hour for all of M 648
hour was not to M 646
home that she is M 646
hold them out in M 644
home and lay on M 642
host and can be M 641
home with her or M 640
home and that my M 640
hole does not go M 638
hour with him on M 635
home for them at M 634
home and beat up M 633
home with both the M 632
home she had no M 632
hold for two or M 632
hope she has the M 631
home and sat at M 630
hold with him in M 630
holy and dear to M 628
hope you are on M 627
hope and all my M 626
home and read or M 626
hold that man to M 626
hope was not so M 625
hope one day he M 621
hole cut out in M 621
hope you are of M 620
home was run by M 620
hope now for the M 618
home and hung up M 618
hour was going to M 616
hold his own or M 616
hour ago with the M 614
home for two of M 612
home with them so M 608
home and hid in M 608
hold and try to M 605
hour that goes by M 604
hour for one of M 604
hoping for her to M 604
hope you get on M 604
hope you get my M 604
hope for you as M 604
home and bring me M 604
hold out that the M 604
home and that no M 603
home was set on M 602
hope and joy at M 600
hour and then be M 599
hope they can do M 599
hope for them as M 599
home off and on M 596
home for them on M 596
hour and this is M 594
hope this year to M 594
home was then in M 594
home now and we M 594
home and get an M 594
hope too that it M 593
home for both the M 592
home and then it M 592
hope for him as M 591
home now for the M 590
home and seat of M 590
home and did as M 590
hold its own to M 590
hold for ten to M 590
home and get me M 588
home and doing the M 588
home and thus to M 587
hoping that you do M 586
home that all the M 586
home she had so M 586
home for his or M 586
home for her at M 586
hold him out to M 586
home one day at M 584
hole and let it M 583
hold her head so M 582
hour was not so M 580
hope you let me M 580
hold our own as M 578
home for him at M 576
hold you and the M 576
hour than all the M 575
hold that death is M 575
holy war idea in M 573
hope and fear on M 572
hold both for the M 572
hope you get as M 571
hope that two or M 568
holy let him be M 568
hold his own to M 568
hold for them as M 567
hour she was on M 566
holy man was the M 566
hold and deal in M 565
home that they do M 564
home than for the M 564
hole and put it M 563
hour with them in M 562
hour and see if M 561
hope was that no M 561
hour law for the M 559
hour but not at M 556
home she has to M 556
home and lie in M 556
hold her with the M 556
home they can be M 554
holy man was in M 554
hold now that the M 554
hope and that is M 553
hour ago and it M 552
hope for but the M 552
holy see and by M 552
hope that you in M 550
home and was at M 550
home but with the M 548
hold her head as M 548
hope you all do M 547
hour was all the M 546
hour they may be M 546
home was now the M 546
home and with it M 546
home and lay in M 546
hope was going to M 545
home and bring in M 545
hope that this my M 544
home area and the M 544
home and does the M 544
home and all he M 544
hole may then be M 544
hoping that they do M 542
home and say we M 542
host and may be M 541
hour she sat in M 540
host that has the M 540
home and saw it M 540
hold out and be M 540
hold air and be M 540
hope and not of M 539
host and not the M 538
home and ate the M 538
home and ask to M 538
hold was that of M 538
home you can be M 536
host that can be M 535
home use can be M 535
hope that they or M 534
hope for both the M 533
hour that may be M 532
hour day was in M 532
hope now that it M 532
home and ate it M 530
home and read my M 528
home and end up M 528
hold our own on M 528
home that was no M 526
hold all that we M 525
hope that day is M 524
home for six or M 524
hope this was the M 523
home and cut the M 520
hope and then to M 519
hold both that the M 519
hope each one of M 518
hour for both of M 516
host and that of M 516
home and then on M 516
hope that one at M 514
hope and fear at M 514
home with him by M 514
holy see that he M 514
hole was one of M 513
hoping that way to M 512
hope for this in M 512
home was one in M 512
hole that may be M 512
hold for him in M 511
home and led to M 510
hope you win the M 509
home run off of M 508
home and being in M 508
hope that you at M 507
hope you are up M 506
hope they let me M 506
home now with the M 503
hope they are at M 502
home use may be M 502
home and using the M 502
host and with the M 500
hoping that she is M 500
hope that you as M 500
home and sat up M 500
hole and can be M 499
hour was set at M 498
hope had they of M 498
hole with one of M 498
hope was that of M 497
hope for you if M 497
hold with any of M 497
home was one thing M 496
home and was to M 496
home and men in M 496
hold then that the M 496
hope and fear by M 495
hold its head in M 494
hope you had as M 493
hold each one of M 493
hope you see it M 492
home with him he M 492
home and one to M 492
holy man was so M 492
hold that can be M 492
hold his own if M 492
hour and then in M 490
host was going to M 490
hoping for them to M 490
home that has no M 490
holy see was in M 490
holy men for the M 490
hope that you or M 488
home and thus the M 488
home and say he M 488
hour and let the M 487
hope all that is M 486
hold him out of M 486
hope but that the M 484
hope all may be M 484
home for him as M 484
home and yet to M 484
hope and one of M 483
hour she was to M 482
hoping that for the M 482
hope you see my M 482
home and was an M 482
hole and out at M 482
hold them all the M 482
hope they got the M 480
home pay and the M 480
hold him for an M 480
hold him all the M 480
hour she was at M 479
home run off me M 479
home and how we M 478
holy one for the M 478
hole for them to M 478
hour with you in M 477
hope they had in M 476
home but not the M 476
home and not as M 475
hope was all the M 474
hope for each of M 474
home with you so M 474
home and see me M 474
home and did it M 474
hour and one of M 473
hope for him if M 472
home than was the M 472
holy see that it M 472
holy war and to M 470
hold her head on M 470
hold his own so M 469
home they had no M 468
holy man for the M 468
holy man and he M 468
hope was now in M 466
hope may lead to M 466
hope and with it M 466
home with you is M 466
home and are in M 466
hour than that of M 465
hoping for things to M 464
hope and that he M 464
home with her if M 464
home for men of M 464
home and read in M 464
holy they may be M 464
hope she had it M 462
home and add to M 462
hold his arm in M 462
hold for them in M 461
home she had the M 460
holy see can be M 460
holy and not to M 460
hour for six or M 458
hour day can be M 458
hoping now that the M 458
hope yet for the M 458
home with them if M 456
home for all or M 456
hole cut near the M 456
hold this for the M 456
hold for one of M 456
hold all this in M 456
home one day he M 454
home are not so M 454
hold but not to M 454
home was all the M 452
home and ran the M 452
home all day or M 452
hold her and the M 452
hour you are in M 451
hour day may be M 451
hope was that on M 451
home now and he M 451
holy see may be M 450
hold them off at M 450
hold for long the M 450
home for him on M 448
hold for one to M 448
hold any real or M 447
hour you may be M 446
hope you read it M 446
home was not on M 446
home are not as M 446
home all that is M 446
hold them for as M 446
hour they had the M 445
hole with all the M 445
home run was the M 444
home all day at M 444
hold for two to M 443
hold that use of M 442
host and for the M 441
home fit for the M 441
holy men and to M 440
hold his job as M 440
hope that with an M 438
hope that this or M 438
home and put an M 438
hold her for me M 438
hole and all the M 437
hope was for an M 436
home and saw me M 436
home and beat me M 436
hold you for an M 436
hold out for us M 435
home was not of M 434
home and cut it M 434
hope was dead in M 432
hope and not in M 432
hold this end of M 432
hold him and be M 432
host was not at M 430
home for two to M 430
home and lead the M 430
home and fix it M 430
hour each way on M 429
home that one of M 428
home but that the M 428
hold you and me M 428
hold her and be M 428
hole and one of M 425
hour for one to M 424
home key and the M 422
hour they set the M 421
hope you two do M 421
host for all the M 420
home and now the M 420
hole and not the M 420
hold out all the M 418
hope that with my M 416
home you had to M 416
home that has the M 416
home can not do M 416
home and buy the M 416
home all out of M 416
hope for them if M 415
hour you see the M 414
hope both for the M 414
home and sat by M 414
home now and do M 413
home and did so M 413
host and one or M 412
holy see was at M 412
hold its own so M 411
hold and for the M 411
hope that they be M 410
home and try the M 410
home and then be M 410
holy war was the M 410
hole for you to M 409
home than you do M 408
home and one or M 408
hold and can be M 408
hope was not at M 406
holy see not to M 406
hold for one or M 405
hope you use it M 404
hope was now at M 404
home that has an M 404
home for all to M 404
holy and that the M 404
hold her all the M 404
hole and with the M 402
hold and how to M 402
hole and that of M 401
hour was out of M 400
hour for him in M 400
host that may be M 400
holy things may be M 400
hour each day he M 399
hope that thus the M 399
home you can do M 398
home and had tea M 398
home for them as M 396
hour and day in M 394
home had all the M 394
home but had no M 394
holy war was to M 394
hole and then to M 394
hold all but the M 394
home each day at M 393
hour for use of M 392
hoping for you to M 392
home with god in M 392
hold him but he M 392
host for one of M 390
hope now was the M 390
hope lay not in M 390
home use and to M 390
holy and that he M 390
hold them near the M 390
hold and not to M 390
hour she had the M 389
home with them by M 388
home and now it M 388
home and lead to M 388
home and bring to M 388
hour that you do M 386
hour and not to M 386
home and lie on M 386
home now and go M 384
home and got it M 384
hold his head at M 384
hold and let the M 384
hold all things to M 384
hour they got up M 381
hold that law is M 381
hope for one or M 380
home that led to M 380
hold you all in M 380
hour that all the M 378
hope she has no M 378
hope she can be M 378
hour for one or M 376
hour day with an M 376
hope being that he M 376
hold our own at M 376
hope that few of M 375
hour they sat on M 374
home and near the M 374
hold her own by M 374
hour and had the M 373
hope for him or M 373
hope you got to M 371
hope that ere the M 370
hope and not to M 370
home with them an M 370
home with each of M 370
hour each day the M 369
holy see has the M 369
host was out of M 368
hope that fear of M 368
hope for this to M 368
home has all the M 368
home did not go M 368
home and ask me M 368
hour one way or M 366
hope for him of M 366
home and not do M 366
hope you try to M 365
hour for fear of M 364
home and got no M 364
holy one day in M 364
hour going out of M 363
home one way or M 362
home for them is M 362
home for ten or M 362
home for one to M 362
home and hid the M 362
hold any but the M 362
hold and then to M 362
hope not with the M 360
hope for this is M 360
home that had no M 360
home and has an M 360
hold all that the M 360
hope for that as M 358
home you are in M 358
home she ran to M 358
home and men to M 358
home and bring my M 358
hold this man in M 358
hold them for at M 358
hold may not be M 358
hold them all as M 357
hold off with the M 357
hour was for the M 356
home and you go M 356
hold his end of M 356
hour you can be M 355
hope that you the M 355
hour was yet to M 354
hope you end up M 354
hope that they at M 354
hour and that is M 353
hour than that at M 352
hope nor fear of M 352
home for use by M 352
home and job in M 352
hour each for the M 351
hour and then is M 350
hope than had the M 350
hope for that the M 350
hole for one of M 350
hole for all the M 350
hold them out at M 350
hold that for me M 350
hole that had to M 348
hole and use the M 348
hole and for the M 348
hour but for the M 346
hour and that we M 346
hope that she or M 346
hope for them or M 346
home can now be M 346
hope for that of M 344
home with men of M 344
home that this is M 344
home are not to M 344
holy men may be M 344
hold them all to M 344
hope led him to M 343
home was set in M 343
hour and was the M 342
hoping each day to M 342
hold this day in M 342
hold our head up M 342
hour day and in M 341
hour ago for the M 340
home was now to M 340
home team won the M 339
home each day in M 339
hour day was an M 338
hope was now to M 338
hope then for the M 338
home now and the M 338
holy see has no M 338
holy man may be M 338
hope they let us M 337
hope for them at M 336
home than are the M 336
home and both of M 336
hold them for us M 336
hold that one or M 336
hope was out of M 335
hoping this may be M 334
home with her by M 334
home and fix up M 334
hold his arm up M 333
hour that saw the M 332
hour she sat by M 332
hope for god to M 332
home she saw the M 332
hold dear for the M 332
home was near by M 330
hole that was to M 330
hold all that it M 330
hour and let me M 329
hope for that in M 328
hope and then the M 328
hope and how to M 328
home you can go M 328
home and set in M 328
home and see us M 328
holy and man is M 328
hold this out as M 328
hole and see if M 327
hour with them at M 326
hour for doing so M 326
home that had so M 326
home than does the M 326
home now and be M 326
home and his or M 326
home and did my M 326
home and are the M 326
hope and yet of M 325
home than all the M 325
hour was that in M 324
hope for one thing M 324
hope and out of M 324
home had led to M 324
home and saw no M 324
hope she had in M 323
hope you die in M 322
home one day on M 322
home and say it M 322
home and pay me M 322
holy men are the M 322
hole was near the M 322
hold our own we M 322
hope they get to M 321
home and use of M 321
hope and not the M 320
holy men and of M 320
hold you for my M 320
hope one day it M 319
hour was not an M 318
hour and had no M 318
hoping that now he M 318
hope that both he M 318
home each year to M 318
home and fix the M 318
hoping that thus he M 316
hope for with the M 316
home they are to M 316
home and not an M 316
hold out for my M 316
hold each one in M 316
hour and see the M 314
hope that with it M 314
hole and bring it M 314
hope they get on M 313
hope and with no M 313
hour ago and we M 312
host was not the M 312
hope they are of M 312
home has one or M 312
hold out and he M 312
hold and that he M 312
hope she may do M 310
hope and fear he M 310
home are not in M 310
hour and all of M 309
host may lead to M 309
hope for man to M 309
home who may be M 308
home who had no M 308
hold and cling to M 307
hope nor fear in M 306
hold and that it M 306
hour and not the M 305
hour ago and is M 305
hope that two of M 305
hold with them the M 305
hold and may be M 305
hoping for was to M 304
home that had to M 304
home but they do M 304
home and yet he M 304
home and led the M 304
hole and may be M 304
hold you with my M 304
host each year to M 303
hope they are to M 303
host and then the M 302
hope that lay in M 302
hope may with my M 302
hope may now be M 302
hope being that it M 302
home was then at M 302
home but this is M 302
hold that both of M 302
hope that led to M 301
hold for him or M 301
hold and hang on M 301
hope that this thing M 300
home who are in M 300
hole for each of M 300
hold his son in M 300
hour and then an M 299
hold for you as M 299
hour they are to M 298
home but that it M 298
home and rear the M 298
hole was cut to M 298
hour you are to M 297
hope and joy on M 297
host was not in M 296
host can use the M 296
holy man had the M 296
hole and cut the M 296
hold that end of M 296
hold him off as M 296
hold and had to M 293
hold and all the M 293
hour was due to M 292
hope for her is M 292
home they had the M 292
home and bear the M 292
hold our own if M 292
home use and is M 291
hour and few the M 290
hope she got the M 290
home was now at M 290
home they are in M 290
home for you at M 290
home and read up M 290
home and kin to M 290
hole goes all the M 290
hole and that it M 290
hold his men to M 290
hold her son in M 290
hope for you at M 289
hope but not the M 289
hold that being is M 289
hold day with the M 289
home run won the M 288
home for six to M 288
home for her on M 288
home for her as M 288
hold you with the M 288
hold with him the M 288
hour and saw the M 287
hope you may go M 287
hope she had to M 287
hold two things in M 287
hour and let it M 286
hoping for all the M 286
hope you are an M 286
home and now we M 286
home and not by M 286
hole was going to M 286
hold her head at M 286
hour all that is M 285
hour was that the M 284
host with all the M 284
hope for things of M 284
hope all out of M 284
home with joy in M 284
hole cut for it M 284
hour day and of M 282
home and then by M 282
home and ran to M 282
holy see had the M 282
hour and you do M 281
hour and not by M 281
hope you use the M 281
hole and set it M 281
hour and day on M 280
host led him to M 280
hope you bear me M 280
home that day or M 280
home and are on M 280
hold dear and to M 280
hope they had to M 279
hope that one so M 278
home with him is M 278
home she may be M 278
home for you if M 278
home and hang up M 278
holy men with the M 278
holy man that the M 278
holy man had to M 278
hole was not the M 278
hole for her to M 278
hold you all the M 278
hour she got up M 277
hope that now it M 277
host ran out of M 276
hope and aim is M 276
home that was on M 276
home all that he M 276
hold was that the M 276
hold than that of M 276
hope one day the M 275
hope all for the M 275
host was that of M 274
hoping that doing so M 274
hope for may be M 274
home for him or M 274
home but may be M 274
home and won the M 274
home and say the M 274
home and can do M 274
hour each day or M 273
hope one day of M 273
hope and that it M 273
hold for them the M 273
home and each of M 272
hope you hear me M 271
hope for long to M 271
hope was and is M 270
hope then was to M 270
home and yet be M 270
home and pay my M 270
home and one on M 270
home and die of M 270
hold them with me M 270
hope and fear we M 269
home and for my M 269
home and sit up M 268
hour one day in M 267
home and end the M 267
home was east of M 266
hold him with my M 266
home all day by M 265
hole and see the M 265
host was not to M 264
home with six or M 264
home she put the M 264
home each year in M 264
home and for an M 264
hole was for the M 264
hold him off at M 264
hold him for my M 264
hold and use as M 264
hour day and no M 263
hour and read the M 263
hold out was the M 263
hour and year of M 262
hoping that thus the M 262
hope for one in M 262
home you are to M 262
home that had the M 262
home led them to M 262
home and thus be M 262
home and out to M 262
home and got an M 262
holy see for an M 262
hold them long in M 262
hour but may be M 261
home now with my M 261
hole and sat on M 261
hour than for the M 260
host can lead to M 260
host and his or M 260
home with them is M 260
home for fear the M 260
hour day than in M 259
hope that this in M 259
hope you get an M 258
hope can lead to M 258
home that all of M 258
home and set my M 258
holy than all the M 258
holy and that it M 258
hole that has no M 258
hold him long in M 258
hope you can eat M 257
hope you are my M 257
hour with him to M 256
host and that it M 256
hope was with the M 256
hope she had the M 256
hope not one of M 256
hope nor fear to M 256
hope for one to M 256
home had not the M 256
home but that of M 256
home and two or M 256
hold them off by M 256
hour and did the M 255
hope that things go M 255
holy see was so M 255
hope you put it M 254
hope you die of M 254
hope too that we M 254
home are due to M 254
home now that we M 253
hold and with the M 253
hour was that he M 252
hope that has no M 252
home was that we M 252
home use and in M 252
home than can be M 252
home and why he M 252
home and then do M 252
home and are no M 252
hold her off the M 252
hold and run the M 252
home with that in M 251
home but she is M 251
hour how long it M 250
home for fear he M 250
home and with an M 250
hold dear and the M 250
hold they had of M 249
hour than can be M 248
hour not one of M 248
hope that things in M 248
home use with the M 248
home for one in M 248
holy men who in M 248
hold out long at M 248
hold off all the M 248
hold its own is M 248
hour and that in M 247
hour that son of M 246
hour all that he M 246
hope that they go M 246
home who had to M 246
home she sat in M 246
home for him is M 246
home and beat my M 246
holy things for an M 246
holy man and an M 246
holy for him to M 246
hold all this to M 246
hour she sat on M 245
hold for all or M 245
hour that this is M 244
hope then that we M 244
hope she and the M 244
home she had an M 244
home one day as M 244
home now and it M 244
home for you as M 244
home and read at M 244
home and one is M 244
holy and who is M 244
hole and get the M 244
hold was not so M 244
hold him off the M 244
hold him not to M 244
hold her for an M 244
host and not to M 243
home and run it M 243
hour day that the M 242
hope they are on M 242
home that are the M 242
home and lay it M 242
hole and then he M 242
hold them for no M 242
hope was all he M 241
hope that you go M 241
hold with them in M 241
hold for you in M 241
hour that one of M 240
home they are the M 240
home did not do M 240
home and not so M 240
holy law and of M 240
hole was not in M 240
hour than did the M 239
hope you saw it M 238
hope had she of M 238
hope god and the M 238
hope for aid in M 238
hope and aim to M 238
home than out of M 238
home she was at M 238
home and who do M 238
home and using it M 238
home and two of M 238
holy see all the M 238
hold that all or M 238
hold and easy to M 238
hour they are in M 237
hour and was in M 237
hope for but to M 237
hold and ran to M 237
hour ago that we M 236
hope and all we M 236
home that was at M 236
home for men in M 236
home but all the M 236
home and cut up M 236
home all day the M 236
hold his job or M 236
hold and own the M 236
hour with her at M 235
hold with one of M 235
hour that she is M 234
hour ago one of M 234
hoping that each of M 234
hope for her if M 234
home using one of M 234
home but that is M 234
home and all we M 234
hole near one of M 234
hole cut out to M 234
hold you and to M 234
hold that men of M 234
hold his own he M 234
hold for fear of M 234
hour and act of M 233
host was led by M 232
host that was to M 232
host for one or M 232
hoping that both the M 232
hoping she had the M 232
hope you see by M 232
hope you did the M 232
hope they rot in M 232
hope they got it M 232
home with him no M 232
home being one of M 232
home are for the M 232
home and dry in M 232
hold them may be M 232
hold any one in M 232
hope for than the M 231
hole and set up M 231
hour they saw the M 230
hope but for the M 230
home had one or M 230
home and was no M 230
home and off to M 230
holy man had no M 230
hold them both at M 230
hour each way in M 229
hour had not the M 228
hour each day as M 228
host and then to M 228
hope that for my M 228
hope for them of M 228
hour she was so M 227
hope was set on M 227
hope for that he M 226
home with her he M 226
home that day the M 226
home team has the M 226
home and mix it M 226
holy things are the M 226
hold out his or M 226
hold his seat on M 226
hold his seat at M 226
hold and that is M 226
home and going on M 225
home than any thing M 224
home area for the M 224
home and not of M 224
home and for me M 224
home and all is M 224
home all day is M 224
holy year and the M 224
hold any man to M 224
hour she was as M 223
hope that thus he M 223
home with you by M 223
hoping you can do M 222
hope was led by M 222
hope that are in M 222
home than men do M 222
home may say to M 222
home and they go M 222
hold and then the M 221
hour for both the M 220
hope one day or M 220
home and reap the M 220
holy war that is M 220
holy see was no M 220
holy see and he M 220
holy man out of M 220
holy day with the M 220
hold you dear in M 220
hold for both of M 220
home that day on M 219
hoping she was in M 218
hope you can at M 218
hope too that he M 218
hope and joy the M 218
home led her to M 218
holy men out of M 218
holy man and to M 218
hold out long if M 218
hold and that we M 218
hour and get the M 216
hoping one day he M 216
hope for you so M 216
home with them he M 216
home has yet to M 216
home are all the M 216
home and use as M 216
home all that it M 216
holy war can be M 216
hole was not as M 216
hold that man the M 216
hold all men to M 216
home now that it M 215
hold her arm as M 215
hoping for one to M 214
home and goes on M 214
holy see had in M 214
holy see and on M 214
holy men are to M 214
hold that sin is M 214
hope they had the M 213
home one set of M 213
hold that man in M 213
hope and this is M 212
home that day by M 212
home and cry in M 212
home and all in M 212
hole was put in M 212
hold them all up M 212
hold him and sing M 212
hope was not an M 211
hope that then the M 211
hope that one thing M 211
hope that has so M 211
hope are not in M 211
hold one key to M 211
hour with him is M 210
host for both the M 210
home they saw the M 210
home that had an M 210
home she had in M 210
home for all my M 210
home and out on M 210
holy things and of M 210
holy man was to M 210
hold her own if M 210
hold her for as M 210
hope that both my M 209
hold and see if M 209
hour and that if M 208
hoping that all is M 208
hope you bring me M 208
hope for that to M 208
hope for that is M 208
home with six of M 208
home for one thing M 208
home and men at M 208
holy men that we M 208
hole for him in M 208
hold them both up M 208
hold out that he M 208
hold out for no M 208
hold one bit of M 208
hold his job in M 208
hour that was the M 206
hour and then by M 206
hope ere long we M 206
home you are the M 206
home pay may be M 206
home may now be M 206
home for him by M 206
holy see are to M 206
holy god with the M 206
hole was not so M 206
hold them both to M 206
hope for you or M 205
holy being who is M 205
hour with you to M 204
hour was not at M 204
host but not in M 204
hope for doing so M 204
home who had the M 204
home nor did he M 204
holy path and the M 204
hole for them in M 204
hold you and be M 204
hold this bit of M 204
hope than that the M 203
hope has yet to M 203
home but not so M 203
holy one with the M 203
hold his seat as M 203
hold all that in M 203
hour can then be M 202
host and two of M 202
home was far to M 202
home near one of M 202
home and use my M 202
holy god may be M 202
hold them not to M 202
hold that out of M 202
hold off going to M 202
hold his job if M 202
hour off for the M 201
hour now and the M 200
home they had so M 200
home they had in M 200
home one day by M 200
home near that of M 200
home and yet so M 200
home and two in M 200
home and fix us M 200
home and fear of M 200
home and die at M 200
home and cry on M 200
hole that has to M 200
hold off for as M 200
hold her out to M 200
hold her and he M 200
hole and use it M 199
hole and that he M 199
hold for you the M 199
hour she had no M 198
hoping with all the M 198
hope you read my M 198
hope was now the M 198
home for use on M 198
home and saw to M 198
home and being on M 198
hold them can be M 198
hold our own by M 198
hope with all of M 197
home run for me M 197
home and was as M 197
home and get up M 197
host led them to M 196
hope and mean to M 196
hope and head of M 196
home who has the M 196
home but you do M 196
home and win the M 196
home and try on M 196
holy and fit to M 196
hole and this is M 196
hold this and the M 196
hold them not at M 196
hold for her in M 196
hour for him as M 195
hour can now be M 195
hope they see the M 195
hope that was so M 195
hope that had no M 195
hour saw her as M 194
hope you see no M 194
hope she does it M 194
hope can now be M 194
home was for me M 194
home that day at M 194
home she and the M 194
home run and we M 194
home one has to M 194
home and got me M 194
home and being the M 194
holy man can be M 194
holy god and king M 194
hole and all of M 194
hold him for as M 194
hope for all to M 193
hope being that if M 193
hour had yet to M 192
hoping you and the M 192
hope you did it M 192
hope all may go M 192
home was that my M 192
home lot and the M 192
home and read by M 192
hold off for at M 192
hour and with no M 191
hope are not the M 191
host and try to M 190
hope that way is M 190
hope for his or M 190
home than she is M 190
home both with the M 190
home and then my M 190
holy and god is M 190
hole cut out at M 190
hole and was in M 190
host and use the M 189
hope they all do M 189
hold this idea of M 189
hold for her the M 189
hold and use in M 189
hold and set the M 189
host but not the M 188
home with joy to M 188
home key for the M 188
home for you or M 188
home but not on M 188
home and being at M 188
holy men and in M 188
hold them off in M 188
hold his leg up M 188
hold him not as M 188
hour each day by M 187
hope you put the M 187
home and that at M 187
hour was two in M 186
hour she was the M 186
hoping that now at M 186
hoping for one in M 186
hope one day my M 186
home run that he M 186
home can use the M 186
holy see nor the M 186
hold out two or M 186
hope and joy we M 185
home that day as M 185
hour each way by M 184
hour and then as M 184
host that has an M 184
hope they are so M 184
hope and with an M 184
home with this in M 184
home this was the M 184
home that sat on M 184
home now and eat M 184
home and lay the M 184
home and doing it M 184
hole was cut at M 184
hold that man my M 184
hold his seat by M 184
hold him out at M 184
hold for this to M 184
hour and not be M 183
hope she got it M 183
host who was to M 182
host does not eat M 182
hope she can do M 182
hope are not so M 182
home doing all the M 182
home but got no M 182
home area and in M 182
home and use in M 182
home and fly to M 182
holy war may be M 182
hold his arm to M 182
hour but can be M 181
home pay can be M 181
home and get as M 181
hold and one to M 181
hour and put the M 180
host was not so M 180
hope you saw my M 180
hope that being in M 180
home was put up M 180
home one day the M 180
home lot was on M 180
holy see and an M 180
holy men are in M 180
hold way with the M 180
hope this and the M 179
hope for you the M 179
hold and fix the M 179
hour was all he M 178
hour for all to M 178
hour did you go M 178
hour ago that it M 178
hope that led me M 178
home was out in M 178
home that day we M 178
home run for us M 178
hold him but the M 178
hour she had so M 177
hope are going to M 177
hole and that is M 177
hour you get in M 176
hour for ten or M 176
hoping that his or M 176
hoping for this to M 176
home was that in M 176
home was and is M 176
home this year in M 176
home that was my M 176
home now and in M 176
home and job to M 176
home and cry to M 176
holy things that the M 176
hole can now be M 176
hole and get in M 176
hope this day to M 175
hope they may in M 175
home use are the M 175
hour with her on M 174
hour was not up M 174
hour they can be M 174
hour day led to M 174
hope they and the M 174
hope than did the M 174
hope she did it M 174
hope being that so M 174
hope and die in M 174
home with death in M 174
home was near to M 174
home she goes to M 174
home each day by M 174
home being near the M 174
home are out of M 174
holy see and is M 174
holy and that we M 174
hold with you on M 174
hold them off if M 174
hold them and in M 174
hold each one up M 174
hour with one or M 173
hour day and it M 173
hour for six to M 172
hour for doing the M 172
hope you beat the M 172
hope for men in M 172
home use due as M 172
home that for the M 172
home bias and the M 172
home all day if M 172
holy man was no M 172
holy for them to M 172
hole and then it M 172
hold with them as M 172
hold her with my M 172
hour each day so M 171
hour all day the M 171
hope but with the M 171
host and man is M 170
hoping that now the M 170
hoping for one thing M 170
hope that had so M 170
hope that all in M 170
hope she had so M 170
home was cut in M 170
home has had to M 170
home for all he M 170
home and put us M 170
home and lit the M 170
holy war led by M 170
holy see was of M 170
hold you out of M 170
hour with her to M 169
hope you get in M 169
home team for the M 169
home not out of M 169
hour was that at M 168
hour and ten or M 168
home was with me M 168
home than going to M 168
home for you on M 168
home for man in M 168
home are one of M 168
hole was out of M 168
hold all men in M 168
hole and put on M 167
hold with you in M 167
hold that out as M 167
hour they lay on M 166
host can act as M 166
host and not on M 166
hope too that my M 166
hope that that the M 166
home has had the M 166
hold with joy on M 166
hold off for an M 166
hold for use in M 166
hold any two or M 166
hope that son of M 165
home use for the M 165
hold his arm as M 165
hold him and do M 165
hour with you is M 164
hour with him the M 164
hour but not the M 164
host and who is M 164
hope you put in M 164
hope this man is M 164
home this day to M 164
home she was no M 164
home had yet to M 164
home does not do M 164
home and you in M 164
home and use to M 164
home and lay up M 164
home and hung in M 164
holy things and to M 164
holy see was an M 164
hope for all my M 163
hour and had an M 162
host was put to M 162
hope die out of M 162
home who has no M 162
home was all he M 162
home had one of M 162
home are not of M 162
home and hear my M 162
home and all to M 162
hold out can be M 162
hold out and do M 162
hope and joy by M 161
home each day as M 161
home and hang on M 161
hold that may be M 161
hour she lay in M 160
hour did not go M 160
host and not in M 160
hope she has of M 160
home and lead an M 160
holy see than the M 160
holy men had to M 160
holy man was on M 160
holy god and an M 160
hole for all of M 160
hold them with my M 160
hold our end up M 160
hold his job at M 160
hold for long in M 160
hour day and at M 159
hope they hang the M 159
hope that was an M 159
hope now that my M 159
hope not long to M 159
hope for for the M 159
hope and joy he M 159
home pay than the M 159
hole and ran to M 159
hour you are at M 158
hour was how to M 158
hour and for an M 158
hoping with all of M 158
hope that are the M 158
hope she goes to M 158
home that was as M 158
home run and he M 158
home for ten to M 158
home but out of M 158
home are dear in M 158
home and bar the M 158
holy men can be M 158
holy man was an M 158
hold them all of M 158
hold one that is M 158
hour and put in M 157
hope they see it M 157
hold one leg in M 157
hold and led to M 157
hour and now it M 156
hoping she may be M 156
hoping now that he M 156
hope you got on M 156
home for use at M 156
home and with us M 156
home and see no M 156
home and now in M 156
home and aid in M 156
holy was not to M 156
holy war and in M 156
holy men and by M 156
hole you cut in M 156
hole can lead to M 156
hold them and be M 156
hold out and we M 156
hold its own it M 156
hold for him as M 156
hour was not as M 155
hope that with so M 155
hope are but the M 155
home use and as M 155
hold her out as M 155
hold and read the M 155
hour with two of M 154
host and lead to M 154
hoping this way to M 154
hoping that god in M 154
hope you win it M 154
hope this war is M 154
hope that war is M 154
hope but with no M 154
hope and lead to M 154
home was not my M 154
home this can be M 154
home for her or M 154
home but one of M 154
home and then of M 154
home and that as M 154
home and ran up M 154
home and doing my M 154
holy see has to M 154
hold them all on M 154
hold that all we M 154
hold her but he M 154
hour and can go M 153
hope and that we M 153
hope all goes on M 153
home was run on M 153
home all day so M 153
hold out with me M 153
hold and add to M 153
hour that you go M 152
hour for you in M 152
hour and day he M 152
host with that of M 152
hoping they can be M 152
hope that using the M 152
hope for her at M 152
hope for can be M 152
hope and long to M 152
home who was in M 152
home who are the M 152
home that way at M 152
home does not go M 152
home any one of M 152
home and try my M 152
holy see are the M 152
holy man has the M 152
holy day was the M 152
hole that has the M 152
hole for fear of M 152
hole but not the M 152
hold you for as M 152
hold that man as M 152
hour with you at M 151
hour and put on M 151
hope that thus it M 151
holy one and to M 151
hold that for an M 151
hold and put it M 151
hour they are at M 150
hour and out of M 150
hour and has the M 150
host has yet to M 150
host and not by M 150
hope was not of M 150
hope being that by M 150
home now was the M 150
home has one of M 150
home but can be M 150
home both for the M 150
home and end to M 150
home and did no M 150
hole for two or M 150
hold its head to M 150
hour they was as M 149
hope that all we M 149
home and can no M 149
hour with him he M 148
hour was one in M 148
hour she was up M 148
hoping you can be M 148
hoping that day to M 148
hope they had no M 148
hope for and in M 148
hope and not an M 148
hope and had no M 148
home and earn an M 148
holy man and of M 148
holy god can be M 148
holy day for us M 148
hold that two or M 148
hold any man in M 148
hope for man on M 147
hold that each is M 147
hour with them on M 146
hour with him as M 146
hour and has an M 146
hoping that both of M 146
hope with that of M 146
hope that you no M 146
hope and idea of M 146
home now with me M 146
home for him if M 146
home and thus in M 146
home and that on M 146
holy war and of M 146
holy god and to M 146
holy god and of M 146
hole and put my M 146
hold this key to M 146
hold that lying is M 146
hold that god the M 146
hold that all in M 146
hope for joy in M 145
hour you had to M 144
hour than any of M 144
hour for use in M 144
hour for any of M 144
hour and with an M 144
host they may be M 144
host that has no M 144
hope you got an M 144
hope too that in M 144
hope they may go M 144
home with few or M 144
home was put on M 144
home was near at M 144
home that was an M 144
home she was on M 144
home she was an M 144
home does not in M 144
home area and to M 144
home and get us M 144
home and get at M 144
home and dry by M 144
holy than any in M 144
hole that had no M 144
hole and then at M 144
hold too long to M 144
hold that not the M 144
hold off using the M 144
hold his cup of M 144
hold her own to M 144
hour and use the M 143
hour all was in M 143
hope she was as M 143
holy man and as M 143
hold out for is M 143
hour you can go M 142
hour she saw the M 142
hour she sat up M 142
host was cut to M 142
hope being that in M 142
home was put in M 142
home they had an M 142
home but who do M 142
home and ate my M 142
holy war that the M 142
holy things with the M 142
holy man with an M 142
holy man was at M 142
holy law for the M 142
hole they had to M 142
hold them than to M 142
hold his son at M 142
hold him that he M 142
hold him for us M 142
hold and aim the M 142
hour and end up M 141
hope you mean the M 141
hope that you on M 141
hour with two or M 140
hour with all of M 140
hour was all it M 140
hour for that is M 140
host now led me M 140
host for all of M 140
host and put it M 140
host and head of M 140
home she has no M 140
home for her by M 140
home each one of M 140
home but has no M 140
home and that to M 140
holy one out of M 140
holy day that is M 140
hole that let in M 140
hole for you in M 140
hold you long in M 140
hold that one thing M 140
hold off and on M 140
hold her out of M 140
hold and are in M 140
hour and now he M 139
hope you read in M 139
hope they may at M 139
hope then that he M 139
home and are at M 139
hold that you do M 139
hour are not the M 138
hoping now that it M 138
hope and not on M 138
home lay not in M 138
home can then be M 138
home but has to M 138
home and that an M 138
home and how do M 138
home all day as M 138
holy this day of M 138
hold them with an M 138
hold him out in M 138
hold and get the M 138
hour long and the M 137
hope that all he M 137
home she was as M 137
home not one of M 137
hole and cut it M 137
hour she sat at M 136
hour may bring the M 136
hope they see me M 136
hope that men in M 136
hope for man or M 136
hope for are the M 136
home this may be M 136
home they set up M 136
home than you or M 136
home team had the M 136
home for was to M 136
home and head to M 136
home all but the M 136
holy day and to M 136
hole she was in M 136
hole did not go M 136
hold was put on M 136
hold this with the M 136
hold one for the M 136
hold now that it M 136
hold her head the M 136
hold her end up M 136
hold and put the M 136
hour and get to M 135
hope for him on M 135
hope and fear it M 135
hold was not to M 135
hold and this is M 135
hour was six or M 134
hour and not at M 134
host was now in M 134
hope they are no M 134
hope for her as M 134
home who can be M 134
home now than in M 134
home may try to M 134
home has got to M 134
home for her if M 134
home each day is M 134
home and bring us M 134
holy men did to M 134
hold you dear to M 134
hold this end in M 134
hold that all on M 134
hold her off at M 134
hour with that of M 133
hour and has no M 133
hour and get up M 133
hope are not to M 133
home that day so M 133
hole and was the M 133
hold one out of M 133
hour was then to M 132
hour they are the M 132
host can use to M 132
host and thus the M 132
hoping for was the M 132
hope was not as M 132
hope was for me M 132
hope they use me M 132
hope they put it M 132
hope but that it M 132
hope and not be M 132
hope and fear be M 132
home with her is M 132
home was all in M 132
home than that he M 132
home team won by M 132
home she sat on M 132
home has for the M 132
home being now in M 132
home and yet it M 132
home and say no M 132
home and cut my M 132
holy one that is M 132
holy man has no M 132
hold them than the M 132
hold out this as M 132
hold him and we M 132
hold and see the M 132
hour and they do M 131
hope that she at M 131
home but not as M 131
home and are to M 131
hold she had of M 131
hold her arm up M 131
hour they lay in M 130
host with one of M 130
hope you hear the M 130
hope they put me M 130
hope they all go M 130
hope that this at M 130
hope than any of M 130
hope has led me M 130
home who are so M 130
home than that in M 130
home team was the M 130
home she has the M 130
home our things in M 130
home now and is M 130
home may thus be M 130
home for them by M 130
home each year by M 130
home but with no M 130
home and then is M 130
home and sin no M 130
home and read an M 130
home and both the M 130
home and ate at M 130
home and any of M 130
holy things are to M 130
holy and that is M 130
hole and not be M 130
hold them for up M 130
hold her arm in M 130
hold each one to M 130
hour day and we M 129
hour are apt to M 129
hour and hung up M 129
host may act as M 129
hope this year is M 129
hope that yet my M 129
hope for her or M 129
home this year to M 129
hole you had to M 129
hour all may be M 128
hope you did as M 128
hope this may do M 128
hope she saw in M 128
hope for using the M 128
home too long to M 128
home they try to M 128
home that are in M 128
home she can be M 128
home but who is M 128
home are not at M 128
hole and then we M 128
hole and put up M 128
hole and not in M 128
hold you and my M 128
hold you all to M 128
hold this man to M 128
hold that act to M 128
hold her and we M 128
hold and saw the M 128
hope you see in M 127
hope you had of M 127
hope they mean to M 127
hope that thus we M 127
hope that god the M 127
hope for all in M 127
home pay for up M 127
hold and hung on M 127
hour than they do M 126
hour one day to M 126
hour and then on M 126
hour and that at M 126
hour and not in M 126
hour and day the M 126
host may use the M 126
hoping that god is M 126
hope not all of M 126
home with one on M 126
home was now an M 126
home was easy to M 126
home nor yet in M 126
home meat for the M 126
home has had an M 126
home for fear it M 126
home and lying in M 126
home and had me M 126
holy see that in M 126
holy men that the M 126
holy god for the M 126
hole was cut on M 126
hole being put in M 126
hole and thus the M 126
hold them and so M 126
hold them all by M 126
hold her but the M 126
hold but for the M 126
hour day and by M 125
hour and that no M 125
hope she may in M 125
hope she has to M 125
home pay due to M 125
hold this idea in M 125
hold for him if M 125
hold and how it M 125
hour was not in M 124
hour she lay on M 124
hour for two to M 124
hour can lead to M 124
hour and all he M 124
hoping that that is M 124
hope was due to M 124
hope that bit of M 124
home was with my M 124
home was lit by M 124
home was dear to M 124
home has not the M 124
home for going to M 124
home and then as M 124
home and for no M 124
home and earn my M 124
home and buy it M 124
home and are of M 124
holy see and at M 124
holy man that is M 124
hole you set the M 124
hole that let the M 124
hold them for my M 124
hold not with the M 124
hold his head the M 124
hold his head or M 124
hold him for at M 124
hold and mix the M 124
hold all things as M 124
hour for his or M 123
host for each of M 123
host and this is M 123
hope for this or M 123
home far out on M 123
hold that god in M 123
hour you are my M 122
hour may lead to M 122
hour each day we M 122
hour and she is M 122
hour and day at M 122
hour and beat us M 122
host that was on M 122
host that was in M 122
hope that they as M 122
hope and how it M 122
home yet and he M 122
home was now on M 122
home this led to M 122
home run was an M 122
home for them if M 122
home for god in M 122
home does not of M 122
home can not go M 122
home and run to M 122
home and hung the M 122
home and add it M 122
holy one may be M 122
hold that due to M 122
hold him fit to M 122
hour they sat at M 121
hope and aim in M 121
hold and bring up M 121
hour was with the M 120
hour was for me M 120
hour she may be M 120
hour for doing it M 120
hour and has to M 120
host than that of M 120
host and that he M 120
hoping that you or M 120
hoping for god to M 120
hope has led to M 120
hope for then is M 120
home you are at M 120
home that day my M 120
home pay that is M 120
home far out in M 120
home but now he M 120
home and earn the M 120
home all that the M 120
holy and with the M 120
hold this set of M 120
hold this out to M 120
hold him now to M 120
hold dear can be M 120
hold both that it M 120
hold any two of M 120
hour day had to M 119
hour and then do M 119
hope that then we M 119
hope for man as M 119
hope for him he M 119
hour they had no M 118
hour each and the M 118
hour day and is M 118
hour and set the M 118
hoping that with my M 118
hoping that they in M 118
hoping that then the M 118
hoping she was on M 118
hoping for now is M 118
hope you got me M 118
hope was then in M 118
hope things may go M 118
hope they try to M 118
hope than with the M 118
hope she has an M 118
hope ere long the M 118
hope but that he M 118
hope and yet in M 118
home was with us M 118
home was off the M 118
home that goes so M 118
home she put on M 118
home men are to M 118
home how easy it M 118
home for things to M 118
home for him the M 118
home for her is M 118
holy men that he M 118
hole was not to M 118
hole and not to M 118
hold way with us M 118
hold them off so M 118
hold out that it M 118
hold its lead in M 118
hold his arm at M 118
hour for her in M 117
hope that boy is M 117
hold for men in M 117
hour off and go M 116
hour can thus be M 116
hour and goes to M 116
host and are the M 116
hope you had it M 116
hope this way of M 116
hope she can go M 116
home use than the M 116
home now than it M 116
home for them the M 116
home and that by M 116
home and had at M 116
home and for us M 116
home and are so M 116
holy way and the M 116
holy see with an M 116
holy men had the M 116
hole and hang the M 116
hold them dear to M 116
hour and was on M 115
hour and sat in M 115
hope with you as M 115
hope now that in M 115
hope may long be M 115
hope and fear so M 115
home and run in M 115
hole and run to M 115
hole and had the M 115
hole and bring the M 115
hold for him is M 115
hour was but the M 114
hour than with the M 114
hour for pay or M 114
hour but this is M 114
hour and got the M 114
hour ago but he M 114
hope you see we M 114
hope yet that we M 114
hope that for me M 114
home put off the M 114
home may then be M 114
home goes out of M 114
home far off in M 114
home can thus be M 114
home and job is M 114
home and buy me M 114
holy war had to M 114
holy man and in M 114
holy and for the M 114
hole and get it M 114
hold them and we M 114
hold them and it M 114
hold out one or M 114
hold are not the M 114
hold and let it M 114
hour and put it M 113
hope with you to M 113
hope and all of M 113
home for him so M 113
hold her own so M 113
hold for her as M 113
hour may now be M 112
host but may be M 112
hoping that was it M 112
hope this does the M 112
hope she got my M 112
hope got one of M 112
hope for her on M 112
hope being that we M 112
hope and then of M 112
hope and not by M 112
home was that if M 112
home was one to M 112
home they can do M 112
home that all is M 112
home team was in M 112
home for them or M 112
home for him he M 112
home can see the M 112
home and set on M 112
home and now at M 112
home and hang the M 112
home and eating the M 112
home and easy to M 112
holy one that he M 112
hole and one in M 112
hole and bring up M 112
hold one way or M 112
hold and let me M 112
hour than that in M 111
hour for using the M 111
hope for but do M 111
hole out with the M 111
hour but that the M 110
hour and two or M 110
hour and thus the M 110
hour and set up M 110
hoping that this thing M 110
hoping that may be M 110
hoping for was an M 110
hope that things do M 110
hope for and it M 110
hope does not at M 110
hope both may be M 110
hope and fear or M 110
home this was it M 110
home this idea to M 110
home had had the M 110
home and with me M 110
home and now is M 110
home and lie to M 110
home and dry it M 110
holy war was an M 110
holy things out of M 110
holy man saw the M 110
holy man has to M 110
holy dying may be M 110
hole and lay the M 110
hole and end up M 110
hold them not as M 110
hold out for king M 110
hold out and in M 110
hold her arm or M 110
hold her and me M 110
hold and how we M 110
hope for two or M 109
hope but out of M 109
hope are both in M 109
hole and run the M 109
hold with all of M 109
hold its head as M 109
hold and get up M 109
hour was set by M 108
hour they are on M 108
hour now and it M 108
hour day and on M 108
hour and got to M 108
host and that in M 108
hoping that all my M 108
hope this bit of M 108
hope they read it M 108
hope that she be M 108
hope than that it M 108
hope than that he M 108
hope lay now in M 108
hope for all is M 108
hope all things in M 108
home was put to M 108
home thus won by M 108
home they are so M 108
home than out in M 108
home she read it M 108
home ill with the M 108
home had had to M 108
home for you by M 108
home for man to M 108
home each day of M 108
home and yet the M 108
home and thus is M 108
home and beat on M 108
holy that all the M 108
hole near him in M 108
hole and fix it M 108
hold out that we M 108
hold him one of M 108
hold for them no M 108
hour and was so M 107
hour and day as M 107
hope they did so M 107
hope she goes on M 107
hope and that in M 107
hope and fear no M 107
home and got as M 107
holy see was as M 107
hold was one of M 107
hold that that the M 107
hold its end up M 107
hold and pay the M 107
hold and bring the M 107
hour that has no M 106
hour she did the M 106
hour may thus be M 106
hour ago with an M 106
host was due to M 106
hoping for one or M 106
hoping for and he M 106
hope was put in M 106
hope than all the M 106
hope lead men to M 106
hope for and no M 106
hope are set on M 106
hope and let the M 106
home with both my M 106
home who read the M 106
home they sat in M 106
home run and it M 106
home run all the M 106
home lay low in M 106
home did not at M 106
home but that we M 106
home and war in M 106
home and die if M 106
home and area of M 106
holy one that we M 106
hole for use in M 106
hole and fit the M 106
hold out both my M 106
hold not fit to M 106
hold and that of M 106
hold and pet the M 106
hope for things we M 105
hope but that we M 105
home yet and it M 105
holy see has in M 105
hole they are in M 105
hole area and the M 105
hold one man in M 105
hour with her as M 104
hour out all the M 104
hour ago was the M 104
host saw that the M 104
host can then be M 104
host and man of M 104
hope you bear no M 104
hope then that it M 104
hope that day by M 104
home who was the M 104
home who can do M 104
home was now no M 104
home then and the M 104
home than one of M 104
home team had to M 104
home she had at M 104
home pay for an M 104
home has two or M 104
holy year for the M 104
holy see out of M 104
holy men are so M 104
hole was cut by M 104
hole one end of M 104
hole may now be M 104
hold with him as M 104
hold then that it M 104
hold that one in M 104
hold her arm to M 104
hope for but in M 103
hope and then in M 103
home and got up M 103
hold you had on M 103
hold off and the M 103
hold for them if M 103
hold and out of M 103
hour now and he M 102
hour act and the M 102
host with two or M 102
host and not of M 102
hoping you get the M 102
hoping for that to M 102
hope things may be M 102
hope they can go M 102
hope that man in M 102
hope that god of M 102
hope led them to M 102
hope for and he M 102
home yet and the M 102
home with one in M 102
home who are at M 102
home they can go M 102
home that year to M 102
home had had no M 102
home for you is M 102
home can not or M 102
home and hear it M 102
home and eating at M 102
home and can go M 102
home all that we M 102
holy see and so M 102
holy see and as M 102
holy men who do M 102
holy men was to M 102
holy god and in M 102
holy fear and the M 102
hold this one in M 102
hold that all my M 102
hold off and do M 102
hold but that the M 102
hope you did so M 101
hold with that of M 101
hour and put an M 100
hour and let my M 100
host how long he M 100
hoping this year to M 100
hope yet that the M 100
hope they use it M 100
hope they got my M 100
hope she has by M 100
hope for easing the M 100
hope and god in M 100
home was apt to M 100
home that lead to M 100
home that has to M 100
home run and an M 100
home his men in M 100
home for awe of M 100
home but was in M 100
home area with the M 100
home are now in M 100
home and long to M 100
home and how my M 100
home and eats it M 100
home and age of M 100
home all day he M 100
hole and using the M 100
hole and put me M 100
hold our own or M 100
hold him for so M 100
hold for you is M 100
hour too long in M 99
hour and then my M 99
hope they ask me M 99
hope that ere he M 99
hope and can be M 99
home and hung on M 99
home and heat up M 99
hold that fear of M 99
hold but not the M 99
hour was this to M 98
hour she had an M 98
hour for this to M 98
hour for men to M 98
hour for going by M 98
hour each with the M 98
hour and was to M 98
hour and was at M 98
hour and that on M 98
hour and say we M 98
host and two or M 98
hoping with them to M 98
hope goes out of M 98
hope for use of M 98
hope for men is M 98
home this year at M 98
home they are at M 98
home now and to M 98
home may set it M 98
home can all be M 98
home area can be M 98
home and then if M 98
home and saw an M 98
home and due to M 98
home and being so M 98
home and beg my M 98
holy war was in M 98
holy that can be M 98
holy see are in M 98
holy men who by M 98
holy may not be M 98
holy man and it M 98
hole was not an M 98
hole for her in M 98
hole and then go M 98
hole and let me M 98
hold you but as M 98
hold them low or M 98
hold that job in M 98
hold our men in M 98
hold one with the M 98
hold one man at M 98
hold his job he M 98
hold her and sing M 98
hold and act in M 98
hour they saw no M 97
hour day was at M 97
hour and saw no M 97
hope she has it M 97
hope and cling to M 97
hole with one or M 97
hole and got the M 97
hour was set in M 96
hour was now an M 96
hour set for my M 96
hour one way to M 96
hour are not to M 96
host who had so M 96
host and she the M 96
host and bring it M 96
host and all of M 96
hoping that then he M 96
hoping one day it M 96
hope you bear in M 96
hope was dying in M 96
hope they got to M 96
hope long ago of M 96
hope for six or M 96
hope and aid of M 96
hope all things of M 96
home was out on M 96
home they put the M 96
home now and my M 96
home not for the M 96
home long ago to M 96
home for long in M 96
home are two of M 96
home are easy to M 96
home and set me M 96
home and saw us M 96
home and read of M 96
home and one thing M 96
home and buy an M 96
home all day it M 96
holy see that is M 96
holy see than to M 96
holy day for me M 96
hole was due to M 96
hole may lead to M 96
hole for use as M 96
hole can act as M 96
hold this not to M 96
hold that idea in M 96
hold one end at M 96
hold one arm up M 96
hold one arm in M 96
hold its head on M 96
hold him off if M 96
hold her was so M 96
hold any one or M 96
hold any job in M 96
hour with you on M 95
hour day and he M 95
hope that was it M 95
home all beat up M 95
hold for him on M 95
hour for him the M 94
hour each day it M 94
hour but that of M 94
hour and year to M 94
hour and year by M 94
hour and read to M 94
host who has the M 94
host but can be M 94
hoping that fear of M 94
hope you try it M 94
hope you hear it M 94
hope too that no M 94
hope for this if M 94
hope and they do M 94
home you try to M 94
home with him of M 94
home with him it M 94
home was yet to M 94
home was now so M 94
home was but the M 94
home now being in M 94
home long ago in M 94
home lay was as M 94
home and doing so M 94
holy see has an M 94
holy one was to M 94
holy joy for the M 94
holy and can be M 94
hole you are in M 94
hole that has an M 94
hole has all the M 94
hole and has to M 94
hold you both to M 94
hold was not as M 94
hold them one by M 94
hold them off on M 94
hold them not in M 94
hold them are the M 94
hold out but the M 94
hold him off by M 94
hold her own or M 94
hold any one by M 94
hold and cut the M 94
hold all men as M 94
hope she was the M 93
hour you can do M 92
hour that was so M 92
hour she was no M 92
hour and won the M 92
hour and how it M 92
host had read it M 92
hoping that two or M 92
hope this was an M 92
hope this day is M 92
hope that lit up M 92
hope got out of M 92
home you buy is M 92
home was with an M 92
home was then on M 92
home now and no M 92
home not with the M 92
home for being so M 92
home can and do M 92
home and was by M 92
home and lying on M 92
home and fix my M 92
home and being an M 92
holy man was he M 92
holy man saw in M 92
holy law and to M 92
holy and all the M 92
hole with that of M 92
hold with that at M 92
hold this law of M 92
hold that and to M 92
hold that air is M 92
hold him near the M 92
hold for him so M 92
hold each bit of M 92
hold but one or M 92
hour but had to M 91
hope things can be M 91
hope that led the M 91
hope that all at M 91
hope now but in M 91
home and log on M 91
hour that saw us M 90
hour that for the M 90
hour may bring to M 90
hour for use by M 90
hour and using the M 90
hour and one at M 90
hour and get it M 90
hour ago but the M 90
host had won in M 90
host for use in M 90
host for his or M 90
hoping she was the M 90
hoping for death to M 90
hope you saw me M 90
hope you may in M 90
hope you may by M 90
hope than fear or M 90
hope for her of M 90
hope did not go M 90
home was new to M 90
home was how to M 90
home was and he M 90
home then and he M 90
home that way to M 90
home run may be M 90
home nor any of M 90
home may all be M 90
home and why it M 90
home and was of M 90
home and then an M 90
home and say my M 90
home and now my M 90
home and let on M 90
home and dying in M 90
home and cling to M 90
holy things and is M 90
holy see has so M 90
holy one that the M 90
holy men was the M 90
holy man not to M 90
hole that was my M 90
hole for air to M 90
hole and mix it M 90
hole and ate the M 90
hold with them at M 90
hold with going to M 90
hold one out to M 90
hold not that the M 90
hold its own the M 90
hold his job on M 90
hold him was to M 90
hold him off in M 90
hold and with it M 90
hope that has to M 89
hole and how to M 89
hold for all is M 89
hour was six in M 88
hour nor for the M 88
hour may mean the M 88
hour for him he M 88
hour but that he M 88
host may then be M 88
hoping was that the M 88
hope you bring us M 88
hope she was in M 88
hope not all in M 88
hope for them on M 88
hope and way of M 88
home with you an M 88
home with god is M 88
home with and in M 88
home was going up M 88
home then for the M 88
home may add to M 88
home for long or M 88
home for her the M 88
home but now it M 88
holy one was the M 88
holy oath that he M 88
holy man who in M 88
hole and saw it M 88
hole and lay on M 88
hole and hid the M 88
hold this law to M 88
hold them and no M 88
hold off and to M 88
hold her and it M 88
hold has not as M 88
hold god and the M 88
hold any job at M 88
hour day for an M 87
host and thus to M 87
hope this set of M 87
holy and not so M 87
hole and let in M 87
hold and use to M 87
hour with both the M 86
hour than does the M 86
hour for men of M 86
hour for dying in M 86
hour each day if M 86
hour but one is M 86
hour and yet the M 86
hour and how to M 86
hour and add the M 86
host that one of M 86
host has led to M 86
host had put the M 86
host did was to M 86
host and use it M 86
hoping she was at M 86
hoping all day to M 86
hope was thus to M 86
hope was but in M 86
hope this year we M 86
hope that thus an M 86
hope few are so M 86
hope but that at M 86
home who has to M 86
home they put me M 86
home one day we M 86
home lay near the M 86
home has had no M 86
home but was so M 86
home but not be M 86
home and yet is M 86
home and with so M 86
home and out the M 86
home and beg the M 86
home and act in M 86
holy see was on M 86
holy see led to M 86
holy and had to M 86
hole that was so M 86
hole and won the M 86
hole and saw to M 86
hold this fear in M 86
hold them was to M 86
hold that and the M 86
hold out both the M 86
hold her for it M 86
hold dear and in M 86
hour with her the M 85
hope that has the M 85
hope one may be M 85
hope now that no M 85
hope and yet the M 85
home way out in M 85
holy war was at M 85
hole they may be M 85
hour with god in M 84
hour and sat on M 84
hour and read me M 84
hour and led to M 84
hour and ask the M 84
host was not an M 84
host may thus be M 84
host for any of M 84
hope they end up M 84
hope but that if M 84
hope are two of M 84
home than any we M 84
home run can be M 84
home now all the M 84
home for but to M 84
home but had the M 84
home are all in M 84
home and yet in M 84
home and who in M 84
home and war on M 84
home and set an M 84
home and does me M 84
home and does it M 84
holy they are in M 84
holy that was so M 84
holy see had so M 84
holy see being the M 84
holy see and it M 84
holy man who by M 84
holy day and in M 84
hole they cut in M 84
hole that was no M 84
hole that was at M 84
hold them one at M 84
hold his men up M 84
hold for him an M 84
hold for all we M 84
hour and use it M 83
hope that was as M 83
hope than can be M 83
hope and that if M 83
home was that no M 83
home nor that of M 83
home and yet as M 83
hour was apt to M 82
hour has yet to M 82
hour for him at M 82
hour and cut the M 82
host nor any of M 82
host for two or M 82
host did not eat M 82
host but not on M 82
host and has no M 82
host and had to M 82
hoping that one is M 82
hoping for and the M 82
hoping for aid in M 82
hope you see me M 82
hope she does me M 82
hope now she is M 82
hope had yet to M 82
hope for with so M 82
hope are thus the M 82
hope and her at M 82
home you are so M 82
home with things to M 82
home who goes to M 82
home was for us M 82
home was but it M 82
home too ill to M 82
home say that the M 82
home one had to M 82
home meat out of M 82
home for men to M 82
home for all in M 82
home and she to M 82
home and ran it M 82
home and goes in M 82
holy war than in M 82
holy arm for the M 82
hold them but to M 82
hold out and if M 82
hold one leg of M 82
hold off and be M 82
hold her that he M 82
hold her own is M 82
hold any act of M 82
hold all that to M 82
hour was set as M 81
hour and going to M 81
hope you and me M 81
hope and has no M 81
hour you are on M 80
hour was cut to M 80
hoping they can do M 80
hoping she got the M 80
hope that had to M 80
hope both that at M 80
home you get the M 80
home too weak to M 80
home they reap the M 80
home team won or M 80
home she got the M 80
home now that my M 80
home may act as M 80
home for use of M 80
home did not so M 80
home and saw in M 80
holy things are in M 80
holy men than the M 80
holy man was of M 80
holy day can be M 80
hold you now in M 80
hold that this or M 80
hold him for no M 80
hold her son to M 80
hold her seat in M 80
hold for long if M 80
hold any set of M 80
hope that now is M 73
hope that due to M 73
hold that had the M 72
hope for this as M 71
hope and let us M 69
hope but not to M 67
hope that all or M 66
hope that was no M 65
hour and got up M 64
hope that owing to M 64
hope that now in M 64
hope for men of M 63
home she ran up M 63
hole and ran up M 63
home was going on M 62
holy men and so M 62
hope for fear of M 61
hope for that at M 60
hope that this be M 59
hope that not the M 58
hope that that of M 57
home for man as M 57
hold and not be M 57
home they are as M 56
hope that one in M 54
hold was due to M 54
hold them but as M 54
hold and lead to M 54
hope they see in M 53
hope that goes on M 53
home and going up M 53
hold and put in M 53
hope that god or M 52
hope that being the M 52
hole and near the M 52
hold are for the M 52
hope that this so M 51
hope that for us M 51
hope for death to M 51
hour day that he M 50
hour and was as M 50
hope that does it M 50
hope that both in M 50
hoping she was as M 49
hope that then he M 49
hope for him the M 49
hope all goes as M 49
hold for her if M 49
hold and lead the M 49
hope that you of M 48
hope that one by M 48
hope that going to M 48
hope she had no M 48
hope for this at M 48
hope and put in M 48
hope and fear do M 48
home long ago if M 48
hold that owing to M 48
hold for them to M 48
hold for him to M 48
hold and all of M 48
hour they put in M 47
hope for and do M 47
home and say so M 47
home and dry as M 47
hold you all up M 47
hold this one up M 47
hour off for tea M 46
hour day was on M 46
hour and two in M 46
hope too that by M 46
hope that with me M 46
hope and led to M 46
hope and joy it M 46
holy men are as M 46
hole and hid it M 46
hold with one or M 46
hold them all so M 46
hold our own so M 46
hold and thus the M 46
hour you get up M 45
hour run with the M 45
hour and hear me M 45
hope that each is M 45
hope that does the M 45
hope one way or M 45
hope one day in M 45
holy war going on M 45
hole too near the M 45
hole and one or M 45
hold are that the M 45
hold and set up M 45
hour day act of M 44
host and act as M 44
home and job as M 44
home and are as M 44
hold with each of M 44
hold and sat up M 44
hour how she is M 43
hour day than the M 43
hour day law of M 43
hope you saw in M 43
hope that now my M 43
hope that ere it M 43
hope for you on M 43
hope for one so M 43
hope does not go M 43
hope and act as M 43
hole and hang it M 43
hold its own up M 43
hold for you to M 43
hold can lead to M 43
hope they win the M 42
hope they saw in M 42
hope that you my M 42
hope for them so M 42
home that they no M 42
home pay with the M 42
home and war as M 42
hole and that in M 42
hole and had no M 42
hold for men as M 42
hold and was in M 42
hold and one of M 42
hold and fix it M 42
hour with any of M 41
hour they had so M 41
host than for the M 41
hoping that being in M 41
hope are now in M 41
hope and joy be M 41
hope all that we M 41
home this year as M 41
hold for man as M 41
hold dear may be M 41
hold but not so M 41
hold are going to M 41
hold and use of M 41
hour this was the M 40
hour that day in M 40
hour men may be M 40
hour day that is M 40
hour day for me M 40
hope this act of M 40
hope they mean it M 40
hope that for at M 40
hope for him so M 40
hope for and so M 40
hope each day to M 40
home that are as M 40
home for one so M 40
hole you put in M 40
hold them both as M 40
hold that not to M 40
hold dear are in M 40
hold but with the M 40
hold but that of M 40
hold and that no M 40
hold and not in M 40
hold all for the M 40
hole was dug in D 5218
holy zeal for the D 2890
hour per day of D 2264
hour per day in D 2031
hood and guy of D 1964
hour per day to D 1568
hook and put it D 1499
hole dug for the D 1452
home and hit the D 1176
hood was one of D 1088
hour per day on D 1034
hold thee but by D 982
horn can not be D 930
hook can not be D 894
hold that art is D 844
hour per day is D 834
hook and eye at D 830
hour per ton of D 812
hole was dug to D 790
holy oil for the D 788
hook one end of D 763
hook and eye to D 741
hole dug out of D 734
home and rang the D 726
holy oil and the D 706
horn was one of D 686
hood can not be D 674
holy ark and the D 630
hook and eye on D 596
home and met the D 592
horn and all the D 590
hoax and that the D 586
hook and let it D 562
hole dug for it D 560
hose that can be D 552
hold his hat on D 550
hold his hat in D 544
hook that can be D 540
hour per day or D 539
horn that hung at D 506
hole and tie the D 504
hood was going to D 502
hood that can be D 498
hole and tie it D 493
hour per day at D 473
hook was one of D 455
hook may not be D 455
hole was dug at D 452
hogs can not be D 440
home with thee in D 438
hose and put it D 416
horn and then the D 415
hose can not be D 407
hold that sex is D 406
home run hit by D 404
hogs are fed on D 385
hook and let the D 372
hole being dug in D 368
home and fed it D 358
hole dug out in D 358
hoar was one of D 330
hold her hat on D 328
hoot one way or D 326
home and dug in D 324
hole was dug by D 324
hose and let the D 320
horn and one of D 319
hook and put the D 318
hood and all the D 316
hogs and all the D 308
horn and with the D 307
hole was dug on D 304
hook and set it D 298
home and met my D 298
horn and pen in D 294
hold his pen in D 294
hook and eye of D 284
hook and eye or D 282
home and fed the D 276
horn that can be D 270
hook and try to D 270
hour for thee to D 268
hope this guy is D 268
home and mow the D 266
horn and put it D 264
hook can then be D 264
home was hit by D 256
hood and one of D 251
hose cut out of D 248
hood and let the D 246
home and hug my D 246
hold one ton of D 246
hook and then the D 244
hook with one of D 242
hole dug near the D 242
hole and tap it D 241
hood was put on D 238
home lead thou me D 238
home she met the D 234
hose who are in D 233
host was met by D 232
hole and hit the D 227
hook eye and the D 224
hook and that the D 221
horn and that the D 216
hook was not the D 214
hood was not the D 210
home was met by D 208
horn and saw the D 206
home and fling it D 206
hook was set in D 205
hope that sang in D 202
hoot him out of D 200
hook for use in D 200
horn and see if D 199
hose and let it D 198
home they met the D 198
horn and that of D 197
hope bay and the D 196
hood and then the D 196
hose for use in D 194
hour per day by D 193
horn and let the D 191
host had met an D 190
hook for all the D 188
home run hit in D 186
hoax and that he D 186
horn and then to D 184
hook and with the D 184
hook and eye is D 184
home and fed me D 182
home and rang up D 180
hops can not be D 177
hook and put on D 177
hold and swing the D 175
hope was fed by D 174
home and car to D 174
hold thee with my D 174
hose and put the D 172
horn was going to D 172
hook and tie it D 172
horn with all the D 170
horn that hung by D 170
horn and try to D 170
hops that can be D 170
hole and seal it D 170
hood was put in D 168
hood and put it D 168
home with mud on D 168
hose that goes to D 166
hour per day as D 165
hook them out of D 164
horn and hung on D 163
horn may not be D 162
hook and how to D 161
horn that was to D 158
hone was one of D 158
howl was set up D 156
hose and goes in D 156
horn for her to D 156
hope you fry in D 156
hook and tie in D 156
hope and eke my D 154
home who egg on D 154
hood was not in D 152
horn had set in D 150
hole and tap the D 150
howl with all the D 149
hook and lie in D 146
hook and can be D 146
hood led him to D 146
hood for use in D 146
hogs that can be D 146
horn and can be D 144
home and wear it D 144
horn and let it D 143
home and dig in D 143
hose can then be D 142
hoot owl and the D 142
holy zeal and the D 142
hold one row of D 142
hold his bed of D 142
hook with all the D 141
hots for one of D 140
horn that hath so D 140
hood and got in D 140
hook had got the D 138
hook them all up D 137
hook and out of D 136
hood and saw the D 136
hole dug with the D 136
hold his gun in D 136
home and dig up D 135
hope not that thy D 134
hose and all the D 132
horn for all he D 132
horn and for the D 132
horn was out of D 130
horn lying thus in D 130
hook and set the D 130
hock can not be D 129
horn and cry of D 128
hoot him off the D 128
hogs are not so D 128
horn and not the D 127
hope you hit the D 126
hook them with the D 126
hold his cap in D 126
hogs get fat of D 126
hood saw that the D 124
hour and hit the D 122
hook for all of D 122
hood may not be D 122
hood and try to D 122
hole dug out by D 122
horn with that of D 120
hook and eye in D 120
hose and out of D 118
horn that lay on D 118
hope and zeal in D 118
hoof and then the D 118
hose and use it D 117
holy one and ye D 117
hose and out the D 116
hope for art in D 116
hook may not he D 116
hood and see if D 116
hood and put the D 116
home for mom to D 116
hole dug and the D 116
holy ark with the D 115
horn was not the D 114
horn for fear of D 114
hops than any in D 114
home and bed of D 114
holy row going on D 114
hook and one of D 113
hood and can be D 113
horn has rung in D 112
horn for them to D 112
horn for him to D 112
hope and zeal to D 112
hook are all to D 112
hood was out of D 112
home and car in D 112
howl that goes up D 110
hood and two of D 110
home with mom or D 110
hole with his toe D 110
hold thee not to D 110
hold and hug the D 110
hoar that was in D 110
holy ark for the D 109
hole they dug in D 109
horn for use in D 108
horn and his ring D 108
hood and with the D 108
host met them at D 106
horn that was in D 106
hoop can not be D 106
hoop and try to D 106
hoop and put it D 106
hook may then be D 106
hook and hang the D 106
hole dug out to D 106
hope that this re D 105
hour they met in D 104
host bus and the D 104
hose and can be D 104
hook bay and the D 104
hook and cut it D 104
home and wear the D 104
home and car of D 104
hour noel and the D 102
hose and try to D 102
hook and hang it D 102
hope not thou to D 101
hogs are fed in D 101
horn that hung on D 100
hook with two or D 100
hook that may be D 100
hook than all the D 100
hood and then to D 100
hood and put on D 100
home and dug up D 100
hour per year of D 98
host met him at D 98
hose set off the D 98
hoof and has the D 98
hood and top of D 98
hood and hit the D 98
home and fed us D 98
hogs and for the D 98
hose that led to D 96
horn that was the D 96
hops may not be D 96
hope for aye to D 96
hook was not in D 96
hoof can not be D 96
hood was put up D 96
home and fed to D 96
hogs that are to D 96
hose and then the D 95
horn and then by D 95
hood was now in D 94
home and wring the D 94
horn and all of D 93
hose may not be D 92
hose and set the D 92
horn fly and the D 92
hook was that the D 92
hook was out of D 92
hook and bring the D 92
hook and bring it D 92
hook and all the D 92
hood and let it D 92
hood and fix it D 92
hogs did not eat D 92
horn and then up D 91
hour wear out the D 90
horn are for the D 90
horn and led the D 90
hope doth now so D 90
hook that had me D 90
hood that hid the D 90
hood and that the D 90
hold oil off the D 90
horn and bag of D 89
hoar than all the D 89
howl and fly at D 88
hour they met at D 88
hour and den he D 88
hose that may be D 88
horn and with an D 88
hook for one of D 88
hook and use it D 88
home sung out in D 88
home and tie up D 88
home and tear up D 88
home and met me D 88
hold his jaw in D 88
hoax can not be D 88
hoax and that it D 88
home mom who is D 87
horn led him to D 86
hook and out to D 86
hood was not to D 86
hows and why of D 84
hose and with the D 84
horn was that of D 84
horn was for me D 84
hoar old age or D 84
hose and ran to D 82
horn was not to D 82
hook was put in D 82
hook and see if D 82
hood and ran to D 82
hold his pen to D 82
hold his gun on D 82
hold her hat in D 82
hood set out to D 81
hose and ran it D 80
hook and lay in D 80
hook and hung it D 80
home for this thy D 80
home and sew it D 80
holy oil had no D 80
hole and hit it D 80
hold them with thy D 80
howl and cry as D 66
horn and beat the D 58
hops out and the D 50
hold yer head up D 50
howl and try to D 48
hour per year in D 48
hold and hit the D 48
howl and all the D 47
hood and for the D 47
howl and cry in D 46
hook and cut the D 46
home and car as D 46
hold and tear the D 44
howl and cry to D 43
hose and put on D 43
hook and had to D 41
hood and that of D 41
hook and then to D 40
home mom and the D 40
hole with wax or D 40
