horrible to me . M 5126
hopeless to me . M 1456
horrible it is . M 800
hopeless at it . M 778
holiness in us . M 685
hopeless it is . M 550
horrible to us . M 432
horrible in it . M 432
horrible it is ! M 390
holiness in it . M 374
holiness of it . M 264
horrible to me ! M 246
horrible of me . M 218
horrible to me ? M 202
holiness in me . M 194
horrible at it . M 174
horrible it is ? M 170
holiness to us . M 146
horrible in it ? M 142
hopeless to us . M 122
horribly at me . M 114
hopeless it is ? M 102
hopeless it is ! M 92
holiness to it . M 82
horrible of me ? M 41
