long and has a M 30006
long ago that i M 23236
long and had a M 10900
long and with a M 10806
long ago that a M 10526
long day and i M 5578
long ago and i M 5065
long way for a M 4636
long run than a M 4542
low heat for a M 3820
long ago with a M 3732
long day and a M 3342
long way that i M 3298
long run for a M 3166
lot was not a M 2889
long way and i M 2506
long ago was a M 2500
long one and a M 2466
long ago for a M 2356
long way with a M 2256
long run with a M 1995
lot and had a M 1970
long now that i M 1928
low bow and a M 1634
long ago had a M 1522
low and with a M 1504
long and that i M 1492
long way and a M 1478
long run and a M 1296
low and that a M 1212
long ago and a M 1208
long way off i M 1202
long ago but i M 1198
long arm and a M 1128
long way off a M 1104
long head and a M 1074
long one and i M 1054
long ere this i M 1038
long ago had i M 1018
long one for a M 1014
long arm with a M 1002
long and then i M 966
long day with a M 948
long war and a M 938
long and not a M 932
low and has a M 890
long box with a M 880
long run was a M 876
long they had a M 864
long one with a M 846
low pay and a M 842
long bar with a M 824
long and was a M 800
lot and has a M 790
long wings and a M 788
long bow and a M 784
long and that a M 732
long head with a M 694
long and now i M 672
long was not a M 637
long and for a M 618
long leg and a M 614
lot that has a M 600
long you and i M 597
low that not a M 592
lot and was a M 589
low and had a M 580
long that now i M 580
long bar and a M 576
long has had a M 561
lot and that i M 560
long day for a M 556
lot and then i M 534
long poem with a M 532
low heat with a M 530
long run that a M 510
long she had a M 508
lot and get a M 504
lot and for a M 492
long day was a M 478
long she was a M 476
low that for a M 474
low and for a M 470
lot and saw a M 452
low and not a M 436
long now and i M 432
long but with a M 432
low and mean a M 430
long had had a M 430
long ago did i M 415
long war with a M 410
long poem was a M 408
long poem and a M 390
long and are a M 370
long was that i M 369
long two and a M 362
long that for a M 358
long year and a M 356
long ago how i M 341
long seat with a M 340
low one for a M 334
low bid for a M 326
long run has a M 318
long way but i M 316
long and then a M 310
long run had a M 308
low end and a M 306
long but that i M 302
long ago was i M 302
low but with a M 300
long but not a M 296
lot and did a M 290
lot that had a M 286
long run and i M 286
low and that i M 282
long ago won a M 276
long ago saw a M 275
long that has a M 272
lot and got a M 270
long for all i M 266
long arm for a M 262
long put and a M 256
long and yet i M 252
long ago put a M 249
lot and not a M 248
long day that i M 242
lot and with a M 241
lot and read a M 240
long run that i M 238
lot that was a M 236
lot and put a M 226
long dead and i M 226
lot and now i M 224
long they saw a M 222
long and long i M 219
low but not a M 212
long war was a M 212
long one that i M 212
low but that i M 210
long but has a M 206
low seat with a M 204
long day but a M 202
low than with a M 200
low gear for a M 200
low and then a M 200
lot now that i M 196
low gear with a M 194
long run than i M 194
low pay was a M 192
long run but a M 190
long run are a M 190
long ere this a M 190
low pay for a M 188
lot and buy a M 188
long dead has a M 188
long and bear a M 186
long ago set a M 186
low bow with a M 182
low head and a M 176
lot was for a M 176
long day but i M 176
low one and a M 172
long that had a M 171
lot and see a M 168
long poem that i M 168
long bow with a M 168
low heat and a M 166
low one with a M 160
low key with a M 160
long head has a M 160
low gear and a M 158
lot and that a M 158
long was now a M 158
long than for a M 158
long and but a M 158
log and had a M 158
low and use a M 156
long dead and a M 155
long and why i M 154
log that has a M 154
lot now and i M 148
long man with a M 148
long job and a M 148
long and got a M 148
long than with a M 147
lot but now i M 146
long and put a M 146
low end with a M 144
long box and a M 144
low key for a M 142
lot and then a M 142
long ago got a M 141
lot area for a M 140
long bar was a M 140
long put with a M 139
log and with a M 138
long run mean a M 136
long and sad a M 134
lot and cry a M 132
lot but has a M 130
long wings with a M 130
long and use a M 130
long ago but a M 130
low and was a M 128
lot and ate a M 128
long leap and a M 128
long arm has a M 126
long war for a M 124
long for you i M 124
long but had a M 124
low seat and a M 122
low head with a M 122
low and thus a M 122
long run not a M 122
low heat for i M 120
long run earn a M 120
long cut with a M 119
lot was now a M 118
long plea for a M 118
long you are a M 116
low and put a M 114
lot for all i M 114
low red heat a M 112
log and put a M 112
long not for a M 111
long they are a M 110
long that all i M 110
long due for a M 108
lot for being a M 106
long year that i M 106
long poem for a M 106
long long ago i M 105
long had both a M 103
long but for a M 102
long and cut a M 102
low that with a M 100
long she has a M 99
long long ago a M 99
low key and a M 98
low and using a M 98
long one was a M 98
long one but i M 98
long use and a M 96
long run but i M 96
long and far i M 96
log and lit a M 96
low wings and a M 92
low and wet a M 92
lot was that i M 92
long may see a M 92
long and all i M 92
low end for a M 90
lot than being a M 90
long now that a M 90
long end and a M 90
log was not a M 90
low box with a M 88
low and yet a M 88
long path with a M 88
low sun and a M 86
low cut with a M 86
low and then i M 86
long who was a M 86
long and one a M 86
long you had a M 85
low cry and a M 84
lot and use a M 84
long was she a M 84
long one but a M 84
low that all i M 82
low and but a M 82
lot you and i M 82
lot and say a M 82
lot and all i M 82
long war and i M 82
long poem and i M 82
long lead and a M 82
long end with a M 82
lot who had a M 80
long that was a M 62
long this was a M 54
long for with a M 52
long ago did a M 42
long for things i M 41
long ears and a D 2700
long rod with a D 1504
long wig and a D 770
log hut with a D 543
long hug and a D 494
long bath and a D 466
long beak and a D 406
long rod and a D 376
low bed with a D 334
long gun and a D 320
long gun with a D 312
long beam with a D 304
low ebb for a D 302
long pin with a D 302
long jaw and a D 252
low ebb and a D 238
low ebb and i D 236
log hut and a D 216
long and tie a D 214
lot and hit a D 201
long tom and a D 200
long toes and a D 182
long thong with a D 174
low hut with a D 170
long fur and a D 160
long beak with a D 156
long car with a D 154
low fat and a D 150
low bed and a D 148
lot was fed a D 146
long ears with a D 144
low hum and a D 142
long they met a D 140
long nap and a D 140
low ebb that i D 136
long ago met a D 130
low hat with a D 128
low ebb that a D 124
log hut for a D 122
long and thin a D 112
long beak has a D 96
long hut with a D 92
long and hot a D 92
low fee for a D 86
lot and met a D 86
low and hit a D 84
lop ears and a D 61
long tom was a D 53
