long she had been M 32088
long they had been M 29694
long has this been M 26463
long has she been M 20533
long had she been M 16192
long way off from M 15910
long and two feet M 12326
long did you stay M 11124
long that they have M 10632
long had they been M 9704
long ere this have M 9620
long and six feet M 8262
long can you stay M 8226
long that they were M 8064
long ago had been M 8006
long run they will M 7412
long had you been M 7395
long ago that there M 7291
long and ten feet M 6762
low low low high M 6745
long and with such M 6362
long may you live M 5852
long ago they were M 5739
low that they were M 5508
long and one mile M 5457
long and two wide M 5373
long she has been M 5288
long did you work M 5199
long and too hard M 5184
long did you live M 4955
long run you will M 4898
long and not very M 4880
long did you know M 4420
low pay and poor M 4413
long dead and gone M 4344
long are you here M 4077
long she sat there M 3755
long can you keep M 3753
long did you have M 3715
long run this will M 3685
long has that been M 3339
long can you hold M 3202
long and too well M 3198
long cut off from M 3069
long ago and have M 2982
long they may have M 2931
long and how much M 2890
low nor too high M 2866
long run they were M 2852
long this has been M 2848
long ago that when M 2846
long may they live M 2841
long you can keep M 2812
long and ten wide M 2788
long may our land M 2758
long and had been M 2688
long you can stay M 2684
long and six wide M 2643
long way off when M 2592
lot that had been M 2562
long ago you were M 2555
long and has been M 2554
long and too much M 2446
long may she live M 2444
low that they have M 2258
long east and west M 2210
long way yet from M 2200
long and one wide M 2196
long did you wait M 2159
long she lay there M 2157
long and they were M 2132
log that had been M 2132
long that you have M 2115
long ere this time M 2115
low and they were M 2098
long does that take M 2088
long did you think M 2084
long you can hold M 2056
long had this been M 2022
low than too high M 2018
long and far into M 2016
long this had been M 1938
long and how well M 1936
long and not more M 1927
long run than those M 1916
long and how hard M 1900
long ago and were M 1888
long did that take M 1881
long ago that most M 1881
long ago that many M 1878
long ago that even M 1878
long ago that their M 1850
long ere now have M 1805
long way out from M 1716
long did they stay M 1713
lot has not been M 1680
lot that has been M 1650
long for each other M 1594
long run has been M 1588
low that they will M 1584
long that they will M 1582
long ere this been M 1576
long you may have M 1574
long way off look M 1570
long but not very M 1561
long did that last M 1545
lot had not been M 1536
low pay and lack M 1506
long set his heart M 1498
long ago has been M 1463
long did she stay M 1460
long ago and there M 1460
long for his body M 1459
log and sat down M 1457
long run they have M 1450
long and you will M 1420
long did they last M 1415
long way with these M 1414
long ago that some M 1391
long and far from M 1378
long ago that such M 1378
long does this take M 1377
low and that there M 1370
long run they must M 1348
long day was over M 1346
long run far more M 1318
long and you have M 1318
long can this last M 1316
long run not only M 1315
low and has been M 1314
low and too high M 1300
long ago that these M 1288
lot with each other M 1286
long did you take M 1281
long you had been M 1264
long did you keep M 1264
long run may have M 1258
lot and got into M 1245
long they can keep M 1242
long and with what M 1234
low and not very M 1220
long that you will M 1194
long that had been M 1193
long run can only M 1192
long one has been M 1192
long she had lain M 1179
long they can stay M 1162
long and may have M 1154
long and how wide M 1154
low and one high M 1136
low and they have M 1132
lot was not cast M 1116
long run and will M 1092
lot not far from M 1088
long and for what M 1084
long ago that only M 1074
long does she have M 1072
long for his coming M 1062
long long way from M 1059
low that you have M 1040
long and how many M 1036
long way for nothing M 1012
long and that there M 1010
long did she have M 999
long war was over M 991
long can you wait M 990
long ago did your M 978
long and not less M 960
low and then high M 958
log that has been M 952
low than for high M 944
low and say nothing M 928
low pay and high M 924
lot was now cast M 920
long ago and left M 910
long and too heavy M 906
low that they must M 894
long and they have M 892
long ago may have M 886
long they can hold M 884
lot and they were M 882
long that she felt M 880
long way not only M 878
long they sat there M 874
long and are used M 870
lot you can learn M 858
low bow and said M 854
long wings and tail M 848
long way out into M 844
long and has three M 843
long ago had come M 836
long can you live M 832
long and was made M 822
long she was able M 817
long for this life M 817
long that they seem M 814
low and far away M 810
long way now from M 806
long run that will M 806
long did they have M 805
long that they must M 804
long one this time M 803
low and his eyes M 802
low that one must M 800
long ago and only M 799
long and are made M 798
long and not much M 794
long ago and many M 790
long ago they used M 779
long did you talk M 778
long did they live M 777
long run but also M 776
long ere they were M 770
long and too wide M 770
long for its width M 767
long for any good M 763
long this may last M 760
long and one half M 756
long ago that what M 754
long ere that time M 749
long that they lose M 748
long that they came M 748
long way and were M 738
lot and was very M 737
long for that time M 732
long ago that nothing M 730
long ago and said M 730
long did they keep M 729
long and not over M 729
lot was far from M 726
long ago and what M 718
long can they keep M 716
long did this last M 710
long way and have M 708
long this war will M 707
long did this take M 702
lot for each other M 700
long for one line M 698
long ago had made M 693
long use has made M 692
long had not been M 689
long can you give M 682
long ago that your M 682
long had that been M 679
long you may live M 676
low but not high M 674
long and are very M 674
long run are those M 672
long and with great M 670
long you can make M 669
long war had been M 666
low for this type M 664
long ago day when M 657
long she was there M 656
long ago and their M 656
long did you hold M 654
low low low very M 650
long ago they have M 646
low but not zero M 643
low that you will M 640
long way and there M 639
low for all three M 634
long run she will M 632
long this may take M 626
long ago was made M 626
low and you have M 620
long ago and made M 610
long for this book M 608
long day had been M 606
long run for their M 602
long and you want M 598
long hath she been M 596
long ago that those M 594
low than with high M 592
long did she live M 591
long ago got over M 590
long and one third M 586
long does this last M 576
long they may last M 572
long you and your M 563
long and with much M 563
long and has four M 560
long that may take M 557
long with too much M 555
long for this kind M 554
long ago that life M 554
long does that last M 552
low and for high M 550
long and his eyes M 550
long may you have M 548
long long ago when M 547
long ago and will M 545
long did you plan M 543
long ago and very M 543
long that they reach M 542
long ago set forth M 542
long ago had lost M 541
low that not even M 540
lot and you will M 539
low and they will M 538
long run are more M 538
long for that kind M 534
long and has many M 530
long did you date M 529
low and you will M 528
long ago and gone M 527
long they may live M 526
long man has been M 526
long did they take M 526
long and was soon M 524
long and they will M 524
long way with your M 522
long run for those M 522
long can that last M 522
long ago and been M 522
log out and back M 521
long and hung down M 520
long ago and some M 520
long run you have M 518
low that you must M 512
long use and wont M 512
log for one week M 511
low that his life M 510
long run than what M 510
long ago was your M 510
long run and over M 509
long and too many M 508
long and too loud M 508
long she had held M 504
long one and there M 499
long run may well M 498
long long ago there M 497
low and may even M 496
long was she there M 495
long that has been M 495
long can they hold M 492
low and far from M 490
long for and seek M 490
long run this must M 488
low and had been M 486
long she was back M 485
long ago and even M 480
long ago had said M 479
long ago you told M 478
long they lay there M 477
long can they stay M 476
low and two high M 471
low heat for five M 470
long did she work M 470
low and that their M 468
long does one have M 468
long ago they came M 467
long way out here M 466
long and too full M 466
long ago and told M 466
lot and they have M 464
long you can wait M 464
long they had held M 463
long run all these M 463
long had his eyes M 459
lot and had been M 458
long and not have M 458
lot with one side M 457
long that she knew M 455
long they had left M 454
low and with high M 452
long and was used M 452
long that they know M 451
long ago put away M 447
low and her eyes M 446
long ago and those M 444
long way this side M 442
lot that goes into M 440
long way out there M 440
long they had lain M 439
long red and blue M 438
long she was gone M 436
long she can keep M 436
long and was very M 434
long and sad tale M 434
long and far away M 434
long she had felt M 432
lot that you have M 430
long that they felt M 430
long ago with some M 429
long ago and from M 429
long and its width M 428
long run this means M 427
long has not been M 427
long did not know M 427
long ago for your M 427
long head and face M 424
long had she lain M 424
long did not have M 424
long and his face M 424
long way off came M 422
long ago for their M 421
long run this kind M 420
long run and even M 419
lot and you have M 418
long she may have M 418
long and low like M 418
long ago who used M 418
long they are kept M 417
low end and high M 416
long did you play M 416
long for and what M 411
long and too late M 411
long and too slow M 410
long did she think M 405
long and has only M 404
long ago for some M 403
lot did not fall M 402
long you can last M 396
long ere now been M 396
long way they have M 392
long did they wait M 392
long ago cut down M 392
low and may have M 390
long day was done M 390
long can you last M 390
long and too great M 390
lot and are very M 389
long are you home M 389
long are cut from M 388
long that they think M 386
long run things will M 386
long you can take M 385
long run and what M 385
long and has five M 385
long and had four M 385
long they and their M 384
long can they last M 384
long did you look M 382
long way and will M 381
lot for this town M 379
lot did not know M 379
long run and also M 378
long ago but have M 375
long for her body M 374
long ago had left M 373
long are you young M 372
long ago got used M 371
lot that they were M 370
long and had many M 364
long all this will M 364
long ago with their M 362
long for this work M 360
long run and have M 358
long and you know M 358
lot does not have M 356
long way with their M 356
long ago set down M 356
long for and need M 355
long they can last M 354
long does not come M 354
long ago you gave M 354
long for this time M 353
long run all will M 352
long for its body M 352
long ago hath been M 352
long with each other M 350
long you may find M 348
long you are able M 348
long they are able M 348
long this can last M 347
low and see what M 346
lot was not much M 346
long one with many M 346
long and that their M 346
log off and back M 345
long way you have M 344
long that you were M 344
long that they feel M 344
long run was more M 344
long and had three M 344
long ago you said M 344
long ago that time M 344
long that not even M 343
long run and more M 343
log does not have M 343
low and too slow M 342
long one for such M 342
long has man been M 342
long did you stop M 341
long and had lost M 340
long was cut from M 339
long ago and more M 339
long and too deep M 338
long run than their M 336
long but not deep M 336
long and had only M 335
low and that many M 334
long set her heart M 334
long and was kind M 334
long ago and when M 334
long and for many M 333
long ago put into M 333
low for this time M 330
long long way away M 330
long and with whom M 329
long can one live M 328
long and you need M 328
long that you must M 326
long run and from M 326
long does not keep M 326
long and hang down M 326
long for his liking M 325
long ago and went M 325
low and you need M 324
long and one very M 322
long and her eyes M 322
long they had gone M 320
long ago did these M 320
long ago but what M 320
lot did not have M 318
long run than other M 318
long she can hold M 316
lot and you know M 314
lot and get into M 314
long way with some M 314
long that you think M 312
long run than trying M 312
long for his home M 312
long way off into M 310
long war has been M 310
long that they look M 310
long for his great M 309
long ago had their M 309
low they may have M 308
long war had left M 308
long they can live M 308
long that his feet M 308
long long long time M 308
long and with very M 308
long and too cold M 306
long that they need M 304
long they may stay M 303
long you may stay M 302
long run they also M 302
long run and only M 302
long but they were M 302
long and too fast M 302
low and his face M 300
long ago had gone M 299
low heat and warm M 298
long and his hair M 298
long and not know M 296
long ago and must M 296
log not far from M 296
low and far back M 294
long day and there M 294
long with all their M 292
long way off over M 292
long and you must M 292
long ago that none M 292
long was she here M 290
long and how deep M 290
low and not much M 288
long was she gone M 288
long run that there M 288
long and ran from M 288
long that they knew M 287
long run not even M 287
long ago that were M 287
long run and make M 286
long can she stay M 286
long and his body M 286
log that you want M 286
long ago and kept M 285
long way off upon M 284
long that they fell M 284
long one may have M 284
long for his face M 284
long that she will M 283
long one and will M 283
long can you make M 283
low that they seem M 282
long and for whom M 282
long run and there M 281
low for its length M 280
lot but they were M 280
long for her coming M 280
long ago not only M 279
low but they were M 278
lot near his home M 278
long she had kept M 278
long ago how much M 278
long ago and gave M 278
long for you more M 277
long and are more M 277
log has not been M 277
long run than these M 276
long did they hold M 276
lot and out onto M 274
long she had left M 274
long and are held M 274
long ago has come M 274
long way for such M 272
long run may even M 272
long for them when M 272
long for his turn M 272
long and may even M 272
long and had come M 272
long war with self M 271
long run and when M 270
long way off there M 269
long run for most M 269
long did they think M 269
long ago that have M 269
long you two been M 268
long way and must M 268
low pay and hard M 266
long with his eyes M 266
long way for their M 266
long and are dark M 266
long they may take M 265
long for this type M 265
low and not high M 264
long way with those M 264
long use and much M 264
long and with many M 264
long you can live M 263
long ago and used M 263
low for two years M 262
lot and sat down M 262
long year had been M 262
long and had such M 262
long and can only M 262
long and far more M 261
lot and say nothing M 260
long that his eyes M 260
long ago and also M 260
long ago had done M 259
long that they lost M 258
long run for many M 258
long run for having M 258
long did you want M 258
long ago and whom M 258
long that her eyes M 257
long ago had told M 257
long ago and just M 257
lot that had once M 256
long way and came M 256
long run one must M 256
long each has been M 256
long can she keep M 256
lot that they have M 255
lot for his work M 255
low heat and pour M 254
low death and birth M 254
long that you feel M 254
long that may last M 254
long run this type M 254
long path that leads M 254
long and had seen M 254
low that not only M 253
low that his face M 252
lot that was good M 252
long you are like M 252
long way off even M 252
long and with some M 252
low and too much M 251
lot who had been M 250
lot and has been M 250
long they are held M 250
long way off down M 249
low for two days M 248
low and that some M 248
long run for your M 248
long they had made M 247
long that you lose M 246
long run had been M 246
long one had been M 246
long for any other M 246
long and can have M 246
long ago who were M 245
long run than buying M 244
long has this gone M 244
long each one will M 244
long day and into M 244
long and too dull M 242
long and not well M 242
long and how high M 242
long and can take M 242
long and two deep M 241
long and six high M 241
long that they take M 240
low heat for half M 239
long may you last M 239
low with his hand M 238
low for its size M 238
long they had come M 238
long and has more M 238
long ago had died M 238
long ago but also M 238
long team and heavy M 236
long for one page M 236
long ago that said M 235
low that they fail M 234
long way has been M 234
long use her tears M 234
long can you take M 234
long and too high M 234
long that she must M 233
long did you feel M 233
long and its tail M 233
low but has been M 232
low and low when M 232
lot for two years M 232
long one and full M 232
long did you leave M 232
long ago men were M 232
long way off what M 231
lot for all your M 230
long run this meant M 230
long run may turn M 230
long did you teach M 230
long and not even M 230
long and can hold M 230
long ago and other M 230
low with his face M 228
low but not when M 228
long run men will M 228
long one may live M 228
long ago and knew M 227
low for all other M 226
lot that was used M 226
lot does not seem M 226
long that they just M 226
long run and must M 226
long and then there M 226
long and that have M 226
low and too fast M 224
low and mean high M 224
long that not only M 224
long run than some M 224
long run than having M 224
log with his back M 223
low and that most M 222
lot did not seem M 222
long you can work M 222
long she had gone M 222
long ago was used M 222
low head and high M 220
low and his tail M 220
lot that may have M 220
long and who have M 220
long and she said M 220
long ago and once M 220
low way that mine M 219
long ago they left M 219
lot was put into M 218
long they too were M 218
long run may also M 218
long for one more M 218
long did they work M 218
long and its body M 218
long run you must M 216
log does not show M 216
long that they fill M 214
long ago and having M 214
long they are left M 212
long does she stay M 212
long did she wait M 212
long this one will M 211
long for one side M 211
long ago and lost M 211
low and may fall M 210
low and how high M 210
long are you down M 209
low that they only M 208
long way and made M 208
long run they make M 208
long run and their M 208
long one and when M 208
long can one keep M 208
long and you were M 208
long way too much M 207
long for our peace M 207
long run but will M 206
long for her liking M 206
long did they talk M 206
long way they came M 204
long run they keep M 204
long may they have M 204
long can you work M 204
long and this time M 204
long and can reach M 204
lot did not come M 203
lot area and width M 203
long with too many M 203
long that they made M 203
long she had made M 203
low for any length M 202
low and they must M 202
long ago she said M 202
long was not only M 201
long run this leads M 201
long and two high M 201
long and that will M 201
low pay for their M 200
low and can only M 200
long does this have M 200
long and then have M 200
long and for such M 200
log with one hand M 200
low heat for three M 199
long each had been M 199
low for that time M 198
low and who have M 198
low and her face M 198
lot and that there M 198
long way too from M 198
long they are safe M 197
low and with such M 196
long they lay like M 196
long has its ends M 196
long for six days M 196
long but not wide M 196
long and then died M 196
long and that some M 196
lot and out into M 195
long and with only M 195
low heat and keep M 194
long way for some M 194
long use they have M 194
long that his face M 194
lot for any other M 192
lot does not meet M 192
long that you know M 192
long that his body M 192
long that for some M 192
long for and love M 192
long and how fast M 192
long ago who said M 192
long ago for such M 192
long ago and nothing M 192
low for any other M 190
low and his feet M 190
low and easy rate M 190
lot you can tell M 190
long way with such M 190
long that she fell M 190
long had hung over M 190
long did they give M 190
long and who were M 190
long and has very M 190
long and cut into M 190
log with his face M 190
long ago got into M 189
long ago but were M 189
low that they make M 188
low and with great M 188
low and this will M 188
lot was not very M 188
lot does not make M 188
long way out over M 188
long way off said M 188
long use had made M 188
long they had their M 188
long that she grew M 188
long may you keep M 188
long can you look M 188
long and with three M 188
long that men have M 187
low bias and high M 186
lot had she been M 186
long you can leave M 186
long that they pass M 186
long one and very M 186
long did she take M 186
long and she knew M 186
long and not feel M 186
long and hung from M 186
long ago with such M 186
long and one deep M 185
long ago that good M 185
long ago and came M 185
low pay has been M 184
lot that that part M 184
lot and see what M 184
long poem has been M 184
long and for ever M 184
long ago and most M 184
log had not been M 184
long run than will M 183
long ago for what M 182
low and not well M 181
low heat and when M 180
low and buy high M 180
long was his heart M 180
long use may have M 180
long use and many M 180
long run they lose M 180
long run than paying M 180
long run for some M 180
long run and were M 180
long for him more M 180
long ago but there M 180
long with both ends M 179
low for any such M 178
low and that even M 178
lot they had been M 178
long they can work M 178
long that they find M 178
long run than many M 178
long day and many M 178
long and one line M 178
long ago she gave M 178
long way off like M 177
low that they need M 176
low that she must M 176
low pay and other M 176
low for that same M 176
lot was far more M 176
lot and they will M 176
long that can take M 176
long she was making M 176
long she was kept M 176
long poem had been M 176
long for his arms M 176
long ere you were M 176
long but you will M 176
long and they must M 176
long and see good M 176
long ago who told M 176
long ago had seen M 176
long can you tread M 175
low for all four M 174
low and you feel M 174
low and did nothing M 174
lot may not have M 174
long run and help M 174
long one and many M 174
long has god been M 174
long are you from M 174
long had they lain M 173
long but not more M 173
long and six deep M 173
long ago you have M 173
low did they take M 172
lot and that their M 172
lot and sat there M 172
long you are here M 172
long you are away M 172
long run can have M 172
long run and some M 172
long can she live M 172
long but far from M 172
long and that many M 172
long ago run away M 172
long you can talk M 171
long and for most M 171
low with each other M 170
lot that can make M 170
long wings and gray M 170
long they can take M 170
long she was taking M 170
long she can stay M 170
long run with such M 170
long dead and their M 170
long and then when M 170
long and ten high M 170
long ago was very M 170
long ere you will M 169
long did you last M 169
long are you able M 169
long and too boring M 169
long and one high M 169
low and easy pass M 168
lot for our fair M 168
long way with most M 168
long that they give M 168
long does she plan M 168
long and one side M 168
long and has some M 168
long and had made M 168
long this may have M 167
low that she felt M 166
low pay but also M 166
low pay and heavy M 166
low for all time M 166
lot and may have M 166
long way and many M 166
long that they grew M 166
long did she speak M 166
long and she felt M 166
long and had just M 166
long ago and done M 165
lot can not have M 164
long way and make M 164
long war and were M 164
long run and less M 164
long for any such M 164
long did not want M 164
long day for your M 164
long can you leave M 164
long can that take M 164
long arm has been M 164
long and its length M 164
long and for some M 164
long run that such M 163
long ago that much M 163
lot was being done M 162
lot that was once M 162
long was she away M 162
long run they made M 162
long and that your M 162
long and are also M 162
long ago had there M 162
long ere you bent M 161
long can they live M 161
low and that these M 160
long way both from M 160
long they can make M 160
long did you tell M 160
long are you back M 160
long and her body M 160
long ago had held M 160
lot and had some M 159
low did they fall M 158
low and wet land M 158
lot and then went M 158
long way had been M 158
long way for your M 158
long way and very M 158
long was cut into M 158
long for his coat M 158
long are they kept M 158
long and then went M 158
long and may reach M 158
long and his feet M 158
long and get away M 158
long and are laid M 158
long ago that made M 158
long ago and sent M 158
long set his face M 157
long one and only M 157
long for his fall M 157
lot that you need M 156
lot and all lots M 156
long run for such M 156
long run are also M 156
long day has been M 156
long and was just M 156
long and she will M 156
long and had gone M 156
long ago they seem M 156
log did not move M 156
long that you need M 155
long can one wait M 155
low that they fall M 154
low and you want M 154
lot with his eyes M 154
lot god has laid M 154
lot and she said M 154
long they are good M 154
long run may make M 154
long run far less M 154
long one and must M 154
long had his home M 154
long for and pray M 154
long can they wait M 154
long ago was said M 154
lot did not want M 153
long run one will M 153
long for her face M 153
long does not help M 153
long ago and half M 153
low that they feel M 152
low that for some M 152
low pay and slow M 152
low but real risk M 152
low and who were M 152
long she may stay M 152
long man had been M 152
long does one wait M 152
long does not have M 152
long and had cost M 152
long who had been M 151
long has now been M 151
long for any more M 151
long and are less M 151
low for its width M 150
lot was being made M 150
lot that was wrong M 150
long way for those M 150
long that she lost M 150
long run that their M 150
long run and those M 150
long for easy reading M 150
long does one stay M 150
long day and even M 150
long can you talk M 150
long and not just M 150
long they had kept M 149
lot with that kind M 148
lot was not worth M 148
lot and had many M 148
long way off their M 148
long run they draw M 148
long run his work M 148
long but they have M 148
long and die hard M 148
low east and west M 147
long you may need M 147
long run not much M 147
long run are very M 147
low bow and went M 146
low and too many M 146
long that they drag M 146
long run they only M 146
long for and have M 146
long day and high M 146
long can you play M 146
long but they will M 146
long and one room M 146
long run are less M 145
lot and not just M 144
long war lay ahead M 144
long that she said M 144
long she was sure M 144
long she has lain M 144
long run bring more M 144
long not for life M 144
long ere they came M 144
long and was held M 144
long ago put down M 144
log was cut into M 144
low and too late M 143
long you can have M 143
long ago put forth M 143
low with this type M 142
low sky was like M 142
lot was not made M 142
long way and went M 142
long was she sick M 142
long they are used M 142
long that for many M 142
long run may help M 142
long long way back M 142
long and weak line M 142
long and her hair M 142
long ago that young M 142
long ago but only M 142
log with his feet M 142
log and see what M 142
long with this kind M 141
long that can last M 141
long one for most M 141
long ago they must M 141
low sun was full M 140
low for this kind M 140
low and they need M 140
low and that those M 140
low and his arms M 140
long way with many M 140
long way but there M 140
long use has worn M 140
long they had used M 140
long she was busy M 140
long she was away M 140
long she may live M 140
long run was made M 140
long run and upon M 140
long hath this been M 140
long and she wore M 140
long and sad list M 140
long and easy life M 140
long use hath made M 139
long ago that love M 139
long ago for other M 139
low that his high M 138
low than our life M 138
low pay and part M 138
low and they lack M 138
low and then rise M 138
low and that when M 138
lot for two days M 138
lot all his life M 138
long use they grew M 138
long they had lost M 138
long that may have M 138
long she had worn M 138
long she had heard M 138
long run they lost M 138
long run for these M 138
long has this sort M 138
long for its size M 138
long dead and those M 138
long and with deep M 138
long ago with great M 138
long run too much M 137
long run but only M 137
long ere this heard M 137
low that his hair M 136
low that her face M 136
low long and loud M 136
low bow and left M 136
low and that only M 136
low and going slow M 136
low and for some M 136
low and all other M 136
long that they sent M 136
long run this plan M 136
long did she plan M 136
long dead and done M 136
long day and were M 136
long day and weary M 136
long and was only M 136
long and may take M 136
long ago she used M 136
long ago she came M 136
long this had gone M 135
long they are busy M 135
long she has held M 135
long run are most M 135
long did you speak M 135
long ago that self M 135
long ago had more M 135
log and you will M 135
lot does not fall M 134
lot but you will M 134
long way off just M 134
long way and their M 134
long way and even M 134
long this job will M 134
long than run over M 134
long run with their M 134
long run they seem M 134
long one for those M 134
long has each been M 134
long but how well M 134
long and had done M 134
long ago was only M 134
long ago for most M 134
low has not been M 133
long now had been M 133
long for her more M 133
long ago had some M 133
long ago had sent M 133
low for all these M 132
low and may vary M 132
lot that you will M 132
lot for ten years M 132
long way than there M 132
long run one gets M 132
long low dog like M 132
long for his next M 132
long for his love M 132
long for and dread M 132
long day lay ahead M 132
long and that when M 132
long and not having M 132
long and not find M 132
long ago she went M 132
low does not have M 131
long run than even M 131
long for all these M 131
long ago who kept M 131
low you may have M 130
low that you feel M 130
low that all hope M 130
low and his heart M 130
lot was not hard M 130
long you may keep M 130
long she was lost M 130
long run they gain M 130
long day and have M 130
long can she hold M 130
long are you giving M 130
long and may need M 130
long and are only M 130
long and all were M 130
log that was used M 130
log she had been M 130
long with that kind M 129
long for this hour M 129
long for her love M 129
long did you give M 129
long and are well M 129
long ago you used M 129
low that they sell M 128
low pay and their M 128
low pay and have M 128
low but that there M 128
low and thus there M 128
long way and into M 128
long they sat like M 128
long that one must M 128
long run they find M 128
long run than making M 128
long one can stay M 128
long had our dull M 128
long does she think M 128
long are you over M 128
long and with less M 128
long and not wide M 128
long ago with your M 128
long that too much M 127
long can one stay M 127
long ago she made M 127
long ago and much M 127
low seat for your M 126
low pay and were M 126
low ash and high M 126
long way for many M 126
long way and seen M 126
long war had made M 126
long they can wait M 126
long she was left M 126
long run with peace M 126
long run they save M 126
long run than most M 126
long run are much M 126
long and his work M 126
long ago with those M 126
long ago they went M 126
long with her eyes M 125
long that they gave M 125
long that they come M 125
long that her body M 125
log and lay down M 125
low mean and high M 124
low heat and leave M 124
low and she felt M 124
low and for many M 124
low and end high M 124
lot with his work M 124
lot that you want M 124
lot for that kind M 124
lot for all time M 124
long way this time M 124
long way off coming M 124
long way and when M 124
long that they went M 124
long run and taking M 124
long now that there M 124
long meal was over M 124
long does one need M 124
long day with nothing M 124
long can you stop M 124
long arm and hand M 124
long and they soon M 124
long and its mass M 124
log for that date M 124
low low low none M 123
long run than more M 123
long for two years M 123
long ere you have M 123
long ere this date M 123
long and was much M 123
long ago she told M 123
low that she only M 122
low key and slow M 122
low heat and high M 122
low bow and says M 122
low and not more M 122
lot with any other M 122
lot did not make M 122
lot and all other M 122
long way off will M 122
long way and some M 122
long war was made M 122
long run she must M 122
long but has been M 122
long and low arch M 122
long and long held M 122
long and got left M 122
long and got hard M 122
log that had lain M 122
log does not need M 122
lot was not only M 121
long with all your M 121
long she had come M 121
long for you when M 121
long ago had used M 121
low but not very M 120
low and lie hard M 120
lot with them when M 120
lot for six years M 120
lot and was able M 120
lot and she knew M 120
lot and ran into M 120
long run this sort M 120
long poem was ever M 120
long day for those M 120
long can you hide M 120
long and with more M 120
long and was also M 120
long and its depth M 120
long and how loud M 120
long and had some M 120
long ago for lack M 120
log was too heavy M 120
long was that there M 119
long had now been M 119
long ere they will M 119
long ere all were M 119
long and are much M 119
long ago that upon M 119
low that they well M 118
lot that was worth M 118
lot and you were M 118
long way and come M 118
long that its tail M 118
long and had left M 118
long ago was held M 118
long ago all these M 118
long for this sort M 117
long for they were M 117
long and with four M 117
long and not only M 117
long ago who have M 117
long ago that true M 117
low that you know M 116
low red heat till M 116
low did you know M 116
low bow for your M 116
lot was not even M 116
lot they all were M 116
lot near her home M 116
long year and more M 116
long way off among M 116
long war and open M 116
long run you lose M 116
long run its most M 116
long run any more M 116
long run all those M 116
long run all such M 116
long near that city M 116
long man that ever M 116
long had she kept M 116
long had its port M 116
long ere now cast M 116
long and now there M 116
long and its ends M 116
long and dear last M 116
log with her back M 116
long was too much M 115
long had she felt M 115
low and then take M 114
lot was not used M 114
lot for this city M 114
lot and they make M 114
long year has been M 114
long that they only M 114
long that they make M 114
long that they fall M 114
long that she came M 114
long she sat like M 114
long and was laid M 114
long and one unit M 114
long and low upon M 114
long and cut from M 114
long ago had fled M 114
long for this baby M 113
long are you there M 113
long ago with what M 113
long ago and come M 113
low that our faith M 112
low math and reading M 112
low but they have M 112
low but may reach M 112
low and then sell M 112
lot that can fall M 112
lot not far away M 112
lot and was glad M 112
long she has left M 112
long run are sure M 112
long run and give M 112
long had that poor M 112
long ere they have M 112
long ago that very M 112
long for that sort M 111
long and are kind M 111
long and are best M 111
low that you think M 110
low that they dare M 110
low and that such M 110
lot with all their M 110
lot had now been M 110
lot for any sign M 110
lot and may even M 110
long with all these M 110
long way and been M 110
long that any other M 110
long run are good M 110
long one can live M 110
long men had been M 110
long each job will M 110
long did not take M 110
long and was such M 110
long and read like M 110
long and has over M 110
long ago was coming M 110
low and that more M 109
long for any single M 109
long ago who knew M 109
long ago that here M 109
low that his feet M 108
low and his body M 108
lot and get some M 108
long way with just M 108
long they are seen M 108
long run with those M 108
long run than taking M 108
long run than pity M 108
long ere they reach M 108
long dead and have M 108
long day was ending M 108
long and yet have M 108
long and with good M 108
long and our hair M 108
long and can live M 108
long ago that must M 108
long ago for those M 108
low that all means M 107
long they are more M 107
long does not make M 107
long but not well M 107
long ago was just M 107
long ago that during M 107
low that they look M 106
low men and boys M 106
low and not worth M 106
low and for very M 106
lot that was very M 106
lot than any other M 106
lot and then when M 106
long with all those M 106
long war with their M 106
long they not only M 106
long that was used M 106
long she was fast M 106
long run they come M 106
long now has been M 106
long for our eyes M 106
long can this kind M 106
long but had been M 106
long and may last M 106
long and her feet M 106
long and are among M 106
long ago you laid M 106
long ago was seen M 106
log and cut into M 106
low that for most M 105
low and his hand M 105
long had his heart M 105
long and has dark M 105
long and had five M 105
long ago for just M 105
long ago and over M 105
long ago and held M 105
log for two days M 105
low that they take M 104
low heat for just M 104
low and not make M 104
lot you can teach M 104
lot and had seen M 104
long you may want M 104
long you can play M 104
long they may work M 104
long that they even M 104
long run was also M 104
long run its main M 104
long run for more M 104
long one may stay M 104
long day they were M 104
long day had come M 104
long can you have M 104
long can this sort M 104
long and who will M 104
long and two years M 104
long and long into M 104
long and are dull M 104
long ago had only M 104
low and mid range M 103
low and his back M 103
long that his name M 103
long for his peace M 103
long for her home M 103
long did she keep M 103
low she had been M 102
low but too high M 102
low and sat down M 102
lot with him when M 102
lot and you want M 102
lot and with great M 102
lot and did nothing M 102
lot and all their M 102
long way they were M 102
long way out when M 102
long way off your M 102
long way for these M 102
long that they curl M 102
long that now there M 102
long run are only M 102
long god has been M 102
long end being left M 102
long are you gone M 102
long and was worn M 102
long and two very M 102
long and this will M 102
long and they made M 102
long and not made M 102
long and far less M 102
long ago and these M 102
log and lay there M 102
low did not know M 101
long ago was born M 101
long ago and died M 101
low that you need M 100
low that they leave M 100
low cry and fell M 100
low and then back M 100
long way with great M 100
long way off were M 100
long way off during M 100
long run with less M 100
long long long rest M 100
long head and body M 100
long has this evil M 100
long had not made M 100
long day was coming M 100
long but not high M 100
long box with single M 100
long and was glad M 100
long and run from M 100
long and her face M 100
long ago with other M 100
long ago was great M 100
long ago for many M 100
log that was kept M 100
log that had once M 100
low that not much M 99
lot you can find M 99
lot did not even M 99
long she may last M 99
long ago and well M 99
long ago and heard M 99
low that one will M 98
low lot with whom M 98
low does not make M 98
long way off having M 98
long they can speak M 98
long that she gave M 98
long run they need M 98
long run that these M 98
long path has been M 98
long day and when M 98
long and with over M 98
long and they need M 98
long and then said M 98
long and sad face M 98
long and sad among M 98
long and hung over M 98
long and had very M 98
long and are most M 98
long ago that once M 98
long ago put their M 98
long ago for having M 98
lot and that made M 97
long they are ready M 97
long that men were M 97
long now you have M 97
long may they stay M 97
long going and coming M 97
long for its full M 97
long can she last M 97
low that our heads M 96
low let and high M 96
low and was only M 96
lot who had come M 96
lot was then cast M 96
lot than they were M 96
lot one was born M 96
lot and they knew M 96
lot and then some M 96
lot and not have M 96
long you can look M 96
long you are gone M 96
long way that leads M 96
long this was taking M 96
long this has gone M 96
long that you just M 96
long that they fail M 96
long run they came M 96
long run and very M 96
long poem that will M 96
long one can hold M 96
long ere that date M 96
long did you walk M 96
long day and just M 96
long cry for help M 96
long bow for ever M 96
long and then only M 96
long and may vary M 96
long all this went M 96
long ago won their M 96
long ago things were M 96
long ago they died M 96
long ago has many M 96
long ago was gone M 95
long ago they made M 95
low that not more M 94
low did she fall M 94
low and then went M 94
low and red over M 94
low and goes high M 94
lot was not well M 94
lot was being said M 94
lot that was just M 94
long you are young M 94
long with that beating M 94
long way with leading M 94
long way and look M 94
long was his hair M 94
long they may keep M 94
long that his mind M 94
long run with free M 94
long run all three M 94
long for that peace M 94
long did they make M 94
long and may well M 94
long and its base M 94
lot was far less M 93
lot and then there M 93
long set its face M 93
long for his health M 93
long did not seem M 93
low that they gave M 92
low that she will M 92
low that his body M 92
low than for those M 92
low pay and very M 92
low and you know M 92
low and this fact M 92
low and they feel M 92
low and may well M 92
low and may only M 92
low and for most M 92
lot that you were M 92
lot but you have M 92
lot and they went M 92
lot and that some M 92
lot and set fire M 92
lot and had made M 92
long way and find M 92
long that they form M 92
long that her heart M 92
long she can make M 92
long see you there M 92
long run you want M 92
long does not seem M 92
long did you love M 92
long did she last M 92
long are our ideas M 92
long and both ends M 92
long and are able M 92
long way and most M 91
long dead and there M 91
long and red like M 91
long ago has gone M 91
low that they made M 90
low and this means M 90
low and men were M 90
low and long over M 90
low and her tail M 90
lot was too hard M 90
lot was being used M 90
lot that was said M 90
lot that has gone M 90
long you may wait M 90
long that they hide M 90
long she had lost M 90
long run and vice M 90
long one that will M 90
long ere his last M 90
long and this wide M 90
long and they know M 90
long and goes from M 90
long and bad road M 90
long ago and know M 90
long they had eaten M 89
log that you have M 89
low that they even M 88
low red heat will M 88
low pay they were M 88
low and are only M 88
lot with all those M 88
lot that was left M 88
lot that they will M 88
lot for this kind M 88
lot does not come M 88
lot did not look M 88
lot and got very M 88
long you two have M 88
long you are wrong M 88
long with use into M 88
long was you young M 88
long use and hard M 88
long things had been M 88
long they are taking M 88
long that she just M 88
long that its ends M 88
long that her face M 88
long run they fail M 88
long run not very M 88
long run does more M 88
long run and many M 88
long one they were M 88
long now that some M 88
long for being left M 88
long did she stop M 88
long did not make M 88
long day had worn M 88
long day and wish M 88
long day and some M 88
long and was able M 88
long and they came M 88
long and then come M 88
long and one span M 88
long and low from M 88
long and are ready M 88
long ago and like M 88
long they are away M 87
long she was also M 87
long run not less M 87
long ere this made M 87
long and this hard M 87
log with his left M 87
low that they just M 86
low for any kind M 86
low and this leads M 86
low and its rate M 86
low and her heart M 86
low and are very M 86
lot they can learn M 86
lot and you need M 86
lot and his eyes M 86
lot and had come M 86
long way for very M 86
long that her life M 86
long run you need M 86
long run with other M 86
long run they turn M 86
long run that must M 86
long run than your M 86
long run than were M 86
long run but there M 86
long run and during M 86
long had but have M 86
long did they know M 86
long did not even M 86
long day you will M 86
long but you have M 86
long and ten deep M 86
long and its last M 86
long and his hand M 86
long and has just M 86
log does not make M 86
long and that most M 85
long ago has told M 85
low for both boys M 84
low and she knew M 84
low and mean ways M 84
lot than you have M 84
lot than they ever M 84
lot but did nothing M 84
lot and she told M 84
lot and her eyes M 84
long way out along M 84
long way and your M 84
long run they work M 84
long one can keep M 84
long did you make M 84
long did one have M 84
long and with their M 84
long and may live M 84
long and his life M 84
long and for days M 84
long and can also M 84
long and are tied M 84
long and are soon M 84
log that they were M 84
long you can walk M 83
long she was like M 83
long run than just M 83
long and that even M 83
long and for much M 83
low that you were M 82
low that few have M 82
low pay and even M 82
low key and very M 82
low cry was heard M 82
low cry that came M 82
low and not even M 82
lot they can teach M 82
lot for each case M 82
lot and who have M 82
lot and was just M 82
lot and they know M 82
long you may wish M 82
long they yet have M 82
long that his tail M 82
long run that sort M 82
long run may come M 82
long run can make M 82
long run and made M 82
long run all other M 82
long had you these M 82
long can you walk M 82
long and you only M 82
long and use many M 82
long and then made M 82
long and then came M 82
long and that were M 82
long and that these M 82
long ago was their M 82
long ago was part M 82
low can you tell M 81
long and one fifth M 81
low with her face M 80
low they can keep M 80
low that men were M 80
low and long like M 80
lot but they have M 80
lot and they want M 80
lot and they made M 80
long that you want M 80
long she can last M 80
long run this form M 80
long run this also M 80
long run that means M 80
long run has come M 80
long man may have M 80
long dead had been M 80
long day you have M 80
long bar had been M 80
long are you taking M 80
long for and dream M 75
long for its coming M 73
long for and work M 71
long for his life M 70
long ago this same M 69
long for that rest M 67
long ago that great M 67
long for one hour M 66
long and was more M 66
long for one word M 64
long for death when M 64
long for all those M 64
long ago you made M 62
long for any kind M 60
long ago that three M 60
long for this very M 59
long for that same M 59
long ago that having M 59
long for her when M 58
long ago two young M 58
long ago that more M 58
long for that more M 56
long ago that just M 56
long run and much M 55
long had her heart M 54
long ago you must M 53
long for his kiss M 52
long for him when M 52
long ago that over M 52
low and mid back M 51
lot and not much M 51
long with its ends M 51
long had not only M 51
long for and hope M 51
long can this keep M 51
long ago that among M 51
long ago all over M 51
long they had heard M 50
long run did more M 50
long for that other M 50
long for that hour M 50
long for our life M 50
long did not like M 50
log off and turn M 50
long for that part M 49
long for one breath M 49
long but not much M 49
log off and shut M 49
lot was not more M 48
long they had seen M 48
long for two days M 48
long and goes back M 48
long ago that other M 48
long she lay like M 47
long for you here M 47
long for our lord M 47
long for our home M 47
long day and month M 47
long and that only M 47
long and not half M 47
long ago you left M 47
long ago this very M 47
long ago that high M 47
low pay and work M 46
low and are more M 46
long run with more M 46
long had her eyes M 46
long for them more M 46
long for that life M 46
long for and look M 46
long ere you reach M 46
long does this keep M 46
long and had more M 46
long ago you know M 46
long you are there M 45
long way and work M 45
long may they last M 45
long lay you there M 45
long for his work M 45
long for his lost M 45
long ago was done M 45
long ago they said M 45
long ago they fell M 45
log that lay half M 45
long she had seen M 44
long run get more M 44
long had had their M 44
long for our love M 44
long for his size M 44
long ago you came M 44
long ago too well M 44
long ago that tears M 44
long ago that half M 44
long ago that from M 44
long ago his life M 44
long ago had heard M 44
low key and less M 43
long with him when M 43
long one and much M 43
long may they kiss M 43
long had his mind M 43
long for this trip M 43
long for and want M 43
long does that give M 43
long dead and lost M 43
long ago was also M 43
long ago they gave M 43
long ago she must M 43
long ago she lost M 43
long ago one such M 43
long one and most M 42
long may not have M 42
long had too much M 42
long for you very M 42
long for this great M 42
long for her even M 42
long dead and half M 42
long ago was more M 42
long ago was lost M 42
long ago are more M 42
long with him upon M 41
long war with great M 41
long they did nothing M 41
long that ran from M 41
long she not only M 41
long she had only M 41
long run that even M 41
long run mean more M 41
long run and most M 41
long had this plan M 41
long for this tree M 41
long does one live M 41
long did they stop M 41
long did she want M 41
long ago had laid M 41
lot that was half M 40
lot that goes along M 40
lot did not like M 40
long they had done M 40
long she hung there M 40
long she had done M 40
long run with only M 40
long lead off third M 40
long had our eyes M 40
long for one reading M 40
long did they plan M 40
long dead and past M 40
long day and half M 40
long and that soon M 40
long and his tail M 40
long ago they sent M 40
long ago she left M 40
long ago had such M 40
long ago had many M 40
long ago far away M 40
long ago and such M 40
log and sit down M 40
long and one inch D 10276
long and one foot D 6146
low heat and stir D 4790
low heat and cook D 4637
lot and his wife D 3036
long and thin like D 1912
low fat and high D 1173
long and one yard D 1019
long and his wife D 959
long may she wave D 703
long run they tend D 634
long head and neck D 614
long may they wave D 552
lot with his wife D 529
long for his legs D 522
log with his foot D 506
long and his beard D 458
low fat ice cream D 452
long with his wife D 430
low and his wife D 421
low ebb and there D 414
long and thin neck D 414
long and his legs D 398
long that his wife D 389
low ebb and when D 384
long and lean like D 348
long that his legs D 330
long for his wife D 314
long ears and tail D 309
long and thin legs D 305
low that his chin D 292
long may you wave D 288
long and thin wire D 279
low that his nose D 270
low she had sunk D 268
low air and soil D 254
long and hot walk D 250
long and one thick D 249
long ago and took D 248
long and her mouth D 240
long rod and line D 238
long and too thick D 238
low tap was heard D 234
low and they tend D 228
lot was for sale D 228
long and his crew D 227
low can you sink D 224
long arm and took D 222
long and thin body D 214
low and hit hard D 213
long with zeal have D 206
long ago hit upon D 205
long hug and kiss D 204
long are you guys D 202
long and thin nose D 202
long all this took D 202
long and hot days D 200
low fat and skim D 198
low ebb for some D 198
long did she gaze D 198
low bed may weep D 196
long ago they took D 196
low they had sunk D 192
long that they took D 192
long for his fame D 190
long head with oval D 184
long and hot ride D 184
long and two foot D 182
lot with his farm D 180
long that they tend D 180
low ebb for many D 178
long and thin face D 178
long ago with firm D 178
long for new york D 175
low ebb that there D 174
lot area per unit D 174
long and two thick D 172
long and thin when D 170
low that her chin D 164
long red and gold D 164
long and his mouth D 164
low lying and flat D 160
low heat and melt D 160
low for new york D 160
low head and flat D 154
low fog hung over D 154
long wings and flew D 154
long that her legs D 154
long car with four D 154
low ebb and their D 152
long that her milk D 152
log and mud huts D 152
long and thin over D 151
long run each firm D 150
long and thin feet D 150
long one and took D 148
long for one card D 148
long and his nose D 148
long ears you have D 146
long ears and legs D 146
long and hot down D 145
long arm and finger D 142
long ago that mere D 139
low and his tone D 138
long and six foot D 138
long with his task D 135
long tom had been D 135
long ebb and flow D 135
long that thou hast D 134
low cry ran fore D 132
long and his chin D 132
low ebb and many D 130
low and then rising D 128
long with one foot D 128
long but not thick D 128
long and her legs D 128
log jam had been D 128
low that its rays D 126
long ears and half D 126
long did you cook D 126
long beak and neck D 126
low art and high D 124
long gun had gone D 124
long arm and bony D 124
long and ten rods D 124
long and her lips D 124
long did you guys D 122
log hut had been D 122
lop off any part D 120
long and thin from D 120
lot that was sold D 119
low and his lips D 118
lop and top from D 117
long and his skin D 116
low had she sunk D 114
long with two rows D 114
long for its shoes D 114
long for his mouth D 113
low and his legs D 112
long run than mere D 112
long and lean body D 112
long are you leaving D 110
long and thin tail D 110
low and too flat D 108
low and his mouth D 108
long that they clung D 108
long row with their D 108
lot for new york D 106
long that she took D 106
long and its legs D 106
long and his neck D 106
low that his beard D 104
long and thin arms D 102
long that she rose D 100
long for that berth D 100
long arm and drew D 100
low was his tone D 98
low had they sunk D 98
low bow and took D 98
low and its rays D 98
lot was not sold D 98
lot for his wife D 98
long hug and said D 98
long did you ride D 98
long and lean years D 98
long and how thick D 98
log with her foot D 98
lot with new york D 96
long wings and pink D 96
long was his beard D 95
low wear and high D 94
long for his sake D 94
long and two ells D 94
long ere thou wilt D 93
low that they took D 92
lop off one limb D 92
long and thin ones D 92
long and lean from D 92
long and her chin D 92
long for this news D 91
low and his chin D 90
long that his teeth D 90
long had our pious D 90
long for one salt D 90
long and are pale D 90
long ago with mama D 90
low fat and salt D 89
lop and cut down D 89
long wig that cost D 88
low hat and hard D 86
low and then rose D 86
long and thin thread D 86
long ago and sold D 86
long boa and muff D 85
low that they tend D 84
low ebb all over D 84
long and too tiring D 84
long and are oval D 84
long ere his brow D 83
low but easy tone D 82
long and our lips D 82
low that his wife D 80
low and sad tone D 80
low and her tone D 80
long that his tall D 80
long and not thick D 80
long and his lips D 80
low and his crew D 69
long ago his wife D 61
long ago that john D 60
low head and foot D 56
low and let cook D 51
long for her legs D 51
long ago she took D 51
low heat and boil D 42
long had one foot D 42
long ago this took D 41
log with his boot D 41
long did you rent D 40
