looking at him with M 146771
looking at her with M 117012
looking at him and M 44329
looking at her and M 37625
logic of its own M 33788
lower the heat and M 26649
looking at them with M 23614
longer of any use M 23522
looking at them and M 19637
looks at him with M 17578
looking at his own M 17111
looking at him now M 16637
looking to him for M 16270
looking at him for M 16262
looks at him and M 15954
looking at her now M 15513
looking at her for M 15317
loved by all who M 13712
looking at things and M 13075
logic of his own M 12844
looks at her and M 11954
looks at her with M 11582
looking at you and M 10956
loved the way she M 10430
looking to see how M 9838
loved to hear him M 9388
looks at you with M 9044
looks at you and M 8962
looking at her own M 8320
looking at things that M 8276
looking at you with M 8156
looking at her that M 8046
looking at him that M 7991
looking at them for M 7329
looking at his son M 7185
loved to read and M 7142
looking to you for M 7063
loved to see her M 6940
loved to hear her M 6764
loved by god and M 6606
looking to see who M 6124
looking at our own M 6024
looks at them with M 5996
looking to them for M 5847
looking at all this M 5823
looks at his own M 5756
loved me and that M 5750
looks at them and M 5750
loved the old man M 5610
looking to god for M 5504
loved to see him M 5200
looking at them all M 5190
looking at him out M 5063
looking at him she M 4992
loved to sit and M 4988
longer be put off M 4944
looking up she saw M 4903
looks to him for M 4867
looking at how they M 4600
looking at her son M 4550
longer if they are M 4534
looks at him for M 4527
looking to her for M 4472
loved it for its M 4354
looking at them both M 4352
looks the way you M 4328
looking at any one M 4323
looking at them now M 4200
looking at him but M 4160
loved to see them M 4082
looking at her but M 4073
loved the man who M 4052
looking to his own M 3947
loved to hear his M 3850
looking to see that M 3780
looks at her for M 3779
loved as his own M 3756
longer in any way M 3745
loved the way her M 3716
longer to deal with M 3690
looks to you for M 3644
looking at you now M 3629
loves the son and M 3620
loved the way his M 3568
looking at things with M 3508
looking at each one M 3455
loved the idea that M 3446
looking on him with M 3350
loved by all his M 3330
loves us and has M 3318
looking at how you M 3294
looks to them for M 3274
longer in use and M 3238
looking at you that M 3232
loved the way they M 3160
looking at them that M 3144
loved to hear them M 3124
loved to see his M 3112
looking at all that M 3104
looking at her out M 3058
looking at this and M 3047
longer at war with M 3030
longer to heal than M 2958
loved me and was M 2952
looks to his own M 2936
looking at things was M 2926
loves to lie with M 2886
loved by his men M 2850
looking to that end M 2848
looking at her was M 2840
looking at him all M 2830
longer the man who M 2812
loved me with all M 2802
loved the man and M 2786
looking the way you M 2782
looking up now and M 2750
loved no one but M 2706
loved the idea and M 2696
loved the way you M 2638
looking at her she M 2632
looking to get out M 2623
looking at him was M 2622
looking to this end M 2611
looking at this man M 2597
looking at them one M 2488
looking up with his M 2440
looking at her all M 2413
logic of war and M 2406
looking up they saw M 2395
lower in his seat M 2391
longer on this earth M 2300
looking at you for M 2290
logic of this was M 2276
longer in his own M 2272
loves me and that M 2194
looking at you all M 2192
loves to read and M 2190
loves to see his M 2149
loved so long and M 2138
looking at men and M 2096
loves me with all M 2058
locks of his head M 2046
looking on her with M 2038
loading the air with M 2014
looking the way she M 2010
logic on its head M 1990
looking at him too M 1978
looking up with her M 1974
logic to deal with M 1950
longer to dry than M 1924
looking at his old M 1902
looks to see how M 1897
lower the head and M 1896
loops at each end M 1861
loved by him and M 1856
looks at her own M 1854
loved by all and M 1840
loves the man who M 1828
logic to say that M 1824
loved it and was M 1802
lower my head and M 1790
looking at was not M 1786
looks to her for M 1779
loved me and how M 1776
longer to read than M 1772
loves no one but M 1766
logic of all this M 1760
longer if you are M 1758
loved the way that M 1748
looking at his new M 1743
looking at how this M 1742
looks at his son M 1733
looking at all things M 1732
looking as she did M 1718
looks to god for M 1702
longer or not yet M 1697
loved me and had M 1692
looking at her too M 1685
loose at one end M 1672
looking at its own M 1642
looking at this one M 1638
looks on him with M 1619
loved to run and M 1614
looking at one and M 1610
looks at how you M 1605
looks on them with M 1602
loves it for its M 1592
looking on them with M 1592
loved by two men M 1588
loved in his own M 1566
looking at things has M 1566
looking at her new M 1566
longer in this way M 1534
loves to sit and M 1506
longer if they had M 1498
looking at things for M 1479
loved to say that M 1478
longer as they are M 1456
lower in her seat M 1455
logic of our own M 1452
longer be with them M 1450
looking at him one M 1447
longer is this going M 1438
looking to our own M 1436
loved the earth and M 1426
looks to see that M 1424
loved as her own M 1422
longer by far than M 1422
looking up and out M 1415
looking at this new M 1412
loves us and that M 1410
lords of our own M 1406
looking on with his M 1380
loose so that they M 1365
looking at things are M 1356
looking as she had M 1346
longer if you can M 1344
loved the sun and M 1342
looks at how this M 1340
looks at them all M 1337
looking to its own M 1332
loved in this way M 1330
loved to sit with M 1322
loved it with all M 1318
looks to its own M 1316
longer to get out M 1314
looking at his map M 1312
looking at them was M 1310
loved to see you M 1306
loves me and has M 1292
longer the one who M 1288
lords of all they M 1284
longer in use for M 1284
looks at things with M 1277
loved by his own M 1276
logic is not that M 1269
looking at him you M 1262
looking at them too M 1258
looks at its own M 1254
loved the man she M 1244
loose in his head M 1240
loves as his own M 1239
looking so sad and M 1230
looking at them but M 1228
logic of her own M 1208
loved me and she M 1202
looks at how they M 1192
looks at all things M 1189
looking at man and M 1186
looking at his two M 1177
logic of this new M 1174
looking as she was M 1172
looks at her son M 1162
loved me and did M 1160
looking at them they M 1150
loved to hang out M 1140
looks at them for M 1134
looks at god all M 1124
looking at things may M 1120
loads of men and M 1118
lodging in his own M 1112
loved to see that M 1106
looking as you are M 1104
longer at one with M 1100
looking in this way M 1099
looking at this map M 1098
loves to hear his M 1095
longer in her own M 1080
looking at that old M 1070
looks so old and M 1038
looking of them all M 1034
loads of meat and M 1034
loved me for who M 1028
loved by all men M 1024
loved by all her M 1024
looking up and then M 1024
looking at them you M 1022
loved to hear that M 1010
looking at her long M 1010
looking to god and M 1004
loved the boy and M 1000
looks at his job M 997
logic in this way M 988
loved by them all M 983
loved to hear and M 982
loved so long ago M 981
looking at him then M 974
loved it and had M 968
loved my job and M 966
looking at her then M 965
loves me for who M 964
loves me and she M 964
loved the man for M 960
looking to him who M 958
looking at his head M 957
loves to see her M 955
longer so that they M 954
longer the war goes M 952
longer to heal and M 940
longer of this earth M 934
looking at things than M 932
longer to run than M 928
longer as they had M 927
longer he was going M 921
looking to get rid M 918
loads of earth and M 916
loose on his own M 915
loved it all and M 908
loves the one who M 906
looking at things can M 906
longer of any real M 906
locks at each end M 905
looking the way they M 902
longer to read and M 900
longer be any death M 900
longer in use but M 895
looking at that one M 894
longer be with you M 892
loves us all and M 888
loved to get out M 881
lower if they are M 879
looking at his arm M 873
loves to see you M 869
loves the sun and M 866
longer at ease and M 863
looking as they did M 861
loved to see and M 858
loved me and who M 858
longer on this head M 852
loved by one and M 850
looks to see who M 849
loved in that way M 848
looking at things this M 844
lords of his own M 840
looks on you with M 840
looks of fear and M 840
longer on his own M 838
longer at his own M 836
looking at them she M 835
loved to fly and M 834
loved by all for M 830
looks the way she M 828
looks at each one M 828
looking at her one M 828
loose in all its M 822
looking up for him M 822
loved to deal with M 820
loved by any one M 814
longer if she had M 810
lodge of his own M 810
loves to hear that M 809
locks on his head M 804
logic of things that M 800
looking at and being M 796
loves of men and M 792
loops so that they M 788
longer to get rid M 788
looking at them out M 786
loved as she had M 784
looking at his leg M 784
logic in all this M 784
looking at you out M 783
longer in that way M 780
longer we put off M 775
logic we can not M 774
looking at how things M 767
looking at all his M 764
looking at how our M 762
looking at him any M 762
looking at how each M 761
loved to hear our M 760
looks at things and M 760
looking at how and M 757
loved the job and M 756
looking to you and M 756
looking at his men M 756
logic of this and M 752
longer to see how M 748
loved by you and M 744
loves to see them M 742
looks at how and M 740
looking at that and M 740
looking at her two M 739
longer at each end M 728
looking to him with M 727
longer to pay off M 727
looking at this area M 726
lower on his head M 724
loved to see this M 724
looking at his long M 724
looks so sad and M 722
longer to get going M 720
loose in this way M 717
longer to pay for M 717
longer to get them M 716
looks on all things M 711
looking at does not M 710
loved of god and M 704
looking up saw that M 704
looking at how one M 702
loved by one who M 700
looking at that man M 700
longer so easy for M 700
looking to get off M 698
looking to him and M 697
lodge in his own M 696
logic is that they M 692
loops at one end M 690
looks up and then M 690
looking at god and M 690
longer the man she M 688
loved to get his M 686
looking at her you M 686
looking at but not M 686
loved to let his M 682
loved me and you M 680
looking in any way M 680
looks on his own M 677
looking to her own M 677
loved the song and M 676
looking on his own M 673
loved by them and M 672
loved as you are M 672
looking at his dead M 671
loved by all that M 670
looking at her old M 670
loved me and then M 669
loves us and who M 668
loved it that way M 668
looking at each man M 668
longer be his own M 668
loved to see how M 666
longer in his way M 660
loved by men and M 656
longer of use for M 656
loves to hear him M 654
loves to deal with M 654
looks at all this M 654
looks at this and M 653
looking at her this M 650
looks so easy and M 646
looking in his own M 646
looking as they are M 644
loved the dead man M 642
longer to say that M 642
looking at now was M 640
loves me and who M 638
looks at them both M 635
looking at our new M 633
looking at him not M 632
loved me for that M 630
looking at this all M 628
lower in this area M 627
longer to dry and M 627
loved of all men M 626
looking to any end M 626
looking in and out M 625
looks up and out M 624
loves no one and M 620
looks to you and M 617
looks at you for M 614
looking up for you M 614
logic of this idea M 614
logic of things and M 614
loved of all his M 612
looking at this with M 612
loved it and she M 610
looking on all this M 610
longer in use are M 610
loved to hear you M 606
longer to get things M 606
looking at this old M 602
loved by this man M 599
loves to see him M 598
loves to run and M 598
looking at how far M 596
lower in men than M 594
loves the man she M 594
longer at ease with M 594
loved in her own M 592
looking at you but M 591
logic as they are M 590
lower by far than M 589
longer to dry out M 589
looks do not mean M 588
loved to read them M 586
loved it and they M 586
loses in this way M 586
looking thing that had M 585
loose on him and M 584
logic to see that M 584
loads so that they M 584
longer the boy who M 582
longer of one year M 582
longer be any real M 582
longer to fear that M 581
loads the air with M 580
looking at her any M 579
looking the old man M 578
loved the law and M 576
loved as they are M 576
longer be fit for M 576
longer in its own M 575
lords of death and M 572
looking so old and M 572
lodging of his own M 572
looking at his big M 571
looking so ill and M 568
looking to get his M 566
longer the man that M 566
looking at one now M 563
looking at and how M 562
logic of law and M 562
looking at her lying M 560
loved the dear old M 556
loved it and that M 556
longer be any use M 556
loved as she was M 554
looking at each and M 554
looking on and not M 553
loved the one and M 552
loose on earth and M 552
loved to use his M 550
loved the one who M 550
lower of its two M 547
looks at you out M 547
looks of this one M 546
longer the old man M 546
longer go out with M 546
loves to hear you M 545
looking at and then M 544
loved by her and M 542
looks at her now M 542
longer be cut off M 542
looking at you kid M 541
longer to get his M 538
loves me and does M 536
loved the things that M 536
longer as she had M 535
loved by him with M 534
loose so you can M 534
looks at him but M 532
loves in this way M 531
looking in his rear M 529
lower the leg and M 528
looking at two things M 528
loves of his own M 527
looking at him this M 527
longer to die than M 527
looking at this for M 526
looking at things had M 526
looking at her arm M 526
longer to see her M 524
looks of all his M 522
looks to god and M 521
loved to see all M 520
lords of all things M 518
looking my way and M 518
looking at for its M 518
longer to see him M 518
looks at how one M 516
logic of being and M 516
lower in his own M 514
loved the area and M 514
looks at you that M 514
looking up with awe M 514
longer in that man M 514
lower the bar for M 512
looking at are not M 512
lower the arm and M 510
loved us all and M 510
looks to its not M 510
longer to see that M 510
logic in its own M 510
loved us and hath M 509
loser in all this M 508
looking so ill that M 507
loved to put his M 506
longer in any real M 504
looking at things but M 503
loved to read his M 502
looks to him and M 502
looking at them than M 502
looks at him now M 501
looking at any two M 501
looking up for her M 498
longer in our own M 497
looking at this big M 496
looking at old things M 496
logic is not one M 496
lower in men with M 495
loose on its own M 495
longer to say than M 495
loves the earth and M 494
looking at and doing M 494
longer to see you M 493
loved us and that M 492
loved to see things M 492
looks so big and M 492
looking at one man M 492
longer to him than M 491
looks to her own M 490
longer to get off M 489
loved us for our M 488
looks he did not M 488
longer so that you M 485
loved me and they M 484
looking up with that M 484
looking at that big M 481
logic of his day M 481
looking at you two M 480
looking at things not M 480
logic is that you M 480
loves to hear her M 479
looking at and for M 479
loved by her own M 478
loved by all with M 478
longer go out and M 476
longer be with him M 476
loved in him was M 474
looking to see you M 474
loved by his son M 473
loved the dog and M 472
looks at any one M 472
logic on its own M 472
lords to deal with M 471
lower the age for M 470
loved or did not M 470
loved me and not M 470
loved it and did M 470
longer be any one M 469
looking to see him M 468
longer the way they M 468
looks on all men M 467
looking at this idea M 466
looking at all our M 466
longer if you use M 466
looks on her with M 465
loathing of all that M 465
longer it was going M 464
loved it that she M 462
looks at men and M 461
longer the one doing M 461
loves me and how M 460
looks of things they M 460
loves us and how M 458
loved as she did M 458
looking at two men M 456
looks on all this M 455
loved on earth and M 454
looking at who was M 454
looking at one with M 454
looking at him had M 454
loved us and has M 452
looks in any way M 451
lower at one end M 450
loved on this earth M 450
looking on with her M 450
looking at them not M 450
looking at them can M 450
loose to all that M 449
loved to toy with M 448
loved the man with M 448
looks at his new M 448
looking at her had M 448
loved by god that M 447
looking in them for M 446
looking up and not M 444
looking so fit and M 444
longer to get her M 442
lodge to say that M 440
loves to get out M 439
loved to hear how M 436
loved by him who M 436
looks to you with M 436
lower to cup her M 434
loved to run her M 434
looking to you with M 434
longer he did not M 434
looking on all that M 432
loves the things that M 430
loved to sit for M 430
loads in and out M 430
longer in men than M 429
loved to run his M 428
looks of this man M 428
looking at and using M 428
looking at men who M 426
logic in his own M 424
looking at things does M 422
longer of his own M 422
longer he was with M 420
loads on and off M 420
looks to this day M 419
longer to his own M 419
longer he sat and M 418
loves to hang out M 415
longer the one that M 415
looking at her dead M 414
loves me and you M 412
looking up with one M 412
loathing of his own M 412
loved of them all M 410
looks up for his M 410
looking at him nor M 410
logic to its end M 410
locks of his long M 410
loose as they are M 408
longer to bear his M 407
looks the way that M 406
looks at him out M 406
loved to mix with M 404
looking at one who M 404
looking at him lying M 404
loves the idea that M 402
loses an eye and M 402
loose in her head M 402
longer on her own M 402
loved me and all M 401
loathing of all things M 400
loads of them are M 400
loves it and has M 398
looks as she did M 398
looking to buy one M 398
loads on her head M 398
longer in this area M 397
loves the man and M 396
looks of them they M 396
looks of awe and M 395
loves us and does M 394
loose so they can M 394
looking on and doing M 394
longer on its own M 393
loved me but was M 392
loved by both his M 392
looking at things you M 392
longer if not for M 392
logic is one that M 392
loading it with all M 392
looking at how that M 391
lords of war and M 390
looks so easy that M 389
longer as you can M 389
loved to get her M 388
loved the boy with M 388
loved me with her M 386
loved by him for M 386
looks at one with M 386
looking at things they M 386
looking as she does M 386
loose to all his M 385
longer to act than M 385
looks of that sky M 384
looking at him they M 384
loves the old man M 382
looks at him that M 382
looking at her red M 382
longer to see his M 382
locks of her long M 382
looks in her new M 381
loves me and all M 380
looking up his old M 380
looking at her head M 380
loads of dead and M 380
loves to hear them M 378
looks up with his M 378
looks on all with M 378
looking at his red M 378
looking at her not M 378
looking at both men M 378
looking at all its M 378
longer the one and M 378
looking to all that M 377
loved to hear this M 376
looking to buy and M 376
looking on with that M 376
loves to see and M 374
loves in his own M 374
loves us with all M 373
loops is that they M 373
loves to you and M 372
loves the way she M 372
looks my way and M 372
longer of his two M 372
looking on with all M 371
looks at him she M 370
logic of one who M 370
loves me with his M 368
loved us and was M 368
looks of things you M 367
looks at her but M 367
looks up and his M 366
looking at you too M 366
looking as they had M 366
loads us with his M 366
looks at her she M 364
loves or does not M 363
looks to one who M 363
longer it was put M 362
lords of all that M 361
looks at man and M 361
lords of that day M 360
lords in his own M 360
looks at his old M 360
looking at how she M 360
longer to get him M 360
longer be with her M 360
logic we are not M 360
loves to hear our M 358
loved to act out M 358
looks of her she M 358
logic is that all M 358
looks in this way M 357
longer if you had M 356
longer if they can M 356
longer an old man M 356
loads as they are M 356
loved by them both M 354
loses the man she M 354
looking at its use M 354
looks at his two M 353
longer in use than M 353
lower in men who M 351
loved as our own M 350
looking at did not M 350
looking at death and M 350
logic is that this M 350
locks up both man M 350
loved the men who M 348
lords of earth and M 348
looks at one and M 348
looking at all her M 348
longer of use and M 348
logic in that they M 348
loves us for who M 346
looks up with awe M 346
looks on her and M 346
looking in her own M 346
loved to lie and M 344
lords of his day M 344
looking at this that M 343
longer the man for M 343
loves me with her M 342
loved the idea but M 342
looking at them has M 342
longer we can not M 342
lower if you are M 340
loved the man that M 340
looks on and does M 340
loose on them and M 338
longer to fear any M 338
loved of all our M 336
longer do its job M 336
looks at all that M 335
loves me but you M 334
longer so that she M 333
loves to use his M 332
longer be any way M 332
longer be any fear M 332
logic of this can M 332
loved by any man M 331
loose so that you M 331
looking as this one M 330
logic of its use M 330
loads if they are M 330
loves us for our M 328
loved me but she M 328
looks at how our M 328
looking to her with M 328
looking so bad and M 326
looking at and not M 326
longer at her own M 326
looks at how each M 325
loved to ask him M 324
loved in her was M 324
looks so real that M 324
looks of them all M 324
looks in his new M 324
looking at her big M 324
longer to use his M 324
locks of his own M 324
longer in any one M 323
loved to sit out M 322
loved in and for M 322
loved by one man M 322
loose in his own M 322
looking at this boy M 322
longer do you mean M 322
loose as you can M 321
lower in old age M 320
loved by men who M 320
looking at new things M 320
logic is that any M 320
lower so that they M 318
looks at this man M 318
loves me but she M 316
loved the way this M 316
loved me that way M 316
looking at and that M 316
longer be had for M 316
logic is thus not M 316
loads on his head M 316
looks at them one M 315
loved it for that M 314
looking at things too M 314
loads in this way M 314
loved my son and M 312
looking the way her M 312
looking in now and M 312
longer to bear with M 312
loves to see men M 310
loved as few men M 310
looks so ill and M 310
longer as she was M 310
logic to his own M 310
loved it then and M 308
looks to him with M 308
looks of him and M 308
logic of his new M 308
loves us all with M 306
loves the boy and M 306
loved us and had M 306
looks up and not M 306
looking at you this M 306
looking at and why M 304
looking as you can M 304
looking on them all M 302
looking at new and M 302
longer be her own M 302
loads of oak and M 302
logic is not all M 301
loves to lie and M 300
loved to hear all M 300
loose in its new M 300
looks at them they M 300
looking up with him M 300
looking so sad that M 300
longer the man you M 300
looks at you all M 299
loved to read but M 298
looking at our map M 298
longer to put off M 298
logic is not yet M 298
lords of this earth M 297
loops on each end M 297
loved to lie near M 296
loved by god than M 296
loved by all than M 296
looks at them now M 296
looking to see her M 296
looking at him who M 296
longer my own but M 295
loves to bring his M 294
loved us and who M 294
loved the men and M 294
looking at how long M 294
looking at him than M 294
lower the bar with M 293
looking at one that M 293
looking at but one M 293
longer the way was M 293
loved the singing and M 292
loved on earth are M 292
loose to his own M 292
looking at how all M 292
looks at him then M 291
longer in man than M 291
loved the boy for M 290
lords as they are M 290
looks to you now M 290
looks in all his M 290
looking at them this M 290
longer to try and M 290
logic to all this M 290
loved us with all M 288
longer do his job M 288
longer an idea but M 288
logic is not easy M 288
loved to see men M 286
loved no one and M 286
lords in this way M 286
looking at how his M 286
looking at her things M 286
looking at her than M 286
loads of things that M 286
loved me long ago M 285
loved me but that M 285
loose in this area M 285
looks of things and M 285
looking on all things M 284
longer be all things M 284
loves to say that M 283
loves to mix with M 282
loved by them for M 282
looking so long that M 282
looking at that for M 282
logic it does not M 282
loved to try and M 280
loved to put her M 280
loose on them with M 280
looks up with her M 280
longer so you can M 280
longer he put off M 280
looks as she does M 279
longer to set than M 279
loved to see its M 278
loved by god for M 278
loose at each end M 278
looks of things she M 278
looking to any one M 278
loves to you all M 276
loved me for her M 276
loved it and all M 276
looks of men and M 276
looking at who you M 276
looks of his own M 274
looking at him long M 274
looking at her thus M 274
longer at one end M 274
loading is not too M 274
looking at both its M 273
lower so you can M 272
loves to hear and M 272
lords so that they M 272
looks at her then M 272
looking at her did M 272
longer to heat and M 272
longer on his head M 272
logic is that one M 272
logic in any way M 272
loved by her son M 271
looks of joy and M 271
looking in his way M 271
loved me with that M 270
looks as she was M 270
looking up for them M 270
loved us and our M 268
loved me but did M 268
loved by them with M 268
loved by old and M 268
lords to let them M 268
lodge on his way M 268
lower in men and M 266
loves the way you M 266
longer to see them M 266
longer as men and M 266
logic to see and M 266
logic in all its M 266
local in that they M 266
loved in him not M 264
looking at this now M 264
longer do you see M 264
locks so that they M 264
looking at one end M 263
longer if they did M 263
loves us but for M 262
loved to act and M 262
lords it was not M 262
loose of its own M 262
looking at that map M 262
longer to you than M 262
longer to get all M 262
longer on each end M 262
looks at her new M 261
looking at that boy M 260
longer in its old M 260
longer if she did M 260
longer be for him M 260
looks of that man M 259
loved me for being M 258
loved it and its M 258
loved by them than M 258
looks at how far M 258
looking in that they M 258
lower in old than M 257
looking on her own M 257
longer the men who M 257
loves to get his M 256
loved the man but M 256
loved by god with M 256
looking to see why M 256
looks at her out M 255
loved to run with M 254
looks so bad that M 254
looking up you see M 254
looking at you can M 254
looking at his things M 254
looking as sad and M 254
longer on earth but M 254
longer by his own M 254
loathing he had for M 254
lower if they had M 253
loves the way they M 252
loved of all things M 252
loved me but you M 252
looks at things that M 252
looking at him saw M 252
looking at his dog M 251
loves me and can M 250
loves it with all M 250
loved by him was M 250
looks to her with M 250
looking on them for M 250
looking at you both M 250
looking at them are M 250
logic of this may M 250
looks on all that M 249
loved in all his M 248
loose in all his M 248
looks up and her M 248
looking up with all M 248
longer be our own M 248
looks on him and M 247
loves the dear old M 246
loved us both and M 246
loved the boy too M 246
looking at them did M 246
looking at each new M 246
lodge it with them M 246
loathing of her own M 246
loves the boy that M 244
loved to use them M 244
loops in and out M 244
looks at his arm M 244
looking so long and M 244
looking he was and M 244
looking at them long M 244
loading of men and M 244
looking in its own M 243
lodge at his own M 243
loved to let her M 242
loved if you can M 242
looks of things that M 242
looking at him did M 242
longer we are going M 242
looks at how that M 241
loser to pay for M 240
looking to get you M 240
longer so they can M 240
longer do him any M 240
logic of this way M 240
logic of this has M 240
loved no man that M 238
looking up with its M 238
logic in this and M 238
lower in all but M 237
loved to set his M 236
loses or does not M 236
longer he and his M 236
lodge of her own M 236
loves as her own M 234
loved the man you M 234
loose if they are M 234
looks of men who M 234
looking up one day M 234
logic to see how M 234
lodging in area and M 234
lower as they are M 233
loves to try new M 233
loved the boy who M 232
loved me with his M 232
loved by both her M 232
looking at her man M 232
longer the weak and M 232
logic we are using M 232
lodging at his own M 232
looks of her own M 231
looks at her long M 231
loves it with his M 230
loved it with his M 230
looks to man for M 230
looking to them with M 230
looking at our old M 230
logic is that its M 230
lodge of its own M 230
loads of them and M 230
loves the one and M 228
loved to see our M 228
loved of all her M 228
loved my new job M 228
loved me far too M 228
looks up but does M 228
looking on you with M 228
looking on each day M 228
looking at them near M 228
looking at that day M 228
looking at men with M 228
longer be read with M 228
logic so that you M 228
logic so that they M 228
logic is that each M 228
looks of him that M 227
loved to use for M 226
loved to this day M 226
loved by god are M 226
loved at all than M 226
loser by his death M 226
looks of things now M 226
looks at this new M 226
looking to see them M 226
looking in her bag M 226
looking at them had M 226
looking at her leg M 226
loads at each end M 226
loves to hear all M 225
looks in its own M 225
longer the new kid M 225
loves to see that M 224
loved me then and M 224
loved me and now M 224
looking at how its M 224
looking at her his M 224
looking as old and M 224
longer do this and M 224
looks of you and M 223
longer to get this M 223
longer to get that M 223
loves the one man M 222
looking at one set M 222
loved the things she M 220
loved the heat and M 220
loved me too and M 220
loved by him that M 220
looks up and she M 220
looks on them all M 220
looking the way that M 220
looking at bad things M 220
longer an end but M 220
logic if they are M 220
loading us with all M 220
longer to ask for M 219
loves us and our M 218
loved us and how M 218
loved to try out M 218
looking to get her M 218
looking so weak and M 218
looking on but not M 218
looking at why they M 218
looking at this long M 218
longer the things they M 218
longer be its own M 218
loathing of god and M 218
looks in now and M 216
looking so big and M 216
looking at him how M 216
loves to see things M 214
loved so that she M 214
looks on with his M 214
looking up she was M 214
looking in that way M 214
looking at why and M 214
looking at all day M 214
longer we sat and M 214
lower in this age M 213
lower in that year M 213
longer if you get M 213
loved to lay his M 212
loved to get him M 212
loved it and you M 212
loved if they are M 212
looking on and did M 212
looking at things all M 212
logic of his wings M 212
locks is that they M 212
looks to die for M 211
looks at how long M 211
longer the law that M 211
loved us all with M 210
loved it and how M 210
looking at things out M 210
loves the man that M 209
lower in them than M 208
lower if you can M 208
loves us not for M 208
looking at who they M 208
longer to put his M 208
looks at two key M 207
logic of all that M 207
lower in ash than M 206
loves me and not M 206
loved to read her M 206
loved to his own M 206
loved to buy things M 206
loved to bring her M 206
looking at this set M 206
looking at his wet M 206
looking at can not M 206
longer the man with M 206
logic it can not M 206
loved to sit long M 205
lower in man than M 204
loses an arm and M 204
lords to get rid M 204
looks the way they M 204
looking at him his M 204
logic of how they M 204
lords in that year M 203
loose he wings his M 203
looking to her son M 203
longer on its way M 203
loved to see new M 202
loved by all but M 202
looks at his map M 202
looking at you then M 202
looking at our two M 202
longer in his head M 202
local to its own M 202
looks at you now M 201
looking at was one M 201
lower the bar and M 200
loves of long ago M 200
loved in all its M 200
loses the use and M 200
lords he had but M 200
looks on all kings M 200
looks at how new M 200
looking up with big M 200
looking up saw her M 200
looking at them how M 200
looking at her nor M 200
longer to run and M 200
longer in his old M 200
logic of that was M 200
lodging of her own M 200
loved of all that M 199
loops as they are M 199
loved me and has M 198
lords of them all M 198
loose do not you M 198
looks in his own M 198
looks at how things M 198
looking on our own M 198
looking at you you M 198
looking at who has M 198
looking at things now M 198
logic we can see M 198
logic to them and M 198
loose in war and M 197
looks at you you M 197
lower in air than M 196
loved to set off M 196
loved in his day M 196
loses by not being M 196
loops in this way M 196
looking to man for M 196
longer in our path M 196
lodge us two and M 196
loathing of war and M 196
lower in all age M 195
looking up and with M 195
looking in her way M 195
loves the way her M 194
loses or that she M 194
looks of one who M 194
looking up for our M 194
looking on his son M 194
looking in her eye M 194
longer on our own M 194
looks at you but M 193
loved me not for M 192
loved me and saw M 192
loved it and now M 192
looking at things did M 192
looking at that box M 192
looking as big and M 192
longer to fix than M 192
longer in fear for M 192
logic in this area M 192
lords to say that M 191
lower in key than M 190
loved to buy and M 190
loved of all who M 190
loved as they did M 190
looks at god and M 190
looking up but not M 190
looking on them and M 190
looking at why you M 190
looking at our age M 190
looking at and you M 190
looking at and saw M 190
longer to bear this M 190
longer as easy for M 190
logic of this law M 190
lower the gear and M 189
looking on and all M 189
longer to heat than M 189
longer to dry her M 189
longer the old one M 189
longer if you put M 189
loved the sky and M 188
looks up now and M 188
looks of them and M 188
looking up for his M 188
looking at how two M 188
looking at how men M 188
longer the way you M 188
longer as one who M 188
lower in each year M 187
loser in this war M 187
longer at any one M 187
lower in ash and M 186
loved it too and M 186
loved by him than M 186
looking to men for M 186
looking at this kid M 186
looking at them any M 186
looking at his dear M 186
looking an old man M 186
longer the war was M 186
loads of his own M 186
loose so that she M 185
longer the boy she M 185
lower of his two M 184
loved me all this M 184
loved as being dear M 184
loose if they can M 184
looks so new and M 184
looks on all she M 184
looks at you she M 184
looking at them each M 184
longer to them than M 184
longer to die out M 184
longer at war and M 184
looks on you and M 183
looking at one area M 183
longer the one you M 183
logic is all that M 183
loves to see its M 182
loves to read them M 182
loves to fly and M 182
loved us and did M 182
loved to bring them M 182
loved to ask her M 182
loved the boy all M 182
loved it and who M 182
loved by all our M 182
lords in our own M 182
looks to his son M 182
looking up saw his M 182
looking my way with M 182
looking at you any M 182
looking at that long M 182
looking at for all M 182
longer in old age M 182
logic in his head M 182
looking at this war M 181
longer in them than M 181
loves us and all M 180
loved if she had M 180
lords of all this M 180
looks at how both M 180
looking so long for M 180
logic at all but M 180
looking at that now M 179
looking at her eye M 179
loved to try new M 178
loved to lead them M 178
loved the ease and M 178
loved on its own M 178
loved me and for M 178
loved by god who M 178
loose of him and M 178
looks as she then M 178
looking up this way M 178
looking at any new M 178
longer be easy for M 178
longer at his ease M 178
lodging is not far M 178
local in all its M 178
local as they are M 178
looking on with awe M 177
longer to pay than M 177
longer if she was M 177
loves to sit with M 176
loves it that way M 176
loved to put them M 176
loved by man and M 176
looks so weak and M 176
looks on his son M 176
looks at how all M 176
looks at his dead M 176
looks at all men M 176
looking to try and M 176
looking to god with M 176
looking at old and M 176
looking at her how M 176
logic of myth and M 176
logic of its being M 176
lower we can not M 175
looking at how god M 175
longer no one can M 175
loved to read out M 174
loved it for all M 174
loved it and got M 174
loved it all day M 174
loved as she has M 174
loose on her own M 174
looks so sad that M 174
looks at her two M 174
looks as one who M 174
looks as old and M 174
looking to see his M 174
looking at his boy M 174
longer my own man M 174
longer do you hear M 174
loading up with all M 174
looks of that one M 173
looking in this area M 173
locks of her son M 173
loathe the idea that M 173
loved to hear any M 172
loved on earth was M 172
looks so real and M 172
looks at things too M 172
looks at that and M 172
looking at things she M 172
looking at her sad M 172
looking at both his M 172
longer is she going M 172
longer be one law M 172
lodge is not for M 172
loads do not act M 172
loose on his head M 171
lower at each age M 170
loved to bring out M 170
loved to bring his M 170
loved me for all M 170
lords to ask for M 170
looks of you two M 170
looking at any old M 170
logic of this poem M 170
logic of but one M 170
looks at him long M 169
looking at you one M 169
longer the man and M 169
longer at its head M 169
loved the old and M 168
loved by both men M 168
looks to them with M 168
looks of his son M 168
looking as that she M 168
longer to use than M 168
longer be put out M 168
loads of men who M 168
lower the rear end M 167
lower in this than M 167
loose to mix with M 167
looks at how two M 167
looks at him too M 167
looking at him eye M 167
looking as all that M 167
longer the war with M 167
logic of any one M 167
loves to put his M 166
loved to use all M 166
loved is dead and M 166
loved as one who M 166
looking up and his M 166
looking at this poem M 166
longer of its two M 166
longer in use with M 166
logic is not new M 166
locks of her own M 166
locks as she ran M 166
local in this way M 166
loves to toy with M 165
loose on him with M 165
loves us and can M 164
loved to sit near M 164
looks an old man M 164
local king and his M 164
loathe to let her M 164
loved to see odd M 162
looks so ill that M 162
looks on them for M 162
looks of him who M 162
looks at him not M 162
looking up they see M 162
looking up for this M 162
looking to get him M 162
longer the men they M 162
longer do they see M 162
logic is not too M 162
looks of his men M 161
longer to him but M 161
loathe to let him M 161
lower so that you M 160
loved to use her M 160
loved to put its M 160
loved to pit his M 160
loved to hear was M 160
loved to get them M 160
loved me for two M 160
loved in him and M 160
loved by his god M 160
loved by god but M 160
lords on that day M 160
looks of his new M 160
looks at them but M 160
looks at each and M 160
looking to buy new M 160
looking at things far M 160
looking at that new M 160
longer to sit with M 160
longer to bear her M 160
longer the fear that M 160
longer on one leg M 160
lodge to get his M 160
loathing of sin and M 160
lower if you buy M 159
loves to see how M 159
longer to set and M 159
longer is that they M 159
lower on her head M 158
lower as one goes M 158
loves to let his M 158
loves the way his M 158
loved to win and M 158
loved the son and M 158
loved me that day M 158
loved it all his M 158
loose in his use M 158
looking at one for M 158
looking as fit and M 158
logic of his idea M 158
logic is not our M 158
loading me with his M 158
loved to use that M 157
looking at our earth M 157
looking at his eye M 157
loves to see all M 156
loved me and yet M 156
loved if they had M 156
looks to her and M 156
looks on all his M 156
looks at her that M 156
looking to them and M 156
looking on that day M 156
looking in that area M 156
looking at with his M 156
looking at this year M 156
longer to see any M 156
longer or who are M 156
looks as they are M 155
longer to let you M 155
loved the one that M 154
loses in him one M 154
looks up his old M 154
looks to her son M 154
looks of real and M 154
looking on him and M 154
looking at old age M 154
looking at and she M 154
logic we can say M 154
logic of this set M 154
logic is that with M 154
lodge is that for M 154
loads of lead and M 154
lower in may than M 153
lower in math and M 153
loved to see one M 153
looks of you that M 153
looks at her arm M 153
loved the air and M 152
loose to his joy M 152
looks in them for M 152
looks at death and M 152
longer to act and M 152
longer of leg and M 152
longer be with his M 152
logic we deal with M 152
logic is not going M 152
lower in pay and M 151
lower if not for M 151
loose in any way M 151
looks at her all M 151
looking at two key M 151
longer in air than M 151
loves to read but M 150
loved the cut and M 150
loved it that you M 150
loses the red heat M 150
looking so bad that M 150
looking at this was M 150
looking as new and M 150
longer to bring them M 150
longer in use can M 150
logic to its own M 150
logic of doing this M 150
logic of death and M 150
logic he did not M 150
local to that area M 150
loads of things you M 150
loves of god and M 149
looks to them and M 149
longer to read them M 149
lodge in them and M 149
loves to bring out M 148
loved to fly with M 148
loses the bet and M 148
loses it does not M 148
loser is one who M 148
looking to his new M 148
looking at each area M 148
looking at any map M 148
longer to her than M 148
longer in this than M 148
logic of sin and M 148
looks in his rear M 147
longer the way things M 147
longer the law and M 147
longer the idea that M 147
loves me now and M 146
loved to lead his M 146
loved it for his M 146
loved by you all M 146
looks at how men M 146
looking up and she M 146
looking at them two M 146
looking at law and M 146
looking at his cup M 146
looking at her map M 146
looking at and they M 146
longer to pay his M 146
longer on his way M 146
longer in his seat M 146
longer be read and M 146
logic of this plea M 146
local in use and M 146
loading it with his M 146
looking at his death M 145
longer on this than M 145
loved to try his M 144
loved to hear its M 144
loved the big old M 144
loved me and let M 144
loses the war and M 144
loops so that you M 144
looks the way red M 144
looks on man and M 144
looks of that boy M 144
looking at that you M 144
looking at its two M 144
looking at how both M 144
longer to get its M 144
longer of leg than M 144
longer in use due M 144
longer as you are M 144
local to this area M 144
loads in one day M 144
longer in that area M 143
loved to use this M 142
loved my old man M 142
loved me and his M 142
loved in his way M 142
loved by that man M 142
loses the way and M 142
looks to him now M 142
looks at two things M 142
looking up saw him M 142
looking to pay for M 142
looking in with his M 142
looking at them may M 142
looking at one year M 142
looking at now are M 142
looking at now and M 142
looking at his and M 142
looking at her boy M 142
longer to pay its M 142
logic he can not M 142
lower in that area M 140
loves us for his M 140
loves the idea and M 140
loves it not for M 140
loves he does not M 140
loved to buy her M 140
loved it and then M 140
loved by her had M 140
looks so bad for M 140
longer he was out M 140
longer he can not M 140
logic of how this M 140
logic is now being M 140
loads is that they M 140
loose of her and M 139
looks of her now M 139
looking to him now M 139
loading at one end M 139
loading as they ran M 139
lower on this than M 138
lower if you pay M 138
loves to act out M 138
loves or one does M 138
loved to say and M 138
loved the man too M 138
loved the god who M 138
loved by few and M 138
loses by his own M 138
loose on this bad M 138
looks up and does M 138
looks is that they M 138
looks at her dead M 138
looking up and off M 138
looking in and then M 138
looking at was her M 138
looking at how her M 138
looking at are all M 138
longer to our own M 138
longer to let her M 138
longer to get our M 138
longer to fear for M 138
logic the new way M 138
loathing of him and M 138
looks at his men M 137
looking at that red M 137
longer to bring out M 137
lower the mean age M 136
loves it and does M 136
loved to hang with M 136
loved to death and M 136
loved it but she M 136
looks to for its M 136
looks so mean and M 136
looking on all men M 136
looking in his eye M 136
looking in and not M 136
looking at that bit M 136
looking at him yet M 136
looking at any and M 136
longer we can put M 136
longer do for him M 136
logic to say all M 136
loves to use them M 135
loose on this earth M 135
looks at one way M 135
looking to deal with M 135
looking of all our M 135
looking at was that M 135
longer the old and M 135
lower it for you M 134
loves me does not M 134
loves me and his M 134
loved in all her M 134
loved as they had M 134
loser of them all M 134
loose by his red M 134
looks at this one M 134
looks at them too M 134
looks at her old M 134
looking up with wet M 134
looking to him that M 134
looking to buy his M 134
longer it does not M 134
longer in her seat M 134
locks of old age M 134
loading me with all M 134
lower the age and M 133
looks on them and M 133
longer on them than M 133
loves us far too M 132
loved to read all M 132
loved me and our M 132
loved me all her M 132
lords as they had M 132
loose on our own M 132
looks so old that M 132
looks at man with M 132
looks at all his M 132
looking to use this M 132
looking to see our M 132
looking to add new M 132
looking at this you M 132
looking at them does M 132
looking at its head M 132
longer be any but M 132
longer an area has M 132
logic to them that M 132
logic is that for M 132
locks as each man M 132
loathe the man who M 132
loves to you both M 131
loved the one you M 130
loved in any way M 130
loses in one way M 130
looks of things this M 130
looks of his big M 130
looks of all this M 130
looking up and being M 130
looking to hang out M 130
looking at her cup M 130
longer to act with M 130
longer it was not M 130
longer in all its M 130
longer do them any M 130
logic is but one M 130
locks up and you M 130
loads of things for M 130
loading in this way M 130
looks at him one M 129
longer is not going M 129
longer an eye for M 129
lodging on his way M 129
loves us both and M 128
loves us and with M 128
loves the law and M 128
loves the boy who M 128
loves me for that M 128
loves me and then M 128
loves he can not M 128
loved us and she M 128
loved to say his M 128
loved to air his M 128
loved the poem and M 128
loved the job but M 128
loved me did not M 128
loses the one and M 128
lords it was read M 128
looks to this end M 128
looks so real you M 128
looking at you does M 128
looking at this head M 128
looking at that area M 128
looking at real things M 128
looking at one day M 128
looking at each with M 128
looking at and can M 128
looking as red and M 128
longer of its own M 128
longer is can not M 128
longer do her job M 128
longer as they did M 128
lower of our two M 126
loves to set his M 126
loves the god who M 126
loves me but does M 126
loves it and can M 126
loved to say things M 126
loved by her for M 126
loved by all its M 126
loses in one day M 126
lords to put his M 126
looks so red and M 126
looking up his own M 126
looking up and that M 126
looking to his son M 126
looking on did not M 126
looking at that with M 126
looking at death with M 126
looking at any man M 126
looking as you say M 126
longer to pay any M 126
longer the men for M 126
longer be one but M 126
logic of its new M 126
logic of fear and M 126
locks on her head M 126
loading on any one M 126
looking thing that was M 125
longer to use that M 125
loves me for this M 124
loves me and this M 124
loves me and our M 124
loves in all things M 124
loved to say her M 124
loose to run and M 124
loops on one end M 124
looks on with her M 124
looks he now and M 124
looks at you can M 124
looking to you now M 124
looking to one and M 124
looking at you they M 124
looking at this too M 124
looking at this not M 124
looking at sky and M 124
looking at its dead M 124
looking at her wet M 124
longer he has had M 124
longer do her any M 124
logic is too weak M 124
logic in all that M 124
lower so that his M 123
looks so near that M 123
looks at them she M 123
looks at our own M 123
looking at his now M 123
longer the two men M 123
lodge on his own M 123
lower or red end M 122
loves an old man M 122
loved to read him M 122
lords of its own M 122
loose to our own M 122
looking up and you M 122
looking at you was M 122
looking at may not M 122
looking at how new M 122
longer to ask how M 122
longer in this one M 122
local to any one M 122
loves it and that M 121
looking if she had M 121
loves to act and M 120
loves me too and M 120
loved the easy way M 120
loved it with her M 120
loved in them was M 120
loved by men with M 120
looks to things that M 120
looks at our new M 120
looking up and all M 120
looking to war with M 120
longer be far off M 120
logic of this man M 120
logic of this but M 120
logic of men and M 120
lodge of our own M 120
lodge in his old M 120
locks the sun gear M 120
loads of them had M 120
loads of sin and M 120
loads of its own M 120
loads it with his M 120
loading is one day M 120
lower so that she M 119
loose on this one M 119
looks of each that M 119
looks at her too M 119
looking at his job M 119
looking as any man M 119
longer to read this M 119
longer the end but M 119
longer be got rid M 119
longer as one goes M 119
loves to sit all M 118
loves to read his M 118
loves me and for M 118
loved us and they M 118
loved to lay her M 118
loved on earth who M 118
loved on earth had M 118
loved me and this M 118
loved it was not M 118
loved it and her M 118
loved he did not M 118
lords in any way M 118
loose in our own M 118
looks up with that M 118
looks up and with M 118
looks at why and M 118
looks at this war M 118
looks at things for M 118
looking on and then M 118
looking at that sky M 118
looking at one leg M 118
looking at his seat M 118
looking at all you M 118
longer to pay out M 118
longer on his arm M 118
longer in dry than M 118
longer if you add M 118
longer do this for M 118
logic on earth can M 118
logic is and how M 118
loves in her own M 117
loved me all that M 117
looking up and one M 117
looking to get that M 117
longer to put them M 117
lower of any two M 116
lower in her own M 116
loved to set out M 116
loved in his old M 116
lords of men and M 116
looks up with one M 116
looks of men are M 116
looking on with sad M 116
looking on who had M 116
looking at why this M 116
looking at war and M 116
looking at him can M 116
looking at her dear M 116
looking at each day M 116
looking at and are M 116
looking at all them M 116
longer in this new M 116
longer as they read M 116
loads at one end M 116
lower by one than M 115
loose to run with M 115
loose on her and M 115
loose as they had M 115
looks of that big M 115
looks at him all M 115
looks as for his M 115
looks as big and M 115
longer to bring her M 115
longer on that day M 115
lower of two low M 114
lower in may and M 114
loves us one and M 114
loves of earth are M 114
loved to read that M 114
loved to read old M 114
loved to get rid M 114
loved or who had M 114
loved me all his M 114
loved it with its M 114
loved it that they M 114
loved it for being M 114
loved it but did M 114
loved it and him M 114
loved by man for M 114
loses no one dear M 114
lords of death are M 114
lords of any but M 114
looks to see her M 114
looks to him who M 114
looks of you you M 114
looks at you too M 114
looks at things not M 114
looks at them not M 114
looking up that way M 114
looking up and using M 114
looking on our old M 114
looking on its own M 114
looking on and with M 114
looking if they are M 114
looking at this dead M 114
looking at them nor M 114
looking at red and M 114
looking at each for M 114
longer to her own M 114
longer in use now M 114
longer in fear that M 114
longer eat red meat M 114
longer as they get M 114
logic as that for M 114
loads of dead men M 114
loading is not yet M 114
loose on you and M 113
longer to say things M 113
longer to bear that M 113
longer the shy and M 113
longer if you did M 113
loves to hear this M 112
loves the dog and M 112
loves of earth and M 112
loves me and god M 112
loves it and she M 112
loved to see man M 112
loved of all was M 112
lords of her own M 112
looks up one day M 112
looks to see you M 112
looks on its own M 112
looks on death with M 112
looks at with his M 112
looks at them out M 112
looking at things then M 112
looking at our long M 112
looking at near and M 112
looking at how big M 112
looking at him has M 112
longer the poet who M 112
longer or that they M 112
longer in one area M 112
longer in fear and M 112
longer do you any M 112
logic of this for M 112
lodge me for any M 112
loads of men with M 112
loves of man and M 111
looks of that old M 111
looks if you are M 111
longer to run for M 111
longer by this one M 111
lodging of his new M 111
loves to fix her M 110
loves the new and M 110
loved to put him M 110
loved to fix things M 110
loved the men they M 110
loved of all and M 110
loved it not for M 110
loved in our own M 110
loved by her two M 110
loved as his son M 110
loses the meat and M 110
lords of all and M 110
lords he was not M 110
loose it and let M 110
looks to its god M 110
looks on and then M 110
looking up saw two M 110
looking on him for M 110
looking on all with M 110
looking in with her M 110
looking do you mean M 110
looking at him her M 110
looking at both for M 110
longer the old idea M 110
longer the man but M 110
longer on top and M 110
longer of her own M 110
longer is any one M 110
longer in this heat M 110
longer be one with M 110
logic of using this M 110
logic is not for M 110
logic in our own M 110
logic he does not M 110
lodge to see that M 110
lodge of his new M 110
loads at any one M 110
lords to one year M 109
looks to see him M 109
looks at but does M 109
looking as you did M 109
longer to see this M 109
longer if she does M 109
logic of this being M 109
loves is his own M 108
loved to earn his M 108
loved the wit and M 108
loved or who has M 108
loved it but was M 108
loved it and saw M 108
loved at all and M 108
loses the job and M 108
looks up and off M 108
looks to for his M 108
looks so long and M 108
looks of her son M 108
looks at this area M 108
looks at things this M 108
looking up for fear M 108
looking of all its M 108
looking at them then M 108
looking at our son M 108
looking at all for M 108
looking as mean and M 108
longer to hear his M 108
longer to get than M 108
longer in use was M 108
longer he does not M 108
longer go out for M 108
longer be one for M 108
loads of them for M 108
loads of gear and M 108
loading us with his M 108
lower my head for M 107
loves to put her M 107
looks to see them M 107
looks of his two M 107
looking to buy them M 107
looking at its end M 107
logic we say that M 107
logic of his age M 107
loves us with his M 106
loves us does not M 106
loves to put things M 106
loves to lie low M 106
loves me not with M 106
loved to lie with M 106
loved the day and M 106
loved it was with M 106
loved it for her M 106
loved in all things M 106
loved by them that M 106
loved by his old M 106
loser in any way M 106
lords to see his M 106
lords he did not M 106
looks to god all M 106
looks so far off M 106
looks or does not M 106
looks at men with M 106
looking up his things M 106
looking up for one M 106
looking up and saw M 106
looking to our gear M 106
looking in his bag M 106
looking at was real M 106
looking at his man M 106
looking at age and M 106
longer the man they M 106
longer in our day M 106
longer at our own M 106
logic of god and M 106
logic is not his M 106
local as one may M 106
lower if you use M 105
longer in this war M 105
longer by one day M 105
lower on math and M 104
loves to use her M 104
loves the job and M 104
loves me that way M 104
loves me and her M 104
loved to bring him M 104
loved the old one M 104
loved the old boy M 104
loved the earth with M 104
loved me why did M 104
loved it all with M 104
loved in god and M 104
loved by each one M 104
loses if they are M 104
lords to hear him M 104
looks at and how M 104
looks at all its M 104
looks as easy and M 104
looking up for all M 104
looking at now had M 104
looking at max and M 104
looking at his bow M 104
looking at both her M 104
longer to fear them M 104
longer go with them M 104
logic of war was M 104
logic of that one M 104
lodge at each end M 104
locks up and goes M 104
lower if they did M 103
loose on them his M 103
looking in our own M 103
looking at all and M 103
lower the top and M 102
loves us but that M 102
loves to see this M 102
loves the weak and M 102
loves me but that M 102
loves as she does M 102
loved to read for M 102
loved the weak and M 102
loved the real man M 102
loved no man and M 102
loved in one way M 102
loved by god has M 102
loses to him her M 102
loses he does not M 102
loses he can not M 102
loose to see how M 102
looking up saw one M 102
looking up all his M 102
looking to this new M 102
looking so far and M 102
looking at was his M 102
looking at two new M 102
looking at them yet M 102
looking at him dead M 102
looking at her rear M 102
looking at and had M 102
longer to see our M 102
longer in old than M 102
longer do this with M 102
longer be that way M 102
longer be set off M 102
longer as any man M 102
logic of that and M 102
logic of that age M 102
logic is that both M 102
lodge to ask for M 102
lodge at one end M 102
loathing of this man M 102
loads of men had M 102
loads of earth had M 102
loose by its own M 101
loose as she was M 101
looks to our own M 101
looks at all our M 101
looking on with fear M 101
loves to try his M 100
loves to get her M 100
loves me and was M 100
loves it but its M 100
loved to put things M 100
loved to get off M 100
loved the dying man M 100
loved it did not M 100
loved it all our M 100
loved by its own M 100
lords is that they M 100
looks to see why M 100
looks the two men M 100
looks of her and M 100
looks at who has M 100
looks at his big M 100
looks as new and M 100
looking up for both M 100
looking at that was M 100
looking at our men M 100
looking at her who M 100
looking at and who M 100
longer it did not M 100
longer in use may M 100
longer do things for M 100
longer be won and M 100
logic of war had M 100
lodge to see who M 100
lodge in her own M 100
locks on them and M 100
local if they are M 100
loads of earth are M 100
loading the earth with M 100
loading is low and M 100
loose of his arm M 99
loops at top and M 99
looks of any man M 99
looks he does not M 99
looks at them long M 99
looking on and off M 99
looking at things being M 99
lodge the old man M 99
loathing at his own M 99
loved us all but M 98
loved the way our M 98
loved the cat and M 98
loved the boy but M 98
loved me that you M 98
loved it this way M 98
loved it and not M 98
loved in its own M 98
loses he all his M 98
loser by its being M 98
loser by his going M 98
looks up she can M 98
looks to see his M 98
looks on them not M 98
looking in her rear M 98
looking at who does M 98
looking at his use M 98
looking at for this M 98
looking as they say M 98
looking as she put M 98
longer to see all M 98
longer to run its M 98
longer on earth than M 98
longer he who was M 98
longer eat meat and M 98
logic we use for M 98
logic to this idea M 98
logic of this war M 98
logic of all our M 98
lodging to pay for M 98
lodge it was law M 98
loads in its own M 98
loading of any one M 98
lower in one year M 97
looks at why this M 97
looking at her far M 97
longer on her head M 97
loves to win and M 96
loves to use this M 96
loves to sin was M 96
loves to his own M 96
loves to hear how M 96
loves to fix things M 96
loves the man for M 96
loved to let him M 96
loved to fly his M 96
loved the way its M 96
loved so that they M 96
loved me and her M 96
loved it far too M 96
loved it and his M 96
loved by kings and M 96
loser in his own M 96
looks up and for M 96
looks to her who M 96
looks at him her M 96
looking on one who M 96
looking on death not M 96
looking at this they M 96
looking at things led M 96
looking at that dog M 96
looking at than any M 96
looking at its long M 96
looking at her they M 96
looking at but they M 96
longer to see and M 96
longer in her old M 96
longer an easy way M 96
logic of this does M 96
logic of each and M 96
logic is one with M 96
logic is not its M 96
loading it with new M 96
lower to its own M 95
looking at his set M 95
logic of each one M 95
lower in math than M 94
loves the real you M 94
loves the man with M 94
loved to hear don M 94
loved the old dog M 94
loved me but had M 94
loved me and put M 94
loved it with that M 94
loved by her with M 94
loved by god can M 94
loses of its own M 94
loses in his own M 94
loose it for this M 94
loops if they are M 94
looks at you then M 94
looks at her boy M 94
looks at death with M 94
looks at all for M 94
looking on his dead M 94
longer to act thus M 94
logic of war has M 94
logic of how you M 94
logic of how things M 94
logic in doing this M 94
logic by its own M 94
local king who was M 94
loading of its own M 94
loves in that way M 93
looks to get his M 93
looking to his rear M 93
looking if you are M 93
lower or east end M 92
lower is death and M 92
loves to sit for M 92
loves to lead them M 92
loves the bow that M 92
loves me not and M 92
loves me far too M 92
loved to die for M 92
loved the way all M 92
loved the song that M 92
loved the ease with M 92
loved me for this M 92
loved in you was M 92
loved by you than M 92
loved by her new M 92
loved by any but M 92
lords to hear and M 92
loops is that you M 92
looks so odd and M 92
looks so easy for M 92
looks on with awe M 92
looks of things had M 92
looks at things all M 92
looking up now with M 92
looking to put his M 92
looking to put him M 92
looking at her saw M 92
looking at had not M 92
looking at for his M 92
longer in his job M 92
longer in any fear M 92
longer be one and M 92
longer be any man M 92
logic to try and M 92
logic of both his M 92
logic is far too M 92
locks of her two M 92
local or they may M 92
loathing of them for M 92
loathing of him was M 92
lower in one area M 91
looks at each man M 91
lower at each end M 90
loved us all too M 90
loved to run off M 90
loved of men and M 90
loved my god and M 90
loved me long and M 90
loved it and ate M 90
loved by that one M 90
looks up and can M 90
looks to his men M 90
looks the old man M 90
looks in that odd M 90
looks in his red M 90
looks he not for M 90
looks at this with M 90
looking up that she M 90
looking up now that M 90
looking to god who M 90
looking on can not M 90
looking on any one M 90
looking at with that M 90
looking at her rings M 90
looking at both with M 90
longer so near her M 90
longer on earth and M 90
longer it can not M 90
longer if you try M 90
longer as she may M 90
logic we can use M 90
logic to our own M 90
logic of use and M 90
logic of all his M 90
logic in this but M 90
lodge to see her M 90
locks of his with M 90
loathing of war was M 90
loathe to deal with M 90
loose as they may M 89
looks at and can M 89
longer to fix his M 89
longer at all fix M 89
loves of men for M 88
loves me but one M 88
loved to lie for M 88
loved the old way M 88
loved or not being M 88
loved me but they M 88
loved me but not M 88
loved by god was M 88
loses the one man M 88
loose to joy and M 88
loops of his own M 88
looks up and goes M 88
looks on but does M 88
looks in her long M 88
looks he goes his M 88
looks at both and M 88
looking up with sad M 88
looking to cut out M 88
looking to all its M 88
looking on and being M 88
looking at this act M 88
looking at its real M 88
looking at her can M 88
looking at and did M 88
longer to its own M 88
longer the big man M 88
longer of air but M 88
longer be men and M 88
local king who had M 88
loads so that each M 88
loads of two men M 88
loved as this man M 87
longer the one they M 87
longer the god who M 87
loves to run with M 86
loves to lay his M 86
loves is one with M 86
loved us and all M 86
loved the idea for M 86
loved it long ago M 86
loved by his dog M 86
loser in this new M 86
loser in this deal M 86
lords to hear his M 86
lords is not and M 86
looking to her and M 86
looking on one day M 86
looking at you who M 86
looking at who and M 86
looking at was too M 86
looking at this lot M 86
looking at them who M 86
looking at one way M 86
looking at one long M 86
looking at not one M 86
looking at his box M 86
looking at god with M 86
looking at dead men M 86
looking at and was M 86
longer the way for M 86
longer in them any M 86
longer in dying than M 86
longer do they fear M 86
longer an aim for M 86
logic to pay for M 86
logic of that idea M 86
logic is all too M 86
lodge to see how M 86
locks of her head M 86
loads on them are M 86
loads on any one M 86
loading is too low M 86
looking so near that M 85
loves the song and M 84
loves the son with M 84
loves the dead may M 84
loves of all things M 84
loves me not for M 84
loves it and you M 84
loved us long ago M 84
loved to see old M 84
loved to say with M 84
loved to lead him M 84
loved to hear men M 84
loved to get all M 84
loved to beat him M 84
loved the one with M 84
loved on earth may M 84
loved of him who M 84
loved of god than M 84
loved me for long M 84
loved by not being M 84
loved at all but M 84
looks to see men M 84
looks to east and M 84
looks so wet and M 84
looks so that she M 84
looks on men with M 84
looks in that way M 84
looks at his leg M 84
looks at and then M 84
looking to buy this M 84
looking to buy her M 84
looking on her for M 84
looking on for his M 84
looking at that had M 84
looking at max with M 84
looking at his age M 84
looking at him thus M 84
looking at each end M 84
looking at and yet M 84
looking at all six M 84
longer or does not M 84
longer be for them M 84
logic of one man M 84
lodge to his own M 84
loads of earth for M 84
loading it with its M 84
loses the things that M 83
looks at new and M 83
looks at his long M 83
looks at her man M 83
looking so that you M 83
lower up with her M 82
lower as you get M 82
loves to try out M 82
loves to try and M 82
loves to say his M 82
loved to see was M 82
loved to kid him M 82
loved so long was M 82
loved or that they M 82
loved on his own M 82
loved it and for M 82
lords we did not M 82
lords of war who M 82
lords is that you M 82
looks at his head M 82
looking to god all M 82
looking to buy any M 82
looking on you now M 82
looking on this sad M 82
looking my way but M 82
looking in that old M 82
looking in each one M 82
looking at thus far M 82
looking at this box M 82
looking at that kid M 82
looking at his dying M 82
logic of this act M 82
logic of that day M 82
logic of his poem M 82
logic in this was M 82
loads in this area M 82
looking at that head M 81
loves us and his M 80
loves to use weak M 80
loved the things they M 80
loved the man they M 80
loved the dead may M 80
loved my job but M 80
loved me for ten M 80
loved by them are M 80
loved by his two M 80
loser in all his M 80
lords of man and M 80
looks up and they M 80
looks so new that M 80
looks of this new M 80
looks at you his M 80
looks at how his M 80
looks at all with M 80
looking up with fear M 80
looking to this man M 80
looking to put you M 80
looking in but not M 80
looking at this bit M 80
looking at sin and M 80
looking at rings and M 80
looking at all who M 80
logic of his plea M 80
locks on its way M 80
local at all but M 80
loading us with new M 80
loading the one with M 80
logic of his being M 75
loose on one end M 74
loathe to say that M 73
looks of all who M 72
longer to fear being M 72
looks as she had M 71
longer do all that M 70
loose in that way M 68
looks at them that M 68
lower in any way M 66
longer to bear them M 66
longer so and that M 66
loose in its own M 65
loose by his own M 65
loathe to see them M 65
loading to see that M 62
lower in our own M 61
loose if you can M 60
looks he was not M 60
longer as you get M 60
lower the bow and M 59
loves the one that M 59
loading in and out M 59
loose to deal with M 58
looks of all that M 58
looking thing was doing M 58
looking at things one M 58
logic of this one M 58
loose on top and M 57
looks in old age M 57
looks as for her M 57
looking as they get M 57
longer by any one M 57
loathe to ask for M 57
loses the fear that M 56
loose so that air M 56
loose of her arm M 56
loose as she had M 56
looking to our rear M 56
looking in all his M 56
loathe to see him M 56
looking at his one M 55
looking as one who M 55
longer the war and M 55
longer do things that M 55
longer an idea that M 55
lower the mean and M 54
looking at his pet M 54
loathe to let them M 54
loading on and off M 54
loose on her head M 53
looks of them that M 53
looking in his long M 53
loose to all her M 52
loops so that each M 52
looks of things out M 52
loved in him that M 51
loose to all things M 51
looking at all but M 51
longer to get you M 51
longer to any one M 51
longer the war has M 51
logic of how one M 51
lower it and then M 50
longer we are out M 50
longer by one year M 50
longer be all that M 50
lodge in this area M 50
loose in its box M 49
looks if she had M 49
lodging in his eye M 49
locks up all his M 49
loose of them and M 48
looking as they can M 48
longer to pay him M 48
longer be one that M 48
lower the seat and M 47
lower in key and M 47
loves of her own M 47
looks as you are M 47
looks as they did M 47
longer the way she M 47
looks to get her M 46
looks at her one M 46
looks at east and M 46
looking thing she had M 46
looking at now that M 46
looking at him real M 46
looking as his own M 46
longer to see its M 46
longer so that his M 46
locks up and does M 46
loose on them for M 45
looks to man and M 45
looks to him that M 45
looks as they had M 45
looking as our own M 45
longer to ask you M 45
loose it does not M 44
looking so that they M 44
looking in his new M 44
looking as she sat M 44
longer to win than M 44
longer the kid who M 44
longer an easy one M 44
loathe to pay for M 44
loose the earth and M 43
looks in her own M 43
looks if you use M 43
looks at both men M 43
looking of all was M 43
looking at her set M 43
longer to fear death M 43
longer the one with M 43
longer if you cut M 43
logic of war that M 43
logic of our age M 43
lodging in this area M 43
loathe to use them M 43
loves to use our M 42
loose at them with M 42
loose at him with M 42
looks so that you M 42
looks of our own M 42
looks he can not M 42
looks as they saw M 42
looking in her day M 42
longer to die and M 42
longer the way that M 42
loves of all men M 41
loved by you that M 41
loose to let her M 41
loose so she can M 41
loose on her now M 41
loose in all this M 41
loops in that they M 41
looks to get him M 41
looks on her own M 41
longer to you and M 41
longer to use them M 41
lodging to all who M 41
lodge so that they M 41
lodge in his head M 41
loading so that they M 41
loves me all that M 40
loves in its own M 40
loved the job that M 40
loved my own dear M 40
loose on that one M 40
loose in him and M 40
loops in each end M 40
looks to this one M 40
looks as she sat M 40
looking of them was M 40
looking he was than M 40
looking at its top M 40
longer to let him M 40
longer to get one M 40
longer the men had M 40
longer the air gap M 40
longer on this one M 40
longer by day than M 40
longer at war but M 40
longer at them than M 40
logic of our day M 40
locks so you can M 40
longed to see her D 15900
loyal to him and D 14780
longed to see him D 13552
loyal to his own D 8676
longed to see his D 7698
lover of art and D 6892
lobes of his ears D 5973
lower in fat than D 5848
longed to see them D 5802
longed to see you D 5708
lobes of her ears D 5490
lower in fat and D 5368
loans to pay for D 4679
longed to get out D 4601
longed to ask him D 4366
lover of god and D 4225
lover of her own D 3794
lover of his own D 3636
loans to pay off D 3464
longed to cry out D 3280
loyal to god and D 3142
lover of all things D 2858
longed to see and D 2850
loyal to them and D 2632
longed to ask her D 2612
loyal to you and D 2586
longed to see this D 2440
lover of all that D 2399
loyal to his old D 2314
loyal to her and D 2292
loyal to its own D 2264
logging on and off D 2222
longed to hear her D 2210
loads of hay and D 2052
longed to hear him D 2010
longed to see that D 1990
loans to any one D 1793
logging in and out D 1749
longed to hear his D 1526
longed to get rid D 1519
loyal to her own D 1500
longed to put her D 1484
loans is that they D 1370
looking at gay and D 1314
loans so that they D 1298
loyal to him for D 1270
loyal to him than D 1260
longed to hear that D 1240
lowly in his own D 1203
longed to put his D 1152
lover of men and D 1150
loyal to his new D 1134
lover of law and D 1078
longed to see for D 1072
loyal to our own D 1014
looking at art and D 996
loads of fun and D 994
longed to say that D 993
looking at this guy D 966
lounging in and out D 908
loading of this bed D 896
loyal to his oath D 890
longed to see all D 885
lolling at his ease D 876
loins of them that D 836
loyal as she was D 832
longed to hear them D 818
lower the rod tip D 815
lover of his art D 807
loyal in his own D 750
lover of man and D 750
looking as neat and D 746
loyal to his god D 735
lobby on his way D 728
longed to see one D 727
longer be met with D 724
looking so thin and D 712
loans on its own D 708
lover is one who D 704
looking at her lap D 702
loyal to him but D 698
lover of all men D 693
longed to run her D 690
lover of ease and D 686
loose in her lap D 676
lover of art who D 672
looking so wan and D 672
loans if they are D 670
longed to hear for D 652
logos of god and D 640
loading the gun with D 639
lover of her sex D 632
lover in his own D 622
loyal to any one D 620
loans in this way D 618
loyal to his men D 612
longed to run his D 608
longed to hear you D 600
looking at his car D 592
longed to try his D 590
lounging at his ease D 584
loading the car with D 583
longings of his own D 580
longed to see how D 580
loyal to his son D 574
longer in bed than D 573
lover in her own D 568
longed to get his D 560
lover on his way D 556
lords of that fee D 554
looking to and fro D 553
lover of war and D 552
looks so thin and D 550
longed to see was D 536
longed to die and D 534
loans to its own D 534
loyal as you are D 530
loans to them and D 530
loves to nod and D 526
loved to sew and D 518
longed to ask for D 518
loads of fun for D 516
longed to lay his D 514
looking at tom with D 512
loyal to him had D 510
lowly of her own D 510
lower the car and D 510
lofty as they are D 510
looking at his toes D 506
looking as gay and D 498
longed to get her D 498
locus of all that D 494
lounging on her bed D 492
loans to them for D 487
longed to see with D 482
loyal to all that D 481
lover of them all D 480
lofty as his own D 480
looping in and out D 473
loons to aid him D 470
longed to lay her D 466
longed to hear and D 464
lover to his death D 460
lords it met with D 456
loyal as they are D 452
longed to run and D 452
loyal to both his D 450
loans in that year D 450
locus of its own D 446
loyal to him that D 443
loads of mud and D 438
longed to run out D 437
looks so neat and D 432
looking so neat and D 426
longed to see its D 424
longed to see god D 423
lowly in our own D 420
looking at his hat D 420
loyal to one and D 418
loans of its own D 416
loads of fun with D 416
loops in her ears D 414
loyal to you than D 412
loyal to all his D 412
lover of god who D 410
locking the car and D 408
loans in its own D 407
lover as she had D 406
looking at her toes D 406
longed to say yes D 404
longer the gay and D 401
loved to ski and D 400
longed to ask his D 400
loans as they are D 396
loved my dad and D 394
looking at his dad D 393
lower in tar and D 390
longed to put them D 386
loans in that they D 381
longed to ask you D 378
loyal to him was D 376
longed to see our D 376
longed to ask them D 368
logos of god was D 368
loyal to her for D 364
loyal as any man D 364
lover in bed with D 364
lounging to and fro D 364
locus of his own D 364
loans on his own D 364
longed to set his D 362
lobes of each lung D 362
loading the gun and D 362
longed to let him D 360
loyal to him who D 358
lolls at his ease D 358
lower the bed and D 357
loyal to him all D 356
lover of art can D 356
lofty as any that D 355
lover to his own D 354
lover of art for D 352
looking at his thin D 352
lounging on his bed D 350
lobes of both ears D 350
lover of this art D 349
longings of her own D 348
loans at six per D 346
loyal to her old D 344
logos of god who D 344
loyal to them than D 342
loyal to him with D 340
lobby on her way D 340
logging in this area D 338
loads of ice and D 338
loading of his gun D 334
looking at her ass D 333
loved the car and D 330
looks as neat and D 330
loyal to you for D 328
loyal to them both D 326
lower in tar than D 326
loved my mom and D 326
lover in her bed D 325
loyal to one man D 324
longed to bring them D 324
longer to wear out D 322
lover of old things D 320
longed to die for D 320
loyal to his art D 318
loads of dung per D 318
longed to let her D 310
lover in this way D 308
logos of god has D 308
lover of long ago D 307
loose in his lap D 307
lolling in his seat D 307
loads of hay for D 306
loyal to her son D 304
lover to see her D 302
longed to bring him D 302
loans to deal with D 302
loans in this area D 302
loose the ice that D 301
looming in her way D 298
looking at his gun D 298
longer be fed with D 298
looking at her thin D 296
loyal to her man D 295
loading the car and D 295
lover of fun and D 294
lover in all his D 294
lover of god can D 292
loans to new and D 292
loans on any one D 292
loans if you are D 291
longed to bring her D 288
longed to get off D 286
logic of his art D 284
loyal to her than D 282
lover as you are D 282
loans of one year D 282
loyal to them for D 280
looks at sex and D 280
locking in and out D 279
lover to see his D 278
longed to hit him D 278
lover so that she D 276
lover of song and D 276
longed to hear all D 276
loyal to his team D 274
longed to get him D 274
longed to win her D 272
lover in his old D 268
longed to see new D 266
longed to end his D 264
longed to hear how D 262
loads of ore and D 262
looking so gay and D 260
looking as wan and D 256
lower the fat and D 255
loyal to its old D 254
lover is dead and D 254
lover he was and D 254
lover in being near D 252
longed to sit and D 252
longed to ask why D 252
loose the two seas D 251
loved to wear them D 250
longings of men and D 250
longer an art but D 250
loyal to her new D 248
lover to her own D 248
lover in this poem D 248
loved the guy and D 248
loves it and doth D 247
lounging in his seat D 247
loved to wear his D 244
looking at tom and D 244
lounge in and out D 242
lounge at his ease D 240
looking up she met D 240
longed to hug him D 240
looking at her bed D 238
longed to get them D 238
loans in any one D 238
looking at her car D 236
longed to put out D 236
loves to sew and D 234
lover if she had D 234
lotion of lead and D 234
loans to buy new D 234
lowly as they are D 232
looms in his own D 231
lover to her bed D 230
lover of all his D 230
lobes to his ears D 229
lobes of one lung D 228
lover to use his D 226
looking at ads for D 226
longed to hug her D 226
loyal to pol pot D 224
longed to say for D 224
loins of our own D 224
loyal as they had D 222
looming up now and D 222
lower the gun and D 221
loyal to her dead D 220
longed to hear was D 220
loyal to this man D 218
looking at her mom D 218
looking at her dad D 218
longed to use his D 218
longed to try new D 218
longed to say she D 218
loans so they can D 217
lover as she was D 216
lotion to get rid D 216
loved as thou art D 214
lounge in this way D 214
loyal to his dead D 212
longed to sit with D 212
loans to low and D 212
loading the car for D 212
looking at his bed D 211
locks the car and D 210
looking at his art D 209
longer in his bed D 209
loyal to his vow D 208
loyal to him now D 208
lover of god has D 208
longed to set out D 208
longed to put this D 208
loyal to law and D 206
loans at any one D 206
lover he was not D 204
loved the lad too D 204
looking at that guy D 204
longed to ask but D 204
loyal to this idea D 202
lover to bear him D 202
looking at meg with D 202
looking at his lap D 202
lobby to see you D 202
looking at his shoe D 200
looking at art that D 200
longed to see but D 200
longer at its peak D 199
loyal to his idea D 198
loyal of all his D 198
lover of art than D 198
longed to see thee D 198
longed to ease her D 198
lover of art has D 196
looking so fat and D 196
looking at sex and D 196
longer be met and D 196
lobby of his own D 196
loans to pay old D 196
loyal to them all D 195
looks to art for D 194
looks at his dad D 194
lover of our old D 192
longed to bring his D 192
longed to ask how D 192
loads of hay that D 192
loyal to you not D 190
lover of wit and D 190
loved the art and D 190
lounge at one end D 190
looking at his lean D 190
longed to set them D 190
loading up his car D 190
lobby of its own D 188
lotus on his head D 187
loyal to his job D 186
loves to ski and D 186
lover of his ease D 186
lounging in his easy D 186
loose on his thin D 186
longer to wear off D 186
loans if they can D 186
loyal as his own D 184
looking at his cap D 184
lodge in any inn D 184
lobby on our way D 184
loans in his own D 183
loyal to her sex D 182
lover on her own D 182
looms of his own D 182
longed to put him D 182
loans to kings and D 182
longed to say and D 180
longed to lead his D 180
lobes of our ears D 180
loved the fun and D 178
lofty in aim and D 178
loyal in all his D 176
lover of this man D 176
looking at his mom D 176
looking at her hat D 176
locus of this new D 176
looks to thee for D 175
looks at tom and D 175
loyal to him are D 174
loans to get them D 174
loads to and fro D 174
loyal to our god D 172
lounging in bed with D 172
looking as fat and D 172
longer in her bed D 172
longed to set her D 172
longed to box his D 172
lofty or too low D 172
lolling on his bed D 171
looks at his hat D 170
loans in each year D 170
loads of hay are D 170
loyal in all things D 168
lorry on its way D 168
looking at art with D 168
longed to see each D 168
loyal to you all D 166
looking at her neat D 166
longed to beg him D 166
loans to pay its D 166
lower in fat but D 164
longer as oil and D 164
longed to use her D 164
longed to own one D 164
longed to hear this D 164
locking up and going D 164
loans in that area D 164
lover of war for D 162
lounge by day and D 162
lover is not one D 161
looks at art and D 161
loyal in all its D 160
longer in bed and D 160
lobby at this and D 160
lover is not dead D 158
lover as one who D 158
loved to hug and D 158
loans at two per D 158
loads of hay per D 158
loans to men who D 157
lower in both tar D 156
longed to try out D 156
logos of its own D 156
loans to his own D 156
loans is not tax D 156
loans if they had D 155
loyal to both her D 154
lover of his day D 154
longings of our own D 154
longed to lie with D 154
lobes in each lung D 154
loans is that you D 154
lover of art may D 152
lover if she has D 152
longed to read them D 152
loans to buy and D 152
looks at her mom D 151
loans to him and D 151
loses by wear and D 150
longed to say but D 150
looming in and out D 149
looks of lean and D 149
lover is with her D 148
loved the lad had D 148
looks or for wear D 148
looks at his mom D 148
looking to rip off D 148
looking at this car D 148
looking as thin and D 148
logic of art and D 148
locus of all his D 148
longer in his ears D 147
loyal to this new D 146
loyal to all her D 146
loyal of them all D 146
lower the lid and D 146
loins of one man D 146
loyal to his gang D 144
loved the lad for D 144
looking at his ears D 144
looking at eve with D 144
lover of our own D 142
lover he did not D 142
lover as they are D 142
looks so fat and D 142
looking at bob and D 142
locus of being and D 142
locking it with his D 142
lobby on his own D 142
loans to all who D 142
loads the gun and D 142
looking to thee for D 141
lounge on his way D 140
looks so gay and D 140
longed to tear off D 140
longed to say this D 140
loading the beam with D 140
longer in bed with D 139
longed to die that D 139
loyal to our old D 138
loved to sew for D 138
looking at our car D 138
loans as they can D 137
loading the van with D 137
loyal to that law D 136
lover of both men D 136
looks at her lap D 136
looking at mom and D 136
looking at his pen D 136
looking at his pad D 136
longed to hug and D 136
longed to die with D 136
locus of sin and D 136
logos in all its D 135
loves to hug and D 134
lover is not going D 134
longed to try her D 134
longed to ease his D 134
lolling in his easy D 134
logging in and using D 134
locus of all our D 134
loans as they did D 134
loans to pay his D 133
loads of hay out D 133
loyal to her but D 132
loosing on earth and D 132
longer in bed this D 132
longed to get this D 132
loads of ore are D 132
loads of oil and D 132
loading the gun for D 132
loyal to its god D 131
looking in her lap D 131
lover of any one D 130
longed to hear one D 130
longed to beg her D 130
lover of our dear D 129
loose on her thin D 129
loans to them are D 129
loyal to all its D 128
lover of men who D 128
louse in his own D 128
loose on its hinge D 128
looking at that gun D 128
lofty as was his D 128
locus of our own D 128
loads of fun doing D 128
loyal to both and D 126
loose tea per cup D 126
looking at his ass D 126
looking at art was D 126
longed to wear her D 126
longed to lead her D 126
longed to ask who D 126
lolling to and fro D 126
loans in one year D 126
looks of this guy D 125
loyal to its new D 124
lover to him who D 124
longed to mix with D 124
longed to hear but D 124
lodes of tin and D 124
loads of peat and D 124
loyal to him out D 123
loyal if they are D 122
lotus on her head D 122
lotion or oil and D 122
looking at her fan D 122
longings of man for D 122
lofty as her own D 122
locus in any way D 122
local to that bay D 122
loads of dung and D 122
loyal to his kin D 120
loyal to him they D 120
loved to wear her D 120
longed to tear him D 120
longed to run off D 120
longed to rub her D 120
longed to one day D 120
longed to beat her D 120
lolling at our ease D 120
lobby to ask for D 120
lobby on its own D 120
lover of our earth D 118
lover of god does D 118
longings in that way D 118
longed to tear her D 118
logging on and using D 118
loans do not get D 118
loads of hay can D 118
loads in his gun D 118
loading the van and D 118
loyal to you with D 116
loyal to her all D 116
lover to his dead D 116
lover to her and D 116
lover to death with D 116
lover so that they D 116
looks on thee with D 116
looks at mom and D 116
looking at dad and D 116
longings to see his D 116
longed to try them D 116
longed to set off D 116
longed to lead them D 116
loads of one ton D 116
lover of all god D 115
loyal as our own D 114
lover to let her D 114
lover is one with D 114
lotion is all that D 114
looks he met with D 114
looking at her shoe D 114
longed to win for D 114
logos in his own D 114
loans on real and D 114
loyal to all who D 112
lover of art but D 112
lover if she did D 112
lover he can not D 112
lounging in his bed D 112
looting the dead and D 112
looms of our own D 112
looks at bob and D 112
looking so lean and D 112
looking at pat and D 112
looking at his fat D 112
longer to get hot D 112
longed to set him D 112
longed so for you D 112
longed as she had D 112
locus of all things D 112
lobes so that they D 112
lobby to see who D 112
lobby to see him D 112
loading up her car D 112
loyal to them but D 110
lover on his own D 110
lover of two and D 110
lover of god may D 110
lover of earth and D 110
loved the old guy D 110
lording it with his D 110
looks of that guy D 110
looking so hot and D 110
looking at art for D 110
longed to see old D 110
longed to see men D 110
longed to see had D 110
longed to fling her D 110
longed so for her D 110
loggia at one end D 110
loans as they had D 110
longed to tear out D 109
longed to fly with D 109
lover so that you D 108
lover of art had D 108
lover is not yet D 108
loved to lean and D 108
looking at that car D 108
looking at his tie D 108
longed to try for D 108
longed to say all D 108
lofty as they may D 108
lobby to see her D 108
loans of his own D 108
loose to his zeal D 107
lobes of ice that D 107
lobby to see that D 107
lover or son was D 106
lover of old and D 106
lover in his bed D 106
loved to wear and D 106
loved the swing and D 106
lounging in his arm D 106
loops of hot gas D 106
looking at that fat D 106
longings of one who D 106
longed to bid him D 106
logos is not god D 106
logging so that you D 106
lodge at her inn D 106
loans to men and D 106
loans if you can D 106
lords of his bed D 105
locus is not yet D 105
loans to buy them D 105
loyal to them are D 104
loyal to god than D 104
lover of his god D 104
looming in his path D 104
looking up with tear D 104
longings to see her D 104
longed to try and D 104
longed to read his D 104
longed to lay him D 104
lobby to get her D 104
lobby as she was D 104
longed to say out D 102
longed to let them D 102
longed to lean her D 102
lobes of its ears D 102
loans to buy out D 102
loafing on his job D 102
loans at ten per D 101
loyal to this one D 100
loyal to men who D 100
loyal of all our D 100
lover of art was D 100
lover is her own D 100
loved the gay and D 100
looking at bad art D 100
loins of men and D 100
loans or for any D 100
loans on new and D 100
lover of her son D 99
looks at this guy D 99
lobby to say that D 99
loyal to him long D 98
lover to hear all D 98
lover of you and D 98
loved the lad and D 98
longed to say how D 98
lolling in bed with D 98
locus of any one D 98
locks of his wig D 98
lobby to get his D 98
loans as they may D 98
loads of hay had D 98
looms it can not D 97
locking the box and D 97
loyal to his two D 96
loves to say thou D 96
lover in any way D 96
lounge in his own D 96
looms up with its D 96
looks at his gun D 96
looks at dad and D 96
longings do but add D 96
longer be met out D 96
lodes of lead and D 96
locus of death and D 96
locking up all his D 96
locking in with our D 96
local sea and air D 96
loans so that you D 96
loyal to her god D 94
loyal to all our D 94
loved to swing and D 94
loose on her lap D 94
looks at kit with D 94
looks at his toes D 94
looks at his shoe D 94
looking at her art D 94
looking at ads and D 94
longed to tear them D 94
longed to say them D 94
longed to let his D 94
longed to lead him D 94
longed so for one D 94
locks of his gun D 94
loads of fur and D 94
loafing at his ease D 93
loyal to him not D 92
loyal in her own D 92
lower in raw than D 92
loves to dig and D 92
lover to death and D 92
loose to his pen D 92
loops of gut are D 92
looks at each row D 92
looking as hot and D 92
longed to use them D 92
longed to put all D 92
longed to ask was D 92
lofty in its aim D 92
locus of fear and D 92
loans to oil and D 92
loans or they may D 92
lowly in her own D 91
loyal to his long D 90
lover to deal with D 90
lover of one who D 90
lover of his old D 90
loved it and sang D 90
lounge on her way D 90
looking in his hat D 90
longed to see any D 90
longed to run but D 90
longed to read and D 90
lolling in bed and D 90
logos is one and D 90
lobes in man are D 90
loans to his son D 90
loans do not pay D 90
loans at one per D 90
lover is with his D 88
lover he was for D 88
loved to rub his D 88
loved to hit and D 88
lousy in bed and D 88
looks at her dad D 88
looking at art has D 88
longings in his own D 88
longed to bid her D 88
lolling of his head D 88
logos of god had D 88
lobby of his new D 88
lobby at each end D 88
loading of oil and D 88
lounging in his own D 87
loyal to any man D 86
loves the art and D 86
lover of her who D 86
lover of all who D 86
lover at all but D 86
lover as she did D 86
loved it with zeal D 86
longed to win him D 86
longed to end this D 86
lobby at one end D 86
loans it does not D 86
lower the oil pan D 85
lower by one per D 85
loose on one hinge D 85
lobby to try and D 85
loyal to you now D 84
loyal to two things D 84
loyal to this day D 84
loyal to his few D 84
lover to one who D 84
lover of man but D 84
lotion or bath oil D 84
looking in art for D 84
longed to say was D 84
longed to buy her D 84
loins of men who D 84
logos or son was D 84
lofty as are his D 84
loans or pay for D 84
lofty as that and D 83
lowly of this earth D 82
lounge to and fro D 82
lounge in her own D 82
looking in his ears D 82
longings by two things D 82
longed to put off D 82
lofty as you are D 82
loafs at his ease D 82
loading an ass with D 82
loyal to her who D 80
loyal to all things D 80
loyal in his way D 80
lover to see how D 80
lover or her son D 80
looms up big and D 80
looms in his ears D 80
looking at this art D 80
looking as lean and D 80
longings to see him D 80
lower the rod and D 70
logging in that area D 59
lower the tax and D 58
lover on his death D 54
loyal as any one D 53
loose on his lean D 53
lower the beam and D 52
lobby to get them D 52
lobby in his own D 52
lopping the head off D 51
lower in fat are D 49
longed to leap out D 49
logos of god that D 49
lower the top tax D 48
lower the jib and D 47
loops in his ears D 47
lover of god that D 45
looms so that they D 45
looking at that bed D 45
looting on his own D 44
logging on his own D 44
loyal to them that D 43
lower in both fat D 43
looks to and fro D 43
lofty as any one D 43
loans to our own D 43
lower the jaw and D 42
lounging in bed and D 42
lodge in bed with D 42
lower the fee for D 41
looking at her tear D 41
longed to ask that D 41
lolling in and out D 41
lobes as they are D 40
