if something is not M 47226
if indeed it was M 31050
if indeed he had M 17796
if neither of them M 13862
if indeed it can M 12598
if someone is not M 12262
if instead of being M 12063
if indeed it had M 11890
if indeed he was M 11608
if indeed it has M 10110
if indeed it does M 8652
if indeed he did M 7440
if relief is not M 7388
if afraid of being M 7226
if anyone is going M 6862
if indeed we are M 6766
if someone is going M 6648
if something is going M 6052
if instead of this M 5880
if indeed it did M 5670
if instead of using M 5638
if neither of you M 5518
if enough of them M 5329
if indeed he has M 5224
if indeed we can M 4780
if regard be had M 4537
if indeed at all M 4369
if unable to pay M 4248
if something of this M 4098
if prices do not M 4051
if pushed to its M 3897
if anyone in this M 3874
if fearful of being M 3500
if instead of one M 3366
if nature is not M 3148
if notice is not M 3092
if neither he nor M 3004
if readers do not M 2978
if anyone is not M 2956
if anyone of them M 2914
if answer is yes M 2902
if indeed it may M 2744
if anyone at all M 2726
if anyone of you M 2526
if traced to its M 2370
if someone is being M 2348
if bleeding is not M 2341
if something be not M 2270
if states do not M 2249
if existing at all M 2229
if pupils do not M 2224
if taught at all M 2171
if indeed he does M 2162
if indeed we may M 2108
if viewed in this M 2086
if instead of two M 2083
if unable to get M 2078
if judged by its M 2048
if demand is low M 2048
if someone is doing M 1978
if adults do not M 1978
if belief in god M 1977
if regard is had M 1968
if victim is not M 1928
if anxious to get M 1916
if someone is using M 1910
if demand is not M 1888
if before the end M 1882
if treated in this M 1878
if checking to see M 1854
if instead of that M 1840
if something is being M 1830
if indeed the two M 1820
if instead of going M 1756
if needed at all M 1681
if indeed he can M 1668
if anyone in his M 1654
if unable to bear M 1618
if something is too M 1600
if thought is not M 1591
if humans do not M 1580
if something in her M 1574
if whoever it was M 1556
if system it can M 1547
if someone is ill M 1536
if events do not M 1522
if memory is not M 1498
if reality is not M 1471
if access is not M 1446
if credit is not M 1424
if relief be not M 1417
if something is out M 1363
if something in his M 1332
if formed at all M 1318
if instead we had M 1306
if energy is not M 1300
if treated at all M 1297
if system it may M 1297
if matter is not M 1262
if before the war M 1256
if raised at all M 1252
if changed at all M 1234
if guilty of any M 1200
if training is not M 1179
if anyone in our M 1166
if someone is out M 1152
if someone is lying M 1142
if forced to pay M 1120
if something of that M 1112
if curious to see M 1110
if passed by both M 1108
if unable to read M 1102
if enough of you M 1087
if labour is not M 1074
if instead of doing M 1073
if virtue is not M 1042
if caution is not M 1038
if looked at with M 1034
if indeed we had M 1024
if before he had M 1013
if weight is not M 1008
if instead we use M 999
if judged by his M 998
if whether or not M 996
if afraid to let M 994
if toward the end M 957
if forced to use M 948
if anyone in that M 944
if someone in this M 942
if repair is not M 938
if remedy be not M 938
if thereby he can M 936
if someone in his M 932
if speech is not M 930
if someone in our M 926
if someone is too M 924
if readers of this M 924
if placed in any M 922
if gender is not M 916
if viewed in its M 906
if output is not M 904
if something do not M 896
if plants do not M 890
if nature be not M 884
if neither the one M 878
if agents do not M 860
if something in him M 838
if unable to use M 830
if placed at that M 828
if guilty at all M 822
if thereby we can M 818
if enough of this M 808
if indeed in any M 804
if passed in its M 798
if useful at all M 788
if placed on its M 780
if prayer is not M 769
if mothers do not M 764
if planning is not M 758
if placed in this M 754
if judges do not M 748
if anyone on earth M 748
if reached at all M 744
if placed in his M 716
if neither of his M 714
if unable to see M 712
if instead he had M 708
if changes in one M 702
if number is not M 700
if damage is not M 700
if anyone in her M 698
if afraid of her M 696
if judged by this M 694
if engaged in with M 685
if called on for M 678
if anyone is ill M 664
if already he had M 654
if stress is not M 648
if something is real M 640
if already in its M 638
if neither of two M 636
if placed in one M 626
if something is bad M 624
if nobody is going M 622
if disease is not M 620
if school is not M 614
if changes do not M 612
if signal is then M 611
if credit is due M 609
if broken at all M 594
if through the use M 586
if client is not M 578
if engaged in any M 576
if already we are M 576
if needed to get M 572
if groups do not M 570
if safety is not M 568
if relating to any M 566
if unsure of his M 564
if someone is with M 560
if owners do not M 560
if caught in one M 560
if access to them M 560
if afraid of his M 550
if placed in that M 548
if noticing it for M 548
if actors do not M 548
if another is not M 544
if resort is had M 542
if profit is not M 542
if injury or death M 542
if copies of all M 538
if changes of this M 536
if someone in that M 530
if indeed we did M 528
if something he had M 526
if desire is not M 524
if signed by all M 520
if genius is not M 520
if credit be due M 516
if spoken at all M 514
if something in this M 510
if someone is dying M 510
if reasoning it may M 503
if anyone on this M 502
if access to this M 498
if marked at all M 497
if belonging to any M 496
if anyone is being M 496
if virtue be not M 494
if nature be thus M 492
if guests do not M 492
if placed in its M 490
if anyone at that M 488
if afraid he had M 484
if indeed the man M 482
if united in one M 480
if served at all M 480
if anyone is out M 477
if caught in its M 476
if indeed he may M 474
if solved at all M 472
if needed to bring M 468
if signed by him M 466
if judged by any M 466
if anxious to see M 466
if before the day M 464
if passed at all M 462
if indeed of any M 460
if signed by any M 458
if creation is not M 456
if something is red M 454
if signed by two M 452
if sampling is not M 452
if before he was M 450
if greeting an old M 448
if passed by two M 440
if judged by our M 440
if instead of all M 438
if belonging to one M 438
if placed on top M 436
if neither we nor M 434
if escape is not M 434
if devoid of any M 430
if someone is dead M 426
if ladies be but M 426
if errors in this M 424
if enough of his M 424
if energy is being M 424
if through the air M 418
if demand is weak M 417
if something is new M 416
if learned at all M 416
if instead we are M 416
if someone do not M 414
if instead of his M 413
if supply is not M 412
if before it was M 412
if served on him M 410
if afraid to hear M 410
if effort is not M 408
if proved at all M 404
if afraid to say M 404
if indeed to any M 402
if afraid of its M 402
if stated at all M 401
if wisdom is not M 400
if thereby he may M 400
if anyone at this M 400
if neither it nor M 398
if unsure of her M 394
if realizing he was M 394
if unable to sit M 392
if pointing the way M 392
if earlier he had M 392
if belief is not M 392
if appealing to him M 392
if neither or both M 390
if authors do not M 390
if afraid he was M 390
if placed on his M 388
if unsure of how M 386
if signed by one M 386
if second at all M 386
if errors of this M 384
if something of his M 380
if anyone is doing M 378
if result is not M 376
if anyone is using M 376
if taught to our M 374
if anyone in any M 374
if almost no one M 373
if reform is not M 372
if gained at all M 372
if fearful of his M 372
if indeed the law M 370
if forced to deal M 370
if likely to run M 368
if enough of its M 368
if anyone is too M 368
if something is put M 366
if someone in her M 366
if matter be not M 366
if indeed he and M 366
if something in our M 362
if planning to use M 362
if fathers do not M 362
if enough of our M 358
if babies do not M 352
if forced to act M 350
if sampling is with M 348
if prices of all M 338
if turned on its M 334
if stated in this M 334
if instead of our M 334
if values do not M 333
if needed so that M 333
if issued at all M 332
if praise be due M 331
if before it has M 330
if sought at all M 328
if enough is not M 328
if anyone of our M 328
if afraid to see M 326
if unsure of its M 324
if engaged in war M 323
if instead it was M 322
if murder it was M 320
if indeed the idea M 318
if picked up and M 316
if placed so that M 315
if duties of any M 312
if thereby we may M 308
if output is low M 308
if cities do not M 308
if reality is one M 306
if mention is not M 306
if amazed at this M 306
if afraid of him M 306
if someone in one M 304
if nobody at all M 304
if amused by his M 304
if watching to see M 302
if something is easy M 302
if asleep or dead M 302
if instead it had M 296
if before it had M 296
if advice is not M 292
if person is not M 290
if anyone at any M 290
if strength is not M 286
if reached or not M 284
if appealing to her M 284
if anyone is with M 284
if another of them M 284
if virtue is its M 282
if unable to log M 282
if choice is not M 282
if anyone or any M 280
if amused by her M 280
if indeed the new M 278
if through the eye M 277
if indeed he saw M 276
if copies of this M 276
if already in his M 276
if pleased to see M 274
if placed at any M 274
if masses of men M 274
if forced to sit M 274
if actions do not M 274
if trauma is not M 272
if amazed at his M 272
if volume is not M 270
if tested by this M 268
if someone is mean M 267
if resort be had M 266
if nature is one M 264
if shared by all M 262
if nature in her M 262
if clothes do not M 262
if viewed in that M 260
if looked at too M 260
if little of this M 260
if bleeding is due M 260
if anyone of his M 260
if another of his M 258
if nature is all M 257
if something of her M 256
if someone is sad M 256
if travel is not M 254
if thereby it can M 254
if design is not M 254
if liquid is not M 253
if unable to bring M 252
if severe it may M 252
if needed to pay M 252
if battle it can M 252
if something is due M 250
if passed by them M 250
if looked at long M 250
if played at all M 248
if demand is too M 248
if changes in its M 248
if anyone on that M 248
if fitted to each M 246
if backed up with M 246
if standing on its M 244
if opened at all M 244
if injury is not M 244
if filled at all M 244
if anxious to hear M 244
if stored in this M 242
if sample is not M 242
if raised by any M 242
if caught in this M 242
if broken up and M 242
if access to and M 242
if noticing me for M 240
if indeed in this M 240
if already it had M 240
if realizing he had M 238
if guided by his M 238
if forced to say M 238
if indeed by this M 236
if grants of this M 236
if guided by one M 235
if matter is all M 234
if indeed he yet M 234
if forced to fly M 234
if caution be not M 234
if something is both M 232
if common to all M 232
if emotion is not M 230
if reasoning it can M 228
if profit be his M 226
if judged at all M 226
if issued by him M 226
if insane at all M 224
if formed of two M 224
if belief in its M 224
if asleep on his M 224
if system is not M 222
if standing up for M 222
if spoken by one M 222
if indeed the one M 222
if indeed by any M 222
if called by his M 220
if stored in air M 219
if unable to hear M 218
if something is one M 217
if nature in its M 216
if groups of men M 216
if breeding is not M 216
if appealing to them M 216
if volume is low M 214
if united by one M 214
if treated in its M 214
if someone of his M 214
if someone at that M 214
if caused by any M 214
if stored at low M 212
if nature be too M 212
if intent is not M 212
if guided by this M 212
if caught in any M 212
if placed on one M 211
if nobody do not M 210
if instead of its M 210
if deemed by him M 210
if choice of law M 210
if unable to say M 208
if filled up with M 208
if engaged in for M 208
if energy is put M 208
if changes in this M 208
if thereby we are M 206
if devoid of all M 206
if called by any M 206
if active at all M 206
if unable to fly M 204
if something in that M 204
if instead of air M 204
if filled in with M 204
if caused by his M 204
if access of air M 204
if purged of its M 202
if placed at this M 202
if nature is god M 202
if forced to run M 200
if second to any M 198
if release is not M 198
if family is not M 198
if already in use M 198
if signed by six M 197
if twenty of them M 196
if thought in its M 196
if spared to see M 196
if fiction is not M 196
if broken in two M 196
if bright or dim M 196
if passed by that M 194
if notice of any M 194
if fitted up and M 194
if before he has M 194
if afraid to get M 194
if stress is too M 192
if something in them M 192
if replying to his M 192
if orders do not M 192
if formed of one M 192
if clouds do not M 192
if something of its M 190
if hidden in our M 190
if through it all M 188
if intake is not M 188
if neither the law M 186
if appealing to all M 186
if before the death M 184
if someone is bad M 182
if ground is not M 182
if anyone on his M 182
if tested by its M 180
if pulled by one M 180
if inlaid on its M 180
if prices in one M 178
if indeed at any M 178
if common to both M 178
if already he was M 178
if fought at all M 176
if fighting it can M 176
if without the aid M 174
if buried at all M 174
if access to that M 174
if unable to earn M 172
if thereby we mean M 172
if buried in his M 172
if thereby he had M 170
if neither the war M 170
if praise is not M 168
if issues do not M 168
if anyone in all M 168
if nature is our M 166
if claims in that M 166
if answer to any M 166
if something is off M 164
if doomed to add M 164
if appealing to his M 164
if anxious to put M 164
if signed by both M 162
if placed in her M 162
if before the law M 162
if arriving by air M 162
if anyone is near M 162
if rulers do not M 160
if object is not M 160
if forced to bear M 160
if fearful of doing M 160
if caught in mid M 160
if called by its M 160
if taught to read M 158
if raised in any M 158
if proved by two M 158
if passion is not M 158
if buried in earth M 158
if anyone of that M 158
if something in you M 156
if return is not M 156
if judged by that M 156
if instead of thus M 156
if indeed the old M 156
if indeed the end M 156
if viewed in one M 154
if treated as one M 154
if spoken by any M 154
if issued by any M 154
if forced to let M 154
if earlier it was M 154
if rumour be not M 152
if neither is set M 152
if intent on doing M 152
if chance it was M 152
if viewed as one M 151
if indeed the dead M 151
if standing in his M 150
if someone on his M 150
if second to that M 150
if indeed at this M 150
if devoid of this M 150
if called of god M 150
if thought it may M 148
if printing is not M 148
if laughing at his M 148
if changes in our M 148
if caught at all M 148
if before we had M 148
if agreed to and M 148
if afraid of them M 146
if fallen in with M 145
if taught in this M 144
if resort to war M 144
if instead of her M 144
if chosen at all M 144
if agreed by both M 144
if afraid to ask M 144
if wisdom in god M 142
if colour is not M 142
if before the age M 142
if created at all M 141
if worked at all M 140
if unable to let M 140
if needed at any M 140
if denied the use M 140
if cleared of its M 140
if chosen by lot M 140
if anyone of any M 140
if wanted at all M 139
if matter is real M 139
if united to him M 138
if relied on too M 138
if anyone is god M 138
if placed on end M 137
if school it can M 136
if needed to aid M 136
if murder is not M 136
if looked at for M 136
if instead of ten M 136
if amused at his M 136
if wanted it may M 134
if spirit is not M 134
if realizing it for M 134
if placed in air M 134
if periods do not M 134
if needed to fit M 134
if caught by one M 134
if called by god M 134
if pushed to that M 132
if proofs of this M 132
if pardon is not M 132
if number is odd M 132
if notice of this M 132
if nobody is not M 132
if neither the old M 132
if instead of them M 132
if enjoying the sun M 132
if caught at this M 132
if called to act M 132
if bought by our M 132
if already it has M 132
if already at that M 132
if afraid of going M 132
if spoken by god M 130
if secure of all M 130
if secure in his M 130
if proper at all M 130
if merely by way M 130
if jealous of his M 130
if jealous of her M 130
if indeed in our M 130
if better at all M 130
if belonging to him M 130
if battle it may M 130
if anxious to cut M 130
if vested in him M 128
if unable to run M 128
if secure of his M 128
if praise is for M 128
if placed on any M 128
if indeed it goes M 128
if ground up and M 128
if further we ask M 128
if engaged at all M 128
if called at all M 128
if actions of this M 128
if abuses be not M 128
if without it you M 126
if whilst we are M 126
if placed on that M 126
if neither of its M 126
if instead of six M 126
if forced to buy M 126
if called up for M 126
if amused at her M 126
if tested at all M 125
if virtue in men M 124
if unable to put M 124
if spoken by him M 124
if purity is not M 124
if placed at his M 124
if notice be not M 124
if laughing at her M 124
if jealous of its M 124
if indeed to them M 124
if indeed he read M 124
if images do not M 124
if coercion is not M 124
if caught in his M 124
if anyone in new M 124
if through me you M 122
if standing on his M 122
if standing in that M 122
if something is big M 122
if placed at one M 122
if passion it can M 122
if ladies do not M 122
if instead we see M 122
if instead of dying M 122
if effect is not M 122
if called to his M 122
if amazed to see M 122
if through the act M 120
if taught of god M 120
if studying the way M 120
if nature do not M 120
if matching is not M 120
if indeed so far M 120
if standing on one M 119
if viewed in all M 118
if united at all M 118
if spoken to and M 118
if something is now M 118
if simple in hue M 118
if resort is not M 118
if memory is low M 118
if judged on its M 118
if instead of each M 118
if fearful of any M 118
if caught in that M 118
if angered at being M 118
if already at this M 118
if taught in its M 116
if stored in dry M 116
if something of him M 116
if someone is shy M 116
if reaction is not M 116
if needed by using M 116
if laughing at him M 116
if bright the sun M 116
if access to all M 116
if treated in any M 114
if through it they M 114
if spoken by his M 114
if served in any M 114
if reality be not M 114
if pieces of meat M 114
if notice of that M 114
if lifted up with M 114
if issued in any M 114
if instead we try M 114
if instead we ask M 114
if heeded at all M 114
if faults at all M 114
if edited at all M 114
if belief in our M 114
if another of her M 114
if without it they M 112
if virtue be too M 112
if twenty of you M 112
if thought it can M 112
if spared so long M 112
if shared by both M 112
if searching the air M 112
if reality is too M 112
if plenty of air M 112
if pleased at his M 112
if guided by her M 112
if checks of this M 112
if afraid of not M 112
if voiced at all M 110
if unable to act M 110
if standing on end M 110
if searching in his M 110
if resort to him M 110
if realizing it was M 110
if placed in too M 110
if placed in our M 110
if ingested by man M 110
if forced to put M 110
if detail is not M 110
if bodies do not M 110
if anxious to say M 110
if already in that M 110
if afraid of each M 110
if severe it can M 108
if report is not M 108
if regard is not M 108
if praise it may M 108
if mourning the death M 108
if lifted up and M 108
if hashed up for M 108
if forced to read M 108
if called in for M 108
if anyone of this M 108
if worked up with M 106
if resort to them M 106
if placed on this M 106
if models of this M 106
if instead the two M 106
if indeed the poem M 106
if broken at one M 106
if anyone do not M 106
if afraid to put M 106
if before the sun M 105
if vested at all M 104
if spoken to him M 104
if something be set M 104
if searching the sky M 104
if report be not M 104
if relied on for M 104
if quoted at all M 104
if pleased by her M 104
if placed at its M 104
if needed at this M 104
if merely to say M 104
if instead he has M 104
if forced by his M 104
if fearful of its M 104
if errors he did M 104
if eleven of them M 104
if stated in its M 102
if pushed as far M 102
if greater at all M 102
if fighting is not M 102
if created by god M 102
if chance is not M 102
if belonging to two M 102
if belief in them M 102
if appearing at all M 102
if another thing with M 102
if amazed at her M 102
if access to one M 102
if washed in with M 100
if twelve of them M 100
if sought in this M 100
if rooted to his M 100
if riches do not M 100
if output is being M 100
if needed to see M 100
if nature to her M 100
if indeed we get M 100
if indeed the act M 100
if indeed in that M 100
if disease or age M 100
if deciding it was M 100
if clause is not M 100
if caught by them M 100
if catching up with M 100
if called to see M 100
if afraid it was M 100
if access to its M 100
if taught by one M 98
if someone is mad M 98
if pushed to any M 98
if pleased by his M 98
if picked up for M 98
if output is too M 98
if neither of her M 98
if instead of god M 98
if indeed the day M 98
if excess of air M 98
if doomed to die M 98
if anyone in one M 98
if already in her M 98
if through my own M 97
if wisdom be not M 96
if viewed in any M 96
if vested in them M 96
if stored in too M 96
if someone is eating M 96
if reasons do not M 96
if passed on any M 96
if parent is not M 96
if neither the man M 96
if nature in this M 96
if instead we say M 96
if instead of red M 96
if errors do not M 96
if deemed by them M 96
if debate it can M 96
if caused by its M 96
if bought at all M 96
if another of our M 96
if afraid of this M 96
if vested in one M 94
if unable to buy M 94
if through an act M 94
if spirit is all M 94
if something he did M 94
if someone of that M 94
if served up with M 94
if peopled at all M 94
if nobody is using M 94
if killed in any M 94
if called by her M 94
if amazed by her M 94
if values of all M 92
if spoken in his M 92
if something of real M 92
if raised in our M 92
if offering it for M 92
if needed in any M 92
if nature is now M 92
if issued at that M 92
if intake is low M 92
if fearful of her M 92
if fearful he was M 92
if before my death M 92
if anyone on our M 92
if another be apt M 92
if agreed by all M 92
if guilty of that M 91
if training is too M 90
if stores do not M 90
if something is odd M 90
if something is god M 90
if shared by two M 90
if obvious to him M 90
if little of its M 90
if indeed in his M 90
if indeed he got M 90
if amazed by his M 90
if almost it had M 90
if indeed the earth M 89
if studying it for M 88
if something in its M 88
if matter so low M 88
if lighting is not M 88
if lawful it may M 88
if guilty of all M 88
if further we are M 88
if forced on them M 88
if exists at all M 88
if events of this M 88
if enough do not M 88
if checking it for M 88
if bleeding is too M 88
if belonging to this M 88
if belonging to his M 88
if ascent is too M 88
if appealing to that M 88
if already it was M 88
if chance be that M 87
if without in any M 86
if treated by any M 86
if training is being M 86
if thought be not M 86
if standing it may M 86
if judged by her M 86
if issued by one M 86
if instead we can M 86
if indeed so long M 86
if glancing at his M 86
if forced to this M 86
if forced to lie M 86
if changes in them M 86
if already we had M 86
if virtue it can M 84
if turned on and M 84
if turned in for M 84
if through the long M 84
if someone is old M 84
if someone he had M 84
if reform of this M 84
if plants of this M 84
if nature is thus M 84
if little of his M 84
if listed at all M 84
if instead of eating M 84
if handed to him M 84
if forces do not M 84
if forced to see M 84
if forced by her M 84
if credit be not M 84
if chosen by both M 84
if changes in both M 84
if changes in any M 84
if building is not M 84
if learned in one M 83
if damage to one M 83
if unable to win M 82
if talent is not M 82
if stored at too M 82
if something is doing M 82
if school it may M 82
if replying to her M 82
if raised to its M 82
if nobody in this M 82
if neither he did M 82
if effort is put M 82
if choice is real M 82
if chance he hear M 82
if anyone is for M 82
if anxious to leap M 82
if animal is not M 82
if backed by all M 81
if thereby it was M 80
if something is eating M 80
if repeating it can M 80
if relief do not M 80
if prayer be not M 80
if pleased by this M 80
if played in its M 80
if neither king nor M 80
if needed it can M 80
if measuring me for M 80
if ingested in any M 80
if honour it was M 80
if hermit we may M 80
if crimes of this M 80
if afraid to try M 80
if someone is near M 60
if something is that M 54
if caused by one M 50
if beside the dead M 41
if something in one M 40
if indeed no one M 40
if buried in air M 40
if oxygen is not D 2956
if therapy is not D 1779
if leaders do not D 1598
if income is not D 1505
if nurses do not D 1260
if voters do not D 1150
if buyers do not D 976
if vomiting is not D 956
if courts do not D 896
if nations do not D 858
if theology is not D 802
if manure is not D 798
if policy is not D 752
if dinner is not D 738
if target is not D 722
if parity is not D 646
if sniffing the air D 573
if blacks do not D 552
if bereft of his D 552
if formed by art D 544
if police do not D 532
if morale is low D 516
if assent to that D 516
if oxygen is being D 514
if courts of law D 498
if batter is too D 492
if lesions do not D 464
if whites do not D 458
if plaque is not D 456
if yonder be not D 454
if exulting in its D 448
if tension is not D 446
if striving to get D 444
if cancer is not D 432
if dosage is not D 410
if diarrhea is not D 402
if settling in for D 390
if floating on air D 386
if suction is not D 370
if hamlet is not D 362
if income is low D 361
if tenant in fee D 356
if racism is not D 344
if status is not D 338
if erosion is not D 338
if pleaded at all D 317
if someone is gay D 314
if coffee is not D 312
if jurors do not D 310
if arriving by car D 308
if swelling is not D 298
if chopping up his D 294
if liquor is not D 292
if tissue is not D 290
if budget is not D 290
if copper is not D 286
if vacuum is not D 278
if silver is not D 276
if striving to see D 274
if painting is not D 274
if orgasm is not D 272
if needed to thin D 272
if something is hot D 270
if sodium is not D 267
if donors do not D 264
if unable to tear D 254
if johnny is not D 254
if oxygen be not D 252
if struck by his D 248
if floating in air D 246
if spending is not D 244
if someone is hit D 244
if robbed of its D 244
if blocking is not D 242
if flight is not D 240
if leakage is not D 238
if cooked at all D 234
if damage or wear D 233
if sputum is not D 230
if struck by this D 228
if silica is not D 226
if height is not D 224
if bereft of her D 224
if butter is not D 222
if supper is not D 220
if squire is not D 220
if juries do not D 220
if ammonia is not D 218
if turkey is not D 212
if standing on tip D 212
if shaken up with D 210
if timber is cut D 208
if therapy is going D 206
if spelling is not D 206
if packed in ice D 206
if screaming to him D 204
if realism is not D 204
if struck by one D 202
if plasma is not D 202
if drinking is not D 202
if driven to that D 196
if bereft of all D 196
if studying the art D 194
if cotton is not D 194
if ammonia is then D 192
if satire it was D 185
if shopping is not D 184
if signal is fed D 183
if stocks do not D 182
if indeed ye are D 178
if frozen to his D 178
if levied at all D 174
if turned to ice D 172
if rivals do not D 168
if shaken by any D 166
if driven by his D 164
if frozen in mid D 163
if frosting is too D 162
if exulting in his D 162
if extant at all D 162
if robbed of his D 160
if solver is not D 158
if silage is fed D 158
if refusing the bag D 158
if frozen in her D 158
if equity is not D 154
if arriving by bus D 154
if striving to read D 152
if refusing to let D 150
if dipped in oil D 150
if tension is too D 148
if infant is not D 148
if frozen to death D 148
if frozen in his D 148
if spouse is not D 146
if bereft of its D 146
if nailed to his D 144
if driven to its D 144
if carved in old D 144
if policy it can D 143
if scenting the air D 142
if nature or art D 142
if wearied by his D 138
if washed in hot D 138
if unload me end D 138
if foiled in this D 138
if starch is not D 134
if policy it was D 132
if parity is odd D 132
if misled by zeal D 132
if suited to his D 130
if seafood is not D 130
if soaked in oil D 128
if carved in oak D 128
if yonder is not D 126
if weighing in his D 126
if traces of this D 126
if policy it may D 126
if linked up with D 126
if sepsis is not D 124
if energy is fed D 124
if beyond the seas D 124
if hurrying to bring D 120
if gambling is not D 120
if dozens of them D 120
if calico is not D 118
if biology is not D 118
if placed on ice D 116
if packed in oil D 116
if driven to war D 116
if oxygen or air D 114
if marching or lying D 114
if inviting the men D 114
if driven to bay D 114
if roused by her D 112
if forced to wear D 112
if dipped in ink D 112
if cashed in with D 112
if beyond the ken D 112
if struck by her D 110
if numbed in her D 108
if fabric is not D 108
if stared at long D 107
if placed in hot D 107
if struck by them D 106
if hurrying to get D 106
if frozen in that D 106
if traces of two D 104
if drinking to its D 104
if crofts is going D 104
if brushing is not D 104
if glorying in its D 102
if silage is not D 100
if heresy is not D 100
if cooked in any D 100
if soaked in hot D 98
if moored by her D 98
if french is not D 98
if debating in his D 98
if cooked in this D 98
if bitten by one D 98
if struck at all D 96
if prices of raw D 96
if pieces of ice D 96
if oilier is not D 96
if mortar is not D 96
if horses do not D 96
if ghosts be one D 96
if frozen in its D 96
if tenure is not D 94
if takeoff is not D 94
if sludge is not D 94
if frozen to ice D 94
if device is not D 94
if clothed at all D 94
if robbed of her D 92
if review is not D 92
if reflux is not D 92
if pleaded in bar D 92
if nailed to her D 92
if driven by fear D 92
if crowding in for D 92
if salary is not D 90
if pollen is not D 90
if opinion is not D 90
if boards do not D 90
if traces of that D 88
if timber is not D 88
if shamed by her D 88
if painting in its D 88
if graven in has D 88
if dubious of his D 88
if curved at all D 88
if changes in tax D 88
if bidder is not D 88
if snakes do not D 86
if sewage is not D 86
if dealers do not D 86
if watering is not D 84
if thieves do not D 84
if struck on one D 84
if shaken to bring D 84
if coughing is not D 84
if shouting to you D 82
if oxygen is then D 82
if levels do not D 82
if hypoxia is not D 82
if troops do not D 80
if therapy is being D 80
if roused to its D 80
if packed in wet D 80
if indeed the ice D 80
if elites do not D 80
if cattle do not D 80
