if it is true M 638105
if it be true M 327508
if it is only M 224794
if on the other M 209242
if it is used M 149330
if it be said M 137118
if at the time M 126558
if it is done M 118592
if it is made M 113943
if at the same M 107061
if we go back M 91107
if it is more M 80914
if he is able M 78390
if it is your M 68954
if it is less M 67892
if it be only M 66772
if it is said M 61730
if it is clear M 59112
if it is very M 55521
if it is just M 54405
if it is good M 53056
if it is ever M 52874
if it is well M 49554
if it is also M 49130
if it is left M 40862
if it is worth M 39370
if it is held M 39292
if it is seen M 38396
if in the case M 35765
if it is kept M 35574
if it is wrong M 34936
if it is part M 30533
if in no other M 30267
if the king were M 29588
if it is felt M 27366
if he is wise M 27318
if he is only M 26872
if it is able M 26266
if it is meant M 26106
if it be your M 26104
if it be made M 25148
if it is hard M 25040
if it is safe M 24942
if it is there M 24076
if in the past M 23516
if it be done M 21284
if it is from M 20781
if we go into M 20464
if he is ever M 20004
if it be well M 19741
if we do nothing M 19707
if in the same M 19649
if the thing were M 19254
if he so much M 18913
if it is such M 18320
if we do have M 17788
if he is also M 17736
if he is well M 17666
if he is very M 17172
if it is even M 16919
if it be such M 15388
if it is free M 15208
if so to what M 15187
if it be good M 15142
if it is high M 14938
if in the last M 14863
if it is open M 14680
if he is told M 14656
if so in what M 14596
if he is there M 14564
if he is good M 14556
if it is their M 14452
if it is lost M 14306
if it is what M 14176
if it be held M 13963
if he is wrong M 13652
if it is cold M 12866
if it is once M 12646
if it be meant M 12496
if he is left M 12288
if we go down M 12281
if it is over M 11916
if by no means M 11793
if he is made M 11741
if he is trying M 11694
if it is nothing M 11593
if it is much M 11408
if he is more M 11157
if on no other M 11115
if it is moving M 10874
if he is poor M 10804
if in the next M 10726
if it is fair M 10374
if it is like M 10304
if it be once M 10106
if we do find M 10098
if he is ready M 10070
if it is zero M 9960
if it be more M 9912
if he is just M 9733
if we do what M 9492
if it be worth M 9300
if it is some M 9270
if in the early M 9022
if it be very M 9003
if it is time M 8994
if the king will M 8986
if of the same M 8923
if he is free M 8818
if it be used M 8706
if he is living M 8584
if he be able M 8470
if so it must M 8248
if he is rich M 8232
if he is your M 8076
if he is born M 8068
if it is sent M 8044
if he is sure M 7976
if it is full M 7966
if by the time M 7882
if in the form M 7703
if he is sick M 7682
if he be wise M 7544
if at the last M 7498
if by the term M 7497
if he is here M 7444
if it be just M 7418
if it is wise M 7402
if it be kept M 7370
if it be left M 7306
if it is fine M 7202
if at the date M 7110
if it be from M 7014
if he is making M 6976
if it be wrong M 6876
if it is ready M 6814
if it be less M 6632
if it is self M 6572
if it is dark M 6530
if he is like M 6432
if at the very M 6348
if so it will M 6308
if he is angry M 6262
if he is young M 6240
if we go over M 6185
if by no other M 6185
if it is best M 6100
if he is seen M 6004
if it in fact M 5984
if he is less M 5915
if it is warm M 5902
if by the word M 5902
if he is worth M 5848
if we do make M 5844
if to be sure M 5757
if in the very M 5690
if on the same M 5672
if he is having M 5630
if he is acting M 5575
if he is kept M 5543
if in the face M 5535
if it is laid M 5531
if to the left M 5480
if he is such M 5460
if we do take M 5390
if we go from M 5348
if it is coming M 5322
if it is late M 5275
if it be ever M 5245
if it be also M 5202
if it is pure M 5166
if we go there M 5124
if he is sent M 5058
if it is born M 5024
if he is from M 5008
if we go ahead M 4996
if on the date M 4979
if he is coming M 4966
if we go along M 4924
if so at what M 4919
if we do know M 4850
if he is taking M 4796
if he in fact M 4792
if he is over M 4712
if on the left M 4568
if he is true M 4536
if it be their M 4522
if it is worn M 4496
if in the time M 4454
if it is soft M 4360
if he be only M 4333
if it is tied M 4306
if in the name M 4285
if he is held M 4260
if by the hand M 4239
if he is saying M 4180
if to be used M 4089
if it is clean M 4062
if so on what M 4061
if we so wish M 4024
if he be poor M 3930
if on the side M 3917
if it is slow M 3874
if we do well M 3870
if it is heavy M 3870
if he is dealing M 3834
if he is what M 3828
if it is bent M 3816
if we do these M 3764
if it is other M 3736
if we do meet M 3722
if it is heard M 3720
if it is deep M 3686
if he be well M 3667
if in the other M 3658
if it be laid M 3630
if it be nothing M 3580
if it be hard M 3575
if in the third M 3519
if it be clear M 3516
if by the same M 3490
if he is even M 3440
if in the days M 3432
if in the most M 3431
if it is eaten M 3394
if it be what M 3370
if he be rich M 3354
if so it were M 3324
if in the eyes M 3322
if it is early M 3310
if it is half M 3297
if it is told M 3280
if it is love M 3246
if he is slow M 3242
if it is poor M 3236
if he be living M 3212
if we do away M 3210
if we go away M 3209
if we do want M 3152
if he is reading M 3142
if in the city M 3140
if he is late M 3084
if at the cost M 3061
if we do come M 3056
if it be love M 3056
if in the years M 3040
if it be there M 3027
if he be such M 2998
if it is here M 2994
if it is great M 2978
if it be truth M 2952
if it is evil M 2951
if it be lost M 2946
if he is hurt M 2925
if it be wise M 2916
if it is torn M 2906
if he be good M 2898
if he is away M 2890
if the king died M 2880
if so be there M 2868
if we so much M 2848
if so he will M 2838
if we do think M 2778
if at no other M 2760
if it be upon M 2740
if we do good M 2710
if in the open M 2678
if it be even M 2677
if so he must M 2659
if to do were M 2636
if it be much M 2632
if it is making M 2620
if on the trial M 2617
if in the west M 2610
if it is most M 2593
if at the next M 2564
if it is three M 2542
if he be very M 2527
if he is lazy M 2518
if it be free M 2514
if it is taking M 2478
if it be fair M 2464
if in the dark M 2462
if he be also M 2454
if so by whom M 2446
if so we must M 2414
if in the land M 2389
if he is gone M 2382
if he be left M 2381
if so by what M 2379
if it be seen M 2372
if it is rare M 2364
if he in turn M 2329
if he is lost M 2316
if the king came M 2314
if he is moving M 2306
if the ring were M 2302
if he is cold M 2298
if it is cast M 2294
if we go home M 2291
if in the hope M 2270
if he be free M 2242
if he be once M 2219
if on the face M 2217
if he is busy M 2208
if he is giving M 2206
if he is used M 2198
if we do wrong M 2158
if on the last M 2150
if we do need M 2134
if in the spring M 2131
if it is rich M 2124
if he is once M 2103
if at the hearing M 2098
if the king gave M 2080
if it be some M 2074
if on the next M 2062
if he is part M 2054
if so we have M 2051
if it is trying M 2042
if it is acting M 2033
if he be true M 2030
if it is mine M 2027
if at the trial M 2014
if it is cool M 2012
if he is among M 2006
if in the coming M 1990
if it is dull M 1986
if he is nothing M 1982
if it is acid M 1959
if he is self M 1953
if we do give M 1952
if he to whom M 1950
if it is wide M 1934
if he be there M 1932
if on the third M 1917
if it is truth M 1908
if to go away M 1901
if in the late M 1900
if it is mild M 1882
if he is open M 1882
if it is busy M 1874
if so of what M 1866
if he is much M 1864
if in the wrong M 1862
if in the body M 1860
if it be pure M 1856
if to go back M 1842
if it be here M 1842
if on the edge M 1823
if it be evil M 1810
if he is kind M 1787
if it is down M 1778
if in my heart M 1775
if he is hard M 1768
if in the great M 1760
if he the said M 1760
if we go deep M 1726
if in the best M 1718
if it be cold M 1710
if he is paying M 1706
if the king knew M 1702
if he be made M 1694
if it be like M 1682
if he be like M 1674
if on the hearing M 1673
if it be great M 1668
if he is great M 1668
if it is upon M 1666
if he as much M 1663
if we do lose M 1646
if it be best M 1645
if he is half M 1641
if it is gone M 1640
if at an early M 1637
if it is among M 1632
if it so fall M 1628
if he is single M 1626
if it is four M 1625
if in the mind M 1607
if in the main M 1600
if we be true M 1592
if it do evil M 1586
if it is during M 1584
if it is blue M 1584
if so we will M 1581
if the king went M 1572
if he is asking M 1558
if it is life M 1556
if on the road M 1543
if on the part M 1536
if we do some M 1532
if to no other M 1530
if in the north M 1524
if it is sure M 1516
if it be part M 1512
if we at once M 1508
if he be what M 1498
if he is bent M 1494
if in the heart M 1493
if it is these M 1484
if he be young M 1482
if it is cost M 1480
if as we have M 1476
if in the hour M 1472
if it is five M 1470
if it be dark M 1470
if we do look M 1469
if it be full M 1464
if he is safe M 1444
if it is idle M 1442
if it be safe M 1442
if he be angry M 1430
if the king have M 1428
if we in fact M 1421
if it is spring M 1416
if he is evil M 1411
if he is losing M 1410
if it be high M 1386
if it is dealt M 1378
if in the month M 1378
if we be wise M 1366
if he is seeing M 1366
if in the south M 1363
if he be more M 1361
if by the help M 1351
if it is male M 1348
if in the view M 1348
if the king made M 1344
if it is work M 1338
if we do wish M 1336
if he is buying M 1334
if we do feel M 1330
if he is laid M 1322
if we do live M 1313
if it is past M 1307
if the king dies M 1288
if by the very M 1281
if we so will M 1278
if it be sent M 1274
if it is living M 1272
if it is fast M 1270
if we go wrong M 1260
if he is some M 1258
if at the other M 1256
if he at once M 1249
if in the dream M 1248
if it is shut M 1247
if it is none M 1246
if it be open M 1240
if it is single M 1238
if of no other M 1230
if it is having M 1226
if he in good M 1226
if he be gone M 1226
if by the will M 1217
if he so will M 1216
if the king ever M 1209
if he is full M 1202
if he be told M 1202
if in an open M 1200
if it is calm M 1198
if he be ever M 1192
if he be born M 1190
if it is flying M 1184
if he is eager M 1182
if to be done M 1181
if it in some M 1176
if we do more M 1164
if it is next M 1160
if the king sent M 1154
if we do fall M 1144
if in the more M 1142
if he is their M 1134
if it be life M 1129
if he is pure M 1124
if it be over M 1122
if it is losing M 1118
if he be sick M 1118
if it be most M 1109
if we do speak M 1102
if he is said M 1102
if he is crying M 1100
if is the only M 1098
if it is void M 1094
if to the same M 1090
if it be fine M 1090
if it in turn M 1088
if he is back M 1086
if he is idle M 1084
if he is dull M 1084
if he is keen M 1074
if he is flying M 1070
if so to whom M 1066
if he be kept M 1066
if it be cast M 1062
if the thing went M 1058
if it be told M 1058
if he is home M 1050
if on the very M 1049
if he at last M 1046
if in me lies M 1040
if in the life M 1024
if in so many M 1022
if it be felt M 1008
if he is bold M 1004
if it is loud M 1000
if it do come M 1000
if it so much M 994
if he is hiding M 986
if in the home M 984
if he be your M 982
if we go much M 978
if it is land M 978
if we do evil M 968
if it is ugly M 966
if to be kept M 964
if we in turn M 962
if he be wrong M 958
if he is come M 955
if it be meet M 950
if it is food M 949
if to be born M 946
if the thing done M 944
if he is clear M 930
if by the wind M 929
if the king give M 928
if we do such M 926
if it is sick M 920
if he is tied M 914
if in the fall M 909
if we eat more M 905
if he is down M 903
if in the left M 900
if it is many M 898
if he is aiming M 898
if in it there M 897
if in the said M 896
if he be worth M 894
if the king like M 893
if in the full M 892
if at the back M 888
if it be born M 884
if to be made M 880
if to be more M 877
if in the wake M 876
if it be late M 868
if by the side M 868
if he is high M 866
if it is nice M 862
if by the next M 862
if it be mine M 860
if he be sent M 860
if to the other M 859
if he be ready M 856
if we do work M 854
if in the realm M 853
if in the making M 849
if he is cast M 847
if at the hour M 847
if it be soft M 844
if the king only M 840
if he be held M 836
if the tea were M 834
if to the west M 831
if it is boring M 830
if we do talk M 826
if he do come M 826
if it is nearing M 822
if we do only M 820
if it is anti M 820
if in the town M 820
if he be among M 816
if he be less M 815
if we do reach M 814
if it be able M 814
if we be able M 812
if he be here M 810
if in the back M 805
if at the word M 804
if at the risk M 804
if we do fail M 800
if in an hour M 800
if we do love M 796
if it is ours M 796
if we do leave M 795
if we do learn M 794
if of the best M 794
if we do move M 792
if in my youth M 792
if he is fair M 792
if it is giving M 790
if it he true M 790
if it be other M 790
if it is young M 786
if in the work M 784
if in my life M 782
if he is heard M 780
if he is risk M 777
if to go into M 772
if it be eaten M 768
if he do nothing M 768
if it is peace M 766
if he is leading M 764
if in the line M 757
if he is male M 757
if to my side M 756
if at the heart M 756
if to so many M 754
if at no time M 750
if it is away M 749
if we do hold M 747
if we do keep M 742
if of no great M 742
if he or some M 742
if it be time M 740
if it is along M 738
if he is shut M 738
if he is vain M 734
if on the back M 729
if in the text M 728
if he is earning M 728
if in the three M 727
if it be shut M 726
if at the third M 726
if it is pain M 724
if it be torn M 716
if by the most M 716
if in the hand M 714
if he be cast M 704
if the king must M 702
if the thing must M 700
if to be free M 698
if it is dealing M 698
if we do stop M 696
if it is into M 696
if it is heads M 695
if he be just M 694
if we be made M 690
if it be warm M 690
if we go forth M 684
if he is fool M 683
if he is glad M 682
if in so great M 681
if we do less M 678
if it is saying M 678
if in the depth M 676
if it is fact M 672
if by the early M 665
if on the land M 662
if on the line M 659
if the king heard M 658
if of the other M 658
if it be poor M 656
if in the rest M 656
if to be ready M 650
if the wing were M 650
if to the north M 648
if we go even M 646
if in the army M 642
if it is those M 640
if he be come M 640
if we go north M 634
if to the city M 633
if we go south M 629
if he is clean M 628
if so be your M 626
if it is soon M 620
if it be void M 620
if it is wood M 619
if the thing will M 618
if it be heard M 616
if he is calm M 616
if we do call M 614
if so is there M 610
if he is meant M 610
if we at last M 606
if at the edge M 606
if we do turn M 604
if it be early M 604
if the thing came M 602
if to be able M 600
if by the last M 597
if in the range M 595
if he is most M 594
if he be lost M 594
if in the post M 591
if or to what M 588
if it be self M 588
if on the high M 585
if it be deep M 580
if it be among M 580
if at the base M 580
if he be seen M 576
if he is lord M 574
if we do just M 570
if we be sure M 570
if to the last M 568
if we go more M 567
if we do care M 564
if it is home M 564
if in the fifth M 563
if in an evil M 562
if is the same M 558
if it be half M 554
if it be dull M 552
if by the loss M 552
if of the third M 547
if we do those M 546
if we be good M 546
if it be clean M 546
if it is vain M 540
if he is ugly M 540
if by the third M 539
if in the trial M 533
if to an idiot M 532
if he be much M 532
if it is faith M 530
if he be upon M 530
if to the south M 528
if he is warm M 528
if at the most M 524
if we do like M 520
if on the look M 520
if at the side M 520
if the king said M 518
if hi is true M 518
if we do stay M 516
if it is hurt M 516
if to the very M 510
if it be moving M 510
if we do there M 508
if it be heavy M 506
if he do well M 506
if he is love M 505
if so the fact M 502
if it is when M 502
if we do ever M 500
if in no case M 498
if so it seem M 496
if it is hanging M 490
if in my mind M 489
if he is five M 489
if to be eaten M 488
if by the name M 488
if he is nice M 486
if so he type M 484
if on the wrong M 484
if it so were M 484
if in the birth M 484
if by no more M 484
if he be from M 482
if in the cold M 479
if on the four M 477
if in the deep M 477
if we go upon M 476
if we go only M 474
if to be sent M 470
if we eat only M 468
if the king asks M 468
if we do seek M 466
if it be slow M 466
if it is hand M 465
if to do away M 464
if in an early M 464
if we go slow M 462
if he be great M 460
if we go very M 456
if we go past M 456
if it is ahead M 456
if we do break M 455
if to the third M 455
if in the play M 454
if he be dull M 452
if to be seen M 450
if it be land M 450
if it is wild M 448
if in the vast M 448
if the king says M 444
if in the room M 440
if in no more M 440
if it is prior M 439
if he is past M 439
if it be calm M 438
if he is rash M 438
if it is paying M 434
if he do break M 434
if the king felt M 432
if it is heading M 432
if in the wind M 430
if he is ahead M 430
if we be more M 429
if in the test M 429
if we do send M 428
if in the term M 428
if it is back M 427
if in an echo M 426
if he is hearing M 426
if at the turn M 426
if it be ready M 424
if by an evil M 424
if it is will M 423
if it is type M 422
if to the most M 420
if on the south M 418
if it is bare M 414
if it be rich M 414
if it is earning M 412
if it be living M 412
if in the sixth M 412
if we no more M 410
if in my last M 410
if by the late M 409
if the foe were M 408
if it be acid M 408
if the king hears M 406
if it is lack M 406
if the thing gets M 404
if he be vain M 404
if it be bent M 403
if we do tell M 402
if to the lord M 402
if it is live M 401
if we be left M 400
if it is west M 400
if the king come M 398
if he is three M 398
if he go into M 398
if it be spring M 395
if it is reading M 394
if he so acts M 392
if is the angle M 391
if the king meant M 390
if we at home M 388
if no or only M 388
if he in some M 388
if it is fire M 387
if it be young M 386
if in the four M 384
if it is leading M 382
if he so think M 382
if in the word M 381
if on the true M 380
if to be good M 378
if it be come M 378
if in the arms M 378
if he is cool M 378
if it is mind M 377
if in the holy M 377
if so we need M 373
if the king left M 372
if in the wide M 370
if he is other M 370
if we be told M 368
if the king acts M 366
if in the book M 366
if as he says M 366
if we eat food M 364
if it is swung M 360
if it is angry M 360
if to the best M 357
if it be past M 357
if he be evil M 356
if we go west M 355
if so the name M 354
if it is asking M 354
if in the vain M 354
if he is heavy M 354
if he be laid M 354
if the thing ever M 353
if on the fifth M 353
if it at once M 353
if in the union M 352
if in the high M 352
if it be three M 350
if the king kept M 348
if it is ideal M 348
if it be gone M 348
if to go down M 340
if the nth term M 340
if so be their M 340
if it is anger M 340
if he is none M 340
if the king held M 338
if on the sixth M 338
if it is miss M 338
if it is holy M 338
if by the rush M 338
if in the theory M 336
if on the most M 335
if it be into M 334
if he is weary M 334
if it is owed M 332
if it is gray M 332
if at the core M 332
if we so live M 331
if at the coming M 329
if of no more M 326
if it is years M 326
if at the root M 326
if we do ours M 322
if to be heard M 322
if by the means M 321
if to go home M 320
if to be true M 320
if he is anti M 320
if it is south M 318
if he is holy M 318
if is the most M 317
if in the free M 316
if he is heading M 316
if he is fast M 316
if at the rate M 316
if of the three M 315
if of the form M 315
if in the list M 315
if the thing made M 314
if on the lost M 314
if of the male M 313
if we in some M 312
if on the safe M 312
if it is health M 311
if we be free M 310
if he is dealt M 310
if it be fact M 309
if in the tenth M 309
if the king lost M 308
if it is kind M 307
if by the holy M 307
if the king your M 306
if it be single M 306
if in the true M 306
if at the door M 306
if we do treat M 305
if the king sees M 304
if so the date M 304
if we do draw M 302
if on the wind M 302
if it is north M 302
if by no such M 302
if at an angle M 301
if it is wealth M 300
if it be faith M 300
if in my name M 300
if he be even M 300
if we be very M 299
if on the port M 299
if in the living M 299
if on the main M 298
if it is ongoing M 298
if it be peace M 298
if in the game M 298
if in it were M 298
if the king once M 296
if he so wish M 295
if to be left M 293
if it go down M 291
if of the most M 288
if it is beating M 288
if he is hanging M 288
if by the great M 286
if to do good M 284
if it is post M 284
if he is wide M 284
if by the date M 284
if at the birth M 284
if we go fast M 283
if the king send M 282
if so we were M 282
if it be next M 282
if in the deed M 281
if we do sell M 278
if we do pull M 278
if it at last M 278
if in the will M 278
if by the lord M 278
if at the call M 278
if it is hell M 276
if it he said M 276
if it is fate M 274
if in my case M 274
if he is aged M 272
if he do wrong M 272
if so the only M 270
if he go away M 270
if he be lord M 270
if he at length M 270
if up to date M 269
if we be just M 268
if of the kind M 268
if it be four M 266
if he be single M 266
if to the word M 265
if by the turn M 265
if he do what M 264
if by an angel M 264
if it is base M 263
if we do obey M 262
if it is plus M 262
if it be wild M 262
if it be when M 262
if in the wild M 262
if we be poor M 260
if it is text M 260
if it be during M 260
if he is done M 260
if he is best M 260
if to the base M 259
if we go early M 258
if we eat less M 258
if so the case M 258
if of the type M 258
if it be these M 258
if he be weary M 258
if he be self M 258
if he be fair M 258
if by the fifth M 258
if it is duty M 257
if the king fell M 254
if it be ugly M 254
if we go among M 252
if we be once M 252
if the king gets M 252
if so it means M 252
if it is risk M 252
if it be tied M 252
if he do take M 252
if it is nine M 251
if he is mine M 251
if to the poor M 250
if to be held M 250
if he be past M 250
if it is come M 248
if it do nothing M 248
if on the ocean M 247
if to the ends M 244
if it is aged M 244
if it do take M 244
if in the single M 244
if we do kill M 243
if it be mild M 242
if in the good M 242
if in the ideal M 241
if in the role M 240
if in the prior M 240
if by the breath M 240
if at the gate M 240
if we as much M 238
if the king puts M 238
if on the west M 238
if it is bold M 238
if he is four M 238
if it is case M 237
if in my time M 237
if it be ours M 236
if he be pure M 236
if by the other M 236
if the tea duty M 234
if in the rare M 234
if in the ninth M 234
if he is wild M 234
if go he must M 234
if at the dawn M 234
if he be half M 233
if we so speak M 232
if on the tenth M 232
if it be pain M 232
if we do miss M 231
if in the part M 230
if he be sure M 230
if by so many M 230
if we do much M 229
if we do face M 226
if it is sore M 226
if he be used M 226
if he be slow M 226
if we be only M 224
if on the great M 224
if it it were M 224
if by the fall M 224
if at the peace M 224
if it be vain M 222
if in an ideal M 222
if he go down M 221
if to do what M 220
if to be such M 220
if to be just M 220
if it be many M 220
if in the side M 220
if by the good M 219
if we do help M 218
if in the rush M 218
if he be none M 218
if it is third M 217
if so the lord M 216
if it be worn M 216
if he be bold M 216
if to the well M 215
if we so call M 214
if is the time M 214
if in the young M 214
if by the hair M 214
if in the base M 213
if on an open M 210
if in the bone M 210
if at the best M 210
if we do join M 208
if the king make M 208
if he or other M 208
if he is hoping M 208
if go to step M 208
if the thing here M 206
if so to make M 206
if he is into M 206
if he be open M 206
if at is very M 206
if on my part M 204
if at the ends M 203
if on the open M 202
if in the lord M 202
if he be hurt M 202
if the king call M 201
if we eat nothing M 200
if to it were M 200
if the id were M 200
if so to give M 200
if on the faith M 200
if it so will M 200
if it be five M 200
if so the same M 198
if it is make M 198
if in so vast M 198
if he be nothing M 198
if it is fake M 197
if to the time M 196
if so it only M 196
if by the blow M 196
if we in these M 194
if it is hiding M 194
if if it were M 194
if it is data M 193
if we do pass M 192
if he no more M 192
if he be over M 192
if to go over M 191
if he is deep M 191
if we so take M 190
if so the time M 190
if it so come M 190
if it be none M 190
if it be face M 190
if in my work M 190
if to the side M 188
if to the many M 188
if it is meet M 188
if it be soon M 188
if in the only M 188
if in the clear M 186
if if the user M 186
if we go just M 184
if in no wise M 184
if he do fall M 184
if we be like M 183
if in the reading M 182
if he in truth M 182
if he be down M 182
if so to tell M 180
if of the full M 180
if it so think M 180
if it so fell M 180
if it be holy M 180
if he or those M 180
if he is heir M 180
if he is bearing M 180
if he as well M 180
if by the said M 180
if by the rule M 180
if by an angry M 180
if at the said M 180
if at no great M 180
if we do omit M 178
if in the mode M 178
if in my pain M 178
if he be full M 178
if we do wait M 177
if it is meaning M 177
if it be south M 177
if in the half M 177
if it is buying M 176
if it so ends M 175
if it is user M 172
if it be unto M 172
if is the rate M 172
if he is void M 172
if he be glad M 172
if it do fail M 170
if he is soon M 170
if it is mass M 169
if we be ready M 168
if we be ever M 168
if so to send M 168
if on my side M 168
if it be wide M 168
if at the will M 168
if we be well M 167
if to the three M 166
if to be rich M 166
if it is fall M 166
if he so felt M 166
if in us there M 165
if we be here M 164
if on the said M 164
if of the wrong M 164
if it is adding M 164
if in no great M 164
if by so much M 164
if we eat here M 162
if we be wrong M 162
if so it came M 162
if on me some M 162
if he do know M 162
if by the length M 162
if it is word M 161
if the king upon M 160
if on the moon M 160
if by the back M 160
if to the body M 159
if in the truth M 159
if he do love M 159
if we in vain M 158
if it so seem M 158
if he is saving M 158
if he go wrong M 158
if he be away M 158
if of the more M 157
if so the type M 156
if so by when M 156
if on the days M 156
if he is daring M 155
if to the great M 154
if so be some M 154
if he is early M 154
if he do find M 154
if he be went M 154
if by the meaning M 154
if we do gain M 153
if we do play M 152
if it or some M 152
if it is bearing M 152
if it be dealt M 152
if in the pure M 152
if in the male M 152
if in my next M 152
if he is upon M 152
if he is eaten M 152
if he in whom M 152
if he by some M 152
if we do pray M 150
if to the pure M 150
if to do some M 150
if so he kept M 150
if it so must M 150
if it is last M 150
if it is healing M 150
if it be cool M 150
if by an echo M 150
if on the north M 149
if it is sort M 149
if on my face M 148
if of the size M 148
if it is shed M 148
if he is torn M 148
if he is dark M 148
if we eat well M 147
if we go some M 146
if so the work M 146
if it is seeing M 146
if it go idle M 146
if it be lady M 146
if it is hope M 145
if so be these M 144
if on the body M 143
if in the cell M 143
if we do show M 142
if we be such M 142
if so to find M 142
if in the waking M 142
if by the union M 142
if by my means M 142
if at the play M 142
if we no tears M 140
if it be rest M 140
if he is soft M 140
if it is term M 139
if so to take M 138
if so to have M 138
if so he made M 138
if on the bank M 138
if it is aiming M 138
if it in good M 138
if it go well M 138
if in the paths M 138
if in an ugly M 138
if at the early M 138
if we do will M 137
if he do more M 137
if to be laid M 136
if to be great M 136
if so the term M 136
if it in truth M 136
if he be other M 136
if on the move M 134
if in the wish M 134
if he go back M 134
if he be heir M 134
if so to speak M 132
if so my stay M 132
if or as soon M 132
if it is face M 132
if he be said M 132
if he be acting M 132
if to do these M 131
if the thing when M 130
if on the beach M 130
if in the cool M 130
if in my turn M 130
if he be making M 130
if is the ratio M 129
if we be seen M 128
if to so wise M 128
if to my heart M 128
if it is rain M 128
if it be wood M 128
if in the wars M 128
if in my view M 128
if he is beating M 128
if he be their M 128
if by the work M 128
if by the self M 128
if by my acts M 128
if to the more M 126
if on the bare M 126
if it is crying M 126
if in the peace M 126
if he be high M 126
if at my time M 126
if we do drop M 125
if in the ocean M 125
if we do save M 124
if up to three M 124
if to the cost M 124
if to be worn M 124
if it is rash M 124
if it is eager M 124
if it be coming M 124
if in the love M 124
if in the feet M 124
if he is next M 124
if we do form M 123
if it is fish M 123
if by the coming M 123
if to the said M 122
if to or from M 122
if so be such M 122
if or in case M 122
if it be loud M 122
if it be gods M 122
if he it were M 122
if he do evil M 122
if by the single M 122
if to do nothing M 121
if it be north M 121
if to be saying M 120
if of the fair M 120
if it is keen M 120
if it is body M 120
if it be sick M 120
if it be rare M 120
if in my dream M 120
if he is worn M 120
if we do once M 119
if or the else M 119
if is the case M 119
if we in south M 118
if we go clear M 118
if we do seem M 118
if we be rich M 118
if to the gods M 118
if to do just M 118
if it do good M 118
if he go forth M 118
if at the feet M 118
if we so like M 117
if or in what M 117
if at the more M 117
if as is more M 117
if it at length M 116
if in the five M 116
if he is adding M 116
if by the month M 116
if by an army M 116
if by an acid M 115
if on the test M 114
if no or very M 114
if it be seed M 114
if in the ship M 114
if he so uses M 114
if he do give M 114
if it be gain M 113
if is the length M 113
if by the fire M 113
if at the left M 113
if we do rely M 112
if to the eyes M 112
if so the gods M 112
if it is onto M 112
if it be till M 112
if in the many M 112
if he is wary M 112
if he be clear M 112
if at the full M 112
if we do harm M 111
if to the moon M 110
if to my mind M 110
if the do loop M 110
if so he soon M 110
if of the true M 110
if it is view M 110
if it be idle M 110
if it be bold M 110
if in the mass M 110
if in the hall M 110
if in my early M 110
if by the hour M 110
if as the years M 110
if as in some M 110
if so the main M 109
if we in like M 108
if we eat from M 108
if we be kept M 108
if so it fall M 108
if it do make M 108
if he is faking M 108
if he be taking M 108
if he be cold M 108
if we so want M 107
if it is dawn M 107
if is an even M 107
if to the mind M 106
if so we know M 106
if it is play M 106
if it he made M 106
if it be grey M 106
if in the plan M 106
if in the giving M 106
if at the high M 106
if to be well M 105
if we we were M 104
if we so think M 104
if we go high M 104
if the thing come M 104
if so the third M 104
if so no beings M 104
if it to some M 104
if it be nine M 104
if in the data M 104
if in an army M 104
if he do once M 104
if he be keen M 104
if to the back M 103
if to the young M 102
if to the love M 102
if so the rate M 102
if so he left M 102
if on the birth M 102
if it is luck M 102
if in the sign M 102
if he is loud M 102
if he is laying M 102
if he at some M 102
if by the young M 102
if at the site M 102
if we do open M 101
if on the three M 101
if it is theory M 101
if it is have M 101
if it he only M 101
if is the best M 101
if to the form M 100
if to be wise M 100
if so we call M 100
if so be what M 100
if or in other M 100
if on the heads M 100
if it is fading M 100
if it be sure M 100
if in the calm M 100
if in no time M 100
if he be some M 100
if he be shut M 100
if at the tread M 100
if in the fire M 99
if we be dull M 98
if so be those M 98
if it is grey M 98
if it be toil M 98
if it be angry M 98
if in the tomb M 98
if in the soft M 98
if in so acting M 98
if he on whom M 98
if he do keep M 98
if go we must M 98
if at the loss M 98
if as is most M 98
if we so love M 97
if we in great M 96
if we do three M 96
if we do pick M 96
if up to four M 96
if it is bone M 96
if he is will M 96
if he is caring M 96
if he be lazy M 96
if he be dark M 96
if it be base M 95
if is the last M 95
if in an ocean M 95
if we we have M 94
if we go half M 94
if we do very M 94
if the thing lost M 94
if the the same M 94
if on the lord M 94
if of the open M 94
if of the body M 94
if it is lady M 94
if it be blue M 94
if as it lies M 94
if we go next M 92
if we do wake M 92
if we do other M 92
if to the fire M 92
if to be cast M 92
if on the heart M 92
if it be male M 92
if in the must M 92
if in the cost M 92
if in no very M 92
if in my eyes M 92
if he is base M 92
if he be void M 92
if he be dealt M 92
if by the feet M 92
if by the best M 92
if at the wrong M 92
if at the beach M 92
if to the beating M 91
if so the less M 91
if in so much M 91
if we do hate M 90
if the thing just M 90
if the thing felt M 90
if so he gave M 90
if of no very M 90
if it be years M 90
if it be away M 90
if in the self M 90
if in my high M 90
if he of whom M 90
if he be clean M 90
if at the port M 90
if as in most M 90
if is the mass M 89
if we so term M 88
if we or some M 88
if we in truth M 88
if we eat when M 88
if we do burn M 88
if we by faith M 88
if to the term M 88
if to be nothing M 88
if the ring says M 88
if so the truth M 88
if so the loss M 88
if on the theory M 88
if on the book M 88
if on my next M 88
if it the same M 88
if it is laying M 88
if in so saying M 88
if he be many M 88
if he be kind M 88
if by the play M 88
if as the last M 88
if to the next M 87
if is in fact M 87
if we do many M 86
if we do here M 86
if we be sons M 86
if to the rest M 86
if to the cure M 86
if to be poor M 86
if so it need M 86
if it is goal M 86
if it as much M 86
if he do good M 86
if he be bent M 86
if by the week M 86
if by the threat M 86
if at the name M 86
if as it were M 86
if we do dare M 84
if the thing said M 84
if the thing meant M 84
if tea is made M 84
if on the ninth M 84
if on the hunt M 84
if it be theft M 84
if in the care M 84
if he is meek M 84
if he be coming M 84
if by the spring M 84
if by the body M 84
if an or gate M 84
if we be come M 82
if we be cold M 82
if so he knew M 82
if in the unit M 82
if in an angry M 82
if he is waking M 82
if he do these M 82
if he be idle M 82
if by the hope M 82
if by an open M 82
if we eat like M 80
if to go from M 80
if to be very M 80
if the thing need M 80
if it is winged M 80
if it be those M 80
if in the cave M 80
if in my waking M 80
if he is fine M 80
if he go from M 80
if he do send M 80
if as by their M 80
if it is form M 69
if it no more M 62
if of the very M 57
if we do view M 54
if it is rule M 54
if we eat much M 53
if he be hard M 53
if he be base M 53
if or an else M 52
if it be duty M 52
if it is snow M 50
if to the reading M 49
if to the heart M 49
if we go look M 48
if to no more M 48
if in the less M 48
if he go over M 48
if to the main M 47
if it do pass M 47
if on an ocean M 46
if it is rest M 46
if he go there M 45
if we do push M 44
if of the four M 44
if in the well M 43
if up or down M 42
if to be like M 42
if it is wind M 42
if to the past M 41
if to go past M 41
if we so name M 40
if we do plan M 40
if it is line M 40
if he be part M 40
if it is paid D 12342
if it is sold D 12191
if the sea were D 9268
if he is paid D 6275
if it is okay D 5446
if ye do these D 4740
if he is wearing D 3576
if it is thick D 3462
if in the grip D 2680
if in the least D 2577
if he is fond D 2576
if he is sued D 2544
if ye do good D 2500
if it is null D 2487
if it is flat D 2466
if in the throes D 2366
if by the laws D 2306
if it is mere D 2234
if it be duly D 2123
if we at least D 2042
if it is sown D 2032
if the thing sold D 1956
if he at least D 1912
if by the mere D 1886
if an ox gore D 1796
if the ear were D 1608
if it is damp D 1534
if it is cheap D 1502
if it is rising D 1480
if it is firm D 1465
if ho is true D 1450
if it be sold D 1368
if ye be true D 1312
if it be mere D 1304
if it is duly D 1301
if by the wand D 1270
if it is gold D 1226
if in an ague D 1140
if at the fame D 1132
if it is rent D 1123
if it be sown D 1114
if it at least D 1106
if it is ripe D 1100
if it be paid D 1100
if he is sane D 1100
if he is leaving D 1088
if by the wave D 1076
if the king took D 1064
if he is facing D 1026
if in the mood D 1000
if it is noon D 966
if it is shot D 956
if it is oral D 932
if on the spot D 904
if the ox were D 862
if he is shot D 838
if he is tall D 834
if it be thick D 832
if he is riding D 796
if he is rude D 760
if the ex ante D 759
if it is facing D 746
if he is okay D 675
if he is bringing D 668
if it is news D 641
if in thy heart D 616
if he is firm D 609
if it is leaking D 606
if at the least D 602
if ye be ready D 576
if an ox were D 568
if on the deck D 564
if in at least D 562
if it is pale D 556
if in the mouth D 552
if he be fond D 552
if ye do well D 548
if in the pangs D 548
if at the foot D 544
if to be sold D 528
if in the soul D 516
if he is lame D 516
if it is wearing D 514
if it is pink D 506
if he is duly D 506
if on the spur D 502
if it is sued D 502
if the ex post D 501
if he be sued D 486
if he is pious D 484
if it is iron D 477
if ye be wise D 476
if it is hers D 464
if it be gold D 464
if of an inch D 461
if the ion were D 454
if the sea rose D 452
if he is sold D 444
if by the waving D 442
if by the finger D 442
if of the rank D 434
if it is clay D 424
if at the wave D 418
if the sea gets D 416
if the ear drum D 416
if ha is true D 410
if ye be come D 408
if in the palm D 408
if he is joking D 396
if it is sour D 394
if he be duly D 394
if it is spun D 390
if by my vote D 388
if the thing lent D 380
if ye do what D 376
if it is salt D 376
if on the cash D 370
if in the lungs D 368
if he is bald D 368
if it is john D 358
if ye do evil D 354
if it be foul D 346
if it is cash D 345
if the sea ever D 330
if it be damp D 329
if in the fame D 323
if to be paid D 322
if the ad says D 322
if it be firm D 322
if he be paid D 320
if in the camp D 318
if it is tall D 312
if in an oven D 311
if on an axis D 307
if it is lent D 298
if in the sale D 298
if the ad were D 296
if in the womb D 295
if it is sunk D 294
if it is foul D 290
if he is dumb D 286
if it is tinged D 284
if on the rack D 283
if in the sole D 282
if he is loving D 282
if in the mere D 276
if it be hers D 274
if in the thick D 270
if by an iron D 270
if in the foot D 255
if the ring finger D 252
if it be flat D 252
if by the least D 250
if he is leaning D 248
if he be firm D 244
if he is stingy D 242
if in an iron D 236
if on my theme D 234
if the ad asks D 232
if it is sewn D 229
if it is leaning D 224
if to be singed D 222
if the sea came D 220
if he be dumb D 218
if the via media D 216
if ye be well D 214
if the ear hears D 210
if on the palm D 210
if it is akin D 210
if it is semi D 208
if in the teeth D 206
if in the arts D 204
if he is waxing D 202
if it is oily D 198
if it is bringing D 198
if an ad says D 196
if on the sale D 195
if it is taxing D 192
if in the maze D 192
if in the bill D 191
if in the skin D 190
if in the race D 190
if to the pond D 188
if it be thine D 188
if he is john D 188
if the sea will D 186
if in the film D 186
if in the rude D 184
if it is leaky D 180
if ye be mine D 179
if it be sour D 178
if the sea runs D 176
if my ear were D 176
if it is rock D 176
if it be ripe D 176
if the sea only D 174
if to the spot D 170
if he be pious D 170
if it is tiny D 166
if it is soup D 166
if it is oval D 166
if to the tune D 164
if it is sand D 164
if it be shot D 162
if it is rude D 160
if at the mouth D 160
if it is wheat D 157
if the ox gore D 156
if it is leaving D 156
if it is wine D 154
if on at least D 152
if it is dyed D 152
if he is doge D 152
if ye do love D 151
if on the soil D 150
if on the skin D 150
if it is bred D 150
if it be rude D 150
if he be tall D 150
if we do tend D 146
if to the mere D 142
if in the eagle D 142
if it is drying D 140
if the ear says D 138
if it is hazy D 136
if in the jaws D 136
if he is pale D 136
if ye be kind D 134
if it is pious D 134
if he is rising D 134
if he be wroth D 134
if he is dating D 132
if it is radio D 131
if of the race D 130
if he is mute D 130
if it so rose D 128
if it be lame D 126
if in the dusk D 126
if at the mere D 126
if ye in anger D 124
if it is least D 124
if in the vein D 124
if in the stead D 124
if he is sole D 124
if he be bred D 124
if at the apex D 123
if in the tone D 122
if by the mouth D 122
if it be coin D 121
if ye be such D 120
if the king wins D 120
if it is smith D 120
if it is lame D 120
if it be iron D 120
if he be sane D 119
if the sea must D 118
if on the roof D 118
if it is hinged D 118
if in the frog D 118
if in the pupa D 117
if ye be sick D 116
if ye be gods D 116
if so at least D 116
if ye no rest D 112
if ye be weary D 112
if to thy harm D 112
if it is loving D 112
if in the dock D 112
if he is gazing D 112
if at the waving D 112
if it is dumb D 110
if in the neck D 110
if by so firing D 110
if it is bread D 108
if on my aching D 106
if it be sunk D 106
if by the soul D 106
if at sea must D 106
if it is sane D 104
if he be lame D 104
if the sea wall D 102
if so ye will D 102
if on the wall D 102
if it is milk D 102
if it is beer D 102
if in the zone D 102
if in the morn D 102
if he is stung D 102
if he is cute D 102
if he be shot D 102
if by the sale D 102
if ax is made D 102
if the wing axis D 100
if the cs were D 100
if it be tinged D 100
if is at least D 100
if in an aerial D 100
if he is teasing D 100
if he is dining D 100
if he be sold D 100
if ye so much D 98
if it is singly D 98
if he is urging D 98
if he is clad D 98
if at the rising D 98
if the ion pair D 96
if on the jury D 96
if it be pale D 96
if in the axis D 96
if he be foul D 96
if by the teeth D 96
if at the sale D 96
if the ear once D 94
if he is ailing D 94
if to the task D 93
if ye do keep D 92
if to be shot D 92
if it is steam D 92
if the king sold D 90
if it is taut D 90
if it is riding D 90
if it is jack D 90
if it is ionic D 90
if it be vile D 90
if in the navy D 90
if he is swinging D 90
if it is clad D 88
if it be pent D 88
if in the bush D 88
if he is posing D 88
if at thy birth D 88
if at the whim D 88
if ah ho runs D 88
if the king paid D 86
if the ad copy D 86
if it is chic D 86
if it be wine D 86
if in the tube D 86
if it is junk D 85
if in the lease D 85
if the ox heard D 84
if it be news D 84
if in thy life D 84
if in the glow D 84
if by the pope D 84
if in the dust D 83
if ye be made D 82
if ye be good D 82
if to the pale D 82
if by the whip D 82
if it is tiring D 80
if it is silk D 80
if in the soil D 80
if it is drug D 59
if it is coal D 55
if we do slip D 50
if in the coal D 45
if in the germ D 43
if it be wheat D 42
if it be idem D 42
if is no mere D 40
if he be thine D 40
