if i do not M 2012865
if i am not M 530031
if i am going M 52946
if i do say M 47476
if i do this M 35964
if i do that M 28784
if i be not M 28732
if i is not M 27014
if i go and M 26854
if a is not M 22721
if i go out M 22599
if i go not M 16838
if i do get M 15660
if i go with M 12400
if i am too M 11078
if i am doing M 10468
if i am any M 9140
if a is any M 8992
if i am being M 8550
if a thing has M 6878
if i am now M 6771
if i am one M 6448
if s is not M 6214
if a thing can M 6076
if t is not M 5777
if i am dead M 5762
if i am out M 5165
if i am with M 5056
if i go now M 4538
if a thing was M 4534
if i do you M 4342
if i do but M 4017
if i go for M 3990
if i do and M 3630
if i am for M 3382
if i go too M 3320
if d is not M 3236
if i do any M 3072
if i am using M 2956
if i do all M 2902
if i am lying M 2840
if i am ill M 2752
if i am his M 2706
if i go off M 2618
if i am but M 2530
if i do see M 2518
if i do them M 2512
if i am all M 2468
if i am mad M 2414
if i do die M 2272
if i or any M 2270
if i am that M 2241
if i am thus M 2124
if i am put M 2115
if a thing does M 2066
if s is any M 2048
if i am then M 1958
if a is set M 1734
if i am sad M 1720
if a king had M 1688
if a is real M 1578
if a is too M 1554
if i am dying M 1536
if t is any M 1530
if i eat this M 1502
if a is non M 1462
if i do things M 1448
if i at all M 1440
if i am weak M 1296
if a be any M 1296
if i eat one M 1286
if i eat too M 1274
if i am this M 1258
if i go any M 1248
if a is one M 1238
if i am fit M 1225
if a king was M 1198
if i do try M 1192
if i am old M 1188
if a thing had M 1126
if i go near M 1100
if i am near M 1086
if i do they M 1084
if i am cut M 1052
if i am bad M 972
if i do hear M 970
if i do him M 964
if a king has M 942
if i do one M 925
if i do then M 888
if i do let M 868
if i in any M 852
if i eat any M 838
if t is too M 824
if d is any M 811
if i do win M 800
if i am her M 782
if i do ask M 774
if i am you M 770
if a thing that M 761
if a is odd M 752
if i do run M 740
if i is odd M 736
if i do use M 733
if i am god M 732
if i go that M 730
if i go mad M 722
if i go this M 716
if i am led M 706
if i am far M 695
if i go get M 686
if a is now M 686
if i do too M 668
if i do she M 668
if i go see M 662
if a king can M 654
if i go all M 612
if i be dead M 604
if a king does M 604
if i eat all M 596
if a thing may M 596
if i be too M 586
if i am real M 585
if i am set M 580
if i do put M 574
if i am eating M 570
if i am long M 564
if t is set M 560
if i go you M 556
if a king and M 556
if a king did M 546
if i eat that M 544
if i do ill M 540
if i am yet M 532
if i at any M 530
if i do end M 528
if i do now M 520
if i do read M 518
if a thing did M 508
if d is too M 500
if i eat with M 496
if i do her M 492
if i eat them M 488
if i am let M 488
if a is low M 488
if i go one M 475
if i or she M 466
if i am and M 466
if i be dear M 464
if i is any M 462
if i do vow M 462
if i go far M 452
if i be one M 443
if i am off M 435
if i so far M 434
if i do buy M 428
if i do bring M 418
if i be put M 410
if i do bad M 404
if i do thus M 400
if a is both M 394
if i do his M 386
if i do err M 385
if i am who M 384
if i do for M 382
if i am man M 375
if t is one M 369
if i eat and M 368
if a thing goes M 362
if i in this M 358
if i am both M 356
if s is set M 350
if a is put M 346
if a is then M 342
if i do lie M 337
if i am dear M 330
if i do may M 326
if a king who M 320
if i be but M 316
if i be thus M 312
if i go they M 308
if a king let M 306
if t do not M 304
if a is near M 304
if i or one M 302
if s no use M 297
if i or you M 288
if d is odd M 282
if i be now M 276
if a king may M 276
if i do two M 274
if i go ten M 273
if i do bear M 270
if i do pay M 266
if i to you M 262
if i do mix M 260
if i up and M 254
if i be his M 246
if s is non M 232
if i eat meat M 224
if s the way M 222
if i do act M 222
if i be sad M 222
if i am big M 222
if i do cry M 219
if i do lay M 217
if s be any M 214
if i am two M 210
if a be not M 210
if i be with M 204
if i the death M 202
if i ring for M 202
if a thing not M 200
if a or his M 200
if a is dead M 200
if i ring you M 194
if i go who M 190
if a is but M 186
if a is its M 184
if i be yet M 175
if i so may M 168
if i be she M 168
if i do owe M 166
if i by any M 162
if i am its M 162
if i am dry M 158
if i do fear M 153
if i ring off M 152
if i go she M 150
if i in act M 148
if i at this M 146
if i am hung M 146
if a is this M 146
if i go sit M 140
if t is low M 134
if t is odd M 132
if i eat you M 130
if i am wet M 130
if a do not M 130
if i do set M 128
if i be out M 126
if a king bid M 126
if a by his M 126
if s is too M 124
if i sing you M 124
if i go but M 124
if i do mean M 122
if s is odd M 120
if s is now M 120
if i be its M 120
if a is red M 120
if i be mad M 118
if i be fit M 118
if i eat out M 117
if i am singing M 116
if i do both M 114
if a wing has M 112
if a ring was M 112
if a is ill M 112
if i do sit M 110
if i am due M 110
if a ring has M 110
if a in new M 109
if i sing for M 108
if i be any M 108
if i am run M 106
if t be not M 104
if i eat now M 104
if i am ten M 104
if i am shy M 104
if a is and M 104
if i do cut M 102
if i go east M 101
if i am head M 100
if d is set M 100
if t am not M 98
if s an old M 98
if i or they M 96
if i at that M 96
if i do sin M 95
if i am beat M 94
if i so long M 93
if t is non M 90
if i to try M 90
if i ring him M 90
if a is being M 90
if i go two M 88
if i be set M 88
if i am new M 88
if a king goes M 88
if a be but M 88
if i am apt M 86
if a wing had M 86
if a thing with M 86
if s my job M 84
if i wing him M 84
if i sing this M 84
if i ring them M 84
if i of all M 84
if i do with M 82
if i am him M 82
if s is one M 57
if i do own M 52
if t is long M 46
if s the one M 43
if i am mean M 41
if i doe not D 1652
if i am hit D 696
if i am gay D 582
if i am thin D 578
if i am fat D 378
if i do wear D 370
if i am met D 260
if i do hit D 250
if i am hot D 206
if a sea had D 204
if i am deaf D 178
if i am fed D 98
if a in fig D 90
if i do thee D 88
if i in thee D 80
