under M 585591642
until M 266943612
upper M 82010013
units M 66084902
usual M 58075449
unity M 38138589
users M 27019665
unions M 24815047
urged M 19003706
usage M 16582024
upset M 11229971
utter M 10367195
unite M 8648604
uneasy M 5810707
undue M 4994030
unfit M 3828321
urges M 3579114
undoing M 1214363
unify M 1190329
unease M 819318
uncut M 686857
undid M 428178
undoes M 154420
urban D 55344350
uncle D 26588610
urine D 15898300
ultra D 4875711
ulcer D 4315927
uniting D 3316226
utopia D 2810800
unreal D 2734814
usher D 2085006
ulnar D 1493304
usury D 1396644
undying D 786441
usurp D 781227
uteri D 637743
upbeat D 546543
unmet D 519556
udder D 503384
uremia D 456562
untie D 428765
umber D 413003
unwed D 403728
upswing D 384776
unread D 357893
unearth D 307991
uvula D 299213
unsung D 283952
umbra D 271182
unlit D 270039
unseat D 211009
untying D 197002
urgings D 177020
upped D 159138
ukase D 139251
undead D 137513
uncial D 114122
unfed D 102599
umbel D 93086
unset D 82579
unzip D 80826
unhinge D 53018
unsay D 50029
unman D 45466
unseal D 39396
unbar D 32403
unhinging D 23741
upend D 22829
unpin D 20295
unfix D 18572
umiaks D 16260
urned D 15699
uncap D 13310
unbid D 11642
uprear D 9782
umped D 3745
unjam D 3426
uncling D 763
uglying D 226
