universal M 46290226
uncertain M 16620360
undertake M 12241798
undertaking M 11394885
unlimited M 7845743
unusually M 7260630
uniformly M 7185231
unrelated M 5560189
undergone M 5508455
unfamiliar M 5413951
unnatural M 4992010
undermine M 4677225
uncovered M 4538243
underwent M 3912877
untouched M 3274904
unnoticed M 3024447
unreliable M 2981967
uneasiness M 2977379
unbearable M 2338800
uppermost M 2338476
undermining M 2277633
undeniable M 2233505
unwelcome M 2016048
unwittingly M 1803285
undefined M 1770290
unaltered M 1716241
ungrateful M 1632457
unwritten M 1631515
undecided M 1413231
unselfish M 1362835
undeniably M 1238639
unorthodox M 1135496
unfaithful M 1122810
unrelenting M 1016741
unwillingly M 998548
unsightly M 770251
unequally M 719887
unknowingly M 644703
unbelieving M 637593
unopposed M 631802
uncharted M 532716
undamaged M 522741
uppercase M 466588
unspoiled M 463984
unforgiving M 438573
untainted M 398066
uselessly M 371431
uncounted M 264581
unequaled M 264155
untruthful M 225346
unthinkingly M 197702
unsociable M 158799
unbeknown M 119754
unmovable M 55320
unreliably M 19645
unluckier M 5060
unpleasant D 8552327
utilities D 7044486
undertook D 6700733
utterance D 6091337
unmarried D 4690868
unanimous D 4656189
unskilled D 3834022
unpopular D 3346270
unofficial D 2660589
unsettled D 2574065
underlies D 2177891
undoubted D 2158316
undivided D 2155553
ulceration D 2090290
unanimity D 2084524
unhappily D 2055356
umbilical D 1995373
unbounded D 1916210
untenable D 1847995
underline D 1796330
unfounded D 1655998
ultimatum D 1577256
underside D 1553873
usurpation D 1470241
untrained D 1460618
unchecked D 1338280
uniformed D 1299245
undaunted D 1105661
usability D 973070
unbridled D 972207
undressed D 963073
unplanned D 952726
unremitting D 951827
unsecured D 869302
umbrellas D 839470
unrealized D 837631
uttermost D 834482
umbilicus D 782086
urbanized D 767710
underlining D 729185
uninsured D 723970
underfoot D 686478
undesired D 657408
universes D 656736
unmindful D 633324
uninjured D 619651
unmatched D 608319
undertone D 590270
unadorned D 544055
unimpeded D 541832
unpromising D 533707
unflinching D 533328
ulcerated D 513817
undiluted D 507429
unhelpful D 491382
untutored D 481922
uninvited D 467319
unruffled D 459393
unabashed D 454861
unluckily D 448969
unexpired D 433743
unreadable D 430777
uncongenial D 429726
unfitness D 426889
ungenerous D 424237
unmerited D 421764
undeserving D 421339
unlabeled D 417636
unmeasured D 417236
unsullied D 415167
underpaid D 413124
unclaimed D 411011
unleavened D 397410
underlain D 397351
unstained D 396163
underhand D 391741
unconcern D 390728
urethritis D 388849
unfeigned D 387561
unpainted D 387048
unalloyed D 386923
unbalance D 378584
unbearably D 375765
unsteadily D 371386
unfailingly D 370448
unwrapped D 360614
unenviable D 354001
unmediated D 348129
unhurried D 340543
unclouded D 336871
uncharged D 332231
undercuts D 315551
undefiled D 312512
unexposed D 297462
unfocused D 297386
upbraided D 290806
unbleached D 286251
underpins D 280011
unrivaled D 274690
unrefined D 271721
unskilful D 266207
uncoupled D 262794
undulation D 262615
unraveled D 258567
underrate D 254192
unordered D 249018
upholders D 243987
untrodden D 228660
unworldly D 223304
unashamed D 223116
undefeated D 222795
unrewarding D 221822
uproarious D 221704
unfaltering D 214134
unbeatable D 211332
uncannily D 206730
ungrounded D 205173
unresisting D 199484
unfeasible D 199404
univalent D 196928
uninspiring D 195951
untypical D 190314
unstudied D 189295
unworthily D 189227
underflow D 184661
undemanding D 183414
unscrewed D 181389
uncrossed D 175624
undulated D 170429
unlighted D 168934
ultrahigh D 168485
unmusical D 163975
urologist D 163164
ungraceful D 163116
upcountry D 162512
unvisited D 155992
unsparingly D 152881
unsubdued D 149056
undersell D 148134
unreduced D 146980
unplugged D 145908
unrevealed D 138276
unhealthful D 137876
undeceive D 136465
unchained D 134605
ultimates D 131686
uncrowned D 124030
unlovable D 123951
ungoverned D 122862
uprightly D 122462
unbuttoning D 118341
underdogs D 117358
unbuckled D 117242
undercoat D 115579
unsaleable D 110955
unelected D 110604
untrimmed D 107948
unprinted D 106710
unwounded D 104023
uncolored D 102465
underused D 101418
unlatched D 100851
unaudited D 99233
unmounted D 98791
unseasoned D 97270
unstamped D 96567
uncrowded D 93790
undergrad D 89795
underpass D 88866
unreleased D 88498
unnameable D 87779
umbrageous D 87753
unblocked D 87587
uncreative D 86394
unhitched D 85470
unsalable D 84327
unfathomed D 83766
unexcited D 83252
unstirred D 78761
untwisted D 78680
unsaddled D 76385
unreasoned D 74025
unsettles D 73068
undershot D 73034
unclasped D 72516
unrevised D 72320
untrusted D 71813
unbalancing D 71194
underplay D 71158
unadapted D 68519
underrating D 66049
unfastening D 65916
unbranded D 64150
unbundled D 63576
unburdening D 62392
unpoetical D 60876
unamended D 60847
unwelcoming D 59759
unappeased D 58668
undersold D 58022
underdone D 57216
unwatched D 56754
unaligned D 55708
unfledged D 55332
undulates D 51778
unadvised D 51187
unexcused D 51145
untethered D 49511
undresses D 48465
unkindest D 48097
unbridged D 47813
unworried D 45686
unfrocked D 45311
undermost D 44961
unhatched D 44843
unsnapped D 44305
underarms D 43411
ulcerates D 43252
unaesthetic D 43013
unshrinking D 41583
unlivable D 40404
unhappier D 40329
unfeelingly D 39575
unhonored D 38381
unscented D 37071
unarmored D 36794
unripened D 36359
unstopped D 35594
unplumbed D 34969
unshapely D 33045
unhealthily D 32926
univalves D 32441
unnervingly D 31224
unfavored D 30366
underfeed D 30203
unpressed D 28618
unbosomed D 27456
unlikable D 27442
unseasonal D 26506
undeceiving D 26435
unharness D 23037
unvaryingly D 21612
unclimbed D 21455
underpaying D 20627
unmuzzled D 20564
unshackle D 20482
ululations D 20037
uncivilly D 19748
unbuttons D 19730
unrepeated D 19270
uncouples D 18883
unsmilingly D 18561
usherette D 17469
unclogged D 16847
unlikeable D 16837
upholster D 16418
unstacked D 16385
unshackling D 15102
underlays D 14676
unburdens D 14376
unentered D 14357
unbruised D 14339
unaroused D 13178
unfastens D 12505
underpart D 12407
upstrokes D 12201
unlimbering D 11749
unstrapping D 10489
undertows D 10300
unfettering D 9607
unsighted D 9566
uppercuts D 8764
untactful D 8268
unwearable D 7794
unloosening D 7600
uncloaked D 7221
underpays D 7062
ultimated D 6421
unsoundly D 6238
ufologist D 6114
unbiasedly D 5849
unicycles D 5526
unbuckles D 5474
unfreezes D 5243
unlatches D 4925
uncrosses D 4452
unsnarled D 4412
unhealthier D 4382
unfeasibly D 3996
underacting D 3867
underfund D 3666
umbrellaed D 3340
unspanned D 3228
upchucked D 3183
untidiest D 2627
unworthier D 2596
unholiest D 2486
unfairest D 2339
unfetters D 2293
underbids D 2289
upstarted D 2131
unhitches D 2055
unquieted D 1878
unloosens D 1805
undersign D 1788
urbanizes D 1785
ungodliest D 1642
unlimbers D 1437
uncleanest D 1327
underneaths D 1290
underlips D 1169
unruliest D 1113
unsteadier D 1088
unsaddles D 1030
upstreamed D 760
uncannier D 662
unpackers D 578
underacts D 370
unsounder D 363
uniformer D 362
unsealable D 310
ungainlier D 182
unhandier D 103
unquieter D 73
unwariest D 48
umbrellaing D 45
