in at the end M 90360
in it at all M 89808
in the ring and M 45624
in at the top M 45069
in it is not M 37458
in at the death M 33687
in on the act M 33157
in the king and M 33138
in it or not M 30660
in it he had M 23546
in it so that M 21025
in it we see M 19080
in the ring with M 17472
in it is that M 15636
in at the head M 15246
in up to one M 15174
in on the way M 14911
in an as yet M 14050
in on the deal M 13660
in it he was M 13332
in of the new M 12679
in me to say M 12442
in on the new M 12355
in it we are M 12218
in it do not M 11870
in it he has M 11498
in it we can M 11430
in the as yet M 11293
in or on any M 11272
in the thing that M 10421
in it if you M 10110
in it as they M 9808
in or go out M 9667
in it as long M 9554
in to the new M 9419
in us by our M 9224
in or to any M 8848
in on me and M 8609
in me by law M 8500
in as the new M 8083
in it by his M 8070
in on the old M 8007
in on the day M 7828
in up to his M 7796
in by the end M 7560
in by the new M 7462
in it at any M 7392
in the to box M 7382
in the no man M 7360
in it he saw M 7352
in us the idea M 7286
in it of any M 6976
in me at all M 6945
in on the east M 6884
in it at one M 6759
in it as you M 6732
in it the idea M 6720
in us by his M 6694
in the tea and M 6684
in the ring for M 6654
in it to his M 6560
in at the rear M 6418
in the up and M 6274
in on the two M 6273
in on the top M 6248
in as he was M 6206
in by the way M 6186
in on the one M 6181
in it so long M 6164
in as it was M 6109
in on us and M 6096
in us by god M 6090
in us is not M 6060
in the wing and M 6028
in it we may M 5942
in the do not M 5937
in the ring are M 5918
in it in any M 5884
in on the big M 5798
in it as she M 5798
in on it and M 5789
in on the job M 5703
in it if they M 5694
in it at that M 5605
in it the two M 5560
in as if they M 5550
in on my way M 5404
in it the poet M 5398
in on it too M 5296
in it as one M 5219
in on me that M 5202
in to me and M 5135
in us so that M 5076
in it is one M 5048
in it in his M 5022
in it at this M 4974
in to the aid M 4952
in on it with M 4916
in by the two M 4907
in up to two M 4738
in it as far M 4732
in if he had M 4710
in it as his M 4706
in the ring was M 4694
in by the eye M 4677
in the thing and M 4668
in the by now M 4632
in to the old M 4616
in it so far M 4559
in it by its M 4418
in the thing for M 4286
in it as its M 4234
in it we read M 4200
in it of that M 4198
in the ring that M 4195
in on my own M 4182
in it to see M 4136
in as if she M 4122
in an up and M 4098
in at the old M 4094
in me is not M 4090
in it to get M 4052
in so we can M 4045
in the the new M 4026
in it on his M 3882
in me the idea M 3788
in it by this M 3734
in to it and M 3689
in by the men M 3680
in to the end M 3624
in by the old M 3598
in to the idea M 3570
in it to any M 3566
in at the new M 3502
in on the man M 3489
in me at that M 3481
in on the area M 3469
in in the year M 3465
in it the way M 3360
in it in this M 3334
in it of all M 3324
in on the end M 3307
in at the bar M 3286
in it of his M 3262
in the to and M 3240
in it he set M 3174
in the is not M 3167
in us at all M 3156
in it as any M 3152
in of the earth M 3147
in on the real M 3072
in on me with M 3067
in me so that M 3065
in it the old M 3036
in it to win M 3001
in the nth year M 2965
in it in all M 2940
in so as not M 2935
in the it was M 2932
in me to ask M 2932
in me by that M 2930
in to the area M 2874
in by the head M 2846
in to be with M 2843
in the us and M 2842
in at the age M 2825
in on the rear M 2814
in is the one M 2807
in it is now M 2778
in by the day M 2778
in up to her M 2776
in or by any M 2733
in it in one M 2720
in us as our M 2704
in me at this M 2654
in it to this M 2624
in on us with M 2622
in it the key M 2616
in the id and M 2590
in it he did M 2572
in it is its M 2548
in it to that M 2541
in at the box M 2537
in us is that M 2516
in to the east M 2507
in the nth and M 2504
in it is this M 2482
in it by law M 2478
in to the fear M 2452
in to the head M 2449
in to the bar M 2428
in me to see M 2422
in as he had M 2415
in it by any M 2398
in we do not M 2376
in it is all M 2357
in the or and M 2354
in it as being M 2352
in to the net M 2341
in it to let M 2338
in it an old M 2338
in to the top M 2332
in by the law M 2330
in it to bring M 2322
in at the eye M 2320
in at the big M 2317
in me to let M 2316
in it the new M 2314
in to do his M 2309
in up to six M 2295
in it the real M 2271
in us is our M 2266
in at the low M 2265
in me to sin M 2237
in me by this M 2232
in me by his M 2228
in it it was M 2206
in it is too M 2194
in on the map M 2173
in the is and M 2172
in it to her M 2154
in the in this M 2148
in or in any M 2131
in to the big M 2125
in up to our M 2098
in it as that M 2074
in it he can M 2050
in the me and M 2040
in of the old M 2023
in or on his M 2012
in it to all M 2008
in the it and M 1986
in in the end M 1982
in at the far M 1967
in by an old M 1965
in it at his M 1964
in the ring but M 1960
in it in its M 1954
in it as are M 1946
in as he did M 1943
in as if you M 1940
in to the law M 1938
in on the run M 1926
in to the air M 1923
in me to get M 1922
in it is his M 1922
in it by way M 1922
in the so far M 1920
in by the man M 1918
in me as you M 1910
in it we hear M 1908
in on an area M 1904
in by the air M 1903
in me or not M 1894
in it the end M 1894
in it he put M 1880
in if he did M 1878
in or at any M 1874
in at the two M 1863
in on the arm M 1845
in as we are M 1842
in it or that M 1830
in at the one M 1823
in it as big M 1822
in or on them M 1806
in on an old M 1803
in by the use M 1798
in to do this M 1791
in to my own M 1770
in the king that M 1770
in on the far M 1770
in it on one M 1761
in us in our M 1754
in if it was M 1754
in it the one M 1753
in on the long M 1752
in it or its M 1752
in sing sing for M 1744
in it as our M 1742
in the king was M 1734
in it no one M 1727
in it as yet M 1726
in at the east M 1712
in if we are M 1700
in on the key M 1695
in to the web M 1693
in on us that M 1676
in on the war M 1666
in it the man M 1654
in as it did M 1632
in it by our M 1630
in to the war M 1625
in as it does M 1624
in it in that M 1622
in to the man M 1611
in up to ten M 1610
in it if she M 1596
in the ring can M 1594
in the king who M 1594
in it to fit M 1584
in it on this M 1578
in me to put M 1568
in it is far M 1556
in it is due M 1552
in it is but M 1547
in to me with M 1546
in to us and M 1536
in me is that M 1534
in on the idea M 1533
in it to pay M 1532
in or the use M 1527
in on the men M 1524
in the thing being M 1522
in if it had M 1522
in the he was M 1520
in it we had M 1516
in to eat and M 1511
in it by god M 1503
in to or out M 1498
in me the old M 1496
in to tea and M 1490
in it is for M 1488
in it to him M 1472
in us we are M 1466
in me in this M 1466
in it at its M 1464
in to the way M 1460
in the it area M 1444
in it to one M 1444
in it by one M 1432
in it to its M 1430
in if he was M 1430
in in the way M 1422
in the am and M 1418
in it he does M 1418
in it by that M 1418
in the the two M 1414
in it by her M 1410
in it he read M 1406
in to do her M 1398
in it of this M 1394
in by the war M 1394
in the on and M 1384
in on the death M 1383
in us to say M 1376
in it of one M 1374
in it by all M 1374
in it he may M 1372
in it is easy M 1368
in in the mean M 1367
in or do not M 1365
in the thing you M 1360
in it so you M 1356
in it or any M 1356
in on the red M 1352
in or of any M 1351
in to do that M 1349
in the of this M 1340
in it we saw M 1340
in it to put M 1340
in of the two M 1339
in me it was M 1336
in it he not M 1330
in on it all M 1325
in me to add M 1324
in it on that M 1322
in it on her M 1320
in to me for M 1318
in on the wings M 1317
in the thing they M 1288
in it is set M 1280
in if we had M 1280
in to tea with M 1278
in me to bring M 1274
in it to our M 1252
in to the men M 1249
in of the day M 1249
in it to say M 1242
in the the old M 1241
in to the two M 1240
in is the way M 1240
in it on any M 1234
in the of his M 1226
in so he can M 1226
in sing sing and M 1224
in it or you M 1220
in at the bow M 1219
in it of two M 1216
in to the real M 1212
in it as this M 1210
in the ring has M 1206
in up to that M 1202
in the ca and M 1202
in the thing but M 1200
in king of kings M 1195
in the wing that M 1194
in the by then M 1188
in me if you M 1186
in on the boy M 1184
in it as may M 1178
in it in her M 1174
in it or who M 1172
in it or out M 1171
in us in this M 1168
in it in our M 1164
in the the year M 1161
in by the death M 1142
in of the air M 1137
in or on that M 1129
in on me for M 1124
in it to set M 1124
in or on top M 1122
in it so they M 1114
in it an act M 1108
in us to bring M 1104
in it the day M 1101
in on us for M 1088
in it is then M 1088
in the ring than M 1086
in on the air M 1085
in to the long M 1075
in the ring had M 1068
in me in that M 1068
in it the head M 1066
in at the long M 1063
in to eat with M 1061
in of the long M 1058
in it of its M 1058
in us of that M 1056
in it the law M 1050
in the by and M 1044
in as it had M 1043
in to the one M 1040
in on it now M 1036
in by the big M 1035
in us as they M 1030
in me is all M 1027
in by the red M 1027
in it or near M 1023
in us by its M 1020
in me to try M 1012
in it as was M 1012
in of the year M 1009
in in the heat M 1009
in us by this M 998
in it to you M 994
in it by being M 994
in it as her M 994
in on it for M 991
in the ring may M 988
in it the things M 984
in it we get M 982
in the in box M 978
in is the set M 978
in to the earth M 976
in me to run M 968
in at the man M 968
in the in and M 960
in me as any M 960
in it on both M 958
in on the head M 957
in the king for M 956
in to the death M 954
in it on its M 952
in or on its M 944
in the the way M 942
in the at box M 942
in us we can M 940
in by the act M 939
in by the aid M 936
in by the long M 935
in the we are M 932
in it or are M 932
in it an idea M 926
in it is being M 924
in the by box M 918
in as an aid M 917
in to the rear M 916
in the ring you M 914
in it of being M 914
in on the low M 913
in the we can M 910
in by the rear M 910
in it as not M 906
in at me and M 906
in to be put M 901
in me the way M 900
in in the new M 900
in on the off M 897
in as the sun M 893
in to the red M 891
in us by that M 890
in me an old M 888
in it is thus M 888
in the as and M 884
in me on that M 884
in me as they M 884
in the thing was M 882
in the do you M 880
in by the east M 878
in to be his M 876
in on the earth M 865
in us in all M 864
in it is our M 864
in it of her M 860
in on the few M 859
in me he had M 858
in or do you M 857
in on the things M 850
in it as for M 850
in us or not M 846
in me by god M 844
in if he does M 844
in it the death M 842
in it or with M 842
in the if you M 838
in to the heat M 835
in at the red M 835
in as to how M 834
in us of our M 832
in me to this M 832
in by the one M 829
in by the few M 828
in the so that M 827
in up to its M 826
in it at each M 824
in me to lead M 820
in it or for M 816
in or on one M 815
in on the fix M 813
in in the eye M 811
in up to this M 810
in it an air M 810
in it to act M 804
in it he and M 798
in it the long M 796
in it as did M 794
in by it and M 794
in it as god M 791
in me as his M 786
in it to use M 786
in the if and M 784
in me as she M 784
in is an old M 780
in the he had M 778
in on us now M 776
in it in new M 772
in it by men M 772
in in the old M 769
in on the net M 763
in to the job M 760
in it to lead M 760
in it by now M 753
in us or our M 752
in it in two M 751
in us of this M 750
in the pi and M 748
in it of our M 748
in it if one M 746
in the on going M 744
in to an old M 743
in by the low M 743
in the ring they M 742
in the in his M 742
in or on this M 742
in it to try M 742
in as if for M 738
in us as his M 736
in to us for M 736
in on the set M 736
in it the year M 735
in by my own M 735
in of an old M 732
in me by her M 730
in if we did M 730
in the wing with M 728
in it is put M 728
in it is going M 724
in to the day M 723
in it on all M 721
in it as men M 720
in me to sit M 718
in it an easy M 718
in the wing are M 716
in to go and M 714
in he is not M 710
in as the head M 710
in the tea things M 708
in the ring who M 708
in to the sun M 707
in on the poet M 707
in to us with M 706
in us of all M 701
in us in its M 700
in me so far M 699
in the ring now M 696
in it the sun M 696
in it of real M 696
in the tea cup M 694
in the at and M 694
in it at her M 692
in us the far M 686
in by the arm M 686
in of the top M 685
in or to all M 682
in to my new M 680
in the wing for M 680
in on the use M 680
in it or has M 680
in as an end M 680
in to it with M 678
in on my head M 677
in the ring gear M 674
in it is new M 674
in it is both M 674
in the thing than M 672
in it the men M 672
in on me now M 670
in it to read M 670
in by the poet M 668
in it the sum M 665
in the no and M 664
in it by day M 663
in it of both M 662
in it is real M 662
in as the old M 661
in us of god M 659
in the hi and M 654
in me to act M 654
in at the key M 653
in it by using M 650
in us is god M 648
in us at this M 648
in as we did M 646
in the the one M 645
in the king but M 644
in up to now M 642
in if we can M 642
in us by things M 640
in us by them M 640
in on the seat M 639
in it my own M 638
in or on all M 637
in to an area M 636
in as an act M 635
in us is one M 634
in the wing was M 634
in as if with M 634
in in in out M 633
in me the man M 632
in it the god M 632
in on the dead M 631
in the or with M 630
in it or was M 626
in to do all M 624
in it or they M 624
in me to pay M 622
in it to die M 622
in us to our M 620
in the thing she M 620
in or is not M 620
in at me with M 620
in on me one M 619
in of the head M 618
in me on this M 618
in to it for M 616
in the it has M 616
in of my own M 616
in as it has M 616
in or on each M 615
in the king his M 614
in me so long M 614
in it or how M 614
in the as box M 612
in me of that M 610
in to do its M 609
in the the use M 608
in on the dot M 608
in by the myth M 607
in us to let M 606
in the of our M 604
in on us all M 604
in me to set M 602
in it to each M 602
in on the heat M 600
in the an and M 598
in the thing with M 596
in it to add M 596
in the id that M 595
in or by his M 594
in it so she M 594
in to the use M 586
in me is dead M 586
in it if that M 584
in on the team M 581
in it as all M 576
in my tea and M 574
in it as can M 574
in it as had M 572
in it by two M 571
in us of his M 568
in the or for M 568
in it on our M 568
in us at our M 566
in it as does M 566
in it it has M 564
in on the song M 563
in me as one M 562
in to the team M 561
in the at this M 560
in us to any M 558
in it is god M 557
in us as long M 554
in it by him M 554
in us the fear M 552
in me by any M 552
in to the sky M 551
in the the man M 551
in at or near M 551
in if he has M 550
in on us one M 548
in it the use M 546
in it is dead M 546
in it if this M 544
in of the net M 543
in me to use M 542
in it the air M 541
in at the war M 541
in me as long M 538
in by the earth M 538
in me the fear M 534
in to the boy M 533
in of the gap M 532
in us to pay M 530
in to the box M 530
in me the new M 530
in as the two M 529
in on my day M 526
in to the dead M 525
in us to see M 520
in on the web M 520
in to me that M 519
in at the gap M 519
in on the bad M 518
in on it but M 517
in is to get M 517
in it to buy M 516
in on the fly M 514
in it the boy M 514
in it on each M 514
in by the heat M 513
in it or had M 512
in us the old M 510
in or to get M 510
in by the idea M 510
in at my own M 510
in to sing and M 509
in it on top M 509
in if he can M 509
in the wing area M 506
in the in all M 506
in on the lead M 506
in me in all M 506
in as we had M 505
in so it can M 498
in it to run M 496
in it is apt M 496
in me do not M 494
in it as low M 494
in to the low M 493
in to do for M 493
in on my old M 492
in it as dead M 492
in at the air M 491
in us to get M 490
in the the end M 490
in of the act M 489
in the as you M 488
in on me all M 488
in to go out M 486
in of the law M 486
in us by any M 484
in to eat his M 484
in to do our M 484
in as the one M 484
in us to ask M 482
in me it has M 482
in it is out M 481
in me to lay M 478
in it do you M 478
in me is one M 476
in in the mid M 475
in me at any M 472
in us by him M 471
in the of all M 471
in or if you M 471
in so no one M 470
in by the age M 468
in the king our M 466
in or as near M 466
in it the joy M 466
in on the bar M 465
in us to put M 464
in the king had M 464
in on us this M 464
in me in any M 464
in in the east M 464
in to the cry M 462
in to be one M 462
in me he has M 462
in on the beat M 461
in us an idea M 460
in to eat them M 460
in me to bear M 460
in or if they M 459
in to be read M 457
in on the sun M 456
in on the path M 456
in or by this M 455
in the it may M 454
in so it was M 454
in it of god M 454
in on the eye M 453
in it or use M 452
in by the non M 452
in by the top M 451
in it to and M 450
in he or she M 450
in at us and M 449
in as the day M 449
in to it now M 446
in it the eye M 446
in it the dead M 445
in by the boy M 445
in to me this M 444
in as he saw M 444
in is to see M 443
in the is area M 442
in me of all M 442
in it of men M 442
in the king than M 440
in on the law M 440
in it the son M 440
in it as has M 440
in the id are M 438
in it to them M 438
in or on our M 436
in me an idea M 436
in is the sum M 432
in the the law M 430
in is the real M 430
in in the rear M 430
in the the war M 429
in it as now M 428
in to go with M 427
in by the year M 427
in the ring being M 426
in my in box M 426
in it we ask M 426
in the me was M 422
in me or you M 422
in it as real M 422
in it to god M 421
in or at that M 420
in on the box M 420
in on me this M 420
in by the mid M 419
in me or any M 418
in it to hear M 418
in it to hang M 418
in it or one M 418
in by the son M 418
in the thing are M 416
in me to that M 416
in as he sat M 416
in us to this M 414
in the no one M 413
in by it all M 413
in the king with M 412
in the the sun M 411
in at us with M 410
in or to one M 409
in us be not M 408
in us we may M 406
in of an era M 406
in it to sit M 406
in it is bad M 406
in to the far M 405
in of the one M 405
in the em and M 404
in it if not M 404
in it he goes M 404
in it by each M 402
in to the seat M 401
in by the sun M 401
in to the all M 399
in as he has M 399
in us is but M 398
in to sing his M 398
in me to hear M 398
in it be not M 398
in as we can M 398
in is to use M 397
in us by way M 396
in or to this M 396
in it to bear M 396
in the hi area M 393
in by the then M 392
in the we may M 390
in the the long M 390
in it the earth M 390
in it by man M 390
in us at that M 388
in to the joy M 388
in to my aid M 388
in on the dog M 388
in if it does M 388
in it no real M 386
in or it may M 384
in me the joy M 384
in us is his M 382
in the king not M 382
in by an act M 382
in to us that M 381
in the he has M 380
in me is due M 378
in me by all M 378
in it is her M 378
in as the man M 378
in to the meal M 376
in the so and M 376
in of the pit M 376
in in the two M 376
in the the area M 375
in at it with M 375
in the us are M 374
in it is low M 374
in it by both M 374
in as he does M 374
in at the day M 373
in us to god M 372
in to the pit M 372
in the ring does M 372
in on my new M 372
in the the air M 370
in the tea bag M 370
in to the see M 369
in the so long M 369
in us in his M 368
in on the ten M 368
in it an end M 368
in as my own M 368
in as he goes M 368
in the the mean M 367
in as to why M 366
in the us was M 364
in of the sun M 363
in us to lay M 362
in it the ego M 362
in it in six M 362
in to do things M 361
in the ring she M 360
in me in its M 360
in it in both M 360
in is the mean M 360
in us do not M 358
in it to fix M 358
in it to death M 358
in it as both M 358
in or to real M 356
in me if they M 356
in me as yet M 356
in it of old M 356
in the of that M 355
in on the now M 355
in us so long M 354
in us is due M 352
in it we all M 352
in or to his M 351
in or the way M 351
in the he and M 350
in in the area M 350
in on me how M 349
in on the near M 348
in it or can M 348
in is to say M 346
in at the men M 346
in the tea that M 345
in the thing one M 344
in me to beg M 344
in it to dry M 344
in it to aid M 344
in to the song M 342
in the ring all M 342
in the or are M 342
in or the one M 342
in it we put M 342
in us to act M 338
in us the new M 338
in to be new M 338
in me the day M 338
in me of any M 338
in me by our M 338
in it no idea M 338
in by the team M 338
in the wing bud M 337
in us to set M 336
in on the weak M 336
in as the men M 335
in the us for M 334
in if it has M 334
in to do any M 333
in on us any M 333
in on the bear M 333
in of the dead M 333
in us at any M 332
in the the east M 332
in in the air M 332
in or to that M 331
in to me one M 330
in me of this M 330
in it or get M 330
in the of and M 328
in on me too M 328
in us to try M 326
in it to heat M 324
in it on two M 324
in of the death M 323
in me as its M 322
in it is with M 322
in an on going M 322
in to it all M 321
in of the end M 321
in us by all M 320
in to my fear M 320
in in the long M 319
in the as path M 318
in it at low M 318
in to the near M 316
in of the dry M 316
in me as that M 316
in of the men M 315
in at an old M 314
in the en and M 312
in on the easy M 311
in of the area M 311
in at the dead M 311
in as to her M 311
in to no man M 310
in the he did M 310
in me is for M 310
in the in that M 309
in us is all M 308
in to the easy M 308
in the to this M 308
in on the kid M 308
in the at that M 307
in of the age M 307
in to the things M 304
in by the cat M 304
in on the dying M 303
in to the set M 302
in me or that M 302
in it to cut M 302
in it if his M 302
in us as men M 300
in me as far M 300
in it if any M 300
in it by not M 300
in as to who M 300
in to do them M 299
in so we had M 299
in on the bet M 299
in the king all M 298
in me to win M 298
in it at our M 298
in as to his M 298
in as of old M 297
in the the real M 296
in the tea act M 296
in it the red M 296
in it in due M 296
in the ring too M 294
in the it can M 294
in me to his M 294
in it is and M 294
in in the near M 294
in be the set M 294
in us as that M 293
in as if his M 293
in us as this M 292
in or to use M 292
in is the use M 292
in if it did M 292
in on the bow M 290
in it by then M 289
in by an air M 289
in us in that M 288
in us if they M 288
in to sing for M 288
in on an idea M 288
in on the singing M 287
in the ring this M 286
in so it does M 285
in by the bye M 285
in it by you M 284
in the ring one M 283
in or by them M 283
in of the eye M 283
in if it can M 283
in my do not M 282
in it the act M 282
in it is any M 282
in us in any M 280
in to me now M 280
in the wing than M 280
in the oh and M 280
in the of her M 280
in my as yet M 280
in it or does M 280
in by it for M 280
in us in two M 278
in us in one M 278
in to the mix M 278
in the king being M 278
in us to use M 276
in us to its M 276
in the us that M 276
in the thing not M 276
in the of them M 276
in it he thus M 276
in it by doing M 276
in the or was M 274
in the lo and M 274
in my so doing M 274
in as if this M 274
in the is that M 273
in us to that M 272
in the or that M 272
in it or them M 272
in to be near M 271
in at it and M 271
in to an easy M 270
in the thing thus M 270
in the of its M 270
in the in our M 270
in the id box M 270
in me if she M 270
in it to lay M 270
in it as with M 270
in is the old M 270
in us he has M 268
in the ring then M 268
in me no real M 268
in me as her M 268
in it he sat M 268
in is to ask M 268
in at the plea M 268
in of the east M 267
in it the age M 267
in is my own M 267
in us by long M 266
in to the six M 266
in the to him M 266
in the the idea M 266
in or on her M 266
in it we use M 266
in it to deal M 266
in us the things M 264
in it if our M 264
in is it not M 264
in on the six M 263
in to tea this M 262
in the us has M 262
in it of long M 262
in it by them M 262
in the as they M 260
in or of this M 260
in at the near M 260
in as to its M 259
in the on this M 258
in at the boy M 258
in of the era M 257
in us is now M 256
in to the path M 256
in the be and M 256
in me he saw M 256
in it no new M 256
in it is old M 256
in in the day M 256
in by the kings M 256
in as an old M 255
in to the bad M 254
in the we had M 254
in the ring due M 254
in is the area M 253
in to the lot M 252
in the to wit M 252
in me is going M 252
in me as this M 252
in it up and M 252
in it or being M 252
in by no one M 252
in to tea one M 251
in it the being M 251
in at the job M 251
in as we all M 251
in to my old M 250
in the ring did M 250
in the at each M 250
in me to die M 250
in it we did M 250
in it the sin M 250
in me to own M 249
in is the idea M 249
in me my own M 248
in me is this M 248
in it the cry M 248
in it it may M 248
in as he lay M 248
in to the act M 247
in on an all M 247
in is if you M 247
in is an age M 247
in to the now M 246
in the ring area M 246
in the in any M 246
in me is now M 246
in it or his M 246
in it of new M 246
in it an odd M 246
in if we get M 246
in as the way M 246
in as of his M 246
in if at all M 245
in us is too M 244
in to no one M 244
in the in one M 244
in so he was M 243
in the the day M 242
in sing sing was M 242
in on it was M 242
in me the things M 242
in me is doing M 242
in an at all M 242
in on the year M 241
in the the mid M 240
in the tea for M 240
in the so doing M 240
in the king air M 240
in or to die M 240
in at my old M 240
in as it can M 240
in or by using M 239
in it to man M 239
in us is for M 238
in us as far M 238
in the at end M 238
in on the bit M 238
in it the few M 238
in at an odd M 238
in as we saw M 238
in on the cut M 237
in me is but M 237
in to the sin M 236
in the the top M 236
in or by its M 236
in me to god M 236
in me by being M 236
in the of new M 235
in the of god M 235
in on the all M 235
in us of things M 234
in to the non M 234
in the do and M 234
in the as for M 234
in by the fear M 234
in to tea that M 233
in me is too M 232
in me by you M 232
in by the all M 232
in as he can M 232
in to the beat M 231
in to an all M 231
in to the son M 230
in the up was M 230
in the in its M 230
in on the cat M 229
in to the myth M 228
in the wing had M 228
in the of any M 228
in the king her M 228
in me he was M 228
in it is weak M 228
in us to his M 226
in us is being M 226
in to the dry M 226
in or be cut M 226
in it is man M 226
in or by one M 225
in me by them M 224
in to us are M 223
in to it are M 223
in the of one M 223
in if no one M 223
in me at one M 222
in it of how M 222
in as the war M 221
in us as yet M 220
in the wing web M 220
in the by this M 220
in me do you M 220
in to my head M 219
in by the real M 219
in us or them M 218
in it to new M 218
in do or die M 218
in it to two M 217
in if he got M 217
in at an all M 217
in us to bear M 216
in the king nor M 216
in it we try M 216
in it an all M 216
in the at all M 214
in or at his M 214
in on the plea M 214
in on the due M 214
in me to any M 214
in it to ask M 214
in at the earth M 213
in us or that M 212
in me he hath M 212
in it by and M 212
in by the lie M 212
in it as near M 211
in us the way M 210
in the thing can M 210
in or by way M 210
in me to read M 210
in me by its M 210
in it or may M 210
in it is cut M 210
in if we now M 210
in by me and M 210
in on it yet M 209
in at the seat M 209
in the thing too M 208
in or to put M 208
in or it can M 208
in it we say M 208
in it to rid M 208
in it to heal M 208
in it to fear M 208
in by the bad M 208
in it the non M 207
in it the all M 207
in us is this M 206
in up to then M 206
in it or she M 206
in is in this M 206
in by or near M 206
in us or out M 205
in by or for M 205
in at the dear M 205
in us or god M 204
in us of any M 204
in to it was M 204
in me the one M 204
in king of new M 204
in it or him M 204
in it of not M 204
in it in may M 204
in is the new M 204
in up to and M 202
in in the war M 202
in by the six M 202
in of the real M 201
in us on earth M 200
in us is apt M 200
in us as was M 200
in to the eye M 200
in the the act M 200
in sing sing with M 200
in me to deal M 200
in me to cry M 200
in it of things M 200
in is the net M 200
in in my own M 200
in by the sky M 200
in us to lead M 198
in us so far M 198
in us of being M 198
in the tea was M 198
in the ring not M 198
in it he now M 198
in it by long M 198
in to the age M 197
in on the then M 197
in the to them M 196
in or by that M 196
in it we set M 196
in it it does M 196
in it by heat M 196
in or to let M 195
in the us than M 194
in the king can M 194
in on the odd M 194
in me is being M 194
in it to earn M 194
in is the key M 194
in in the age M 193
in or on and M 192
in it in each M 192
in in the one M 191
in if we all M 191
in us as god M 190
in the wing but M 190
in the the men M 190
in so as far M 190
in as we read M 190
in on the non M 189
in us as being M 188
in the is now M 188
in the at any M 188
in or in out M 188
in me to lie M 188
in to be out M 187
in by the far M 187
in us the joy M 186
in the the head M 186
in me my old M 186
in it if all M 186
in as it may M 186
in it at two M 185
in as it goes M 185
in the it era M 184
in on an easy M 184
in me to not M 184
in me of his M 184
in it the path M 184
in at the law M 183
in as the air M 183
in us by being M 182
in to be her M 182
in the in both M 182
in or to see M 182
in or the sun M 182
in me is dying M 182
in it the six M 182
in it on earth M 182
in it is yet M 182
in by the near M 182
in is to bring M 181
in by the lead M 181
in us to all M 180
in us it has M 180
in us is thus M 180
in the to his M 180
in on the meat M 180
in it the wings M 180
in it an apt M 180
in is the man M 180
in by the easy M 180
in on us but M 179
in the to see M 178
in the thing had M 178
in the or can M 178
in on us out M 178
in of the war M 178
in of the box M 178
in it we not M 178
in it the seat M 178
in it the fear M 178
in it or die M 178
in it at both M 178
in if he saw M 178
in by the ego M 178
in to to and M 177
in or on earth M 177
in as we sat M 177
in as the law M 177
in on me was M 176
in me is real M 176
in me in his M 176
in it the aim M 176
in at the now M 175
in to be cut M 174
in the wing near M 174
in me in one M 174
in me at his M 174
in me an odd M 174
in it the song M 174
in it of fear M 174
in it no man M 174
in at the pit M 174
in to the lie M 173
in of the son M 173
in us of its M 172
in the we now M 172
in the ca are M 172
in on the dry M 172
in on my son M 172
in me at her M 172
in by or with M 172
in on it this M 171
in as he and M 171
in us is far M 170
in on me but M 170
in me to fly M 170
in it he got M 170
in it at ease M 170
in as the team M 170
in as if all M 170
in to the dog M 169
in at the area M 169
in us is its M 168
in to do him M 168
in the ring dog M 168
in the if then M 168
in my or our M 168
in is the god M 168
in the the earth M 167
in it is death M 167
in is of too M 167
in us on our M 166
in to the gap M 166
in the me had M 166
in on the pre M 166
in me to her M 166
in it in ten M 166
in it as man M 166
in by it too M 166
in on the fear M 165
in the us but M 164
in or of that M 164
in or at this M 164
in me to you M 164
in me of being M 164
in me is its M 164
in it at death M 164
in at the win M 164
in as the top M 164
in to the god M 163
in on me any M 163
in at the toy M 163
in us if our M 162
in to be set M 162
in the tea now M 162
in it so few M 162
in it as things M 162
in by the dog M 162
in by the dead M 162
in as the real M 162
in if it die M 161
in us is both M 160
in to us out M 160
in the woe and M 160
in the am not M 160
in on the meal M 160
in on my rear M 160
in it or did M 160
in it on may M 160
in it is non M 160
in it he lay M 160
in by the song M 160
in by the gap M 159
in as we lay M 159
in us or any M 158
in us as any M 158
in it as new M 158
in it as bad M 158
in by us all M 158
in at us out M 158
in by the due M 157
in us to him M 156
in the wing has M 156
in the us with M 156
in the tea she M 156
in the ring each M 156
in the is one M 156
in of the sky M 156
in it to bid M 156
in it if its M 156
in as an easy M 156
in to be too M 155
in as we got M 155
in to the plea M 154
in the thing may M 154
in the as new M 154
in on the wet M 154
in of the wet M 154
in me on any M 154
in it on and M 154
in in an old M 154
in by it but M 154
in at an easy M 154
in us of two M 152
in us by law M 152
in to sing with M 152
in the we see M 152
in the me are M 152
in or it was M 152
in on us was M 152
in on the lot M 152
in on an off M 152
in me by now M 152
in me as not M 152
in it or put M 152
in it is read M 151
in it is long M 151
in by the weak M 151
in the by far M 150
in or to our M 150
in me to its M 150
in on me then M 149
in at my new M 149
in to be real M 148
in the if this M 148
in on the gap M 148
in it the big M 148
in it is you M 148
in it do they M 148
in it by non M 148
in to it too M 147
in on the log M 147
in on the leg M 147
in of the may M 147
in us to win M 146
in the tea with M 146
in sing sing had M 146
in or to things M 146
in or to them M 146
in or to run M 146
in or the old M 146
in or if she M 146
in of the man M 146
in me to fear M 146
in me on all M 146
in it the easy M 146
in by to our M 146
in by the seat M 146
in as the end M 146
in or by our M 145
in on the age M 145
in of the big M 145
in as to get M 145
in as the son M 145
in us it was M 144
in us is and M 144
in to me was M 144
in to be our M 144
in the wing can M 144
in the ca was M 144
in or of one M 144
in me to aid M 144
in me by then M 144
in it to ease M 144
in it or let M 144
in it of non M 144
in it if and M 144
in in the top M 144
in by the may M 144
in to it that M 143
in of the map M 143
in it as two M 143
in by us and M 143
in by the area M 143
in as he ran M 143
in us by her M 142
in the the eye M 142
in the the age M 142
in the ring his M 142
in me is his M 142
in me do read M 142
in it the meat M 142
in it the low M 142
in is to try M 142
in by the things M 142
in to do one M 141
in me the son M 141
in it in red M 141
in us to add M 140
in us the two M 140
in to the key M 140
in the ring thus M 140
in tea is not M 140
in me is far M 140
in is in its M 140
in the the set M 139
in or so near M 139
in or of his M 139
in on it then M 139
in us the act M 138
in to the mid M 138
in to the bag M 138
in the via due M 138
in the to say M 138
in the or may M 138
in the king may M 138
in the it age M 138
in the go and M 138
in or on man M 138
in or he was M 138
in me by way M 138
in it to things M 138
in it to both M 138
in it by use M 138
in it at odd M 138
in it of man M 137
in as the big M 137
in the of each M 136
in or he may M 136
in on us are M 136
in of the six M 136
in of an age M 136
in no or low M 136
in me as had M 136
in it the heat M 136
in it of him M 136
in it as thus M 136
in it as few M 136
in as the lead M 136
in us as one M 135
in on us too M 135
in on my job M 135
in the wing box M 134
in it the poem M 134
in on to them M 133
in on it that M 133
in is to put M 133
in as the year M 133
in to us this M 132
in the to get M 132
in the ring yet M 132
in or of god M 132
in it to men M 132
in it of lead M 132
in it do all M 132
in in the add M 132
in in no way M 132
in to the poem M 131
in the of being M 130
in the no they M 130
in the he who M 130
in it the sad M 130
in he do not M 130
in to the weak M 129
in of the idea M 129
in in so far M 129
in at the dry M 129
in us the law M 128
in us as are M 128
in the via tor M 128
in or at all M 128
in or an out M 128
in on the pay M 128
in it to lie M 128
in it or see M 128
in to my son M 127
in in the dead M 127
in us to aid M 126
in us as you M 126
in to it but M 126
in the ring doing M 126
in or of being M 126
in on the ill M 126
in on the bias M 126
in me of its M 126
in me by one M 126
in it of earth M 126
in is an act M 126
in by it than M 126
in is the law M 125
in at the pro M 125
in us or for M 124
in the thing has M 124
in the tea they M 124
in the eat and M 124
in or of both M 124
in my so long M 124
in me the real M 124
in me it had M 124
in it or too M 124
in it by going M 124
in it as out M 124
in it as old M 124
in is the end M 124
in by the odd M 124
in by me for M 124
in the ring any M 123
in or by him M 123
in it is fit M 123
in at the mid M 123
in or of them M 122
in or is being M 122
in of an area M 122
in me to buy M 122
in me by and M 122
in it to fly M 122
in it or why M 122
in it of each M 122
in it at age M 122
in by it that M 122
in at the all M 122
in as we see M 122
in as in any M 122
in to the pre M 121
in it the war M 121
in us the real M 120
in us an act M 120
in the to that M 120
in the the big M 120
in the id with M 120
in the as far M 120
in on my arm M 120
in me on his M 120
in me of her M 120
in me no one M 120
in me if not M 120
in me by him M 120
in at the real M 120
in as an idea M 120
in to do with M 119
in the ring two M 119
in so do not M 119
in on the lie M 119
in my the new M 119
in us is going M 118
in me the east M 118
in it the then M 118
in it the pre M 118
in it or using M 118
in it in old M 118
in by the wings M 118
in at the few M 118
in as the key M 118
in to the dim M 117
in me is god M 117
in it the mean M 117
in by the net M 117
in as he got M 117
in we go and M 116
in to us all M 116
in the tea may M 116
in the or area M 116
in the he then M 116
in the by his M 116
in so he had M 116
in or on red M 116
in of the things M 116
in me in her M 116
in me as did M 116
in it so big M 116
in it is red M 116
in it by far M 116
in to be bad M 115
in the me that M 115
in so we did M 115
in or to sit M 115
in is the heat M 115
in us or with M 114
in the wing being M 114
in the thing now M 114
in the ring goes M 114
in or as they M 114
in on the poem M 114
in of the low M 114
in me the two M 114
in it is two M 114
in it is doing M 114
in it he sings M 114
in it he hath M 114
in it an aid M 114
in by it are M 114
in to the pro M 113
in as we try M 113
in us to die M 112
in to the kings M 112
in to it you M 112
in to eat our M 112
in the wing they M 112
in the us had M 112
in the ring long M 112
in the it had M 112
in on the tag M 112
in of the non M 112
in my by now M 112
in me an easy M 112
in by the bar M 112
in the as one M 111
in us to them M 110
in us the cry M 110
in us it may M 110
in us by sin M 110
in us by one M 110
in the in new M 110
in so to say M 110
in sing sing doing M 110
in or to bring M 110
in or on him M 110
in on if you M 110
in me he did M 110
in me as being M 110
in it so his M 110
in it or act M 110
in it he won M 110
in at us all M 110
in it at mid M 109
in to me but M 108
in the to use M 108
in the the pre M 108
in so he did M 108
in or eat out M 108
in me by both M 108
in it or both M 108
in it he who M 108
in or as its M 107
in on the mid M 107
in of the set M 107
in it at new M 107
in if we use M 107
in us to deal M 106
in us is then M 106
in the we and M 106
in the or but M 106
in the king are M 106
in sing sing who M 106
in on the son M 106
in on me you M 106
in on at its M 106
in of the meat M 106
in me or did M 106
in it is fear M 106
in by the now M 106
in of the bad M 105
in of the aid M 105
in as he read M 105
in us to run M 104
in the the non M 104
in or we can M 104
in in the use M 104
in as if her M 104
in an on and M 104
in in in odd M 103
in us we had M 102
in to it she M 102
in the wing who M 102
in the the path M 102
in the tea can M 102
in the tea area M 102
in the as are M 102
in me by too M 102
in it on how M 102
in it no non M 102
in the of two M 101
in on the pro M 101
in on my two M 101
in on an east M 101
in it as non M 101
in is an idea M 101
in by the wet M 101
in by the job M 101
in the id does M 100
in or on meat M 100
in or he has M 100
in or do any M 100
in on the sky M 100
in me is you M 100
in me at our M 100
in it we too M 100
in it of use M 100
in it is owing M 100
in at the run M 100
in is an easy M 99
in in the far M 99
in us on this M 98
in us as does M 98
in on the bag M 98
in me on one M 98
in me as big M 98
in it or try M 98
in it of joy M 98
in it is how M 98
in he is going M 98
in by my old M 98
in by an easy M 98
in at the weak M 98
in an do not M 98
in us of one M 97
in it the set M 97
in is the long M 97
in us or are M 96
in the wing set M 96
in the thing read M 96
in the ring say M 96
in the ring near M 96
in the or had M 96
in the id act M 96
in the as being M 96
in or to its M 96
in on an air M 96
in me to them M 96
in me an eye M 96
in it the now M 96
in it on new M 96
in it my sin M 96
in it it can M 96
in it as heat M 96
in is to let M 96
in or the things M 95
in us the dead M 94
in us as she M 94
in to us now M 94
in to the ego M 94
in the wing now M 94
in the the sum M 94
in the ring sat M 94
in the it does M 94
in the in her M 94
in or on dead M 94
in or it does M 94
in on the cup M 94
in me to heal M 94
in me to cling M 94
in me the long M 94
in me is owing M 94
in it an eye M 94
in the wing off M 93
in the the low M 93
in the of man M 93
in of the few M 93
in is the head M 93
in if the two M 93
in to me near M 92
in the to her M 92
in the thing does M 92
in the the heat M 92
in the or any M 92
in the no fly M 92
in the at one M 92
in me an air M 92
in it we got M 92
in it be put M 92
in by the dry M 92
in by my son M 92
in to eat her M 91
in to be led M 91
in the the sky M 91
in of an idea M 91
in at the tag M 91
in us it can M 90
in us by real M 90
in the the far M 90
in the or has M 90
in the my own M 90
in the king two M 90
in the he can M 90
in or to opt M 90
in or by all M 90
in me of how M 90
in it so easy M 90
in it of doing M 90
in it no sin M 90
in it is hung M 90
in it he too M 90
in is the easy M 90
in on the cry M 89
in on an ill M 89
in of the use M 89
in of the heat M 89
in it at eye M 89
in us no awe M 88
in us is real M 88
in us as its M 88
in to the ill M 88
in the tea bar M 88
in the as with M 88
in or by sin M 88
in me to aim M 88
in it to real M 88
in it the near M 88
in it no how M 88
in it no fear M 88
in is the day M 88
in as the long M 88
in to my death M 87
in by the path M 87
in as the earth M 87
in us of fear M 86
in us is dead M 86
in us he can M 86
in us at its M 86
in the wing may M 86
in the tea had M 86
in the ring using M 86
in the of both M 86
in the if they M 86
in or to ask M 86
in or to act M 86
in or of our M 86
in or is this M 86
in or an old M 86
in on or out M 86
in my tea cup M 86
in me to beat M 86
in me the heat M 86
in me so why M 86
in it to being M 86
in it it had M 86
in it in real M 86
in it in bad M 86
in it he then M 86
in it by old M 86
in by the cry M 86
in by the bit M 86
in the us who M 84
in the to bring M 84
in the sing song M 84
in sing sing that M 84
in or the air M 84
in me the sad M 84
in me or for M 84
in me go out M 84
in it the ten M 84
in it the area M 84
in it of but M 84
in the the near M 83
in or to aid M 83
in on us then M 83
in it to day M 83
in us we owe M 82
in us the death M 82
in the us can M 82
in the on his M 82
in the id was M 82
in on or off M 82
in my it was M 82
in it or add M 82
in it by six M 82
in it by death M 82
in it by act M 82
in it as due M 82
in is in all M 82
in is he who M 82
in as is not M 82
in the of war M 81
in at the path M 81
in us on any M 80
in us at one M 80
in the the red M 80
in on us how M 80
in me of one M 80
in me if any M 80
in me an act M 80
in it so bad M 80
in it or going M 80
in it of ten M 80
in it is ten M 80
in it he both M 80
in it an area M 80
in to the lead M 77
in to the few M 75
in at the net M 72
in an if then M 72
in of the key M 69
in on the not M 68
in in the red M 68
in to the meat M 66
in to the deal M 66
in to the cut M 66
in at an age M 66
in of the cut M 65
in on at any M 64
in on to his M 63
in in the big M 63
in so he does M 62
in by the key M 62
in to the poet M 60
in to eat but M 60
in in the act M 60
in at me for M 60
in to the pay M 59
in on the joy M 59
in it the far M 59
in in the head M 59
in at my age M 59
in to me all M 57
in on an act M 57
in at the dog M 57
in to me two M 56
in to go for M 56
in so we are M 56
in to the then M 55
in to the log M 55
in to the dying M 55
in at my death M 55
in as no one M 55
in via the web M 54
in to an end M 54
in of the leg M 54
in as the boy M 54
in to the map M 53
in to do odd M 53
in it no being M 53
in at the cut M 53
in as we may M 53
in on the myth M 52
in in in ill M 52
in at my head M 52
in to me are M 51
in or the out M 51
in on the sad M 51
in on the and M 51
in of the red M 51
in is to set M 51
in by the web M 51
in the ca that M 50
in so it did M 50
in it the top M 50
in is in his M 50
in by the pre M 50
in us as can M 49
in to the ten M 49
in to my dear M 49
in to an idea M 49
in the he that M 49
in on the may M 49
in on in this M 49
in in an area M 49
in if we let M 49
in at the six M 49
in as to our M 49
in as he put M 49
in to do and M 48
in on it one M 48
in in the real M 48
in in in let M 48
in if it got M 48
in to us was M 47
in or an opt M 47
in on my big M 47
in it of air M 47
in is by far M 47
in as in our M 47
in as an all M 47
in to the run M 46
in to the cup M 46
in to tea now M 46
in or at one M 46
in on my man M 46
in in the box M 46
in by the set M 46
in at the pre M 46
in at the bear M 46
in to my job M 45
in to it yet M 45
in to it than M 45
in to be rid M 45
in on me yet M 45
in is to buy M 45
in by an all M 45
in as of yet M 45
in to the sum M 44
in to the bear M 44
in on the aging M 44
in in the sun M 44
in by the pro M 44
in as we now M 44
in on the bug M 43
in of the lead M 43
in is to add M 43
in in the low M 43
in by the ten M 43
in as we get M 43
in as the song M 43
in as if that M 43
in to the mad M 42
in to be off M 42
in to be for M 42
in or to pay M 42
in on the lay M 42
in at the year M 42
in at the idea M 42
in at me one M 42
in as the all M 42
in as in all M 42
in to us may M 41
in to tea you M 41
in the the key M 41
in on to our M 41
in it an age M 41
in is the act M 41
in in the sky M 41
in by the singing M 41
in at the due M 41
in at the cat M 41
in as the rear M 41
in as my new M 41
in as it now M 41
in to the year M 40
in to me any M 40
in or the day M 40
in on to this M 40
in is the age M 40
in by the lay M 40
in as of this M 40
in the sea and D 118622
in the ear and D 23574
in my ear that D 18134
in the sea are D 18024
in the sea for D 16158
in the sea off D 14594
in the sea with D 14506
in the sea that D 14101
in my ear and D 13156
in the sea near D 11319
in on the fun D 9022
in an ad for D 8626
in the sea than D 8580
in the sea was D 8428
in the er and D 7350
in the sea but D 6456
in the ear with D 6284
in the sea ice D 5934
in the sea area D 5722
in the ear that D 5352
in the sea air D 5316
in the ox and D 5254
in the sea bed D 4902
in the sea has D 4900
in the ad and D 4156
in the ear for D 3984
in the sea can D 3830
in the sea they D 3804
in the ear are D 3700
in on the eve D 3624
in the sea may D 3504
in the fa cup D 3420
in the ion beam D 3284
in the ear may D 3096
in by the ears D 2679
in the sea had D 2588
in my ear with D 2574
in by the ice D 2572
in the ms and D 2298
in the dc area D 2125
in the ad for D 2082
in the toe and D 2068
in the ion and D 1932
in the ad was D 1916
in the sea all D 1902
in the ad that D 1836
in an ad that D 1823
in on the bus D 1788
in the pa and D 1646
in on the art D 1636
in the ear can D 1596
in by the ringing D 1577
in or on raw D 1575
in an ear with D 1566
in the la area D 1563
in on the car D 1559
in the dc and D 1548
in the ear was D 1534
in to the bay D 1514
in the pea and D 1456
in at the bay D 1455
in the sea lion D 1406
in my ear was D 1396
in the ho chi D 1386
in the er with D 1334
in the nth row D 1330
in by sea and D 1268
in my ear for D 1260
in the sea not D 1248
in the cs and D 1200
in to the car D 1194
in on the bed D 1191
in the sea this D 1188
in the sea now D 1180
in the toe area D 1172
in the ad are D 1166
in on the sly D 1164
in the xi and D 1144
in by the tip D 1123
in by the earl D 1113
in to be fed D 1075
in on the gag D 1067
in the er for D 1030
in the er are D 990
in the ear but D 980
in the sea war D 956
in it by sir D 920
in the toe box D 916
in the lea and D 900
in the sea one D 859
in the la and D 854
in the ear has D 854
in the ear east D 854
in the ha and D 850
in me ye may D 850
in re ah yup D 844
in the sea does D 838
in on the hot D 827
in my ear all D 811
in at the inn D 806
in the sea you D 794
in at the pub D 794
in at the ears D 792
in the sea being D 788
in an fa cup D 766
in the hoe and D 760
in the er that D 742
in to the lab D 736
in in re air D 735
in the sea who D 732
in an ad and D 730
in an ion beam D 712
in my tho and D 710
in the sea far D 706
in at the car D 690
in the er was D 674
in the sea due D 664
in to the bed D 654
in the sea god D 644
in by the ton D 641
in the ms are D 640
in on the beam D 632
in the sea she D 616
in my ear but D 612
in sea or air D 610
in the ts and D 606
in the sea east D 580
in ad is not D 578
in the sea too D 564
in of the ice D 564
in the sea then D 560
in on the guy D 557
in the ma and D 552
in by the mob D 551
in the rs and D 550
in in the fog D 540
in by the fan D 538
in an ear that D 536
in at the tip D 535
in the sea did D 526
in on the oil D 525
in on the ice D 519
in the ax and D 518
in at my ears D 518
in the tea pot D 512
in the ear than D 512
in the ox than D 502
in at the toes D 496
in to the hot D 492
in the ls and D 490
in to the mob D 488
in the wing tip D 484
in at the fag D 484
in by the hon D 468
in of the hot D 463
in by the dean D 450
in as the car D 450
in the ear not D 448
in the ms this D 446
in the es and D 446
in by the tax D 443
in sea or sky D 436
in to the dean D 435
in at the peak D 433
in an ad can D 432
in the sea nor D 430
in the sea out D 427
in in re new D 424
in by the gas D 421
in my ear how D 418
in my ear one D 414
in my ear now D 414
in the ta and D 408
in the ear long D 406
in at the bung D 403
in at the gym D 400
in as in fig D 399
in my ear his D 396
in to the hut D 394
in by the oil D 394
in the ox they D 388
in the er but D 388
in it the art D 387
in at the bus D 383
in the ah and D 380
in an ad with D 380
in on the bay D 378
in the or row D 376
in on the lee D 373
in on the gun D 373
in the to rah D 370
in the sea long D 370
in an ox team D 368
in it the ark D 366
in on the gang D 365
in it an egg D 365
in the sea two D 364
in at the lab D 363
in by the car D 361
in the gs and D 360
in of the lid D 359
in the in fig D 356
in the ear being D 354
in by the fog D 352
in at the hut D 351
in to the gas D 348
in the ti and D 348
in at the gun D 347
in ms is not D 346
in at the tap D 343
in to the earl D 333
in the ion are D 330
in the dc bias D 330
in my ear she D 326
in the toe end D 324
in the er had D 324
in the ear they D 322
in the ad but D 322
in my ear this D 320
in to the ice D 319
in the sea fog D 318
in to the bus D 317
in by the hot D 317
in the sea each D 316
in to the vet D 314
in the ad with D 313
in the ms that D 312
in the ear due D 312
in the tea leaf D 310
in the ms but D 310
in my ear not D 310
in the ti for D 306
in the ox are D 304
in the er may D 304
in it he met D 304
in to my bed D 303
in me to wear D 302
in at the bed D 301
in the fa and D 300
in the sea any D 299
in to the mac D 294
in the ear leaf D 294
in the ad lib D 293
in the mi and D 290
in the er can D 288
in the doe and D 288
in at the art D 288
in the ion gun D 286
in on the tip D 284
in the ear had D 282
in of the oil D 277
in to the pub D 276
in the ring beam D 276
in the up per D 272
in the ear cut D 272
in my sea bag D 268
in to the ins D 266
in on the fad D 266
in on my bed D 264
in my ear you D 264
in the ad had D 262
in an ad lib D 261
in the db and D 260
in the on lee D 256
in the sea using D 254
in of the bay D 253
in it the sting D 250
in the the art D 249
in the sea yet D 249
in me as thou D 248
in my ear than D 246
in an ear and D 246
in the er has D 244
in the ad may D 244
in me the zeal D 243
in the sh and D 240
in the pi phi D 238
in woe or weal D 237
in to an inn D 234
in the ox this D 234
in on the con D 234
in at an inn D 231
in it he sang D 230
in an ad may D 230
in by the wen D 226
in the sea both D 225
in the er who D 222
in the ad has D 222
in on the fax D 221
in to the lee D 220
in the toe with D 220
in the cw and D 218
in the ad can D 218
in on the peak D 217
in an ad are D 216
in the king row D 215
in the sea his D 212
in the mu phi D 212
in on the tax D 212
in me the pang D 212
in it as wax D 212
in on the sex D 209
in by the bed D 209
in to the tax D 208
in of the hay D 207
in the toe was D 206
in to the cab D 205
in it to sir D 204
in or toe out D 203
in the ms with D 202
in on the hit D 202
in of the fee D 201
in the sea die D 200
in my ear had D 200
in to the art D 199
in the sea mud D 197
in it as art D 196
in to the bath D 194
in the om and D 192
in the dc arc D 192
in ad is that D 192
in by the sub D 191
in at the gas D 191
in on the van D 190
in of the toes D 190
in of the tax D 190
in the ms was D 188
in an ion with D 186
in of the rim D 185
in the roe and D 184
in me by tom D 184
in ms is that D 183
in in the car D 183
in it the raw D 182
in on the thin D 181
in at the lid D 181
in the ms for D 180
in the ear does D 180
in the ad biz D 180
in of the gas D 180
in it the thin D 180
in of the raw D 179
in it the gas D 178
in at the rim D 176
in an ox and D 176
in the ion that D 174
in the ad you D 174
in it the fat D 174
in the ping pong D 172
in it to sew D 172
in at sea with D 172
in on the rim D 171
in the ho and D 170
in the ear her D 170
in us by art D 168
in the ear area D 168
in on the rye D 168
in to be met D 166
in it of art D 166
in the sea our D 162
in as the ice D 161
in to the pot D 160
in the ad did D 160
in on the gas D 160
in it an art D 160
in the ion than D 158
in me to pry D 158
in it no ray D 158
in the sea ten D 156
in the bi and D 156
in re ah lung D 154
in la or new D 154
in of the mob D 152
in of the leaf D 152
in to the hub D 150
in the sea led D 150
in the re and D 150
in the he gas D 149
in to the inn D 148
in an ear for D 148
in on the sting D 147
in it to sting D 147
in to the cow D 146
in the sea son D 146
in the ear all D 146
in on the fur D 146
in on the trio D 145
in in re lee D 145
in to the mud D 144
in the sea bag D 144
in it to wear D 144
in by the seas D 144
in to the oil D 143
in on my dad D 143
in the pea pod D 142
in the ks and D 142
in at the swing D 141
in to the gun D 140
in my ear then D 140
in by the gang D 140
in by the art D 140
in on my mom D 138
in my ear her D 138
in by the mud D 138
in the lea act D 136
in the ion path D 136
in on the jet D 135
in at the hip D 135
in the king tut D 134
in it to mar D 134
in it the hot D 134
in it on hot D 134
in at the wax D 134
in on the hay D 133
in the ms has D 132
in at the zoo D 131
in at the fun D 131
in the vs and D 130
in the rs but D 130
in the ear you D 130
in the dc bus D 130
in the cs are D 130
in the ax head D 130
in to the den D 129
in on the fat D 129
in the toe for D 128
in the tea hut D 128
in my ear are D 128
in by the fur D 128
in an ion gun D 128
in on the hug D 127
in at the rue D 127
in at the hem D 127
in the sea lying D 126
in or the car D 126
in of the bed D 126
in on the gay D 125
in of the ark D 125
in by the thin D 125
in the sea pen D 124
in the sea its D 124
in the no tax D 124
in the la cup D 124
in on the swing D 124
in on the ebb D 124
in by the bus D 123
in the ear now D 122
in the ad does D 122
in re is not D 122
in the sea goes D 120
in to the gym D 119
in the sea lay D 118
in by the jet D 118
in by the con D 118
in to the tug D 117
in the wing hinge D 117
in on my ears D 117
in to the tip D 116
in the hm and D 116
in the er than D 116
in it the seal D 116
in an ear are D 116
in to the ears D 115
in the sea way D 115
in on the cow D 115
in to ye bed D 114
in the dc are D 114
in at the neat D 114
in at the gay D 114
in on the pie D 113
in on the mat D 113
in at the hot D 113
in the lea area D 112
in the ion with D 112
in the ear each D 112
in the db are D 112
in roe is not D 112
in on the gin D 112
in my ear its D 112
in my ear has D 112
in db is then D 112
in on the lab D 111
in the toe are D 110
in on the mob D 110
in of the thin D 110
in by the cow D 110
in an ad was D 110
in to the pan D 109
in on an art D 109
in of the sap D 109
in at the lion D 109
in the la are D 108
in the ear nor D 108
in me to fay D 108
in in re van D 108
in by the peal D 108
in to the gang D 106
in the sea thus D 106
in the ms can D 106
in the ear she D 106
in the ad than D 106
in at the thin D 105
in the sea doth D 104
in it to swing D 104
in to the hip D 103
in it by art D 103
in the toe web D 102
in the pa are D 102
in the ad who D 102
in my toe and D 102
in it no tinge D 102
in ad is due D 102
in in re all D 101
in the pa for D 100
in the dc for D 100
in it the lion D 100
in the pa was D 98
in the he bath D 98
in the ear then D 98
in la is not D 98
in it to tie D 98
in it of urea D 98
in by the tug D 98
in to the lion D 97
in by an ice D 97
in ms is due D 96
in by the gun D 96
in the pi ice D 95
in the sea eats D 94
in the ion can D 94
in the ad they D 94
in on the seal D 94
in on the hut D 94
in la it was D 94
in it the tang D 94
in it the gem D 94
in by the leaf D 94
in an ad but D 94
in us if thou D 92
in the sea him D 92
in the ear two D 92
in on the jib D 92
in by the gay D 92
in on my car D 91
in the pa with D 90
in on the lion D 90
in it the earl D 90
in it the bed D 90
in the re fig D 89
in of the earl D 89
in is the art D 89
in it to hit D 88
in by the ken D 88
in the toe can D 86
in the lea who D 86
in the eh and D 86
in by the bee D 86
in the ear this D 84
in in re dean D 84
in the woe thou D 83
in the er all D 83
in the ms may D 82
in the en suing D 82
in db at each D 82
in at the dos D 81
in the tea tax D 80
in it as fur D 80
in on the sub D 77
in to the guy D 72
in the toe that D 72
in to the rim D 71
in to the sub D 68
in of the wax D 68
in on the mud D 64
in at the dean D 63
in on the row D 62
in on the jam D 62
in to the fun D 61
in the ear one D 61
in in re may D 59
in at the cab D 57
in to the pin D 56
in on the rug D 56
in at the dam D 55
in the ms dos D 54
in on an icy D 53
in in the per D 53
in on the pot D 52
in on the fog D 52
in on the cab D 52
in at the tax D 52
in at the lip D 52
in as an art D 52
in to the van D 51
in to the sex D 51
in at the hub D 51
in at the van D 50
in at the lee D 49
in at the ice D 49
in sea or earth D 48
in the cs that D 46
in on the spy D 46
in on the rod D 46
in on an oil D 46
in of the thaw D 46
in of an oil D 46
in of the ebb D 45
in it the oil D 45
in to my car D 44
in the sea use D 44
in to the gay D 43
in the ox that D 43
in on the raw D 43
in on the fox D 43
in at the shoe D 43
in to the swing D 42
in to the raw D 42
in in the bay D 42
in at the bath D 42
in to the egg D 41
in to the ark D 41
in my ear any D 41
in in the art D 41
in by the fat D 41
in at the row D 41
in to my mom D 40
in the er one D 40
in on the hip D 40
in on the egg D 40
in at the spa D 40
