inn on the road D 8514
inn in the town D 7673
inn on the park D 5301
ink on the page D 3003
ink on the back D 2843
inn of the sixth D 2674
inn at the foot D 2622
inn in the city D 2578
inn of the town D 2061
inn on the other D 1713
ink to be used D 1702
inn of the good D 1616
inn on the edge D 1592
inn on the left D 1517
inn in the heart D 1509
inn at the time D 1369
inn of the three D 1360
inn on the beach D 1282
inn on the main D 1228
ins in the south D 1200
inn on the north D 1120
inn at the same D 1103
inn at the other D 1046
inn by the road D 978
inn of the same D 950
inn in the early D 933
inn is on your D 891
ink of the same D 890
ink in the same D 845
inn is the only D 830
inn at the edge D 823
inn in the same D 796
inn on the west D 783
inn on the south D 779
inn on the site D 777
ink on the face D 777
inn on the lake D 760
inn on the hill D 751
inn of the city D 732
inn by the side D 678
inn of the hawk D 670
inn in the high D 669
ink on the same D 618
inn at the park D 577
ink is the most D 574
ink in the book D 574
ink at the time D 574
ink of the text D 566
inn in the next D 556
inn on the high D 540
inn in the late D 518
inn on the bank D 503
ink on the left D 476
inn on the same D 470
inn is the most D 463
ink on the slab D 454
ink on the other D 449
ink is the great D 440
inn in the main D 438
ink is the best D 434
inn at the sign D 430
ink on the side D 420
inn is the best D 418
inn on the great D 414
ink to the page D 392
ink on the wall D 390
ink in the form D 379
ink on the book D 366
ink at the same D 354
ink on the type D 352
ink of the last D 352
ins of the early D 350
inn by the lake D 349
ink on the skin D 346
inn on the side D 342
ink on the desk D 337
inn in the north D 322
inn of the blue D 306
ink on the last D 304
ink is the same D 296
inn of the arts D 282
ink to the type D 279
ink on the palm D 272
ins to the outs D 270
ins in the past D 270
ins at the time D 264
ingot of the same D 264
ink at the foot D 260
inn in the west D 258
inn in the south D 256
inn is an ideal D 255
ink on the card D 255
inn at the town D 254
inn to the next D 245
inn of the five D 235
ink as the text D 234
inn of the dawn D 227
ink in the text D 226
inn is as full D 224
ink is the only D 224
inn of the rose D 212
ink in the other D 208
inn at the beach D 207
ins in the early D 206
inn of the four D 206
inn on the quay D 204
inn in the wood D 204
inn on the blue D 201
ink in the left D 200
ink on the edge D 199
ins in the same D 192
ink as the rest D 190
ink at the bank D 188
ink in the ocean D 181
inn at no great D 180
ink in the well D 180
ink in my hand D 180
inn at the base D 176
ink of the best D 175
inn on the post D 174
ink on the form D 174
ins of the late D 173
ins or the outs D 170
inn in the days D 168
ink on the film D 168
ink at the base D 168
ink on the wood D 166
ink on the line D 164
ink to be laid D 158
ink at the edge D 158
ink in the palm D 156
inn by the back D 155
ink in the room D 154
inn up the road D 152
inn in the spring D 152
ink on the inking D 152
ink in the body D 152
ins in the spring D 150
inn on the very D 150
inn at the very D 142
ink on my desk D 142
ink in the copy D 136
ink by the hand D 136
ink on the bill D 134
ink at my desk D 134
inn is on left D 133
ink of the type D 132
ink in the tube D 132
ink in the holy D 132
ink in the last D 131
ink on the peace D 130
ink to the inking D 128
inn of the north D 127
inn by the name D 126
ink on the silk D 126
ink on the base D 126
ink in the clear D 126
inn of the kind D 124
ingot in the form D 124
inn at the next D 122
ink be on their D 120
inn on the town D 118
ink in the pens D 118
ink in the next D 118
ink in the face D 118
inn to the other D 117
inn at the quay D 116
ink of the note D 116
ink as the body D 116
inn to the north D 115
inn to eat some D 114
inn to be shut D 114
inn in the best D 114
inn at the heart D 114
ink of the kind D 114
ink by the same D 114
ins in the late D 112
inn in the snow D 112
inn at the side D 112
ink on the note D 112
ins at the same D 110
inn in the park D 110
ink in the hand D 110
ink on the blue D 109
inn in the very D 108
inn in the great D 108
inn at the west D 108
ink on the spot D 108
ink in the early D 108
inn of the most D 106
ink to the form D 106
ink at the page D 106
inn to the west D 105
ink to the other D 104
ingot to the other D 104
ink on my face D 103
ins in the last D 102
inn in the most D 102
ink in the areas D 102
inn at the mouth D 101
inn in the spot D 100
inn in the alps D 100
ink to the ball D 100
ink on the next D 100
inn at the hour D 98
ink in the very D 97
inn by the same D 94
ink on the cloth D 94
ins of the same D 92
ink so it will D 92
ink on the copy D 92
inn is the very D 91
inn to the well D 90
inn of the sign D 90
inn at the back D 90
ink of the rest D 90
ink of the other D 90
ink is so pale D 90
ink in the case D 90
ink if ye will D 90
inn in the land D 88
ink at the side D 88
inn in the hope D 87
ink to the same D 87
ink in the dark D 87
inn is the kind D 86
ink on the part D 86
ink at the rate D 86
ink by the time D 85
inn of the time D 84
ink in the most D 84
ink at the other D 84
ins in the form D 82
inn is the same D 82
ink to be seen D 82
inn in the last D 80
ink on the pale D 80
ink in the bare D 80
ink at the left D 54
inn of the holy D 52
inn to the town D 50
ink to the left D 50
ink on my nose D 48
inn to the back D 47
ink on the hand D 45
inn in the port D 44
ink on my finger D 41
inn at the south D 40
