ink from the ink D 897
ink from the pen D 892
inn kept by one D 877
inn along the way D 818
inn when he was D 744
inn when it was D 378
inn till he had D 338
inn upon the bath D 331
inn during the year D 289
inn told me that D 281
ink used in this D 264
inn when he had D 249
ink from my pen D 248
ink from an ink D 213
inn kept by his D 196
inn during the heat D 176
ink from the nib D 150
ink from the non D 146
ink into the pen D 145
ink from the top D 145
inn been at any D 140
ink into the boy D 140
ink when it was D 132
ink case at his D 132
inn made an ass D 120
ink when he was D 120
ink from the can D 119
ink spot on his D 118
inn door to see D 112
inn told us that D 106
inn during the day D 99
ink from the old D 98
inn made me pay D 96
ink from the pad D 96
ink spot on her D 92
inn kept by two D 89
inn till the day D 86
inn door by this D 86
inn came in and D 84
inn were in bed D 82
ink laid on with D 82
ink ready to his D 80
ink from the tip D 80
ink time to dry D 46
ink over the top D 45
inn there is not D 40
