into his arms . M 353300
into his eyes . M 322492
into her eyes . M 311116
into his face . M 228960
into each other . M 219051
into her face . M 155254
into his hand . M 133498
into his mind . M 125512
into his room . M 79238
into her arms . M 78280
into her mind . M 75828
into her room . M 75668
into his heart . M 73604
into his life . M 72478
into her hand . M 69112
into her life . M 58840
into his work . M 48388
into his body . M 46332
into her heart . M 45000
into all truth . M 37644
into her hair . M 37450
into his back . M 28748
into his home . M 27624
into her body . M 26020
into this book . M 25002
into new areas . M 22372
into her home . M 21022
into two teams . M 18778
into this trap . M 17778
into one body . M 17336
into his side . M 16292
into this room . M 15124
into his hair . M 14702
into new life . M 12562
into her back . M 12452
into his coat . M 12004
into our home . M 11500
into that room . M 10670
into our room . M 10368
into this work . M 10286
into her work . M 10226
into one unit . M 10004
into that trap . M 9666
into real life . M 8514
into our eyes . M 8500
into his cell . M 8232
into one mass . M 7898
into our heads . M 7882
into our life . M 7834
into his rest . M 7762
into new ones . M 7752
into its fold . M 7658
into his trap . M 7324
into her coat . M 7142
into two sets . M 6870
into two areas . M 6858
into his book . M 6858
into its hole . M 6842
into its making . M 6610
into any other . M 6586
into its body . M 6356
into his care . M 6242
into them here . M 6128
into each other ? M 6030
into his hole . M 5704
into his shop . M 5680
into its heart . M 5614
into his past . M 5582
into this form . M 5496
into her side . M 5430
into dry land . M 5392
into our work . M 5268
into this union . M 5264
into that city . M 5016
into its meaning . M 5012
into one word . M 4930
into his fold . M 4918
into his text . M 4704
into one room . M 4678
into this case . M 4672
into this life . M 4588
into its case . M 4268
into his army . M 4088
into each hole . M 4076
into this land . M 4030
into its face . M 3824
into his case . M 3824
into its side . M 3728
into its eyes . M 3630
into one book . M 3600
into this hole . M 3594
into our arms . M 3540
into her life ? M 3522
into her past . M 3480
into our mind . M 3436
into our time . M 3426
into his plan . M 3414
into that here . M 3390
into that hole . M 3374
into his life ? M 3254
into new paths . M 3226
into his theory . M 3188
into his view . M 3180
into one file . M 3128
into that role . M 3100
into his food . M 3088
into his arms ? M 3008
into this time ? M 3000
into that form . M 3000
into his name . M 2998
into its life . M 2954
into his cage . M 2940
into her care . M 2838
into our union . M 2806
into this city . M 2796
into this room ? M 2712
into that body . M 2706
into her trap . M 2706
into this role . M 2632
into our land . M 2628
into that port . M 2622
into his cave . M 2618
into our hand . M 2534
into this realm . M 2520
into his play . M 2514
into each room . M 2488
into each cell . M 2466
into any form . M 2440
into this time . M 2430
into big ones . M 2430
into his poems . M 2404
into its base . M 2258
into his mind ? M 2232
into bad ways . M 2230
into its nest . M 2216
into its arms . M 2204
into our heart . M 2200
into this town . M 2194
into one view . M 2168
into one line . M 2164
into each well . M 2152
into its work . M 2138
into this range . M 2120
into his will . M 2086
into his dream . M 2086
into this text . M 2060
into his realm . M 2048
into his heart ? M 2044
into his role . M 2012
into her book . M 1996
into dead ends . M 1990
into one form . M 1976
into that life . M 1964
into that town . M 1960
into one cell . M 1916
into his feet . M 1906
into this here . M 1890
into this game . M 1824
into war work . M 1782
into this port . M 1776
into one hand . M 1776
into our body . M 1744
into that land . M 1738
into his tomb . M 1720
into her dream . M 1716
into this lake . M 1706
into its back . M 1696
into his arms ! M 1688
into this plan . M 1684
into two paths . M 1674
into her cell . M 1666
into its truth . M 1648
into her nest . M 1648
into its cage . M 1632
into two arms . M 1628
into two lots . M 1604
into his hand ? M 1592
into her room ? M 1582
into our view . M 1580
into its depth . M 1548
into our trap . M 1534
into her feet . M 1512
into this body . M 1474
into this cell . M 1462
into our past . M 1456
into one side . M 1452
into his room ? M 1452
into that rest . M 1432
into his kiss . M 1416
into her view . M 1400
into that cell . M 1398
into his eyes ? M 1390
into one union . M 1370
into one city . M 1362
into its form . M 1362
into our food . M 1360
into his meaning . M 1352
into being good . M 1342
into his game . M 1326
into one pile . M 1320
into his land . M 1316
into this file . M 1310
into his tale . M 1300
into her fold . M 1294
into new jobs . M 1288
into her food . M 1288
into our care . M 1286
into that work . M 1272
into his heart ! M 1268
into her case . M 1252
into each other ! M 1252
into one step . M 1246
into his city . M 1240
into her shop . M 1238
into our cell . M 1218
into his ship . M 1216
into that tree . M 1206
into its core . M 1206
into that room ? M 1194
into all truth ? M 1186
into his crib . M 1166
into its past . M 1158
into his part . M 1158
into her heart ? M 1150
into her role . M 1148
into our city . M 1142
into her mind ? M 1136
into one work . M 1134
into this trap ? M 1120
into our fold . M 1114
into this view . M 1110
into his talk . M 1102
into one fold . M 1100
into her eyes ? M 1090
into you here . M 1082
into that lake . M 1082
into each case . M 1082
into that realm . M 1080
into two acts . M 1072
into her hold . M 1060
into our home ? M 1058
into two heads . M 1056
into this type . M 1048
into his vest . M 1048
into this part . M 1040
into his love . M 1038
into one list . M 1034
into this theory . M 1032
into that time . M 1028
into that book . M 1024
into key west . M 1020
into his nest . M 1016
into new ideas . M 1002
into our town . M 994
into her crib . M 990
into real ones . M 970
into his home ? M 966
into his time . M 956
into this line . M 948
into this cave . M 948
into being there . M 936
into two years . M 926
into her cage . M 922
into this list . M 918
into his eyes ! M 914
into his songs . M 912
into his wake . M 902
into her core . M 892
into two days . M 880
into that plan . M 866
into that game . M 864
into new ways . M 854
into old ways . M 852
into her home ? M 852
into going along . M 852
into this home . M 848
into its hand . M 844
into one bone . M 836
into six areas . M 834
into that part . M 828
into any port . M 828
into his left . M 822
into her hole . M 822
into that fire . M 818
into this work ? M 814
into his face ? M 804
into his reading . M 798
into each face . M 798
into his mask . M 796
into this unit . M 788
into its mass . M 784
into her plan . M 776
into this well . M 772
into this hall . M 772
into her text . M 772
into this tree . M 766
into real time . M 766
into each side . M 764
into his word . M 758
into his bank . M 756
into its wake . M 752
into this play . M 750
into one page . M 750
into bad luck . M 750
into that file . M 746
into bad ones . M 742
into one term . M 740
into this case ? M 732
into our days . M 732
into our plan . M 726
into its trap . M 726
into going home . M 722
into her heart ! M 720
into going back . M 716
into her rest . M 710
into ill health . M 708
into this site . M 706
into one part . M 706
into bad health . M 704
into his debt . M 700
into his peace . M 698
into this trap ! M 696
into her name . M 696
into his well . M 686
into his face ! M 686
into his band . M 686
into this hell . M 684
into its home . M 682
into dog food . M 676
into her eyes ! M 674
into any room . M 662
into our wake . M 660
into that line . M 658
into this mode . M 656
into its realm . M 656
into his term . M 656
into her life ! M 654
into that well . M 646
into that range . M 640
into all three . M 640
into our theory . M 638
into his life ! M 638
into our line . M 636
into her part . M 630
into her cave . M 630
into his work ? M 628
into one army . M 618
into one hour . M 612
into that home . M 608
into being here . M 608
into each unit . M 606
into that cave . M 600
into its text . M 600
into his hall . M 598
into his line . M 596
into his ideas . M 592
into his file . M 592
into this room ! M 588
into this trial . M 586
into his hand ! M 586
into our army . M 584
into one life . M 582
into his fate . M 570
into old ones . M 568
into all truth ! M 566
into that trap ! M 562
into its name . M 562
into his body ? M 562
into day care . M 558
into one type . M 556
into its care . M 554
into our shop . M 550
into one theory . M 548
into one mind . M 546
into that theory . M 544
into him there . M 544
into both eyes . M 544
into this life ? M 542
into her tale . M 542
into that bank . M 540
into its rest . M 540
into one case . M 538
into her wake . M 534
into bad faith . M 534
into that case . M 532
into her face ? M 532
into that face . M 530
into our ways . M 530
into each part . M 530
into that kiss . M 526
into his hide . M 526
into her arms ! M 526
into this vice . M 524
into that mode . M 524
into one play . M 522
into his ways . M 522
into his mind ! M 520
into real love . M 516
into one hole . M 514
into this fact . M 512
into his faith . M 512
into all areas . M 510
into new uses . M 506
into our case . M 504
into this void . M 500
into our text . M 500
into her face ! M 494
into that ship . M 492
into its ways . M 490
into new form . M 488
into her arms ? M 488
into her hand ! M 486
into doing wrong . M 486
into his safe . M 484
into each cage . M 484
into that word . M 482
into its cave . M 482
into this truth . M 480
into this also . M 480
into that ocean . M 478
into our faith . M 478
into each step . M 476
into his body ! M 474
into our heads ? M 472
into that hell . M 470
into our hair . M 468
into new beings . M 466
into each word . M 466
into one text . M 460
into one plan . M 460
into his till . M 460
into his room ! M 460
into his self . M 458
into for years . M 458
into this land ? M 456
into our rest . M 456
into our face . M 456
into its range . M 456
into our life ? M 454
into one week . M 452
into any trap . M 452
into this trip . M 450
into this shop . M 450
into its army . M 450
into our ship . M 448
into one tale . M 440
into both arms . M 440
into old wood . M 438
into two more . M 436
into its cell . M 436
into his hole ? M 436
into its lock . M 434
into this book ? M 432
into his unit . M 430
into his hold . M 430
into that room ! M 428
into old town . M 428
into this dream . M 426
into one face . M 426
into one rule . M 424
into one item . M 420
into his shed . M 420
into her game . M 418
into one other . M 416
into his tail . M 416
into real life ? M 414
into its plan . M 414
into our beings . M 412
into two sons . M 410
into his tree . M 408
into his town . M 408
into doing nothing . M 408
into this page . M 406
into its host . M 406
into her play . M 406
into her hand ? M 406
into its edge . M 404
into its other . M 402
into that void . M 400
into his pain . M 396
into pet food . M 392
into new land . M 392
into both areas . M 392
into use here . M 390
into its shed . M 388
into his step . M 388
into this show . M 386
into our room ? M 386
into his youth . M 386
into his code . M 384
into this word . M 382
into this plan ? M 382
into its bark . M 382
into its mind . M 380
into this tale . M 378
into any more . M 378
into our data . M 374
into its tail . M 374
into our code . M 372
into her tomb . M 370
into her room ! M 368
into her poems . M 366
into each half . M 366
into that dream . M 362
into this hole ? M 358
into that past . M 358
into our talk . M 358
into our hole . M 358
into any cell . M 358
into his copy . M 356
into her realm . M 354
into that trap ? M 352
into our home ! M 352
into its hold . M 352
into its well . M 348
into its flow . M 348
into one code . M 346
into each line . M 346
into one port . M 344
into that hole ? M 340
into his fire . M 340
into that list . M 338
into our feet . M 334
into new work . M 334
into his truth . M 334
into his range . M 334
into any home . M 334
into two ways . M 332
into our play . M 332
into one town . M 332
into long ones . M 332
into his walk . M 332
into that faith . M 330
into her doom . M 330
into our book . M 328
into this wood . M 326
into that shop . M 326
into our game . M 326
into our dream . M 326
into new areas ? M 326
into his rest ? M 326
into her step . M 326
into six days . M 324
into his show . M 324
into his door . M 324
into her love . M 324
into going away . M 324
into that also . M 322
into this band . M 320
into that view . M 320
into our living . M 320
into its port . M 320
into all life . M 320
into this bird ? M 318
into one half . M 318
into one body ? M 318
into our ideas . M 316
into six teams . M 314
into this fire . M 312
into our jobs . M 312
into its site . M 312
into two beings . M 310
into that wood . M 308
into his acting . M 308
into her body ? M 308
into one trip . M 306
into this road . M 304
into our cave . M 304
into dry ones . M 304
into her kiss . M 302
into going there . M 302
into any harm . M 302
into our ward . M 300
into one thread . M 300
into its hide . M 300
into his making . M 300
into her hall . M 300
into this ocean . M 298
into his ideal . M 298
into his form . M 298
into her songs . M 298
into this step . M 296
into this bank . M 296
into this mass . M 292
into this loop . M 290
into that girl . M 290
into his trap ? M 290
into her self . M 290
into this game ? M 288
into new wars . M 288
into two meals . M 286
into one edge . M 286
into this love . M 284
into that mode ? M 284
into that hall . M 284
into and hide . M 284
into him here . M 282
into her door . M 282
into them also . M 280
into her bank . M 280
into that unit . M 278
into each page . M 278
into out there . M 276
into her reading . M 276
into one faith . M 274
into his month . M 274
into all these . M 274
into her mind ! M 272
into each hill . M 272
into one tree . M 270
into one ship . M 270
into each home . M 270
into this girl . M 268
into one knot . M 268
into his reach . M 268
into each hand . M 268
into this peace . M 266
into our road . M 266
into that type . M 264
into her days . M 264
into our eyes ! M 262
into that site . M 260
into our eyes ? M 260
into one month . M 260
into you here ! M 258
into this town ? M 258
into one band . M 258
into his union . M 258
into his rest ! M 258
into this rest . M 256
into use there . M 254
into that love . M 252
into new truth . M 252
into his shop ? M 252
into his post . M 252
into one bank . M 250
into its length . M 250
into that hand . M 248
into new life ? M 248
into her pain . M 248
into her file . M 248
into her hard . M 246
into this book ! M 244
into his toil . M 244
into her there . M 244
into six years . M 242
into new bone . M 242
into his core . M 242
into his acts . M 242
into her will . M 242
into any theory . M 242
into this rule . M 240
into this body ? M 240
into new ones ? M 240
into his days . M 240
into his cake . M 240
into both ends . M 240
into this fold . M 238
into one role . M 238
into his epic . M 238
into doing more . M 238
into this ship . M 236
into this faith . M 236
into that flow . M 236
into our realm . M 236
into his home ! M 236
into her faith . M 236
into that name . M 234
into any heart . M 234
into this union ? M 232
into real wealth . M 232
into his look . M 232
into dead wood . M 232
into two bits . M 230
into our fire . M 230
into new paths ? M 230
into his list . M 230
into that union . M 228
into ten areas . M 228
into our unit . M 228
into her wrap . M 228
into that fact . M 226
into ten years . M 226
into our love . M 226
into new meaning . M 226
into that text . M 224
into one will . M 224
into his ward . M 224
into his bearing . M 224
into her theory . M 224
into with care . M 222
into its self . M 222
into his ruin . M 222
into this term . M 220
into that door . M 220
into out here . M 220
into that truth . M 218
into his hole ! M 218
into his breath . M 218
into him hard . M 218
into any book . M 218
into that play . M 216
into one test . M 216
into his anger . M 216
into each loop . M 216
into this test . M 214
into one room ? M 214
into one note . M 214
into its view . M 214
into her time . M 214
into her talk . M 214
into two wars . M 212
into that wind . M 212
into two only . M 210
into this evil . M 210
into rear areas . M 210
into each post . M 210
into this flow . M 208
into our nest . M 208
into our land ? M 208
into one name . M 208
into his back ! M 208
into doing good . M 208
into top jobs . M 206
into this week . M 206
into this city ? M 206
into this code . M 204
into that mind . M 204
into our well . M 204
into our heads ! M 204
into one site . M 204
into one meaning . M 204
into its mate . M 204
into her mask . M 204
into any depth . M 204
into top form . M 202
into this hour . M 202
into that life ? M 202
into that hole ! M 202
into our trip . M 202
into his living . M 202
into his hell . M 202
into this cage . M 200
into that safe . M 200
into real tears . M 200
into its tomb . M 200
into its ally . M 200
into that mine . M 198
into six ages . M 198
into new songs . M 198
into its theory . M 198
into her well . M 198
into that page . M 196
into its code . M 196
into each site . M 196
into any hole . M 196
into that body ? M 194
into that bird . M 194
into set theory . M 194
into two ages . M 192
into this ideal . M 192
into this bone . M 192
into one hole ? M 192
into each file . M 192
into our maps . M 190
into one realm . M 190
into her musing . M 190
into her making . M 190
into that angle . M 188
into all good . M 188
into her acting . M 186
into each type . M 186
into any plan . M 186
into our work ? M 184
into our list . M 184
into one book ? M 184
into her paths . M 184
into her left . M 184
into each book . M 184
into this bird . M 182
into that other . M 182
into real work . M 182
into our youth . M 182
into its make . M 182
into his port . M 182
into for life . M 182
into this face . M 180
into that road . M 180
into his sons . M 180
into this bind . M 178
into this base . M 178
into our side . M 178
into his hearing . M 178
into her walk . M 178
into too much . M 176
into that code . M 176
into each heart . M 176
into this note . M 174
into this army . M 174
into that tree ? M 174
into that post . M 174
into that heart . M 174
into that cage . M 174
into our reading . M 174
into one view ! M 174
into her unit . M 174
into one game . M 172
into its making ? M 172
into its truth ? M 170
into her ways . M 170
into easy reach . M 170
into our debt . M 168
into one heart . M 168
into his past ? M 168
into all keys . M 168
into this land ! M 166
into her home ! M 166
into each pile . M 166
into doing evil . M 166
into this life ! M 164
into this length . M 164
into that meaning . M 164
into ten days . M 164
into our hall . M 164
into our door . M 164
into our city ? M 164
into its stem . M 164
into its hand ? M 164
into his musing . M 164
into his hero . M 164
into his health . M 164
into die room . M 164
into one only . M 162
into her land . M 162
into any part . M 162
into this role ? M 160
into this post . M 160
into this last . M 160
into that vice . M 160
into mean time . M 160
into his rage . M 160
into her cult . M 160
into that show . M 158
into that fold . M 158
into lay life . M 158
into dry areas . M 158
into all peace . M 158
into out there ? M 156
into our port . M 156
into our mind ? M 156
into her anger . M 156
into our hand ? M 154
into its ends . M 154
into his fold ! M 154
into his back ? M 154
into that next . M 152
into his bone . M 152
into any role . M 152
into this shed . M 150
into this pass . M 150
into this form ? M 150
into our hold . M 150
into her ward . M 150
into earth life . M 150
into each work . M 150
into each life . M 150
into this time ! M 148
into that shed . M 148
into that cave ? M 148
into key areas . M 148
into its peace . M 148
into his pile . M 148
into his mine . M 148
into his gift . M 148
into her tears . M 148
into her fire . M 148
into each week . M 148
into this hell ? M 146
into this bind ? M 146
into real anger . M 146
into long lake . M 146
into its wood . M 146
into its door . M 146
into his gate . M 146
into her bows . M 146
into each body . M 146
into this spring . M 144
into that hour . M 144
into its time . M 144
into its role . M 144
into its food . M 144
into her baby . M 144
into each item . M 144
into dry land ! M 144
into all these ? M 144
into you well . M 142
into that band . M 142
into one loop . M 142
into her body ! M 142
into eating more . M 142
into any work . M 142
into any length . M 142
into any city . M 142
into all evil . M 142
into you there . M 140
into this ward . M 140
into this item . M 140
into this cage ? M 140
into saw logs . M 140
into his work ! M 140
into his rule . M 140
into her past ? M 140
into her hair ! M 140
into bow range . M 140
into this well ? M 138
into our band . M 138
into ill will . M 138
into his trap ! M 138
into her tail . M 138
into her cage ? M 138
into each turn . M 138
into each nest . M 138
into any other ? M 138
into two jobs . M 136
into this tomb . M 136
into that cake ? M 136
into lying down . M 136
into its land . M 136
into her cake . M 136
into each copy . M 136
into any town . M 136
into age sets . M 136
into two feet . M 134
into this realm ? M 134
into map form . M 134
into his cult . M 134
into new life ! M 132
into its fold ? M 132
into her here . M 132
into any gaps . M 132
into that ideal . M 130
into real pain . M 130
into its play . M 130
into its fire . M 130
into his turn . M 130
into his text ? M 130
into his means . M 130
into her port . M 130
into cat food . M 130
into any army . M 130
into all beings . M 130
into that look . M 128
into that bone . M 128
into our trap ! M 128
into our hand ! M 128
into his ship ? M 128
into any life . M 128
into any body . M 128
into this mine . M 126
into them there . M 126
into that week . M 126
into that side . M 126
into that base . M 126
into real mode . M 126
into our will . M 126
into new hope . M 126
into its void . M 126
into its root . M 126
into his plan ? M 126
into her shed . M 126
into her debt . M 126
into his data . M 124
into this move . M 122
into this meaning . M 122
into that pile . M 122
into real code . M 122
into our pain . M 122
into one wood . M 122
into its game . M 122
into his book ? M 122
into her form . M 122
into her fears . M 122
into dead ones . M 122
into this ruin ? M 120
into its line . M 120
into her fate . M 120
into any ocean . M 120
into this town ! M 118
into this cell ? M 118
into that loop . M 118
into that girl ? M 118
into that army . M 118
into our union ? M 118
into one love . M 118
into its room . M 118
into him also . M 118
into her hair ? M 118
into each port . M 118
into being sick . M 118
into this home ? M 116
into this angle . M 116
into this acid . M 116
into things here . M 116
into that term . M 116
into that mass . M 116
into that blow . M 116
into our areas . M 116
into one home . M 116
into one breath . M 116
into low areas . M 116
into key jobs . M 116
into his years . M 116
into her look . M 116
into her army . M 116
into each hour . M 116
into dry wood . M 116
into this pose . M 114
into this faith ? M 114
into this data . M 114
into red life . M 114
into our show . M 114
into our bank . M 114
into one hall . M 114
into new keys . M 114
into new debt . M 114
into its coat . M 114
into big town . M 114
into this theory ? M 112
into this pile . M 112
into this mind . M 112
into our room ! M 112
into our paths . M 112
into one land . M 112
into his doom . M 112
into her youth . M 112
into her work ? M 112
into far more . M 112
into doing work . M 112
into doing well . M 112
into any note . M 112
into this reading . M 110
into this name . M 110
into this cold . M 110
into this baby . M 110
into that book ? M 110
into six sets . M 110
into real life ! M 110
into one truth . M 110
into its debt . M 110
into its crib . M 110
into its bearing . M 110
into its bank . M 110
into his trip . M 110
into him once . M 110
into her hide . M 110
into that town ! M 108
into that mist . M 108
into that goal . M 108
into real jobs . M 108
into one sign . M 108
into one mass ? M 108
into one ideal . M 108
into near ruin . M 108
into long beach . M 108
into its dark . M 108
into his lake . M 108
into her bearing . M 108
into each blow . M 108
into two bins . M 106
into things there . M 106
into our gate . M 106
into one load . M 106
into its heart ? M 106
into his lies . M 106
into his goal . M 106
into her vest . M 106
into two poems . M 104
into this cult . M 104
into real living . M 104
into one pass . M 104
into one flow . M 104
into its turn . M 104
into its body ? M 104
into his third . M 104
into his ally . M 104
into her line . M 104
into her ideas . M 104
into dry land ? M 104
into being anew . M 104
into this past . M 102
into that core . M 102
into that baby . M 102
into our land ! M 102
into new tears . M 102
into new birth . M 102
into its loop . M 102
into his birth . M 102
into her city . M 102
into any bank . M 102
into this view ? M 100
into this side . M 100
into this month . M 100
into this list ? M 100
into this city ! M 100
into our form . M 100
into one well . M 100
into one mode . M 100
into one here . M 100
into his side ! M 100
into his play ? M 100
into bad debt . M 100
into this goal . M 98
into our meals . M 98
into our fears . M 98
into new cloth . M 98
into its reach . M 98
into his fish . M 98
into her reach . M 98
into due form . M 98
into war jobs . M 96
into this need . M 96
into this line ? M 96
into that need . M 96
into that much . M 96
into our self . M 96
into one unit ? M 96
into one pair . M 96
into his cloth . M 96
into her show . M 96
into her month . M 96
into bar form . M 96
into bad days . M 96
into you life . M 94
into this nest . M 94
into this more . M 94
into this dream ? M 94
into this cave ? M 94
into that month . M 94
into our ally . M 94
into mad dogs . M 94
into its seed . M 94
into its band . M 94
into his wood . M 94
into his wealth . M 94
into his jail . M 94
into his cast . M 94
into his care ? M 94
into his aims . M 94
into both feet . M 94
into use also . M 92
into this fate . M 92
into our tree . M 92
into our lake . M 92
into one exam . M 92
into one cage . M 92
into its feet . M 92
into its calm . M 92
into his base . M 92
into her tree . M 92
into her gate . M 92
into any type . M 92
into this week ? M 90
into this fury . M 90
into that tree ! M 90
into red ones . M 90
into one trial . M 90
into one show . M 90
into one self . M 90
into one cloth . M 90
into low range . M 90
into its uses . M 90
into its union . M 90
into its knot . M 90
into each term . M 90
into big wars . M 90
into all ages . M 90
into that sign . M 88
into that peace . M 88
into that pain . M 88
into that more . M 88
into that hell ? M 88
into ten lots . M 88
into our town ? M 88
into our range . M 88
into our name . M 88
into our heart ? M 88
into one nest . M 88
into new sets . M 88
into its gate . M 88
into its fate . M 88
into its faith . M 88
into his fears . M 88
into her town . M 88
into her range . M 88
into her lock . M 88
into each tree . M 88
into each form . M 88
into and fill . M 88
into all work . M 88
into all time . M 88
into this trial ? M 86
into this heart . M 86
into this hand . M 86
into this fire ? M 86
into them soon . M 86
into that plan ? M 86
into that kind . M 86
into ten heads . M 86
into our songs . M 86
into one word ? M 86
into one hall ! M 86
into new wood . M 86
into its meaning ? M 86
into its ideal . M 86
into its dream . M 86
into its cost . M 86
into his page . M 86
into his only . M 86
into her cloth . M 86
into easy ones . M 86
into being good ? M 86
into this jail . M 84
into that lake ? M 84
into our reach . M 84
into our kids . M 84
into our fate . M 84
into our cage . M 84
into our base . M 84
into our arms ? M 84
into our arms ! M 84
into our acts . M 84
into one stem . M 84
into one also . M 84
into his fits . M 84
into him good . M 84
into him anew . M 84
into her ship . M 84
into her back ? M 84
into each test . M 84
into each role . M 84
into each game . M 84
into big ones ? M 84
into being also . M 84
into this shop ? M 82
into that home ? M 82
into that food . M 82
into six acts . M 82
into our time ? M 82
into our making . M 82
into our body ? M 82
into one length . M 82
into its hair . M 82
into his tears . M 82
into her term . M 82
into her road . M 82
into each band . M 82
ingest too much . M 82
into two runs . M 80
into this duty . M 80
into this date . M 80
into this core . M 80
into that void ? M 80
into our fold ? M 80
into old ideas . M 80
into his other . M 80
into her turn . M 80
into her fish . M 80
into each show . M 80
into each range . M 80
into any size . M 80
into any file . M 80
into all four . M 80
