intended to be the M 171391
informed as to the M 144637
interest is in the M 129763
intended to be an M 125736
intended it to be M 103824
interest to do so M 83783
intention to do so M 73884
intended to go to M 70431
intended to do so M 66020
interest is to be M 59558
inclined to do so M 55697
informed me of the M 45344
insisted on by the M 40338
inquired as to the M 35534
intended to be of M 34412
intended to be in M 34083
intended to be so M 32269
interest to us is M 29184
included it in the M 27346
increased so as to M 27188
intention to go to M 26165
intended so to be M 24826
interest it is to M 24398
interest to us in M 24119
industry is to be M 24110
intention so to do M 22006
intended to go on M 21595
industry is in the M 20310
insisted on in the M 19860
interest of the king M 18680
informed us of the M 17859
intended to be as M 17413
interest in it is M 16998
intention is to be M 16734
instruct us in the M 16348
inclined to go to M 16078
intended to do the M 15770
informed the king of M 15372
intended to do in M 15326
increased up to the M 15029
intended to do it M 14885
interest in the thing M 14655
instance of it in M 13873
increases up to the M 13560
interest in it as M 13218
interest me in the M 12966
instruct me in the M 12818
informed of it by M 11625
intention of the king M 11528
interest as it is M 11476
instance is to be M 11392
increased by up to M 10986
industry so as to M 10410
increases of up to M 10358
industry or in the M 10236
interest to us as M 9964
intended to be at M 9852
instance of the king M 9242
interest up to the M 9191
incurred or to be M 8992
intended to do to M 8894
interest in it to M 8572
instance it is the M 8504
inferred to be the M 8278
interest so to do M 8226
interest us in the M 7752
involves us in the M 7630
interest is on the M 7630
interest or in the M 7546
inclined to do the M 7544
incurred up to the M 7432
interest in or to M 7402
increases as we go M 7344
involved in the so M 7314
industry as it is M 7292
interest so as to M 7270
insights as to the M 7268
instance of it is M 7078
incurred by it in M 6917
incurred by or on M 6839
interest as to the M 6795
intended us to be M 6670
integral is to be M 6644
industry is on the M 6518
intention as to the M 6498
involved in it is M 6342
intended to be on M 6307
intention to do the M 6294
inquired of by the M 6260
infection is in the M 6232
inclined to be of M 6204
inclined to do it M 6200
interest to us to M 6170
includes in it the M 6136
included in the so M 6068
includes it in the M 6006
increased if it is M 5856
informed me of it M 5689
included in it the M 5689
instance is in the M 5664
intended to go in M 5658
interest if it is M 5540
interest in the so M 5526
interest in me as M 5403
intended it to do M 5402
involved in it as M 5401
intended to do no M 5392
intended to be no M 5389
interest to us at M 5378
insisted on as the M 5374
inspired to do so M 5235
interest to me to M 5106
intention to go on M 5080
interest in it at M 5062
informed of the king M 4923
inclusion in it of M 4878
included so as to M 4848
inclined to go on M 4776
inclined so as to M 4723
injection is to be M 4670
interest to me in M 4652
interest is at the M 4556
interest in it in M 4509
interest to me as M 4442
infection is to be M 4432
inspired me to do M 4403
intended to be by M 4337
industry up to the M 4332
interest to be the M 4322
interest to me is M 4288
instance as in the M 4260
involved as it is M 4225
involved as in the M 4212
interest in it or M 4136
interest in it by M 4136
intended it as an M 4029
intended me to be M 4012
interest as in the M 3968
inclined to be so M 3877
industry is at the M 3858
interest in the king M 3846
interest or to the M 3838
involved in it in M 3764
instruct us as to M 3758
increases so as to M 3732
intention to do it M 3648
inclined to it at M 3648
involved so as to M 3640
industry as in the M 3608
included me in the M 3606
inclined to be the M 3602
interest as of the M 3564
included in it is M 3544
intended to do as M 3460
instinct is to be M 3442
involved is to be M 3435
involved us in the M 3422
industry or to the M 3422
intention is to do M 3368
interest to be in M 3353
intention is to go M 3310
intention to be the M 3294
increases as it is M 3280
inherent in the thing M 3270
interest to be so M 3258
involved in the in M 3239
interest to do it M 3234
involved in it to M 3214
involves in it the M 3172
inspired by it to M 3162
inclined to be in M 3138
intended to be or M 3135
involved me in the M 3121
interest as if it M 3102
industry or of the M 3070
intended to be to M 3062
involved in it the M 3038
informed me of my M 3031
included in it as M 2984
indebted to the king M 2948
intended to go up M 2946
interest to go to M 2943
interest of the thing M 2918
industry as to the M 2854
innocent as it is M 2848
involved in at the M 2837
involved as to the M 2781
informed me at the M 2735
informed me in the M 2709
inclined to do in M 2708
intended to go by M 2703
involved is in the M 2701
inspired me to be M 2695
inferred as to the M 2668
interest is of the M 2658
interest is by no M 2656
involved in it at M 2616
intended to do if M 2612
intended to do at M 2582
informed of it in M 2576
installing it in the M 2530
inclined to be on M 2509
intended by the king M 2496
inherent in it is M 2493
included as it is M 2492
intention it is to M 2486
intended so to do M 2464
interest as if he M 2454
inspired me to go M 2440
included it in my M 2394
involved is of the M 2386
instruct me as to M 2385
intended to go as M 2382
increases by up to M 2372
industry or by the M 2334
insisted on at the M 2332
interest or of the M 2331
inclined to go in M 2323
intuition as to the M 2300
inclined to be as M 2300
industry if it is M 2296
included if it is M 2296
industry is by no M 2288
intention to do an M 2286
inclined to be an M 2284
inspired in me by M 2280
interest to be on M 2272
informed me on the M 2264
inspired in me the M 2254
insisted on it as M 2250
induction is to be M 2246
interest as to be M 2234
included in the king M 2230
inquired as to my M 2226
inquired of me if M 2210
interest in me or M 2206
industry to be the M 2192
inclined to do as M 2177
informed by the king M 2176
initiated by the king M 2174
increases or as the M 2165
intended by it to M 2158
instance as to the M 2157
interest is it to M 2148
interest to be at M 2147
interest in me to M 2146
indebted to me in M 2146
informed as it is M 2145
intended it to go M 2144
intended to do on M 2112
inclusion of it in M 2108
involved or if the M 2102
industry is of the M 2098
intended to do or M 2088
involved in up to M 2069
increased as it is M 2036
inferred to be of M 2021
increased to up to M 2020
interest to me at M 2018
intended to do is M 1982
interest to the king M 1971
interest as if the M 1947
inspired by the king M 1940
involved or of the M 1910
intuition is to be M 1904
inspired to do the M 1899
integral is of the M 1895
interest to do the M 1894
inherent in it the M 1892
inspired as it is M 1887
inherent in it as M 1884
involved or to the M 1883
involves us in an M 1874
insanity of the king M 1867
interest or as to M 1866
inspired me in the M 1824
intention to be in M 1820
intended to do by M 1816
inspired me in my M 1812
interest in me is M 1810
instance of the so M 1801
interest in it on M 1800
insisted on as an M 1800
included in the in M 1793
instinct as to the M 1792
informed me of an M 1774
insisted on the king M 1772
included it as an M 1768
instance if it is M 1764
instruct us on the M 1760
involved in it or M 1746
intended to do me M 1714
industry or on the M 1704
increases it in the M 1701
included in it by M 1700
involved as to be M 1697
interest in me at M 1688
inception up to the M 1686
inspired in us by M 1678
interest or by the M 1666
indebted to it in M 1661
involved in the king M 1654
intently as if he M 1606
involved it in the M 1600
inquired of as to M 1596
industry it is the M 1578
inclined me to the M 1573
instruct me in my M 1564
increases if it is M 1562
involved in the on M 1557
infinite is to be M 1557
involved if it is M 1536
involved the king in M 1532
infection is by the M 1528
increased as in the M 1528
intimate of the king M 1526
inferred to be in M 1523
internet or in the M 1522
informed of it at M 1517
instance of it on M 1492
insisted on it in M 1490
inclined so to do M 1490
intended it as the M 1471
informed by me of M 1468
injection of up to M 1467
insisted we go to M 1458
innocent as if he M 1456
inclined to be at M 1455
insanity is to be M 1446
interest of or in M 1444
intended as to the M 1444
intended to be my M 1442
interest is the so M 1441
involved in it by M 1438
intended us to do M 1432
interest on it at M 1430
instinct is in the M 1430
increased as to be M 1428
initiated me in the M 1424
initially to be the M 1420
increases so do the M 1418
intention to be at M 1416
inclusion of the so M 1413
intended to go at M 1412
included in the the M 1411
insisted he go to M 1404
inclined to the king M 1400
intention to go in M 1395
involved up to the M 1393
informed as to my M 1388
industry to be in M 1382
involved in an on M 1380
informed so as to M 1380
interest to or in M 1378
interest in it of M 1376
interest on up to M 1372
industry is in an M 1370
innocent is to be M 1368
included in it in M 1367
interest or on the M 1362
instinct to do so M 1362
intended to go so M 1357
intended to go the M 1354
increased or if the M 1354
included the king of M 1332
intended as it is M 1312
inspired to go to M 1304
included as to the M 1304
involved in the thing M 1298
interest is in an M 1288
intended to go no M 1288
inspired by the so M 1286
informed us in the M 1284
inclined to do at M 1278
intention to be an M 1276
informed it of the M 1270
interest or if the M 1268
instance of it to M 1268
infection or to the M 1252
interest in us as M 1234
interest of it is M 1222
inspired by it in M 1206
infinite as it is M 1202
interest in me in M 1198
increased it in the M 1196
installing it on the M 1192
instance to be the M 1186
interest of up to M 1182
intimate as it is M 1174
infection or in the M 1172
initiation is to be M 1164
included it on the M 1162
inherent in the king M 1160
infection is of the M 1160
inclined he is to M 1156
included up to the M 1154
insisted on is the M 1142
initially it is the M 1142
interest to us of M 1141
involved as if he M 1138
involved or by the M 1129
included as in the M 1128
instance is of the M 1126
intended me to do M 1124
interest on it is M 1120
insisted on to the M 1114
increases or if the M 1100
interest as is the M 1088
intimate as to be M 1084
intention of it is M 1084
industry to do so M 1076
instruct it in the M 1074
instance of it at M 1072
intention is in the M 1062
interest the king in M 1061
interest in or the M 1058
involved in the the M 1055
interest in the the M 1054
interest to be of M 1051
instruct as to the M 1042
increases on to the M 1042
inclined to go the M 1038
interest to us on M 1037
included in the by M 1033
intention to go up M 1032
intention to be to M 1032
instinct is to go M 1030
interest if he is M 1026
infection if it is M 1026
involved or in the M 1025
industry to do the M 1024
increased up to an M 1018
inclined me to be M 1014
intended to eat the M 1009
interest us at the M 1008
industry is to the M 1008
instruct me on the M 1003
intimate to us the M 1002
instance of the thing M 1002
involved in is the M 992
inquired of in the M 992
included in it or M 990
internet is in the M 988
instance it is an M 984
intended by us to M 982
informed me as to M 980
interest us is the M 974
inclined to go up M 974
involved in the ring M 972
initially be in the M 972
incurred as of the M 972
injection is in the M 968
intention to be as M 964
inversion is to be M 958
interest it is the M 956
infection or by the M 956
interest in the ring M 955
intention to be so M 954
interest of the so M 953
inspired to go on M 953
interest is to do M 950
involves it in the M 948
instance it is to M 946
included in it to M 944
inferred to be an M 942
increased by the king M 942
intended by me to M 940
injection or by the M 940
interest to be as M 932
incurred by the king M 932
increases up to an M 932
instruct it to do M 928
informed the king in M 928
informed me in no M 923
involved in an in M 922
interest on it to M 918
instruct us to do M 918
interest to go on M 917
inclined by it to M 917
intention is of no M 914
innocent as to the M 914
informed us at the M 908
intended to do an M 906
inclined to go so M 906
infinite if it is M 904
inspired us to do M 902
inclined to go as M 899
informed us on the M 898
inclusion is to be M 898
instance so as to M 894
included it in an M 894
interest to be an M 887
instruct us to be M 885
informed of by the M 882
increased it to the M 882
interest is at an M 880
informed of it as M 878
industry is in no M 878
incurred by it on M 874
involved as he is M 869
interest is to the M 868
intuition to be the M 864
informed as to be M 864
internet as it is M 862
intention as it is M 860
included in the ring M 860
instinct to be the M 856
infection is on the M 856
interest in the in M 850
interest me at the M 848
involved or on the M 842
instinct is to do M 842
involved in in the M 840
internet is to be M 838
interest is in no M 838
initially to be an M 838
informed us of it M 838
included in the on M 834
inclined to do on M 834
instinct it is to M 832
inquired of me the M 832
infection or if the M 832
interest is or is M 826
inspired it in the M 826
ingredient is to be M 826
increased or as the M 822
innocent as to be M 820
industry to go to M 820
incurred in or in M 818
instance as in so M 814
involved me in an M 810
intended to do my M 810
informed us of an M 810
includes it as an M 808
increased as is the M 806
interest in it if M 804
incurred if it is M 804
inclusion of up to M 804
informed me in an M 803
increased it by the M 800
interest on it in M 794
interest in or an M 794
instance is by no M 794
informed me as we M 794
inspired in me an M 792
inherent in the so M 791
infinity is to be M 790
industry as if it M 788
internet or on an M 786
instance of it as M 782
inclined to do is M 780
intently up at the M 778
informed us as to M 768
industry as of the M 768
interest to us if M 766
included it as the M 766
involved to be of M 762
instance is at the M 760
infection as it is M 760
instance as it is M 758
interest on to the M 754
instance or in the M 752
induction is in the M 752
induction as to the M 752
intention to eat the M 750
infinite is in the M 750
interest in me on M 748
instance is on the M 748
innocent as he is M 748
included in it an M 748
interest in the tea M 746
informed of it he M 744
instance it is of M 742
involved is by no M 738
inclined the king to M 737
intended to do he M 736
increases as in the M 735
involved in it on M 734
innocent as to me M 734
interest or to be M 731
involved as is the M 730
inspired to do it M 728
injection or in the M 726
inherent in it by M 726
instinct as it is M 718
increased if he is M 718
intention so as to M 716
intended by it is M 716
inspired me to the M 714
intention is by no M 710
infection is via the M 708
interest the king of M 707
informed me as he M 706
innocent thing in the M 704
interest in us is M 702
included by us in M 700
infinite as is the M 699
instinct is to the M 698
industry to be an M 698
inquired of the king M 694
infection as in the M 692
interest in it so M 690
involved us in an M 686
involves us in no M 684
injuries is to be M 682
initially so as to M 682
instance or at the M 680
involves in it an M 678
intended to be is M 678
interest of it to M 676
increased as to the M 676
inclined to do if M 674
inclined to it by M 673
intended to do us M 672
insanity is on the M 672
inferred to be at M 672
intended as an in M 670
intention is of the M 668
intention to be of M 666
insisted on it so M 666
interest in it the M 665
industry or in an M 660
intended to eat it M 658
inspired the king to M 654
initiated me to the M 654
intended it in the M 648
includes in it an M 648
innocent of it as M 646
interest be in the M 642
instruct me to do M 642
intimate as in the M 640
informed is to be M 640
infection is by no M 640
intuition of the thing M 636
interest me is the M 636
incurred by or in M 632
instance it is in M 628
intended to be up M 625
inclined at to the M 624
industry it is in M 623
intention of the thing M 618
instinct is at the M 618
initiated so as to M 618
intention to do or M 616
involved in the it M 615
interest if he or M 615
included in or in M 615
inquired of me in M 614
intimate to the king M 612
injection so as to M 612
inherent in us by M 611
involved is on the M 608
inherent in it to M 608
inspired us in the M 606
intention to do in M 605
internal wing of the M 604
involves me in the M 600
informed as he is M 598
intended to in the M 597
industry is at an M 596
interest is of no M 594
interest in me by M 594
inherent in us as M 588
included in it at M 588
infinity up to the M 586
instance in the so M 585
interest as at the M 583
informed of it on M 583
intuition as it is M 582
inferred it to be M 582
induction to be the M 581
infected as it is M 580
included in the at M 579
instinct to do the M 578
intimate it to the M 576
incurred by us in M 572
inclined as to be M 572
interest or at the M 571
included in the is M 571
involved in the up M 567
internet as if it M 566
initially to be in M 566
interest he is to M 564
incurred by me in M 564
included in in the M 563
initiated by us in M 560
informed if it is M 557
interest of the the M 556
intention to go by M 556
infection is at the M 556
intuition is of the M 554
intention or in the M 554
infection in up to M 554
included us in the M 554
intently at me as M 552
inflicting it on the M 552
increased if it be M 552
interest is in my M 550
initiated it in the M 550
informed it is the M 550
intention to the king M 548
intention is at the M 548
industry to be of M 548
internal is in the M 547
instinct is by no M 546
instruct the king in M 545
interest in us or M 542
initially or in the M 542
involved in or is M 540
intended is to be M 539
inclined to do to M 535
involved in it so M 534
initiated by or at M 534
interest to us the M 532
internal to it is M 530
involved to be the M 529
instinct to go to M 528
industry as is the M 528
integral is in the M 524
insisted on it to M 524
informed me on my M 524
included in the no M 523
internet or on the M 518
initiated by the so M 517
inspired by it is M 514
injuries to or the M 512
instance to the king M 510
inclined to it in M 510
internal ring to the M 508
internet or at the M 506
included as of the M 506
increases to up to M 499
involved in on the M 498
interest in at the M 498
intention to go at M 498
inspired me at the M 497
involved is at the M 496
increases it to the M 495
intended to be king M 494
invariant if it is M 492
inclined as in the M 491
involved in or to M 490
insights in to the M 490
intently as if to M 488
included in on the M 486
intimate thing to do M 484
internal if it is M 484
interest or as an M 484
informed the king on M 484
interest us on the M 482
interest so to be M 482
industry to do it M 482
interest to me or M 480
infection or of the M 480
interest in or in M 478
intention if it is M 478
internet is at the M 474
intended us to eat M 474
inspired as to be M 474
industry to go on M 474
involved it is the M 472
inspired as to the M 472
involved us in so M 470
intention to do as M 470
intently as if it M 468
induction as it is M 468
involved as if the M 466
intimate as if we M 466
insisted on in my M 466
instinct to go on M 465
inspired by it as M 465
involved in it no M 460
instills in us the M 459
intention or of the M 458
interest on it as M 456
instance or by the M 456
industry as to be M 456
included by me in M 456
involved in it an M 454
initiation of the so M 454
infection to be the M 454
intended it or no M 451
included or to be M 450
involved he is in M 448
informed me to my M 448
interest in us at M 446
instance up to the M 446
inflicting on me the M 446
inclined to do me M 446
instruct me in it M 445
internal as in the M 444
instance is to the M 444
insisted on by me M 444
involved in by the M 443
inclined it is to M 442
ingredient is in the M 440
internal ring of the M 438
intention is to the M 438
instance to be an M 436
instinct is the thing M 434
innocent as to my M 434
inherent in it in M 434
infinite as in the M 434
intended me to go M 432
insanity as to be M 432
industry of the king M 432
interest or is it M 430
interest as he is M 430
intention as in the M 430
induction is of the M 430
inclined to go by M 430
internet to be an M 426
inspired as he is M 426
interest to us by M 425
involved in or at M 424
interest it in the M 424
intended if it is M 424
instance to go to M 422
infection so as to M 422
interest to me if M 420
inherent in it or M 418
indebted as it is M 418
inclusion of the king M 418
inclined to do or M 418
interest to me on M 416
inquired he of the M 416
inclined to do us M 416
incurred in the king M 414
interest as we do M 412
incurred by it as M 411
included it at the M 410
interest as do the M 409
inspired to be the M 408
infinity as in the M 408
intended so as to M 406
interest in or is M 404
instance of it so M 404
involved is of no M 402
intention is on the M 402
infection or as an M 402
instance it is no M 400
intention to be on M 398
infection or to an M 398
inception of the so M 398
interest it is in M 397
involved in it do M 396
interest in it he M 396
inclined us to the M 396
intuition is in the M 394
insanity is in the M 392
intuition is at the M 390
involved to do the M 389
inquired of me as M 389
intention to go as M 388
insisted on it the M 388
intended by me as M 387
interest is to go M 386
interest in is the M 386
instance of it we M 386
instance is the so M 386
insisted on by my M 386
interest in the on M 384
intended it at the M 384
industry to be so M 384
increases is to be M 384
inclined to eat the M 384
internal to the thing M 383
industry or at the M 382
intention to do me M 380
involved in the tea M 378
interest to do as M 378
informed by it of M 378
infection up to the M 378
interest or if it M 376
industry is of no M 376
involved if he is M 374
industry is to go M 374
increased it to an M 374
instance if he is M 372
inspired to sing the M 372
intended to the king M 370
insisted on as it M 370
innocent as on the M 370
insisted on by us M 368
increased up to as M 368
instance he is the M 366
insights so as to M 366
includes us in the M 366
included me in it M 364
involved or to be M 362
intuition is of no M 362
interest is as to M 362
interest as on the M 362
instance of in the M 362
informed of it the M 362
involved in the no M 361
industry go to the M 360
internet is on the M 358
inspired us to be M 358
increased is by the M 358
inclined to be my M 358
insisted he do so M 357
interest of in the M 352
instance the king of M 352
inspired us to go M 352
increased so is the M 352
inclined as it is M 352
interest as by the M 351
indebted as to the M 350
instance to be in M 349
involves in it so M 348
involved is as to M 348
interest to us or M 348
intended by me in M 348
instance or on the M 348
inspired in us the M 348
innocent as in the M 348
inclined to it or M 348
injection or as an M 346
initially is in the M 346
industry is or is M 346
inclusion of in the M 346
inwardly so as to M 344
insisted to be the M 344
insisted on it at M 344
injection is at the M 344
inflicting on us the M 344
involved in as an M 342
initiated by or on M 342
infinity is in the M 342
inferred to be so M 342
internet to be the M 340
insisted on as to M 340
incurred is to be M 340
interest me in my M 339
interest as he or M 339
intuition so as to M 338
instinct to do it M 338
insisted up to the M 338
informed us as we M 338
increased by the so M 337
involved in it of M 336
intuition of it is M 336
intention or to the M 336
ingredient of the so M 336
industry is the so M 335
intuition or by the M 334
instance of it the M 334
insisted on if the M 334
initially go to the M 334
infection or as the M 334
involved to do so M 333
indebted to it as M 333
involved is in no M 332
innocent of the king M 332
industry as on the M 332
industry in the so M 331
involved to be in M 330
instance to do so M 330
injection as it is M 330
infected so as to M 330
intuition of it as M 329
informed if he is M 329
internet or to the M 328
instinct is on the M 328
infection is of no M 328
inquired the king of M 326
initially to be at M 326
initially be on the M 326
included in the thing M 326
involved as on the M 324
included is to be M 324
inclined to sing the M 324
interest to it in M 322
insisted on by an M 322
induction so as to M 322
involved the king of M 320
interest us in so M 320
includes me in the M 320
interest to us we M 318
intended to go or M 318
informed to do so M 318
industry is by the M 318
increases it by the M 318
interest to do in M 317
internet or to an M 316
intended us to go M 316
instinct so as to M 316
inherent in it of M 316
indebted to us in M 316
included in the to M 316
involves me in no M 314
instinct to be in M 314
interest of it in M 312
instance it is as M 312
inquired of me my M 312
interest or of an M 311
initiation is in the M 311
instance if it be M 310
injection is on the M 310
ingredient in it is M 310
indebted to me to M 310
increases as he or M 310
involved in or the M 308
instance or so of M 308
included in the of M 308
inspired in the king M 306
injuries so as to M 306
initially or at the M 306
industry as by the M 306
inclined it to the M 306
internal or in the M 304
intention or by the M 304
incurred by it or M 304
inspired to sing of M 302
induction up to the M 302
included by it in M 302
inclined as he is M 302
inclined to eat it M 301
interest us by the M 300
instruct the king of M 300
initiation of the king M 300
infinity so as to M 300
industry to be as M 300
industry is to do M 300
insanity so as to M 299
involved as of the M 298
instance as if it M 298
innovate so as to M 298
increases it on the M 298
involved me in so M 297
inclined me to do M 297
interest is of an M 296
integers is to be M 296
instinct if it is M 296
infection or by an M 296
included in it on M 296
internet so as to M 294
interest in or so M 294
instruct me to go M 292
initially as if the M 292
interest me as an M 291
interest in or of M 290
initially as if it M 290
infinite to be the M 289
inactive if it is M 289
insisted to the king M 288
injection if it is M 288
infection on to the M 288
interest in us to M 286
initially to be of M 286
infected or if the M 286
industry it is of M 286
industry is on an M 286
increased as of the M 286
increased as if by M 286
interest if it be M 284
intended to sing the M 284
integral as it is M 284
inspired to it by M 284
infinity is of the M 284
interest in the by M 283
interest by the king M 282
intention to do no M 282
intention is in no M 282
inspired by it or M 282
increases it at the M 282
interest of the ring M 280
intently as to be M 280
intently as if the M 280
injuries is in the M 280
incurred so as to M 280
involved in the my M 278
involved in it if M 278
infinite is to the M 278
included in the it M 278
inclined to do by M 278
interest me in it M 277
inclined to go at M 277
intended by it in M 276
instruct the king to M 276
instinct is of the M 276
instance is of no M 276
increased if he or M 276
interest is as the M 274
insisted we go on M 274
inquired if the king M 274
inherent in the in M 274
increased or to be M 274
inquired of to do M 272
industry on to the M 272
industry is up to M 272
integral to it as M 271
internal as it is M 270
interest in in the M 270
ingredient in the so M 270
included in it if M 270
intuition is by no M 268
interest of in or M 268
insisted to me in M 268
inherent as it is M 268
induction is on the M 268
interest in the up M 267
informed up to the M 267
increases as do the M 267
intimate as if he M 266
instance by the king M 266
inspired is to be M 266
insisted on as of M 266
industry it is to M 266
indebted he is to M 266
inclined me to go M 265
involves is to be M 264
involved it is in M 264
inquired of by us M 264
industry it is an M 264
includes it as the M 264
included as is the M 264
interest of the in M 263
internal to it as M 262
interest to do to M 262
instinct to be an M 262
initially up to the M 262
infinite or of the M 262
involved it in an M 260
insisted on to be M 260
involved in the is M 259
interest in it be M 258
intended to by the M 258
insisted on me to M 258
infection is in an M 258
industry or to an M 258
interest it is of M 256
instruct us by the M 256
insanity as it is M 256
industry or as an M 256
industry as if he M 256
inactive as it is M 256
interest is by the M 254
injuries or if the M 254
informed me by the M 254
indebted to the so M 253
included in the wing M 253
included in the ca M 253
interest as we go M 252
insisted on in an M 252
informed me in so M 252
infection or of an M 252
involved up to my M 251
internal foe to the M 250
interest me to go M 250
instinct or of the M 250
injuries or in the M 250
interest or it is M 249
instruct it as to M 249
involved or if it M 248
intention in it is M 248
insanity is by no M 248
inquired of me on M 248
inferred if it is M 248
inclusion is in the M 248
intention of the so M 247
interest in or be M 246
instinct or to the M 246
insisted we do it M 246
initially be at the M 246
installing it at the M 245
industry to be at M 245
included in the as M 245
involves me in it M 244
intended as in the M 244
insisted he be the M 244
inquired of at the M 244
initiation or in the M 244
infinity as it is M 244
interest or as the M 243
interest if we do M 243
internet or go to M 242
interest to it by M 242
intended me by the M 242
involved is of an M 240
interest it is so M 240
inclined to it as M 240
interest as the king M 239
involves in it no M 238
involved or as to M 238
intuition if it is M 238
interest to us it M 238
interest of the tea M 238
interest me as it M 238
instance of it by M 238
injuries to the king M 238
informed or to be M 238
infinite as he is M 238
includes the id of M 238
involves it in an M 236
involved by it in M 236
interest in the of M 236
increased if at the M 236
infinity or to the M 235
increases as to the M 235
interest us if we M 234
interest in me if M 234
injuries or by the M 234
induction is at the M 234
inclusion in the so M 233
inversion is in the M 232
interest in us by M 232
intention is to eat M 232
integral as in the M 232
instinct in us to M 232
instinct as in the M 232
initiated if it is M 232
initially it is in M 232
induction in the ring M 232
increased it on the M 232
increased it by an M 232
interest of it as M 231
inspired me in so M 230
innocent if it is M 230
initiated as to the M 230
infinity is by the M 230
intimate is to be M 229
increased in up to M 229
interest on it by M 228
interest me in an M 228
interest as if we M 228
intention to do my M 228
intention of the the M 228
instance it is by M 228
inhumane as to be M 228
inherent in it an M 228
industry or of an M 228
increased as if the M 228
interest me to the M 227
interest of or on M 226
installing it in an M 226
informed by us of M 226
included in the or M 226
included in the en M 226
inclined is he to M 226
interest in me so M 225
involved in the of M 224
interest to me of M 224
interest is in it M 224
intention as if it M 224
instance to be of M 224
insanity if it is M 224
initially as it is M 224
informed us in an M 224
infection as is the M 224
interest on the so M 223
increases as he is M 223
intuition or on the M 222
interest of my king M 222
intended to at the M 222
induction if it is M 222
increased it at the M 222
inclined up to the M 222
interest on it or M 220
intended to to be M 220
initially is on the M 220
interest us as we M 219
inwardly it is the M 218
involved go to the M 218
interest to do or M 218
interest in the no M 218
intended to he the M 218
inspired in us is M 218
initiated by me in M 218
informed the king he M 218
included in the if M 217
involved in to the M 216
interest of of the M 216
intended it so or M 216
instruct us so to M 216
instruct us of the M 216
instinct or by the M 216
instinct as if it M 216
instance of the in M 216
instance it is so M 216
inspired the king of M 216
infection of up to M 216
induction as in the M 216
indebted to it or M 216
increased if the thing M 216
inherent in me as M 215
involved me in my M 214
intuition as in the M 214
intended to be if M 214
informed us as he M 214
informed the king at M 214
inclined to go it M 214
involved in or be M 212
intimate to me the M 212
intimate as if the M 212
internet if it is M 212
involved in it up M 210
internal or on the M 210
innocent as if it M 210
injuries as to be M 210
ingredient of it is M 210
incurred or at the M 210
incurred by it by M 210
involved me in it M 208
involved it is of M 208
installing it as the M 208
injection up to the M 208
injection on to the M 208
initially as in the M 208
informed the king by M 208
inflicting on it the M 208
infected it in the M 208
induction is by no M 208
indebted to it on M 208
increased to in the M 208
included by it is M 208
inclined as if in M 208
involved to be an M 207
initiation up to the M 207
infection is the so M 207
involved in it he M 206
intuition to go on M 206
intended it to or M 206
insisted on as in M 206
initiated us in the M 206
inhibits it in the M 206
inherent is it in M 206
infinite as to the M 206
industry as at the M 206
included in the us M 206
interest in us in M 204
intended is in the M 204
industry or is it M 204
industry as he is M 204
included in or is M 204
internal to it in M 203
interest us in it M 203
inclusion of it as M 203
involved me in no M 202
interest of it by M 202
instinct to be so M 202
instance to me of M 202
injuries or to the M 202
informed to be the M 202
integral if it is M 201
infected if it is M 201
involves in the thing M 200
involved in as the M 200
internal ring in the M 200
instance or to the M 200
instance of the the M 200
inspired in it by M 200
initiated as in the M 200
informed of it to M 200
increased up to at M 200
increased in me the M 200
includes it in an M 200
inclined me to it M 200
insisted on the so M 199
internet or in an M 198
interest on or the M 198
intended to ring the M 198
intended or to be M 198
insisted on as if M 198
innocent thing to do M 198
inherent to it as M 198
inferred to be on M 198
inclusion of me in M 198
included in an in M 197
interest is on an M 196
inferred to be as M 196
infection is at an M 196
industry so it is M 196
induction is in no M 196
included in it so M 196
integral it is to M 195
intention or on the M 194
instinct it is the M 194
instance be in the M 194
inspired me as an M 194
infinity of the thing M 194
included as if it M 194
inclined to do no M 194
inactive up to the M 194
involved in the us M 193
intended by it as M 193
inspired so as to M 193
integers up to the M 192
integers of up to M 192
instance or of the M 192
initiation as it is M 192
informed me he is M 192
included or if the M 192
included me on the M 192
included is in the M 192
initially if it is M 190
interest be or be M 189
inversion as in the M 188
internal is of the M 188
internal id of the M 188
interest is up to M 188
interest is as an M 188
intended to go it M 188
initially or as the M 188
indebted to it at M 188
included in the do M 187
intention up to the M 186
infinity if it is M 186
inferred as in the M 186
industry or to be M 186
indebted to in the M 186
increased by the in M 186
inspired in me as M 185
inversion is at the M 184
intimate to us as M 184
intimate as is the M 184
interest or if he M 184
interest me if the M 184
instance if in the M 184
inspired so to do M 184
inspired in me at M 184
inquired of us if M 184
innocent of as the M 184
innocent as if the M 184
injection as in the M 184
inherent in it at M 184
industry to be on M 184
increased is to be M 184
increased by in the M 184
intently at it as M 183
involved us in it M 182
intuition is in no M 182
interest in me the M 182
intended to sing in M 182
instinct to be of M 182
instinct as is the M 182
inspired to do by M 182
ingredient as it is M 182
informed me to the M 182
industry is of an M 182
induction or in the M 182
increased as the king M 182
inclusion as it is M 182
involved in the at M 181
infuriating it is to M 181
inclined to eat at M 181
instance of it if M 180
instance it is at M 180
injuries up to the M 180
industry to go in M 180
industry or if the M 180
involved is he in M 178
involved in is to M 178
involved as by the M 178
intuition or of the M 178
interest in us on M 178
instinct in us is M 178
inspired to do my M 178
indebted to me as M 178
internal to the ring M 177
interest it is an M 177
interest is the thing M 176
injuries as it is M 176
incurred by us on M 176
involved us in no M 175
interest or by an M 175
involved is to the M 174
interest us as the M 174
inspired me on the M 174
insisted he do it M 174
infinite so as to M 174
induction or by the M 174
increased to be the M 174
increased if in the M 174
involved in the ca M 172
intimate it to be M 172
intention to go the M 172
instruct us in it M 172
injuries or of the M 172
injection is of the M 172
initiated us to the M 172
initially as to the M 172
informed me it is M 172
included me in an M 172
interest or is the M 171
informed of in the M 171
increases in the so M 171
increased in me as M 171
included in the id M 171
interest on it if M 170
intently so as to M 170
intention is as the M 170
intended in it to M 170
instruct it on the M 170
instance of it or M 170
inspired by the the M 170
insanity is of the M 170
initiated as it is M 170
indebted to it to M 170
inclusion is at the M 170
included in or to M 170
intention to do us M 168
instance is it of M 168
inspired me to sing M 168
initially is at the M 168
indebted to me on M 168
increases or in the M 167
involved it is to M 166
involved in the as M 166
internal or of the M 166
interest in up to M 166
intended to on the M 166
intended to eat at M 166
instinct to be on M 166
includes it on the M 166
included in it no M 166
inactive in the in M 166
involved as if it M 164
intention as to be M 164
inspired in me to M 164
inspired in me is M 164
initially to go to M 164
included in the we M 164
inclined to do my M 164
involved to be so M 162
involved or at the M 162
intuition or in the M 162
instance it is my M 162
inspired me to my M 162
inspired in me so M 162
insanity if at the M 162
inferred to do so M 162
indebted to us to M 162
incurred at or in M 162
inclined to do an M 162
informed he is to M 161
involves me in an M 160
involved in or in M 160
intention is the thing M 160
intended it to the M 160
inspired to go in M 160
insisted on if it M 160
insanity or to the M 160
innocent up to the M 160
innocent if he is M 160
informed me to be M 160
informed he is in M 160
interest to it as M 159
inclined to do of M 159
involved to do it M 158
involved it is an M 158
involved in the to M 158
inversion is of the M 158
ingredient or as an M 158
informed us in no M 158
infection it is the M 158
industry it is no M 158
industry if it be M 158
incurred as to the M 158
increased by it in M 158
inclined to be to M 157
intuition of it in M 156
intention to eat it M 156
intention it is the M 156
intended it so to M 156
intended is the king M 156
instance is or is M 156
insiders to be the M 156
infinite as if it M 156
inactive as to be M 156
involved to go to M 155
internet to do so M 155
informed as in the M 155
involved so it is M 154
involved in it be M 154
internet is by no M 154
intention as of the M 154
inspired me by the M 154
informed in it of M 154
industry if he is M 154
included in an on M 154
inversion of the so M 153
interest to the so M 153
interest me on the M 153
inspired to be an M 153
infected by it in M 153
involved in is an M 152
invariant as it is M 152
internet to do the M 152
intention to be no M 152
insanity to be the M 152
industry be in the M 152
included in or on M 152
informed of the thing M 151
inclusion of an in M 151
internal as to the M 150
intended to he an M 150
intended to go via M 150
intended to do we M 150
instance of of the M 150
inquired of me to M 150
infection or on the M 150
infected is to be M 150
incurred by it to M 150
increased in the so M 150
inclusion of an on M 150
initiation is at the M 149
intention to me in M 148
intended to go is M 148
intended to eat in M 148
integral to be the M 148
instruct us to the M 148
instinct or in the M 148
instinct is to eat M 148
inspired it in me M 148
informed of it or M 148
industry or by an M 148
includes up to the M 148
interest or in an M 147
increases in the in M 147
intuition is to the M 146
interest in it we M 146
integral wing of the M 146
insights is to be M 146
injuries to be the M 146
injection or at the M 146
initiated to be the M 146
ingredient if it is M 146
informed me of so M 146
informed me of in M 146
infection is to the M 146
industry as we do M 146
incurred as in the M 146
inclined to go no M 146
integral up to the M 145
informed by the so M 145
involved if we do M 144
inversion to be the M 144
interest it is at M 144
interest is the in M 144
intention of it to M 144
intended us by the M 144
integral to it is M 144
instinct as to be M 144
instance he is in M 144
inspired us at the M 144
inspired us as we M 144
inspired me on my M 144
insisted on it he M 144
injection is of no M 144
informed on me to M 144
induction of the ring M 144
increases if it be M 144
inclined to sing in M 144
inception is to be M 144
interest me to be M 143
involved or if an M 142
interest to it is M 142
interest go to the M 142
instruct us if we M 142
instruct us as we M 142
inspired it to be M 142
innocent to the king M 142
initiated is to be M 142
included in the tea M 142
inclined to the thing M 142
inclined to it on M 142
inversion so as to M 141
intimate to me as M 140
interest he is so M 140
intention is so to M 140
inspired to sing in M 140
insisted on the thing M 140
injection or to the M 140
initially or if the M 140
infinite is at the M 140
infection to be an M 140
infected go on to M 140
indebted to me by M 140
increases in me the M 140
interest so it is M 139
informed of at the M 139
increases in us the M 139
involves us in so M 138
interest us to the M 138
interest as to my M 138
integral of is the M 138
injuries as in the M 138
indebted to me at M 138
included in it do M 138
inactive as in the M 138
industry of the so M 137
involved or it is M 136
intended as an up M 136
insisted in by the M 136
initiated or on the M 136
initiated in us by M 136
initially to be no M 136
infected as to be M 136
increased to us by M 136
increased as he is M 136
included or in the M 136
included in the pi M 136
inactive is to be M 136
interest he is the M 135
informed is in the M 135
inclined as is the M 135
inwardly he is in M 134
involved in to be M 134
involved in the wing M 134
internal to it the M 134
interest in the it M 134
intention to sing the M 134
intended to be it M 134
injuries in up to M 134
infinite or to be M 134
infinite is in me M 134
increases up to at M 134
inclusion of the in M 134
inclined to be by M 134
instance it is up M 133
initiation as in the M 133
intuition or to the M 132
interest to us so M 132
interest or to an M 132
instinct is in us M 132
initiated in it by M 132
informed on by the M 132
informed me in my M 132
infection or at the M 132
induction of the so M 132
internal to the is M 131
intended by us as M 131
initially to be on M 131
initially it is to M 131
internet as in the M 130
internal is to be M 130
interest or of my M 130
intention to sing of M 130
intention of it in M 130
instruct so as to M 130
innocent of the thing M 130
inherent in the the M 130
infuriating as it is M 130
infinite or it is M 130
infection go on to M 130
increased or in the M 130
involved or is it M 129
interest to go in M 129
intended or if the M 129
informed if he or M 129
infinity or at the M 129
involved if he or M 128
interest as in my M 128
instance as if the M 128
inspired it is no M 128
innocent to be the M 128
initiation or at the M 128
inherent in us to M 128
inhabiting it at the M 128
industry is as it M 128
industry if we do M 128
induction of up to M 128
indebted up to the M 128
inclined at up to M 128
increases it is to M 127
increases as the ring M 127
intuition or by an M 126
initiated up to the M 126
initiated in to the M 126
inherent in the on M 126
informed us of no M 126
informed of by my M 126
informed by it in M 126
infection or if it M 126
includes it is on M 126
inclined to in the M 126
interest in the as M 125
infinity as if it M 125
involved to be as M 124
interest on or in M 124
interest in to the M 124
interest in an in M 124
intention in the king M 124
instance as to be M 124
insisted on by so M 124
insanity as to the M 124
infection is up to M 124
infected by it as M 124
induction or of the M 124
incurred on or in M 124
incurred by me or M 124
included in it of M 124
inclined by the king M 124
interest in the is M 123
integral so as to M 123
involved in as we M 122
intuition is on the M 122
internet is to the M 122
interest in the to M 122
intended to go if M 122
intended by it the M 122
instinct or on the M 122
instance go to the M 122
insisted on the tea M 122
initiated or to be M 122
infected by it to M 122
increases if he is M 122
increased if it so M 122
involved as he or M 121
inheriting as we do M 121
involves as to the M 120
involved is or is M 120
inversion is on the M 120
internet or an on M 120
interest me as the M 120
interest is it of M 120
interest as we in M 120
intention as if the M 120
intended it to he M 120
instinct of it by M 120
instinct in me to M 120
instance to be so M 120
instance in the king M 120
instance in it of M 120
inspired us to the M 120
inspired it is the M 120
insisted so on my M 120
inquired on the king M 120
injuries in the ring M 120
injuries if he is M 120
injection or via the M 120
initiated by it in M 120
infection by up to M 120
increased to by the M 120
inclusion in or the M 120
inclined as if to M 120
involved or is the M 119
interest to the on M 119
ingredient to be the M 119
informed of it so M 119
involved in it we M 118
intuition or as the M 118
intimate to us in M 118
internal or at the M 118
interest us in an M 118
interest in or no M 118
intended to or is M 118
instance be of the M 118
inspired me as the M 118
insisted he do the M 118
insights if it is M 118
innocent as of the M 118
informed me as the M 118
induction as if it M 118
incurred is in the M 118
increased as we go M 118
inclusion in the king M 118
includes the king of M 118
included is by no M 118
included in or the M 118
inclined to eat or M 118
insights of the so M 117
included in to the M 117
inversion of the ring M 116
interest in me of M 116
intently up at me M 116
intended to sing it M 116
instruct us to go M 116
instinct to be at M 116
inspired me as it M 116
inspired as is the M 116
insisted on on the M 116
injuries to the thing M 116
injuries is on the M 116
injuries is by no M 116
injection or if the M 116
initiates us in the M 116
initially it is an M 116
industry is in so M 116
indebted to it is M 116
incurred if he or M 116
increased to of the M 116
increased to if the M 116
increased by the the M 116
increased as at the M 116
included in of the M 116
invariant up to an M 114
interest to do an M 114
intended so to he M 114
inspired as in the M 114
initiation so as to M 114
initially is to be M 114
inherent to it in M 114
indebted to us as M 114
indebted to the the M 114
increases is in the M 114
involved is the so M 113
intended to be be M 113
instruct me to be M 113
ingredient so as to M 113
infinity or in the M 113
increases to be in M 113
internet to go to M 112
interest up in the M 112
interest of the of M 112
interest in me he M 112
intended or is to M 112
instance it in the M 112
instance is of an M 112
instance is it the M 112
inspired by or in M 112
inspired by it at M 112
insanity is to do M 112
insanity as if it M 112
injuries if it is M 112
injection of the so M 112
infection is or is M 112
infection by the so M 112
industry or if it M 112
industry as do the M 112
induction as if the M 112
incurred by us as M 112
increases go to the M 112
included is of the M 112
included in the up M 112
included in my the M 112
inactive as to the M 112
invariant up to the M 111
intimate it to my M 111
interest or is in M 111
inferred to be no M 111
increases the of the M 111
increases it up to M 111
increases as if the M 111
interest of it at M 110
interest is if the M 110
interest in on the M 110
intently at me in M 110
inherent to the thing M 110
infection if he is M 110
inclusion of it is M 110
inception or in the M 110
interest me to do M 109
interest is of so M 108
interest in by the M 108
inspired me at an M 108
insanity of the thing M 108
innocent or to be M 108
injuries by up to M 108
injection is to the M 108
initially be in an M 108
informed me at my M 108
industry it is as M 108
industry in the us M 108
increased it up to M 108
inclusion in it is M 108
includes it at the M 108
included in it be M 108
included if he or M 108
instruct it to be M 107
increases up to ca M 107
intuition to be so M 106
interest to the the M 106
interest is at or M 106
intended to ring on M 106
instance of the to M 106
instance id of the M 106
inspired it at the M 106
inspired by or at M 106
insisted it to be M 106
injuries of the king M 106
injection or by an M 106
inherent it is in M 106
inherent in us is M 106
infinity or of the M 106
infection as do the M 106
industry or is in M 106
incurred on it is M 106
increases as is the M 106
increased to me by M 106
increased to be in M 106
inclusion of the no M 106
included in or at M 106
inclined to the ring M 106
inception to be the M 106
informed of it if M 105
inclined us to be M 105
involved or as the M 104
involved in in my M 104
interest us as an M 104
interest of in to M 104
interest in us we M 104
intended to sing at M 104
instance it is on M 104
installing it on an M 104
inspired to do in M 104
insights as it is M 104
innocent as at the M 104
industry is as an M 104
indebted as to be M 104
increased to the nth M 104
inversion as it is M 103
involved is up to M 102
inversion is by no M 102
intimate it to me M 102
internal to it or M 102
interest to go up M 102
interest on it of M 102
interest as of my M 102
intention to go so M 102
integral to it the M 102
integral to it in M 102
instinct in me at M 102
instance as of the M 102
inspired to sing by M 102
inspired in us an M 102
insisted on it or M 102
insanity or of the M 102
innocent he is of M 102
inhumane thing to do M 102
infinite or if the M 102
industry of up to M 102
incurred or in the M 102
increased or at the M 102
includes in it so M 102
included to be of M 102
included as is an M 102
inclined the king of M 102
intently at us as M 101
involved or if he M 100
intuition to do the M 100
intuition to be an M 100
internal ring at the M 100
interest or to do M 100
interest is to he M 100
interest as in it M 100
interest as in an M 100
intended or in the M 100
intended it is the M 100
intended is by no M 100
instruct me of the M 100
instance is in my M 100
insisted we do the M 100
insisted on in it M 100
inquired of me at M 100
initiates it in the M 100
initiated by it or M 100
initially be of the M 100
inherent to it is M 100
informed us it is M 100
informed it is to M 100
infection if he or M 100
incurred or of the M 100
increases or to the M 100
increased if we do M 100
inception is in the M 100
involved in an as M 99
instinct to do as M 99
infected up to the M 99
increases it as the M 99
involved in an it M 98
internal or to the M 98
interest us as it M 98
interest to do my M 98
interest to do at M 98
interest in the at M 98
interest in it up M 98
intention to do to M 98
integers to be the M 98
integers as in the M 98
instinct or is it M 98
instance of the ring M 98
inspired it to the M 98
inquired as if he M 98
informed on to the M 98
informed it in the M 98
industry as if the M 98
induction it is the M 98
incurred by us or M 98
increases it by an M 98
inclusion is on the M 98
inspired by the woe M 97
informed to be in M 97
inclined to the so M 97
inclined it to be M 97
involves up to the M 96
involved to be on M 96
interest be if the M 96
intention to do at M 96
intention is or is M 96
instance of it he M 96
instance he is an M 96
innocent if it be M 96
initiated or to the M 96
informed by me on M 96
infinite as to be M 96
induction to be in M 96
increased by of the M 96
informed of the so M 95
incurred to do so M 95
invariant as in the M 94
interest to us do M 94
interest to the tea M 94
interest or of no M 94
interest or if an M 94
interest me as he M 94
interest in me it M 94
intended to eat up M 94
intended or to the M 94
instinct as of the M 94
instance is the thing M 94
instance is in no M 94
insisted on of the M 94
insisted on it if M 94
inquired of us the M 94
innocent or in the M 94
innocent as is the M 94
injection to be the M 94
injection of it in M 94
initially to do the M 94
initially to do so M 94
informed us to be M 94
industry as in so M 94
induction or by an M 94
induction of an in M 94
indebted to me the M 94
incurred it to the M 94
increased up to or M 94
increased in us by M 94
increased as if it M 94
included it on my M 94
interest on it be M 93
intended or if it M 93
integral to be of M 93
involved it is no M 92
involved in the am M 92
involved in or on M 92
involved in if he M 92
involved as he in M 92
interest in of the M 92
interest he is at M 92
intended to eat of M 92
intended the king to M 92
integral as to be M 92
integers so as to M 92
instinct up to the M 92
instance or as an M 92
inspired me to an M 92
inspired as if by M 92
insanity or as an M 92
inhabits it is the M 92
informed us to the M 92
informed of by an M 92
infection to be so M 92
infected me to the M 92
infected as in the M 92
industry to be no M 92
industry or as the M 92
industry it is by M 92
inclined us as to M 92
inception it is an M 92
interest us is as M 91
inspired in me no M 91
infuriating to be so M 91
informed as we go M 91
increases so it is M 91
inwardly or in the M 90
internet to do it M 90
interest me by the M 90
interest in to be M 90
intention or of an M 90
intended me by my M 90
intended in it by M 90
intended as to be M 90
instance or in an M 90
instance of the of M 90
instance of or in M 90
insisted to me on M 90
insisted on as is M 90
initiation is on the M 90
initially it is at M 90
informed of it is M 90
inferred by me as M 90
infection to be in M 90
infection as to be M 90
indebted is to be M 90
increased so it is M 90
increased it as the M 90
inclusion of the the M 90
inclined as if he M 90
interest to go as M 89
interest it is no M 89
instruct the king on M 89
initiated by me as M 89
included me in on M 89
intuition as if it M 88
intimate as if at M 88
internet or via the M 88
internet or to be M 88
interest to or of M 88
interest to me by M 88
intention of of the M 88
instinct is in no M 88
instinct as by the M 88
instance as is the M 88
installing me in the M 88
insisted on it by M 88
insisted on at an M 88
insisted it be in M 88
innocent to me as M 88
initiated it is the M 88
initiated it at the M 88
initiated by or in M 88
ingredient of it in M 88
inferred so as to M 88
infection or to be M 88
incurred it in the M 88
incurred by it the M 88
increased to be of M 88
increased is in the M 88
inclusion or of the M 88
included me as the M 88
informed of the up M 87
informed as is the M 87
increases to be the M 87
involves us at the M 86
involved on to the M 86
intimate as if it M 86
interest on it the M 86
interest is to me M 86
intention to go it M 86
intention so to be M 86
intention or as an M 86
intended is of the M 86
instruct me to the M 86
instance to do the M 86
instance is in an M 86
innocent so as to M 86
injuries or on the M 86
injection is by no M 86
injection in to the M 86
initiation to be the M 86
initially or by the M 86
initially as if he M 86
inheriting it in the M 86
informed us by the M 86
informed so by the M 86
informed me at an M 86
infinite if he is M 86
inferred me to be M 86
induction is of no M 86
incurred or to the M 86
incurred by us to M 86
increased by it to M 86
included it as it M 86
inclined to on the M 86
involved to be at M 85
instinct to go in M 85
infected by the so M 85
inwardly he is the M 84
inwardly as to the M 84
inwardly as if he M 84
involved to me in M 84
involved is by the M 84
involved as in an M 84
inversion it is the M 84
internal to us as M 84
internal to it at M 84
internal ring it is M 84
interest to it or M 84
intently at the king M 84
intention if he is M 84
instruct us at the M 84
instinct to eat or M 84
instance to the thing M 84
instance to be at M 84
insanity as if the M 84
innocent or of the M 84
injuries to or by M 84
injuries is to the M 84
initiated it on the M 84
informed of the the M 84
inflicting it on us M 84
infinity to be the M 84
indebted as he is M 84
increases on in the M 84
increased by tea or M 84
inclusion to be the M 84
inclusion is by no M 84
inception to be an M 84
inception or at the M 84
instills in me the M 83
informed as if he M 83
involved or in my M 82
involved is in an M 82
involved in of the M 82
involved in if we M 82
involved in if it M 82
intimate thing to me M 82
interest us if it M 82
interest up to an M 82
interest or at no M 82
interest as king of M 82
intention on the king M 82
intention be to go M 82
intended to eat me M 82
instruct us in an M 82
instruct me by the M 82
inspired by on the M 82
innovate if it is M 82
innovate as to eat M 82
injuries we do to M 82
informed me as if M 82
informed by us in M 82
industry or it is M 82
induction in it is M 82
increases it if it M 82
inclusion so as to M 82
inclusion on it of M 82
included in it we M 82
increases in the the M 81
inclined to go or M 81
interest to the thing M 80
interest to it at M 80
interest in it it M 80
intently at me to M 80
intention or as the M 80
intention as to an M 80
instruct us or to M 80
inquired if it is M 80
initiation is of the M 80
initially is in an M 80
informed to be on M 80
infinity is at the M 80
infinite is of the M 80
indebted to me if M 80
increased to it is M 80
included is up to M 80
included as to be M 80
inclined to of the M 80
involved in an at M 71
insisted he go on M 69
initiation of an in M 64
initially to be as M 61
involved in the by M 60
inherent in the at M 60
industry to do as M 60
involved in the pi M 56
informed of the in M 56
invariant is of the M 54
interest or be of M 54
intention to be up M 53
initiation of the in M 53
included in an up M 51
inclined to be no M 51
informed he is on M 50
informed by an in M 50
increases up to or M 49
increases as if it M 49
inclined to sing or M 49
increases up to as M 48
interest to the in M 47
interest if he so M 47
insisted he go in M 47
interest us is to M 46
inherent in it so M 46
increases as the the M 46
interest on the in M 45
instills in us an M 45
informed of the no M 45
informed he is the M 45
inclined to eat in M 45
inclined it at an M 45
intimate to us by M 44
instance of an in M 44
increases in the ca M 44
increases if he or M 44
inclusion in an in M 44
involves in it as M 43
invariant be in the M 43
instance to be as M 43
instance of the em M 43
initiated by the in M 43
informed to be of M 43
informed the king as M 43
interest of the as M 42
intention is to so M 42
integral to the so M 42
instinct to be as M 42
includes in it as M 42
interest to me so M 41
interest or is an M 41
interest on it so M 41
initiates us to the M 40
inclusion in the in M 40
included in the me M 40
inasmuch as it is D 302302
inasmuch as he is D 51377
indulged in by the D 50046
inasmuch as in the D 20750
inserted it in the D 15394
interest in the sea D 8389
indicate to us the D 7032
inasmuch as by the D 6597
inserted so as to D 6342
indulged in at the D 5984
inquires as to the D 5980
inflation is to be D 5840
indicate it to be D 4914
inasmuch as we do D 4898
invention is to be D 4796
indicate as to the D 4178
invested it in the D 3944
inasmuch as the king D 3781
insomuch as it is D 3765
interval is to be D 3689
interact so as to D 3514
inasmuch as at the D 3495
incident is to be D 3450
invested so as to D 3274
infection of the ear D 3257
involved in the re D 3242
indulged in as to D 3210
injurious to the king D 3106
invested by the king D 3072
insertion is on the D 3010
invested in it by D 2954
injuries of the ear D 2752
indulged in to the D 2732
indulged in on the D 2716
indicate if it is D 2699
indicating it to be D 2532
inasmuch as on the D 2444
incursion of the sea D 2357
inclines me to the D 2282
instilling in me the D 2263
interval of up to D 2246
inclines us to the D 2231
inverted so as to D 2223
indulged in in the D 2180
indicate to me the D 2170
insertion is to be D 2168
incident as if it D 2156
inserted in the ear D 2058
inserted on to the D 2008
invented it in the D 2000
invested in me by D 1974
invasions of the sea D 1958
intriguing as it is D 1766
indicate it in the D 1756
invention of the so D 1717
investor is in the D 1688
inasmuch as if the D 1674
interest in the re D 1659
incident to or in D 1644
inasmuch as in it D 1616
inserted up to the D 1582
included in the ad D 1572
inasmuch as the thing D 1566
interval up to the D 1520
invested in by the D 1398
invention is in the D 1366
indulged in it to D 1352
inasmuch as ye do D 1342
indicate it by the D 1310
inspired by the sea D 1290
insulted me in the D 1286
inscribe us in the D 1254
interval is of the D 1252
incident is in the D 1244
insertion of it in D 1224
insulted by the king D 1222
incident of the king D 1214
infection in the ear D 1198
indicate it is the D 1182
incident to the king D 1180
indulged in to an D 1168
invented so as to D 1166
invested it on the D 1146
intended to be re D 1142
inasmuch as by it D 1133
injurious as it is D 1128
inspires us to do D 1125
indicate it on the D 1122
insomuch as to be D 1110
injected so as to D 1108
invested in the king D 1102
invention as it is D 1088
indicating to us the D 1088
interval is in the D 1076
inflated so as to D 1063
injected on to the D 1056
injuries to the ear D 1049
inserted in it the D 1038
indented by the sea D 1037
inflation is on the D 1032
invested in it is D 1026
indicate to be the D 1016
intranet or on the D 1013
inasmuch as he or D 1013
insertion is at the D 1002
intruded on by the D 1000
interval so as to D 996
inscribe it in the D 989
interval as in the D 982
inflation so as to D 982
indicating it is the D 972
invention of it to D 954
incident to be the D 954
incident of the ring D 950
insertion is in the D 946
invention so as to D 944
inimical to the king D 940
inclines us to be D 931
infinity of the sea D 905
indulged in by an D 904
invented to do the D 896
inasmuch as to the D 889
inserted it at the D 880
indicate it to the D 880
inventor of the so D 873
incident so as to D 858
inscribe it on the D 857
indulged as to the D 850
inflation is in the D 848
inspires me to do D 846
included in the re D 839
inspires us to be D 832
indicate it as the D 830
included in the ms D 827
inspires in us the D 825
indicate on it the D 824
internal ear is the D 820
interred it in the D 810
inserted in it by D 798
inserted as in the D 790
invented by the king D 786
intimacy is to be D 786
involved in the ion D 780
infantry of the king D 776
inserted in to the D 775
injurious it is to D 774
inspires me to be D 768
indirect as to be D 768
involved in the sea D 762
inasmuch as the so D 745
invested in it to D 740
inclines us to do D 739
indicted in the king D 734
indicate it is an D 728
inclines me to be D 723
insertion in it of D 720
investor is to be D 716
incident to or as D 716
incurious as to the D 704
inserted in the king D 702
inserted in the ring D 700
indented so as to D 700
invested as it is D 696
inasmuch as to be D 693
invested in it in D 690
indulged in by so D 686
invested by it in D 678
insisted on the re D 673
installs it in the D 672
inserted in the ms D 665
incident as it is D 656
insidious as it is D 652
infinite as the sea D 652
invention of the ring D 646
infantry up to the D 645
invention to be the D 642
incident is of no D 642
inasmuch as if it D 637
intimacy of the king D 634
inquirer as to the D 634
inasmuch as if we D 632
inserted is to be D 624
infantry is to be D 618
incident on it is D 616
injurious to us as D 613
indulged me in my D 612
inscribing it in the D 611
injurious to us in D 611
invention of it is D 606
inasmuch as up to D 606
insecure as to be D 596
insertion is to the D 594
inserted as to the D 594
intrusion of the sea D 587
indicating it as the D 580
inventor of the thing D 578
indulged in as an D 576
inverted as in the D 570
invested in me as D 565
investor as to the D 564
internal ear of the D 562
invested in it as D 560
invention or of the D 556
infinite sea of the D 554
inflation up to the D 552
inserted in it to D 548
infantry so as to D 548
invasions of it in D 546
interval if it is D 544
interval to be the D 536
indecent in me to D 536
indulged it to the D 534
incident to me in D 532
invested or to be D 528
injected in to the D 526
invested up to the D 524
indulged in it in D 521
insertion of the wing D 520
insulted me in my D 518
interest in the ex D 516
invented it on the D 514
inserted it in my D 514
indirect as in the D 512
incident or of the D 504
incisions so as to D 500
indulged in it as D 498
inasmuch as the sea D 498
indicating to me the D 494
inasmuch as in my D 490
internal ear to the D 488
involved in the ad D 486
interval is at the D 485
inflation to be the D 484
invention if it is D 480
interval at is the D 480
inflation if it is D 480
interval or at the D 478
inclines me to do D 478
inserted it in an D 472
inflation as it is D 464
indicate it as an D 464
inserted an ad in D 462
incident is by no D 462
inflation of the ear D 456
inflation is of the D 454
inflamed me to the D 454
indulges in it to D 452
inasmuch as by so D 452
invention is of no D 447
interval is on the D 446
instilling in me an D 446
indicate to us in D 446
incident to it in D 444
invention as to the D 442
insomuch as he is D 442
inquires if he is D 441
interval as it is D 439
inclines it to the D 439
intention is to re D 438
injurious to me is D 438
insomuch as the king D 437
inasmuch as it at D 435
inserted if it is D 430
insulted the king in D 426
inserted in it in D 426
intrusion is to be D 424
invention is of the D 422
insertion on to the D 422
inscribing it on the D 422
indirect as it is D 422
inscribe it to the D 421
inserted it as an D 420
inquires if it is D 418
infamous as it is D 418
incident on the sea D 417
invention as of the D 416
iniquity is to be D 414
inasmuch as it no D 413
intriguing to me is D 412
inflation is by no D 412
invented it at the D 410
inserted in it at D 410
insertion of the ring D 406
instilling in us the D 405
invested is to be D 404
inserted as it is D 404
indulged in by my D 404
inverted as it is D 403
insecure as to the D 400
invention as in the D 398
invention or in the D 396
interval or in the D 396
invested it in an D 394
invention is or is D 392
indicate it to me D 390
inspires in me the D 388
instance of the re D 386
incident is of the D 386
inserted in the by D 382
injurious to me in D 382
indicating it is an D 382
intrusion of the king D 376
insertion of up to D 376
insertion of the ear D 376
iniquity of the king D 376
indicate it is in D 376
inasmuch as if he D 375
inscribing on it the D 374
inductor is to be D 374
included in the sea D 372
inasmuch as to do D 372
indulged in it at D 371
insomuch as in the D 369
inflation is at the D 368
invention of the king D 366
instance of the sea D 366
indulged in as the D 364
inimical to us in D 362
informal as to be D 362
inserted in it as D 361
informal as it is D 360
inclined my ear to D 360
invented to be the D 358
inserted by the king D 358
indicating if it is D 358
indicate if he or D 358
invention or to the D 352
intruder is in the D 352
indulged in it on D 352
indicted or if an D 352
inventor is to be D 350
incident up to the D 348
invented by me or D 344
intranet or to the D 342
inasmuch as it in D 342
insecure as it is D 341
inserted as to it D 340
inflation or to the D 340
included in an ad D 340
invention or it is D 338
insulted me on the D 338
injurious to us or D 338
involved in the ex D 337
increased by the re D 336
inasmuch as of the D 335
incident to it is D 334
invested in it at D 330
insulted the king by D 330
inflation as in the D 330
intently at the sea D 326
incident on it at D 326
incensed at the king D 326
inasmuch as it so D 326
inspecting it in the D 324
invested it by sea D 322
invested in it the D 322
internal ear by the D 322
interval to be of D 320
interest in the ad D 318
insertion of the so D 318
inserted by me in D 316
initiated by the ms D 315
invented by me in D 314
incident to be an D 314
included in the ex D 313
indicating to us an D 312
invidious to do so D 310
invented by us to D 310
invested in us by D 308
insulted if he is D 308
inserted in it an D 308
inductor is in the D 308
insomuch as if the D 307
infusions of up to D 306
infantry on to the D 306
increases as the ion D 306
invested as to be D 304
indicating or so as D 304
indicating it in me D 304
instance of the ad D 302
inasmuch as in no D 301
invention is by no D 300
interest in the la D 300
insolent to the king D 300
injected as in the D 300
inflation or by the D 300
insertion so as to D 299
invented it as an D 298
inspecting it as if D 298
involved in the la D 296
incident in it is D 292
invasions by the sea D 291
inbreeding is to be D 291
insulted me at the D 288
incident on to the D 288
inasmuch as in an D 287
indecent as it is D 286
incident to us in D 286
indicate to us by D 284
iniquity be in thy D 283
inverted on to the D 282
inspires us to go D 282
injector is to be D 282
iniquity of the thing D 282
indicating it on the D 282
invested in the so D 281
insurers as to the D 280
indicating it in the D 280
indicate so on the D 280
infection of the toe D 278
indulged in it so D 278
increased it to rs D 278
indicating on it the D 276
inserted in the so D 275
insolent as to be D 274
indulged me in the D 274
invented up to the D 272
indirect if it is D 272
invested as king of D 270
inflation of up to D 270
inverter is to be D 268
intimacy is at the D 268
indecent of me to D 268
injurious to it in D 267
insulted the king of D 266
incident or in the D 266
intuited by us as D 263
insolent as to do D 262
interest of the ex D 261
inherent in the sea D 261
investor as of the D 260
invested as in the D 260
interest of the sea D 258
incident as in the D 258
internal ear or the D 256
initiator of the so D 255
incident of the so D 255
insidious as to be D 254
indulged in at my D 254
injurious to me to D 252
informal as in the D 252
incident of it is D 252
incident as to the D 252
inserted it on the D 250
inspires me to go D 249
indulged in of the D 248
inclined an ear to D 248
interval at of the D 245
inventor to be the D 244
internal ear in the D 244
involved in in re D 243
intriguing to me as D 242
inscribe in it the D 242
indulges in it is D 242
indulged in by us D 240
incident on it in D 240
invention to be as D 238
interval or it is D 238
indicate it by an D 238
incident in the king D 238
insulted us in the D 236
inscribe on it the D 236
iniquity is in the D 236
inflation or in the D 236
inflation is at an D 236
invested in me to D 234
inventor or to the D 234
insulted me to my D 234
indolent to go to D 234
involved in an ad D 230
invention is at the D 230
industry of the sea D 230
indecent to go on D 230
inventor is in the D 228
interval is to the D 228
inventor of it is D 226
invasions of it on D 226
intruder to be the D 226
infantry to go to D 225
indecent it is to D 224
investor or to the D 222
invention is on the D 222
indicating it to the D 222
indicate to me in D 222
included in the la D 222
intrusion of my foe D 220
inserted in the the D 220
inventor as to the D 218
indicate if he is D 218
intrigue is to be D 216
injurious to the ear D 216
infantry to do the D 216
incident or to the D 216
invested in it or D 214
intimacy as it is D 214
interval at in the D 214
inspires us in the D 214
informal tea at the D 214
incisive as it is D 212
inducted in to the D 211
included in the rs D 211
invested to my ear D 210
inserted by or on D 210
indulged in up to D 209
inclines of up to D 208
incident of the sea D 208
interval to be as D 207
invention up to the D 206
invention to be an D 206
inflated as to be D 206
involved on an ad D 204
intimating it to be D 204
interiors of the sea D 204
injected in the ear D 204
infantry to be the D 204
indwelling in us of D 204
increased up to rs D 204
inasmuch as he at D 204
invidious as it is D 202
interiors so as to D 202
injector is of the D 202
invention as if it D 200
intimacy is in the D 200
installs it on the D 200
injurious is it to D 200
inflation or of the D 200
indulged in it is D 200
invidious in me to D 198
insertion or at the D 198
inherent in the re D 198
indicate so in the D 198
indicate it is of D 198
inclined to toe the D 198
inverter is in the D 196
insulted if it is D 196
injurious if it is D 196
indicating it is in D 196
indebted to the sea D 196
insertion of it is D 194
injurious as in the D 194
indicted at the king D 194
indicate it is to D 194
indecent thing to do D 194
incident as if he D 194
invested as he is D 192
inspires me in my D 192
insomuch as at the D 192
initiated at the toe D 192
inclined to the sea D 192
incensed by it as D 192
invented by me to D 190
interval is of no D 190
inasmuch as the ear D 190
interest on the sea D 189
intrusion of the so D 188
indicate to me by D 188
initially on an ad D 187
indulged as to be D 187
indecent to do so D 187
incident to me as D 187
invention or by the D 186
intrigue of it is D 186
intimating to us the D 186
inspires us to the D 186
ingeniously as it is D 186
informer as to the D 186
infested as it is D 186
indented as it is D 186
innuendo as to the D 185
indulged in if the D 185
invidious of me to D 184
invention to be of D 184
instance of an ex D 184
insertion or in the D 184
injurious to it as D 184
indicate as on the D 184
indented as in the D 184
invested us in the D 182
invention is in no D 182
incident as of no D 182
intimacy of the sea D 181
intrusion on to the D 180
inserted in the to D 180
incident if it is D 180
inscribing in it the D 178
inchoate as it is D 178
inflated as it is D 177
injurious to me as D 176
intrigue as in the D 174
invented to do it D 172
insertion of an ad D 172
indicating it by the D 172
interval or by the D 171
interest of the re D 171
investor to do so D 170
iniquity be on me D 170
inimical as it is D 170
infantry or in the D 170
indicate to it the D 170
investor or by the D 168
inquirer is to be D 168
injected up to the D 168
iniquity as to be D 168
inflation as if it D 168
inflamed by it to D 168
infantry to be in D 168
infamous as to be D 168
indicate to us an D 168
indicate to be of D 168
indecent to be so D 168
incident is on the D 168
insertion of an is D 167
investor if he or D 166
inventor or by the D 166
invention of the ox D 166
invention as to be D 166
insolent in me to D 166
inserted in it is D 166
indulged us in the D 166
indulged in is the D 166
indicate it is no D 166
indecent if it is D 166
incurred in the re D 166
incident to the sea D 166
incident to it at D 166
incident as if the D 166
interact as if the D 165
inflamed as it is D 165
incident to be of D 164
invented by the so D 163
investor if it is D 162
invention is to the D 162
invented or to be D 162
intriguing to me to D 162
interval or on the D 162
insomuch as if in D 162
insolent as it is D 162
indulged in as it D 162
inasmuch as we no D 161
invidious thing to do D 160
interval of it to D 160
inflation or if the D 160
inflated as in the D 160
indulged in so as D 160
indented it in the D 160
included in the pa D 159
inventor or of the D 158
intrusion is in the D 158
internal ear or of D 158
insomuch as if it D 158
infantry is on the D 158
induction of the ear D 158
includes the sea of D 158
included in the ta D 158
invidious the thing is D 157
interest in the ms D 157
instance of an ad D 156
inspires in us is D 156
insertion in the ear D 156
inflamed as to be D 156
indulges in it in D 156
incursion of the king D 156
invention of the hoe D 155
inverted it in the D 154
invented by us is D 154
invaders or by the D 154
indulged in it by D 154
incident as if by D 154
insecure as in the D 153
investor so as to D 152
initiated in the er D 152
indecent thing in the D 152
incident is at the D 152
investor as it is D 150
infidels as to the D 150
inclusion of the sea D 150
includes the sea to D 150
included in the ma D 150
incident of the tea D 150
involved in the ma D 149
informed of the re D 149
included in the doe D 149
intrusion as if it D 148
insertion up to the D 148
inserted the toe of D 148
inserted as if it D 148
innocent xi in the D 148
injurious to us to D 148
injurious as to be D 148
indulged us to be D 148
incensed is to be D 148
instruct me in thy D 147
inclines it in the D 147
invention as if the D 146
intimacy to be the D 146
internal ear it is D 146
informer is to the D 146
infantry as in the D 146
involved in the ms D 145
inasmuch as in us D 145
inspires us as we D 144
insolent of me to D 144
inscribe it to me D 144
injurious to us if D 144
iniquity be in me D 144
included in the dc D 144
incident on the ear D 144
inspired by the re D 143
invested or of the D 142
invented as it is D 142
intended to be ex D 142
instilling it in the D 142
inspires it is the D 142
insolent as in the D 142
invested the king of D 140
invested in us to D 140
intimacy as in the D 140
internal ear to be D 140
injected it in the D 140
initiated on an ad D 140
ingeniously so as to D 140
inflation or on the D 140
inequity is to be D 140
incident to me at D 140
incident to it as D 140
incident or by the D 140
instance of the ex D 139
inasmuch as it by D 139
invested if it is D 138
invention to go of D 138
instance in my sea D 138
inspires it in the D 138
incisions is to be D 138
inspires in us an D 137
investor is on the D 136
invasions up to the D 136
insurers so as to D 136
inspecting it at the D 136
indicating to me to D 136
indicate he is in D 136
interval or to the D 135
investor as if the D 134
invention to be so D 134
invaders or of the D 134
intrusion as it is D 134
interval is by no D 134
interest in an ad D 134
insertion as in the D 134
inserted in it or D 134
inhabiting the sea at D 134
infantry is in the D 134
indulged it at the D 134
interest to the sea D 133
incident to the so D 133
involved in the ear D 132
involved in er to D 132
intuited to be the D 132
intimating to me the D 132
intently on the sea D 132
instance of the ms D 132
informal so as to D 132
inflation to be at D 132
included in the ion D 132
incident to it the D 132
incensed the king of D 132
invention of the ha D 131
indulged in the so D 131
invaders or to the D 130
insertion of the pa D 130
infrared or in the D 130
infantry as of the D 130
infamous is to be D 130
incident ion to the D 130
incident ion in the D 130
inasmuch as he in D 130
included in the ts D 129
invoices so as to D 128
invested it at the D 128
invested is in the D 128
invested in the tea D 128
inherent in the ad D 128
infantry to go in D 128
indulged in on an D 128
indicate to me at D 128
incubating it in the D 128
included in an ex D 128
incensed as if the D 128
injurious to do so D 127
inflicts on us the D 127
inclines to do so D 127
intriguing it is to D 126
interact as in the D 126
inflation to go on D 126
indulges in at the D 126
indicating to it the D 126
inclines us to it D 126
interval is up to D 125
inclines to go to D 125
inasmuch as he no D 125
invested in the thing D 124
invention is to so D 124
invention as is the D 124
invention as by the D 124
invented as to the D 124
intimacy is at an D 124
interval at as the D 124
interest in the ear D 124
instinct of the sea D 124
insertion to be at D 124
insecure if it is D 124
inimical to us as D 124
inherent in the roe D 124
indicating it as an D 124
indicate to the king D 124
indebted to the ms D 124
incisors so as to D 124
incident is in no D 124
invented to do so D 123
intruded on to the D 123
interval as to the D 123
involute is to be D 122
investor is at the D 122
invested in it on D 122
invention to be in D 122
intrepid on the king D 122
inspires in me is D 122
included in the es D 122
included in the cs D 122
incident is to the D 122
incensed by the king D 122
interval or if the D 121
interval it is the D 121
investor is in no D 120
intruder as if he D 120
intimacy up to the D 120
inserted by us in D 120
inquirer is on the D 120
injurious it is in D 120
injected as it is D 120
inimical to me as D 120
informed me of thy D 120
inflicts it on the D 120
indulged in as in D 120
indicate to me an D 120
indicate he is an D 120
indicate as we go D 120
inchoate as to be D 120
invested in it so D 119
intrigue as it is D 119
interest in an ex D 119
initiator is in the D 119
included in the db D 119
invested or in the D 118
invested in us as D 118
inverted it on the D 118
invention of the thing D 118
invention of it or D 118
invention be to be D 118
indirect as to the D 118
included rs as an D 118
incident to the thing D 118
involved in the pa D 116
invested as of the D 116
invented it if it D 116
intrigue so as to D 116
interval is if the D 116
interval as at the D 116
intended as an ad D 116
informer is to be D 116
infantry or of the D 116
indirect to be of D 116
indigent as king of D 116
indicate it at the D 116
included on an ad D 116
included in the bi D 116
incident to me the D 116
incident is at an D 116
involved in the bi D 115
inimical to it as D 115
involved in the ta D 114
invoices is to be D 114
interiors is in the D 114
inflation it is the D 114
indulges in on the D 114
incident to be at D 114
inasmuch as the ring D 114
intrigue as to the D 113
increases in the sea D 113
increases in the ion D 113
invested or to the D 112
invested it in my D 112
invention or if it D 112
intrigue is in the D 112
injurious to me or D 112
inflated up to the D 112
infested as to be D 112
indicted by the king D 112
increased on an ad D 112
increased by the sea D 112
inasmuch as on it D 112
intimacy as if it D 111
insurers to do so D 111
inserted in it so D 111
invention of the the D 110
inspires me in the D 110
inimical to me in D 110
indulged me to the D 110
indicating it is to D 110
indecent to do it D 110
interval it is to D 109
insertion of an in D 109
invention or of an D 108
insulted if we do D 108
inserted or to be D 108
insecure as he is D 108
inquirer as of the D 108
inflation is to the D 108
indulged it in the D 108
indolent to do it D 108
indigent is to be D 108
indicate in it the D 108
incident in it to D 108
inasmuch as the re D 108
invested in the re D 107
invention is of an D 106
invented by us in D 106
invalids to go to D 106
internal sea of the D 106
inserted as if to D 106
inquires if it be D 106
inimical to it in D 106
inhibiting it in the D 106
informed by an ex D 106
informal tea in the D 106
inflamed so as to D 106
indulged in as he D 106
indirect so as to D 106
indicted me on the D 106
indicate so at the D 106
incident in it the D 106
incident to the re D 105
intriguing thing to me D 104
intrigue of the king D 104
interval or as the D 104
internal ear on the D 104
inspires me is the D 104
insolent thing in the D 104
insertion of the ad D 104
injector is in the D 104
indolent to do the D 104
indicate it to us D 104
incident to it by D 104
incident to an in D 104
invested or is in D 102
invested it is the D 102
insulted me by an D 102
instilling in it the D 102
insomuch as by the D 102
insidious foe of the D 102
insertion of an ear D 102
insecure if he is D 102
inscribing it to me D 102
iniquity as the ox D 102
inflation to be an D 102
indulged up to the D 102
indolent as it is D 102
indicating he is on D 102
indicate it is at D 102
incident to me on D 102
incident or at the D 102
interval is is the D 101
interred on the sea D 101
intended as an ex D 101
inspired by an ad D 101
inserted in the re D 101
inasmuch at it is D 101
inventor of the ring D 100
interred it by the D 100
internal ear is in D 100
inserted is in the D 100
inserted by me to D 100
injurious to me if D 100
injected if it is D 100
infrared as in the D 100
informal ion on the D 100
informal if it is D 100
inflation to go up D 100
indulged to us by D 100
indicate to be in D 100
indicate it is on D 100
indicate he is the D 100
incubate it in the D 100
incident on it to D 100
incident as by the D 100
invested in at the D 98
invasions of it by D 98
intimacy as if he D 98
interval as if the D 98
interiors or in the D 98
installs it as the D 98
insertion of in the D 98
inflation to be in D 98
inflated it to the D 98
infinite of the sea D 98
infection in the toe D 98
indulged in on my D 98
indulged in by me D 98
indigent as to be D 98
indicate the of the D 98
included in the er D 98
iniquity to go on D 97
invested by us in D 96
intriguing to me in D 96
intrigue or in the D 96
interval as to be D 96
interest in the ion D 96
intention of the ex D 96
insulted as in the D 96
inspires in me an D 96
insertion of it at D 96
inserted on the ring D 96
industry in the sea D 96
indicating me to the D 96
indicate to us as D 96
indicate to me my D 96
interest is the sea D 95
invaders up to the D 94
intriguing thing in the D 94
interval as if it D 94
instinct of the ear D 94
insertion or to the D 94
insertion of the the D 94
injurious to vs or D 94
injurious as to the D 94
initiated by the cs D 94
infection in my ear D 94
indicate to us to D 94
indicate by it the D 94
included the sea of D 94
incident up in the D 94
incident as to be D 94
integral of the ion D 93
indolent to do so D 93
involved in the dc D 92
invidious as to be D 92
investor if he is D 92
invaders of the king D 92
intruder is on the D 92
intrigue or by the D 92
interiors of the ear D 92
interact as if in D 92
intention so to doe D 92
instinct by the roe D 92
instants is to be D 92
inquires as to my D 92
inimical it is to D 92
indicating to me by D 92
indented as if it D 92
incisors is to be D 92
incident to be in D 92
incident it is the D 92
incident is of so D 92
incident is in my D 92
intimacy so as to D 91
indulged in if it D 91
invidious it is to D 90
investor to be the D 90
invented thing on the D 90
inveigling us as it D 90
invasions of the king D 90
intrusion of it in D 90
intriguing thing is the D 90
intimacy if it is D 90
interval as is the D 90
insurers or by the D 90
installs it at the D 90
inserted it as the D 90
inscribe me in the D 90
inquirer is in the D 90
injurious thing to the D 90
indulged so as to D 90
indicate to us at D 90
indicate to me if D 90
indecent as to be D 90
incursion by the sea D 90
incident up on the D 90
incident to me is D 90
incident to me he D 90
invention it is the D 88
invention as he or D 88
interval at to be D 88
instruct us by thy D 88
inhabiting the sea of D 88
infusions of tea or D 88
indulges us in the D 88
inducers on the in D 88
indecent to go to D 88
incursion up to the D 88
incident of the ox D 88
invention of it in D 86
invented by us or D 86
invaders is to be D 86
interval at to the D 86
internal to the ear D 86
insidious foe to the D 86
insertion of the king D 86
inserted is at the D 86
inflicts on me the D 86
inflated by up to D 86
indicating it as at D 86
indicate the thing we D 86
increased by the ad D 86
incisors as in the D 86
incident it is to D 86
inasmuch as by sea D 86
interval is the so D 85
investor it is the D 84
invented it is the D 84
invaders so as to D 84
intriguing to be the D 84
intimating to the king D 84
interiors as in the D 84
interest to the ear D 84
inspires me to the D 84
inserted in my ear D 84
inscribing it to the D 84
inquirer to go to D 84
inquests as to the D 84
infantry by sea to D 84
indicating to us by D 84
indicate as if the D 84
incursion on to the D 84
increased as the sea D 84
incisions as in the D 84
incident up at the D 84
incident or if the D 84
inventor as he is D 82
invention it is to D 82
intriguing to us is D 82
interest is the re D 82
inspired me to re D 82
injurious to us at D 82
informer or to the D 82
informal thing to do D 82
infantry or by the D 82
indulged in at an D 82
inclines it to be D 81
invented it in an D 80
intriguing as is the D 80
insertion or by the D 80
insertion is of the D 80
inscribe it at the D 80
injurious to the thing D 80
inflation on to the D 80
indirect is to be D 80
indigent as it is D 80
incident or is it D 80
invention of the in D 75
inasmuch as in so D 74
involved in an ex D 72
interval or of the D 70
inclusion of the ion D 66
inasmuch as by an D 64
interval it is in D 63
interval to be no D 62
inverted if it is D 60
interval to be an D 60
interact is in the D 60
inserted in the in D 60
interval to go to D 59
interval to be so D 56
inherent in the ex D 56
inclines so as to D 56
interest up to rs D 54
inasmuch as he so D 54
interval to be in D 53
inasmuch as we in D 53
industry on the sea D 52
invested in to the D 50
invested in or the D 50
invention of the sea D 50
intended to be ad D 50
inherent in the ion D 50
indulges in it as D 50
involved in the er D 49
interred up to the D 49
injurious to the in D 49
inasmuch as it re D 49
interval is if we D 48
involved in an ion D 47
indicate to me as D 47
increases as the sea D 47
inasmuch as he the D 47
inclusion of the ex D 46
indulges in it or D 45
inspired by the ex D 44
infantry of the sea D 44
included as an ex D 44
intrigue me is the D 43
inherent in an ad D 43
inverted as to the D 42
inflamed up to the D 42
inflamed or if the D 42
inclines to the sea D 42
inasmuch as the the D 42
invented by me as D 41
inscribe it in my D 41
inclines to be the D 41
inasmuch as at no D 41
