re the kind of D 3352
re as good as D 2860
re the sort of D 1210
re in need of D 1175
re so fond of D 1116
re so used to D 1088
re so good at D 878
re the same as D 829
re the type of D 827
re as well as D 826
re so full of D 690
re the best of D 652
re the best thing D 622
re no good to D 536
re so good to D 475
re the only thing D 454
re no good at D 438
re the same thing D 396
re the cream in D 394
re the best in D 372
re to have the D 364
re so glad to D 362
re so eager to D 334
re so sure of D 314
re so keen on D 312
re as safe as D 292
re my kind of D 288
re the theory of D 282
re the star of D 279
re the ones to D 270
re in want of D 262
re the last of D 258
re as young as D 248
re as cold as D 240
re the case of D 222
re to come to D 208
re so good as D 206
re as thick as D 206
re so keen to D 200
re at home in D 199
re is used to D 198
re as much of D 183
re so hard to D 182
re the ones we D 170
re the last to D 162
re the best we D 162
re the ones in D 160
re the work of D 158
re the best at D 154
re at risk of D 153
re so kind to D 152
re the boss of D 150
re so ready to D 146
re the size of D 144
re in luck to D 142
re the wife of D 138
re to take the D 137
re the salt of D 136
re the talk of D 134
re as fond of D 134
re the love of D 132
re as like as D 132
re the sale of D 128
re as rich as D 128
re as pale as D 125
re at least as D 124
re up there in D 122
re at home or D 122
re the role of D 120
re so nice to D 118
re as good in D 118
re as hard as D 116
re the sons of D 114
re the life of D 114
re so much in D 114
re as ready as D 114
re as full of D 112
re the hero of D 110
re as much in D 110
re up there on D 108
re so much the D 108
re the duke of D 107
re as good at D 106
re as dumb as D 106
re at work or D 102
re to give up D 101
re as busy as D 100
re as free as D 98
re the soul of D 96
re in love or D 96
re the heart of D 94
re in time to D 93
re to have it D 92
re as tall as D 92
re the same in D 90
re so sure it D 90
re as ugly as D 90
re as slow as D 88
re to meet at D 87
re to bunk in D 86
re as hard to D 86
re is nothing in D 85
re as clean as D 85
re to take me D 84
re the name of D 84
re is said to D 84
re as wise as D 84
re so many of D 81
re up here in D 80
re the type to D 80
re or sine re D 77
re as poor as D 62
re the flow is D 56
re to come in D 48
re is nothing to D 43
re the eyes of D 42
re to keep the D 40
