read : " the M 135067
read , " the M 89759
read , " he M 35516
read : " in M 29775
read : " we M 27618
read : " it M 21642
read : " to M 19114
read : " if M 18281
read , " we M 18265
read , " in M 18225
real , " he M 14989
read , " if M 14684
read , " to M 14612
read , " it M 13399
read : " he M 11817
red , " he M 11576
read : " no M 10829
read : " my M 10823
real , " the M 9821
read , " is M 8627
read , " no M 8625
red , " the M 7870
read , " as M 7719
read , " do M 7498
read : " as M 7481
read : " on M 7275
read : " do M 6904
real , " or M 5768
read , " my M 5409
read : " at M 5362
real , " in M 4826
red , " or M 4528
real , " as M 4395
read : " an M 4023
read , " by M 3956
read , " on M 3597
read : " by M 3572
read , " or M 3387
read , " so M 3335
read , " an M 3150
red , " as M 2982
read : " so M 2931
read , " at M 2879
read , " of M 2749
read : " be M 2571
read , " be M 2471
rear , " he M 2322
read : " is M 2195
red , " is M 2014
read : " of M 1967
real , " is M 1952
real , " it M 1948
red , " in M 1862
read , " go M 1509
real , " to M 1470
rear , " the M 1385
red , " we M 1338
real , " we M 1330
read : " go M 1195
red , " it M 1181
read : " oh M 1075
real : " the M 1009
red , " to M 813
reap , " is M 786
read , " oh M 741
real , " of M 678
real , " so M 673
red , " if M 568
real , " if M 565
real , " by M 529
read : " am M 521
red , " so M 516
red , " an M 494
real , " an M 483
read : " or M 459
read , " hi M 434
rear , " as M 432
read , " king M 388
real : " it M 381
red , " by M 368
red : " the M 341
rear , " or M 324
real , " at M 282
read : " king M 277
read : " hi M 271
red , " do M 262
red , " of M 260
read , " woe M 258
real , " on M 236
read , " eat M 235
red , " on M 232
reap , " he M 226
read , " am M 215
real : " if M 192
read , " lo M 190
read : " eat M 188
rear : " we M 180
real : " we M 180
real , " no M 179
rear , " we M 177
rear , " in M 177
rear , " to M 163
read : " woe M 163
read : " lo M 163
real , " my M 160
reap , " the M 158
reap , " or M 154
read : " en M 154
real : " in M 151
read : " up M 147
rear , " it M 140
red , " my M 136
read : " me M 131
red : " it M 124
read , " up M 114
rear , " is M 112
red , " no M 107
rear : " the M 107
read , " me M 107
red , " at M 104
red : " oh M 96
rear , " so M 96
real : " by M 94
reap , " as M 90
read : " sing M 90
real : " he M 85
red : " we M 84
real : " my M 49
read , " sing M 46
