really such a thing M 8838
really think i am M 7376
reason have i to M 6087
really think i do M 2272
really what i am M 1366
repeat what i am M 1334
really know a thing M 1096
reader were i to M 1044
reveal what i am M 806
really feel i am M 692
really have a thing M 676
repeat such a thing M 610
really make a go M 606
repeat part a if M 556
really what i do M 540
really want a thing M 354
reveal such a thing M 320
really hope i do M 286
really made i do M 280
reason also i am M 274
reader think i am M 274
really have a go M 265
reason when i am M 225
rests upon a ring M 186
reply when i am M 185
reader what i am M 184
reaching from a to M 176
really knew a thing M 168
really made a go M 162
reveal what i do M 150
really like i do M 148
really only a by M 147
really know i am M 146
really need a thing M 140
really means i am M 138
really feel i do M 138
really glad i am M 134
really hope i am M 132
really having a go M 130
reason only i am M 124
really when i am M 124
really glad i do M 118
resting upon a ring M 116
repeat what i do M 110
really done a thing M 110
reason such a thing M 99
really feel a thing M 98
really meant i do M 96
really means i do M 94
really meant a thing M 92
really just a by M 92
reply have i to M 80
reason from a to M 48
region from a to D 874
relax when i am D 268
reign like a king D 194
region from d to D 94
really only a re D 88
relax when i go D 84
