reason is that the M 533790
refer to them as M 150025
reason of this is M 118182
refer to this as M 116159
reaching the age of M 115012
reason is that it M 85593
refer to him as M 84528
reaching the end of M 76598
reason is that in M 66013
reason to fear the M 53870
reason is that we M 49418
reaching the top of M 47942
reader an idea of M 46154
refer to one of M 35862
reaching as far as M 35456
refer to them in M 33019
reason at all to M 31836
reason is that he M 30825
refer to all the M 30020
resting on top of M 27503
refer to her as M 27197
reason it may be M 25740
reason is that if M 24932
reveal to him the M 23957
refer to any of M 22352
reply is that the M 20421
reply to one of M 20351
refer to both the M 19441
reader to see the M 19186
refer to one or M 18679
reason to try to M 18514
reply to this is M 18472
refer to all of M 16780
reveal to you the M 15848
refer to them by M 15731
reason is not the M 15520
rests on top of M 15514
reader is led to M 15016
reason to use the M 13870
really as bad as M 13196
reveal to them the M 13188
really is not the M 12770
really no way to M 12298
reason he had to M 12095
really the son of M 11950
reason is that an M 10862
really the end of M 10594
reader is not to M 10482
really is not so M 10413
refer to him in M 10280
reason the use of M 10224
reader is apt to M 10196
reply to all the M 10007
reason is that no M 9996
reason is that as M 9576
reason is not to M 9530
reason it can be M 9365
reader to bear in M 9332
refer to god as M 9238
reason to get up M 8655
reply is that it M 8475
repeat to you the M 8433
reason is that at M 8421
reason to fear it M 8386
resting on one of M 7934
refer at all to M 7804
reason of his or M 7752
really the key to M 7656
refer to him by M 7556
refer to each of M 7210
really an act of M 7192
really is one of M 7158
reason is that by M 7100
reaching the head of M 7004
reply to any of M 6990
reason he was so M 6865
reason to fear an M 6644
reason is not so M 6473
reason is one of M 6431
reason of any of M 6397
relying on you to M 6394
really is going to M 6260
reason to see the M 6228
really no way of M 6108
reader to read the M 6106
reason of age or M 6084
refer to you as M 6080
reason or for no M 6059
reveal to her the M 6036
reason is due to M 5994
reason of all the M 5780
refer to this in M 5753
reason is easy to M 5750
reason to use it M 5665
reason if for no M 5508
reveal the way in M 5376
reason is that to M 5198
really is not an M 5050
reason of death or M 5034
reply to them in M 5022
refer to them at M 4986
refer to that of M 4912
reason as far as M 4882
refer to two or M 4834
relying on them to M 4696
really is not as M 4668
reason to lie to M 4575
reason it was so M 4502
resting my head on M 4435
reason we had to M 4431
reason to say so M 4429
reason he has to M 4353
reader is going to M 4246
really do not do M 4202
really no end to M 4156
reveal the use of M 4150
reply to this he M 4119
reason it was the M 4109
really is not my M 4076
rests on one of M 4064
reason he was in M 4028
repeat to him the M 4002
really am going to M 3924
really the head of M 3870
really the way to M 3864
reader is that the M 3862
reply is that we M 3838
reply to this the M 3823
reply to this it M 3799
reason to act in M 3738
reply to that of M 3684
reason is that of M 3678
reason is not an M 3670
reason of that is M 3662
reply is that he M 3636
refer to how the M 3590
reason the idea of M 3589
reply it may be M 3570
relying on him to M 3564
reader is one of M 3544
reply to him in M 3540
reason of man is M 3538
reply is that in M 3514
reason to say no M 3498
really it was the M 3440
reply to each of M 3430
reader to use the M 3398
refer to two of M 3376
reason is not in M 3361
reply to that is M 3334
refer to things in M 3315
reason to put the M 3308
really is going on M 3276
repeat it for the M 3262
renew the war in M 3212
resting as they do M 3201
reason so far as M 3200
reason to fear he M 3194
renew to you the M 3186
refer is that of M 3152
reason is that so M 3118
reader is now in M 3076
really be due to M 3068
reader so that he M 3050
reader to try to M 3032
reaching up for the M 3030
reason is that on M 3026
reason is that my M 3000
reader to get the M 2962
reason to bear on M 2947
refer to her in M 2941
really the sum of M 2916
really so bad as M 2912
really is that the M 2872
reaching the earth is M 2858
reason we are so M 2781
really to see the M 2756
reason of one of M 2754
really is not in M 2754
really on top of M 2748
really the way it M 2718
reply to all of M 2710
reason we use the M 2702
reason is for the M 2698
readings of all the M 2694
refer to both of M 2684
reader is that of M 2650
refer to god in M 2646
reveal is that the M 2616
really as old as M 2614
really go for it M 2584
reply is that if M 2561
reply of one of M 2534
reason to let the M 2527
repeat the idea of M 2522
reason the son of M 2490
reason of being the M 2486
really be one of M 2486
reason to put it M 2478
refer to her by M 2458
reason we are in M 2454
really in for it M 2448
reason to say it M 2418
refer to him or M 2402
reason to set up M 2392
reply to this by M 2387
relic of one of M 2381
refer to that as M 2372
reason it has to M 2371
reason to see in M 2361
rests is that the M 2352
reply at all to M 2348
really is and the M 2346
refer to both as M 2334
reason to read the M 2330
reveal to men the M 2328
reason at all in M 2310
repeat as long as M 2300
refer to are the M 2300
repeat to you my M 2272
really is for the M 2266
reason to ask the M 2263
reason on earth to M 2246
reveal to man the M 2242
reader to one of M 2240
reader is not the M 2234
refer to them to M 2228
reason of being in M 2224
reason in man is M 2218
reason as yet to M 2204
really no one to M 2182
relying on one or M 2174
repeat the act of M 2167
reason to fear me M 2150
reaching as low as M 2147
reason of being or M 2146
reason to act as M 2127
repeat to them the M 2125
reason of all is M 2120
really go out of M 2120
relying on one of M 2080
reason to get the M 2062
reason he had no M 2062
reply to this in M 2061
repeat it with the M 2060
reply to this we M 2047
reply to you in M 2046
reader on how to M 2046
relying as they do M 2042
reason he was the M 2030
really is and to M 2024
refer to one thing M 2004
reason to that of M 2004
rests on that of M 1993
reason to add to M 1981
reason as any to M 1976
reaching as that of M 1968
resting in one of M 1964
reader of all the M 1952
reason to use an M 1945
really be that the M 1930
reader is that he M 1926
reader to see at M 1921
reason of death of M 1918
really do try to M 1914
reader it may be M 1912
really do not go M 1910
reason it had to M 1901
reader is not so M 1900
reaching the seat of M 1866
resting up for the M 1860
reader of one of M 1852
reason to fear or M 1822
reason to bring the M 1815
reaching of all the M 1796
reaching the age at M 1782
reason to buy the M 1773
rests on and is M 1772
reaching the area of M 1754
relying on his or M 1716
reader to see in M 1711
really the law of M 1706
reason at all he M 1688
refer to his or M 1682
reveal an area of M 1664
reveal to you my M 1660
refer to things or M 1654
reason to put up M 1648
reaching the top in M 1638
really to get to M 1636
reader so that the M 1612
reason in law or M 1600
reply to them is M 1590
reaching to end of M 1578
reason to cling to M 1575
rests is that of M 1570
really the idea of M 1570
reason to bring it M 1552
reacting to them in M 1552
reader as one of M 1546
reader in his or M 1538
reason we are to M 1537
reason he did it M 1536
reader is not in M 1526
reason to see it M 1512
reason of this we M 1510
reason of any thing M 1497
reaching the rear of M 1492
reason of one or M 1490
reaching an age of M 1488
really the act of M 1486
refer to this or M 1466
reveal to all the M 1464
reason is not as M 1464
refer to with the M 1462
reader to hear the M 1462
reader the idea of M 1462
refer to them if M 1460
reader to read on M 1457
reason as one of M 1446
reason as long as M 1444
really be out of M 1444
reason he had the M 1443
refer to that in M 1433
repeat the use of M 1428
really the one to M 1428
reason to end the M 1421
reply is one of M 1418
really is not at M 1414
reason me out of M 1413
really no idea of M 1410
reason he did so M 1409
reason of this the M 1408
really is that we M 1394
relying on them as M 1390
refer to and to M 1390
reason he may be M 1380
really to try to M 1380
reader as far as M 1376
reason of his so M 1374
refer to for the M 1366
reason in all the M 1356
renew the air in M 1354
relying on her to M 1350
recur in all the M 1348
reason to act on M 1348
rests on one or M 1346
reason as that of M 1340
reason as for the M 1340
reason of man in M 1334
relying on any of M 1330
reader to see it M 1330
reason of all to M 1326
refer to any thing M 1320
reason by way of M 1311
reason to say to M 1303
reply to one or M 1302
readings of both the M 1302
reason to fear us M 1286
reason to pay the M 1284
reason as not to M 1281
really is not to M 1274
repeat to her the M 1262
reason we may be M 1260
reader is put in M 1259
reaching up out of M 1256
reason the law of M 1254
rests on both the M 1252
reader to get an M 1252
recur as long as M 1250
reader in law at M 1250
reason of being an M 1248
reaching the sum of M 1246
refer to him at M 1242
reason of this to M 1242
refer to any or M 1240
reply to you as M 1230
reacts to them in M 1230
reason to set the M 1229
reader by way of M 1222
reason of things is M 1216
really as big as M 1216
really go for the M 1214
reason at all is M 1213
reason to hang on M 1206
reason to fear my M 1201
refer to you in M 1198
really as far as M 1190
relying on god to M 1182
reply to him is M 1180
reaching the top he M 1170
reader to put the M 1168
really is can be M 1162
renew the oath of M 1160
reply to them by M 1158
relying on both the M 1158
refer to god or M 1152
really be for the M 1150
reason is not at M 1145
reason to get to M 1143
really the seat of M 1136
really an arm of M 1136
repeat to you in M 1134
refer to things as M 1124
reader as for the M 1124
reacts to this by M 1122
refer to man as M 1119
reason to say the M 1118
reason we can be M 1117
reaching the east by M 1116
really do mean to M 1112
resting the head on M 1110
reason to say of M 1100
really is that he M 1092
reply by way of M 1090
reason of this it M 1090
really no use in M 1084
reason of this in M 1075
refer it all to M 1074
reason it has no M 1072
really so easy to M 1072
really is out of M 1070
reader is that it M 1070
reason of this he M 1066
reveal the age of M 1062
reply to him at M 1054
refer to them on M 1054
recur to them in M 1044
really the fear of M 1044
reason he has no M 1043
reaching to near the M 1040
reveal the way the M 1038
reason of her or M 1038
really do mean it M 1038
reply to one in M 1034
reader is led by M 1034
really the god of M 1032
reason it was to M 1030
reason in that it M 1028
really is due to M 1026
refer by way of M 1024
reason we try to M 1024
reply to all my M 1012
reacting to them as M 1011
reveal to you in M 1008
really to get the M 1006
reason he was at M 1002
really my cup of M 998
reason is but the M 991
reply is that no M 988
refer to one in M 988
reveal the way of M 986
reason at all or M 984
really the way we M 984
reader is not an M 980
reaching the top we M 980
reason of being so M 978
refer to them or M 976
reply to them as M 974
refer to god the M 970
reason is apt to M 970
rests on him to M 968
reply to this to M 967
really the way the M 958
really the job of M 958
really it was no M 958
reason so that the M 957
resting the end of M 956
really the way in M 952
renew the war on M 950
reason in any of M 950
reason of man to M 948
reader to read it M 946
refer to may be M 942
reason to bring up M 942
reason to let it M 940
reason he was on M 934
repeat it for me M 933
refer to was the M 932
reason we see the M 932
really is and is M 932
resting an arm on M 930
really be put to M 928
readings as low as M 928
reaching the eye is M 924
reaching the earth in M 924
rests on all the M 923
reason it was of M 922
reason the two of M 918
reply is that of M 916
reason of things to M 916
reacting to all the M 916
reason to get in M 915
reason to buy it M 910
really do that to M 908
refer to one as M 906
reveal to him in M 904
reason it was in M 904
reason so long as M 903
reason to fear in M 901
reason so that it M 900
reader is not at M 898
reason at all the M 897
reveal the path of M 896
really at ease in M 896
repeat it two or M 894
really it was an M 882
reader to buy the M 880
really as easy as M 878
refer to can be M 876
really the aim of M 876
reason to bring in M 875
refer to things of M 868
recur so long as M 868
reason he was to M 868
readings of each of M 868
really be going to M 864
really be going on M 864
reader is out of M 864
reply is not to M 862
resting on each of M 860
relying on them in M 860
reason to read it M 860
reaching the eye of M 856
really he had no M 852
reason in and of M 848
really is not of M 846
reason he had so M 842
reason we can do M 840
reason he got the M 840
repeat it all to M 836
reply to him as M 834
reason or with the M 834
resting on them as M 833
reply to one by M 833
refer or not to M 830
reason so far to M 830
reader is now to M 830
refer to use of M 826
reason to put on M 826
reader of any of M 826
rests in one of M 822
resting the box on M 820
reason the head of M 820
reason is not of M 820
really go with the M 820
repeat the oath of M 819
really an idea of M 818
refer to them the M 814
repeat the cry of M 810
resting on one or M 808
reason to fear is M 802
reason the law is M 800
reveal the way to M 798
really the use of M 798
reason of this my M 796
really is that of M 796
really am not in M 796
reader to get to M 794
reveal the law of M 792
reason so that he M 792
reason is out of M 790
readings on each of M 790
refer to and the M 788
reason of being of M 788
really do for the M 788
reader of his or M 788
really the top of M 786
reacts to them as M 785
refer to men as M 784
reader to all the M 784
reason to fear as M 779
reason or set of M 778
really no one in M 778
reason it was an M 776
reason he can be M 773
reply to him on M 772
reason we see so M 772
relying on all the M 770
really of use to M 770
reason to add the M 769
really is who he M 768
really do all the M 768
reason to get on M 767
reason to fear we M 765
reply to this as M 764
reader in one of M 762
reason of two or M 760
reaching up with the M 760
reacting to one of M 758
reason to get so M 757
reply to him by M 756
refer to this by M 756
reveal the end of M 754
refer to how to M 748
really the way he M 748
really be that he M 748
reason to all the M 746
really the one in M 740
reason is all the M 736
really the man of M 736
really is that it M 734
reply to his of M 733
reason to run the M 733
refer to this at M 730
reason it has the M 730
repeat to end of M 728
really is and of M 728
reader in how to M 728
reason of and in M 726
reveal the key to M 724
resting on any of M 722
rending to see the M 720
refer to this to M 718
reason to say he M 708
reason of war or M 706
resting on two or M 702
refer to all or M 702
reason to sit in M 702
rests on all of M 700
refer to how we M 700
reason the men of M 700
really is not up M 699
really the way of M 698
reply to them at M 696
reason is fear of M 696
realms of both the M 696
really to see if M 696
reader is led on M 694
reason to put an M 692
reveal the top of M 690
reply to any thing M 688
refer to them is M 688
reply to this at M 686
really is may be M 686
refer to men in M 684
refer to him the M 682
reason of being on M 682
reason no one is M 681
reply in one of M 678
really is and as M 678
refer to them so M 677
renew the air of M 676
refer to both an M 674
reason so few of M 669
rests on each of M 667
reason is one thing M 665
really to act as M 665
really the death of M 664
really is not it M 664
really as they do M 664
reader to ask the M 664
reply is that to M 662
reason to put me M 662
really to see it M 662
reader of both the M 660
reaching so far as M 659
relying on him as M 658
reason to ask if M 658
reason the act of M 658
reason to say in M 656
reason to aim at M 656
reason as did the M 656
reveal the path to M 646
renew to you my M 646
reason is thus the M 646
really is not no M 646
reader an idea as M 645
really do with the M 644
readings so that the M 642
refer to men of M 640
reply to her in M 638
reply it can be M 638
reaching the earth at M 638
rests the head of M 636
reason as being the M 636
really is with the M 636
really is for us M 636
really he was the M 636
really be put in M 635
readings at end of M 633
really it was to M 632
reader to get at M 632
reason to lie in M 631
really no way in M 630
reacts in one of M 630
reaching the top at M 630
really is easy to M 626
refer is not the M 624
reason at all on M 624
reader by using the M 622
reason at all as M 621
resting by day in M 620
rests the end of M 616
reason we had the M 616
really go for an M 610
reason in each of M 609
readings to get the M 608
repeat the sin of M 606
really an end in M 606
reason he has the M 605
reveal the things of M 604
really up for it M 604
refer to him on M 603
reason us out of M 603
really do see the M 602
refer to you by M 598
reader of law in M 598
reply is not in M 596
resting on that of M 593
rests on his or M 592
recur in all of M 592
reveal to you is M 590
reader is all the M 590
reply to one he M 588
reply to him the M 588
reason of both the M 588
really by way of M 588
reason or one of M 587
reacting the way he M 586
reason of this or M 585
reacts to his or M 585
reason he and the M 584
readings in each of M 582
resting on him as M 578
reply to both of M 578
reader to one or M 578
reason to ban the M 576
rests on how the M 573
reason to ask me M 572
reason of men in M 572
really the man to M 572
reader to any of M 572
really the one thing M 568
really be that of M 568
reason or for the M 567
recur to this in M 566
really do not eat M 566
reaching the top the M 566
reason we did it M 562
reason he does so M 561
really be read as M 561
reason to put in M 560
really be doing is M 560
reason in all of M 558
reason be that the M 558
reacting to him as M 557
reply to both the M 554
really be mad at M 554
really as mad as M 554
reader or for the M 554
reason we are the M 552
really as long as M 552
reader to that of M 552
refer to things we M 550
reason is that is M 550
reason as any of M 550
renew the act of M 548
reason of them is M 548
reason it does so M 548
really as ill as M 548
really be that we M 546
refer to death as M 545
reason in doing so M 545
reason to get it M 544
reaching in for the M 544
reaching an area of M 544
reason or out of M 542
really the age of M 542
reaching an age at M 540
refer to and be M 536
reason to fix the M 535
reason of all of M 532
refer to death in M 530
refer to now as M 529
really go out to M 528
really do get to M 528
reason in one of M 527
relic is now in M 526
reason we had no M 526
reason of man as M 526
resting my head in M 525
reason to lie or M 524
reader to use in M 522
reason it out in M 520
really of use in M 520
reader to read in M 519
reader is put on M 519
really to get at M 516
reason it was at M 514
realms of being to M 514
reason to let me M 513
reason the area of M 511
repeat to you it M 510
recur to him in M 510
really do any of M 510
reader in that it M 510
refer to god by M 508
really go all the M 508
really do was to M 508
really is not on M 507
really by far the M 504
reader as that of M 504
reaching the top is M 504
reveal to him my M 502
renew the idea of M 502
reason the sum of M 502
really do get the M 502
repeat to him in M 500
repeat of one of M 500
reason to try it M 500
reason to bear in M 500
reason is then the M 500
really it was so M 499
reply to you at M 498
reason the death of M 498
readings is that the M 498
reader to use it M 498
reply to that in M 496
reason as they do M 496
reveal to them in M 494
reason to cut the M 492
reason he was an M 489
reply to this or M 488
reason is not on M 488
reader to his or M 488
renew the war at M 486
refer to year of M 486
refer to using the M 486
reason to end it M 486
reason is going to M 486
reacts to them by M 486
reply to you is M 485
reply is that as M 485
reader as long as M 485
reason is they do M 484
resting on them to M 482
reply to that by M 482
reason is but an M 482
reader so that it M 482
reply so that the M 480
really is and in M 480
reaching to all the M 480
refer is one of M 478
reader in all the M 478
reader the way in M 476
readings at each of M 474
realms of being is M 472
really as low as M 472
reader to bring to M 472
rests on two or M 471
reason it was no M 470
reason is one in M 470
really do for us M 468
reason to lead us M 467
reply we beg to M 466
renew the war of M 466
really to put the M 466
refer to man in M 465
reason to fear on M 465
reveal the idea of M 462
reason of any or M 462
really it may be M 462
refer to being in M 460
really my idea of M 460
reaching it may be M 460
reason to set it M 458
really in one of M 458
reaching the earth by M 458
repeat the act in M 456
reason of being is M 456
reason the end of M 455
reveal the area of M 454
reason to say we M 454
reason to let go M 454
reader no idea of M 454
rests on them to M 452
repeat it and to M 452
reply is not on M 451
refer the idea of M 448
readings of one of M 448
reader to see if M 448
reason as with the M 447
refer to things by M 446
reason to bar the M 446
reason as you do M 446
reacting to all of M 446
reason of god is M 444
really do lead to M 444
reason of fear of M 442
reason is that up M 441
reason it does is M 440
reader is with the M 440
really the man he M 438
readings of all of M 438
resting on all the M 436
reason to any of M 436
reason at all it M 435
reveal the bias of M 434
really be doing the M 434
reacts the way he M 434
reaching up and up M 434
reply he was to M 432
really no use to M 432
reaching it was by M 432
rests so that the M 430
reply to two of M 430
refer to that thing M 430
really he who is M 430
reacting to him in M 430
reacts to this in M 426
reacting at all to M 426
reason or law of M 424
reader to set up M 422
reaching in that it M 422
recur in each of M 418
reacting to his or M 418
relying as far as M 417
reveal the man in M 416
reveal it for the M 416
reply to you by M 414
reason we may do M 414
reason of men to M 414
reason he was no M 414
really is that is M 414
reaching the eye at M 414
reason so that we M 413
reveal to him at M 412
repeat the things he M 412
readings of one or M 412
reader to try the M 412
reaching the end in M 412
renew to him the M 410
renew it with the M 410
reason to bear the M 410
reason of things in M 410
reaching to any of M 410
reveal the seat of M 408
reason to try the M 408
reacts to all the M 407
really the man in M 406
reader to see an M 406
reason to get an M 404
reason of each of M 404
really go out on M 404
reaching as they do M 404
reply to them on M 402
renew it for the M 402
really up for the M 402
readings is that of M 402
relying on this to M 400
really an aid to M 400
reply is not an M 398
reason no one in M 398
really to use the M 398
readings in all the M 398
reaching the top by M 398
refer to real or M 396
refer to end of M 396
reason it had no M 396
really in awe of M 396
reader to bring the M 396
reader to act as M 395
reveal or not to M 394
refer to that by M 394
refer to him to M 394
reason to buy an M 394
really so bad to M 394
really no way we M 394
reason to lay the M 393
readings in both the M 392
reader is for the M 392
reaching the idea of M 392
resting on him to M 390
reason to act so M 390
really is out to M 390
really do for me M 390
really an area of M 390
reader to both the M 390
reader is that in M 390
reaching the age to M 390
repeat the song of M 388
reason in that the M 388
really do this to M 388
recur to one of M 386
reason to see me M 386
renew the war if M 384
really is how to M 384
reason to lead the M 382
really do this if M 382
reason to say as M 380
reason of using the M 380
reason as are the M 380
really the one he M 380
reply by one of M 379
reason it did so M 379
reply so far as M 378
reason to ask it M 378
really is not me M 377
reason we are of M 376
reason it out as M 376
reason is both the M 376
reader to add to M 376
reason we got the M 375
reason is set up M 375
reply of his to M 374
really do that in M 374
resting on her in M 373
reveal the way he M 372
reason we are at M 372
reason of going to M 372
reader to see as M 372
reader to act in M 372
reveal to him an M 370
reveal it all to M 370
refer to are in M 370
reader of how the M 370
repeat by way of M 369
renew the use of M 368
really the day of M 368
repeat it all the M 366
refer to you the M 366
refer to but the M 366
reader be led to M 366
reveal the man as M 363
relying on that of M 362
really to hear the M 362
really is but as M 362
reader in using the M 362
reason the sun is M 361
really so that the M 360
really is that in M 360
reveal is that in M 358
reply to them or M 358
really do not at M 358
really am one of M 358
reader of one or M 358
reason of that in M 357
repeat the set of M 356
reason we say the M 356
really he had to M 356
rests is that it M 354
reason of this thing M 354
reason as does the M 354
really an age of M 354
reason he had an M 353
reason of this be M 352
really he was in M 352
reason it out of M 351
reply is that by M 350
refer to that at M 350
reason we are on M 350
reason no man in M 350
reason he had in M 350
reader up for the M 350
resting on them in M 348
renew in them the M 348
really to say to M 348
really the key of M 348
really is than the M 348
repeat in each of M 347
reveal to all of M 346
rests on how we M 346
reply at all or M 346
repeat the idea in M 346
reason to bow to M 346
reason the air is M 346
reader is not as M 345
reveal to you at M 344
resting at one of M 344
really be with the M 344
reader if not to M 344
reaching the aim of M 344
renew the war by M 342
really do with it M 342
reaching the earth as M 342
reply as one of M 340
reason he can do M 340
refer by and by M 338
reason in him is M 338
really to lead the M 338
repeat the end of M 336
reason to aid the M 336
reason of law or M 336
really no one is M 336
reason we got so M 334
reason in both the M 334
readings is due to M 334
reacting to both the M 334
reply to you on M 333
reason do not go M 333
rests in all the M 332
rending to hear the M 332
refer to men or M 332
reason to not be M 332
reason to get at M 332
really to bring the M 332
reader to set the M 332
reader to put it M 332
reacting to her as M 332
reply to her is M 331
reacts to him as M 331
reveal the head of M 330
resting in that of M 330
reason he does it M 330
really to beg the M 330
really the one we M 330
really is that if M 330
relying on this as M 329
really he was so M 329
refer to god is M 328
recur in any of M 328
really to get on M 328
really it has no M 328
reader as they do M 328
reason or that the M 326
reason it had the M 326
reason to ban it M 325
reason the age of M 325
rests the law of M 324
refer to both in M 324
reason we see it M 324
reason to act is M 324
reason of both is M 324
rests on you to M 322
reason the earth is M 321
reply is going to M 320
reason the man is M 320
really to add to M 320
really it was my M 320
really go off the M 320
reveal to you an M 318
renew in him the M 318
really is and it M 318
readings is one of M 318
reason of her so M 317
resting on him in M 316
relying at all on M 316
really of all the M 316
really be doing me M 316
readings by one of M 316
reader is using the M 316
reader as being the M 316
reveal to her my M 314
reply to this on M 314
refer is that in M 314
reason to see to M 314
reason it has so M 314
reason by all the M 314
really so out of M 314
reader to add the M 314
rests on them as M 313
recur to any of M 313
reader to act on M 313
reveal to any of M 312
refer to now is M 312
refer to him is M 312
reply he had to M 311
reply as far as M 310
really is all the M 310
reacting as they do M 310
reveal the death of M 308
reveal in them the M 308
refer the law to M 308
reason to fear if M 308
reason of them to M 308
reason he put the M 308
reason as was the M 308
readings of two of M 308
reader the key to M 308
reaching the top or M 308
reason we got to M 307
resting in this or M 306
repeat to you an M 306
really to read the M 306
really to bring it M 306
readings on all the M 306
reacting to one or M 306
reaching as far up M 306
reveal the son of M 304
reveal the joy of M 304
repeat to him my M 304
reason it can do M 304
really in any of M 304
repeat it for my M 302
reason to buy or M 302
reason to bear an M 302
reason he has so M 302
reason as may be M 302
really my job to M 302
really so that he M 300
really do all of M 300
reason the fear of M 299
renew it and to M 298
reason to bear it M 298
really be doing it M 298
reader so far as M 298
reaching the area in M 298
really do add up M 297
resting the bag on M 296
reply is that my M 296
refer to map on M 296
reason to sit on M 296
reacts to each of M 296
reacts on all the M 295
reply is that an M 294
refer to each as M 294
reason or that of M 294
reason of fear or M 294
really no way he M 294
really do use the M 294
really do see an M 294
reveal to each of M 292
rests the idea of M 292
reason of all or M 292
really so ill as M 292
really is with us M 292
really be put at M 292
reason to one of M 291
realms of being in M 291
repeat to them in M 290
reason of its so M 289
reply as long as M 288
relying on him in M 288
reason it has an M 288
reason he was of M 288
reader of that of M 288
refer to that to M 286
reason to get me M 286
reason my way to M 286
reason as that we M 286
really an air of M 286
reader to see is M 286
reader to lay it M 286
reader by now is M 286
reaching up with my M 286
reveal the god of M 284
reply to two or M 284
relic of this is M 284
refer is that the M 284
recur to them as M 284
reader in that he M 284
realms as far as M 282
really he has no M 282
readings to see if M 282
reaching the use of M 282
renew or not to M 280
reason of this so M 280
reader on his or M 280
reacts to all of M 280
really be put on M 279
reason we use it M 278
reason we can no M 278
really do this in M 278
reason of this by M 277
reaching on and on M 277
refer to this is M 276
reason we hear so M 276
reason we had so M 276
really is for me M 276
really do that is M 276
really be read in M 276
reaching the top it M 276
repeat or add to M 275
reveal to her in M 274
refer to all as M 274
reason of them the M 274
reason he was as M 274
reason an age of M 274
really the air of M 274
really no fear of M 274
really is all in M 274
really is and so M 273
reveal to you if M 272
resting in them as M 272
refer to her at M 272
reason we set up M 272
reason it was as M 272
reader in law in M 272
reader he had in M 272
reacting it with the M 272
reason he had at M 271
reaching as was the M 271
resting the arm on M 270
resting on this is M 270
reason to see an M 270
reason of why the M 270
reason is with the M 270
really do not in M 270
really am out of M 270
reacts to one of M 270
reaching the end he M 270
reaching it with the M 270
repeat of all the M 269
reason to read on M 269
reason of real or M 268
really to lead to M 268
really no end of M 268
readings as long as M 268
reason to use in M 267
reason to pay it M 266
reason to hear the M 266
reason the area is M 266
reason of that he M 266
relying on you as M 265
reason it out to M 265
repeat it all in M 264
reason to fear so M 264
really am not so M 264
reply is not the M 263
reply as may be M 262
reason the top of M 262
reason or wit in M 262
reason of man at M 262
reason at all we M 261
renew the oath to M 260
reason we had an M 260
reason to this is M 260
reason to them to M 260
reason to act to M 260
reason is led to M 260
reason in man as M 260
really the path of M 260
really so long as M 260
really do see it M 260
readings on both the M 260
renew the war to M 258
refer to her or M 258
refer the one to M 258
reader the use of M 258
reader in all of M 258
reason to fear at M 257
resting on both the M 256
relying on all of M 256
refer to fear of M 256
really do end up M 256
really be that in M 256
resting on her as M 255
reason to win the M 255
reveal the man of M 254
reply to them to M 254
reply is not at M 254
relying so far on M 254
reason in man to M 254
realms of all the M 254
reacting to them by M 254
reply is not so M 253
recur to him as M 253
reply is due to M 252
relying on them is M 252
relic of all is M 252
reason the sky is M 252
readings of two or M 252
reacting it with an M 252
reaching up for it M 252
reveal the set of M 250
relying on two or M 250
refer the boy to M 250
reason we put the M 250
reason the man of M 250
reason of use of M 250
really it was in M 250
reader to try it M 250
reason at all of M 249
rests on him as M 248
repeat to you as M 248
relying on men to M 248
reason as can be M 248
really am not the M 248
reader is lead to M 248
reacting to any of M 248
reaching an end of M 248
reason to see if M 247
reveal is not the M 246
reveal if this is M 246
rests on two of M 246
refer to how an M 246
refer to each in M 246
reason he let me M 246
reason at all so M 246
really as weak as M 246
rests is one of M 245
reason or not to M 245
reason of god as M 245
reveal is that it M 244
reason we see in M 244
reason to cut it M 244
really so bad in M 244
reason of things as M 243
reveal the fear of M 242
resting on two of M 242
reply he was as M 242
reason we get the M 242
reason to ask to M 242
refer to you or M 240
refer if not to M 240
reason to bring us M 240
reason he won the M 240
really do this thing M 240
really as dead as M 240
reason to bear me M 238
reason it out or M 238
reader to see to M 238
reveal to him as M 237
reply to them if M 236
refer as far as M 236
reason to own the M 236
reader to bear it M 236
reader in each of M 236
repeat it with an M 235
renew the war as M 235
reason to bring to M 235
reason at all at M 235
reveal to you as M 234
rests by day on M 234
recur to them at M 234
reason to lead to M 234
reason in one or M 234
reason he hath to M 234
really do get it M 234
really do act in M 233
resting on his or M 232
repeat of that of M 232
relying on him or M 232
reason the day of M 232
reason he had it M 232
reader is then in M 232
reader in that the M 232
reacts to both the M 232
reaching as far to M 232
repeat it with me M 231
reveal to them an M 230
reply is apt to M 230
reason in this to M 230
really to set up M 230
really to mean it M 230
really the cry of M 230
really is and we M 230
reader is due to M 230
reaching the eye in M 230
reaching an end in M 230
rests on them in M 228
reply to this of M 228
repeat the song by M 228
refer to going to M 228
reason to fear no M 228
reason he saw the M 228
really no law at M 228
really no big thing M 228
really my way of M 228
repeat in any of M 227
reason to lay by M 226
reason to add it M 226
reason to act or M 226
really the set of M 226
really be for me M 226
really at all in M 226
reply to her as M 225
reply so that we M 225
reason or that he M 225
reveal to him by M 224
renew the age of M 224
reason of that the M 224
reason if you do M 224
really no one at M 224
really it was as M 224
readings on two or M 224
reaching an end to M 224
rests on him in M 223
reply is that at M 223
reveal to her on M 222
reply so that it M 222
refer to this thing M 222
refer to one by M 222
recur to that of M 222
reason we did so M 222
reason to put my M 222
reason to not do M 222
reason of them or M 222
reason is put in M 222
reason as that the M 222
realms of god to M 222
really is not if M 222
really go and do M 222
rests is not the M 221
reply to that he M 221
reply so that he M 221
repeat to you to M 220
refer to him so M 220
refer to are of M 220
reason is why the M 220
reason he got so M 220
reaching the man in M 220
rests on how it M 219
rests at ease in M 219
reveal to them my M 218
reveal in him the M 218
repeat the myth of M 218
refer to each by M 218
reason he goes to M 218
really the one at M 218
really am not at M 218
reader of one thing M 218
reader is thus in M 218
reaching it out to M 218
reveal at each of M 216
refer is not to M 216
reason of death is M 216
reason is for it M 216
really so far as M 216
really do own the M 216
readings is not the M 216
reader to get in M 216
really is one in M 215
reveal the poet in M 214
reply to that the M 214
reply to her at M 214
reply is not as M 214
reply as you do M 214
repeat or not to M 214
reason the aim of M 214
reason of this no M 214
reason is not my M 214
reason in any thing M 214
reader is set up M 214
reaching the eye by M 214
reason of our so M 213
reason in this as M 213
realms of being as M 213
recur in both the M 212
really to act on M 212
reader to use as M 212
reader to say to M 212
reader to act or M 212
rests by day in M 210
resting on them is M 210
repeat the year in M 210
repeat it out of M 210
refer to you at M 210
really be with me M 210
reader to two of M 210
reply is that so M 208
repeat is that the M 208
reason the heat of M 208
reason or not is M 208
reason he had on M 208
really as easy to M 208
reaching so low as M 208
rests in and is M 207
reason an act of M 207
repeat it now in M 206
repeat it and he M 206
reason to beat me M 206
reason the poem is M 206
reason of use or M 206
reason of law is M 206
reason is thus to M 206
really do that or M 206
reader of them is M 206
reaching us than the M 206
reaching as any in M 205
rests on them at M 204
reply to act of M 204
repeat it with so M 204
repeat an act of M 204
relying on for the M 204
refer it for the M 204
reason or two to M 204
reason is yet to M 204
really the big thing M 204
really my area of M 204
really in one or M 204
really be using the M 204
reacts the way it M 204
reaching it and the M 204
refer to god at M 202
reason the set of M 202
reason the idea is M 202
reason as that in M 202
really to let me M 202
really the one of M 202
really be that it M 202
really as that of M 202
readings of any of M 202
reader to lay the M 202
reader if this is M 202
reaching the earth the M 202
reason if that is M 201
reveal to him or M 200
reply to them he M 200
relying on use of M 200
refer to death by M 200
refer the use of M 200
reason to sit up M 200
really an end to M 200
readings is not to M 200
reader of all of M 200
reaching the top to M 200
reaching in with the M 200
rests is that if M 199
reply to him to M 199
repeat so that the M 199
reacting to you as M 199
reply of all the M 198
repeat it and the M 198
relic of all the M 198
reason the way to M 198
reason of all my M 198
reason it was my M 198
really do run the M 198
rending the air as M 197
reason at all if M 197
reveal is how the M 196
reply as did the M 196
repeat an idea or M 196
renew the joy of M 196
reason we put up M 196
reason to act the M 196
reason as this is M 196
really be set up M 196
reader is new to M 196
repeat it are at M 195
reason or that it M 195
reason by and by M 195
reveal the web of M 194
reveal the being of M 194
reveal is that he M 194
reply as yet to M 194
repeat an idea in M 194
refer the act of M 194
refer is not in M 194
reason to put us M 194
reason to bring me M 194
reason of men as M 194
reason of man by M 194
reason he got to M 194
really we had no M 194
really be out in M 194
really an end of M 194
reacts to this as M 194
reacting to things in M 194
reacting to her in M 194
reveal the aim of M 192
resting the arm in M 192
resting at ease in M 192
repeat it that the M 192
refer to her on M 192
refer it not to M 192
reason the kings of M 192
reason is now at M 192
reason by using the M 192
really the meat of M 192
really go with me M 192
really as does the M 192
reader so that we M 192
reason of doing so M 191
really as new as M 191
reaching the top as M 191
reveal to his or M 190
reveal is one of M 190
renew the law of M 190
refer to this the M 190
refer to and in M 190
refer the seat of M 190
reason we did the M 190
reason to beat the M 190
reason he has in M 190
reply of two of M 188
renew my vow to M 188
relying on god in M 188
refer to war as M 188
reason we are no M 188
reason in law to M 188
really so that we M 188
really in fear of M 188
reader is led in M 188
recur in two or M 187
resting the eye on M 186
repeat it now to M 186
reason to fear to M 186
reason to add an M 186
reason is ease of M 186
reason in both is M 186
reason he who is M 186
really to set the M 186
really is and he M 186
reader is that if M 186
reacting on them is M 186
reacts to any of M 185
reveal to one of M 184
rests as far as M 184
repeat an act or M 184
renew the ban on M 184
refer to you to M 184
refer to how it M 184
refer to age at M 184
reason the men in M 184
reason is put to M 184
reason he goes on M 184
really the things of M 184
really so weak as M 184
really so bad at M 184
really is but the M 184
really am not to M 184
readings in one of M 184
reader of this is M 184
reader be one of M 184
reason to lay it M 183
reason of them as M 183
repeat the law of M 182
repeat it for us M 182
renew it was in M 182
refer to death or M 182
refer to age in M 182
reason to run to M 182
reason to fly to M 182
reason of this at M 182
reason is that or M 182
really to ask if M 182
really no idea at M 182
really is and if M 182
really as one of M 182
readings of all or M 182
reader to fix the M 182
reader to bear the M 182
reader is how to M 182
reply to him of M 181
refer to being as M 181
reason the way of M 181
reason he did the M 181
reason of that of M 180
reason at all by M 180
reader to each of M 180
reader or with the M 180
reader as with the M 180
relying on god as M 179
reply is that on M 178
renew my oath of M 178
refer to them it M 178
reason we won the M 178
reason is this the M 178
reason is all in M 178
really is why we M 178
really is owing to M 178
really do and do M 178
reader the way to M 178
reader if you do M 178
reader at one of M 178
reaching it that the M 178
reveal as far as M 176
relic of this in M 176
refer to this king M 176
really the year of M 176
really is doing is M 176
really he was an M 176
reader to hear it M 176
reader is not of M 176
reader in both the M 176
reacting to each of M 176
refer to that the M 174
refer the idea to M 174
reason to err on M 174
reason of how it M 174
reason of death to M 174
really to get it M 174
really is doing it M 174
really is all we M 174
reader to read to M 174
reader to put in M 174
reaching as are the M 174
reason to hang up M 173
reason to bet on M 173
resting the top of M 172
resting by day on M 172
refer the man to M 172
reason the myth of M 172
reason of all he M 172
reason he put up M 172
reason by far the M 172
really is and be M 172
really go off on M 172
really go for is M 172
really do that if M 172
really an era of M 172
reader to fit the M 172
reader by one of M 172
reveal by way of M 170
rests is that in M 170
refer to are as M 170
reason we mean the M 170
reason to you to M 170
reason of man be M 170
reason by one of M 170
realms of being of M 170
really to bear the M 170
really to ask the M 170
really the doing of M 170
really so mean as M 170
really on his or M 170
really do say the M 170
really an idea as M 170
reader to sit up M 170
reader to hear of M 170
reader is that we M 170
reader as being in M 170
reacting to was the M 170
reaching the men in M 170
refer to was in M 168
reason the path of M 168
reason he has an M 168
really the men of M 168
really the boy is M 168
really no way the M 168
really me who is M 168
really at one in M 168
really an era in M 168
reader to fix in M 168
reader as are the M 168
reaching up for me M 168
reaching the area to M 168
resting in god as M 167
reason we get so M 167
reason we end up M 167
really do act as M 167
reader on and on M 167
reveal to you to M 166
reveal to you of M 166
reveal the man to M 166
repeat the sum of M 166
relic is one of M 166
refer to both by M 166
reason it may in M 166
reason if not the M 166
really to read it M 166
really is than to M 166
really is how it M 166
really do mean the M 166
reveal to any to M 164
reveal is that of M 164
rests in his or M 164
reason of them he M 164
reason he had me M 164
realms if each is M 164
really we are the M 164
really to put an M 164
really no use at M 164
really in all of M 164
reader to let me M 164
reader is not by M 164
reacts to and is M 164
reacts in his or M 164
reveal the sum of M 162
rests on god as M 162
refer to that on M 162
refer to age or M 162
reason to head to M 162
reason the seat of M 162
reason or law in M 162
reason of age to M 162
reason he got it M 162
reason as being in M 162
really to use it M 162
really to let go M 162
really is how the M 162
really if you do M 162
reader the job of M 162
reader is now at M 162
reader if not the M 162
relying on that as M 161
reason we set so M 161
reveal to him of M 160
resting my arm on M 160
repeat to add the M 160
repeat the act on M 160
reason to not go M 160
reason to let my M 160
reason to fix it M 160
reason of men of M 160
reason of man or M 160
reason of being at M 160
reason in going to M 160
really to say the M 160
really to act in M 160
really the man the M 160
really the joy of M 160
really is but in M 160
readings is that it M 160
reader to say if M 160
repeat as far as M 159
rests on both of M 158
resting the head of M 158
refer the heat of M 158
reason is not by M 158
really to mean the M 158
really the sin of M 158
really no being at M 158
really in aid of M 158
really be mad if M 158
really as mean as M 158
reaching it was to M 158
reason to beat up M 157
rests the key to M 156
reply of god to M 156
repeat to all the M 156
refer the bid to M 156
reason to buy in M 156
reason to all of M 156
reason is one we M 156
reason be set up M 156
reason as all the M 156
realms is one of M 156
really to say no M 156
really the one on M 156
really do this is M 156
readings of how the M 156
reason to act at M 155
rests on one thing M 154
rests an arm on M 154
refer at all in M 154
reason we set the M 154
reason to see my M 154
reason to cut my M 154
reason to bring an M 154
reason the way in M 154
reason it out by M 154
reason he set up M 154
really to aid the M 154
really so old as M 154
really is not he M 154
reader it can be M 154
reader is not on M 154
reader he has in M 154
reader by use of M 154
reaching us that the M 154
reaching it can be M 154
rests on this by M 153
reply by using the M 153
reason we say it M 152
reason we cling to M 152
reason to see as M 152
reason to leap to M 152
reason of one thing M 152
reason is you do M 152
reason he saw no M 152
really to run the M 152
really do not so M 152
reader to all of M 152
reader so long as M 152
reader is put to M 152
reveal to her an M 150
reveal the law in M 150
rests on fear of M 150
reply to his or M 150
repeat the act at M 150
repeat of that in M 150
refer to and so M 150
refer in one of M 150
refer as one of M 150
reason we read the M 150
reason to use or M 150
reason to bring my M 150
reason it has in M 150
really to put it M 150
really to let the M 150
reader to sit in M 150
reader to get it M 150
reader to buy it M 150
reader is that on M 150
rests in how the M 149
reason the god of M 149
reveal the act of M 148
resting at ease on M 148
reply it was to M 148
relying on each of M 148
reason to pay an M 148
really we are in M 148
really so near to M 148
really go out in M 148
really be that no M 148
really be all the M 148
really an eye or M 148
reacts to her as M 148
reaching the head or M 148
reason the man in M 147
resting the bar on M 146
reply to them the M 146
repeat to you at M 146
repeat so long as M 146
reason we got it M 146
reason to pay to M 146
reason of why we M 146
reason of things by M 146
reason of new or M 146
reason it was on M 146
reason he put it M 146
reaped in may or M 146
really do fit the M 146
reader to read or M 146
reaching in that the M 146
rests is not to M 145
reply on that of M 145
rending of all the M 145
really do get on M 145
reveal the sun at M 144
resting on and in M 144
renew the vow of M 144
reason we put it M 144
reason we all do M 144
reason to use me M 144
reason to read or M 144
reason or due to M 144
reason on all the M 144
reason of bias or M 144
reason it out so M 144
really the song of M 144
really the area of M 144
really so with us M 144
really it can be M 144
really do act on M 144
really be bad if M 144
reader to see or M 144
reader in any thing M 144
reader as she or M 144
repeat in all the M 143
refer to all in M 143
resting of god on M 142
resting as long as M 142
repeat it and it M 142
renew us day by M 142
refer to but do M 142
refer to age of M 142
recur to one or M 142
reason we ask the M 142
reason to let us M 142
reason to ask my M 142
reason to aid me M 142
reason the eating of M 142
reason of kings is M 142
reason is but as M 142
really so bad if M 142
really be that my M 142
really be doing so M 142
reader of each of M 142
reader is set to M 142
reader as being of M 142
rests in each of M 141
reader of this in M 141
reveal the year of M 140
reveal the poet as M 140
repeat to you on M 140
renew the war or M 140
refer to than the M 140
refer to how he M 140
refer in this to M 140
reason to use as M 140
reason to get us M 140
reason of that to M 140
reason of man the M 140
reason in him to M 140
realms of being or M 140
really to see me M 140
really the real thing M 140
really is that no M 140
really is how we M 140
really in all the M 140
really go off in M 140
really be and do M 140
readings as far as M 140
reader the way the M 140
reader of this or M 140
reveal to you by M 139
reason to fix on M 139
resting on them of M 138
reason he let the M 138
reason do not do M 138
really the lot of M 138
really the eye of M 138
really so low an M 138
really it was he M 138
really is and on M 138
really do this or M 138
readings at both the M 138
reader to let the M 138
reaching to put the M 138
reaching the top on M 138
reply to all he M 137
reason to get my M 137
reader to put on M 137
reveal the way we M 136
reveal the way it M 136
reveal the mix of M 136
reveal in each of M 136
resting on its wing M 136
reply or not to M 136
refer to who is M 136
refer to that is M 136
refer to sin as M 136
refer to law in M 136
reason we see no M 136
reason of any to M 136
reason is for us M 136
reason be all the M 136
reason as that by M 136
realms by way of M 136
really the era of M 136
really at all to M 136
reader on one of M 136
reader as does the M 136
reacting to them or M 136
reacting to this by M 135
reacting to things as M 135
reveal an age of M 134
renew it and the M 134
relying on that to M 134
relying on any thing M 134
recur if you do M 134
reason to that the M 134
reason to mean the M 134
reason the cry of M 134
reason of heat or M 134
reason of god in M 134
reason of death in M 134
reason is set in M 134
reason he does is M 134
really the path to M 134
really so big as M 134
really no new thing M 134
really in with the M 134
reader to ask if M 134
reader so weak as M 134
reader as may be M 134
reaching up for my M 134
reaching an age to M 134
rests on being the M 133
reason as men do M 133
reveal the son to M 132
reveal it and the M 132
reply to that it M 132
reply to her by M 132
repeat it with my M 132
renew the sin of M 132
refer to are to M 132
refer the job to M 132
reason to fit the M 132
reason to add or M 132
reason or not of M 132
reason is due the M 132
reason in that of M 132
reason in all he M 132
reason be that we M 132
really no say in M 132
really is all of M 132
really do hear the M 132
really an idea in M 132
readings it can be M 132
reacting to him or M 132
reaching the end to M 132
recur in one or M 131
reason the eye is M 131
reacts to things in M 131
resting in one or M 130
reply of yes or M 130
reply in all the M 130
relic or two of M 130
refer to things to M 130
refer to them we M 130
refer to him if M 130
refer the act to M 130
recur to two of M 130
reason to mix the M 130
reason no one of M 130
reason it eats the M 130
really to see in M 130
really no god at M 130
really do add to M 130
readings at all the M 130
reader the poem is M 130
reacting to real or M 130
reacting in one of M 130
reveal to them by M 128
reveal to him is M 128
resting the leg on M 128
reply to him he M 128
repeat on all the M 128
renew it for an M 128
refer to new or M 128
reason the poet is M 128
reason the job of M 128
reason of sin is M 128
reason he got up M 128
realms so that the M 128
really in and of M 128
really at one of M 128
reader to let go M 128
reader or can be M 128
reader on top of M 128
reacting to them is M 128
reaching an age in M 128
rests on them is M 127
reveal to him so M 126
reveal the sin of M 126
reveal the lie of M 126
resting in any of M 126
reply as that of M 126
refer to men by M 126
reason to fear of M 126
reason to ask in M 126
reason to act by M 126
really to win the M 126
really to get in M 126
really the two of M 126
reader to say the M 126
reader to hear in M 126
reaching it for the M 126
rests as one of M 125
reason to read in M 125
rests on him the M 124
resting the end on M 124
reply to one on M 124
repeat the song in M 124
renew us all in M 124
refer the death of M 124
reason we read in M 124
reason the key to M 124
reason in things of M 124
reason as that it M 124
realms is that of M 124
really to pay the M 124
really of but an M 124
really no man at M 124
really be rid of M 124
really be owing to M 124
reader to ask is M 124
reader is let in M 124
reacts on them in M 124
reply to her on M 123
refer to any in M 123
reason the things of M 123
reveal the day of M 122
reveal it not to M 122
resting so that the M 122
resting in him as M 122
resting in all the M 122
reply to him or M 122
repeat it but to M 122
relic of him is M 122
refer to two in M 122
refer to his as M 122
refer to him he M 122
refer to both at M 122
reason we use an M 122
reason we get on M 122
reason we get no M 122
reason to run up M 122
reason of use to M 122
reason of things be M 122
reason of them we M 122
reason of that thing M 122
reason is owing to M 122
reason in man do M 122
reason as things in M 122
really to hear it M 122
really to get up M 122
really do you no M 122
really do things in M 122
really do any thing M 122
readings by way of M 122
reader to read as M 122
reader or set of M 122
reader of how he M 122
reader in with the M 122
reader in any of M 122
reaching the earth to M 122
rests on any of M 121
reply to that we M 121
reply to each in M 121
reason if one is M 121
reacts to him in M 121
reveal to each the M 120
reveal to both the M 120
reveal the things he M 120
reveal as long as M 120
reveal an idea of M 120
reply is all the M 120
repeat the year of M 120
refer us for the M 120
refer to death of M 120
recur at all in M 120
reason to each of M 120
reason is now the M 120
reason in them to M 120
really be one in M 120
readings by using the M 120
reader to pay the M 120
reader the joy of M 120
reacting to you in M 120
reacting is one of M 120
rests so that it M 119
reply to that at M 119
reason if she is M 119
reveal the gap in M 118
rests in one or M 118
resting on them at M 118
refer us not to M 118
reason to let up M 118
reason it was he M 118
reason by far is M 118
really we had the M 118
really to get an M 118
really the heat of M 118
really so near the M 118
really is all my M 118
really do put the M 118
really as red as M 118
really an arc of M 118
readings on all of M 118
reader of that to M 118
reader in her or M 118
reacts to you in M 118
reacting the way it M 118
reaching the path of M 118
reaching the end we M 118
reaching of all of M 118
reveal to man in M 117
reply to him if M 117
recur in one of M 117
reason the way we M 117
reason the act is M 117
reason in him as M 117
reaching of all in M 117
reveal the law to M 116
reveal the heat of M 116
rests as long as M 116
refer to things the M 116
refer to law as M 116
refer to kings of M 116
refer to earth as M 116
refer as being the M 116
reason to use my M 116
reason to pay me M 116
reason the dog is M 116
reason or end of M 116
reason of god the M 116
reason it out on M 116
really so new as M 116
really so for the M 116
really is one or M 116
really be not so M 116
readings on one of M 116
reader to use to M 116
reader of two or M 116
reaching to get the M 116
reaching the end or M 116
repeat if you do M 115
reveal to one the M 114
repeat the one he M 114
repeat by going to M 114
renew my oath to M 114
refer to was an M 114
refer to all my M 114
refer in his or M 114
recur as one of M 114
reason we bring up M 114
reason to sit at M 114
reason to own it M 114
reason or law to M 114
reason in two or M 114
reason he was up M 114
reason he has at M 114
reaped by them in M 114
really to mean by M 114
really it was of M 114
really is not is M 114
really go with it M 114
really do that thing M 114
really do say it M 114
really do not be M 114
really as she is M 114
really as out of M 114
reader to say so M 114
reader of how to M 114
reaching to top of M 114
reaching it one of M 114
rests on you as M 113
reason or use of M 113
reacts to one or M 113
reacts by way of M 113
reveal the myth of M 112
reveal it was the M 112
rests so far on M 112
resting the bow on M 112
resting on end at M 112
relic in all of M 112
refer to war in M 112
refer to one to M 112
refer to has to M 112
reason we read of M 112
reason we got on M 112
reason to use up M 112
reason to set an M 112
reason or way to M 112
reason or may be M 112
reason of using it M 112
reason of this as M 112
reason it has my M 112
reason it had an M 112
reason be not the M 112
reason as you to M 112
really to one of M 112
really to all of M 112
really so may be M 112
really is doing the M 112
readings on how to M 112
readings in any of M 112
reader is with me M 112
reacting in fear to M 112
reaching the eye or M 112
reaching it and of M 112
reveal to them as M 111
reveal it and to M 110
reveal is that we M 110
reveal in you the M 110
rests on and the M 110
rests in both the M 110
repeat the two or M 110
repeat it using the M 110
relic in one of M 110
refer to this if M 110
refer to things at M 110
refer to her to M 110
refer to has the M 110
refer in any of M 110
refer by this to M 110
refer an air of M 110
recur to things so M 110
reason to let an M 110
reason to end up M 110
reason of things the M 110
reason of them in M 110
reason is now in M 110
reaped by men of M 110
really we can do M 110
really to fear in M 110
really in this thing M 110
really do get an M 110
readings to that of M 110
readings of them in M 110
readings at two or M 110
reader in one or M 110
reader he may be M 110
reader as being at M 110
reacting to him the M 110
rests on and in M 109
reason to die in M 109
resting or going to M 108
resting on him by M 108
resting in god is M 108
resting in god in M 108
reply is easy to M 108
repeat the oath in M 108
rending the air in M 108
rending of him by M 108
refer to and is M 108
reason we bear it M 108
reason to run an M 108
reason do not be M 108
reason be that he M 108
really we are so M 108
really the poet of M 108
really the end to M 108
really no use of M 108
really no end in M 108
really do things to M 108
really do that on M 108
really do not or M 108
really am with the M 108
really am and to M 108
readings it may be M 108
reader it was the M 108
reader is that by M 108
reaching the eye as M 108
reveal the age at M 106
rests in god as M 106
reply to both is M 106
reply be that the M 106
repeat to you is M 106
repeat the year or M 106
repeat it all at M 106
relying on real or M 106
recur in that of M 106
reason to lie on M 106
reason of two of M 106
reason of his the M 106
reason of age in M 106
reason he saw to M 106
reason be led to M 106
reaped by one of M 106
realms of death to M 106
really to say in M 106
really to get so M 106
really is one thing M 106
really do this on M 106
really do now is M 106
really be run by M 106
really be any the M 106
reader to them in M 106
reader to sum up M 106
reader to read at M 106
reader or two to M 106
reacting to this is M 106
reaching an end is M 106
rests as yet on M 105
repeat to him as M 105
reason it can no M 105
reveal the one thing M 104
reveal an act of M 104
reply is for the M 104
renew to them the M 104
relying in this on M 104
refer to things is M 104
recur to you at M 104
reason we had it M 104
reason to say at M 104
reason to run it M 104
reason to ease the M 104
reason to buy is M 104
reason the web is M 104
reason the son is M 104
really to rid the M 104
really the idea is M 104
really no god to M 104
really it has to M 104
really go out at M 104
really be out on M 104
really be doing in M 104
really as bad in M 104
reader to read my M 104
reader do with the M 104
reacts to her in M 104
reacting to this in M 104
reaching to that of M 104
reaching the end it M 104
reaching so near to M 104
reason or was it M 103
readings of them as M 103
reveal the real or M 102
reveal the eye of M 102
reveal it all at M 102
rests on each in M 102
rests at all on M 102
reply to them of M 102
reply to his on M 102
repeat it now as M 102
refer to fear in M 102
reason or fear of M 102
reason of why he M 102
reason of them by M 102
reason of doing it M 102
reason if they do M 102
reason as any thing M 102
really it for me M 102
really is new in M 102
really be out to M 102
really be for us M 102
readings of his or M 102
readings in one or M 102
reader to read an M 102
reader on with the M 102
reader on how the M 102
reader of all my M 102
reader is thus to M 102
reader is that no M 102
reader is how the M 102
reacts in one or M 102
reaching the east in M 102
reply on one of M 101
reply by him to M 101
repeat it and so M 101
refer to are so M 101
really am not up M 101
readings is not as M 101
reaching by way of M 101
reveal the end to M 100
reveal in him an M 100
repeat it than to M 100
refer us for an M 100
refer to them via M 100
refer to read is M 100
recur so that the M 100
reason we add the M 100
reason the being of M 100
reason so long of M 100
reason or not it M 100
reason it out at M 100
reaped of all the M 100
reaped by all the M 100
really up and in M 100
really is but to M 100
really is and at M 100
really do and the M 100
really be read by M 100
really as near as M 100
really an easy thing M 100
really am not an M 100
readings in aid of M 100
readings he had no M 100
reader to see my M 100
reader of this by M 100
reader by using an M 100
reacting to them at M 100
reaching to one of M 100
reaching the earth it M 100
reaching so near the M 100
reaching of any of M 100
reaching it that it M 100
reaching as that in M 100
rests in him by M 99
reason on them as M 99
reveal to them at M 98
reveal it but to M 98
reveal if any of M 98
rests in that of M 98
reply is not of M 98
reply he got to M 98
repeat the poem in M 98
repeat on each of M 98
repeat it not in M 98
refer to for an M 98
refer the law of M 98
refer the death to M 98
reason to cut me M 98
reason to ask of M 98
reason the war of M 98
reason the job is M 98
reason the how or M 98
reason on earth he M 98
reason of that it M 98
reason of both of M 98
reaped by far the M 98
really to lie in M 98
really the mean of M 98
really the idea at M 98
really so odd as M 98
really in this or M 98
really do with my M 98
really do owe me M 98
really do one thing M 98
really do lie in M 98
really be going at M 98
readings so long as M 98
reader of this the M 98
reader of them to M 98
reader is one in M 98
reader by his or M 98
reader as his or M 98
reader an act of M 98
reacting the way we M 98
reaching up for an M 98
reaching the area by M 98
rests on you in M 97
reply the head of M 97
rests is that no M 96
rests is that an M 96
resting is one of M 96
repeat the song to M 96
repeat in one of M 96
relying on you in M 96
refer the poem to M 96
refer is that to M 96
reason we say we M 96
reason we hear of M 96
reason to hear it M 96
reason to ask us M 96
reason the war is M 96
reason the aid of M 96
reason of this if M 96
reason of doing my M 96
reason it did is M 96
reason in things to M 96
reason as both the M 96
really is off the M 96
really in use at M 96
really do this by M 96
readings on one or M 96
readings of this or M 96
reader to how the M 96
reader to get as M 96
reader to bring it M 96
reader is now so M 96
reader as being an M 96
reaching the bar of M 96
reveal to him no M 95
rests on using the M 95
rests on him or M 95
rests in that it M 95
rending to see so M 95
refer to this on M 95
reason in that he M 95
reveal to one or M 94
reveal the real as M 94
reveal the path by M 94
reveal is not to M 94
rests the sin of M 94
resting on all of M 94
reply on all the M 94
repeat to him at M 94
repeat an act in M 94
refer it now to M 94
refer is one in M 94
reason of war to M 94
reason of ease of M 94
reason it was by M 94
reason in things is M 94
reason by now to M 94
really the war is M 94
really so dear to M 94
really so bad or M 94
really so and the M 94
really it goes so M 94
really is both in M 94
really eat things in M 94
really be led to M 94
readings do not go M 94
reader as man to M 94
reader as any of M 94
reaching the day of M 94
rests in him as M 93
resting the head in M 92
reply at all as M 92
repeat to them my M 92
recur to all the M 92
reason the men do M 92
reason is all we M 92
reason he has is M 92
reason as had the M 92
realms is that the M 92
really so cut up M 92
really if not as M 92
really he was no M 92
really go far in M 92
really do with an M 92
really do use it M 92
really do get in M 92
really be off the M 92
readings so that it M 92
reader to this or M 92
reader to put up M 92
reader is now the M 92
reader as she is M 92
reacts to them is M 92
reaching the low of M 92
reaching the end is M 92
rests in all of M 91
repeat in his or M 91
reason to hang in M 91
reveal to men in M 90
reveal the year in M 90
reply to his ring M 90
reply to her he M 90
repeat the things we M 90
relying on both of M 90
refer to law or M 90
refer to each thing M 90
reason we owe to M 90
reason to get as M 90
reason the air in M 90
reason or for an M 90
reason it got so M 90
reason is yet in M 90
reason is led by M 90
reason is for me M 90
reason in that to M 90
reason at all my M 90
reason an end to M 90
really the things we M 90
really so mad as M 90
really so few of M 90
really no way it M 90
really it was on M 90
really is but an M 90
really do that as M 90
really be with it M 90
really at all the M 90
reader the end of M 90
reader or that the M 90
reaching the end by M 90
reaching as far in M 90
really he was as M 89
reveal to you or M 88
reveal the real me M 88
reveal the poet at M 88
reveal in all the M 88
rests so far as M 88
rests on use of M 88
rests in how it M 88
renew my vow of M 88
renew in you the M 88
relying on god is M 88
relic or for the M 88
refer to things he M 88
refer to fear as M 88
refer to air as M 88
recur by and by M 88
reason we see to M 88
reason to say or M 88
reason to bias the M 88
reason the war in M 88
reason on earth is M 88
reason of things or M 88
really to try the M 88
really the key in M 88
really go with my M 88
really do with is M 88
really do that at M 88
really do read the M 88
really do owe it M 88
really be one thing M 88
really at one on M 88
really an idea to M 88
readings so that we M 88
readings in all of M 88
reader to ask in M 88
reader it has the M 88
reader is led up M 88
reader as did the M 88
reacting to them on M 88
reacting on all the M 88
refer to not as M 87
reacts to real or M 87
reveal the poet to M 86
rests the box on M 86
rests on them the M 86
reply to his king M 86
repeat the wit of M 86
repeat the way in M 86
repeat the red of M 86
repeat the death of M 86
repeat the act we M 86
repeat it that it M 86
repeat an oath of M 86
relying on this or M 86
relying on how the M 86
relic of him in M 86
refer to man or M 86
refer to and it M 86
reason to him to M 86
reason to bow the M 86
reason the mean is M 86
reason the head is M 86
reason of men is M 86
reason is now to M 86
reason is now so M 86
reason is due in M 86
reason he saw it M 86
reason he can no M 86
reason be that it M 86
reason as that on M 86
reason as man is M 86
really to buy the M 86
really to aim at M 86
really no way at M 86
really my head is M 86
really is and by M 86
really go for me M 86
really do ask the M 86
really be off to M 86
really as for the M 86
really an end at M 86
reader to run the M 86
reader in use in M 86
reader as being so M 86
reaching of them by M 86
reaching it and to M 86
reason it may as M 85
readings of him as M 85
reveal the way an M 84
reveal or bring to M 84
reveal it was to M 84
reveal is that if M 84
repeat it may be M 84
repeat it and go M 84
repeat it and be M 84
renew the air by M 84
refer is not at M 84
reason the eye of M 84
reason the day is M 84
reason the boy is M 84
reason on top of M 84
reason of things we M 84
reason of all we M 84
reason of all in M 84
reason is this is M 84
reason he let us M 84
reason by use of M 84
realms is not so M 84
really so easy of M 84
really is can we M 84
really be easy to M 84
really at war or M 84
really as odd as M 84
really as dear to M 84
readings is not so M 84
reader to pay no M 84
reader is now on M 84
reader is both the M 84
reacts to things as M 84
reacting in any of M 84
reaching the gap in M 84
reveal the earth as M 83
reply he was at M 83
reason or any of M 83
reply of one to M 82
repeat to you if M 82
repeat to her in M 82
repeat to all of M 82
repeat the singing of M 82
repeat the poem of M 82
repeat of this in M 82
renew to you in M 82
renew the earth or M 82
recur to one as M 82
recur as they do M 82
reason we saw no M 82
reason we put so M 82
reason to buy at M 82
reason to all my M 82
reason or set to M 82
reason is both an M 82
reason is all on M 82
reason in this if M 82
reason in doing it M 82
reason he has it M 82
reason he eats the M 82
really up with the M 82
really is this thing M 82
really is and no M 82
reader of this to M 82
reaching the path to M 82
reaching the heap of M 82
really so and so M 81
reveal is not so M 80
resting or lying in M 80
renew as long as M 80
refer to has no M 80
reason to cry or M 80
reason on earth we M 80
reason on any of M 80
reason of fear in M 80
readings by each of M 80
readings as that of M 80
reader on all the M 80
reader as out of M 80
reaching the key of M 80
reaching as near to M 80
refer to this so M 73
reply to that as M 70
reply to this so M 68
reply if you do M 68
reply to you so M 67
reply he had no M 65
reader to bring in M 63
reply on oath to M 60
reply to this my M 59
reason the way the M 59
reason to log on M 58
reason to die of M 57
reason if not to M 56
reason the way he M 55
reaching is that of M 55
reason of being as M 54
reply at all is M 53
reply at all if M 53
reaching of all is M 53
rests on this as M 52
reason he put in M 52
reason he got on M 51
reply it was at M 50
reply or not as M 49
refer to use as M 49
refer to them no M 49
reply to god in M 48
repeat so that it M 48
repeat is one of M 48
repeat is not to M 48
reason we are as M 48
reason to bear up M 48
reader to get on M 48
reader to dip in M 48
reaching as any of M 48
rests in them as M 47
reply to all to M 47
repeat is not the M 47
rending it was to M 47
reply in two or M 46
reply in one or M 46
reason or try to M 46
really is all up M 46
reply to them it M 45
reply in his or M 45
repeat is that it M 45
reason we got in M 45
readings of her as M 45
reaching is that the M 45
reply to that so M 44
reply at all in M 44
reason he got in M 44
really to fit in M 44
really do this as M 44
rending to read of M 43
reason we put in M 43
really am not as M 43
reader as being as M 43
reaching as long as M 43
reply to them we M 42
reply or how to M 42
reason to fly in M 42
reply to both in M 41
repeat the act as M 41
rending to hear of M 41
recur to you as M 41
reason we can at M 41
reason of things so M 41
reacts at all to M 41
reacts as does the M 41
reaching the end as M 41
rests is that we M 40
reply on any of M 40
reply he has to M 40
reason to lay on M 40
reason or act in M 40
reason it out is M 40
really do put on M 40
reacting to this as M 40
region is one of D 28462
reign of god is D 15606
reaching the ears of D 14336
reign of god in D 11847
repeal the act of D 11749
repeal of all the D 10248
reign of this king D 9580
region as far as D 9384
region is due to D 8794
region is that of D 8134
region so that the D 8104
reign of law in D 7793
reaching the peak of D 7426
reign of one of D 6878
repeal the law of D 6448
reign of god on D 4477
region is that the D 4442
repay me for the D 4260
reign of law is D 4040
repay us for the D 3818
region by way of D 3724
region of one of D 3512
reign of god as D 3259
region as one of D 3212
region is not the D 3200
reins to one of D 3134
repay me for my D 3006
repeal an act of D 2998
reign of that king D 2910
reaching the tip of D 2822
region as long as D 2622
region is not so D 2515
rents of all the D 2424
region so that it D 2408
reign is one of D 2405
reared up out of D 2404
region is that it D 2398
region to that of D 2294
region it may be D 2291
region is not as D 2213
revel in all the D 2100
region of all the D 2024
reign of god to D 1915
region of one or D 1914
reign as one of D 1758
reign he had to D 1747
region is near the D 1722
repeal of any of D 1696
region is not an D 1632
region is one in D 1626
relax in one of D 1618
region as that of D 1602
really the art of D 1590
reign as long as D 1570
region by using the D 1540
renting it out to D 1526
reign to that of D 1426
reveal the sex of D 1392
region is not in D 1376
region of each of D 1368
reaching the bay of D 1366
repeal the tax on D 1354
relax so that the D 1354
repel the idea of D 1344
reared in one of D 1344
reason to rue the D 1320
repay the sum of D 1312
region it can be D 1293
region of both the D 1290
reared in all the D 1284
reign of each king D 1270
region in all the D 1262
region is for the D 1258
reign in all the D 1236
reign is that of D 1230
reveal to thee the D 1202
repeal the ban on D 1201
region or area of D 1185
reign of our king D 1162
reign it was the D 1160
region is going to D 1158
region to one of D 1108
region in one of D 1108
readying it for the D 1108
region is not to D 1100
repeal of act of D 1098
reaching the peak in D 1068
region in all of D 1046
region is now the D 1032
remit the tax to D 1018
region in both the D 1000
reign on earth as D 987
region in that it D 976
reign as that of D 969
region to try to D 954
region in each of D 950
reign he was the D 937
region or for the D 928
reset so that the D 924
reign of sin in D 915
remit to him the D 907
repeal the act in D 884
repay to him the D 882
region so far as D 849
reign of each of D 848
region is apt to D 846
region is that in D 838
resin so that the D 836
repay it out of D 808
reign of law as D 806
reign of any of D 801
reign of god by D 800
remit to you the D 786
reins so that the D 786
region to set up D 754
region is not of D 750
reins of one of D 746
reign he was in D 744
rents it out to D 736
reign of all the D 727
region is now in D 724
relax on one of D 719
reins of all the D 716
reign of god the D 716
region to act as D 709
rebel to his king D 709
region it was the D 707
remit the sum of D 706
region is set to D 694
repeal the law in D 690
region as can be D 688
region so long as D 684
reason to lap up D 681
repeal the law by D 670
relax the ban on D 666
relay so that the D 662
region to see if D 660
region is not at D 655
repay me not on D 652
region as that in D 644
region as may be D 644
reign as head of D 635
reason the art of D 632
really the tip of D 632
reaching the hut in D 632
repeal of both the D 631
region the area of D 628
region to see the D 614
rents as low as D 613
remit to them the D 610
region an area of D 608
reaching the bed of D 608
relay is set to D 606
reaching the rim of D 606
reign of god or D 603
revving up for the D 602
region the use of D 602
relax at one of D 594
resting the gun on D 590
reign of one king D 588
reopen the way to D 578
reign on earth in D 578
reign it may be D 578
reaching the red sea D 576
repeat the feat of D 574
reaching to tip of D 568
repeal of them is D 566
repeal of bad or D 564
remit the tax on D 564
reread it for the D 562
reign we hear of D 561
region is yet to D 558
reign on earth of D 555
reveal the tip of D 552
region on top of D 548
resting the tip of D 544
region of low to D 544
reuse is one of D 543
region by use of D 542
repeal the law or D 532
relay is that it D 531
reign so long as D 527
relax as long as D 522
region in that the D 522
resin so that it D 504
resin is one of D 504
repeal of one of D 504
region so that we D 503
region or set of D 500
region is out of D 500
reign of law to D 496
reign on earth is D 483
relax as far as D 479
region to that in D 478
really the nub of D 476
reveal the art of D 466
repay it with the D 464
renting it for the D 462
region on one of D 460
reared up and the D 458
renew the art of D 456
repeal of tax on D 455
reign of any king D 452
region of two or D 448
region or with the D 446
region is and the D 446
region as does the D 445
repay the sum he D 444
relax so that he D 444
reign of sin is D 444
region as for the D 442
renting the use of D 438
region on one or D 438
region so that no D 437
reset so that it D 433
reign as kings in D 432
repeal the act or D 431
remit at par to D 430
reign he was to D 429
reign he was at D 421
reread it with the D 418
reign is not of D 416
reign or that of D 413
region by one of D 412
reign an act of D 410
region or area in D 410
reign he had the D 406
region in one or D 402
repeal as one of D 398
really as hot as D 394
repeal an act to D 392
reason to tax the D 392
reared as one of D 392
repeal of that of D 390
region to use the D 390
region is cut by D 388
reign is that he D 386
repeal the act to D 382
region as they do D 382
reign of death in D 380
rebut the idea of D 379
repel it with the D 378
repay the sum so D 377
reign it was in D 376
reign is not the D 375
reign is that the D 372
reaching the inn at D 368
region as being the D 367
reign we see the D 365
region or may be D 364
reign the use of D 360
region or that the D 360
region of two to D 358
reared on one of D 358
region as big as D 356
rents to pay the D 350
region is easy to D 348
really is fun to D 348
relay so that it D 346
reins to bring the D 346
region he was to D 346
relax in any of D 344
region so that he D 344
region of any of D 344
reaching the dead sea D 344
remit as yet no D 339
region as did the D 339
region on both the D 336
repay the sum in D 334
region or near the D 334
reason to wear it D 334
reason of sex or D 334
really be fun to D 334
reign the earl of D 333
reign of death is D 332
reared up with the D 332
resting in bed or D 330
relax the law of D 330
reins so that he D 330
reamed to fit the D 330
rents so that the D 328
region of air is D 328
region is how to D 328
reeds as far as D 325
resin is that it D 322
rerun of one of D 322
repeat the feat in D 322
reason to tie the D 322
repeal the law on D 320
repay me out of D 318
region of one to D 318
refer to sex as D 318
reset it for the D 316
repeal by act of D 314
reared up for the D 314
repeal the act by D 312
reheat the oil to D 312
region is cut up D 312
recap of all the D 312
repeal is not to D 308
region to get the D 308
reared by one of D 308
resting in bed in D 306
region is set by D 306
region the air is D 302
region of man is D 300
really the hub of D 300
region is thus the D 298
reins to get the D 296
reign of god at D 294
region as are the D 294
region in any of D 292
repay it for the D 290
relay is that the D 290
region is set up D 286
reign as they do D 284
region to bring the D 284
region of ten to D 284
relay to you the D 283
reaching the lip of D 282
reign is not to D 280
reeds to lean on D 280
reaching the peak at D 280
rents as long as D 279
reins as long as D 278
region so near the D 278
reason by tying up D 278
reason to hit the D 276
resin on top of D 272
reign so far as D 271
reign of law on D 268
region the set of D 268
repeal of them in D 265
relax so far as D 264
reign by one of D 264
region we are to D 264
region or that of D 264
region as was the D 264
reread the end of D 261
rents the use of D 258
reign of one or D 258
reign of man is D 258
region is then the D 258
repeal of all of D 256
rents as may be D 256
reveal to thee in D 254
relax the law in D 254
repeal of law of D 252
rents of any of D 252
reign as far as D 252
regal as that of D 252
reason to wear the D 252
relay is one of D 251
region we are in D 251
region as being in D 251
reign is that it D 250
reason to rue it D 248
reins to lead the D 246
reign of law or D 246
refer to sex in D 246
rebel is not the D 246
reign the art of D 243
repeal is not an D 242
remit the tax of D 242
region we see the D 242
region in man is D 242
reason of riot or D 242
repay to them the D 240
region of one in D 240
region is now at D 240
reason to hit me D 240
repay me with the D 238
region or area is D 238
region so that an D 236
region on earth is D 236
reason to tie up D 236
reign is for the D 235
relax as you do D 234
region is all the D 234
reared up and he D 234
reopen it for the D 232
region to all the D 232
region to aid in D 230
region it has the D 230
readings of this ms D 230
reign we read of D 229
repeal the act on D 228
region is now an D 228
region is due in D 228
resting in bed at D 226
repeal the law as D 226
region as one in D 226
region as low as D 226
relax so that it D 224
reared on top of D 224
reared by him in D 224
remit the sum to D 222
remit to him in D 221
revel in being the D 220
reason of ice on D 220
really the earl of D 220
region of air in D 218
reuse it for the D 216
region is low in D 214
really an art of D 214
region or area to D 212
region is now so D 212
realms of art or D 210
reign of law the D 208
region of art in D 208
repeal the tax in D 206
reefs is one of D 206
reeds so that the D 206
reset by using the D 205
reheat the oil in D 205
resting in bed is D 204
repay the sum to D 204
relax by going to D 204
reign he was an D 204
region to get to D 204
reared up off the D 204
reign of god he D 202
region is with the D 202
region as this to D 202
reign of law by D 200
region the sun is D 200
region as this is D 200
resin is due to D 198
region of all of D 198
reuse is that the D 197
rents so long as D 197
remit the sin of D 196
region by far the D 196
reeling to all the D 196
rebel is not an D 196
rebel so long as D 195
rents on all the D 194
rends the air in D 194
reign of this or D 194
region of being in D 194
region of all is D 194
repay us with the D 192
reign it was to D 192
reign it can be D 192
region of and the D 192
rents by way of D 191
relay to him the D 191
region as being of D 191
reread to see if D 190
repay me for it D 190
region the sum of D 190
region is not on D 190
region he may be D 190
region of six to D 186
repeal of all or D 184
reign is due to D 184
region we may be D 184
region is that by D 184
region by both the D 184
reared by her in D 183
repay to you the D 182
relax at all in D 182
region to both the D 182
region of his or D 182
region he had to D 182
really an art in D 182
repeal the law so D 181
relax or let go D 180
reign of god be D 180
region we had to D 180
region or any of D 180
reason is met by D 180
reign to all the D 178
rents so far as D 176
renting it out or D 176
region we use the D 176
region of low or D 176
region of being is D 176
revel in one of D 174
rests the tip of D 174
repeal of and the D 174
region so far to D 174
region is fed by D 174
rebel as long as D 174
rents it for the D 173
relay to them the D 173
region so that in D 172
resting on his hoe D 171
reeling on and on D 171
reeds on top of D 171
rebut the plea of D 171
reuse is that it D 170
relax is one of D 170
reign of fear in D 170
region to hear the D 170
really be met by D 170
repeat an ode of D 168
region so near to D 168
region of that of D 168
region by one or D 168
reason to sue the D 168
reaching the hut the D 168
region is hit by D 166
resin to act as D 165
rebel in all of D 165
resin to seal the D 164
repeat to thee the D 164
reign an era of D 164
reset it with the D 162
reign of two or D 162
reason the tax is D 162
really the sob of D 162
reign he put to D 160
reason to spy on D 160
reason or art or D 160
reared by them in D 160
relax to let the D 158
reign the new king D 158
reread the poem to D 157
reign he led an D 157
reign of law we D 156
region to near the D 156
reared on each of D 156
reared as far as D 156
reign in all of D 154
region to aid the D 154
region of war is D 154
region is that we D 154
reason as oft as D 154
really the icing on D 154
repeat the feat the D 152
reopen it with the D 152
reign is not so D 152
region is that at D 152
region is set at D 152
reaching the bay the D 152
reign he had no D 151
refer to art as D 151
repeal the law if D 150
repeal of any by D 150
relax if you do D 150
reign to bring the D 150
reign the men of D 150
region of lung is D 150
reels so that the D 150
reason the gas is D 150
really no fun to D 150
relax the law on D 148
region or can be D 148
region is off the D 148
region is not by D 148
reaching the ears is D 148
reefs is due to D 147
repay the sum at D 146
reopen the war in D 146
region by using an D 146
region as any in D 146
readying us for the D 146
repeal is that the D 145
resin in oil of D 144
reread the poem in D 144
reread it with an D 144
reign of law be D 144
region the idea of D 144
region on each of D 144
region is both the D 144
region at both the D 144
region as with the D 144
resin or gum of D 142
reopen the path to D 142
reign so that the D 142
reign as for the D 142
region to fit the D 142
region so that by D 142
region is thus an D 142
rebel to that of D 142
repay to her the D 140
renting it out in D 140
renting it out at D 140
reign of its king D 140
region it has to D 140
reader of any ear D 140
reign he had so D 139
region or due to D 139
region he was in D 139
reason to sear the D 139
reason to lean on D 139
region to lie an D 138
region to each of D 138
region or one of D 138
region of sky in D 138
reason to tax me D 138
reason of ice or D 138
reuse is not the D 137
reign the idea of D 137
reign on earth by D 137
resting on its toe D 136
rerun of all the D 136
repay me all the D 136
rents in all the D 136
region on earth in D 136
region if not the D 136
reason to dig up D 136
realty is one of D 136
reader the fun of D 136
revel in them as D 134
reopen it using the D 134
rents is that the D 134
relay is one in D 134
reign of old king D 134
region by all the D 134
region as per the D 134
reared so that the D 134
really the peak of D 134
revel in them in D 133
rebel is out of D 133
resin is not as D 132
renting it out as D 132
region to one or D 132
region to add to D 132
refer to sex or D 132
reply to thee in D 131
refer to mean sea D 131
revel in all of D 130
reset the dial to D 130
repel by all the D 130
rents in both the D 130
region of head of D 130
region he was the D 130
region an air of D 130
reaper to reap the D 130
region to act in D 129
reason is that sea D 129
rents of them to D 128
reign of yang ti D 128
reign he was so D 128
region of sky is D 128
region it was to D 128
reared in each of D 128
realty by two or D 128
repel the heat of D 126
repeat the feat at D 126
repeal or add to D 126
repay as long as D 126
relay is set at D 126
region it was in D 126
region at one of D 126
reared by art on D 126
really the pith of D 126
renting is that the D 125
region to use as D 125
rebel as any of D 125
repeal the act if D 124
repay the sum by D 124
relax on top of D 124
region is east of D 124
region at end of D 124
revving up and the D 122
reuse is not an D 122
region so dear to D 122
region or near it D 122
reeve the end of D 122
really an art to D 122
reveal to them thy D 121
resin or gum in D 120
reins to try to D 120
reign he was on D 120
reheat the air to D 120
really the gem of D 120
really as thin as D 120
resin to wet the D 118
resin is easy to D 118
repel an act of D 118
rents of one of D 118
reins so that it D 118
region of death to D 118
region at each of D 118
reeds to see if D 118
really no fun at D 118
repay us for so D 117
repel the plea of D 116
rents is due to D 116
relax as you go D 116
reign the era of D 116
region the seat of D 116
refit it for the D 116
refer the art of D 116
reamed so that the D 116
reaching the hut at D 116
repel the bar or D 114
repeat in his ear D 114
remit the sum in D 114
relying on his ear D 114
reins of both the D 114
reign the age of D 114
reign of both the D 114
region we hear of D 114
reefs on top of D 114
rents the sum of D 113
reign the kings of D 113
reign he was as D 113
resin is that the D 112
repeal of one or D 112
repeal it and to D 112
repay the use of D 112
remit the fee to D 112
relay in that it D 112
reign or two we D 112
reared the boy in D 112
reared it for the D 112
reared in one or D 112
remit the fee in D 110
relay it all to D 110
reared the son of D 110
reared by one or D 110
really the lion of D 110
repeal the act as D 109
repay it with my D 108
repay it all by D 108
reins to let the D 108
reign of law at D 108
region we get the D 108
region to one in D 108
region to end the D 108
region the heat is D 108
region on how to D 108
region by any of D 108
reared is one of D 108
reaper is not the D 108
repeal so far as D 107
renew the oil in D 106
reign of wen ti D 106
reign of six or D 106
reign of man on D 106
region the law of D 106
reason the doer of D 106
reason the car is D 106
reared the boy as D 106
reign the seat of D 105
reason of her re D 105
rests in bed in D 104
resin is put in D 104
repeal the law at D 104
renew the zeal of D 104
remit to you my D 104
remit to you in D 104
remit the tax in D 104
relay of six to D 104
reign to set up D 104
region is thus of D 104
reaching the car he D 104
rests the ark of D 102
reopen the era of D 102
region or that it D 102
region of sky to D 102
region is set in D 102
region is cut in D 102
really be neat to D 102
reign of fear is D 101
resin is that of D 100
repel the men of D 100
repeal of all my D 100
repay at all the D 100
renting it out is D 100
relax so that we D 100
region of six or D 100
reread to get the D 99
reign so long in D 99
region as due to D 99
rebel in all the D 99
resting my gun on D 98
remit to you by D 98
reheat on top of D 98
region or all of D 98
region in and of D 98
region be one of D 98
refer to art in D 98
rebel or try to D 98
reason the earl of D 98
resin is not of D 96
remit the old by D 96
relax so long as D 96
reign of one to D 96
region the gas is D 96
region do not go D 96
reason to tear it D 96
reaching the lung is D 96
reaching the lee of D 96
remit to her the D 95
reign the fear of D 95
reign it was so D 95
region as all the D 95
revel in that if D 94
repeal he may be D 94
remit to him at D 94
relax an iota of D 94
reign the area of D 94
region to all of D 94
region or area as D 94
region is key to D 94
region is all of D 94
regal of all the D 94
recap of how the D 94
reason to tear the D 94
reared of old by D 94
repeal if they do D 93
reign is yet to D 93
region is now on D 93
rebel as far as D 93
reveal the row of D 92
repay the sum on D 92
repay an act of D 92
reopen to him the D 92
rents or any of D 92
rents is one of D 92
rents as far as D 92
reins to all the D 92
reign of kings in D 92
reheat the meat in D 92
region to reap the D 92
region to bring it D 92
region so new to D 92
region is near to D 92
region if they do D 92
reefs as far as D 92
really the bed of D 92
really an art or D 92
readying me for the D 92
reaching the row of D 92
reaching the hut of D 92
realms of art as D 91
resting the rod on D 90
resin or gum is D 90
repeal the act at D 90
repeal is not the D 90
rents is not so D 90
region to use to D 90
region on earth to D 90
region of bay of D 90
region it was an D 90
region is led by D 90
region by two or D 90
region at all in D 90
reefs in all the D 90
reason in art is D 90
reared on end at D 90
reared by them as D 90
reader is met by D 90
reign to use the D 89
reign or death of D 89
region so that at D 89
resin is not the D 88
resin is not so D 88
reset the path to D 88
rents as one of D 88
region we mean the D 88
region to win the D 88
region or out of D 88
region or does it D 88
reeds in one of D 88
reason the tip of D 88
really an art at D 88
renting is not the D 87
rerun it with the D 86
rents is that of D 86
rends the air as D 86
relay is set so D 86
relay is for the D 86
relax in any thing D 86
relax by using the D 86
reign to run the D 86
reign of men of D 86
reign he had an D 86
region the one by D 86
region the key to D 86
region the eye of D 86
region of ten or D 86
reefs in both the D 86
reason to tax it D 86
reason the oil is D 86
really to hit the D 86
reuse of all the D 85
revving up for an D 84
revel of all the D 84
relay is not in D 84
relax at all the D 84
region to lie in D 84
region in two or D 84
reared up with an D 84
really to tax the D 84
really an ode to D 84
revel in both the D 83
reread it and it D 82
repeal of them by D 82
rents to pay to D 82
rents in use at D 82
relax so far on D 82
reins to set the D 82
reign of god we D 82
reign is not at D 82
reign is but an D 82
region to pay the D 82
region to end in D 82
region the head of D 82
region the head is D 82
region the end of D 82
region the age of D 82
region of two of D 82
region of sky at D 82
region it has no D 82
region it had to D 82
region is that no D 82
region is owing to D 82
region he had in D 82
reason of sex in D 82
reason it hit me D 82
reared so that he D 82
reared in them the D 82
reared by any of D 82
really no art in D 82
reign is but the D 81
resin is not an D 80
renting to them the D 80
remit it out of D 80
reins as far as D 80
reign to put an D 80
reign to each king D 80
reign is going to D 80
reign he set up D 80
region to lead the D 80
region so new the D 80
region or all the D 80
region of each is D 80
region is one to D 80
region is far in D 80
reset as long as D 78
remit to him to D 60
reign on earth at D 59
reign it was no D 57
reign it was an D 57
relay by way of D 56
reign by way of D 54
reuse as long as D 53
reign on earth to D 52
reign in one of D 51
reign as kings of D 50
rebel in one of D 50
reign so that it D 49
reared up and up D 49
reign the son of D 45
region is now as D 44
renting is that it D 43
remit so that the D 43
remit is not to D 43
relay in one of D 43
reign the act of D 43
relay is not the D 42
reign in each of D 42
reason the seal of D 42
reread it two or D 41
rents is not the D 41
reign in both the D 40
