reasons for this . M 361314
reasons for them . M 32683
regard for him . M 31402
reached for her . M 27304
remain with him . M 22964
reasons for that . M 20415
remain that way . M 17878
remain with them . M 17528
reached its end . M 13704
reasons than one . M 13500
reached for him . M 12846
regard for you . M 12632
return with him . M 11471
remain with you . M 11330
regard for them . M 11129
regard for her . M 10719
remain with her . M 10362
reasons for this ? M 9556
resume his seat . M 9182
return for them . M 8400
relief and joy . M 7762
return with them . M 6706
remedy for them . M 5901
realize that now . M 5278
reality for him . M 5272
reached old age . M 4750
reasoning with him . M 4312
rested with him . M 4178
reasons for being . M 4021
remedy for this . M 3929
reality for them . M 3878
resign his seat . M 3782
return one day . M 3638
reached that age . M 3528
remedy for sin . M 3498
reside with him . M 3328
reached for them . M 3298
return with you . M 3296
rested with them . M 3156
retain his seat . M 3086
return with her . M 3016
reaches its end . M 2956
reasons why not . M 2922
return for her . M 2912
return for you . M 2908
reasoning with them . M 2886
reside with them . M 2814
remedy for that . M 2689
reasons for going . M 2623
reject them all . M 2536
remain for long . M 2520
relief for them . M 2474
return each year . M 2450
return for him . M 2372
return that day . M 2236
reward for them . M 2208
reasons for things . M 2195
report for you . M 2191
reward for him . M 2166
reasoning with her . M 2106
reality for her . M 2030
return that way . M 2020
residing with them . M 1971
retire each year . M 1968
remove them all . M 1942
residing with him . M 1880
reality for you . M 1858
remedy for this ? M 1854
reasons for each . M 1798
resist for long . M 1796
relief for him . M 1793
reacted that way . M 1770
reality and myth . M 1769
reasons for war . M 1732
reward for you . M 1709
record them all . M 1590
reality for all . M 1528
return this year . M 1524
record for him . M 1513
reject this idea . M 1508
retain his job . M 1474
remain with you ? M 1470
reaches old age . M 1437
record for you . M 1436
recall them all . M 1390
release for him . M 1371
resume her seat . M 1332
regard for law . M 1332
regret his death . M 1271
report each year . M 1257
reaches that age . M 1246
return this way . M 1242
report was read . M 1242
realize two things . M 1236
remain this way . M 1230
reached for one . M 1218
return was due . M 1204
resign his see . M 1192
reasons for that ? M 1184
reasons for use . M 1134
reasons than that . M 1132
rested with her . M 1130
reached long ago . M 1122
relief for her . M 1107
result was nil . M 1106
remain our own . M 1098
result was war . M 1094
realize all this . M 1076
realize this aim . M 1068
record with him . M 1064
reality they are . M 1060
remain near him . M 1058
return for aid . M 1056
reality are one . M 1052
reached for his . M 1044
remain too long . M 1040
reject them both . M 1040
reached that far . M 1024
result with god . M 1020
reside with her . M 1017
recall them now . M 1010
reward for that . M 1007
regain his seat . M 1000
record for them . M 990
reasons are two . M 984
reached thus far . M 982
reached this age . M 982
reacted this way . M 980
reasons for both . M 975
remain with god . M 970
regard him not . M 968
regard for god . M 958
return for this . M 954
return with you ? M 950
reasons for them ? M 948
record this year . M 943
report for him . M 938
reached that day . M 912
result and why ? M 911
regret that now . M 890
rested his head . M 888
reached this far . M 870
release for her . M 857
regard them not . M 849
remedy for him . M 848
reaction and war . M 848
remain near her . M 840
remedy for you . M 830
realize this idea . M 826
remain his own . M 824
record with them . M 814
rescue his son . M 811
reduce this gap . M 810
reaction you get . M 808
reaches for her . M 801
relief and fear . M 796
report with him . M 785
regard for him ? M 785
remain all day . M 760
refuse them all . M 756
reward for this . M 753
realize this end . M 748
remain with him ? M 740
relief that was . M 736
resign with him . M 734
regard for man . M 730
record for her . M 725
reasons for fear . M 725
rested one day . M 722
remedy all this . M 720
reached this area . M 712
retire this year . M 708
return for that . M 706
regard for you ? M 704
reasons than this . M 700
return with joy . M 698
release her arm . M 694
retain them all . M 690
rebirth and death . M 687
readers with him . M 682
realize that end . M 678
report was due . M 668
relief for you . M 668
reality and being . M 666
regret this day . M 662
result for you . M 660
release for them . M 659
reached them yet . M 654
return any day . M 653
reasoning with you . M 650
regret and fear . M 647
reached his end . M 646
reality are not . M 642
relate them all . M 638
relief but death . M 632
reaction was fear . M 632
reached them all . M 632
resign his job . M 620
readers did not . M 620
reached with ease . M 616
report for them . M 614
rested her head . M 608
recall and use . M 604
rested all day . M 600
remain for him . M 598
remain with you ! M 596
reduce this bias . M 596
remedy for all . M 591
readers with them . M 588
reached too far . M 588
reached his head . M 582
result for him . M 572
result was bad . M 570
result for them . M 570
releasing her arm . M 570
release them all . M 566
remain that way ? M 564
reached him yet . M 564
residing with her . M 559
reasoning things out . M 558
reality does not . M 556
record that year . M 547
resort for them . M 543
reached that way . M 542
reached his aim . M 542
record his death . M 539
reached its aim . M 534
relief that was ! M 532
release for you ? M 530
reached with them . M 530
reward for her . M 525
report with you . M 525
remedy for each . M 525
rescue her son . M 524
releasing his arm . M 522
report each day . M 520
remain with them ? M 518
realizing this aim . M 518
remain with her ? M 516
report his death . M 515
report this year . M 514
record was set . M 514
result was death . M 510
relief and aid . M 510
realize them all . M 510
rescue them all . M 508
reached that area . M 506
regret for him . M 503
reasons for doing . M 502
reached them too . M 502
remote and near . M 500
reduce its use . M 500
realize all that . M 496
regard for all . M 490
reality but one . M 490
release for you . M 489
reject that idea . M 486
return with her ? M 483
return each day . M 482
reaches for them . M 482
remain for them . M 480
relate with them . M 476
report with them . M 475
retain for them . M 474
realize that yet . M 474
resume for you . M 465
reached our day . M 464
reality was not . M 462
reality with them . M 460
return for pay . M 459
reward with him . M 456
return for this ? M 454
remedy for them ? M 445
reached his own . M 444
result than this . M 442
regret for them . M 440
reaches for him . M 437
retire and die . M 436
remain near them . M 432
report that day . M 428
reject any bid . M 428
return and death . M 427
remedy all that . M 424
reside with you . M 418
record with you . M 418
reality for man . M 418
return that year . M 414
remove all air . M 414
realize you had . M 414
realizing this end . M 410
realize that too . M 408
retire with him . M 406
resist using them . M 404
record that day . M 404
reached this way . M 404
reasons for dying . M 403
remove this fear . M 402
remove his arm . M 402
retain its heat . M 398
resist them all . M 398
remote they are . M 396
return for his . M 395
return his bow . M 394
reached his seat . M 394
result was this . M 392
rested and ate . M 392
renews all things . M 392
remove his head . M 390
reasons are not . M 390
realize they had . M 390
reality than that . M 388
reaches too far . M 388
reached this year . M 386
release his arm . M 384
report them all . M 383
reward for him ? M 382
release his son . M 381
regard for both . M 379
return ere long . M 378
reasons for lying . M 376
retain his own . M 374
remain her own . M 374
reasoning too far . M 374
recall that day . M 373
remain one long . M 372
remain for you . M 372
resist this idea . M 370
remedy for both . M 368
record thus far . M 368
realize his idea . M 366
reality one day . M 366
remain near you . M 364
rebirth for him . M 362
reached its end ? M 362
revealing his own . M 358
resume with you . M 353
remote and new . M 352
remedy for her . M 351
retain her job . M 350
result for all . M 350
record than this . M 349
rescue his men . M 348
remove this bias . M 348
reform was dead . M 346
readers are not . M 346
reached with him . M 344
remove that fear . M 342
realizing that end . M 338
realize this now . M 338
reward with god . M 337
regard for age . M 336
reality his own . M 336
reacted that way ? M 336
record for each . M 334
retain his see . M 332
reached you yet . M 332
reaches that far . M 331
resist that one . M 330
realize that aim . M 330
rescue them both . M 328
reality for you ? M 328
return for that ? M 327
resist this one . M 326
retain her seat . M 324
regard for her ? M 322
record was bad . M 322
result was not . M 320
reached its top . M 320
resume his seat ? M 318
return them all . M 312
realizing this idea . M 312
release and joy . M 311
reached her yet . M 310
resist all this . M 308
remove any air . M 308
remedy but death . M 308
redeem all men . M 308
remote for them . M 306
reacted with fear . M 306
return with him ? M 305
result with him . M 304
resign them both . M 304
relief was near . M 304
rested his men . M 302
resign her job . M 302
realize his aim . M 302
result thus far . M 301
resort for him . M 300
remove this heat . M 300
reasons than men . M 300
regard for men . M 298
reasons for eating . M 298
regard with awe . M 297
remedy for that ? M 295
retain them long . M 294
remedy for war . M 294
remark but one . M 294
relief for all . M 294
release them both . M 294
refuse him now . M 294
reward for this ? M 292
resist his arm . M 292
remain cut off . M 292
reached his age . M 292
reward with them . M 291
relics with them . M 290
reaction with air . M 290
release you now . M 288
recall his son . M 288
reasoning was this . M 288
removing his arm . M 286
remote and dim . M 286
remedy was easy . M 286
release was near . M 286
resume our way . M 284
result you get . M 283
reached that yet . M 282
result for both . M 280
remain all year . M 280
reduce its area . M 280
rested that day . M 278
reality than this . M 278
reality did not . M 278
reality and god . M 278
rescue for him . M 274
regard for him ! M 274
reached you yet ? M 274
reached that year . M 274
result was due . M 272
report for her . M 272
redeem them all . M 272
release but death . M 270
reject its use . M 270
reality with him . M 270
rescue for her . M 268
remote than this . M 268
regret all this . M 268
reduce this fear . M 268
recall him now . M 268
reasons with him . M 267
resume his job . M 264
reject this one . M 264
remedy that now . M 263
remedy for fear . M 263
record that way . M 263
recall all this . M 262
reasons for using . M 262
reaction with them . M 262
reward for all . M 260
rescuing his son . M 260
remove them now . M 260
result you see . M 259
repair his own . M 258
resist its use . M 256
relief that way . M 256
remove his fit . M 254
regret and joy . M 254
retire one day . M 252
resume its use . M 252
record each day . M 252
release him now . M 250
release her son . M 250
reasons with them . M 250
realize this too . M 250
readers for them . M 250
record each year . M 249
remove this man . M 248
remain this way ? M 248
remain for you ? M 248
regain his own . M 248
rested with god . M 246
reward them all . M 245
reward than that . M 244
repair and use . M 244
remedy for death . M 244
reached her not . M 244
reform this year . M 243
recall that now . M 243
reward you all . M 242
retire with them . M 242
record for that . M 242
regret can die ! M 240
record was read . M 240
reached him too . M 240
remove them both . M 238
reached its head . M 238
release for use . M 237
reasons for joy . M 237
resume his own . M 236
remove and dry . M 236
reject all this . M 236
record with her . M 236
realize she had . M 236
reaches this age . M 235
regain her seat . M 234
refuse going now . M 234
reasoning for them . M 234
reality and law . M 234
reaction does not . M 234
reasons did not . M 232
realize that then . M 232
reality for long . M 232
readers may ask . M 232
return for each . M 231
refuse his aid . M 230
reasons for death . M 230
reject each one . M 228
realize this yet . M 228
reward for each . M 227
reaches this area . M 227
return for them ? M 225
removing his own . M 224
remark was that ? M 224
record with you ? M 224
reward for that ? M 223
return them both . M 222
reside near them . M 222
repent for them . M 222
recall that one . M 222
reaction for him . M 222
reaction and death . M 222
reached one day . M 222
rested and fit . M 220
reject them all ? M 220
reform his own . M 219
reaction she got . M 218
reached this day . M 218
reached her seat . M 218
reside near him . M 216
regret her death . M 216
realize that idea . M 216
reality with god . M 216
reached that sum . M 216
reached our earth . M 216
relief and ease . M 214
realize all this ? M 214
readers can not . M 214
result for each . M 213
result does not . M 212
report that year . M 212
reaction was not . M 212
recall his men . M 210
reasoning them out . M 210
remain and die . M 208
refuse any man . M 208
record with men . M 208
return this day . M 207
report with you ? M 206
remove his own . M 206
remain one year . M 206
realize its aim . M 206
reborn each day . M 205
return for you ? M 204
refuse him that . M 204
reacted this way ? M 204
reached his own ? M 204
release this man . M 203
report for may . M 202
regard for them ? M 202
readers are men . M 202
reached his men . M 202
retain them both . M 200
remote than that . M 200
reject this man . M 200
reasons why not ? M 200
revealing for that . M 198
rescue was near . M 198
report was run . M 198
reached out for . M 198
report with her . M 196
remain with her ! M 196
release her now . M 196
regain his job . M 196
return his own . M 194
reform too far . M 193
record and all . M 193
resist him now . M 192
remain that way ! M 192
reasons and bad . M 192
reality that way . M 192
return all day . M 191
remedy but one . M 190
regret doing this . M 190
reduce that gap . M 190
reduce that fear . M 190
reality and death . M 190
reaction was odd . M 190
resume his meal . M 188
reasons you are . M 188
reasoning for each . M 188
reaches for you . M 187
reduce his fear . M 186
reaches our eye . M 186
reached her age . M 186
remedy this gap . M 184
reasoning does not . M 184
reality and man . M 184
readers may say . M 184
relief was due . M 182
recall doing that . M 182
remain too low . M 180
remain for him ? M 180
regard for that . M 180
remain with man . M 178
reduce with age . M 178
recall two things . M 178
reasons for you . M 178
reasoning for you . M 178
regard them now . M 176
realize its end . M 176
reality can not . M 176
result was that . M 174
residing with you . M 174
relief and ease ! M 174
redeem his vow . M 174
reasons than one ! M 174
reasons for him . M 174
readers than one ? M 174
refuse its aid . M 172
record does not . M 172
reaction than that . M 172
return for all . M 171
remedy for sin ? M 170
release this year . M 170
reasoning for this . M 170
reached her now . M 170
reasons they are . M 169
reward than this . M 168
retire with her . M 168
report and map . M 168
regard for you ! M 168
reached his son . M 168
record than that . M 167
retain for you . M 166
record all this . M 166
reasons can not . M 166
return for one . M 165
remove his son . M 164
remedy with them . M 164
reject his own . M 164
return they did . M 163
report was out . M 162
relating with them . M 162
refuse you that . M 162
recall this one . M 162
realize they are . M 162
reached you then . M 162
reached them now . M 162
reached for you . M 162
rescue for them . M 161
reasons with you . M 161
remote for her . M 160
remain for her . M 160
realizing that aim . M 160
reached her own . M 160
reached each year . M 160
reached and won . M 160
remote for you . M 158
remote for him . M 158
remain that long . M 158
relief with him . M 158
relief this year . M 158
record being read . M 158
return than that . M 157
rested with men . M 156
report was bad . M 156
remark two things . M 156
release that man . M 156
reject this law . M 156
reject all that . M 156
regret for that . M 156
regret doing that . M 156
return with meat . M 154
retain for long . M 154
relive that day . M 154
refuse her now . M 154
refuse and all . M 154
reform his men . M 154
reasons this way . M 154
reasoning with him ? M 154
reappear one day . M 154
reaction for her . M 154
reward for doing . M 152
report too long . M 152
regret this now . M 152
refuse any one . M 152
readers may not . M 152
regret this day ! M 151
return than this . M 150
retain its use . M 150
resist doing this . M 150
remove all fear . M 150
remain near them ? M 150
relate with god . M 150
relate but one . M 150
regret his act . M 150
reality she was . M 150
remark one day . M 149
revealing her age . M 148
retire that year . M 148
residing near them . M 148
report and ill . M 148
repair them all . M 148
relating with god . M 148
regret his going . M 148
refuse her aid . M 148
reborn each year . M 148
readers each year . M 148
resist this man . M 146
remove his leg . M 146
remain one day . M 146
reject him now . M 146
reform them all . M 146
reasons with her . M 146
realizing his aim . M 146
reality this way . M 146
refuse this one . M 145
resume his see . M 144
rested with you . M 144
report her death . M 144
report does not . M 144
regret with him . M 144
recall you now . M 144
recall his own . M 144
reached our area . M 144
reached him now . M 144
rescue her now . M 142
relate with him . M 142
record this song . M 142
reality and use . M 142
return its bow . M 140
return for her ? M 140
rescue him now . M 140
remove all sin . M 140
relief was low . M 140
reform was not . M 140
realize his own . M 140
reality for that . M 140
readers than men . M 140
report that way . M 139
resist doing that . M 138
resign that day . M 138
removing them all . M 138
remedy than this . M 138
redeem his own . M 138
reality and idea . M 138
reaches them all . M 138
reward but that . M 136
return with them ? M 136
result for you ? M 136
remark you now . M 136
relate with you . M 136
reality long ago . M 136
reward was death . M 134
result was out . M 134
remedy for you ? M 134
remain with him ! M 134
relief for both . M 134
refuse him now ? M 134
record that too . M 134
reasons you can . M 134
reached this end . M 134
result this year . M 133
record his own . M 133
retain them all ? M 132
refuse you then . M 132
reduce her fear . M 132
recall all this ? M 132
reasons you did . M 132
readers are few . M 132
reaction for each . M 132
reached our age . M 132
reward for you ? M 131
repair and heal . M 131
remove them too . M 130
remove him now . M 130
reasons each year . M 130
reasons are weak . M 130
reality that was . M 130
readers can use . M 130
reaction and fear . M 130
reacted with them . M 130
resort with them . M 129
repair for him . M 129
revive them all . M 128
revealing her own . M 128
return was low . M 128
remove that man ! M 128
refuse for her . M 128
reasoning than this . M 128
realize you are . M 128
reached that age ? M 128
reform and war . M 127
record for you ? M 127
return them now . M 126
return one day ? M 126
retain and use . M 126
rested and read . M 126
remove his things . M 126
remote and sad . M 126
reliving that day . M 126
regret for her . M 126
regain her son . M 126
redeem them both . M 126
reaction too far . M 126
reaches our earth . M 126
reward them with . M 124
reward for you ! M 124
result than that . M 124
repent her vow . M 124
relics with him . M 124
regard for this . M 124
reduce them all . M 124
reasoning thus far . M 124
reality this year . M 124
reality for him ? M 124
readers each day . M 124
reaches out for . M 124
result for long . M 123
resist that too . M 123
retain her own . M 122
result for her . M 122
remove red eye . M 122
release with him . M 122
redeem his son . M 122
record that song . M 122
realize its idea . M 122
reached this sum . M 122
reached her head . M 122
report was not . M 121
recall with ease . M 121
resist this man ? M 120
rescue that day . M 120
report and why ? M 120
repair them with . M 120
remove this bar . M 120
release that man ! M 120
redeem all things . M 120
record was cut . M 120
recall that day ? M 120
reasoning can not . M 120
reality too real ! M 120
reached our aim . M 120
result too low . M 119
result that way . M 119
report you read . M 119
result than they . M 118
repair and aging . M 118
release him yet . M 118
regain its use . M 118
reform did not . M 118
record them now . M 118
reality they see . M 118
reality than men . M 118
readers can see . M 118
reaches its seat . M 118
report its use . M 117
report and why . M 117
regard all this ? M 117
record for this . M 117
resist and die . M 116
report did not . M 116
remote for that . M 116
remark than this . M 116
relief for that . M 116
releasing his son . M 116
refuse you now . M 116
refuse that too . M 116
realize that yet ? M 116
reality all dead . M 116
readers read them . M 116
reaction for you . M 116
reached his eye . M 116
repair this one . M 115
record her death . M 115
realize that now ? M 115
reward his men . M 114
revive its use . M 114
revive his own . M 114
revealing her fear . M 114
return her men ? M 114
rested too long . M 114
renewing all things . M 114
relief than joy . M 114
release his men . M 114
recall them both . M 114
reasons for each ? M 114
reasoning was not . M 114
realizing that idea . M 114
reality has not . M 114
reaction for lead . M 114
reaches that area . M 114
return each year ? M 113
result with them . M 113
regret for this . M 113
recall but one . M 113
rebirth for you . M 113
revealing its being . M 112
resign with them . M 112
repent her sin . M 112
remain far off . M 112
refuse him that ? M 112
recall her now . M 112
rebirth for them . M 112
realize them both . M 112
realize his end . M 112
reality and joy . M 112
reacted too far . M 112
reached them both . M 112
reached our own . M 112
reached her end . M 112
return this year ? M 111
report for each . M 111
revere and son . M 110
return with aid . M 110
return cut off . M 110
return are low . M 110
result being death . M 110
resist this law . M 110
release her yet . M 110
refuse him one . M 110
reality with you . M 110
reality than they . M 110
reality for god . M 110
reaction was weak . M 110
reached that end . M 110
reward you both . M 109
resort for all . M 109
revive her son . M 108
retain its own . M 108
resist her now . M 108
resign his seat ? M 108
repeating them both . M 108
reject them too . M 108
refuse her that . M 108
realize for them . M 108
reality its own . M 108
reality but god . M 108
report for that . M 107
report all this . M 107
reward was due . M 106
rethink that one . M 106
rethink that idea . M 106
resume his way . M 106
resume for each . M 106
rested his arm . M 106
remove its head . M 106
remove her top . M 106
remain low key . M 106
relief for this . M 106
reject his plea . M 106
recall that now ? M 106
reborn with him . M 106
realize all that ? M 106
refuse each day . M 105
record with that . M 105
reward with you . M 104
rested for that . M 104
resort for you . M 104
resist doing them . M 104
resist and win . M 104
rescue his dog . M 104
remain too wet . M 104
release them now . M 104
regret for age . M 104
reduce this sum . M 104
realizing his idea . M 104
reality you are . M 104
reaction was bad . M 104
reaches his seat . M 104
resort each year . M 103
regard his own . M 103
record this one . M 103
return was near . M 102
retain this one . M 102
retain this law . M 102
rested for long . M 102
remove his fear . M 102
remedy all this ? M 102
remark for him . M 102
relief than man . M 102
relief and joy ! M 102
refuse him this . M 102
reality was god . M 102
reality too real . M 102
reality for now . M 102
return this way ? M 101
report all this ? M 101
release that day . M 101
record each one . M 101
retain our own . M 100
repeating its song . M 100
release his own . M 100
relate them now . M 100
reasons for going ? M 100
readers with you . M 100
regret not going . M 99
reasons she had . M 99
reward than they . M 98
revive his son . M 98
return his son . M 98
return for meat . M 98
retain for him . M 98
report than this . M 98
remote each day . M 98
remote and dead . M 98
reject his son . M 98
regret them not . M 98
regard our own . M 98
reduce its own . M 98
record was his . M 98
record for now . M 98
reached age ten . M 98
reside with you ? M 97
return too long . M 96
retain its lead . M 96
resort was had . M 96
resist they did . M 96
repair all that . M 96
removing its head . M 96
remove our sin . M 96
remove her things . M 96
relief that day . M 96
release that year . M 96
regret this act . M 96
regard for her ! M 96
reduce any one . M 96
record for you ! M 96
recall how long . M 96
reasons for this ! M 96
reasons for that ! M 96
reasons for being ? M 96
reality with her . M 96
readers see them . M 96
reaction than this . M 96
reacted and why . M 96
reaches its aim . M 96
result but war ? M 95
report this day . M 95
repent for that . M 95
record for long . M 95
revere him dead . M 94
return with this . M 94
return this one . M 94
resist him long . M 94
report was long . M 94
repent his sin . M 94
repair was easy . M 94
removing his head . M 94
relief for long . M 94
release for all . M 94
regret that day . M 94
regret all that . M 94
reform with them . M 94
reform our singing ? M 94
reality each day . M 94
reached age two . M 94
report and how . M 93
regret for you . M 93
record than men . M 93
record its use . M 93
reward him with . M 92
removing red eye . M 92
remove that too . M 92
remind you then . M 92
remain with one . M 92
remain near him ! M 92
release was due . M 92
relate all this ? M 92
regret not doing ? M 92
regard for death . M 92
recall all that . M 92
rebirth for her . M 92
reasoning for this ? M 92
reasoning for that . M 92
reasoning for him . M 92
reality was new . M 92
reality her own . M 92
readers this year . M 92
readers for long . M 92
release and use . M 91
rethink this one . M 90
resort with him . M 90
resist that idea . M 90
repeating her own . M 90
remove with him . M 90
remove this one . M 90
relief each year . M 90
refuse them both . M 90
redeem all this . M 90
recurs each year . M 90
realize them now . M 90
reality one bit . M 90
reality for them ? M 90
reaction was due . M 90
reaction and why ? M 90
reached one year . M 90
reached age six . M 90
return does not . M 89
result they did . M 89
reasons for not . M 89
reasons for all . M 89
resume them all . M 88
resist his foes . M 88
repeating his act . M 88
remove that man . M 88
remind you why . M 88
remain but few . M 88
reject them now . M 88
regard with them . M 88
regard for his . M 88
record was out . M 88
reasons for you ? M 88
reasoning than men . M 88
realizing its aim . M 88
realize our own . M 88
reality its due . M 88
reaction with him . M 88
reached our end . M 88
regret that now ? M 87
return his lead . M 86
return her son . M 86
resist her plea . M 86
repent one day . M 86
repair all this . M 86
remove each one . M 86
remove all that . M 86
remedy was war . M 86
remain with them ! M 86
remain for now . M 86
relief they ask . M 86
relics they are . M 86
reject him too . M 86
regret this one . M 86
regret one day . M 86
reform are dim . M 86
reduce his pay . M 86
redeem them with . M 86
record one day . M 86
record did not . M 86
reality than myth . M 86
reacted with joy . M 86
reaches his end . M 86
reached her son . M 86
reward for both . M 85
return for that ! M 85
resume with you ? M 85
revise his own . M 84
result they saw . M 84
result that day . M 84
rescuing her son . M 84
repeating his cry . M 84
remove this idea . M 84
remove her rings . M 84
remind you now . M 84
remind him now . M 84
remedy for that ! M 84
remedy for death ? M 84
remain near one . M 84
remain its own . M 84
relief this way . M 84
release that one . M 84
regard him now ? M 84
reform for them . M 84
reasoning with god . M 84
reasoning this way . M 84
realize his age . M 84
readers with her . M 84
reaction was that ? M 84
reaction for them . M 84
reached and why . M 84
reward for lying . M 83
resort for her . M 83
report for this . M 83
realizing that now . M 83
retain its seat . M 82
retain his head . M 82
resign his own . M 82
remove her arm . M 82
remark his wit . M 82
remain and rot . M 82
regain her own . M 82
refuse him aid . M 82
reached her too . M 82
report all day . M 81
regard with fear . M 81
reward you for . M 80
revealing his fear . M 80
resist that law . M 80
resist nor fly . M 80
resist all this ? M 80
resist all that . M 80
resign them all . M 80
removing her own . M 80
remove this cup . M 80
remain but two . M 80
redeem his sin . M 80
recall that era . M 80
reasons but one . M 80
reality for men . M 80
reality for both . M 80
reaction they got . M 80
reaches that end . M 80
release each year . M 79
reform all this . M 65
regret that too . M 56
refuse and die . M 54
return and die . M 53
return for him ? M 51
return one each . M 50
record this way . M 50
report for now . M 49
report they did . M 47
rescue that man . M 45
record this day . M 45
reasons things out . M 45
return with ease . M 44
rescue one man . M 44
report this way . M 44
record and use . M 44
return you earn . M 43
revealing than this . M 42
return for long . M 42
result you saw . M 42
result each year . M 42
repair does not . M 42
rescue this one . M 41
remedy them all . M 41
reasons they had . M 41
regret not doing . M 40
