lit up by the M 64107
lit up at the M 13064
lit up in the M 11146
lit up as he M 10140
lit up as if M 6447
lit up on the M 4501
lie up in the M 2775
lit up by an M 2521
lie is of the M 2505
lit up as the M 2339
lit it at the M 1747
lie to the king M 1724
lie so as to M 1692
lie is to be M 1670
lie is in the M 1670
lit it in the M 1425
lie to me or M 1111
lit up as it M 1081
lie if it is M 1074
lie in the king M 1004
lie in the so M 988
lit as if by M 954
lit up in an M 900
lit up by it M 812
lie in or on M 801
lie as to the M 778
lit up in my M 730
lie to me in M 714
lit up as by M 712
lie by in the M 632
lie as in the M 620
lit so as to M 611
lie on in the M 606
lie in the thing M 577
lie up on the M 550
lit it on the M 524
lie as if it M 510
lie as it is M 508
lie is at the M 496
lie to me if M 493
lie on it in M 485
lie to me as M 480
lie in it at M 447
lit up as we M 437
lie or to be M 431
lie on or to M 421
lit as if it M 416
lit it as he M 405
lie on or in M 403
lie up to the M 396
lie to do it M 389
lit up to the M 376
lie as if in M 374
lie to us in M 327
lie so in my M 324
lie to be the M 321
lie in of the M 319
lie so in the M 312
lie to us or M 309
lie to me to M 304
lie as if he M 296
lie to in the M 278
lit it up in M 276
lie to me so M 265
lit up at my M 262
lie in it as M 259
lie in in the M 259
lie to me at M 247
lie to us as M 246
lie on it as M 245
lit as it is M 241
lit up as in M 240
lie is of no M 234
lie on it to M 229
lie in it in M 225
lie in me to M 224
lit up as an M 222
lie on at the M 222
lie by at the M 218
lie to on the M 217
lie to me the M 216
lie in the the M 214
lie to me on M 211
lie is on the M 206
lie to do so M 205
lit up by no M 202
lie on it or M 200
lie in it to M 195
lit it by the M 190
lie in the ring M 189
lie in at the M 188
lie on the so M 183
lie it is to M 178
lit as if in M 175
lie in on the M 174
lit as if the M 173
lie at the king M 173
lit it up as M 171
lie if he is M 161
lie on it on M 153
lie is to the M 153
lie or be in M 150
lie to it by M 148
lit up in us M 146
lit up by my M 146
lie by on the M 146
lie if it do M 143
lie to us at M 137
lie in the in M 133
lie on the the M 130
lie so on the M 129
lit up on my M 128
lit is to be M 125
lie in it the M 125
lie in it or M 125
lie in it on M 125
lit up in me M 116
lie to us to M 116
lie up at the M 115
lie as he is M 115
lit it up at M 114
lie on it at M 109
lit up the ring M 108
lie as if on M 107
lit as by the M 106
lit as by an M 105
lie to me is M 105
lie by me at M 104
lie in us to M 103
lit to do so M 101
lie on it if M 100
lie is by no M 99
lie to at the M 97
lie is in no M 96
lit to be the M 94
lie in or at M 93
lit up by so M 92
lie in by the M 92
lit up or in M 90
lie is in it M 90
lit it as the M 88
lie on the king M 88
lie up in my M 87
lit up as of M 86
lit it at my M 84
lie in the no M 62
lie by me in M 57
lie as if the M 56
lie to us is M 55
lie to it in M 54
lie in the by M 53
lie to be in M 51
lie is to do M 49
lie to by the M 47
lie in it is M 47
lie is to go M 46
lit as in the M 44
lie in the wing M 44
lit to go to M 43
lie to me by M 43
lie or to do M 43
lit is in the M 42
lie on the wing M 42
lie to the so M 41
lion is in the D 4064
lion is the king D 2959
lie on the sea D 2122
lion of the sea D 1957
lid is to be D 1582
lip as if to D 1393
lit up the sea D 1242
lie in the sea D 1190
lid of the tea D 1152
lip as if he D 1002
lip of the sea D 943
lion is to be D 924
lid on to the D 894
lip so as to D 832
lid so as to D 780
lion is king of D 742
lion is on the D 636
lip or in the D 613
lid is in the D 576
lion to do the D 570
lip is to be D 530
lip or on the D 498
lid is on the D 454
lid or on the D 412
lid or in the D 404
lion is to the D 376
lip as if it D 364
lie to the ear D 347
lion it is the D 344
lip or of the D 326
lion the king of D 325
lip as if in D 324
liar as he is D 318
lip of the ring D 314
lip is in the D 310
lip as in the D 300
lion or of the D 288
lion as in the D 287
lion as the king D 286
lion king of the D 273
lion is at the D 270
lie in the ear D 270
lip to ear in D 268
lip is of the D 266
lion is of the D 262
lion king in the D 254
lip is on the D 246
lion as if it D 234
lip is at the D 224
lid is of the D 224
lie in the re D 219
lip up to the D 216
lion as king of D 214
lie by the sea D 211
lid is at the D 208
lip or at the D 204
lid on the id D 202
lip on it to D 196
lid as if it D 196
lip on to the D 192
lid up to the D 190
lid on it so D 184
lid on it to D 182
lid on it in D 182
lid on it as D 181
liar is to be D 180
lion to be the D 168
lion as if he D 168
lion as it is D 164
lid on in the D 162
lion so as to D 156
lion king at the D 156
lid of the sea D 153
lid on it by D 152
lid as it is D 150
lip as if the D 139
lion in me is D 138
lid as in the D 134
lip as it is D 133
lion to eat the D 124
lion king is the D 122
lid up on the D 122
lid on it or D 119
lid or of the D 118
lid on the tea D 116
lip to the ear D 114
lid or to the D 110
lion is by no D 104
lion or an ox D 102
lid on the thing D 102
lip is to the D 100
lion up in the D 100
lion as he is D 100
lingo of the sea D 95
lion if he is D 90
lion king is so D 86
liar or he is D 86
lion king to the D 84
liar if he is D 84
lion or to the D 82
lip or to the D 80
lion in us is D 80
lid if it is D 80
liar if it is D 80
lie on the ear D 46
lip ring of the D 41
