lined up in a M 39721
lived to be a M 38397
lined up on a M 12737
liked to be a M 11480
limit it to a M 9342
lived in as a M 6994
lives on as a M 6644
lived on as a M 6333
lives to be a M 6098
lives on in a M 5654
light to be a M 5538
lived on in a M 5071
likes to be a M 4813
lists it as a M 3690
lined up at a M 3409
lived in by a M 3375
links it to a M 3270
lived up to a M 3188
lived as in a M 3043
light is of a M 3020
light on to a M 2669
light up in a M 2433
liked to do a M 2114
light is in a M 2095
linear up to a M 2078
lived in it a M 2074
liked it as a M 2000
lifting it to a M 1972
light as of a M 1955
light is at a M 1951
lived on to a M 1884
light as in a M 1883
light it is a M 1882
lifting up of a M 1848
lined up as a M 1832
liked me as a M 1776
light is as a M 1682
lines of the a M 1610
likes to do a M 1559
lifts it to a M 1445
light on in a M 1403
lives in is a M 1378
lifts us to a M 1352
light or in a M 1351
lines of he i M 1284
lives up to a M 1262
limit of the a M 1243
lived as if i M 1150
lines up in a M 1096
limit us to a M 1094
lines up to a M 1082
lines or in a M 1080
lines to be a M 1059
liked it if i M 1050
light or as a M 1050
lines as in a M 1030
light up to a M 1025
light as if a M 982
lines in the a M 948
lives as in a M 930
light or of a M 857
light or by a M 846
lines it is a M 842
likes to eat a M 836
lines or as a M 774
light of the a M 757
light of it i M 698
lines or by a M 688
lined up by a M 666
light as if i M 660
limit is at a M 656
lived up in a M 644
light or to a M 633
light is to a M 602
lines of the i M 600
links us to a M 598
liked it in a M 590
lived it as a M 565
light is on a M 562
liked to eat a M 548
likes me as a M 532
light up as i M 524
light of the i M 521
light or at a M 513
lives it is a M 506
limit me to a M 500
lifting it in a M 486
light up on a M 480
links up to a M 476
lines is in a M 476
light up as a M 476
lived it in a M 475
lines in the s M 448
limit to be a M 444
liked me as i M 440
lines of the s M 437
light or on a M 432
lines or to a M 428
light it in a M 421
lives is in a M 420
lines he is a M 420
liked me in a M 418
lines on to a M 410
lines in the t M 410
light up at a M 407
lines or on a M 386
lived up on a M 380
limit up to a M 377
light on so i M 376
lives is of a M 375
liked it so i M 366
liked to sing a M 364
lives on to a M 358
liked to go a M 348
lives in as a M 344
lives up in a M 341
lines is of a M 334
lines of the t M 330
lines in the i M 327
limit it by a M 325
lives or as a M 324
lined up to a M 309
limit of the t M 306
lines up on a M 302
lines of the d M 302
limit of the s M 300
limit of the d M 300
limit it in a M 298
links up in a M 292
lives it in a M 285
lived in is a M 284
light of the s M 277
light as by a M 277
lines is at a M 264
limit of the i M 263
lives be as a M 257
light on the a M 257
lifting it up a M 256
lifting us to a M 254
light as to a M 250
lifting up to a M 250
limit it is a M 246
likes it as a M 246
lines on the t M 245
light as on a M 241
lines or of a M 240
linear in the a M 235
lived on it a M 222
links me to a M 219
linear or in a M 216
limit it as a M 216
light me to a M 216
lines go to a M 210
lines in it i M 208
lived in the i M 207
light is by a M 206
links it in a M 205
lines as on a M 202
lives he is a M 200
likes me as i M 200
lives in it a M 199
light to do a M 199
lists as to a M 196
lifts me to a M 196
light of the d M 194
light of an a M 193
light it at a M 189
lines as if i M 188
liked it as i M 188
light on the t M 188
limit or as a M 185
light as is a M 185
lists to be a M 184
light of as a M 184
lived in it i M 180
lived in on a M 179
lines is to a M 178
light on as i M 178
light be at a M 174
limit is on a M 172
limit is of a M 172
lifting me to a M 172
lives as if i M 169
lined up so i M 168
lines as if a M 164
links on to a M 162
light he is a M 161
limit is in a M 160
lives or to a M 158
liked me so i M 158
light of it a M 158
lives or in a M 153
lives it as a M 152
lived in to a M 151
lived to do a M 150
limit or by a M 150
lifts up to a M 150
lived by in a M 146
lines up at a M 146
light on as a M 146
lifting it as a M 146
lives up on a M 145
lines up as a M 144
lived as if a M 142
lines is as a M 142
liked me if i M 140
light in the a M 140
lists it in a M 139
light on at a M 139
lives to do a M 137
limit or to a M 137
liked it on a M 136
links us in a M 134
lines or at a M 134
light me up a M 133
likes me in a M 132
lines on the a M 131
lived on by a M 130
lifts it in a M 130
lives is to a M 128
lives in us a M 128
likes it in a M 128
limit or at a M 127
light it by a M 127
lives as if a M 126
lines as to a M 126
lines or via a M 124
lines of ca i M 124
light or ring a M 124
lives on is a M 123
lives in the i M 120
lines of it i M 120
lifts up in a M 120
lived by as a M 118
lifting up on a M 117
likes to go a M 114
light on or a M 114
light of in a M 113
lived it up a M 112
lines is on a M 112
lifts it up a M 110
lines on the i M 109
light to go a M 109
lives on at a M 108
lines as by a M 106
lines as at a M 106
lifting up in a M 106
light on it i M 105
lived as on a M 104
lists up to a M 104
lines on the s M 104
likes of us a M 104
likes of me a M 104
lives of the a M 102
lived it on a M 100
liked it or i M 100
lived in an a M 99
lists as in a M 98
lines to do a M 98
lifting it by a M 98
lists or in a M 96
lines go in a M 96
lives is on a M 94
lives is as a M 94
lived on as i M 94
links to be a M 94
light on me i M 93
likes it is a M 92
light us to a M 92
lived in or a M 88
limit of is a M 88
light it as a M 88
light it to a M 87
lives or of a M 85
lived or in a M 84
links to it a M 82
linear as in a M 82
lived it as i M 80
light it on a M 80
lifting it on a M 80
lived in in a M 59
lived in at a M 59
lives in the a M 55
lived in the a M 55
lives or by a M 47
lives as by a M 47
light of the t M 44
lines to the a M 43
likes to sing a M 42
liable to be a D 17704
liken it to a D 9623
linking it to a D 7712
listing it as a D 1522
lingers on as a D 1343
liven it up a D 1167
liver is in a D 974
lingers on in a D 954
liver is of a D 816
lingering on in a D 806
linking up of a D 688
limbs of the t D 444
liable up to a D 386
liable to do a D 372
lingering on as a D 352
liken me to a D 340
linking up to a D 312
liven us up a D 277
liver to be a D 268
linking us to a D 264
libel to be a D 264
linking up in a D 262
limbs as if i D 252
linking it in a D 246
listing it in a D 238
liable as on a D 238
liver or in a D 188
limbs or no i D 188
limbs as in a D 186
libel is in a D 176
liable to in a D 170
listing it on a D 162
linking of the t D 152
limbs to be a D 146
liver is to a D 142
limbs is of a D 140
liver wing of a D 138
liver or as a D 138
listing is in a D 134
lipid is in a D 132
libel is of a D 128
libel be in a D 128
liver or of a D 124
listing or in a D 124
linen is of a D 122
liver or to a D 120
listing me as a D 120
limbs it is a D 116
liver is as a D 114
livid or of a D 112
limbs or of a D 112
liner or in a D 100
linking me to a D 96
liver it is a D 94
limping up on a D 94
limbs of the s D 94
liver is by a D 88
liver as in a D 88
linking it as a D 88
linen or in a D 86
liver is at a D 82
lingers on to a D 82
liable to go a D 80
linking of the a D 57
limbs of the a D 50
