put it in the M 721694
put it on the M 475861
put it to the M 161478
put me in the M 141170
put it in my M 137307
put up at the M 121250
put to it to M 112849
put up in the M 108579
put up by the M 103293
put me on the M 100378
put it at the M 62145
put it in an M 60507
put on by the M 54310
put in at the M 49848
put it on my M 48592
put us in the M 48132
put it to me M 47434
put up on the M 45525
put us on the M 45198
put in by the M 42709
put on in the M 34327
put it up to M 33357
put on at the M 27721
put me on my M 26714
put me to the M 23550
put on to the M 21866
put up to the M 21174
put it up in M 19306
put me in my M 18422
put in on the M 17485
put to me by M 17183
put it up on M 16824
put it to my M 16078
put it on to M 14902
put me in an M 14836
put me on to M 14512
put up at an M 13916
put the ring on M 13352
put in to the M 13031
put me up to M 11872
put it on in M 11589
put me at my M 11378
put to it by M 10943
put us to the M 9980
put on it by M 9664
put the thing in M 9396
put it on me M 9343
put me up in M 8652
put it on an M 7761
put up to it M 7749
put it on at M 7425
put to me in M 7140
put me at the M 6742
put it on as M 6634
put it by the M 6224
put the king in M 5998
put us up in M 5930
put to it in M 5819
put the king to M 5554
put to us by M 4906
put in in the M 4905
put us in an M 4896
put it to us M 4876
put it in as M 4610
put us at the M 4576
put it in at M 4445
put up in an M 4272
put me up at M 3964
put on the ring M 3857
put me in it M 3848
put the thing on M 3746
put me up on M 3729
put it up at M 3642
put it in so M 3563
put on the king M 3524
put it in to M 3456
put the ring in M 3448
put to in the M 3413
put to me the M 3398
put on it the M 3359
put it to an M 3234
put up in my M 3222
put me on an M 3158
put in it the M 3102
put to me at M 3099
put us on to M 3050
put up to be M 3047
put up to me M 2949
put as to the M 2898
put on it in M 2836
put the king of M 2822
put it is to M 2784
put up as the M 2684
put to by the M 2657
put to me as M 2651
put to us in M 2627
put in as an M 2616
put in as the M 2606
put it up as M 2420
put it on so M 2363
put me on it M 2348
put me to my M 2338
put on it to M 2282
put it on is M 2246
put up by an M 2226
put in the king M 2222
put it in me M 2198
put us up at M 2194
put to me on M 2166
put the thing to M 2138
put the king on M 2026
put to it at M 1978
put to it as M 1973
put us on an M 1922
put it in on M 1909
put us up to M 1878
put to the king M 1873
put on as the M 1872
put up as an M 1871
put in at an M 1871
put to it the M 1858
put on me to M 1811
put it as the M 1794
put in the tea M 1790
put is in the M 1776
put in to be M 1762
put on it is M 1756
put on the tea M 1733
put it on or M 1674
put on to go M 1662
put on to it M 1657
put on by an M 1623
put on us by M 1609
put up at my M 1596
put in it to M 1594
put it on by M 1588
put so as to M 1549
put on me by M 1524
put it as an M 1480
put it on he M 1408
put me in as M 1380
put on in an M 1328
put on so as M 1321
put to it if M 1310
put in by an M 1302
put the tea in M 1294
put it up the M 1278
put to me is M 1276
put it at an M 1272
put me to it M 1264
put on as an M 1256
put it on it M 1242
put by in the M 1226
put in so as M 1181
put it on if M 1149
put the tea on M 1134
put in up to M 1134
put up by my M 1096
put on me the M 1089
put up to us M 1038
put it in in M 1027
put it by in M 1017
put it to no M 1012
put on us to M 994
put it as he M 994
put in by my M 994
put by the king M 991
put it in or M 973
put as if it M 949
put up in it M 940
put to us as M 935
put to me so M 917
put on it at M 903
put in it by M 903
put on it as M 864
put up on an M 860
put to me to M 853
put in the ring M 853
put me in to M 852
put it at my M 842
put on to an M 834
put in on it M 810
put up so as M 796
put it up so M 784
put in as he M 784
put it in by M 783
put us in it M 778
put to it on M 778
put it as it M 778
put me on as M 774
put the foe to M 772
put me up as M 767
put in it is M 763
put to us is M 755
put it in no M 754
put me in no M 748
put it on no M 748
put on to do M 732
put me to no M 732
put the thing up M 730
put on as he M 720
put up on my M 714
put it in if M 710
put it as if M 697
put up the king M 696
put in to it M 694
put to us the M 688
put us to no M 682
put the ring of M 682
put in as it M 676
put to is to M 674
put in it in M 670
put us up on M 664
put on to be M 662
put in it as M 662
put the king at M 660
put it up by M 652
put in on my M 652
put it in it M 646
put it on us M 620
put me by the M 618
put on as to M 604
put in to do M 584
put on as it M 582
put in is the M 582
put us in no M 577
put on on the M 572
put it by my M 572
put by me in M 564
put up on it M 562
put in us by M 558
put as it is M 558
put me to an M 546
put on me in M 533
put up to do M 526
put to us at M 526
put in to an M 526
put it to be M 520
put it to so M 513
put by me to M 510
put in or the M 508
put on the so M 507
put us to an M 500
put the tea to M 500
put me in at M 486
put as if the M 484
put on in my M 481
put in as if M 480
put on to me M 478
put it on on M 474
put in by me M 474
put it is the M 472
put at the king M 470
put me in so M 469
put in or on M 461
put in me by M 452
put it so as M 450
put to us on M 449
put on is the M 447
put on as if M 446
put on or in M 443
put to it is M 442
put it by to M 440
put to it he M 436
put to do the M 434
put on the wing M 430
put it up or M 430
put it so in M 430
put in if the M 430
put in it at M 429
put on at an M 425
put to do so M 423
put me on at M 420
put me to so M 416
put to at the M 413
put on if the M 412
put on it an M 406
put on us the M 404
put on by my M 404
put up to my M 402
put me in on M 402
put it up my M 400
put it is in M 400
put me on in M 396
put in as to M 394
put the thing as M 390
put me to as M 388
put on as we M 386
put it if he M 386
put up by me M 384
put up by us M 381
put it to is M 380
put it of the M 380
put on us in M 376
put me so in M 376
put up as to M 374
put in us the M 373
put it on we M 372
put on up to M 369
put on it or M 364
put as to be M 361
put it by as M 359
put up as it M 354
put the thing so M 353
put is to be M 352
put in the so M 351
put me at an M 350
put us on it M 348
put by us in M 348
put by to be M 342
put in at my M 329
put tea in the M 328
put my ring on M 328
put it to in M 326
put in it so M 324
put on if he M 323
put on it so M 322
put on by us M 322
put as in the M 322
put up of the M 320
put on or to M 316
put up at in M 314
put up by king M 312
put on the the M 305
put it as we M 304
put in by us M 304
put to on the M 299
put in on an M 299
put on me as M 296
put on to my M 288
put on as in M 288
put it up if M 288
put in my tea M 287
put us at an M 286
put to it or M 284
put up to by M 282
put on me at M 281
put up if the M 280
put on us as M 280
put to us to M 270
put it so it M 270
put me up the M 268
put it in up M 268
put us to so M 266
put to it so M 266
put in the thing M 266
put em in the M 266
put to do it M 265
put up is the M 264
put us to in M 262
put in it an M 258
put up at no M 256
put on it if M 256
put in as in M 254
put up if he M 250
put in it or M 250
put by me on M 244
put in of the M 243
put up on me M 241
put it in is M 240
put up it is M 238
put is at the M 235
put it at no M 234
put it so he M 232
put the ring to M 230
put it so to M 230
put if it is M 229
put up by it M 226
put in as my M 226
put in in my M 224
put to me or M 222
put up in as M 220
put on is to M 220
put it to as M 220
put it so is M 220
put to us we M 217
put up as if M 214
put it as to M 214
put on by it M 212
put on at my M 212
put in us as M 210
put in to my M 208
put up on us M 206
put me to in M 206
put in me the M 204
put in it on M 202
put in to go M 201
put by on the M 201
put me up if M 200
put at up to M 200
put on the thing M 199
put on or the M 196
put up to an M 192
put up or the M 190
put up at it M 190
put to by an M 188
put by us to M 188
put or to be M 187
put up as he M 186
put us in to M 184
put up in at M 180
put up as we M 180
put in if it M 180
put us in as M 177
put me in by M 176
put it in he M 176
put us in so M 174
put it in us M 174
put us up by M 172
put to be the M 171
put the on the M 168
put in it my M 168
put by it to M 168
put by at the M 168
put by it on M 166
put up by or M 162
put the thing at M 162
put the in the M 162
put king on the M 162
put in me to M 162
put us up as M 161
put us in at M 160
put up so the M 160
put on it on M 158
put it in of M 158
put on if it M 157
put to me of M 155
put in it if M 155
put in if he M 155
put us to it M 152
put up to go M 152
put me so at M 152
put my king in M 150
put it up it M 150
put in in an M 150
put in or to M 149
put to on my M 148
put it to king M 148
put it to it M 148
put in the the M 148
put to is in M 146
put on by me M 146
put up at on M 144
put to it an M 143
put on of the M 143
put on me my M 143
put to it of M 142
put it so if M 142
put it or the M 142
put it by on M 142
put on my ring M 140
put to be an M 138
put it so the M 138
put up as in M 137
put on as of M 136
put it up is M 136
put up in no M 134
put on me so M 134
put it at as M 134
put to is the M 132
put to if it M 131
put on is in M 130
put in us to M 130
put in an up M 129
put up the ring M 128
put to it we M 128
put it by at M 128
put us by the M 126
put on the no M 126
put it if it M 126
put on me is M 125
put it is as M 125
put in so the M 125
put me in is M 124
put it it is M 124
put em on the M 124
put us up the M 122
put on us at M 122
put on to us M 122
put it on of M 122
put at by my M 122
put or to the M 121
put up or to M 120
put up the tea M 118
put up on or M 118
put the wing of M 118
put to us so M 117
put on so it M 112
put on if we M 112
put on me no M 111
put in an in M 111
put us to as M 110
put up in so M 110
put to the the M 110
put it in tea M 110
put in an em M 110
put us up if M 108
put me to by M 108
put in the wing M 108
put in so he M 108
put by it in M 108
put my ring in M 106
put me on so M 105
put in is to M 105
put me in in M 104
put it if we M 104
put to be at M 103
put it at or M 102
put up if it M 100
put on to or M 100
put on so the M 100
put in at or M 100
put on me or M 99
put in at so M 99
put on so he M 98
put me to do M 98
put me or my M 98
put it up he M 98
put it as at M 98
put by me as M 97
put up is to M 96
put up at is M 96
put to if the M 96
put the wing in M 96
put on in no M 96
put me as the M 96
put it is on M 96
put by in an M 96
put in at no M 95
put the thing he M 94
put in so we M 94
put in on me M 94
put in it he M 94
put is as an M 93
put the he to M 92
put in as we M 92
put is of no M 91
put up the thing M 90
put up in or M 90
put the thing by M 90
put us on in M 88
put it up we M 88
put by us on M 88
put as at the M 88
put to to the M 86
put to me an M 86
put on in so M 86
put me to be M 86
put me in if M 86
put in me in M 86
put up if we M 84
put up at so M 84
put me up by M 84
put me to he M 84
put me at it M 84
put to if he M 83
put up at or M 82
put tea on the M 80
put king in the M 80
put an to the M 80
put on the in M 66
put in the in M 56
put in the on M 50
put up at as M 49
put on the up M 48
put us on so M 46
put in if we M 46
put me up so M 45
put in is at M 45
put us on as M 43
put to the so M 41
put in the no M 40
put to sea in D 35098
put an ad in D 23027
put to sea on D 18453
put my ear to D 12966
put ye on the D 9263
put to sea at D 8916
put to sea to D 8913
put to sea the D 4900
put to sea as D 4566
put an ear to D 3040
put ye in the D 2961
put in the ear D 1521
put the ad in D 1492
put to sea by D 1323
pup is to be D 1162
put the toe of D 1108
put to sea or D 1014
put it in thy D 1007
put in the sea D 829
put in an ad D 728
put the ax to D 700
pus is to be D 700
put an ad on D 689
put my ear up D 605
pun is on the D 556
put to sea he D 527
put on the sea D 516
put to sea if D 513
put on the ear D 490
put it on thy D 486
pus is in the D 468
put to the sea D 457
pus in the ear D 434
put in the ad D 433
pun is in the D 424
put to sea so D 418
put in at la D 410
put it in re D 379
put to the ear D 364
pub or in the D 356
pub is on the D 355
put my toe in D 350
put it at rs D 348
put to sea it D 342
put my ear on D 336
put up an ad D 324
put me in thy D 286
pub or on the D 284
put it to ye D 274
pub or at the D 246
pun is to be D 244
put the sea in D 236
put it in la D 234
put in my ear D 232
put an ear of D 232
pup is in the D 200
put it to thy D 198
put to in re D 194
put the ear in D 192
pub to go to D 192
put the ax in D 188
put an ax to D 186
pus or in the D 186
put on an ad D 185
put the sea to D 184
put it to sea D 180
put an ear on D 179
pub is in the D 169
put by the ms D 168
put the ear of D 162
put ye up to D 154
put to sea of D 140
put it in yo D 138
put the ear to D 134
put on my ear D 134
pub or to the D 132
put an ax in D 130
put on an ox D 128
pub is at the D 128
put on the toe D 127
put on at la D 124
put it to ya D 124
put to the ax D 121
put ye on to D 120
put to sea is D 120
put to sea no D 119
put the ad on D 116
pub in the king D 110
put ye in an D 108
put the ax on D 108
put on an ear D 107
put ye in my D 106
pus as it is D 106
pus is on the D 102
put it in sea D 97
put to my ear D 96
put the sea on D 92
put the ear on D 92
put me on thy D 92
put in the toe D 92
put to sea we D 90
put me in yo D 90
pus is of the D 90
put me to re D 86
put my ad in D 84
pup up to the D 80
put in the ex D 49
put on the ex D 43
put on my sea D 42
put me to sea D 42
pub am to be D 41
