are aware of . M 37324
are working on . M 35562
are built up . M 26044
are looking at . M 24932
are growing up . M 18156
are taken up . M 17054
are getting on . M 15260
are grown up . M 14676
are killing me . M 12238
are close by . M 10918
are drawn up . M 10368
are based on . M 9706
are looking up . M 9076
are speaking of . M 8486
are thinking of . M 7862
are about it . M 7592
are above it . M 6706
are proud of . M 5736
are given up . M 5508
are mixed up . M 5488
are lined up . M 5346
are after me . M 5216
are below it . M 5208
are aimed at . M 4514
are killing me ! M 4454
are opening up . M 4296
are within us . M 4150
are breaking up . M 3978
are within it . M 3772
are getting it . M 3524
are added up . M 3506
are hurting me . M 3420
are looking on . M 3352
are getting at . M 3168
are speaking to . M 3148
are about us . M 2934
arm round me . M 2924
are grown up ? M 2768
are prone to . M 2684
are killing us . M 2638
are still on . M 2602
are passing by . M 2574
are looking at ? M 2546
are close to . M 2474
are sitting on . M 2438
are after us . M 2422
are under it . M 2228
are about me . M 2126
are calling me . M 2070
are writing to . M 2068
are acted on . M 2018
are helping me . M 2014
are given us . M 1968
are equal to . M 1964
are picking up . M 1956
are speaking of ? M 1952
are nearly so . M 1940
are built on . M 1918
are working on ? M 1910
are really so . M 1870
are given by . M 1832
are above us . M 1832
are helping us . M 1750
are hurting me ! M 1732
are aware of ? M 1676
are learning it . M 1650
are filling up . M 1646
are shaping up . M 1614
are wound up . M 1612
are drawn to . M 1590
are thinking of ? M 1490
are treating of . M 1486
are still up . M 1468
are about to . M 1458
are blown up . M 1432
are playing it . M 1420
are taken on . M 1408
are running it . M 1398
are asked to . M 1392
are creating it . M 1330
are seeking it . M 1314
are beneath it . M 1312
are getting up . M 1266
are writing it . M 1258
arm about me . M 1256
are within me . M 1242
are willing to . M 1238
are running on . M 1234
are holding up . M 1200
are speaking to ? M 1194
are backing up . M 1156
are proud of ? M 1132
are after it . M 1094
area above it . M 1084
are working at . M 1070
are burnt up . M 1052
area below it . M 1048
are every thing . M 1040
are after me ! M 1040
are blind to . M 1036
are added on . M 1024
are given it . M 1020
are holding it . M 1016
area under it . M 1000
are feeding on . M 974
are warming up . M 968
are reacting to . M 948
are feeling it . M 936
are getting on ? M 934
are showing up . M 912
area within it . M 894
are causing it . M 886
are about it ? M 886
are truly so . M 884
are known as . M 880
are below us . M 874
are worthy of . M 864
are above me . M 800
are killing us ! M 782
are teaching us . M 764
are putting up . M 756
are looking up ! M 756
are calling it . M 746
are teaching it . M 738
are after us ! M 738
are added to . M 728
are dreaming of . M 726
are right on . M 718
are selling it . M 716
are getting on ! M 710
are drawn on . M 710
are growing up ? M 686
are cleaning up . M 674
are hinting at . M 668
are beneath us . M 662
are burning up . M 656
area beneath it . M 638
are never so . M 634
are under me . M 616
are joining us . M 614
are still so . M 604
are killing me ? M 594
are given to . M 586
are finding it . M 586
are chasing me . M 580
are short of . M 578
are missing it . M 572
are teaching me . M 570
are treating me . M 566
are putting on . M 560
are letting go . M 558
are sending it . M 556
are heirs to . M 556
are selling to . M 554
are beneath me . M 552
are calling us . M 544
area close by . M 540
are keeping up . M 536
are staying on . M 526
are failing us . M 522
are thinking it . M 516
are drawing on . M 514
are sending me . M 510
are working it . M 494
are sharing it . M 484
are saved as . M 484
are beaten up . M 482
are turning up . M 480
are known by . M 478
are built of . M 470
are stuck up . M 464
are passing on . M 464
are sitting on ? M 462
are based on ? M 462
are calling me ! M 458
are relying on . M 454
are fixed up . M 454
are breaking it . M 450
are shown in . M 446
are growing up ! M 446
are sitting up . M 444
are later on . M 444
are shown up . M 442
are hurting us . M 442
are closing up . M 438
are shaping it . M 434
are holding on . M 432
area might be . M 430
are freed up . M 420
are sending us . M 416
are proving it . M 416
are stuck on . M 408
are pushing it . M 408
are dated ca . M 408
are walking on . M 406
are failing me . M 406
are found in . M 402
area about it . M 400
are walking by . M 400
are known to . M 392
are about it ! M 390
are keeping it . M 388
are getting at ? M 384
are calling me ? M 384
area later on . M 382
are clearing up . M 380
are killing it . M 378
are given me . M 372
are denying it . M 372
are showing me . M 366
are resting on . M 366
are given in . M 366
are often so . M 362
are letting on . M 354
are moved up . M 348
are above it ? M 346
are chasing us . M 344
are writing on . M 338
arm beneath it . M 336
are showing it . M 336
are winning it . M 332
are holding me . M 332
area round it . M 322
are pushing me . M 320
are getting by . M 316
are fixed on . M 314
are dwelt on . M 312
are after me ? M 312
are under us . M 310
are built up ? M 306
are round me . M 304
are cheating me . M 304
are treating us . M 300
are thinking of ! M 300
are judging me . M 300
are abusing it . M 298
are close up . M 294
are parts of . M 292
are staying at . M 290
are praying to . M 290
are signs of . M 286
are joining it . M 286
are below me . M 286
are signing up . M 282
are blaming me . M 280
are running to . M 276
are putting it . M 276
are playing at . M 276
are playing at ? M 272
are close to ? M 272
are calling on . M 272
are testing it . M 270
are speaking up . M 270
are nearly up . M 270
are names of . M 270
are helping it . M 270
are found on . M 270
area under tea . M 268
are showing us . M 266
are putting to . M 264
area could be . M 260
are looking at ! M 260
are feeding it . M 260
are quite so . M 254
are growing on . M 252
are working in ? M 248
are known of . M 248
are causing me . M 244
are burning up ! M 244
are grown up ! M 242
are getting it ! M 242
are cutting it . M 242
are taken up ? M 240
are meeting it . M 238
are joining up . M 234
are breaking it ? M 234
are under the . M 232
are copying to . M 232
are breaking up ? M 232
are working to . M 230
are playing on . M 230
are drawing it . M 230
are party to . M 226
are taken to . M 224
are after us ? M 224
are betting on . M 220
are treating it . M 218
are seeking me . M 216
are looking on ? M 216
are testing me . M 214
are given as . M 214
are waiting on . M 212
are forcing me . M 212
are judging us . M 210
are moved to . M 206
are gaining it . M 206
are tried on . M 204
are hunting us . M 204
arm under it . M 202
are treading on . M 202
are hunting me . M 202
are found to . M 202
are causing us . M 202
are writing of . M 200
are hinting at ? M 200
are getting to . M 200
are alive to . M 198
are growing it . M 196
are drawing up . M 194
are still up ? M 192
are speaking it . M 192
are burning me ! M 192
are pushing on . M 190
are hitting me . M 190
are closing in ! M 190
are burning me . M 190
are keyed up . M 188
are aware of ! M 188
are speaking of ! M 184
are really on . M 184
are pushing us . M 184
are pushing up . M 184
are pulling it . M 182
are raising it . M 180
are guiding us . M 180
are feeding us . M 176
are within it ? M 174
are close by ? M 174
are about us ! M 174
are blowing up . M 172
are sitting at . M 170
are passing us . M 170
are stealing it . M 168
are aimed at ? M 168
are playing is ! M 166
are given the . M 166
are getting it ? M 166
are about is . M 166
arm above it . M 164
are fixed to . M 164
are backing it . M 164
are turning to . M 162
are missing me . M 162
are falling so ? M 162
are copying it . M 162
are about me ! M 162
are winding up . M 160
are spent on . M 160
are moved on . M 160
are looking to . M 160
are costing us . M 158
are beneath us ? M 158
area really is . M 156
are playing up . M 156
are running up . M 154
are pulling up . M 154
are really at . M 152
are cheating us . M 152
are reaching it . M 150
are headed up . M 150
are blown up ! M 150
are about us ? M 150
are about me ? M 150
are wound on . M 146
are showing me ? M 146
are passing it . M 146
are given up ? M 146
are wronging me . M 144
are guiding me . M 144
are chasing it . M 142
are shown it . M 140
arm stand up . M 138
are known as ? M 138
are hitting it . M 138
are below it ? M 138
are saved in . M 136
arm round it . M 134
are really so ? M 134
are reaching us . M 134
are healed up . M 134
are round us . M 132
are mixed up ! M 132
are grown on . M 132
are blowing it . M 132
arm round me ! M 130
are within the . M 128
are looking up ? M 128
are dreaming of ! M 128
are turning on . M 126
are teaching us ? M 126
are signing it . M 126
are lined up ? M 126
are cutting up . M 126
arm about it . M 124
are working on ! M 124
are warning us . M 124
are fully on . M 124
are breathing it . M 124
are quoting it . M 122
are moved by . M 122
are drawn up ? M 122
are obeying it . M 120
arc aware of . M 119
are killing us ? M 118
are headed to . M 118
are writing to ? M 116
are working up . M 116
are seated on . M 116
are passing by ! M 116
are helping me ? M 116
are harming us . M 116
are folding up . M 116
are feeding me . M 116
are dreaming it . M 116
are sworn to . M 114
are shown us . M 114
are abusing me . M 114
are sitting in ? M 112
are lacking it . M 112
are cried up . M 112
are burning it . M 112
are urged to . M 110
are reacting to ? M 110
are keeping me . M 110
are drawn to ? M 110
are staying on ? M 108
are short on . M 108
are right wing . M 108
are owned by . M 108
are based or . M 108
are backing me . M 108
are hurting me ? M 106
are treating me ! M 104
are pitying me . M 104
are learning it ? M 104
are guiding it . M 104
are filling it . M 104
are blaming us . M 104
arc above it . M 103
are above us ? M 102
are within me ? M 100
are slowing up . M 100
are sending to . M 100
area below us . M 98
are getting at ! M 98
are cheating me ! M 98
arm stood up . M 96
are working at ? M 96
are thrust up . M 96
are passing up . M 96
are passing by ? M 96
are meeting me . M 96
are lifting it . M 96
are holding up ? M 96
are still king . M 94
are knowing it . M 94
are keyed to . M 94
are testing us . M 92
are sending up . M 92
are really in ? M 92
are praying to ? M 92
are hurting it . M 92
are within me ! M 90
are waiting us . M 90
are taken at . M 90
are shown as . M 90
are selling at . M 90
are really me . M 90
are holding us . M 90
are forming up . M 90
are based on ! M 90
are about up . M 90
are writing it ? M 88
are within us ? M 88
are right to . M 88
are proud of ! M 88
are happy to . M 88
arm within it . M 86
area opens up . M 86
are treating me ? M 86
are right on ! M 86
are mixed up ? M 86
are loved by . M 86
are forming it . M 86
are breaking me . M 86
are warning me . M 84
are stuck to . M 84
are saved by . M 84
are joining me . M 84
are chasing us ! M 84
are warning me ? M 82
are taken in ! M 82
are short of ? M 82
are seeking it ? M 82
are reaching me . M 82
are needing it . M 82
are joining us ? M 82
are built in ? M 82
are adept at . M 82
arm fails me . M 80
are willing to ? M 80
are sending me ? M 80
are selling us . M 80
are pouring in ! M 80
are copying us . M 80
are blaming me ! M 80
arc about it . M 41
