are we going ? M 228260
are in use . M 106826
are my own . M 96284
arm in arm . M 55050
are we doing ? M 51991
are we now ? M 46013
area to area . M 32033
are at war . M 30130
are we not ? M 26782
arm or leg . M 24102
area of law . M 16464
are in him . M 16186
are of god . M 14516
are to you . M 12678
are at one . M 12300
are in them . M 12200
are so few . M 12070
are on earth . M 10760
are the key . M 10094
are or not . M 9414
are of them . M 8948
are to him . M 8618
are to them . M 8588
arm in his . M 8579
are as one . M 8540
are we all . M 8432
are in death . M 8282
are my son . M 8234
are so low . M 7894
are in god . M 7806
are the men ? M 7522
are so bad . M 7392
are in now . M 7054
are the man . M 6832
area at all . M 6706
are the dead . M 6152
are the men . M 5750
are of use . M 5520
are to act . M 5280
are on top . M 5122
are to die . M 5088
are the one . M 5060
are my god . M 5020
are of age . M 4666
are to use . M 4350
are the man ! M 4070
are so long . M 3830
are the law . M 3744
are in red . M 3632
are in you . M 3610
are on you . M 3594
are the dead ? M 3586
are so weak . M 3580
are on them . M 3524
are of him . M 3494
are we then ? M 3432
are at ease . M 3432
are so big . M 3392
are to god . M 3384
arm to her . M 3348
area or not . M 3253
are by him . M 3126
are on him . M 3064
arm of god . M 3034
are of you . M 2942
are to see . M 2900
are so too . M 2852
are to her . M 2804
are in for . M 2736
area by area . M 2727
are to read . M 2650
are in man . M 2590
are no use . M 2570
arm to arm . M 2540
are so near . M 2528
are to say . M 2432
are to men . M 2390
area of use . M 2378
area on earth . M 2360
are in use ? M 2308
are at all . M 2280
are we eating ? M 2152
arm at all . M 2151
are so old . M 2106
are to run . M 2082
are to win . M 2054
are in this . M 2024
are no men . M 1990
are to pay . M 1966
are my men . M 1860
are so sad . M 1830
are so dear . M 1826
are in heat . M 1814
are we for ? M 1786
are in all . M 1786
are to lead . M 1710
area of each . M 1700
are so now . M 1698
are the two ? M 1682
are at war ! M 1650
are so easy . M 1600
are the head . M 1598
are we men ? M 1576
are in one . M 1554
are in being . M 1526
are at war ? M 1522
are of men . M 1414
are of her . M 1414
are the end . M 1376
area of sky . M 1312
area to dry . M 1294
are as bad . M 1294
are to get . M 1292
are we going . M 1282
area of all . M 1256
are the ten ? M 1256
area is low . M 1254
are we dead ? M 1244
are the things . M 1232
are to deal . M 1214
are my man . M 1214
arm of each . M 1190
are in men . M 1182
are my age . M 1176
are to sit . M 1174
are of oak . M 1150
are my son ! M 1126
are we using ? M 1112
are on her . M 1106
are the few . M 1104
are no dead . M 1100
are the way . M 1088
are to you ? M 1086
are at now . M 1080
are my men ? M 1072
arm to him . M 1068
arm of man . M 1064
are to hear . M 1060
are so real . M 1050
are in each . M 1046
are in sin . M 1038
area of man . M 1030
are the earth . M 1028
are in now ? M 1028
are the two . M 1024
are the one ! M 1022
are so mean . M 1020
are my things ? M 996
area so far . M 992
are in her . M 988
are in both . M 986
area in man . M 982
are at end . M 964
are to man . M 962
are the sun . M 932
are so new . M 926
are to buy . M 924
are to bear . M 922
are in earth . M 914
are so bad ? M 904
area of war . M 898
are on now . M 894
arm or leg ? M 873
are in air . M 864
are to end . M 842
are the men ! M 842
are so big ! M 836
are so bad ! M 830
arm of war . M 826
area of earth . M 820
are to try . M 818
are in bud . M 816
are by now . M 816
are in fear . M 810
are the wings . M 806
are we all ! M 798
are the kings . M 784
are my god ! M 784
are in that . M 756
are the dead ! M 744
are so ill . M 744
are at that . M 742
are or not ? M 734
are on this . M 734
are to you ! M 730
are to ask . M 722
are so few ! M 714
are so odd . M 700
are of this . M 698
are in add . M 698
are my own ! M 696
arm of death . M 690
are of earth . M 682
are no one . M 678
area is dry . M 662
are so far . M 662
arm at him . M 649
are in war . M 648
are in his . M 646
are so doing . M 644
arm in arm ! M 634
are so shy . M 634
are on earth ? M 616
are in awe . M 616
are we all ? M 612
are so few ? M 610
arm is long . M 608
are of lead . M 608
are my things . M 594
are on you ! M 582
arm at her . M 581
arm in arm ? M 578
are my joy . M 574
area is not . M 570
are to fit . M 560
are the real . M 554
are to die ! M 552
are the old . M 552
arm of law . M 550
are of death . M 550
arc in air . M 547
are we off ? M 546
are in death ! M 544
are my foes ! M 542
are in them ? M 542
are so low ? M 540
are so dry . M 534
are of them ! M 534
are the seat . M 530
are as men . M 530
are my all . M 526
are to lie . M 524
are by men . M 520
are to let . M 518
are the weak . M 504
area on top . M 500
area of aging . M 500
are by them . M 498
are we one ? M 496
are in things . M 486
arm on top . M 474
area to them . M 470
are we now . M 464
arm on him . M 463
area by now . M 462
are the day . M 460
are on earth ! M 456
are the bad . M 450
are of each . M 450
are so weak ! M 446
are my job . M 446
are no things . M 442
are my kin . M 442
area at all ? M 440
area in two . M 438
are the aim . M 438
area as yet . M 434
are so red . M 432
are we set ? M 430
are the new . M 430
arm on his . M 428
are by day . M 420
are we mad ? M 418
arm or not . M 417
are to this . M 416
are so weak ? M 416
are to him ? M 410
are the things ? M 408
are of god ! M 408
are to his . M 406
are so wet . M 406
are of his . M 406
arm of his . M 404
are to them ? M 404
are the six ? M 404
are so long ! M 404
area of law ? M 402
are no wings . M 400
area to heal . M 398
area or both . M 391
are we near ? M 390
are the sky . M 388
are so sad ? M 386
are of god ? M 386
area by then . M 384
are to death . M 382
are so dead . M 382
are up now . M 380
are to die ? M 380
are as old . M 380
are in may . M 378
are to mean . M 376
are on oath . M 376
are in him ! M 376
arm in man . M 372
are we going ! M 372
are we sad . M 368
arm is weak . M 360
are to him ! M 360
are we doing . M 358
are the few ? M 358
are my foes . M 358
arm or head . M 354
area of math . M 354
are to them ! M 350
are to heal . M 350
are my son ? M 350
are so big ? M 344
are the poem . M 340
are of man . M 340
are the team . M 334
are no man . M 334
arc of sky . M 334
are at this . M 332
are in law . M 330
are an aid . M 330
are to day . M 326
area of death . M 324
are in hex . M 322
are we weak ? M 320
are so near ? M 320
arm at them . M 316
are to aim . M 310
area in use . M 308
are to see ? M 304
are we not . M 300
are at all ? M 300
arm or two . M 299
are so mean ! M 296
are on top ! M 292
are in this ? M 292
are we led ? M 284
are to wed . M 284
are so old ! M 284
area or not ? M 278
are to god ? M 278
are in him ? M 278
are we dying ? M 276
are the old ? M 276
area to use . M 274
are to fly . M 274
are my boy . M 274
area to area ? M 272
are the one ? M 272
are so set . M 270
are in each ? M 270
are to bring . M 268
arm in war . M 266
area to him . M 266
area of one . M 266
area in may . M 264
are we doing ! M 264
are the wings ? M 264
are the bad ? M 264
are the kings ? M 262
are of them ? M 262
are in gear . M 262
area of being . M 260
are to act ? M 256
are no dead ! M 256
arc in use . M 256
are by law . M 254
arm to them . M 252
arm it was . M 252
are to fix . M 252
are so old ? M 252
are on them ? M 252
are as dead . M 252
area is weak . M 250
are on going . M 250
are to cling . M 248
are my man ! M 248
are at him . M 248
area is easy . M 246
area as this . M 246
are so long ? M 244
are at ease ! M 244
arc my own . M 244
are on his . M 240
are in now ! M 240
are in app . M 240
are the key ! M 236
are so sad ! M 236
are as yet . M 236
are to hear ? M 234
are the path . M 234
are so dear ! M 234
area of them . M 232
area it was . M 232
are on that . M 230
are on now ? M 230
are of war . M 230
are my team . M 230
arm in two . M 228
are of you ! M 228
arm so bad . M 226
are to lead ? M 226
are in yet . M 226
are at www . M 226
are at them . M 226
arm to each . M 224
are on heat . M 224
are in them ! M 224
are in act . M 224
are to one . M 222
are my dear . M 222
are in all ? M 222
area of bar . M 220
are to both . M 220
are so yet . M 220
are so mad . M 220
area of cut . M 218
are no myth . M 218
are my own ? M 218
area of eating . M 216
are no kings . M 216
are by her . M 216
area is one . M 214
area is new . M 214
are or why . M 212
arm to heal . M 210
are we men ! M 210
are to fear . M 210
are so dim . M 210
area of each ? M 208
area do not . M 208
are up too . M 208
are of one . M 208
area of head . M 206
are my law . M 206
are up yet . M 204
are of two . M 204
are of age ? M 204
are in for ! M 204
are to hang . M 202
are the god . M 202
are of you ? M 202
are my foes ? M 202
are my meat . M 200
arm of god ! M 198
arm is doing . M 198
are we sad ? M 198
are the son . M 198
are the man ? M 198
are the rings . M 196
area in men . M 194
are to use ? M 194
are so near ! M 194
are on top ? M 194
area to you . M 192
are on them ! M 192
are an idea . M 192
area or that . M 190
area is this ? M 188
are to reap . M 188
are the rings ? M 188
are the east . M 188
arm in fear . M 186
are in god ? M 186
are the age ? M 184
arm of death ! M 182
area of myth . M 182
are the poet . M 182
are my lot . M 182
are by you . M 182
are as real . M 182
arc at all . M 181
are my wings . M 180
are to see ! M 178
are in for ? M 178
arm on her . M 177
are we now ! M 176
are to sin . M 176
are the red . M 176
are no sin . M 176
are my doing . M 176
are in song . M 176
are by air . M 176
arm to his . M 174
arm is not . M 174
are the six . M 172
are the law ! M 172
are the boy . M 172
are of kin . M 172
are of dying . M 172
are at law . M 172
are at ease ? M 172
area by man . M 168
are so apt . M 168
are at top . M 168
arm of god ? M 166
area in red . M 166
are to all . M 166
are the web . M 166
are in one ? M 166
are at one ? M 166
arm on you . M 164
arm of man ? M 164
area of sin . M 164
are the war . M 164
are or not ! M 164
are on you ? M 164
are of aid . M 164
are no end . M 164
are my men ! M 164
are my due . M 164
area of pay . M 162
area in cat . M 162
area by air . M 162
are the meat . M 162
are on air . M 162
are my wings ? M 162
arm of one . M 160
are the song . M 160
are the mean . M 160
are on god . M 160
are of that . M 160
are of him ! M 160
area is put . M 158
area in each . M 158
area by day . M 158
are so easy ! M 158
are to that . M 156
are to kings . M 156
are to get ? M 156
are to cut . M 156
are no men ? M 156
area of red . M 154
are the meal ? M 154
are in that ? M 154
arm on them . M 152
arm he has ! M 152
are the top . M 152
are as one ! M 152
are an end . M 150
arm the men . M 149
are to end ? M 148
are the weak ? M 148
are the fit . M 148
are in you ! M 148
area to air . M 146
are we not ! M 146
are to god ! M 146
are to her ? M 144
are on men . M 144
are in tow . M 144
are my sun . M 142
are in this ! M 142
arc of death . M 142
are to say ? M 140
are the dog . M 140
are of her ! M 140
are in idea . M 140
are by god . M 140
area is wet . M 138
are we are . M 138
are of ash . M 138
are no man ! M 138
are in you ? M 138
arc to arc . M 137
are to deal ? M 136
are of him ? M 136
are no men ! M 136
are at now ? M 136
area to die . M 134
area is that ? M 134
area is red . M 134
area as one . M 134
are or mean . M 134
are of old . M 134
are in her ? M 134
are to rear . M 132
are so low ! M 132
are we thus ? M 130
are the ego . M 130
are on him ! M 130
are is not . M 130
are to read ? M 128
are the sum . M 128
are on one . M 128
are in two . M 128
arm to use . M 127
are of her ? M 126
are we real ? M 124
are the aging ? M 124
are of both . M 124
are my things ! M 124
are in math . M 124
are in joy . M 124
area to hear . M 122
area of web . M 122
area is set . M 122
are the idea . M 122
are so odd ! M 122
area or two . M 120
area is cut . M 120
are so ill ? M 120
arc we going ? M 120
are of things . M 118
are as new . M 118
arm or leg ! M 116
are the two ! M 116
are the ten . M 116
are so dear ? M 116
are no use ! M 116
are my woes . M 116
are at six . M 116
area of men . M 114
are up for . M 114
are to war . M 114
are the air . M 114
are in oak . M 114
arm to leg . M 113
are we two ? M 112
are to add . M 112
are so dead ! M 112
are on end . M 112
are no bar . M 112
area is now . M 110
area is bad . M 110
are of use ? M 110
are no poet . M 110
are my song . M 110
arm to you . M 108
are the meal . M 108
are the end ! M 108
are to her ! M 106
are to heat . M 106
are to bow . M 106
are the cat . M 106
are in use ! M 106
are in any . M 106
area to each . M 104
are we singing ? M 104
are in age . M 104
are at one ! M 104
arm at that . M 102
are to aid . M 102
are the boy ! M 102
are the all . M 102
are of being . M 102
arm or both . M 100
area to see . M 100
area to her . M 100
area of fear . M 100
are so red ! M 100
are on each . M 100
are on both . M 100
are by now ? M 100
are as one ? M 100
arm is this ? M 98
area is nil . M 98
are we men . M 98
are the led . M 98
are my kin ? M 98
area or die . M 96
area of things . M 96
area of both . M 96
area at that . M 96
are no kin . M 96
area to heat . M 94
area or beat . M 94
are my age ? M 94
are at all ! M 94
area is doing . M 92
area as you . M 92
are we being ? M 92
are by this . M 92
are as dead ! M 92
are an act . M 92
arm he had . M 90
area by far . M 90
are to earth . M 90
area at all ! M 88
are we beat ? M 88
are to bear ? M 88
are the head ? M 88
area to sit . M 86
area of air . M 86
area by two . M 86
are we due ? M 86
are so real ! M 86
are my eye . M 86
are my bag . M 86
are in death ? M 86
arm of kings . M 84
are to pay ? M 84
are to men ? M 84
are on things . M 84
are in war ? M 84
arm is off . M 82
are to dying . M 82
are so too ? M 82
are of sin . M 82
are in singing . M 82
are we out ? M 80
are we both ? M 80
are of that ? M 80
arc to earth . M 45
