are not we ? M 146286
are doing it . M 65496
are going on . M 42604
are set up . M 41734
are not so . M 41700
are you on ? M 40395
are you in ? M 37459
are with us . M 36182
are with me . M 35378
are doing so . M 32078
are using it . M 14424
are going up . M 13638
are going to . M 11156
are one thing . M 9888
are for us . M 8184
are for me . M 7934
are put on . M 7268
are for it . M 6450
are you up ? M 5826
are you at ? M 5732
are and do . M 5680
are they in ? M 4634
are put up . M 3960
are not me . M 3636
are with it . M 3232
are doing it ? M 3168
are they so ? M 3060
are not we . M 3046
are near by . M 2926
are near it . M 2844
are let go . M 2642
are going to ? M 2500
are put to . M 2352
are near me . M 2306
are they on ? M 2230
are with me ? M 2200
are not so ? M 2162
are doing it ! M 2000
are not us . M 1998
are going on ? M 1984
are not it . M 1854
are not he . M 1676
are with us ! M 1670
arm with it . M 1645
are going by . M 1400
are you he ? M 1394
are with me ! M 1390
are hung up . M 1376
are near us . M 1328
area for me . M 1268
are you of ? M 1242
are eating it . M 1222
are with us ? M 1194
area for us . M 1116
are lit up . M 1112
are cut up . M 1062
are now on . M 1014
are apt to . M 1012
are not we ! M 1004
are for me ? M 990
are not on . M 966
are you so ? M 962
are now in ? M 922
are bid up . M 894
are all so . M 868
are way up . M 844
are doing so ? M 844
are for me ! M 832
are not to . M 814
are due to . M 792
are now at . M 782
are they at ? M 780
are all up . M 738
are going on ! M 696
are not up . M 674
arm out at . M 664
are all on . M 660
are set to . M 624
are they of ? M 602
arm for me . M 593
arm goes up . M 590
area may be . M 582
are not me ! M 580
are doing me . M 578
area with it . M 565
area for it . M 552
are not the . M 544
are both on . M 536
are set up ? M 522
are lying on . M 520
are not so ! M 518
are using it ? M 516
are going to ! M 478
area can be . M 460
are out of . M 446
are for us ? M 436
are set on . M 434
are going up ! M 430
are got up . M 426
are going up ? M 410
are using me . M 408
are they up ? M 402
area with me . M 390
arm for it . M 377
are for us ! M 368
are singing it . M 364
are our king . M 362
are all in ? M 356
are you on . M 338
are using the . M 326
are they us ? M 316
are off it . M 312
are for the . M 310
are not it ? M 308
are for it ? M 306
are not as . M 302
are all is . M 302
are read to . M 296
are due me . M 292
arm for me ? M 280
are not by . M 268
are led to . M 264
are read is . M 254
are going it . M 254
are you do . M 250
are going in ? M 244
are not of . M 238
are for it ! M 234
are doing so ! M 228
are all me . M 228
are mad at . M 226
are going it ! M 224
arm with me . M 218
are run on . M 216
are not in . M 214
are going in ! M 214
are using us . M 212
are now up . M 212
are dead on . M 210
arm off me . M 208
are bad at . M 208
are all the . M 204
are put on ? M 202
are not in ? M 198
are put in ? M 196
are near me ! M 196
are both up . M 196
are and is . M 194
are near it ? M 192
are you me ? M 190
area with us . M 184
are all in ! M 184
area near by . M 180
are run up . M 176
are and do ? M 176
are not at . M 174
are set at . M 172
are off to ? M 170
are that thing . M 168
arc not so . M 168
area near it . M 166
are both so . M 164
are they no ? M 162
are than we . M 160
arm going up . M 158
are owing to ? M 156
are new to . M 150
are than me . M 148
arm can do . M 146
are they so . M 146
are eating me . M 146
are using up . M 140
are not me ? M 140
are due us . M 140
area was ca . M 136
are put by . M 136
are one up . M 136
are now in ! M 134
are his thing . M 132
are they by ? M 130
are off to . M 130
area that is . M 128
are you king ? M 128
are got to . M 128
are doing me ! M 128
area this is . M 126
are use to . M 126
arc going on . M 126
are with it ! M 124
are set in ? M 124
are not king . M 122
area goes up . M 120
are now so . M 118
are you on ! M 116
are going by ! M 116
are dead to . M 116
are using it ! M 114
are not he ! M 114
are led by . M 114
are due it . M 112
arm for us . M 111
are now to . M 110
are doing us . M 110
are any thing . M 110
are you it ? M 108
are dying of . M 108
are all of . M 106
are that do . M 104
are not of ? M 104
are got on . M 104
are with it ? M 102
are now in . M 102
are doing is . M 102
are all so ! M 102
are who do . M 100
are one of . M 100
are not he ? M 100
are not us ? M 96
are led on . M 96
arc with us . M 96
arc with it . M 95
area did so . M 94
are near me ? M 94
are hung on . M 94
are eating it ? M 94
are all at . M 94
area set up . M 92
are due to ? M 92
arc doing it . M 91
are all us . M 90
are but the . M 88
are any so . M 88
area lit up . M 86
are not in ! M 86
are easing up . M 86
are dying to . M 84
are run by . M 82
are our foe . M 82
are not on ? M 82
are near by ? M 82
are put to ? M 80
are both me . M 80
arc set up . M 80
