army war college . M 15622
army was defeated . M 4912
areas for research . M 4156
areas and volumes . M 3914
army air service . M 3460
areas are covered . M 2272
army map service . M 2130
arms for balance . M 1982
areas are located . M 1866
arms for support . M 1784
arms for silence . M 1492
army was divided . M 1458
army had arrived . M 1450
arms and letters . M 1264
army was advancing . M 1188
arms and laughed . M 1178
areas are present . M 1164
army and country . M 976
arms for comfort . M 920
arms with victory . M 910
army and society . M 882
areas are limited . M 876
army for support . M 868
areas they inhabit . M 830
areas are similar . M 748
army was reduced . M 742
arms and shouted . M 742
areas they control . M 724
arms and tactics . M 704
arms and violence . M 686
army had crossed . M 658
areas and buildings . M 632
arms for defence . M 628
areas for concern . M 624
areas being studied . M 624
arms and treasure . M 612
areas are visible . M 552
arms for defense . M 540
arms and abdomen . M 520
areas are defined . M 516
areas are exposed . M 504
areas are removed . M 470
army was located . M 464
areas and schools . M 462
areas for decades . M 460
areas are avoided . M 460
areas and species . M 456
arms are crossed . M 454
army for defense . M 440
areas are evident . M 426
arms and colours . M 424
army was gathered . M 416
arms they carried . M 414
army may require . M 412
army for himself . M 408
army was present . M 406
areas they visited . M 402
areas and gardens . M 398
areas are increasing . M 394
areas and forests . M 384
army put together . M 382
areas are damaged . M 382
arms and devices . M 366
areas are related . M 348
arms and numbers . M 346
arms and support . M 340
areas was limited . M 338
areas are unknown . M 332
areas they covered . M 326
arms and material . M 314
army with success . M 312
army was trapped . M 308
areas not covered . M 308
areas are studied . M 308
arms was sounded . M 298
arms and service . M 298
areas and objects . M 298
arms are lowered . M 294
army had retired . M 290
arms and groaned . M 288
areas are measured . M 288
areas and classes . M 288
arms with success . M 284
arms and uniform . M 282
army was ordered . M 280
army had escaped . M 280
arms and blessed . M 278
areas may develop . M 278
arch was erected . M 278
areas are reduced . M 276
areas put together . M 268
areas for support . M 266
arms for liberty . M 264
army was drowned . M 260
arms was useless . M 260
army and congress . M 258
arms had subdued . M 254
arms and animals . M 252
areas are omitted . M 252
army and himself . M 242
arms are visible . M 240
areas for example . M 240
areas are ignored . M 232
army was offered . M 228
army for defence . M 228
army was adopted . M 224
arms hang loosely . M 216
areas are offered . M 204
areas are planned . M 202
army has arrived . M 196
areas was minimal . M 196
areas and systems . M 192
army was founded . M 190
army was exposed . M 188
arms and everything . M 188
arms with delight . M 186
army was operating . M 180
arms and watched . M 180
army was assured . M 178
arms and spirits . M 178
arms and embrace . M 176
arms for himself . M 172
army and capital . M 170
arms are present . M 168
arms and initials . M 168
arms and friends . M 166
areas are expanding . M 162
areas are divided . M 162
areas and centres . M 162
army was weakened . M 160
arms and religion . M 160
areas are revealed . M 160
arms had arrived . M 156
areas they address . M 156
areas are invited . M 154
areas and valleys . M 154
areas and resorts . M 154
army was supreme . M 152
areas was reduced . M 152
areas are minimal . M 152
areas and centers . M 152
areas and aspects . M 152
army had gathered . M 150
army was stopped . M 146
arms for freedom . M 146
areas are desired . M 146
areas and shadows . M 144
areas and pathways . M 144
areas for revision . M 142
areas are managed . M 142
areas was adopted . M 138
army was unknown . M 136
army was intense . M 136
army and religion . M 136
areas was similar . M 134
areas are complex . M 134
army was visible . M 132
arms with violence . M 132
arms and stopped . M 132
army was secured . M 130
arms are covered . M 130
arms and harness . M 130
army was removed . M 128
arms and victory . M 128
army was certain . M 126
arms are removed . M 126
arms and origins . M 126
areas and persons . M 126
arms are unequal . M 124
areas they claimed . M 124
areas are helpful . M 122
areas they studied . M 120
areas can develop . M 120
arms and expired . M 118
areas with success . M 118
areas they service . M 118
arch was removed . M 118
arms was granted . M 116
areas are counted . M 116
areas and domains . M 116
arch for support . M 116
areas too quickly . M 114
army was useless . M 112
army was limited . M 112
areas for success . M 112
arms and culture . M 110
areas can provide . M 110
army was subdued . M 108
army with despair . M 106
army was defeated ? M 106
arms for shelter . M 106
areas and numbers . M 106
army was perfect . M 104
areas was started . M 104
areas for himself . M 104
areas and details . M 104
army was extreme . M 102
army can advance . M 102
arms and effects . M 102
arms and advance . M 102
areas was studied . M 102
areas are typical . M 102
areas are blocked . M 102
areas are applied . M 102
arch and pleasant . M 102
army was madness . M 100
army was checked . M 100
army had appeared . M 100
army for success . M 100
arms are useless . M 100
areas was increasing . M 100
areas has widened . M 100
areas being measured . M 100
areas are declining . M 100
army was delayed . M 98
army off balance . M 98
arms and pointed . M 98
army was trained . M 96
arms was assured . M 96
arms are shorter . M 96
areas for workers . M 96
areas are grouped . M 96
arms and withdraw . M 94
areas was evident . M 94
areas and sources . M 94
arch was visible . M 94
army was everything . M 92
army was capable . M 92
areas and grounds . M 92
arch and columns . M 92
arms are exposed . M 90
areas they enclose . M 90
areas are touched . M 90
areas and outside . M 90
army was suffering . M 88
army was resumed . M 88
arms and persons . M 88
arms and dropped . M 88
areas being covered . M 88
army was increasing . M 86
arms and vessels . M 86
arms and belongings . M 86
areas they discuss . M 86
areas far removed . M 86
areas and strengths . M 86
army with respect . M 84
army war college ? M 84
army and schools . M 84
areas for control . M 84
army with victory . M 82
army was granted . M 82
areas may increase . M 82
army was following . M 80
arms was removed . M 80
areas are crowded . M 80
