cried out to him M 37498
cried out to god M 26287
cried all the way M 19294
cried out to his M 18104
cried out in his M 15228
cried out to her M 14986
cried out to them M 12224
create his or her M 11894
cried out in her M 9318
crime and the law M 8665
cried out in fear M 8546
cried out as she M 7574
cried one of them M 6888
cries out to god M 6801
crowd was on its M 4590
crawl out of his M 4276
crime and the fear M 4038
cross with me for M 3996
cries out to him M 3900
cries out in his M 3808
crime that he had M 3576
cries out to his M 3428
crime and the man M 3393
cried out to you M 3296
cried out as they M 3068
crowd that he had M 2966
crowd that he was M 2957
crowd that it was M 2884
creating his or her M 2842
cried that he was M 2788
crime that is not M 2590
cried out in joy M 2454
cried that it was M 2450
cries out to her M 2380
cried out as his M 2370
cross that he had M 2333
cried out at him M 2308
crime that he was M 2264
crawl all the way M 2242
create one or two M 2130
cried one of his M 2002
cries out in her M 1992
cries out to you M 1983
cried out as her M 1924
cross and the red M 1893
cried out at this M 1880
crown and the two M 1873
cries out to them M 1784
crime that he has M 1748
crime that he did M 1716
create one of his M 1714
crown that he had M 1680
create out of his M 1590
creating man in his M 1558
cried out it was M 1544
cried out to one M 1462
crawl out of her M 1452
crime and the use M 1438
crawl out of that M 1438
crown for the use M 1434
create man in his M 1398
cried that he had M 1374
crawl out of this M 1328
cross out the one M 1315
crawl out of its M 1280
crime and the new M 1278
crowd with an air M 1268
crown out of his M 1237
cried out in one M 1222
create out of them M 1218
crime than the one M 1217
cruel death of his M 1192
cross and the two M 1190
cross and in his M 1186
cried with an oath M 1182
crawl out of our M 1177
cried out at his M 1172
cried out at her M 1168
cross all the way M 1163
cross with me and M 1116
cried out as one M 1112
crowd and it was M 1102
cried out to each M 1076
cried out at that M 1071
cries out in fear M 1061
crime and is not M 1032
cross that he was M 1002
cross and the air M 988
cried out to all M 982
creating one of his M 977
cried out in its M 972
create out of our M 938
cross his or her M 937
crowd out the old M 934
crown and the new M 925
create out of its M 916
crown and of his M 914
cross out the old M 905
crime that is being M 904
cross out the two M 877
cross for me and M 871
cross and it was M 865
create out of this M 852
cried out in that M 850
craving for the new M 839
cried out the old M 836
cries that he was M 828
cries out in its M 825
crown and of its M 800
cross and the new M 792
crowd was so big M 790
cross him in his M 790
crime and do not M 784
crime and it was M 782
cross that we may M 777
cruel than the old M 774
crown was on his M 760
cruel things to her M 758
cried out so that M 756
create god in our M 756
crown that it was M 744
crown and it was M 730
crowd was at its M 730
create man in our M 726
cruel use of his M 718
crime that it was M 716
crowd had by this M 712
crime and he was M 706
cross and the death M 697
crowd and he was M 696
crown that he was M 692
cruel that it may M 688
crown and to his M 683
crown and the east M 683
cross out of his M 678
creating one or two M 673
cried out to our M 668
cross for us and M 648
crime and the way M 644
cruel not to let M 640
cross that it was M 640
cross but do not M 632
crime that we are M 632
cries out of his M 632
crowd all the way M 631
creating that he had M 630
create who we are M 630
cried out on him M 624
crown and the law M 612
cruel death of her M 610
crime and to bring M 610
cried with me and M 608
cries all the way M 604
crowd that if they M 600
cross one of them M 600
cross was in his M 598
cross that we are M 596
create this or that M 593
crown and the head M 588
create and do not M 588
cries that it was M 580
cross him in any M 578
cried out in this M 572
cried for so long M 572
crack with the heat M 568
cried with an air M 560
crack all the way M 560
cried out we had M 554
craving for it and M 554
cruel than the men M 548
cried out he was M 540
crime may or may M 536
creating out of his M 536
cross and the sun M 534
cross for the joy M 532
cross that we can M 531
cross and do not M 531
cried and so did M 528
create and to use M 526
cross for the sin M 516
crime who is not M 516
cried out on his M 516
crown that on his M 513
cried one or two M 510
crown and the red M 508
creating out of them M 508
cried out in him M 506
crowd who do not M 502
crowd and the heat M 502
cried out on her M 500
crime that no one M 499
crowd and do not M 498
crime and an act M 496
crown and he was M 494
cross with the red M 491
cries out to all M 491
cross and the age M 490
cried out as with M 490
crown for the head M 487
cross out of two M 478
crime that he can M 478
create all the things M 476
crown that it had M 470
cried one thing and M 464
cries one of them M 459
cruel that he was M 456
cried one of our M 456
create them if they M 450
cried out he had M 446
craving for it was M 446
crime was an act M 444
crime that it has M 442
cross and of his M 440
cries that he has M 438
crowd that we had M 433
crawl out of them M 433
create them in our M 432
cross one or two M 426
create one of its M 424
crack and the box M 424
crime and the death M 422
cross and he was M 418
creating out of this M 418
crown and in his M 414
cross with the two M 414
create for the new M 412
crowd and no one M 409
cross and the war M 407
crown had to pay M 406
crime may be thus M 404
cried out of her M 400
crime and of his M 398
cried and it was M 396
create one of our M 394
cross for us all M 392
cross was the one M 389
cried out at one M 388
crime that he may M 386
create all of this M 386
crawl out on all M 386
cruel that it was M 382
cross and the way M 382
cries that he had M 382
cried out at them M 380
create her or his M 378
create out of that M 377
creating god in his M 376
crown for the sum M 374
cries out as she M 374
crime was in being M 372
crown and the long M 370
cruel things he had M 368
crime and the war M 368
create them in his M 368
craving for the things M 368
crime and of its M 366
crown and of our M 364
create one of two M 364
crowd that he did M 362
creating god in our M 362
crowd that is not M 361
cried out to see M 360
cried out the man M 360
cries out in joy M 358
crack out of you M 358
crowd than the one M 356
cross and the boy M 356
cried out to this M 356
crime was at its M 354
cruel than the one M 353
crowd out of his M 353
crime and no one M 349
cruel one at that M 348
cross and the old M 347
crowd was an old M 346
crown out of any M 342
crown and of all M 342
cries out in one M 342
cried him up and M 342
crown and to its M 337
crime that the law M 333
crown was on her M 330
crime may be due M 330
crowd but it was M 329
crowd had no idea M 328
create one of her M 328
craving for the old M 327
crown was in his M 326
cruel things to him M 324
cruel things to each M 322
cried him up for M 322
cried for the death M 320
crime and he had M 318
create for us that M 318
crown was at that M 314
cried out at our M 314
creating them in his M 314
create them by using M 314
crack and it was M 314
crime that do not M 312
cross with the head M 311
cried out in all M 309
crowd that no one M 308
cross with the old M 306
crime and the one M 304
cross was on his M 302
cross for my sin M 302
crime than it was M 302
create all of our M 302
crash and it was M 302
crowd and the two M 300
crowd and the old M 300
creating him in his M 300
cries for the dead M 297
crime but an act M 296
cruel things to you M 294
crowd and he had M 294
crime that we can M 294
cried for the man M 294
create for us new M 294
create them so that M 292
cross one by one M 291
craving for it that M 291
create one by using M 290
cried that he saw M 288
cross was the way M 287
cruel act of his M 286
cried out in real M 286
cross out the things M 285
crowd and the man M 282
cross and is now M 282
cried out on all M 282
creating out of its M 282
cried out of his M 280
create god in his M 280
crown and no one M 279
cried one of her M 278
craving for the real M 278
cruel than it was M 276
crown out of her M 276
crime may be one M 275
crowd that he has M 274
cried out of fear M 274
create out of her M 274
cross with us for M 273
crowd that he and M 272
cross any of them M 272
crime but is not M 272
cries for the death M 269
crash and the death M 269
crown off the head M 268
cross that is not M 268
cried and the men M 268
cried for the dead M 267
cruel and it was M 266
crime that is now M 266
crime not to use M 266
crawl out of one M 266
cruel but it was M 264
crime but do not M 264
cries out to its M 264
cried all the men M 264
creating them is not M 264
crack near the top M 264
cross not my path M 263
creating one of its M 263
cruel was he that M 262
crowd was on his M 262
creating them at all M 262
crime and it has M 260
crawl out on his M 258
crown and the real M 256
cried out on god M 256
cross and he had M 255
create them at all M 254
crowd had by now M 252
crowd got up and M 252
cross are the two M 251
crime was in his M 250
cried out in our M 250
create one if you M 250
crash put an end M 250
crown and the old M 248
crowd than he had M 248
create and the way M 248
cross with me any M 247
crash and he was M 247
cruel that he had M 246
crown set on his M 246
cruel foes to our M 244
crown may at any M 244
cries out at one M 244
crown was so far M 242
cross near the top M 242
cried out at being M 242
cross was to them M 238
creating one of her M 238
crown for my head M 236
cross that he has M 236
crime than he had M 236
crime and is now M 236
crowd was by now M 232
cross and the one M 232
crime was to them M 232
cried out the boy M 232
create and is not M 232
crowd got to its M 231
cross hung at his M 230
cries out in this M 230
create them in any M 230
create one of them M 230
crack one or two M 228
crime that it did M 226
cried that he did M 226
create all the new M 226
create all of them M 226
crown and is not M 224
crowd that it had M 224
create any of them M 224
crown had at its M 222
crown and do not M 222
cross with the aid M 222
cried and he was M 222
create with the aid M 222
crack that he had M 221
cried for the joy M 220
create them as you M 220
crown put on his M 218
crime and the age M 218
creating act of god M 218
crack one of his M 218
cross and by his M 216
crime lay in his M 216
cruel was my death M 214
crowd one by one M 214
create one of each M 214
crime for the year M 212
cries that he can M 211
cried out in awe M 211
crowd and the way M 210
cries one of his M 210
cried out to let M 210
cried out on them M 210
cross and the head M 209
crown that is not M 208
crime they do not M 208
cried out at all M 208
crown and he had M 207
cross one of his M 207
crack and eat them M 207
crown was at its M 206
crown for the new M 206
crown and the top M 206
crime out of fear M 206
cruel way to die M 204
crowd with the aid M 204
crowd out to see M 204
cross was in use M 204
cross and the near M 204
create man at all M 204
crown but it was M 200
crowd with the air M 200
crime was to try M 200
crown was at this M 198
crowd for the man M 198
cried fear at its M 198
crown and of her M 196
crowd and the men M 196
cross with me now M 196
cross was an act M 196
crime was the one M 196
crime than it does M 196
crime than in any M 196
crown and in her M 195
cruel one to him M 194
cruel and he was M 194
crown was the head M 194
crown and my own M 194
crowd out the bad M 194
cross them at all M 194
crime and the real M 194
cried she to her M 194
cross them to get M 192
crime but it was M 192
cried and no one M 192
creating all of this M 192
cross and of its M 191
cries out at her M 191
cruel way he had M 190
cruel and do not M 188
cross that we see M 188
crime with the aid M 188
create with the new M 188
crash that he was M 188
crack than he had M 188
creating out of that M 186
create out of all M 186
cross and of all M 184
crime all the way M 184
create for the eye M 184
crowd was in his M 182
crowd and we had M 182
crime has or has M 182
create him in his M 182
crown than he had M 180
cross was to him M 180
cross her in any M 180
cross and of our M 180
cries out at this M 180
cried out on this M 180
cross for the dead M 179
creating who we are M 179
cruel death of this M 178
crown with the air M 178
crowd hung on his M 178
crime had he not M 178
crime and to see M 178
cried all of them M 178
create them as they M 178
creating this or that M 177
cruel things to say M 176
crown cling to this M 176
crowd for the one M 176
crowd and the new M 176
craving for so long M 176
crave that we may M 176
cross with me that M 175
cruel things to his M 174
crown that no one M 174
crime than the law M 174
crime and we are M 174
crime and if they M 174
cried but it was M 174
create each of them M 174
crash that he had M 174
crack and he was M 174
crack and the man M 173
crowd that he can M 172
cross them in all M 172
crime and in this M 172
crime and in its M 172
crawl out on that M 172
cross for an act M 170
cried that it had M 170
create all of its M 170
cross that we had M 169
cross one of its M 169
cruel set of his M 168
crown not by any M 168
crowd was by this M 168
cross you in any M 168
cross and the man M 168
crime than the man M 168
create god in man M 168
crave and my dear M 168
crack and do not M 168
crown off my head M 167
cried but no one M 167
crown with the aid M 166
crown for the due M 166
cross out of this M 166
cried for me and M 166
create men in his M 166
create man so that M 166
crash and he had M 166
crown that it has M 164
crown than it had M 164
crowd that we are M 164
creating day by day M 164
create but do not M 164
create and to bring M 164
crowd who is not M 163
crown that is set M 162
crowd was to him M 162
crowd how he had M 162
cried for it who M 162
create them in this M 162
crash all the way M 162
crime and the idea M 160
crime and in his M 160
cries out at him M 160
cried out to its M 160
cross with it and M 159
cruel man is not M 158
crowd was as bad M 158
crowd out of its M 158
cried with the joy M 158
cried out on one M 158
cried out in son M 158
creating out of her M 158
crack that is not M 158
crime and he has M 156
cried and he had M 156
creating for the new M 156
crowd out of our M 155
crack and the two M 155
cruel than we are M 154
cruel man he was M 154
crown with my own M 154
cross with us and M 154
crime may be too M 154
cries out as one M 154
cried she in her M 154
crown all the way M 152
cried for it and M 152
cried all the day M 152
create him in our M 152
cruel one in that M 151
crown was to him M 150
cries for an end M 150
cried out of joy M 150
cried out at each M 150
crown that he has M 148
crown for an act M 148
crowd and he did M 148
crime are in all M 148
cries out at his M 148
cried out to ask M 148
crowd with no one M 146
crowd than he was M 146
crowd had an air M 146
cross that he did M 146
cross her in her M 146
cross and the use M 146
crime was to get M 146
crime that it had M 146
crime and is being M 146
create one in his M 146
cruel war on his M 144
cruel than the law M 144
crowd saw it and M 144
cross him in this M 144
crime and to any M 144
create her in his M 144
create for us and M 144
crave them as they M 144
crown for the two M 143
crown was to pay M 142
crown but an old M 142
crowd out the things M 142
cross but it was M 142
cross and to his M 142
crime was the act M 142
crime and the sin M 142
crime and of all M 142
creating out of our M 142
crowd out the weak M 141
cries out in all M 141
cried out as long M 141
crown lying at his M 140
crowd that do not M 140
cross with the top M 140
cross with the sun M 140
cross with me but M 140
cross him as she M 140
crime that is going M 140
cries out in that M 140
cried out an old M 140
creating for the web M 140
create them is not M 140
create and to act M 140
crime may be that M 139
cried out so long M 139
create for us all M 139
cruel things he did M 138
cruel god of war M 138
crown was so dear M 138
crime was of too M 138
crime out of things M 138
create for me new M 138
cruel man to them M 136
crown with the two M 136
crowd that the two M 136
crime that is his M 136
cries out to one M 136
crash and the end M 136
crown each of them M 135
cried out to that M 135
crawl out on top M 135
crack with the old M 135
crowd and to his M 134
cross with the man M 134
crime not to let M 134
crime may be put M 134
crime and of being M 134
cried they to each M 134
create for the web M 134
cross that no one M 133
crowd was on him M 132
crowd that is going M 132
crowd out the red M 132
cross hung on his M 132
crime not to see M 132
cries with an air M 132
cried she as she M 132
cried out to two M 132
create for the use M 132
create and we can M 132
cross with me all M 131
crown out of its M 130
crowd near the bar M 130
crime was in not M 130
crime than it has M 130
crime due to his M 130
create that or did M 130
cross day by day M 129
cruel things to them M 128
cruel death of our M 128
crown had so long M 128
crowd was in awe M 128
crowd but no one M 128
cross was the end M 128
cross mean to you M 128
crime and the myth M 128
cried out at its M 128
cried for the one M 128
cried for the old M 128
create them if you M 128
create and to put M 128
crown you do not M 127
cries out to man M 127
cries one of our M 127
crack one of them M 127
crack and he saw M 127
cruel than in war M 126
cruel death he had M 126
cross that is out M 126
cross out or add M 126
cross for the year M 126
cries out in our M 126
cried with my head M 126
crack any of them M 126
crowd with the cry M 125
cross that of earth M 125
cross one of her M 125
crash that it was M 125
cruel than the death M 124
crown may by its M 124
crowd you do not M 124
crowd that is now M 124
crowd than to men M 124
crowd and to see M 124
cross was in her M 124
cross and the men M 124
crime you do not M 124
crime and to its M 124
crime and he did M 124
create both of them M 124
create and to lead M 124
craving for the joy M 124
crown set on her M 122
crown for the job M 122
crowd that the men M 122
crowd out of her M 122
cross for the use M 122
crime that it can M 122
crime and to deal M 122
crime and the low M 122
crime and it does M 122
create them or not M 122
crown him king and M 121
crowd but do not M 121
crime and the day M 121
cries and no one M 121
cruel but he was M 120
crowd that we saw M 120
crowd ran to see M 120
cross them in any M 120
crime was in its M 120
cries out to see M 120
cried out on than M 120
cried out of him M 120
crawl out of each M 120
crave for the things M 120
crowd and the air M 119
cries out of her M 119
crack that he was M 119
crowd that the man M 118
cross and in this M 118
crime that we had M 118
crime that is both M 118
crime and to put M 118
crime and no sin M 118
cries that no one M 118
cried out as two M 118
create out of one M 118
create for my own M 118
cries out on his M 117
cruel law of war M 116
crown and the men M 116
crowd was up and M 116
crowd and he saw M 116
crowd and by his M 116
cross that he may M 116
cross him or her M 116
cross and the dot M 116
cross all of them M 116
crime not to try M 116
crime but it does M 116
crash and the new M 116
crack out of his M 116
cruel both to you M 114
cross with the long M 114
cross has to say M 114
cross cut on its M 114
cross and to bear M 114
crime than he was M 114
crime than at any M 114
crime but he was M 114
cried that if they M 114
cried out of our M 114
cried for an end M 114
creating them if they M 114
cross and we are M 113
crime and the two M 113
crawl off to die M 113
cruel way of doing M 112
cruel man in his M 112
cruel death of that M 112
cross out of its M 112
cross any of his M 112
cross and on his M 112
crime with the death M 112
crime and of her M 112
crime and if that M 112
cried with us and M 112
cried out in both M 112
cried and he did M 112
crawl out to get M 112
crash and the two M 112
crowd out the real M 111
cruel death of one M 110
crown lay in his M 110
crown and the end M 110
cross him in all M 110
crime that he does M 110
crime put an end M 110
crime out of his M 110
crime lay in being M 110
crime and is thus M 110
cried out to put M 110
creating her or his M 110
create them by his M 110
create and to set M 110
crack may or may M 110
crack and he had M 110
cross and is not M 109
crave for it and M 109
cruel than he had M 108
cross and to death M 108
crime with the use M 108
crime than do men M 108
crime not to pay M 108
cried one of max M 108
creating them by law M 108
creating all the new M 108
create out of any M 108
create him at all M 108
crave for my own M 108
crave both the aid M 108
cruel than if they M 106
cruel and he had M 106
crown near the top M 106
crown had he not M 106
crowd but is not M 106
crowd but he was M 106
cross and my death M 106
crime was the way M 106
crime was or was M 106
crime lay in not M 106
crime for so long M 106
cried she to him M 106
cried for the two M 106
create them by our M 106
create few if any M 106
craving for the use M 106
crown being so far M 105
crawl out of and M 105
craving for the sun M 105
cruel way to get M 104
crown was in any M 104
crown for the man M 104
crown and the war M 104
crowd for the two M 104
cross them at any M 104
cross out of them M 104
cross for us men M 104
cross and the big M 104
crime that the act M 104
crime are the two M 104
crime and the act M 104
cried out to hear M 104
cried not at all M 104
cried and the old M 104
create two of his M 104
crown him in his M 103
crowd one or two M 103
crime year by year M 103
cruel way to put M 102
crown than in that M 102
crown out of this M 102
cross was the key M 102
crime was so bad M 102
crime that we see M 102
crime out of all M 102
crime and to get M 102
crime and is then M 102
cried out or not M 102
crawl out is going M 102
craving that is not M 102
crave for us all M 102
crave but do not M 102
crack path is not M 101
crowd with the eye M 100
crowd who he was M 100
crowd that the new M 100
cross and an old M 100
crime was of two M 100
crime let no man M 100
creating them as they M 100
creating one of our M 100
create him or her M 100
create for us our M 100
crown for so long M 99
cross cut in its M 99
crash and the long M 99
crown that the act M 98
crown than he who M 98
crowd was the law M 98
crowd for as long M 98
crowd and we all M 98
crowd and in his M 98
cross than to that M 98
cross one of our M 98
crime that is thus M 98
cries and it was M 98
crawl off to beg M 98
craving for it had M 98
cruel use of this M 96
cruel that it can M 96
cruel that if they M 96
cruel cut of all M 96
crown and the see M 96
crown all he was M 96
crowd one of his M 96
crowd going in and M 96
crowd and the long M 96
cross with my own M 96
cross bar on top M 96
crime was to use M 96
crime than it did M 96
crime for so doing M 96
cries out at them M 96
cries and the way M 96
creating each of them M 96
create this or any M 96
create for it new M 96
create any thing but M 96
create and do things M 96
cross two of them M 95
cross out of her M 95
cruel things of her M 94
cruel than it had M 94
cruel not to see M 94
crown that we may M 94
crown sat on his M 94
crown for the son M 94
cross that it has M 94
cross put an end M 94
crime and so was M 94
crime and if you M 94
cries that the new M 94
cries for the use M 94
cried out by way M 94
cried for my own M 94
create one in our M 94
crown was the one M 93
cries out to our M 93
crown that we are M 92
crowd they do not M 92
crowd near the end M 92
cross was at that M 92
cross led the way M 92
cross and to die M 92
cross and at its M 92
crime was in all M 92
crime than the use M 92
crime lay in its M 92
crime are at this M 92
cried out to say M 92
cried out to get M 92
create any or all M 92
crown may be too M 91
cruel than in any M 90
cruel death to die M 90
crown may be not M 90
crown and on his M 90
crown and by men M 90
crowd with an eye M 90
crowd was as yet M 90
crowd that by now M 90
crowd going to see M 90
crowd and to get M 90
crowd and the big M 90
crowd and at one M 90
cross bar of two M 90
cross bar is weak M 90
cross and the idea M 90
crime than on all M 90
crime and to his M 90
cried that no one M 90
cried and we all M 90
cried all in one M 90
creating all of them M 90
create joy in our M 90
create and to heal M 90
cross and in her M 89
craving for tea and M 89
cruel that no one M 88
cruel set to his M 88
crown for the day M 88
crown and my joy M 88
crowd that he saw M 88
crowd and the singing M 88
crowd and of his M 88
cross and of god M 88
crime was to him M 88
crime that we did M 88
crime but it can M 88
crime and the long M 88
cries out to this M 88
cries out is not M 88
cried out in low M 88
cried for the men M 88
create one in this M 88
create one in any M 88
craving for the aid M 88
craving for an end M 88
crack and an eye M 88
cruel and so long M 87
crowd saw us off M 87
cross with me too M 87
cross one of two M 87
cross had he not M 87
cruel than to let M 86
cruel death if they M 86
crown put an end M 86
crown out of one M 86
crown has no real M 86
crown had to deal M 86
cross them so that M 86
crime who do not M 86
crime than if you M 86
crime has as yet M 86
crime and is one M 86
cries out on all M 86
cries out in him M 86
cried then as she M 86
cried that it did M 86
cried for it with M 86
cried but it did M 86
creating all the things M 86
create two of them M 86
create and to try M 86
craving for it than M 86
crown with no new M 85
crowd one of them M 85
cruel was the six M 84
cruel death of all M 84
cruel act he had M 84
crown him at his M 84
crowd was at his M 84
crowd and we are M 84
cross was an old M 84
cross bar of his M 84
cross and of death M 84
crime was to put M 84
crime was to bring M 84
crime that is due M 84
crime does or does M 84
cried she at that M 84
cried for my son M 84
cried both of them M 84
cried and the man M 84
creating one of them M 84
create fear in them M 84
create fear in our M 84
cries out so that M 83
crown put on her M 82
crown out of all M 82
crown for my son M 82
crowd going up and M 82
crowd and we can M 82
cross was the new M 82
cross man in all M 82
crime was by far M 82
crime than he who M 82
crime has so far M 82
crime and in doing M 82
crime and he can M 82
cries out we can M 82
cried out to bring M 82
cried out he saw M 82
creating god in man M 82
create for the two M 82
crawl out to him M 82
cruel that he did M 80
cruel than it has M 80
cruel one it was M 80
cruel death it was M 80
crown with the red M 80
crown than to his M 80
crown out of him M 80
crown how to see M 80
cross them on his M 80
cross them in its M 80
cross one or both M 80
cross and at his M 80
cries out to hear M 80
cried out the new M 80
cried out as each M 80
create things as they M 80
create them in one M 80
create one or both M 80
create and it can M 80
crown one of his M 66
cross and no one M 66
crack and the end M 61
cries that we are M 59
crowd was the one M 58
cross than the one M 57
cries and is not M 55
crowd and the one M 54
cross with the one M 52
crash and no one M 51
crack and the earth M 48
crown than the one M 47
cross with the new M 47
cross and the end M 47
crown all he had M 46
crowd out the few M 46
cross with the boy M 46
craving for an all M 46
crash but it was M 46
crack but do not M 46
crowd out the new M 45
crowd out the men M 45
cross but he was M 45
cross and we had M 45
cross and he did M 45
crawl out to see M 45
craving for the one M 45
crack and is not M 45
crown one of them M 44
crowd and the sun M 44
cross and in all M 44
crash and the man M 43
crowd out my own M 42
cross off the things M 42
cross for me that M 42
cross bar so that M 42
cries out as her M 42
craving for it has M 42
crave with no lying M 42
crown one of its M 41
crowd out to hear M 41
cross may or may M 41
cross and the east M 41
cross and in that M 41
cries and the man M 41
cried out on that M 41
craving for an easy M 41
crowd for so long M 40
cross for the new M 40
crime was at all M 40
crawl out on our M 40
crack one by one M 40
crept out of bed D 9526
crept out of his D 7848
crawl out of bed D 6679
crept out of her D 4410
crops that do not D 2894
crush him to death D 2836
crush her to him D 2698
creep out of his D 2212
creed and the ten D 2195
crush her in his D 2010
crops and the use D 1972
crude oil is not D 1894
crops for the year D 1874
crush them to death D 1830
crept out of our D 1744
creek all the way D 1727
craze was at its D 1722
creep out of bed D 1706
crazy with the heat D 1681
crude oil or any D 1426
crept out of its D 1186
crowd and the mob D 1004
creek and the big D 989
crush him in his D 974
creed for the new D 952
creek and it was D 948
creek and the east D 928
crush you to death D 884
creek and the head D 810
cries and the tom D 783
crops for the use D 772
crude oil or gas D 764
craft that he had D 764
crude oil is being D 758
crazy things to her D 754
crept off to bed D 736
craft and an art D 735
craft and the art D 733
crept all the way D 730
crush her to death D 720
crops out in his D 716
crude oil or its D 714
crush them if they D 700
crept out to see D 690
creep out of this D 690
creek and the old D 686
crazy and do not D 684
crude oil is now D 682
crops all the year D 673
cries out to thee D 667
crust and the heat D 662
creep out of her D 646
crack tip is not D 635
crazy and he was D 628
crazy and it was D 612
creed and the our D 582
crops with the aid D 576
crude and do not D 575
crush her to his D 574
crops and do not D 570
crude oil in this D 564
cramp out of his D 563
cross and be van D 562
crude one at that D 556
craft that is not D 544
crept one by one D 542
crews for the new D 532
creep out of our D 522
crush out the new D 518
crust and the top D 514
crush you if you D 504
crude oil in its D 504
creed and the new D 499
craze for the new D 486
crude way of doing D 478
crude oil to its D 474
craft and it was D 468
crude oil or oil D 467
creek near the old D 465
crisp and the sky D 461
crude oil is then D 458
creed they do not D 443
crude that it was D 442
crush them in his D 436
crops out in two D 436
crops may be cut D 430
creep out of its D 428
crops out on both D 416
crust all the way D 413
crush him in its D 412
crick out of his D 401
creek near the head D 401
crops are in and D 394
crops out in all D 392
crops and the area D 388
cried out to thee D 385
craft that he may D 384
cross and the pear D 382
creek that he had D 382
crazy things we did D 376
craft that he has D 376
creep all the way D 374
craft that he was D 374
create out of thin D 372
crude oil is one D 367
craft that it was D 367
crazy and is not D 364
crush them in its D 360
crops and the new D 360
crude oil so that D 358
creep off to bed D 356
crops for the new D 354
crops can be cut D 354
crisp and the meat D 354
crust that is not D 352
craft all the way D 352
crazy one at that D 350
creed that he had D 342
creek and the two D 340
crush him in our D 338
crops and it was D 338
crept off to his D 338
crazy but it was D 338
crazy not to see D 336
crazy but he was D 336
crush her if she D 334
craft and of his D 332
crazy with the idea D 328
crazy things to get D 322
creed that it was D 320
crush them at one D 319
crops and to use D 318
crops may be had D 314
creek and he was D 312
craft was he who D 310
crust and the earth D 307
crush you in its D 304
crazy and no one D 302
crush him at any D 300
cries ringing in his D 300
crept out of that D 300
crazy things he did D 296
crush out of him D 295
crush them as they D 290
crops for the two D 290
crisp and the sun D 285
craft his or her D 285
crush them at any D 284
cross both the hip D 284
crazy all the way D 284
crazy and he had D 282
crept out on all D 279
creed and of his D 272
crate that he had D 272
crack tip so that D 272
creek and as far D 270
crops out in this D 268
crust and the bar D 266
crops for the area D 266
craft than an art D 266
creek and the new D 265
craft and the war D 262
crazy not to try D 260
crept off the bed D 258
crops with the use D 257
crust with the egg D 256
creed that we are D 256
crazy that he had D 256
crash and the car D 255
crops that he had D 254
cruel rod of war D 252
crook that he was D 252
crude oil in that D 250
creek near by and D 245
crude oil is fed D 244
crops and to bring D 244
creek and an old D 244
creed that is not D 244
crowd ringing in his D 243
craft out of its D 243
craft and to his D 242
crops year by year D 240
crops may be due D 240
crops all the way D 240
crazy not to use D 240
crazy that he was D 238
crest all the way D 235
crept out of one D 234
crazy idea of going D 234
craft that he can D 234
crude and it was D 233
crops can be put D 232
crops and the low D 232
crude idea of how D 226
crush out the old D 224
crush them by his D 222
crude way to put D 222
crops and of all D 221
creed and go out D 219
crust and do not D 218
crazy not to get D 218
creating him an earl D 216
crazy way to run D 216
craft and the use D 216
crude oil do not D 214
crush out of them D 212
crude oil is put D 212
crude but it was D 212
crews and the men D 212
craft and do not D 212
crews that it was D 210
crews that he had D 210
crazy things to his D 210
creek out of its D 208
crawl off the bed D 208
creed that he did D 206
cramp out of her D 206
craft then in use D 204
crops can be got D 200
crept out to him D 200
crowing for the new D 198
craft was at its D 198
crews for the two D 197
crush you as you D 196
cried out to sir D 196
craft and the men D 195
crude oil is that D 193
crazy with the fear D 192
crush them by its D 190
cruel law of art D 190
crops and the long D 190
crisp was an old D 190
creed that he was D 190
craft was an old D 190
crush out of his D 189
crops they do not D 188
crops that he can D 188
crews had to use D 188
crest and the head D 188
crept out to his D 188
crept near to him D 188
craft that we had D 188
craft and in his D 188
crush one or two D 187
crown and the fang D 186
crops can be had D 186
crops and in this D 186
crazy idea in his D 186
crude oil at its D 184
crops and is not D 184
cries rang in his D 184
crust out of his D 183
creed and the old D 183
crops can be and D 182
crops and it has D 182
crept out on his D 182
crush her as she D 180
crush any of them D 180
crazy out of his D 180
crude oil at all D 178
crops that he has D 178
crime has no sex D 178
crept off to her D 178
craft was on its D 178
crops but do not D 176
crude oil in one D 175
creed than he had D 175
crude oil is run D 174
crops out on all D 174
crease out of his D 174
crush you if they D 172
crazy that it was D 172
crops than it does D 170
crops may or may D 170
crops due to its D 170
crews had to fly D 170
crept out in his D 170
creed and to his D 170
crazy and he did D 170
crude and is not D 168
crops out in our D 168
craft was in any D 168
craft going up and D 168
crude idea of its D 166
cross off an ass D 164
crops and in all D 164
crews had to get D 164
creek and the red D 164
crazy idea of his D 164
crust that is being D 162
crowd may be fed D 162
craft that it has D 162
crude way he had D 160
crude oil at low D 160
crops are tea and D 160
crops and to buy D 160
craft and he was D 160
creek that we had D 159
crush him by his D 158
crude oil of its D 158
crude oil it was D 158
crazy things in his D 158
crane that he had D 158
craft and to her D 158
crest and the top D 157
crush them so that D 156
craft than the one D 156
crude and in bad D 155
crisp set of all D 154
crews who do not D 154
crush him to her D 152
crush and the heat D 152
crops are of two D 152
crops and the war D 152
crazy idea is that D 152
crazy for the fly D 152
crude oil or raw D 150
crude oil in each D 150
crops may be fed D 150
crush one of his D 149
crush out of her D 148
crops for the war D 148
creep out of that D 147
crops year in and D 146
crane was the son D 146
crush out of this D 144
crush her in its D 144
crude oil to new D 144
crude oil at that D 144
crone being in bed D 144
creep and the dead D 144
craft with the aid D 144
crude that it can D 143
crops and the sun D 143
crisp and the fat D 143
crush her in her D 142
crude oil is low D 142
cross out the row D 142
crops are by far D 142
crazy that no one D 141
crude oil in any D 140
crude map he had D 140
crowd and the din D 140
crops with the aim D 140
crook was in his D 140
creed that he has D 140
craft and the way D 140
craft and the new D 140
creep out of them D 139
crops and the men D 138
crush out the weak D 137
crust for the pie D 136
crest and the low D 136
crept out to her D 136
creed that no one D 136
creams that do not D 136
crazy way of doing D 136
craft than he had D 136
crush one of them D 135
crops that we can D 134
crept out of them D 134
creep out at that D 134
creed and it was D 134
crazy things to him D 134
crazy men to him D 134
crawl off to bed D 134
crops out in one D 133
crust that is then D 132
crude oil on earth D 132
crops and to all D 132
crops and the way D 132
crops and the death D 132
crops and of new D 132
creek and the area D 132
crazy that he did D 132
crazy not to buy D 132
crank all the way D 132
crags all the way D 132
craft with the easy D 132
crops for as long D 131
crust and of its D 130
crude oil is due D 130
crude oil in our D 130
crude oil as they D 130
crown thee as our D 130
crops than in any D 130
crops may be put D 130
crops dry up and D 130
creed led to his D 130
crane was in his D 130
crush both of them D 129
creep one by one D 129
cruel fun of his D 128
cruel fun of her D 128
crude oil on its D 128
crude oil in both D 128
crude oil by using D 128
crops that it was D 128
crept out of this D 128
creed and the law D 128
crazy things he had D 128
crank her up and D 128
craft that we can D 128
crude oil or tar D 127
cruel art of war D 126
crops and the hay D 126
crews and it was D 126
credo for the new D 126
crust and on its D 124
crops this is not D 124
crops out of his D 124
crazy with it all D 124
crazy idea it was D 124
crazy fear of dying D 124
crank pin is then D 124
craft for the job D 124
cross with the oil D 123
crack tip in this D 123
crush one of its D 122
crush one of her D 122
creek and the bay D 122
creek and he had D 122
creed and so they D 122
craft that we are D 122
crush that it was D 120
crude that we can D 120
cross them in mud D 120
crops that it can D 120
crook out of his D 120
crisp air as you D 120
crazy you do not D 120
crazy with the way D 120
crazy not to put D 120
craft that do not D 120
creed than the one D 119
creaking all the way D 119
crime for the fun D 118
crept out to them D 118
crept out to get D 118
creek and is now D 118
creed and of all D 118
craft for the use D 118
creek but it was D 117
crops and eat them D 116
crews dead or dying D 116
creek for the use D 116
crazy things to say D 116
crazy things in her D 116
crazy idea he had D 116
crank out is one D 116
cruel fun of him D 114
crude oil to this D 114
crops due to bad D 114
crops can be met D 114
crops and so are D 114
crops and he was D 114
cries ringing in her D 114
creek and the men D 114
crazy and we are D 114
craft now in use D 114
craft but it was D 114
craft and of its D 114
craft and the two D 113
crust are of two D 112
crush them to earth D 112
crude oil to any D 112
crown thee king far D 112
crops than he had D 112
crick out of her D 112
creed but the new D 112
creed one by one D 111
crease out of her D 111
crush hat in his D 110
crops with an eye D 110
crops that it has D 110
crops that he was D 110
crops can be fed D 110
crane and the red D 110
crude that it may D 109
crude oil at one D 109
crush him as they D 108
crops with the new D 108
crops out in both D 108
crisp and do not D 108
cried out in ringing D 108
crews had no idea D 108
creep near it and D 108
creek near the east D 108
crane that he was D 108
craft than to his D 108
crush him so that D 107
crush them as with D 106
crude way of using D 106
crops and the earth D 106
crook that he had D 106
crook and he was D 106
crisp air of that D 106
crazy with the joy D 106
crabs one by one D 106
creek was so low D 105
creed and in his D 105
crush him if they D 104
crush any or all D 104
crude oil to that D 104
crude oil in all D 104
crude oil by new D 104
crude but it does D 104
crown and the earl D 104
crowing and the sun D 104
crops than it had D 104
crops out in low D 104
crazy man in his D 104
crazy idea of being D 104
crazy idea in her D 104
croft that he had D 103
creep out of one D 103
crack tip is then D 103
crust and in its D 102
crush him or her D 102
crude oil at any D 102
crops that we are D 102
crops that is not D 102
crops than it was D 102
creep out to sit D 102
crazy and so did D 102
craft than in his D 102
crows and an owl D 101
crops and the two D 101
creed was the one D 101
creed that the end D 101
crazy for so long D 101
crust was to her D 100
crush all of them D 100
crops and to pay D 100
creep out at her D 100
creep may be due D 100
creek and on bear D 100
creed that the head D 100
creed for the use D 100
creed and in its D 100
crazy that he does D 100
craft and the old D 100
crude oil in oil D 99
crops out in that D 99
crack goes the oar D 99
crust and it was D 98
crush them up and D 98
crush them in her D 98
crush him in this D 98
crude oil is too D 98
crude oil in two D 98
crude oil by this D 98
crude oil as low D 98
crude oil as its D 98
crops has so far D 98
crews for the day D 98
crept day by day D 98
creek gap on may D 98
creamy tan of her D 98
crane was on his D 98
crane that it was D 98
crush him to earth D 97
creaks out of his D 97
crude oil to run D 96
crown and the tip D 96
crops for the dry D 96
crook was on his D 96
crept off to die D 96
crazy things he does D 96
crazy and we can D 96
crave thee to lead D 96
craft that is now D 96
craft but an art D 96
craft and he had D 96
crabs and eat them D 96
crust that is now D 94
crush was at its D 94
crude way to get D 94
crude oil or for D 94
crude oil in new D 94
crude for the age D 94
crisp air as they D 94
crews that do not D 94
crews put to death D 94
crews all the way D 94
crept out on her D 94
creek and the one D 94
creek and on both D 94
creed that we can D 94
crazy way it was D 94
crazy things to you D 94
crazy not to let D 94
crazy for it and D 94
crank pin is not D 94
craft was in its D 94
crisp and the air D 93
creed and the two D 93
crush them as you D 92
crude oil of this D 92
crude oil is going D 92
crops are as yet D 92
cries and the din D 92
creed was the law D 92
creed that he does D 92
crazy and if you D 92
craft can be doing D 92
crush out the oil D 90
crumb out of his D 90
crude oil so far D 90
crowing that he had D 90
crowing and it was D 90
cross had no sting D 90
crops than he did D 90
crook that my old D 90
cries rang in her D 90
crews how to use D 90
crept out as far D 90
creep with the air D 90
creed and do not D 90
crazy and we had D 90
craft had by now D 90
crush him in her D 88
crude oil to buy D 88
crops and the few D 88
crops and by using D 88
croft was in his D 88
crisp and it was D 88
crest and the two D 88
crest and the long D 88
creek and the bear D 88
creating art is not D 88
crazy things to try D 88
crazy but he had D 88
craze for the use D 88
crane and the old D 88
crane and he was D 88
craft that it had D 88
crack tip do not D 88
crust and the low D 86
crude oil to our D 86
crude oil to all D 86
crops but is not D 86
crops and to rear D 86
crops and of men D 86
creed was to get D 86
crazy things we had D 86
crazy out of her D 86
crane out of his D 86
craft who do not D 86
crust was so thin D 84
crude way we can D 84
crown and the rim D 84
crops owing to its D 84
crops are in her D 84
cried out in hot D 84
creek that he was D 84
creek near the end D 84
crazy things in this D 84
crazy but he did D 84
crazy but do not D 84
crate with the dog D 84
crane was at this D 84
craft and to use D 84
crush them in one D 82
crows and of red D 82
crops but it was D 82
crops and to put D 82
crops and on his D 82
crops and on all D 82
crest and it was D 82
creaking off in his D 82
crazy things he was D 82
crazy and so was D 82
crazy and so are D 82
craze for an idea D 82
craft was at her D 82
craft for the long D 82
craft and is now D 82
crush him by its D 80
crops that it had D 80
crops now in use D 80
crops and to get D 80
crops and the old D 80
creep out of any D 80
crazy and he can D 80
creaming off the top D 70
crisp all the way D 64
creed that the son D 64
crows and the sun D 61
crease all the way D 61
create with the pen D 60
crude and as yet D 57
crank and the cam D 54
crude that it does D 50
crank and the fly D 50
crude than the one D 48
creed that it can D 47
crops and no one D 46
craft that no one D 46
creek that it was D 43
crisp but the sun D 40
