fit him for his M 9807
fit them for this M 3472
fit for use and M 2788
fit them for use M 2556
fit out and arm M 2472
fit her for her M 2394
fit him for this M 2086
fit for use for M 2074
fit them for that M 1954
fit him out with M 1895
fix that for you M 1836
fit him for that M 1705
fit for you and M 1664
fit you out with M 1586
fit for any one M 1578
fit them for any M 1570
fit for his use M 1458
fit for his own M 1458
fit him for any M 1416
fit him out for M 1369
fit them out for M 1268
fit them out with M 1208
fit them for being M 1180
fit for his age M 1175
fit for his job M 1125
fit for kings and M 1022
fit for any man M 984
fix things for you M 983
fix things that are M 975
fit with his own M 974
fit her out with M 942
fit for them and M 929
fit for any use M 899
fit her out for M 888
fit for him and M 860
fit for man nor M 833
fit for our use M 804
fit and did not M 792
fix them for you M 742
fit man for his M 714
fit them for his M 706
fit for one who M 673
fix you for this M 646
fit for that use M 641
fix this for you M 624
fit her for this M 618
fit for men and M 606
fit them for all M 593
fit and does not M 560
fit for its own M 543
fit for this job M 519
fix things for her M 518
fit who you are M 512
fit with our own M 495
fit for war nor M 490
fix things for them M 484
fix her with his M 484
fix him with her M 454
fit her and her M 446
fit for this use M 443
fit for its use M 442
fit for war and M 437
fit for all men M 433
fit and apt for M 426
fit her for that M 414
fit and can not M 413
fit out and man M 409
fit this man out M 405
fit that they who M 403
fit any and all M 400
fit and are not M 394
fit him for being M 390
fit him for all M 388
fit for any but M 387
fix you for that M 384
fit with her own M 383
fit for them than M 378
fit men for this M 376
fit him and his M 369
fit her out and M 364
fix things for him M 354
fit you for his M 349
fit them out and M 346
fit her for any M 346
fit you for this M 326
fit you for that M 325
fit for any job M 324
fit any man for M 324
fit for use than M 316
fit does not mean M 314
fit them for our M 312
fit for god nor M 312
fit for all that M 309
fit now and then M 306
fit him for one M 300
fit they are for M 297
fit for any and M 294
fit them for its M 292
fit them for new M 288
fit with its own M 286
fit for her own M 285
fit them for war M 278
fix one for you M 276
fit that does not M 276
fit and that they M 276
fit that one who M 271
fit for war was M 268
fit for his new M 260
fit for this new M 258
fit for man and M 254
fix you with his M 250
fit and that you M 250
fit for him than M 248
fit for god but M 248
fit and how they M 245
fit and had not M 245
fit you out for M 242
fix him with his M 240
fit for use with M 234
fit for death than M 234
fix and did not M 233
fit for our own M 225
fix them with his M 224
fix that does not M 222
fit and was not M 222
fit with how you M 221
fit for all things M 219
fix things with him M 210
fix him with that M 210
fit you are for M 209
fit and you can M 208
fit his son for M 206
fit for her age M 204
fit them with new M 202
fix them and then M 200
fit out his own M 198
fit for men who M 195
fix him and his M 194
fit you for any M 192
fit with this new M 191
fit with who you M 190
fit but ill with M 186
fit for any new M 185
fix things with her M 183
fit one with that M 182
fit him for its M 180
fit for all our M 179
fit them for doing M 178
fix this and that M 177
fit for you but M 175
fit for war than M 173
fit and who are M 173
fit you are and M 170
fit than now for M 168
fix them that they M 166
fit for use was M 162
fit them all with M 160
fix you now and M 158
fit her and she M 157
fix you out with M 156
fix any age for M 156
fit her than this M 156
fit and they are M 155
fit with his idea M 152
fit for use are M 151
fit for them that M 150
fit man for that M 148
fit and who was M 148
fit him out and M 146
fit her for his M 146
fix any day for M 144
fit her for going M 144
fit for her and M 143
fit let her with M 142
fit for eating and M 141
fit out all his M 138
fit for that job M 138
fit that any one M 136
fit for use but M 136
fit for this and M 136
fit for all this M 136
fit all and that M 136
fix his eye with M 134
fit them for one M 134
fit one for any M 134
fit for one that M 134
fit was not too M 132
fix things with his M 130
fit you for all M 129
fit him with his M 128
fit for you are M 128
fit and not fit M 127
fit that any man M 125
fix them for him M 124
fit for his son M 124
fit for all her M 124
fit for you than M 123
fit way that may M 122
fit for her than M 122
fit them for long M 120
fit for this end M 120
fit for that and M 120
fit age for using M 120
fit for old men M 119
fix his eye and M 118
fit with his new M 118
fit them for god M 118
fit men who are M 118
fit men for that M 118
fix was with him M 116
fix things with them M 116
fix his own day M 116
fit with her idea M 116
fit now and does M 116
fit not for use M 114
fit him any too M 114
fit man for this M 113
fit for being one M 113
fix him for that M 112
fit for its new M 112
fit are they for M 112
fit who they are M 111
fit both you and M 111
fit you and you M 110
fit for being cut M 110
fit for any real M 110
fit for all his M 110
fit any one for M 110
fit with any one M 109
fit for men with M 109
fix this for him M 108
fix him for you M 108
fit with how they M 108
fit him for doing M 108
fit for song and M 108
fit each one for M 108
fix that for him M 106
fix that for her M 106
fix any and all M 106
fix all that with M 106
fit for him but M 106
fit for his men M 105
fix things for his M 104
fix his dim and M 104
fit him both for M 104
fit for him who M 104
fix with one eye M 102
fix him with any M 102
fit for being put M 102
fit for each set M 101
fit both men and M 101
fix than you are M 100
fit her for all M 100
fit and lead any M 100
fit with you and M 99
fit for that than M 99
fix her with that M 98
fit men who had M 98
fit him and had M 98
fit for real and M 98
fit for kings who M 98
fix them for her M 96
fix her with being M 96
fit you for real M 96
fit them for both M 96
fit out with all M 96
fit with this idea M 95
fix that day for M 92
fix and pay his M 92
fit them for each M 92
fit them both for M 92
fit that can not M 92
fit him for our M 92
fix and can not M 91
fix him and then M 90
fit his head and M 89
fix them and they M 88
fit you for being M 88
fit you are now M 88
fit them all out M 88
fit that they each M 88
fit his head for M 88
fix things and get M 86
fix them and you M 86
fix all that was M 86
fit them for and M 86
fit his own and M 86
fit all men and M 86
fix all but one M 85
fit for going out M 85
fix this for her M 84
fix them out for M 84
fit her with all M 84
fit for that yet M 84
fit each for his M 84
fix them with any M 82
fit you for one M 82
fit and fit and M 81
fix them for all M 80
fit man for you M 80
fit one for his M 78
fit but did not M 78
fit and she was M 77
fix and does not M 72
fit and they had M 70
fix that you can M 65
fit for them who M 63
fit but does not M 63
fit that she had M 62
fit for all its M 59
fit for use any M 56
fit and that she M 56
fit for her use M 55
fit and you are M 55
fit and that was M 55
fit for god and M 53
fit that did not M 51
fit for that end M 50
fit for one man M 50
fit and how you M 50
fit for use had M 49
fit but are not M 49
fit for use may M 48
fit for use that M 47
fit for and that M 47
fit and put them M 47
fit for each one M 46
fit and this was M 46
fit that you and M 45
fit has not yet M 45
fit for use all M 45
fit and they did M 45
fit and for any M 45
fix and pay out M 44
fit that all things M 44
fit for one and M 44
fit for him that M 44
fit but can not M 44
fit and may act M 44
fit for this age M 43
fix them and that M 42
fit than she had M 42
fit for his old M 42
fit for each age M 42
fit for all but M 42
fit and she had M 42
fit you and that M 41
fit than men for M 41
fit man for any M 41
fit for war are M 41
fit for use they M 41
fit for her new M 41
fit this new and M 40
fig fig fig fig D 6002
fig for them all D 408
fig for him who D 264
fix his own car D 232
fir and red fir D 222
fir and oak and D 215
fig per day for D 173
fix his car and D 160
fit for her ears D 143
fit and lean and D 133
fib had let him D 130
fin long and low D 129
fig for any one D 127
fig for all that D 121
fix this rat you D 118
fig has its own D 118
fix her car and D 114
fit for bed than D 114
fit for bed and D 114
fiat being all that D 113
fig for any man D 110
fix his own fee D 108
fit for our ears D 106
fir and ash and D 104
fix his tie and D 102
fig for her any D 100
fit for all thou D 94
fig for you and D 92
fiat can not add D 92
fir and oak are D 90
fin was cut off D 87
fix this long rod D 82
fig for that old D 80
fit for his bed D 60
fit for his gun D 59
fib now and then D 49
fin now and then D 44
fig leaf for its D 40
