fit into . " M 606
fit here . " M 474
fit well . " M 350
fix what ? " M 332
fix these . " M 322
fix upon . " M 256
fit well ? " M 251
fit into ? " M 244
fit here ? " M 205
fix here . " M 198
fit there . " M 197
fit fine . " M 130
fit time . " M 128
fit best . " M 128
fix mine . " M 108
