first time i am M 9812
first time i go M 2172
first time i do M 1914
first time a king M 878
first case i am M 626
first from a to M 608
finding such a thing M 460
first time a thing M 444
first what i am M 379
first name i do M 376
fight when i am M 340
fifty years i am M 264
first case a is M 238
field from a to M 206
finding what i am M 202
files from a to M 188
first know a thing M 176
final time t is M 176
first when i am M 165
first part i am M 162
first step i am M 160
first week i am M 158
first time a the M 158
first time i no M 156
first case i do M 152
fight such a thing M 152
fixed time t is M 150
fight such a foe M 144
field when i am M 138
first term a is M 136
first what i do M 131
first when i go M 120
first sees a thing M 120
fixed time t the M 111
finds such a thing M 110
first part i do M 108
first such a thing M 92
first time a so M 91
fitting into a ring M 86
field work i am M 84
fifty years i do M 80
fingers from a to D 140
field into a sea D 129
first time a sea D 92
first time i re D 90
films like i am D 86
fingers wore a ring D 84
first into a sea D 50
