finds a place . M 4800
finding a buyer . M 2494
finding a place . M 1994
finds a match . M 1790
finding a voice . M 1514
finding a match . M 1328
finding a house . M 964
finds a voice . M 862
finds a buyer . M 812
fight a woman . M 472
finding a topic . M 452
finding a proof . M 390
files a claim . M 365
fifty a night . M 338
finding a woman . M 330
fitting a model . M 321
fight a smile . M 292
finding a table . M 288
filling a space . M 284
finding a space . M 274
finding a cause . M 260
fills a space . M 246
finding a focus . M 240
fills a chair . M 236
finding a lodging . M 232
finding a guide . M 228
fixed a price . M 224
finding a reply . M 220
finding a chair . M 188
finding a trace . M 182
finding a story . M 176
finding a leader . M 162
fills a place . M 161
finding a child . M 160
fight a round . M 158
finding a phone . M 144
first a warning . M 141
first a child . M 132
finding a reason . M 130
fight a tiger . M 125
finds a woman . M 124
finding a route . M 122
finds a space . M 118
finding a father . M 116
fight a woman ! M 114
fight i could . M 113
finding a trail . M 110
fifty a share . M 110
finds a kingdom . M 100
fifty a piece . M 100
finds a plain . M 94
finding a model . M 94
finding a smile . M 92
filling a house . M 92
finding a group . M 90
finding a buyer ? M 90
finding a tutor . M 88
finding a haven . M 88
finds a voice ! M 84
first a slave . M 42
