own view is that M 90710
own copy of this M 37402
own view of his M 12373
owe much of our M 9860
own ways of doing M 8348
owe much to his M 8022
own life in his M 7766
own work in this M 7394
own ideas of how M 6743
own part in this M 6524
owe most of our M 6158
own life to lead M 6099
own mind he was M 5656
own life or that M 5560
own role in this M 5306
own theory is that M 5284
own view of things M 5226
own ideas on how M 4928
owe much to this M 4744
owe much to him M 4580
own life is not M 4532
own mind he had M 4308
own when he was M 4252
own name or that M 4222
own time he was M 4202
own mode of being M 4104
own view of this M 3917
own part he was M 3916
owe nothing to any M 3634
own good in our M 3534
own view of how M 3398
own work in his M 3368
own life so that M 3036
own eyes he had M 3030
own eyes he was M 3014
own will to that M 2987
own view of its M 2966
own case it was M 2962
own life in this M 2912
own work is not M 2820
own part he had M 2802
own life in her M 2794
owe much of its M 2708
own copy of his M 2660
own view on this M 2616
own life in its M 2564
own hand in his M 2552
own ideas on this M 2442
owe much to her M 2438
own name in his M 2430
own good or that M 2402
own work or that M 2390
own mind on this M 2386
own time it has M 2346
own time it was M 2324
own hand to his M 2274
own faith in god M 2234
own view of her M 2222
owe some of its M 2220
own hand he had M 2146
own ways of being M 2144
owe much to our M 2114
own will in all M 2104
own good or bad M 2089
own good or for M 2087
own part in them M 2056
own part in that M 2046
own body is not M 1996
own mind is not M 1968
own work on this M 1926
own role in that M 1925
own coming of age M 1913
owe more to him M 1904
owe much to them M 1902
own life he had M 1860
own name is not M 1858
own eyes to see M 1837
own name to his M 1814
owe many of our M 1774
owe much of this M 1716
owe more to his M 1706
own mind it was M 1682
owing much of its M 1614
own work in its M 1598
own life he was M 1598
own role as that M 1592
own will to god M 1542
own health or that M 1505
own eyes he saw M 1502
own eyes as she M 1494
own life as she M 1476
own hope is that M 1466
own time is not M 1412
own name on his M 1410
own life to his M 1408
own view of them M 1404
own work to that M 1394
own home he was M 1392
own hand on his M 1390
own life in that M 1378
own faith in his M 1378
own life or death M 1376
own reading of his M 1364
own hand or that M 1354
own view of that M 1352
own reading of this M 1346
own mind in this M 1346
own home is not M 1340
own will to his M 1332
own role in his M 1332
own time in his M 1318
own sons to death M 1310
owe much to you M 1310
own back on him M 1298
own body so that M 1286
own ideas in his M 1284
own theory of how M 1276
own life on earth M 1274
own fears of being M 1274
own life as you M 1258
owe much to that M 1252
own life to that M 1244
own room to read M 1240
own name to that M 1229
own land is not M 1228
own name in this M 1222
own part he did M 1196
own during the war M 1177
own mind so that M 1174
own part of this M 1170
own work so that M 1160
owing nothing to any M 1149
own means or with M 1146
own ideas on that M 1145
own mind he has M 1132
own heart in his M 1120
own self is not M 1112
own work in that M 1110
own when it was M 1110
own lack of any M 1100
own mind the idea M 1078
own part in its M 1074
own mind of his M 1074
owe some of our M 1072
own ideas in this M 1070
own home so that M 1068
own life at this M 1066
own part we see M 1064
own self in all M 1056
own hand to her M 1054
own fears of death M 1050
own during the day M 1049
own health is not M 1038
own body of law M 1037
own work is that M 1036
own part of that M 1036
own life or for M 1022
own life to see M 1016
own list of things M 1006
own ways of using M 1002
own body as she M 986
own part in his M 982
own time is that M 980
own body in his M 980
own role in its M 978
own life at that M 976
own when he had M 974
own heart is not M 966
owe most of all M 951
own life at all M 948
owing more to his M 942
own mind at this M 934
own work he was M 928
own land in this M 923
own name as for M 920
own life as one M 912
own view is not M 910
own life the way M 910
own life by his M 910
own eyes so that M 908
own room to get M 904
own part or that M 899
own work to read M 896
own copy of that M 896
own will in his M 890
own case is not M 890
owe some of his M 890
owe nothing to his M 886
own home in new M 884
own case he had M 884
own mind to see M 880
own heart he eats M 880
own life is that M 878
own name in any M 876
own life if she M 876
own self in his M 874
own life in any M 872
own data do not M 870
own life if you M 868
owe much to its M 866
owing much to his M 851
own ideas as they M 840
owe more to you M 838
own view of god M 830
own fate in that M 830
own will is not M 826
own list of his M 822
own mind on that M 820
own self in its M 816
own role as one M 814
own part we are M 814
own name so that M 814
owe much of that M 814
own time he had M 806
owe much of his M 806
own land in his M 802
own name in that M 799
owe part of its M 798
own life is one M 794
own time as they M 788
own life or his M 788
own back on her M 788
own eyes as they M 782
owe more to her M 782
own even if they M 781
own life to get M 776
own home as long M 774
own body or that M 772
own view of man M 771
own role in them M 770
own face as she M 768
own heart to see M 764
own mind in his M 762
own time we are M 758
own work as they M 754
own name to this M 752
own work to see M 750
owe much to all M 750
own heart to say M 744
own code of law M 744
own good is not M 743
owe more to our M 740
own will in this M 738
own view of our M 738
own name on them M 738
own life on his M 738
own mind to that M 737
owe nothing to him M 730
own along the way M 729
own life to bring M 722
own mind in its M 720
own mind at that M 714
own life he has M 712
own time or that M 710
own reading is that M 710
own city of new M 708
own back on them M 700
own name if you M 698
own time to get M 690
own time so that M 684
own land or that M 681
own hand in this M 680
own work in our M 678
own body in its M 678
own mind of its M 672
own heart in this M 672
own name in all M 671
own life in one M 668
own land as they M 668
own hand so that M 668
own faith in him M 668
own wish he was M 666
own mind to his M 666
own role in her M 664
own home or that M 663
own ideas of his M 660
own time we can M 658
own back on his M 658
owe what we are M 658
own life as they M 656
own most of all M 653
own good in his M 652
own theory of his M 650
own part in all M 650
own ideas of god M 650
own heart as she M 646
own debt to him M 646
own case is that M 644
own work at this M 642
own fate or that M 640
own work as being M 638
own heart he was M 638
own hand in that M 633
own room in her M 632
own view in this M 630
own when we are M 629
own view he was M 628
own eyes the things M 624
own time as one M 623
own rule of law M 623
own name or with M 622
owe much in this M 621
own take on this M 619
own part or all M 616
own time to see M 614
own life to her M 614
own army or for M 614
owe much to both M 614
own eyes do not M 612
own work in her M 608
own time in this M 608
own kind of war M 608
own eyes we saw M 608
own role to that M 607
owe more to its M 604
own mind in that M 601
own life to god M 600
own home if you M 600
own eyes by his M 600
own hand of his M 596
own mind or that M 595
own part in her M 594
own heart he had M 592
owe nothing at all M 591
own name or not M 590
own name to them M 588
own sort of way M 586
own next of kin M 584
own hand on her M 584
own wish to see M 582
own view of him M 582
own mind is that M 580
own feet in his M 580
own eyes in this M 574
own case or that M 573
own mind on any M 570
own hair on his M 568
owe nothing to our M 566
own home he had M 564
own hand is not M 564
own theory is not M 562
own mind or not M 562
own case in his M 558
owe more to this M 558
own name to all M 556
own good in its M 556
own need to get M 552
own life as long M 551
own need to see M 548
own hand on top M 546
own heart in her M 544
own land so that M 542
own face in her M 542
own time in its M 540
own work he has M 538
own life in new M 538
own hand or not M 538
own tears as she M 536
own mind at all M 536
own half of all M 534
owe part of his M 534
own mind as you M 532
own some of them M 530
own eyes it was M 530
own view is this M 528
own role in all M 528
own land in any M 526
own heart at this M 526
own time to die M 524
own heart to god M 524
own life to this M 522
own love of ease M 520
own case it has M 520
own name to her M 518
own land if they M 518
own work is one M 516
own mind by his M 516
own eyes in his M 514
own good as for M 513
own ideas of things M 512
own life in all M 510
own back on you M 510
own mind as she M 508
own case he was M 508
own some or all M 507
own mind by this M 506
own land or not M 504
own copy of each M 504
own reading of them M 498
own name in her M 498
own eyes is not M 498
own work on his M 496
own mind of this M 496
own self in this M 494
own kind or with M 492
own life as his M 490
own time by his M 488
own mind at any M 488
own body he was M 488
own life on that M 484
own part of his M 483
own tail in its M 482
own room in his M 482
own name in its M 482
own life to its M 482
own face in his M 482
own land at all M 481
own during the year M 481
own youth he had M 480
own mind he did M 480
own home by his M 480
own faith in this M 478
owe more to them M 478
own part in any M 476
own ideas do not M 476
own fate to that M 476
own fate in his M 476
own baby in her M 474
own work of this M 470
own rate of pay M 470
own many of them M 470
own what he has M 468
own unto the end M 468
own home he may M 468
own room so that M 467
own home in this M 466
own good to his M 466
own will or that M 465
own work at all M 464
own will is his M 464
own when he has M 464
own name as that M 464
own kind of way M 464
own kind of being M 464
own road or its M 462
own hand at his M 462
own half of this M 462
own good to that M 460
own love of god M 456
own days it has M 456
own body to his M 456
own land he was M 454
own body to that M 452
own feet as they M 450
owe nothing to them M 450
own part we can M 448
own life it was M 448
own work in new M 447
own fate in this M 446
own some of his M 444
own case by his M 444
own body in this M 444
own room he had M 442
own mind is his M 440
own mind the two M 438
own hand at this M 438
own good or ill M 438
owe much to two M 436
own name or for M 434
own nothing at all M 432
own when he got M 431
own what he had M 430
own name or any M 430
own eyes the way M 430
owe nothing to this M 428
own life so far M 426
own name in one M 423
own life on this M 422
own body to see M 422
own time to this M 420
own ideas on them M 420
own reading of that M 418
own name or his M 418
own ideas to this M 418
owe many of its M 416
own work to get M 414
own life in our M 414
own time on earth M 412
own side of this M 410
own land in that M 409
own time to pay M 408
own body as his M 408
own good or his M 407
own work as that M 406
own will he had M 406
own mind as one M 406
own lack of real M 406
own faith in its M 406
own will in its M 404
own faith is not M 404
own name on one M 402
own home or with M 402
own heart so that M 400
own name as one M 399
own life to them M 398
own eyes if you M 398
own work he had M 396
own home or for M 396
own copy of all M 396
own body as you M 396
own reading of her M 394
own mind if you M 392
owe most of its M 392
own work as you M 390
own ways to get M 390
own from the age M 390
own faith in her M 390
own case we are M 390
own time is one M 389
own life is now M 388
own life as being M 388
own eyes the man M 388
own case in this M 388
own lack of being M 386
own heart it was M 386
own case to that M 386
own work on that M 384
own mind at ease M 384
own life at any M 384
own hand or with M 384
own view on how M 382
own theory of law M 380
own risk of being M 380
own ideas so that M 380
owing only to its M 380
own life is too M 378
own will in any M 374
own time we see M 374
own mark on his M 374
own life is going M 374
own life in doing M 374
own ideas of its M 374
own work or for M 372
own life he can M 372
own body as being M 372
own lack of fear M 371
own living to earn M 370
own room if you M 368
own room he was M 368
own name on her M 368
own five or six M 368
own ideas of who M 366
own duty in this M 366
own ways to deal M 364
own faith in them M 364
own door he had M 364
owe most of this M 362
own will the law M 360
owing less to his M 360
own theory of things M 358
own love to her M 356
own hand he has M 356
own anger at her M 356
own shop in new M 354
own part it was M 354
own mind to bear M 354
own life to him M 354
own life to any M 354
own life as that M 353
own theory of why M 352
own kind of death M 352
own life so long M 350
own life by doing M 350
own body or his M 350
own name to one M 349
own work if they M 346
own time it had M 346
own most of them M 346
own mind he may M 346
own case or any M 346
own body as one M 346
own life is being M 344
own eyes he has M 344
own body is one M 343
own ideas to his M 342
own home to see M 342
own heart to his M 342
own heart in that M 342
own form of this M 340
own band in new M 340
own work by his M 338
own ways of going M 338
own time we may M 338
own role as poet M 338
own most of this M 338
own will at all M 336
own self so that M 336
own name he had M 336
own kind is not M 336
own home on his M 336
own good in this M 336
own food so that M 336
own case we can M 336
owe nothing to that M 335
own time to bring M 334
own ends in his M 334
own ends by its M 334
own will so that M 332
own name to any M 332
own name by any M 332
own mind as his M 332
own ideas as you M 332
own during the long M 332
own room to lie M 330
own home to that M 330
own hand to this M 330
own hand to that M 330
own home in his M 328
own take on things M 326
own past is not M 326
own mind he saw M 326
own land he had M 326
owe much to god M 326
own home if she M 324
own food as they M 324
own feet in this M 324
own face in that M 324
own eyes we see M 324
own ends in this M 324
owe many of his M 324
owing also to its M 323
own time to that M 322
own time or for M 322
own theory in this M 322
own lack of them M 322
own heart in its M 322
own hand on this M 322
own room to put M 320
own part in our M 320
own love to god M 320
own eyes if they M 320
own self is one M 318
own room he sat M 318
own pain by his M 318
own feet in her M 318
own worth is not M 317
own role as being M 316
own name at all M 316
own home as she M 316
own work if you M 314
own cost in all M 314
own work in any M 312
own room in this M 312
own name to its M 312
owe even to our M 312
own time to her M 310
own hand he cut M 310
own life as far M 309
own work so far M 308
own time he has M 308
own form of being M 308
owing only to his M 308
own rule of not M 306
own feet as she M 306
own case it had M 306
own line of kings M 304
own home or his M 304
own hand to him M 304
own hand in one M 304
owing some of its M 304
owing much to its M 303
own tears as they M 302
own self in that M 302
own mind of all M 302
own view in his M 300
own name as long M 300
own mode of death M 300
own mind as being M 300
own life if that M 300
own home to get M 300
own food by using M 300
own ends is not M 300
own body to him M 300
own there is not M 298
own land it was M 298
own home it was M 298
own anger at being M 298
own side of that M 297
own hand or act M 297
own theory on this M 296
own room to see M 296
own name at that M 296
own mind in all M 296
own mind an idea M 296
own making or not M 296
own hand in her M 296
owing more to our M 296
own line to that M 294
own life to end M 294
own life at his M 294
owing more to its M 294
own side of things M 292
own life he did M 292
own hand he was M 292
own hand as she M 292
own gift to her M 292
owing part of its M 292
own meaning in his M 290
own health at this M 290
own face is not M 290
own food if they M 288
owe none of its M 288
own hand on one M 287
own feet so that M 287
own faith in that M 287
own will or his M 286
own ruin in that M 286
own means of doing M 286
own hand in our M 286
own body or any M 286
owe most to him M 286
own home is one M 285
own need of god M 284
own left wing and M 284
own hand the two M 284
own hair if she M 284
own till the end M 283
own back on that M 283
own will to die M 282
own time in that M 282
own mind by any M 282
own land in her M 282
own ends or for M 282
own loss of his M 280
own kind if they M 280
own copy of her M 280
owing much of that M 280
owing also to this M 280
owe much to one M 280
owe more to that M 280
own love to them M 278
own love of his M 278
own eyes we are M 278
own body to act M 278
own land or any M 277
own theory of its M 276
own note to this M 276
own life if they M 276
own life at age M 276
own home if they M 276
own hell on earth M 276
own sons or any M 274
own room as she M 274
own mind to get M 274
own gain or for M 274
own food if you M 274
own eyes on his M 274
own mind to say M 272
own meaning to them M 272
own life to try M 272
own land do not M 271
own work is being M 270
own tears of joy M 270
own self in and M 270
own room at his M 270
own name on any M 270
own love or his M 270
own line he was M 270
own book is not M 270
own anger at his M 270
owing also to his M 270
own wrong in this M 268
own will he has M 268
own whom he had M 268
own want of wit M 268
own time if they M 268
own name as his M 268
own mind so far M 268
own living by his M 268
own life is his M 268
own food or buy M 268
own face so that M 268
own when he saw M 266
own time of death M 266
own time do not M 266
own theory in his M 266
own luck in this M 266
own kids do not M 266
own ideas on all M 266
own ideal of how M 266
own eyes if not M 266
own body in her M 266
owe nothing to each M 266
own time of day M 264
own name at this M 264
own ideas of two M 264
own work as far M 262
own will to bow M 262
own mind as that M 262
own life to set M 262
own life by this M 262
owe much to each M 262
own will in that M 261
own even in this M 261
own work to his M 260
own time as being M 260
own name on its M 260
own name he was M 260
own kind in this M 260
own life by going M 258
owe nothing to her M 258
own only if they M 257
own view of any M 256
own self in her M 256
own ruin in this M 256
own name on that M 256
own mind to any M 256
own home in her M 256
own kind of man M 255
own from the day M 255
own fears of aging M 255
own view of all M 254
own time on this M 254
own role in our M 254
own meaning on them M 254
own love to his M 254
own home by her M 254
own food in his M 254
own face to see M 254
own dream of being M 254
own book to read M 254
own kind so that M 253
own work or his M 252
own view it was M 252
own songs to his M 252
own some of this M 252
own self or his M 252
own name on all M 252
own land in its M 252
own heart on this M 252
own theory of this M 250
own past or that M 250
own life or not M 250
own ideas on his M 250
own ideas of law M 250
own time as that M 249
own work at its M 248
own will to act M 248
own role in any M 248
own part to his M 248
own mind is this M 248
own life is but M 248
own ideas is not M 248
own copy of any M 248
own work or not M 246
own ways to use M 246
own time to say M 246
own mind he can M 246
own many of our M 246
own list of key M 246
own line of things M 246
own life do you M 246
own land by his M 246
own body in that M 245
own rule in this M 244
own mark on them M 244
own life on her M 244
own good so that M 243
own view of why M 242
own type of man M 242
own tale in his M 242
own mind if not M 242
own heart of its M 242
own heart by this M 242
own good or not M 242
own loss of men M 240
own life on its M 240
own life by using M 240
own kind in his M 240
own eyes or not M 240
own land as far M 239
own will on his M 238
own self as all M 238
own name in new M 238
own life of that M 238
own kind to that M 238
own heart as you M 238
own city if they M 238
own time if you M 237
own work to this M 236
own life or her M 236
own life in them M 236
own fate if they M 236
owe nothing to you M 236
own work is now M 234
own rating of his M 234
own name is that M 234
own mind or with M 234
own love is not M 234
own life do not M 234
own home as you M 234
own mind by one M 233
own list of all M 233
own eyes the two M 233
own loss of two M 232
own life or any M 232
own life by being M 232
own ideas of this M 232
own ideas of him M 232
own copy of year M 232
own case he has M 232
own view or that M 231
own work as she M 230
own word in his M 230
own will to this M 230
own view he had M 230
own tale of his M 230
own mind on all M 230
own land to his M 230
own kind as they M 230
own ideal in its M 230
own user id and M 228
own time in all M 228
own land we are M 228
own case at any M 228
own eyes in that M 227
own view of death M 226
own time in doing M 226
own some of that M 226
own role is that M 226
own mode of doing M 226
own life to pay M 226
own life by eating M 225
own land on both M 225
own health so that M 225
own good in one M 225
own work in all M 224
own wish to get M 224
own wish is that M 224
own loss of her M 224
own ideas of her M 224
own heart to him M 224
own hand to all M 224
own faith in our M 224
own debt to his M 224
own days we see M 224
own city he was M 224
own when it can M 223
own work of that M 222
own work it has M 222
own work in one M 222
own tale of how M 222
own room to her M 222
own note on this M 222
own name on this M 222
own mind or his M 222
own mind on his M 222
own heart is too M 222
own form is not M 222
own most or all M 221
own hair or that M 221
own self or for M 220
own room in our M 220
own part he has M 220
own name if she M 220
own mind the way M 220
own mark on this M 220
own life as its M 220
own ideas of them M 220
own heart in all M 220
own form of law M 220
own duty to god M 220
own even if you M 219
owing much of his M 219
own work is his M 218
own self as being M 218
own mind on how M 218
own mind it had M 218
own land of his M 218
own health or for M 218
own good if you M 218
own fears of dying M 218
own eyes at any M 218
own will he was M 216
own what is not M 216
own past or with M 216
own mind the things M 216
own loss in this M 216
own life of how M 216
own life by its M 216
own fate in being M 216
own view as that M 215
own body is that M 215
own past in this M 214
own mind is one M 214
own life if his M 214
own hand is his M 214
own ends as they M 214
own debt to them M 214
own body to her M 214
own were it not M 213
own work we are M 212
own wish of being M 212
own living in his M 212
own kind he had M 212
own heart at all M 212
own good in that M 212
own face in this M 212
own eyes the real M 212
own eyes is that M 212
own eyes as you M 212
own data in this M 212
own body or its M 212
own mind is all M 211
own home in that M 211
own work by using M 210
own word to say M 210
own plan to bring M 210
own name as she M 210
own mind to bring M 210
own mind of any M 210
own kind of song M 210
own kind of men M 210
own faith is that M 210
own ends if they M 210
own case in any M 210
own back on this M 210
own work is going M 208
own side in this M 208
own list of ten M 208
own life we can M 208
own hand or his M 208
own body or with M 208
own time it may M 206
own kind of joy M 206
own feet to get M 206
own face he saw M 206
owe some of this M 206
own hand on that M 205
own work on earth M 204
own time is his M 204
own need of her M 204
own life the day M 204
own home as his M 204
own faith at its M 204
own work is far M 203
own when the two M 202
own ways as they M 202
own view of who M 202
own poems in his M 202
own part to see M 202
own need of him M 202
own kind he was M 202
own heart the sin M 202
own heart if you M 202
own hand in its M 202
own hand as they M 202
own faith in and M 202
own eyes the new M 202
own door he was M 202
own just as they M 201
own work it was M 200
own view to that M 200
own time to read M 200
own role is not M 200
own mind to this M 200
own mind of her M 200
own living to get M 200
own ideas of that M 200
own home to his M 200
own feet as far M 200
own book on this M 200
own body as that M 199
own will in her M 198
own time or not M 198
own sons in his M 198
own role as its M 198
own name it was M 198
own month of may M 198
own mind as yet M 198
own body as its M 198
owe unto my own M 198
own form of death M 197
own side of any M 196
own mind it has M 196
own door to that M 196
own body as far M 196
own home in one M 195
own room it was M 194
own pair of wings M 194
own name or who M 194
own love to him M 194
own life in god M 194
own life by not M 194
own hand if she M 194
own food is not M 194
own fate by his M 194
own face in them M 194
owe nothing to god M 194
own wrong is not M 192
own part the poet M 192
own name at law M 192
own longing to see M 192
own ideas in any M 192
own hand to say M 192
own faith as they M 192
own eyes at this M 192
own ends by his M 192
own book in his M 192
own body to get M 192
owe most to his M 192
own time is too M 191
owing most of its M 191
own work at that M 190
own will as any M 190
own view on that M 190
own room is not M 190
own name at his M 190
own life or was M 190
own land or who M 190
own ideas to them M 190
own home or not M 190
own game as they M 190
own eyes at our M 190
own duty to his M 190
own door in his M 190
own body by his M 190
own body as her M 190
owe nothing to one M 190
own upon the top M 189
own work in them M 188
own work at his M 188
own wish to die M 188
own side is not M 188
own part is not M 188
own life of his M 188
own length at one M 188
own land in new M 188
own land he has M 188
own land at any M 188
own face in its M 188
own cost he had M 188
own body as they M 188
own band of men M 188
own arms to his M 188
own work he did M 186
own time to his M 186
own name if they M 186
own mind as they M 186
own life if this M 186
own land in all M 186
own home is that M 186
own hand to them M 186
own poems in this M 185
own work on her M 184
own time no one M 184
own need of them M 184
own mind the real M 184
own living in any M 184
own life he may M 184
own life by her M 184
own home at this M 184
own hand up and M 184
own hand to any M 184
own hand it was M 184
own fate is not M 184
own eyes on that M 184
own case at all M 184
own arms to her M 184
owe much of her M 184
own work as one M 183
own upon the earth M 183
own work or with M 182
own self by his M 182
own risk if they M 182
own plan to get M 182
own name is one M 182
own luck the dying M 182
own lack of this M 182
own lack of that M 182
own case as one M 182
owe nothing to its M 182
owe much to men M 182
owe more to god M 182
own self at all M 180
own role or that M 180
own reading of its M 180
own once it has M 180
own making in his M 180
own living or dying M 180
own heart is our M 180
own hand is too M 180
own body is both M 180
own kind of law M 179
own eyes of that M 179
own time or his M 178
own means to bring M 178
own life up out M 178
own hand of our M 178
own good it was M 178
own feet in its M 178
own eyes or with M 178
own bank in new M 178
own view of one M 177
own theory of war M 177
own part of our M 177
own work to its M 176
own time or any M 176
own side as they M 176
own mind of how M 176
own life to all M 176
own land at his M 176
own heads if they M 176
own gift to his M 176
own face or that M 176
own eyes the sad M 176
own eyes on this M 176
own duty to pay M 176
own copy of one M 176
owe most of his M 176
own kind of god M 175
own self to his M 174
own fury or fear M 174
own ends so long M 174
own cost of doing M 174
own theory of man M 173
own work is both M 172
own will or not M 172
own will on them M 172
own ways in this M 172
own want of due M 172
own time to set M 172
own sons to his M 172
own ideas or his M 172
own hour of death M 172
own heart he has M 172
own hand to each M 172
own eyes or hear M 172
own duty to see M 172
own case to his M 172
owing nothing to his M 172
own land or are M 171
own will at any M 170
own view of both M 170
own time in our M 170
own self by not M 170
own role in god M 170
own role in both M 170
own risk of death M 170
own realm of being M 170
own nothing in this M 170
own need to use M 170
own need to act M 170
own life in and M 170
own life by one M 170
own life as her M 170
own ideas if they M 170
own home at that M 170
own good do not M 170
own duty in his M 170
own breath as she M 170
own body is being M 170
owe more of our M 170
own there is one M 169
own hand or arm M 169
own work to one M 168
own upon it and M 168
own truth in its M 168
own time as his M 168
own take on how M 168
own self in him M 168
own heart if she M 168
own form of oath M 168
own eyes we had M 168
own eyes at that M 168
own body at any M 168
own back to that M 168
own part of any M 167
own time at his M 166
own theory on how M 166
own text is not M 166
own side to win M 166
own ruin or that M 166
own paths in this M 166
own pain to deal M 166
own mind to try M 166
own mind of being M 166
own life in him M 166
own heart at that M 166
own health is now M 166
own good as they M 166
own data on this M 166
own case is one M 166
own book on his M 166
own body or for M 166
own army or that M 166
own ideas to see M 165
own when we can M 164
own till he had M 164
own self to god M 164
own part of them M 164
own land in our M 164
own ideas or with M 164
own eyes we can M 164
own city of god M 164
own book in this M 164
owe part of our M 164
own time the two M 163
own living in that M 163
own like the one M 163
own life is all M 163
own land so long M 163
own days on earth M 163
own work in both M 162
own word on this M 162
own word is not M 162
own when it has M 162
own what he hath M 162
own view is one M 162
own turn to die M 162
own plan in his M 162
own name on each M 162
own meals or are M 162
own ideas in its M 162
own hand on two M 162
own hand it may M 162
own food in its M 162
own eyes to her M 162
own city as they M 162
own body is for M 162
own back on all M 162
own most of our M 161
own when the war M 160
own sons do not M 160
own need to put M 160
own mind in any M 160
own land or his M 160
own hair is not M 160
own body or her M 160
own body of men M 160
own body in any M 160
owe most of them M 160
own faith or that M 159
own wealth by our M 158
own room to that M 158
own room by this M 158
own none at all M 158
own mind we can M 158
own mind is too M 158
own means to that M 158
own life or with M 158
own land to that M 158
own ideal in his M 158
own hurt it may M 158
own home to her M 158
own ends by this M 158
own life if one M 157
owing less to any M 157
own view of law M 156
own time to our M 156
own part to bring M 156
own name as its M 156
own mind as far M 156
own living is not M 156
own living in this M 156
own list of six M 156
own life by way M 156
own land or for M 156
own home or any M 156
own heart to two M 156
own face at all M 156
own body of his M 156
own body is his M 156
own left wing was M 155
own will on that M 154
own will he can M 154
own time by its M 154
own self or ego M 154
own room to cry M 154
own past so that M 154
own name to him M 154
own name he may M 154
own life the law M 154
own life at its M 154
own land to get M 154
own land is this M 154
own lack of ease M 154
own ideas on any M 154
own ideal of his M 154
own heart by his M 154
own hand to see M 154
own fire in his M 154
own face on his M 154
own ending to this M 154
own life or one M 153
own ideal is that M 153
own work in two M 152
own will as law M 152
own ship he was M 152
own name by his M 152
own land as long M 152
own just to get M 152
own hell by doing M 152
own heart to her M 152
own heart if this M 152
own heart he did M 152
own heart as they M 152
own hand the act M 152
own eyes in one M 152
own case in all M 152
own body at all M 152
own time or with M 150
own rule is that M 150
own ruin by his M 150
own past as they M 150
own part to act M 150
own name as they M 150
own living so that M 150
own ideas of why M 150
own health in his M 150
own game of war M 150
own eyes the death M 150
own cost if they M 150
own city he had M 150
own case if his M 150
own body or not M 150
own back in this M 150
owing only to this M 150
own will to win M 148
own walk at his M 148
own view at this M 148
own talk by way M 148
own sons as they M 148
own some of its M 148
own risk if you M 148
own past is yet M 148
own name at any M 148
own lack in this M 148
own home at all M 148
own good to try M 148
own eyes in our M 148
own bent in this M 148
own mind of that M 147
own life by that M 147
own into the air M 147
own work to pay M 146
own view of war M 146
own time is due M 146
own room in one M 146
own mind is far M 146
own list of new M 146
own length in one M 146
own kind in its M 146
own kind do not M 146
own health or his M 146
own hand if you M 146
own even as they M 146
own bank in all M 146
own life to one M 145
own work as his M 144
own word or own M 144
own will by his M 144
own time as you M 144
own tail in his M 144
own sons if they M 144
own poems to him M 144
own line as far M 144
own jobs if they M 144
own heart to that M 144
own book of job M 144
own body if you M 144
owe most in this M 144
own none of them M 143
own work by this M 142
own when we get M 142
own time to put M 142
own time to its M 142
own room at her M 142
own name as you M 142
own mind to ask M 142
own mind the old M 142
own meaning to its M 142
own love of this M 142
own living if they M 142
own ideas at this M 142
own home on that M 142
own hand as his M 142
own game by using M 142
own fears of not M 142
own dread of being M 142
own debt to her M 142
own copy of its M 142
own case in that M 142
owe much to any M 142
own name in two M 141
owe nothing to man M 141
own youth in his M 140
own work we can M 140
own past in his M 140
own meals if they M 140
own love to man M 140
own lack of one M 140
own ideas to bear M 140
own heart to all M 140
own ends in her M 140
own depth of being M 140
own body as does M 140
own back in his M 140
owing also to that M 140
owe what we now M 140
owe most to that M 140
owe less to any M 140
own food in this M 139
own work as not M 138
own view as being M 138
own tomb in his M 138
own room if she M 138
own over the long M 138
own mind to its M 138
own ideas of our M 138
own ideas at all M 138
own home is being M 138
own home at his M 138
own heading in this M 138
own hand on may M 138
own ends as far M 138
own debt to this M 138
own code so that M 138
own army in its M 138
own acts or for M 138
own work to them M 136
own will we are M 136
own tops as they M 136
own time is but M 136
own take on that M 136
own self to see M 136
own self as one M 136
own ruin by doing M 136
own reading in this M 136
own name he has M 136
own making is not M 136
own life in may M 136
own hand to our M 136
own hair in this M 136
own game in his M 136
own fate as they M 136
own eyes to bear M 136
own days we are M 136
own care in all M 136
owe most of that M 136
own faith so that M 135
own truth in his M 134
own time is far M 134
own part to get M 134
own meals in his M 134
own love to hang M 134
own life we are M 134
own life on our M 134
own life it has M 134
own land to see M 134
own hand in two M 134
own hand as you M 134
own hair in his M 134
own fate in her M 134
own case it may M 134
own body on that M 134
own time in one M 133
own only so long M 133
own love of singing M 133
own work in and M 132
own wish to that M 132
own when no one M 132
own tears on her M 132
own self is his M 132
own pain or that M 132
own most of its M 132
own mind up and M 132
own heart to its M 132
own good as his M 132
own fears in this M 132
own city is not M 132
own care as they M 132
owe more of this M 132
owe also to him M 132
own work is all M 131
own side so that M 131
own name so long M 131
own half of that M 131
own work as any M 130
own view of men M 130
own truth is not M 130
own side he had M 130
own self or one M 130
own self if you M 130
own self as she M 130
own reading of him M 130
own poems do not M 130
own meaning in this M 130
own life of this M 130
own home on this M 130
own home by this M 130
own heart to beat M 130
own health as they M 130
own hand the man M 130
own hand of her M 130
own hand in all M 130
own hand at that M 130
own gain is led M 130
own eyes as his M 130
own core is one M 130
own case we see M 130
own body to you M 130
own body or one M 130
own acts he has M 130
owing nothing at all M 130
owe some of that M 130
owe more of its M 130
own view on his M 128
own time at all M 128
own side of his M 128
own self to him M 128
own room to him M 128
own room or with M 128
own name to set M 128
own name he can M 128
own mind as its M 128
own loss in her M 128
own life is far M 128
own kind in that M 128
own ideas in them M 128
own here on earth M 128
own even if she M 128
own days we can M 128
own case we may M 128
own breath in his M 128
owing much to that M 128
owing more to her M 128
owe nothing to men M 128
own plan so that M 127
own land in one M 127
own into the new M 127
owing less to its M 127
own word in this M 126
own ways of eating M 126
own time at any M 126
own side he was M 126
own reading is not M 126
own rate in each M 126
own poems he had M 126
own plan to end M 126
own plan of how M 126
own name of his M 126
own name as her M 126
own name as being M 126
own live to our M 126
own life on may M 126
own life my own M 126
own land on his M 126
own ideas to add M 126
own hope of being M 126
own home as they M 126
own hand in red M 126
own hand if they M 126
own fate of being M 126
own face at that M 126
own eyes on her M 126
own eyes is bad M 126
own eyes in all M 126
own door to his M 126
own copy is now M 126
own army he had M 126
owing nothing of its M 126
owing also to new M 126
own name or one M 125
own wits to get M 124
own take is that M 124
own only by one M 124
own mind to put M 124
own mind to him M 124
own mind if she M 124
own meaning to his M 124
own making of law M 124
own life to aid M 124
own land in god M 124
own home he has M 124
own heart on his M 124
own heart is set M 124
own heart is his M 124
own health as being M 124
own hand of all M 124
own hand is now M 124
own hair in her M 124
own good is one M 124
own food so they M 124
own fears or his M 124
own eyes by being M 124
own eyes at all M 124
own ends in its M 124
own door at one M 124
own care or that M 124
own back of them M 124
own anger at this M 124
owe mine to you M 124
own work on its M 122
own work in you M 122
own time as its M 122
own some of our M 122
own room as long M 122
own role as his M 122
own role as god M 122
own poems to all M 122
own page or all M 122
own mind if they M 122
own mind by now M 122
own means to his M 122
own life to run M 122
own land by day M 122
own kind or not M 122
own good to get M 122
own form so that M 122
own fears of his M 122
own face in any M 122
own face as long M 122
own eyes on him M 122
own eyes my son M 122
own eyes if she M 122
own door in its M 122
own door by two M 122
own city on his M 122
own case at this M 122
own came to him M 122
own among the men M 122
owe what we owe M 122
owe part of this M 122
own will to get M 120
own will as our M 120
own time to deal M 120
own show in new M 120
own room at all M 120
own rage at being M 120
own play of that M 120
own part he can M 120
own pain in his M 120
own more of them M 120
own making in that M 120
own life in two M 120
own life at one M 120
own life as for M 120
own ideas if you M 120
own hold on his M 120
own health in this M 120
own gift to him M 120
own feet or was M 120
own feet as long M 120
own eyes we may M 120
own eyes to his M 120
own eyes the end M 120
own days it was M 120
own case in its M 120
own body the way M 120
own body if she M 120
own bent in his M 120
own three of them M 119
own next to his M 119
own length of air M 119
own high or low M 119
own work as long M 118
own will as his M 118
own view at all M 118
own time he saw M 118
own tale of her M 118
own role in and M 118
own past in its M 118
own part in things M 118
own part do not M 118
own name at him M 118
own ideas in her M 118
own ideal of man M 118
own hand to you M 118
own hand the key M 118
own hand or was M 118
own hair as she M 118
own good he has M 118
own gift to them M 118
own gift of god M 118
own feet in all M 118
own data to see M 118
own copy of them M 118
own breath in her M 118
own body to death M 118
own back by being M 118
owing much to her M 118
own just as you M 117
own wish in this M 116
own when it had M 116
own ways in our M 116
own songs to him M 116
own rest to them M 116
own past at all M 116
own meaning to all M 116
own ideas in all M 116
own hair as they M 116
own form as had M 116
own feet so far M 116
own door to see M 116
own case if they M 116
own body he has M 116
own army is not M 116
own among the new M 116
own sort of end M 115
own only in that M 115
owe more to one M 115
own will as far M 114
own were at war M 114
own view at any M 114
own side in any M 114
own room to try M 114
own note is not M 114
own need of his M 114
own name to each M 114
own most of that M 114
own life to you M 114
own life at her M 114
own land is too M 114
own ideas to you M 114
own good in any M 114
own faith on this M 114
own eyes of his M 114
own days is not M 114
owe some of them M 114
owe life to you M 114
own just to see M 113
own heart as one M 113
own gift to man M 113
own youth it was M 112
own work on them M 112
own will is our M 112
own town he was M 112
own sons on that M 112
own risk is not M 112
own note to his M 112
own need to earn M 112
own mind is now M 112
own meaning in them M 112
own making as they M 112
own living if she M 112
own line in this M 112
own life if her M 112
own land to this M 112
own land or real M 112
own home is too M 112
own heart is all M 112
own hand of this M 112
own hand he put M 112
own hand at her M 112
own game if you M 112
own fate in doing M 112
own faith to see M 112
own deed by his M 112
own days is too M 112
own days he was M 112
own core of being M 112
own body by way M 112
own body at this M 112
own arms to him M 112
owing most of our M 112
owe some of her M 112
own whom he has M 111
own body in one M 111
own time as she M 110
own songs in his M 110
own side in his M 110
own ship so long M 110
own ship he had M 110
own plan is not M 110
own name is doing M 110
own living in new M 110
own living by her M 110
own life to let M 110
own life is put M 110
own land to any M 110
own kind of fear M 110
own ideas at that M 110
own home do not M 110
own eyes in her M 110
own eyes he can M 110
own duty to her M 110
own book on that M 110
own body he had M 110
own army at his M 110
owe many of them M 110
own wish or that M 109
own till it was M 109
own pain so that M 109
own life of all M 109
own here in this M 109
own work as god M 108
own work as both M 108
own when we see M 108
own view at that M 108
own time he did M 108
own sons as his M 108
own ship to his M 108
own self or that M 108
own part of her M 108
own once he had M 108
own name in our M 108
own mind do not M 108
own means to get M 108
own love of sin M 108
own home at any M 108
own hand to one M 108
own hand he led M 108
own good he had M 108
own form of that M 108
own feet if they M 108
own ends by using M 108
own ends at any M 108
own duty to him M 108
own deed in this M 108
own come to him M 108
own coat is not M 108
own body on top M 108
own body on her M 108
own aims in this M 108
owing only to two M 108
owing most of his M 108
own work to all M 106
own work as for M 106
own will to bear M 106
own will so long M 106
own view he has M 106
own time the idea M 106
own time in both M 106
own time by our M 106
own tale of two M 106
own side or that M 106
own self as you M 106
own role as both M 106
own over my head M 106
own once it was M 106
own need of this M 106
own need of that M 106
own need of being M 106
own mind in her M 106
own mind he does M 106
own mind by its M 106
own meaning to that M 106
own meaning to each M 106
own mark on each M 106
own living in one M 106
own life of its M 106
own life is thus M 106
own kind in our M 106
own home or her M 106
own hand to put M 106
own hand the red M 106
own fate in its M 106
own faith by his M 106
own eyes it can M 106
own copy in his M 106
own army to that M 106
owing more to him M 106
owe less to his M 106
own young if they M 104
own work to bring M 104
own will in god M 104
own time on his M 104
own till he was M 104
own theory in its M 104
own rule he had M 104
own role as head M 104
own reading of both M 104
own only as long M 104
own name or was M 104
own mind to her M 104
own making or that M 104
own love of her M 104
own line is not M 104
own life of ease M 104
own land we can M 104
own land is being M 104
own ideal of being M 104
own hero in his M 104
own heart as his M 104
own hand as was M 104
own gods in his M 104
own game on his M 104
own ends in any M 104
own ends he had M 104
own ends by being M 104
own copy of our M 104
own case in one M 104
own back to her M 104
own land is one M 103
own land at that M 103
own home is far M 103
own hair so that M 103
own youth he was M 102
own work in each M 102
own will so far M 102
own will or with M 102
own want of that M 102
own want of any M 102
own town or area M 102
own time as all M 102
own theory of her M 102
own side do not M 102
own reading of and M 102
own past on its M 102
own part it has M 102
own name the way M 102
own mind on each M 102
own means to pay M 102
own living at all M 102
own list as you M 102
own life to put M 102
own life to deal M 102
own life is due M 102
own life is both M 102
own ideas of non M 102
own ideas of being M 102
own hand the day M 102
own food in our M 102
own fate as for M 102
own eyes the men M 102
own eyes an old M 102
own door at that M 102
own book the big M 102
own body is thus M 102
own army as they M 102
owe nothing as yet M 102
own worth so that M 101
own type of non M 101
own heart so bid M 101
own wrong or that M 100
own worth in his M 100
own worth in god M 100
own work to her M 100
own work if she M 100
own will to her M 100
own ways to bring M 100
own view of and M 100
own text in this M 100
own take on his M 100
own sons to die M 100
own peace or that M 100
own name or age M 100
own mind to use M 100
own list if you M 100
own line as any M 100
own life so you M 100
own life or our M 100
own land or can M 100
own land he may M 100
own land as one M 100
own lack of due M 100
own ideas of death M 100
own ideal of that M 100
own home so they M 100
own hand to let M 100
own fate if she M 100
own faith if they M 100
own face as you M 100
own ends by all M 100
own during the six M 100
own debt to god M 100
own debt is not M 100
own case is being M 100
own body at his M 100
own acts is not M 100
owe less to her M 100
own name at one M 99
own even in his M 99
own during the two M 99
own book so that M 99
owing much to this M 99
own worth to his M 98
own worth by how M 98
own work so they M 98
own work at any M 98
own ways or not M 98
own time it did M 98
own time is being M 98
own time in new M 98
own time in her M 98
own till we get M 98
own tale of this M 98
own ship is now M 98
own room on her M 98
own room at this M 98
own past to see M 98
own past to his M 98
own name to pay M 98
own name is now M 98
own mind or had M 98
own line he has M 98
own life on any M 98
own land as his M 98
own kind of job M 98
own home in oak M 98
own health is one M 98
own health in her M 98
own hand in and M 98
own hand he set M 98
own form to that M 98
own food in her M 98
own eyes by this M 98
own eyes as one M 98
own duty of being M 98
own dream of how M 98
own case by being M 98
own body in two M 98
own back to him M 98
own back at him M 98
own baby on her M 98
owe much if not M 98
own wealth or that M 97
own work in him M 96
own work do not M 96
own work by that M 96
own work as poet M 96
own will on all M 96
own view of sin M 96
own type of law M 96
own time of this M 96
own time is now M 96
own time as long M 96
own self or with M 96
own self as his M 96
own room to sit M 96
own room on his M 96
own plan to deal M 96
own past or his M 96
own part as that M 96
own pain at being M 96
own life is its M 96
own land at this M 96
own kind or any M 96
own just as she M 96
own ideas he had M 96
own home in east M 96
own health by using M 96
own hand or had M 96
own goal is not M 96
own feet or not M 96
own feet at all M 96
own face in one M 96
own case if you M 96
own case he did M 96
own care if they M 96
owing none of its M 96
owe more to any M 96
own past is one M 95
own line so that M 95
own land in them M 95
own home by one M 95
own book is that M 95
own view on them M 94
own time to try M 94
own time at her M 94
own theory on why M 94
own self to her M 94
own pain to see M 94
own need to win M 94
own name to get M 94
own name in them M 94
own name he did M 94
own mind to run M 94
own mind is set M 94
own meaning in its M 94
own love of and M 94
own life to fit M 94
own life is and M 94
own into it and M 94
own ideas on her M 94
own ideal of god M 94
own home the old M 94
own home is now M 94
own hold on her M 94
own heart to them M 94
own heart do not M 94
own gift of song M 94
own game in this M 94
own fate in our M 94
own fate as being M 94
own eyes an act M 94
own came to her M 94
own body to bring M 94
own body in all M 94
own body do not M 94
own body by death M 94
own back as she M 94
own arms on his M 94
own anger at him M 94
own copy so that M 93
own work or who M 92
own will on its M 92
own will is one M 92
own wealth is not M 92
own trying to get M 92
own truth by any M 92
own time is all M 92
own tears to his M 92
own tale to him M 92
own side if they M 92
own self to death M 92
own self he was M 92
own rule on this M 92
own part so that M 92
own part of its M 92
own only in its M 92
own once he has M 92
own name to see M 92
own name or her M 92
own line or not M 92
own ideal is not M 92
own home is his M 92
own food to him M 92
own food at his M 92
own food as far M 92
own eyes the dead M 92
own debt or for M 92
own copy to read M 92
own code if you M 92
own coat on and M 92
own body or our M 92
own body is but M 92
owe less to him M 92
own during the mid M 91
own work on him M 90
own work by its M 90
own will to see M 90
own will if you M 90
own when he and M 90
own ways of dying M 90
own type of being M 90
own time to them M 90
own time on our M 90
own theory on that M 90
own tears on his M 90
own tail is not M 90
own ship in his M 90
own self as its M 90
own past he was M 90
own part to that M 90
own name in each M 90
own mind to act M 90
own mind on things M 90
own meaning on its M 90
own love of all M 90
own list of how M 90
own life or its M 90
own life or how M 90
own life is for M 90
own life by any M 90
own land or with M 90
own lack of joy M 90
own ideas on who M 90
own ideas he was M 90
own home as her M 90
own home an aid M 90
own hell in this M 90
own heart of his M 90
own heart is dead M 90
own health or her M 90
own heads as they M 90
own flag in its M 90
own eyes the old M 90
own eyes at his M 90
own case we had M 90
own body is now M 90
own acts of sin M 90
own will is all M 89
own anger or that M 89
own word in its M 88
own wish in age M 88
own will or was M 88
own will in our M 88
own view in its M 88
own sons to him M 88
own realm is now M 88
own past is far M 88
own only so far M 88
own name in big M 88
own name in and M 88
own name at its M 88
own mind by that M 88
own means to put M 88
own making in this M 88
own loss on this M 88
own line in his M 88
own life is her M 88
own life as any M 88
own land it has M 88
own ideas on why M 88
own ideas on him M 88
own home so far M 88
own home if that M 88
own hold on him M 88
own hold of him M 88
own hand to lead M 88
own hand in any M 88
own feet in any M 88
own days we may M 88
own case of his M 88
own birth or death M 88
own aims in his M 88
own acts in this M 88
own acts by that M 88
owing much to both M 88
owe only to his M 88
own type of war M 87
own eyes the day M 87
own youth is not M 86
own will as long M 86
own truth of being M 86
own time to heal M 86
own time on that M 86
own theory it can M 86
own tale in its M 86
own sons in this M 86
own sons he was M 86
own rage at her M 86
own puts me off M 86
own part of god M 86
own name or may M 86
own mind by then M 86
own love of them M 86
own life is cut M 86
own life in old M 86
own life by then M 86
own land or had M 86
own heart to read M 86
own gain or his M 86
own feet do not M 86
own fears so far M 86
own faith in one M 86
own faith he was M 86
own eyes in any M 86
own door on that M 86
own case to see M 86
own case he may M 86
own boys of that M 86
own body on his M 86
own body at that M 86
own bank is not M 86
owing much to him M 86
own plan is that M 85
own heart is that M 85
own file so that M 85
own worth or our M 84
own work or any M 84
own work on one M 84
own work of his M 84
own work is with M 84
own work is too M 84
own work as its M 84
own word to add M 84
own will in him M 84
own view of each M 84
own uses of them M 84
own turn to fly M 84
own town of new M 84
own time we had M 84
own time is our M 84
own time he may M 84
own self he can M 84
own room or not M 84
own room he did M 84
own poems to her M 84
own poems in that M 84
own poems as they M 84
own plan to that M 84
own past in her M 84
own past as she M 84
own part at all M 84
own part as far M 84
own pain as they M 84
own pain as she M 84
own need to hear M 84
own name is his M 84
own mind is our M 84
own mind is but M 84
own land to pay M 84
own land to die M 84
own home we can M 84
own home to bring M 84
own home by two M 84
own heart or his M 84
own heart go out M 84
own feet if you M 84
own fears as they M 84
own fears as she M 84
own fate he had M 84
own fate as his M 84
own faith is weak M 84
own face to that M 84
own face at this M 84
own eyes as not M 84
own ends by doing M 84
own copy is one M 84
own case by this M 84
own body is doing M 84
own even in that M 83
own youth in this M 82
own will to him M 82
own will to being M 82
own will on him M 82
own told me that M 82
own time is near M 82
own stay in that M 82
own road as they M 82
own prior to this M 82
own part of being M 82
own part is that M 82
own need to bring M 82
own living by doing M 82
own heart as being M 82
own health if they M 82
own having to die M 82
own hand at them M 82
own from an old M 82
own fears on this M 82
own fears of her M 82
own fate by its M 82
own edge on her M 82
own days in that M 82
own book to him M 82
own body is going M 82
own back at her M 82
owe love to all M 82
own hand the one M 81
own word to that M 80
own will or any M 80
own ways as long M 80
own time as far M 80
own theory of who M 80
own ship in her M 80
own ruin if they M 80
own peace to her M 80
own part we had M 80
own part by any M 80
own pain in her M 80
own name is too M 80
own mind the new M 80
own mind the day M 80
own mind he and M 80
own mind by her M 80
own means to this M 80
own loss in his M 80
own line he had M 80
own ideas in our M 80
own home by using M 80
own heart of all M 80
own heart is sad M 80
own faith to that M 80
own face in two M 80
own face if you M 80
own eyes the air M 80
own eyes he may M 80
own evil or his M 80
own ends the new M 80
own ends by any M 80
own door on his M 80
own code to use M 80
own coat to get M 80
own body we can M 80
own anger is not M 80
own acts or his M 80
owing only to our M 80
owe what he has M 80
owe more to each M 80
owe mine to him M 80
own land so near M 77
own what we are M 65
own much of this M 63
own ways so that M 58
own what it was M 55
own areas so that M 54
own what he can M 53
own life on one M 53
own half of them M 52
own lots of things M 51
own most of his M 50
own mind on one M 49
own what he was M 48
own sons so that M 48
own land in both M 48
own home on one M 48
own there is but M 47
own land in two M 47
own data is that M 47
own what we can M 45
own what is his M 45
own there is any M 45
own from the top M 45
own ends so that M 45
own will or act M 44
own some of her M 44
own from my own M 44
own ends in that M 44
own making so that M 43
own length so that M 43
own land is that M 43
own home on east M 43
own feet in that M 43
owing only to her M 43
own what he does M 42
own role so that M 42
own land or own M 42
own such as they M 41
own more of this M 41
own make up and M 41
own list of job M 41
own half of his M 41
own form of war M 41
own five or ten M 41
own data so that M 41
own kind of air M 40
own hand so long M 40
own case so that M 40
owing some of his M 40
own sake or for D 12726
own sake as for D 7516
own sake is not D 6530
own work of art D 2719
own fish to fry D 1610
own theory of art D 1033
own soul is not D 934
own sake or that D 914
own soil or that D 904
own sake do not D 816
own kind of art D 678
own sake is one D 674
own view of art D 665
own soul in his D 606
own wife is not D 584
own form of art D 582
own soul in its D 572
own sake if not D 570
own sake in this D 548
own land in fee D 519
own soul he hath D 516
own sake so that D 514
own guns to bear D 498
own sake it was D 482
own firm in new D 469
own race to that D 466
own laws in this D 466
own eyes or ears D 466
own spin on things D 462
own ideas of art D 454
own soul to god D 438
own sake at all D 432
own wife to death D 428
own laws by its D 422
own kind of fun D 422
own sake he had D 418
own bread to earn D 414
own laws of being D 404
own soul by his D 402
own race in this D 400
owe much to sir D 398
own laws as they D 390
own wife in his D 388
own laws in our D 386
own love of art D 384
own laws in its D 378
own pupa in its D 356
own bulk of air D 348
own lips of his D 338
own spin on them D 328
own spin on this D 316
own sake or with D 316
own doings in this D 316
own soul he was D 306
own axis so that D 306
own sake he was D 296
own ideas on art D 294
own sake or not D 290
own soul in that D 288
own soul in this D 286
own sake or its D 284
own laws he can D 284
own soul so that D 280
own pace so that D 280
own lips he had D 280
own bulk of this D 280
own pace as they D 272
own least of all D 269
own wife if she D 264
own sins in this D 264
own sake is that D 264
own sake in his D 262
own pace as you D 260
own finger on two D 260
own race is not D 256
own line of art D 254
own soul if you D 250
own task as one D 248
own wife in her D 246
own soul he has D 246
own joke to his D 246
owing less to art D 245
own soul he had D 244
own aunt in that D 242
own laws in all D 230
own sins or for D 228
own bond to pay D 228
own soul or his D 224
own soul in all D 224
own sins do not D 222
own lips as she D 222
own sake as they D 220
own soul to see D 218
own spot of earth D 217
own soul or that D 216
own breath to fan D 216
own mouth we are D 212
own home or car D 212
own make of car D 210
own sake as his D 208
own laws on this D 206
own sins as you D 204
own jack of all D 204
own pace in his D 200
own guns on them D 200
own task in this D 198
own name to sue D 198
own wife or his D 196
own boss is not D 196
own sins to god D 194
own pace as long D 194
own want of zeal D 192
own vine or fig D 192
own sake or out D 190
own race in its D 190
own sake he did D 188
own wife to his D 186
own tears thy song D 186
own soul to his D 186
own laws do not D 186
own ideal of art D 185
own bread in this D 184
owe nothing to art D 184
own race in his D 182
own whim the law D 181
own sake as that D 180
own desk in his D 180
own cash to pay D 180
own sake in all D 176
own sake as one D 176
own duty to sow D 176
own soul is his D 174
own time by sir D 172
own suit is not D 172
own sake he has D 170
own sake to see D 166
own laws so far D 166
own hand to sir D 166
own work in art D 164
own soul as she D 164
own sake it can D 164
own sake is being D 164
own mouth he was D 164
own race or sex D 162
own race in one D 162
own race of men D 160
own mouth in his D 160
own crop of new D 160
own vote in his D 158
own loom in his D 158
owl speak to thee D 158
own sake as with D 156
own brat on our D 156
own wife as his D 154
own soul to let D 154
own soul in her D 154
own skin in his D 154
own sake or his D 154
own sake as being D 154
own bulk of that D 154
own tears at bay D 152
own plot of earth D 152
own pace in this D 152
own laws on its D 152
own laws as long D 152
own lack of zeal D 152
own cave or hut D 152
own axis is not D 152
own soul to him D 150
own race is one D 150
own laws if they D 150
own cash to buy D 150
own diary of his D 148
own task as that D 147
owl weep to fly D 147
own crib or bed D 146
own mouth as she D 144
own sake in its D 142
own mouth to that D 142
own race as they D 140
own legs to get D 140
own farm or his D 140
own axis in one D 140
own skin to see D 138
own lips to his D 138
own laws it was D 138
own laws is not D 138
own wife he had D 136
own race as had D 136
own milk to her D 136
own lips of her D 136
own soul to that D 134
own skin is not D 134
own sake is now D 132
own camp it was D 132
own bringing up and D 131
own mood at this D 130
own cars to get D 129
own soul or for D 128
own ideas of fun D 128
own boss in this D 128
own sake if you D 126
own legs to run D 126
own when he met D 124
own view of sex D 124
own sake we are D 124
own rate of tax D 124
own mouth to his D 124
owl flew in and D 124
own task is not D 122
own soul to this D 122
own mouth of his D 122
own bulk of gas D 122
own boss as long D 122
own wife so that D 121
own soil by this D 120
own mouth is not D 120
own guns as they D 120
own sake if they D 118
own bowl so that D 118
own wife he was D 116
own teeth in his D 116
own neck or that D 116
own bread in his D 116
owl from an old D 116
own wife to her D 114
own wife in this D 114
own sake in any D 114
own pace in each D 114
own love of fun D 114
own axes as they D 114
own boss is that D 113
own wife at his D 112
own soul to its D 112
own soul at that D 112
own skin he was D 112
own sake is bad D 112
own race to run D 112
own legs so that D 112
own wife do not D 110
own spin on his D 110
own sins by this D 108
own lips on his D 108
own laws to its D 108
own laws of war D 108
own wife on his D 106
own skin he had D 106
own race or not D 106
own joke as she D 106
own race so that D 105
own soul at this D 104
own sake to put D 104
own lips the cup D 104
own laws as you D 104
own foot in his D 104
own boat if you D 104
own sake is but D 103
own wins the day D 102
own wife or son D 102
own soil is not D 102
own skin in this D 102
own shoes in his D 102
own milk is not D 102
owl during the day D 102
own north sea oil D 101
own walk of art D 100
own soul it was D 100
own sake to get D 100
own sake by any D 100
own mouth of all D 100
own lips in his D 100
own boat to get D 100
own laws in that D 99
own wife to him D 98
own task as being D 98
own spin on that D 98
own skin or that D 98
own sake is both D 98
own sake at any D 98
own sake as its D 98
own laws to deal D 98
own kind of sex D 98
own farm is not D 98
own boat is not D 98
own wife is one D 96
own vine or his D 96
own race or any D 96
own boss is fun D 96
own boss if you D 96
own wife or with D 94
own tale of sir D 94
own soul to death D 94
own skin or mat D 94
own pace in its D 94
own mouth he has D 94
own lips as they D 94
own depth of peg D 94
own cars on its D 94
own boss in his D 94
own rank or that D 93
own farm at new D 93
own sake or who D 92
own sake if for D 92
own race in her D 92
own wife as she D 90
own type of art D 90
own tithe to his D 90
own sake we can D 90
own race in any D 90
own mouth so that D 90
own lips if her D 90
own laws in his D 90
owl from the top D 89
own wine in his D 88
own spit in his D 88
own soul of its D 88
own life in art D 88
own laws so long D 88
own firm is not D 88
own crew of men D 88
own club in new D 88
owe more to art D 88
own soul to them D 86
own soul or not D 86
own sake to hear D 86
own neck if you D 86
own lips so that D 86
own laws in her D 86
own wine at his D 84
own soul to all D 84
own sake is apt D 84
own race he was D 84
own boss as far D 84
own soul he may D 82
own sins as for D 82
own sake it may D 82
own sake it has D 82
own roof at this D 82
own rank he was D 82
own race or with D 82
own laws by all D 82
own good the oil D 82
own finger on this D 82
own sake is all D 81
own soul of his D 80
own skin at any D 80
own roof he was D 80
own hook in his D 80
own hams at that D 80
own copy of sir D 80
owe rent to his D 80
own cars do not D 51
own room to bed D 46
own laws so that D 46
own mouth or that D 45
own race or that D 42
own wife or one D 41
own self is fir D 41
own skin so that D 40
own sake in that D 40
