own i can not M 11510
own i did not M 4916
own i was not M 3178
own i had not M 726
own a dog and M 534
own a dog that M 489
own i can see M 435
own a cat and M 310
own a lot and M 288
own a few head M 246
owing i can not M 246
own i read with M 196
owe a lot for M 174
own i now and M 162
own i had you M 154
owe a man ten M 152
own a dog who M 148
own i was weak M 147
own i fear that M 146
own i had too M 137
own a bar and M 130
own i had that M 126
own i long for M 120
own a man who M 119
own a bow and M 117
own i see not M 116
own i was far M 113
own a few things M 109
own a dog with M 107
own i see but M 102
own i was too M 100
own i was then M 99
owe a new and M 92
own a big lot M 90
own a pet and M 88
own a dog you M 88
owe a man for M 86
own i was one M 85
own i was going M 85
own a box that M 85
own i did see M 83
own i had now M 82
owe a lot and M 82
own a car and D 4865
own a gun and D 1139
own a car that D 812
own a new car D 765
own a car but D 719
own a gun for D 488
own a car for D 396
own a car with D 362
own a cow and D 276
own a car than D 234
own a car was D 226
own a car you D 208
own a bed and D 170
own a car then D 142
own a car are D 134
own a big car D 134
own a car may D 122
own a car nor D 120
own a gun than D 106
own a car can D 104
own a car they D 100
own a cow that D 40
