owner who is a M 1942
owner may be a M 1858
owner was in a M 1156
owner and as a M 792
owner can be a M 690
owned him as a M 667
owner that is a M 648
owned all of t M 464
owned not by a M 418
owned now by a M 378
owner out of a M 322
owner set up a M 302
owner put up a M 272
owner has in a M 264
owner but as a M 262
owned all or a M 238
owner was of a M 236
owner and is a M 234
owned her as a M 194
owner was at a M 188
owned was in a M 185
owner put in a M 176
owned that in a M 170
owner and in a M 154
owned them as a M 150
owner and of a M 148
owner sat in a M 144
owned that as a M 140
owned all of s M 140
owner was on a M 136
owner goes to a M 134
owner than as a M 132
owner sat on a M 130
owner put on a M 118
owned and in a M 117
owner but by a M 114
owner and to a M 112
owned and is a M 112
owner was as a M 106
owner and by a M 106
owned all of a M 104
owner than to a M 100
owned and as a M 100
owned one as a M 90
owner can do a M 88
owner due to a M 80
