can determine , " M 836
can appreciate , " M 532
can guarantee , " M 340
can sympathize , " M 334
can recognize , " M 280
can recommend , " M 210
can translate , " M 208
can calculate , " M 186
can celebrate , " M 170
can undertake , " M 166
can interpret , " M 162
can advertise , " M 140
can appreciate : " M 136
can translate : " M 131
can interfere , " M 130
can speculate , " M 120
can gentlemen , " M 100
can recognize : " M 94
can influence , " M 94
can telephone , " M 86
can surrender , " M 86
cat continued , " M 61
