care if i do M 13876
case of a king M 6120
care if i am M 5230
case of a so M 3008
case of a ring M 2962
case of a thing M 2482
care if i go M 2408
came as a by M 1863
case of a by M 1858
case of a the M 1554
case of a no M 1459
case of a is M 1266
case as i am M 1194
came to a king M 976
call it a thing M 952
calm as i am M 929
case as i do M 920
case of a wing M 855
care of a thing M 642
care as i do M 524
case of a in M 497
case am i in M 451
care of a king M 444
case if i do M 427
case if a is M 416
came to a tea M 364
case if i am M 356
cast in a ring M 347
case of a to M 330
came as a king M 318
case of a or M 316
call if i do M 288
care as i am M 284
case of i the M 268
came as a thing M 264
case of a we M 256
care if i eat M 244
case of a tea M 230
came in i do M 230
came to a ring M 218
call it a go M 218
call me i am M 210
cast as i am M 206
call it a no M 206
calm as i do M 196
case of t he M 194
case of a id M 193
case is a thing M 188
call it i do M 186
case of d the M 178
cake is a by M 176
caring as i do M 174
came to a by M 165
call it a tea M 165
case of a of M 164
call me a king M 150
case as a thing M 148
case is a so M 146
case of a ca M 145
case of a he M 142
came to a no M 142
call if i am M 141
call it a ring M 140
came to a thing M 138
call it a or M 132
cake at a tea M 132
case in a so M 130
case is a no M 123
case of a go M 119
case of a do M 118
case is a ring M 118
case if t is M 114
came to a the M 112
call of a king M 112
case of a us M 108
call it a the M 104
call is a thing M 102
care is a thing M 101
care of i am M 98
case of i is M 96
calm as i go M 96
call it a he M 94
case of a it M 88
cant do a thing M 88
care of a so M 86
case of t the M 84
call it a is M 84
case of a foe M 82
case of a as M 51
call as i am M 46
came to a so M 45
call as i go M 41
cake as a by M 40
case of a re D 1866
case of a sea D 1666
card is a king D 1252
case of a dc D 1102
came to a sea D 986
case of a bi D 705
call it a sea D 595
calm in a sea D 438
cash to a in D 254
case of a cw D 197
call it a re D 197
call of a sea D 180
calm as a sea D 152
cars on a by D 108
cars as i do D 106
cash to t in D 96
came to a re D 95
case of a ms D 85
camp is a thing D 84
call it a la D 54
case of a ti D 45
case of a pea D 40
