never saw a man M 53351
never was a man M 40274
never did i see M 30720
never had a real M 24732
never had a day M 15304
never had a man M 14196
never had a job M 12099
never did i hear M 11571
never had a bad M 8774
never did a man M 8426
never had a son M 7965
nearly had a fit M 7078
never let a man M 6661
never get a job M 6420
never see a man M 6195
never let a day M 5591
never had a dog M 5402
never was a war M 5065
never did a day M 4968
never had a lot M 4082
never was a real M 3686
never was a day M 3659
never was a boy M 3078
never has a man M 3064
never had a pet M 2976
never for a day M 2933
never had a bit M 2870
never use a long M 2612
never had a new M 2570
never see a poem M 2562
never ask a man M 2469
never saw a boy M 2422
never had a big M 2168
never had a long M 2108
never had a boy M 2102
never had a head M 2016
needs for a long M 2012
never had a meal M 1960
needs but a few M 1954
never get a man M 1929
needs for a new M 1911
never was a poet M 1816
never for a long M 1808
never saw a real M 1805
never had a fit M 1666
never was a bad M 1590
never saw a dog M 1564
never was a law M 1358
nearly all i had M 1334
never saw a dead M 1288
never had a cat M 1262
never had i had M 1259
never had a fear M 1215
never got a job M 1210
needs for a year M 1177
never had a war M 1169
never get a real M 1166
never did a mean M 1140
never ate a meal M 1140
never had a being M 1134
never win a war M 1084
never read a poem M 1074
never got a real M 1074
never won a war M 1058
nearer than i had M 1022
never was a new M 992
never say i did M 972
never put a man M 941
never did i say M 940
never had a one M 934
never does a man M 910
needs for a few M 894
never say i was M 890
never was a big M 882
never had a say M 882
never see a real M 878
never let a boy M 866
never had a set M 864
never saw a day M 821
never had a kid M 818
never had a death M 814
never was a year M 812
never had a toy M 801
never was a set M 752
never did i get M 723
never saw a set M 719
never had a key M 704
nearly one a day M 698
never was a bit M 693
never saw a bear M 685
never get a new M 684
never had a seat M 672
never saw a new M 662
never had a year M 653
never get a day M 647
never with a man M 632
never saw a kid M 622
never hear a man M 616
never saw a big M 603
never had a law M 594
needs and a new M 594
never buy a new M 592
needs for a day M 589
never see a dead M 588
never had a team M 576
never has a bad M 564
needs are a few M 564
never did i read M 558
never saw a cat M 536
never had a run M 536
never was a god M 526
never saw a bad M 524
never say a bad M 522
never see a cat M 520
never had a dry M 518
never get a seat M 510
never that i can M 506
never see a new M 503
never see a bit M 500
never use a big M 486
never did a bad M 484
never read a law M 482
never had a god M 478
never has a day M 475
never won a seat M 474
never was a meal M 472
nearby for a few M 470
never was a cat M 464
never can a man M 454
never had a bar M 452
never see a day M 450
never had a cup M 450
never let a year M 444
never did a bit M 434
never saw i his M 428
never got a new M 420
nearby and i was M 420
never yet a man M 418
never was a being M 417
never saw a red M 415
needs and a few M 409
never had a way M 408
never did a new M 406
never had a poet M 404
never got a man M 398
never has a poet M 392
never did a boy M 383
never was a dog M 379
never has a new M 379
never was a son M 378
never saw a lot M 374
never was a death M 372
never see a dog M 368
never did a lot M 368
never had a red M 367
nearly all i can M 364
never had a mean M 362
never saw a map M 360
never got a bit M 356
nearer than i was M 356
never bring a man M 348
never put a bit M 346
nearly one a year M 346
never saw i one M 340
never see a boy M 338
needs that i can M 336
needing for a long M 334
never can i say M 332
never let a dog M 329
never was a long M 326
never saw a bit M 326
never had a dear M 326
never did i put M 320
never did a poet M 319
never had a song M 314
never had a box M 311
nearly had a bad M 306
nearly all i saw M 304
never has a real M 302
never say i can M 300
never ill a day M 298
never does a day M 292
never did i set M 292
nearer than a few M 292
never was a poem M 288
never use a heat M 288
never had a singing M 288
never got a lot M 286
never was a one M 284
never had a use M 282
never saw a head M 278
nearby and a few M 278
never has a war M 269
never try a new M 266
never got a day M 266
never for a man M 266
needs that i had M 264
nearly can i now M 264
never got a bad M 262
never did i ask M 256
never had a two M 249
never did i not M 248
never had a wet M 246
never lead a man M 244
never saw a one M 243
never did i let M 241
never was a kid M 240
nearer and i was M 236
never was a song M 234
never had a leg M 234
nearby was a big M 234
never did i sit M 231
never hear a real M 230
never got a bid M 229
never had a top M 227
never had a non M 227
never see a red M 225
never use a new M 222
never had a bet M 220
never did a job M 218
needs for a job M 216
nearby and i had M 214
never get a dog M 212
nearby are a few M 209
never won a bet M 208
nearby was a man M 208
never saw a war M 204
never has a son M 204
never had a poem M 202
nearer than a day M 202
never won a big M 200
never see a big M 200
never hang a man M 200
needs and i can M 200
needs with a few M 199
never had a deal M 198
nearer than a man M 198
needs and i was M 197
never had a near M 196
never did i use M 196
never get a big M 194
never saw a fly M 193
never hear a bad M 190
never see a lot M 188
never bear a son M 188
nearly two a day M 188
nearer than i did M 186
never get a bad M 184
never was a mean M 182
never saw a being M 182
needs and a set M 181
never saw a sky M 179
needs that a man M 175
never say a man M 174
nearer and i saw M 173
never was a way M 170
needs say i had M 170
never saw i yet M 168
never beat a man M 168
never bear a man M 168
nearly has a fit M 167
needs with a new M 166
never saw a saw M 165
never had i read M 165
never got a big M 164
never get a bit M 164
never that i was M 162
never saw a team M 160
nearly two a year M 160
never eats a meal M 154
nearly had a head M 154
never wed a man M 152
never saw a death M 152
never got a red M 152
never put a new M 150
never and i mean M 150
needs are a bit M 150
newer and a few M 148
never won a real M 148
never put a lot M 148
never get a fix M 148
never get a boy M 148
never get a set M 145
never use a wet M 144
needs that i did M 143
needs and a low M 143
never was a sin M 142
never see a bear M 142
never has a bit M 140
never had a weak M 138
needs that i was M 138
needs for a man M 138
needs and a long M 138
never let a new M 136
never ask a boy M 136
nearer that i may M 136
never had a low M 134
needs that a new M 134
never had a lead M 133
needs not a long M 133
nearby was a long M 133
nearby for a long M 133
never hid a lie M 132
never had a dead M 132
never had a few M 130
never had a bear M 130
never did a real M 130
never but a few M 130
needs you a lot M 130
needs was a key M 130
never use a dry M 128
never did a set M 128
never ask a new M 128
nearby with a few M 126
never was a team M 124
never was a lot M 124
never ate a bit M 124
needs not a map M 124
needs not a man M 124
needs and a way M 124
never see a one M 123
never let a son M 123
never did a law M 122
never cut a man M 122
never was a job M 120
never set a bad M 120
never put a real M 120
never has a myth M 120
never has a long M 120
never get a deal M 120
needs and i had M 120
never did i long M 119
never let a bad M 118
needs not a new M 117
nearly for a year M 117
never let a few M 116
never got a seat M 116
never cut a deal M 116
nearby was a low M 116
never has a dog M 115
nearby with a big M 115
never was a net M 114
never that i did M 114
never saw a poem M 114
never read a bad M 114
needs not a lie M 114
needs goes a long M 114
never see a bad M 112
never may a son M 112
never let a kid M 112
never did a son M 112
nearly beat a man M 112
never saw i any M 110
needing but a few M 110
never has a fit M 109
never read a real M 108
never was a dear M 107
never had a pre M 107
never sings a song M 106
never saw a job M 106
never let a cat M 106
never had i set M 106
never did i try M 105
nearby that i can M 104
needs for a low M 103
never with a long M 102
never see a son M 102
never see a map M 102
never hear a song M 102
never had a net M 102
never act a lie M 102
never say i had M 100
never say i and M 100
never put a god M 100
never can i get M 100
never buy a bit M 100
nearly ran a red M 100
nearby and a man M 99
never saw a log M 98
never own a dog M 98
never hath a god M 98
never had a try M 98
never doing a day M 98
needs and a lot M 98
never hung a man M 97
never saw a nun M 96
never had a map M 96
needs was a new M 96
nearer being a law M 96
never was i not M 94
never led a team M 94
never can i see M 94
nearly ten a day M 94
nearby that i had M 93
never win a big M 92
never was a dead M 92
never that i had M 92
never see a way M 92
never may i see M 92
never let a job M 92
never hear a new M 92
never cry i did M 92
needs and a fear M 92
nearly got a job M 92
never was a non M 90
never read a new M 90
never had a pay M 90
needs both a new M 89
never was a head M 88
never was a dying M 88
never use a saw M 88
never see a kid M 88
never had a sad M 88
never add a new M 88
nearer than i can M 88
never was i far M 86
never say a mean M 86
never saw i man M 86
never had i any M 86
never did i mean M 86
never did i lie M 86
never buy a dog M 86
never did a war M 85
never was a lie M 84
never run a big M 84
never are a bit M 84
needs for a two M 83
never was a gap M 82
never got a meal M 82
needs say i can M 82
needs and a head M 82
nearly all i did M 82
never get a run M 81
never use a real M 80
never say i saw M 80
never got a long M 80
never did a meal M 80
never can i read M 80
nearly that i can M 80
needs for a set M 75
nearby and i saw M 55
nearby and i can M 50
never had a cut M 45
needs has a long M 44
never was a key M 42
needs and a man M 42
needs that i see M 41
never use a lead M 40
needs that a few M 40
never met a man D 41172
never had a car D 3008
never met a real D 2913
never had a gun D 2576
never had a bath D 2396
never wear a hat D 1672
negro for a new D 1666
never hit a man D 1531
never had a hit D 1190
never had a beau D 1112
never had i met D 1102
never met a boy D 1078
never saw a guy D 1062
never saw a gun D 979
never met a guy D 978
negro was a man D 967
never had a pap D 965
never buy a car D 946
never saw a cow D 810
never had a row D 782
never had a guy D 720
never had a hot D 669
never had a dad D 652
never use a gun D 606
never met a dog D 603
never had a pen D 587
negro sings a new D 573
never had a bed D 539
never met a kid D 518
never get a cab D 506
never let a guy D 492
never saw a car D 482
nerve has a long D 454
never sang a song D 448
never met a tax D 438
never saw a lion D 431
never met a poet D 424
never saw a tear D 420
never met a gay D 414
never wear a tie D 412
never had a hat D 410
never saw a fat D 396
nexus for a set D 394
never sung a song D 378
never buy a pig D 377
never saw a pig D 322
nearly had a row D 312
never met a bad D 308
never met a new D 301
never see a cow D 300
never see a fat D 298
never had a sou D 294
never met a cat D 292
never had a pot D 280
never saw a hog D 277
never own a car D 264
never see a guy D 258
never had a sex D 258
nerve for a few D 258
never get a hit D 253
never had a gay D 244
never met a deaf D 240
nerve and a few D 228
never wear a bra D 222
never did a tap D 222
never saw a rat D 221
never got a hit D 220
never saw a fox D 210
nearly being a row D 202
never use a pen D 200
never use a hot D 196
negro with a long D 196
never saw a bed D 194
never met a cop D 194
never wear a wig D 190
never met a being D 189
never see a tax D 188
never had a seal D 180
nerve with a weak D 178
never had a leak D 176
never get a car D 176
never with a gun D 174
never saw a bee D 174
never saw a pen D 168
negro and i had D 168
never see a lion D 166
nerve for a man D 166
never wear a man D 164
never see a car D 164
never had a shoe D 164
never use a gas D 163
never saw a lad D 162
never saw a hat D 162
never wear a long D 160
negro with a new D 160
nests that i had D 158
never see a gun D 157
never put a hat D 156
never put a gun D 156
never was a sly D 154
never had a rod D 152
never had a deaf D 152
nests for a few D 152
never pay a fee D 151
never had a fur D 148
nests and a few D 148
negro for a few D 148
never saw a ray D 146
never had a cow D 144
nearly had a riot D 141
never was a spy D 140
never was a hat D 140
never met a pay D 138
never met a meal D 138
never met a lion D 138
never had a tear D 136
never wear a cap D 134
never hit a dog D 134
nerve with a long D 134
never had a nap D 132
nerve than i had D 132
never had a bat D 131
never use a car D 128
never saw a cop D 128
never had a gang D 128
negro and a few D 127
never was a riot D 126
never was a lad D 126
never use a pin D 126
never sat a gee D 126
never met a nun D 124
never get a bath D 124
nearly hit a kid D 124
never had a bean D 123
never had a fee D 122
never had a cop D 122
never met a one D 120
never had a jar D 120
never had a fling D 120
never wear a red D 118
never pay a tax D 118
never met a non D 118
nests with a long D 118
never met a bear D 117
nerve that i had D 116
negro has a long D 116
never was a tax D 115
never saw a mob D 114
never got a tip D 114
never get a tan D 114
never did i fee D 114
necks out a bit D 114
neater than i had D 114
never had a tax D 113
never was a guy D 112
never had a mom D 112
nerve and a lot D 112
never see a tear D 110
never put a hot D 110
never had a pig D 109
never was a fan D 108
never see a bed D 108
neatly with a pen D 108
never met a fat D 106
never set a hen D 104
never had a ray D 104
never get a hot D 104
nerve with a few D 104
neatly with a bit D 104
never was a liar D 102
never was a gun D 102
never was a fox D 102
never saw a hen D 102
never saw a cod D 102
never let a cow D 100
nerve and i was D 100
nearly had a cow D 100
never had a yen D 99
never had a sip D 98
never see a pig D 97
never met a big D 96
never hit a boy D 96
netting and a few D 95
necks for a few D 95
never was a car D 94
never let a tear D 94
never hear a gun D 94
nerve than i did D 94
never was a dab D 92
never saw a fog D 92
never let a bed D 92
never had a fat D 92
never get a tap D 92
nests with a few D 90
negro with a bow D 90
never see a pen D 88
never see a fox D 88
never had a sting D 88
never had a rat D 88
nerve with a hot D 88
never saw a tinge D 86
never met a god D 86
never hit a guy D 86
nests that i saw D 86
negro with a gun D 86
negro and a man D 86
neatly with a red D 86
never see a cop D 84
never saw a leaf D 84
never met a car D 84
never had a fan D 84
never get a sou D 84
nerve for a long D 84
never put a pen D 82
neatly with a bow D 82
never use a rod D 80
never see a bat D 80
never saw a fin D 80
never get a hug D 80
never get a guy D 80
neatly with a few D 80
never had a riot D 57
never had a tan D 49
never wear a fur D 48
never had a pal D 46
needs for a car D 42
nearly hit a man D 40
