kind to each other M 20861
kids of all ages M 19543
kids do not have M 15250
kids do not know M 10842
kill us for their M 8816
kids do not want M 7288
kids do not like M 7208
kids do not need M 5344
kind of man whom M 5000
kind of men were M 4624
kiss it and make M 4034
kind he had ever M 3840
kind he had been M 3485
kind of day when M 3414
kind of man from M 3312
kids do not even M 3047
kind to him when M 2928
kind is not only M 2906
kill me with your M 2902
kind to her when M 2840
kind at that time M 2719
kind do you want M 2638
kind of man will M 2566
kind in this part M 2519
kids do not care M 2463
kind at any time M 2204
kids do not learn M 2166
kind of bad luck M 2024
kind he had seen M 2022
kids do not seem M 2016
kids do not think M 2006
kiss on her hand M 1834
kill me for sure M 1776
kind as they were M 1752
kind of men whom M 1746
kind it has been M 1704
kind of death wish M 1682
kind at this time M 1681
kiss me with those M 1649
kind of war work M 1631
kill me with their M 1628
kind in any other M 1588
kids do you have M 1578
kind of being from M 1568
kiss on her hair M 1561
kill me you will M 1528
kill me and take M 1486
kids do not come M 1464
kind of new life M 1458
kind in that part M 1450
kind of day care M 1440
kind of and sort M 1420
kind we had seen M 1418
kiss the son lest M 1402
kids do not feel M 1396
kids to and from M 1392
kind in any part M 1386
kind do you like M 1363
kind of men these M 1328
kids in day care M 1324
kind he has been M 1323
kind to him during M 1320
kind in his life M 1301
kiss me and tell M 1289
kind as that used M 1270
kind of men have M 1266
kind of bad faith M 1256
kind of things were M 1252
kind of man your M 1228
kind of men will M 1164
kind of got used M 1120
kind on his part M 1109
kind do you have M 1106
kind or any other M 1103
kids do not make M 1068
kind do you think M 1060
kind of got into M 1048
kind of web site M 1020
kind we are here M 1006
kind do not seem M 984
kill it with their M 980
kind to all living M 975
kind of job will M 966
kind in this city M 963
kind in this case M 952
kiss on her soft M 945
kind of men from M 934
kind to you when M 926
kind of long term M 922
kids do not play M 922
kids my age were M 920
kind to them when M 918
kind is not very M 917
kind do not have M 912
kids to get into M 910
kind we had ever M 904
kids in this town M 899
kind of sat there M 896
kill me for saying M 894
kids do not mind M 877
kind of new birth M 864
kind of aid from M 864
kill us and take M 856
kind of use made M 840
kind of bad dream M 836
kids to get their M 836
kill me this time M 835
kiss of her life M 830
kiss he had ever M 830
kiss me all over M 829
kind is far more M 819
kind of things have M 816
kind of real life M 795
kind in his hand M 793
kids do not take M 782
kind of get used M 774
kind is being done M 752
kind or that kind M 750
kill the old lady M 747
kind of far away M 743
kind of big game M 742
kind of things will M 722
kind is far from M 722
kind as any other M 720
kiss me and make M 716
kill it for food M 713
kind to her during M 702
kids at that time M 702
kind of old lady M 696
kind on this side M 692
kids do not talk M 688
kiss me and hold M 684
kind of web page M 684
kind at one time M 684
kind of man most M 682
kind of way when M 678
kill it and take M 674
kill to get what M 673
kind on that part M 672
kids to use their M 670
kids do not just M 668
kind of man must M 664
kind in this book M 661
kind of odd jobs M 660
kill us for sure M 658
kiss to her hair M 656
kind we now have M 651
kind in each case M 649
kill me for what M 645
kind of men their M 636
kind of got lost M 630
kind in that city M 624
kind of way anti M 623
kind to his poor M 622
kill the man whom M 622
kind of war from M 618
kind if you will M 618
kind is that there M 610
kind of war will M 608
kind is not done M 608
kind of way from M 600
kids if they were M 598
kind do not come M 596
kids to see their M 596
kind of law from M 586
kick up too much M 585
kill us with their M 582
kind to any other M 581
kind of sad when M 580
kind of get into M 578
kind as that from M 572
kiss of her hand M 571
kind if they were M 561
kind we are dealing M 558
kiss on his hand M 554
kids do not give M 550
kiss me any more M 546
kind of law must M 542
kiss of one girl M 540
kind of them have M 536
kids to see what M 536
kind of men there M 532
kids to day care M 532
kids do not look M 530
kiss on her face M 529
kill at any time M 528
kind of men those M 526
kids at one time M 526
kind of see what M 522
kind of got away M 522
kind do not take M 520
kill to get their M 513
kiss me with your M 512
kiss on her bare M 511
kind of out there M 508
kind as you have M 507
kids do you think M 506
kill me but once M 502
kids to sit down M 502
kind it had been M 500
kind of joy when M 496
kind to all those M 494
kind of far from M 494
kick at each other M 494
kind of team work M 490
kind of run down M 488
kiss on his face M 487
kind we are used M 486
kiss is not just M 480
kind of war game M 480
kind at any rate M 477
kids do not live M 476
kind of things make M 470
kind of dog food M 470
kind of war hero M 468
kind of ego trip M 468
kids at day care M 468
kids up and down M 466
kind do not know M 465
kind as has been M 465
kind of oak tree M 462
kids as they were M 462
kind on our part M 460
kind in his work M 458
kill me and have M 444
kind in and over M 442
kind of things these M 438
kiss in her hair M 433
kind of sit there M 431
kind of men love M 430
kiss on her cold M 428
kind or how much M 428
kind is not made M 428
kind in his mind M 428
kids do not grow M 428
kill me and make M 426
kind to this poor M 424
kiss the old lady M 420
kind in her life M 419
kind on one side M 416
kind is not good M 416
kind we now call M 414
kids to put their M 414
kiss of his life M 413
kind as had been M 412
kill the old ones M 412
kids to get ready M 412
kind of poem from M 410
kind in this town M 410
kind on each side M 408
kids in one room M 408
kind of long range M 405
kind as they have M 405
kids so they will M 404
kind is not worth M 400
kind do not make M 400
kids if you have M 400
kind is not just M 398
kind he had made M 396
kind of let down M 395
kind is put into M 394
kill an old lady M 392
kids to bring their M 392
kids do you know M 392
kids if you want M 390
kids as they grow M 390
kind of all over M 388
kiss on her fair M 386
kiss or two from M 384
kiss of death when M 384
kill me and leave M 384
kiss as she left M 383
kind we had been M 382
kind by any means M 381
kind in all ages M 380
kick up and down M 379
kind of job from M 378
kids to get back M 375
kind is being made M 374
kind we may take M 372
kind he has ever M 371
kind of sit back M 370
kind of you know M 368
kind of man when M 368
kind of net work M 364
kick it with your M 364
kill me for having M 362
kiss on her left M 361
kind do not need M 360
kill at long range M 360
kind as she knew M 359
kind of new work M 356
kind of man there M 356
kind of going back M 356
kind of job there M 354
kill it with your M 352
kiss on his left M 350
kind of meat from M 350
kind to him from M 347
kind it has ever M 347
kind if and only M 347
kind it may have M 341
kind to all your M 338
kill it and make M 338
kind in any form M 336
kick to his face M 335
kind of ill will M 334
kids do you want M 334
kind to his young M 333
kind to all beings M 330
kind of boy whom M 330
kind he may have M 330
kind by any other M 330
kind of man their M 328
kids do not help M 328
kids do not speak M 326
kids to get away M 325
kind of being there M 322
kind we can only M 320
kind we can have M 320
kind or how many M 320
kill or not kill M 320
kind of men into M 318
kind of box made M 318
kind to her poor M 314
kind of man other M 314
kind of man into M 314
kill us and steal M 312
kiss of death from M 310
kids on one side M 310
kiss me and kiss M 308
kiss me but once M 307
kiss to her hand M 306
kids in our town M 306
kids if they have M 306
kind of sat back M 304
kind of man have M 300
kind of fear here M 300
kind of men must M 298
kiss of his hand M 297
kids in this book M 296
kind we get from M 294
kind to all other M 292
kind is not what M 292
kind he was used M 292
kill me and bury M 292
kind of air mass M 291
kind of god whom M 290
kind he had once M 288
kiss as she went M 287
kind of things like M 287
kind we may call M 286
kids do not find M 286
kind in our time M 284
kids do not show M 284
kind to him more M 282
kind we had were M 280
kind in any case M 280
kiss on his hair M 279
kind of job when M 278
kiss on her full M 276
kind of red flag M 276
kind of fear when M 276
kind do not last M 276
kind as you will M 276
kiss me one more M 274
kind of job done M 274
kind of fear from M 274
kiss on his soft M 271
kind to her young M 270
kind of get away M 268
kind he had just M 268
kind do not give M 266
kids in this room M 266
kiss my dear girl M 265
kill in his name M 265
kind to him once M 264
kind of new ideas M 264
kind of man made M 264
kind of being must M 262
kind of act done M 262
kids do not call M 262
kiss on each side M 261
kind to her from M 261
kind on her part M 261
kind of new game M 261
kids to get along M 261
kind of death from M 258
kind is that when M 258
kind if you have M 258
kind of idea what M 257
kiss on her warm M 256
kind of old maid M 256
kind of meat used M 256
kind do you need M 256
kill us and make M 256
kids if they want M 256
kind of red hair M 252
kind of job have M 252
kind as was ever M 252
kids do not work M 252
kids do not tell M 252
kind of net used M 251
kind he had used M 250
kind of goes back M 248
kind he had heard M 248
kids do not ever M 247
kind of not very M 246
kind he has done M 246
kiss if you like M 245
kids at this time M 245
kind to that poor M 244
kind of low life M 244
kind of death will M 244
kind of awe upon M 244
kids do not miss M 244
kids as they came M 244
kids to get home M 243
kids in this city M 243
kiss at her door M 242
kind of joy from M 242
kill me they will M 242
kids do not turn M 242
kids do not stop M 242
kind of job were M 240
kind to her also M 238
kind of bad when M 238
kill me and kill M 238
kind in his face M 237
kind we all need M 236
kind or with other M 236
kind of set theory M 236
kind of new dawn M 236
kind of long coat M 236
kind is not cast M 236
kick it out from M 236
kiss on her open M 234
kind of real work M 234
kind in his eyes M 232
kids if they knew M 232
kick me out when M 232
kick in and take M 232
kind as you were M 231
kind of ill luck M 230
kind in his book M 230
kiss me and call M 228
kind in new south M 228
kind as you knew M 228
kill by any means M 226
kids do not stay M 226
kind of poet from M 224
kind is not used M 224
kind do not fall M 224
kick up any more M 224
kind of pet name M 222
kind of leap into M 222
kind of hung there M 222
kind of being into M 222
kind in use among M 222
kind do not leave M 222
kind of man some M 220
kind of death when M 220
kind he has seen M 220
kind of meat will M 218
kind is that made M 218
kind of lead time M 216
kind of law will M 216
kind of air from M 216
kind is not clear M 216
kind in all their M 216
kind to run away M 215
kind of man were M 214
kind in his youth M 214
kids do not love M 214
kingly in his bearing M 212
kind to this from M 212
kind so that there M 212
kind of earth used M 212
kind as all other M 212
kids in our youth M 212
kids as they grew M 212
kick to his side M 212
kick me all over M 212
kind of get lost M 211
kind to that used M 210
kind of use will M 210
kind of real time M 210
kind of man upon M 210
kind of ill health M 210
kind of goes along M 210
kind of act will M 210
kill us with your M 210
kind in this life M 209
kind to fear from M 208
kind of heat from M 208
kids do with their M 208
kind of hung back M 207
kids do things like M 207
kiss me and love M 206
kind of things there M 206
kind do not grow M 206
kill the two boys M 206
kiss to her from M 205
kiss is not what M 204
kind to them during M 204
kind is not meant M 204
kind do not work M 204
kill me and burn M 204
kill me and mine M 203
kind to her maid M 202
kind on his face M 202
kind of bag made M 202
kind in her mind M 202
kill us all when M 202
kind of law unto M 201
kind to get into M 200
kind of too late M 200
kind of fear lest M 200
kill us and keep M 200
kind we all know M 198
kind in all these M 198
kill the men from M 198
kids to get some M 198
kids in his arms M 198
kick in and make M 198
kind of cat food M 197
kiss of his lord M 196
kind is being used M 196
kill me for taking M 196
kids do not leave M 196
kids no one else M 195
kind of war there M 194
kind of men live M 194
kind of man like M 194
kind of long hair M 194
kind is not much M 194
kind in this great M 194
kick it all over M 194
kind of dry wood M 193
kiss on his cold M 192
kind we can make M 192
kind we are more M 192
kind of man gets M 192
kind of mad when M 192
kind of job held M 192
kind it was like M 192
kind we may learn M 190
kind to him even M 190
kind of way there M 190
kind of fit into M 190
kill it and have M 190
kind of things their M 188
kind of man these M 188
kind do not help M 188
kind as that just M 188
kids to get more M 188
kick me out like M 188
kind of got over M 187
kind of things most M 186
kind of things from M 186
kids do not pick M 186
kick the can down M 186
kiss he had been M 185
kind on that side M 184
kind of sat down M 184
kind of gear used M 184
kiss it all good M 182
kind we are most M 182
kind of dog will M 182
kind is not even M 182
kill the man from M 182
kill me and steal M 182
kick or two from M 182
kind of song from M 180
kind of ease into M 180
kind of death more M 180
kind as was used M 180
kill or let live M 180
kick me out into M 180
kind to all whom M 179
kind of things those M 178
kind of meal made M 178
kind of earth from M 178
kind of big fish M 178
kind of act from M 178
kind in his heart M 178
kind he was able M 178
kind at that date M 178
kind as far back M 178
kill the man when M 178
kind to him were M 177
kind to her even M 177
kind or with those M 176
kind of way what M 176
kind of war upon M 176
kind of war must M 176
kick it with their M 176
kick in and help M 176
kind is that part M 175
kiss me and give M 174
kind of real love M 174
kick to one side M 174
kiss is not only M 173
kind in real life M 173
kiss or any other M 172
kind of new form M 172
kind of men made M 172
kind of doing good M 172
kind of act like M 172
kind in all your M 172
kill me with those M 172
kids to act like M 172
kind to bring into M 170
kind of meat into M 170
kind of man more M 170
kind of law made M 170
kind of job here M 170
kind of bar code M 170
kind in his early M 170
kids to read more M 170
kids on each side M 170
kill me and there M 169
kiss me one last M 168
kind of men what M 168
kind of leap from M 168
kind of going away M 168
kind in any city M 168
kiss me any time M 167
kiss in her mind M 166
kiss in her life M 166
kind of this type M 166
kind of men make M 166
kind of mad rage M 166
kind of had some M 166
kind of get your M 166
kind he had done M 166
kill my two sons M 166
kill me you must M 166
kill me you have M 166
kill me but will M 166
kids as they went M 166
kind to her face M 165
kiss it had been M 164
kind of ran into M 164
kind of pet among M 164
kind of man such M 164
kind of day will M 164
kind of awe fell M 164
kind in our city M 164
kill me for some M 164
kick in his side M 164
kind of low self M 163
kind no one ever M 163
kind of god will M 162
kind is that used M 162
kill me that time M 162
kids to each other M 162
kind to this young M 161
kind is far less M 161
kill to get into M 161
kind we may find M 160
kind of things when M 160
kind of man lets M 160
kind of job during M 160
kind of death these M 160
kind of death like M 160
kind if they have M 160
kind as are used M 160
kids up and ready M 160
kind to you last M 159
kind of put down M 159
kind if you want M 159
kind as you used M 159
kill if they were M 159
kiss it all away M 158
kind to let your M 158
kind of things your M 158
kind of singing bird M 158
kind of put your M 158
kind of man ever M 158
kind of lay there M 158
kind of kid were M 158
kind of aid will M 158
kill us any more M 158
kids my age have M 158
kids in that room M 158
kind of red cloth M 156
kind of man came M 156
kind of going along M 155
kill if you have M 155
kill as they were M 155
kiss of death upon M 154
kind we are trying M 154
kind of new here M 154
kind of meat eaten M 154
kind of law among M 154
kind of being only M 154
kind in this land M 154
kind be not done M 154
kill us and burn M 154
kill me for trying M 154
kids is not just M 154
kids in her care M 154
kind by being kind M 153
kiss me this time M 152
kiss it all over M 152
kind of war were M 152
kind of run into M 152
kind of man come M 152
kind of day have M 152
kind in his home M 152
kids in his high M 152
kind of use from M 150
kind of things upon M 150
kind of awe when M 150
kind of air will M 150
kind is not more M 150
kind in all other M 150
kind he was very M 150
kind as kings upon M 150
kill me any time M 150
kill if they have M 150
kids in her room M 150
kids do not keep M 150
kick me with your M 150
kind to her once M 149
kind of men most M 149
kiss me for good M 148
kiss it for luck M 148
kiss it and weep M 148
kind to his dull M 148
kind on his mind M 148
kind of men sent M 148
kind of men among M 148
kind of dead life M 148
kind is that many M 148
kind in one hand M 148
kind of team play M 147
kind is not well M 147
kind of things said M 146
kind of being such M 146
kind is not rare M 146
kill me any more M 146
kids to get hurt M 146
kiss to her soft M 145
kiss as they pass M 145
kick to his left M 145
kind we are able M 144
kind of old fool M 144
kind of man miss M 144
kind of fear came M 144
kind of doing what M 144
kind in our days M 144
kind as that made M 144
kids to all their M 144
kids as they come M 144
kind to him there M 143
kiss of her fair M 142
kind we had when M 142
kind to bear upon M 142
kind of things went M 142
kind of sin will M 142
kind of death most M 142
kind of death mask M 142
kind of being among M 142
kind of awe into M 142
kind in his view M 142
kill me and keep M 142
kiss to her bare M 141
kiss it with great M 141
kind to you here M 141
kiss on her cool M 140
kiss me and take M 140
kiss me and feel M 140
kind we may cite M 140
kind we all have M 140
kind to his other M 140
kind or any kind M 140
kind of way like M 140
kind of new town M 140
kind of men such M 140
kind of men came M 140
kind of job your M 140
kind of deal will M 140
kind in two ways M 140
kind he not only M 140
kill me than keep M 140
kill me out there M 140
kill at one blow M 140
kids to get lost M 140
kids in his life M 140
kind to say what M 138
kind on any part M 138
kind of war book M 138
kind of that sort M 138
kind of get back M 138
kind at any other M 138
kind to him only M 137
kind do not show M 137
kiss on that lady M 136
kind of war just M 136
kind of things made M 136
kind of net made M 136
kind of fear among M 136
kind of boy will M 136
kind of all these M 136
kind he had felt M 136
kind do not think M 136
kids do not fall M 136
kiss on his warm M 134
kind to her there M 134
kind of red wood M 134
kill me and will M 134
kill it for good M 134
kids in her arms M 134
kind we can find M 132
kind of sad look M 132
kind of man among M 132
kind of going over M 132
kind of dying upon M 132
kind of doing nothing M 132
kind is that their M 132
kind if you were M 132
kids in two years M 132
kind to all their M 131
kind of deal making M 131
kind as they come M 131
kill it and bury M 131
kiss me and said M 130
kiss it and tell M 130
kind of shy away M 130
kind of ego ideal M 130
kind of did what M 130
kind is set forth M 130
kind is not like M 130
kind in his time M 130
kill me for nothing M 130
kill me and send M 130
kids up and take M 130
kids in six years M 130
kind no one else M 129
kiss he had just M 128
kind on our side M 128
kind of use case M 128
kind of too much M 128
kind of man just M 128
kind of man here M 128
kind of big bird M 128
kind is not part M 128
kind at his hand M 128
kill the cat when M 128
kill the bad ones M 128
kids to get good M 128
kick in that part M 128
kick at his face M 128
kind to him over M 127
kind to her here M 127
kind as not only M 127
kiss the dead body M 126
kiss by not waking M 126
kind so that their M 126
kind of set back M 126
kind of low moan M 126
kind of low cost M 126
kind do not want M 126
kind do not lend M 126
kill me and your M 126
kill me and save M 126
kids he had seen M 126
kind of being will M 125
kiss on each other M 124
kind or are there M 124
kind of things done M 124
kind of ran away M 124
kind of man very M 124
kind of fear into M 124
kind of day from M 124
kind of any such M 124
kill the two sons M 124
kill me for those M 124
kill it and sell M 124
kids on both teams M 124
kick of his feet M 124
kind of lie there M 123
kind we now know M 122
kind on this part M 122
kind of man uses M 122
kind of man best M 122
kind of job their M 122
kind of death must M 122
kind is too much M 122
kind is now made M 122
kind is not such M 122
kind in her face M 122
kill the old fool M 122
kill me and live M 122
kids to get used M 122
kind to him also M 121
kind to and from M 121
kiss or two when M 120
kiss my way down M 120
kind to this girl M 120
kind of things must M 120
kind of tag game M 120
kind of man puts M 120
kind of bad name M 120
kill me you kill M 120
kill in this case M 120
kill at one time M 120
kids to buy their M 120
kids in our high M 120
kids do they have M 120
kiss is not much M 119
kind to see what M 119
kind of man worth M 119
kind of job down M 119
kick on his back M 119
kiss on his bare M 118
kind to his face M 118
kind on any other M 118
kind of real threat M 118
kind of odd when M 118
kind of heat loss M 118
kind of death duty M 118
kind of big city M 118
kind of big band M 118
kind in two years M 118
kind do not even M 118
kill us all here M 118
kill it and leave M 118
kids to ask their M 118
kick of his heavy M 118
kick me with their M 118
kick he got from M 118
kind up and down M 117
kind to all these M 117
kind of job open M 117
kind do you find M 117
kind do not like M 117
kill of big game M 117
kiss on her baby M 116
kind of pay will M 116
kind of idea from M 116
kind of get over M 116
kind of death trap M 116
kind of being whom M 116
kind of awe came M 116
kind of air such M 116
kind as was your M 116
kids in this kind M 116
kids as you want M 116
kind of sit down M 115
kind of men best M 115
kiss me and turn M 114
kind to you from M 114
kind of war here M 114
kind of this sort M 114
kind of that kind M 114
kind of new look M 114
kind of man many M 114
kind of law over M 114
kind of box will M 114
kind of bad form M 114
kill us both when M 114
kids in any other M 114
kind to them even M 113
kind of being like M 113
kids it was like M 113
kind to her over M 112
kind of war room M 112
kind of things come M 112
kind of see kind M 112
kind of job just M 112
kind of dog used M 112
kind in ten years M 112
kind in both north M 112
kill us this time M 112
kill us for what M 112
kill us but what M 112
kill it any other M 112
kids in her high M 112
kids if they need M 112
kind of war ever M 111
kids eat too much M 111
kick in and give M 111
kind we may have M 110
kind of things kids M 110
kind of lying there M 110
kill me with some M 110
kill it for sure M 110
kids do not walk M 110
kick to his back M 110
kind of man beats M 109
kick the dog away M 109
kick on his left M 109
kiss to each other M 108
kind we use when M 108
kind we had used M 108
kind to put their M 108
kind of way more M 108
kind of job most M 108
kind of dry food M 108
kind in this work M 108
kill me with these M 108
kill it and give M 108
kids to put away M 108
kids on his back M 108
kids is that there M 108
kids at any time M 108
kick the man down M 108
kind of air lock M 107
kind is that most M 107
kill me and what M 107
kids go out there M 107
kind we may most M 106
kind to that from M 106
kind of war most M 106
kind of things only M 106
kind of team game M 106
kind of our food M 106
kind of joy came M 106
kind of job like M 106
kind of god there M 106
kind of god lets M 106
kind of bad girl M 106
kind it was only M 106
kind in this room M 106
kind do not form M 106
kill the big three M 106
kill me with work M 106
kill me that your M 106
kill me all over M 106
kill in its name M 106
kill he had made M 106
kids in our room M 106
kids by this time M 106
kids at her feet M 106
kind is too hard M 105
kiss he had seen M 104
kind we see here M 104
kind of war among M 104
kind of dead body M 104
kind in one part M 104
kind in all those M 104
kind he was when M 104
kind as has ever M 104
kill us they will M 104
kids so far away M 104
kids in ten years M 104
kids if you were M 104
kick to his heart M 104
kick in with your M 104
kind to his aged M 103
kids to run away M 103
kiss me and have M 102
kind to bear good M 102
kind of sin there M 102
kind of map from M 102
kind of idea into M 102
kind of air into M 102
kind in our land M 102
kill no one else M 102
kids in his left M 102
kick it out into M 102
kick in with some M 102
kind to say such M 101
kill us all three M 101
kind we can call M 100
kind so that when M 100
kind of way over M 100
kind of red ware M 100
kind of men many M 100
kind of man only M 100
kind of fear will M 100
kind of deal from M 100
kind in one case M 100
kind do not tell M 100
kind as they grow M 100
kill us and leave M 100
kill it you must M 100
kids of that time M 100
kids if you like M 100
kids do not kill M 100
kids as they play M 100
kick the man when M 100
kind of war play M 99
kind of sky most M 99
kind of key word M 99
kind do you wish M 99
kick in his back M 99
kiss me and wish M 98
kiss as his hand M 98
kind on her face M 98
kind of this ware M 98
kind of man lord M 98
kind of bow into M 98
kind is now used M 98
kind in her hand M 98
kind as can only M 98
kill me one time M 98
kids to buy into M 98
kids is that their M 98
kids in our home M 98
kids in her home M 98
kick the dog when M 98
kiss the earth when M 96
kiss on its back M 96
kiss me and asks M 96
kiss he was gone M 96
kind we may well M 96
kind of shy when M 96
kind of new data M 96
kind of meal from M 96
kind of man went M 96
kind of man reads M 96
kind of man even M 96
kind of his work M 96
kind of bad time M 96
kind in all ways M 96
kind he had only M 96
kind do not just M 96
kind at its best M 96
kill the dog when M 96
kill me had been M 96
kids it was just M 96
kids if they know M 96
kind to his half M 95
kind of job only M 95
kind of bad omen M 95
kill me all along M 95
kiss me for luck M 94
kiss in his eyes M 94
kind thing you have M 94
kind of way will M 94
kind of old boys M 94
kind of men your M 94
kind of map will M 94
kind of man over M 94
kind of god among M 94
kind of get some M 94
kind is now done M 94
kind in his room M 94
kind he had come M 94
kind do not play M 94
kind do not feel M 94
kind as each other M 94
kill the old girl M 94
kill the boy when M 94
kill me for your M 94
kill me for years M 94
kids do not drop M 94
kids at her side M 94
kind to his dogs M 93
kill to get food M 93
kiss me not ever M 92
kind to them from M 92
kind of war when M 92
kind of things here M 92
kind of singing from M 92
kind of sin from M 92
kind of meat only M 92
kind of goes like M 92
kind of god have M 92
kind of get what M 92
kind is too well M 92
kill the weak ones M 92
kill the two young M 92
kill the red dogs M 92
kill me with such M 92
kill me out here M 92
kill me for food M 92
kids to run wild M 92
kick up our feet M 92
kick to her side M 92
kind of meat most M 91
kind in our home M 91
kind on its part M 90
kind of you even M 90
kind of weak link M 90
kind of way just M 90
kind of poet whom M 90
kind of new hope M 90
kind of joy into M 90
kind of idea will M 90
kind of his giving M 90
kind of death threat M 90
kind of death there M 90
kind of death here M 90
kind it had ever M 90
kind is that from M 90
kind is our lord M 90
kind is not open M 90
kind do not reach M 90
kids on his side M 90
kids as they left M 90
kind of dying fall M 89
kiss on his full M 88
kind we mean when M 88
kind we are having M 88
kind of lay back M 88
kind of job over M 88
kind of heat used M 88
kind of had their M 88
kind of got what M 88
kind of earth will M 88
kind of cry from M 88
kind of cry came M 88
kind of box into M 88
kind of being other M 88
kind is this also M 88
kind is that some M 88
kind is not true M 88
kind in this form M 88
kill me this very M 88
kill me for making M 88
kids we had just M 88
kids to try their M 88
kids in his room M 88
kick of her feet M 88
kind of new land M 87
kind by all means M 87
kind as they will M 87
kiss it with their M 86
kiss as she held M 86
kind we had made M 86
kind of red thread M 86
kind of man used M 86
kind of death upon M 86
kind of bias into M 86
kind of bag into M 86
kind is that even M 86
kind in any land M 86
kind in all three M 86
kind as they knew M 86
kill us for many M 86
kill to get your M 86
kill it this time M 86
kids so that when M 86
kids he was trying M 86
kind to say nothing M 85
kill to get hold M 85
kiss the dear hand M 84
kiss me and leave M 84
kind to that date M 84
kind to her last M 84
kind of things ideas M 84
kind of real truth M 84
kind of poem will M 84
kind of new meaning M 84
kind of map used M 84
kind of got left M 84
kind of got back M 84
kind of god from M 84
kind of fear made M 84
kind of dog from M 84
kind of death into M 84
kind of bag lady M 84
kind of any other M 84
kind do not weep M 84
kind be for ever M 84
kill us and have M 84
kill me and when M 84
kids if they ever M 84
kids do that kind M 84
kids do not move M 84
kids do not hate M 84
kind to his boys M 83
kiss on her pure M 82
kind of things other M 82
kind of them were M 82
kind of real peace M 82
kind of men come M 82
kind of hang back M 82
kind of god must M 82
kind of death even M 82
kind of cut down M 82
kind of being having M 82
kind he was ready M 82
kind do not hold M 82
kill or how many M 82
kill in our great M 82
kids or both dogs M 82
kids on our side M 82
kids is not good M 82
kids by that time M 82
kick in and your M 82
kick at bad work M 82
kind of bad acting M 81
kick on his side M 81
kiss my own hand M 80
kiss he had left M 80
kind to set down M 80
kind to bring down M 80
kind of them from M 80
kind of new high M 80
kind of let your M 80
kind of joy there M 80
kind of job well M 80
kind of got some M 80
kind of got sick M 80
kind in that their M 80
kind he had when M 80
kind he had eaten M 80
kind by one very M 80
kill me with love M 80
kids to get sick M 80
kids is not only M 80
kids go out into M 80
kick us out into M 80
kick up his feet M 80
kind of not like M 63
kick in his face M 63
kick at any time M 63
kind of going down M 61
kind as you like M 61
kind as you think M 59
kind to our poor M 58
kind to that girl M 57
kiss on her half M 55
kind to sit down M 55
kind to him here M 55
kind to him just M 54
kind of dead calm M 54
kind to his beast M 53
kind to you also M 51
kind of things over M 50
kind of myth making M 50
kind to them were M 48
kiss if you want M 47
kind of hung over M 47
kind to her ever M 46
kind of job best M 46
kill in his mind M 46
kick or run away M 46
kind of got more M 44
kind as she said M 44
kind to them also M 43
kind to our young M 43
kind to her only M 43
kind of new left M 43
kind of law there M 43
kill at this time M 43
kick on one side M 43
kind in this very M 42
kind or who have M 41
kind of day dream M 41
kill or bring back M 41
kill if you must M 41
kiss as she said M 40
kind to this part M 40
kind to put into M 40
kind to her were M 40
kind of top down M 40
kind of man living M 40
kill in two ways M 40
kick at her door M 40
kiss on her lips D 20652
kiss on his lips D 9892
kiss on her mouth D 7073
kind of ice cream D 4706
kind to his wife D 4688
kind in new york D 3345
kiss on his mouth D 3329
kiss of his mouth D 3222
kiss to her lips D 3212
kiss on her brow D 2750
kids in new york D 2280
kiss on her nose D 2246
kiss on her neck D 2125
kind of bad news D 2101
kind of art form D 1664
kind of new york D 1539
kind of art work D 1535
kiss to his lips D 1528
kind of sex life D 1329
kiss on his wife D 1257
kiss in her palm D 1193
kick of his foot D 1172
kiss to her mouth D 1146
kiss to her palm D 1110
kind of oil used D 1110
kiss on his brow D 1071
kiss on her palm D 1031
kind of gas used D 820
kiss to her brow D 807
kind of bad joke D 806
kind of big shot D 760
kids to bed early D 750
kind of fig tree D 745
kill the bad guys D 744
kind of pep talk D 716
kiss to his wife D 701
kind of sex play D 697
kink in his neck D 690
kiss on his nose D 673
kiss to his mouth D 616
kiln of this type D 612
kiss on his neck D 608
kiss on his chin D 597
kick of his boot D 507
kick in his ribs D 506
kink in his back D 495
kind of pig iron D 482
kind of red wine D 478
kind of con game D 476
kind of red tape D 464
kind of red clay D 462
kind of art from D 460
kick to his ribs D 446
kick to his shin D 440
kink in her neck D 426
kind of car will D 416
kind of fun when D 408
kind of nut case D 401
kind of raw data D 400
kind of art will D 396
kink in his tail D 394
kind of ink used D 390
kiss on her pale D 384
kind of fat used D 384
kick the beam when D 384
kiss on his bald D 382
kiss of her lips D 381
kiss to her neck D 369
kink in his hair D 360
kind of car were D 352
kind of raw silk D 344
kind of man john D 340
kill me and throw D 340
kiln of new york D 334
kids to new york D 325
kiss on her rosy D 320
kind of law firm D 318
kick of her foot D 315
kick of his legs D 312
kind of tax paid D 310
kind of war zone D 308
kind of guy when D 286
kick to his knee D 283
kink in her back D 264
kind of seal upon D 260
kind of mob rule D 258
kind of oil will D 256
kiln of this size D 250
kind of fur coat D 246
kind of art into D 246
kiss in his palm D 244
kind of old iron D 242
kick on his shin D 242
kind of rat race D 238
kiln of this kind D 236
kick at his shin D 235
kink of his hair D 230
kiss of her mouth D 224
kind of tax upon D 224
kind of art were D 224
kick of his heel D 224
kind of gun used D 220
kiss on her aunt D 218
kind of pen used D 216
kind of art must D 214
kind of art deco D 214
kink in his mind D 213
kind of new wave D 213
kind of mat made D 212
kiss of his lips D 208
kind of sex role D 208
kill it and cook D 206
kind of tax from D 204
kind of shoe made D 204
kite in his hand D 196
kiss on her nape D 195
kick of her legs D 192
kick up his legs D 190
kite he had made D 189
kiss to seal their D 189
kiss in new york D 189
kind of fir tree D 189
kick up any fuss D 188
kiss on her chin D 186
kill my own wife D 186
kiss to his palm D 184
kind of guy like D 184
kind of car from D 184
kind of cap made D 184
kids the new york D 184
kind of oil lamp D 182
kind of jam made D 182
kind of hat worn D 182
kind of guy from D 182
kiss on her damp D 181
kind of wig used D 180
kiss to his neck D 179
kind of car have D 178
kind of tab stop D 177
kind of thin soup D 176
kiss on his palm D 175
kiss my ass good D 174
kind of hat made D 174
kind of thin silk D 172
kind of car your D 172
kind of cap worn D 172
kids of new york D 172
kiss on that brow D 170
kind of dry dock D 170
kind of bad mood D 170
kiss in its palm D 168
kind of dry moat D 168
kiss to his brow D 163
kind of tax cuts D 163
kink in her flag D 162
kind of dye used D 162
kids or his wife D 162
kind of sir john D 160
kill me and dump D 160
kind of tax break D 159
kind of spy upon D 158
kind of gang rape D 158
kirk at this time D 156
kind to our race D 156
kind of gun from D 156
kind of fun having D 156
kill in new york D 155
kink in its tail D 154
kind of long shot D 154
kind of hot spring D 154
kind of wax used D 152
kind of ore used D 152
kind of meat dish D 152
kiss on his beard D 150
kind of long robe D 150
kind of guy whom D 150
kind of gum tree D 150
kiss the dead lips D 148
kill the dying swan D 148
kiss of his wife D 146
kind of rag doll D 146
kind of oil from D 146
kind of fan made D 146
kill an old wolf D 146
kick the gun away D 146
kiss to her nose D 145
kind of rye bread D 144
kids on his desk D 144
kind of meat stew D 139
kind of guy most D 139
kiss the old shoes D 138
kind of tax bill D 138
kind of art only D 138
kite in one hand D 136
kiss the rod when D 136
kind of air pump D 136
kind do not suit D 136
kick the gun from D 136
kits do not have D 134
kind of art have D 134
kiss to his chin D 133
kind of sex work D 133
kind of art most D 133
kind of war film D 132
kind of sex cell D 132
kind of pop star D 132
kind of nut tree D 132
kind of man jack D 132
kind of leaf used D 132
kind of gas mask D 132
kill it and throw D 132
kick of her heel D 132
kind of law suit D 130
kind to all dumb D 128
kind of tax will D 128
kick of his hoof D 128
kill in his mouth D 127
kind of leaf from D 126
kind of gas from D 126
kind of art worth D 126
kids to bed when D 126
kiss on his pipe D 124
kiss on his pale D 124
kind of guy your D 124
kind of air raid D 124
kick my ass when D 124
kind of zeal have D 122
kind of shoe worn D 122
kids to wear their D 122
kind of meat broth D 121
kirk in his book D 120
kirk at that time D 120
kind of sex talk D 120
kind of hot line D 120
kind of big joke D 120
kick at his legs D 120
kick of his hind D 119
kiss on his rosy D 118
kink in its neck D 118
kind of man took D 118
kind of death grip D 118
kind of dead zone D 118
kick up any dust D 118
kiss of that aerial D 116
kind of pen made D 116
kind of ore from D 116
kiss the red lips D 114
kind of man wears D 114
kind of hut made D 114
kill the fat calf D 114
kick to her ribs D 114
kids in car seats D 113
kiss in each palm D 112
kind to this ogre D 112
kilo of meat cost D 111
kind to his crew D 110
kind of lab work D 110
kind of guy will D 110
kind of guy gets D 110
kiss on her skin D 109
kink in her tail D 108
kind of thin film D 108
kind of gas into D 108
kind of art film D 108
kill me for leaving D 108
kiss to her damp D 107
kind of art there D 107
kiss of his neck D 106
kind of weak beer D 106
kind of singing tone D 106
kind of sex game D 106
kind of neat when D 106
kind of den into D 106
kind of cue from D 106
kind of new idiom D 104
kind of man bill D 104
kind of bed made D 104
kind of beau among D 104
kiss as she took D 103
kiss as his mouth D 103
kits of this type D 102
kirk in its full D 102
kink in her brow D 102
kind the new york D 102
kind of sob from D 102
kiln at one time D 102
kind of war club D 100
kind of pap made D 100
kind of low wall D 100
kind of art made D 100
kick my ass from D 100
kind of red silk D 98
kind of low tent D 98
kind of fun will D 98
kind of fan club D 98
kind of art making D 98
kind of arc lamp D 98
kill us and cook D 98
kick up her legs D 98
kiss it and lick D 96
kind the fun grew D 96
kind of old junk D 96
kind of lean over D 96
kids on his knee D 96
kind of meat loaf D 95
kind of art more D 95
kind of new media D 94
kind of hot bread D 94
kind of heat pump D 94
kind of gay life D 94
kind of bad guys D 94
kind of art theory D 94
kill us and throw D 94
kids up and took D 94
kick of her hoof D 94
kiss on her ripe D 93
kind of long reed D 93
kill it and skin D 92
kiss to her aunt D 91
kiosk to buy some D 90
kind of pay dirt D 90
kind of mad glee D 90
kind of fun just D 90
kill me for bringing D 90
kids do not vote D 90
kick the beam like D 90
kick of our foot D 90
kind at new york D 89
kind of pan used D 88
kind of old barn D 88
kids to ice cream D 88
kiss my own wife D 86
kind of thin skin D 86
kind of rod will D 86
kind of phi beta D 86
kind of cap over D 86
kiss as his lips D 85
kind of low wail D 85
kiss or hug their D 84
kind of long tube D 84
kind of hot spot D 84
kind of fan from D 84
kind of art when D 84
kind of art over D 84
kind of art also D 84
kind in his wife D 84
kick to his chin D 83
kind of ore were D 82
kind of oil made D 82
kind of fan mail D 82
kind of big news D 82
kind of art came D 82
kind of oil into D 80
kind of guy other D 80
kind of gong made D 80
kind of gas will D 80
kind of gas made D 80
kind of car used D 80
kiss on her finger D 69
kick in her womb D 48
kind to his aunt D 47
kind of red sand D 47
kiss on that mouth D 45
kind in its tone D 45
kick at his knee D 45
kind to and fond D 43
kind of beau ideal D 43
kind of sex acts D 42
kind of pep pill D 40
