kill a third of M 1840
kind i used to M 1704
kick a hole in M 1701
kind i have in M 1598
kids i went to M 1560
kids i grew up M 1519
kind a heart as M 1221
kind i like to M 898
kill a part of M 898
kill a bird or M 896
kids i used to M 878
kill a living thing M 804
kind i want to M 767
kiss a girl on M 643
kind i know of M 541
kiss a girl in M 499
kind a heart to M 448
kind i think it M 411
kind i have to M 410
kids i knew in M 374
kill a bird in M 356
kill a bird on M 340
kind i have no M 307
kill a pair of M 300
kind i speak of M 299
kiss a post or M 298
kids i want to M 286
kids i have to M 276
kill a tree by M 270
kill a fish in M 220
kill a tree in M 212
kill a range of M 208
kill a baby in M 198
kind a word to M 194
kiss i give the M 192
kind a kind of M 188
kind i wish to M 186
kill a bird at M 186
kids i talk to M 186
kiss a girl or M 184
kids i knew at M 184
kids a list of M 184
kind i grew up M 183
kind i take to M 174
kind a part of M 170
kick a door in M 165
kiss a pair of M 147
kiss a girl at M 143
kind i think the M 142
kiss i want to M 139
kill a girl of M 138
kids i know do M 137
kind i will be M 133
kind a part in M 133
kind i take it M 130
kill a fish or M 130
kill a hell of M 128
kill a fish of M 126
kind a sort of M 124
kill a good thing M 122
kind i dealt in M 120
kill a band of M 120
kill a baby if M 120
kind i call the M 118
kick a lady in M 118
kind i seem to M 116
kind i know is M 116
kill a cell or M 116
kids i know in M 116
kind i make it M 114
kill a girl in M 112
kill a fish to M 112
kill a tree or M 108
kind i love to M 106
kind i have so M 102
kill a tree is M 102
kiss a lady on M 100
kill a beast or M 100
kiss a girl he M 96
kind i think he M 96
kind i hope to M 96
kill a tree if M 96
kill a beast in M 96
kill a bird to M 94
kill a beast to M 94
kind i like the M 92
kind i used in M 90
kill a land or M 90
kill a cell by M 90
kill a beast of M 90
kind i must be M 89
kiss i give to M 88
kind i said to M 88
kids i have in M 88
kiss a girl if M 86
kiss a girl is M 84
kind i think we M 84
kill a baby by M 84
kids a trip to M 84
kick a pile of M 84
kind i feel in M 80
kind a girl as M 80
kill a worm or M 80
kill a bird as M 50
kiss a girl as M 46
kind a lady as M 45
kiss a part of M 41
kind a mark of M 40
kind a look as M 40
kill a deer or D 1726
kill a deer in D 916
kill a wolf or D 862
kill a bill by D 752
kill a goat or D 658
kick a ball or D 486
kill a hare or D 452
kill a deer at D 376
kick a ball in D 370
kill a herd of D 356
kill a lamb or D 342
kill a fowl or D 326
kill a thief or D 318
kill a wife or D 312
kill a bill in D 272
kill a bull in D 262
kill a calf or D 250
kiss a dish of D 244
kill a deer to D 238
kill a duck or D 214
kill a stag or D 212
kill a thief in D 204
kill a wolf in D 202
kick a ball to D 196
kill a mess of D 190
kill a deer on D 190
kind a soul as D 184
kill a goat in D 182
kill a frog by D 172
kill a bill or D 172
kill a buck in D 170
kill a hare on D 166
kill a stag in D 152
kill a lamb in D 150
kill a goat to D 150
kill a calf in D 150
kind a tone as D 146
kill a fowl in D 142
kill a hare in D 130
kill a deer by D 130
kill a buck at D 126
kill a buck on D 124
kick a ball at D 122
kill a deer if D 118
kick a ball is D 114
kill a swan in D 110
kids a ride to D 108
kill a buck of D 106
kill a lamb to D 102
kick a ball on D 102
kill a deer as D 100
kill a mule or D 96
kill a frog or D 91
kill a deer is D 88
kill a bull or D 88
kill a buck or D 88
kind i took the D 84
kill a pack of D 84
kill a goat at D 84
kill a calf to D 84
kill a frog in D 82
kill a bill to D 82
kill a goat on D 80
kick a ball as D 71
kite a kite is D 44
kick a ball up D 44
kick a ball so D 43
kirk i take my D 40
kill a deer so D 40
