kingdom is in a M 2218
kingdom to be a M 1724
kingdom or in a M 1631
kingdom or of a M 978
kingdom or by a M 588
kingdom is of a M 567
kills or is a M 538
kills it in a M 509
kingdom it is a M 451
killing me if i M 368
kingdom or as a M 316
kicks in at a M 314
killing it by a M 306
killing to be a M 301
kills me if i M 270
killing it in a M 266
kingdom is at a M 254
kingdom or to a M 202
kingdom is on a M 194
killing me as i M 188
kicks it up a M 169
kingdom as in a M 168
killing up to a M 162
kingdom as of a M 150
kingdom be in a M 144
killing me so i M 140
kills it by a M 138
killing us as a M 126
killing it as a M 126
kicks in as a M 126
kingdom as if i M 124
killing is of a M 120
kills me or i M 116
kills it as a M 112
kingdom is as a M 94
killing me in a M 90
killing as is a M 90
killing it at a M 86
kingdom is to a M 84
killing it is a M 80
kissing me in a D 348
kicking it up a D 268
kinds of thing a D 240
kicking me or i D 224
kissing it in a D 218
kinds is at a D 202
kissing me if i D 174
kicking it to a D 170
kicking me as i D 158
kissing me as i D 140
kissing it as a D 138
kicking up in a D 138
kinds is of a D 128
kicking in of a D 126
kinds go by a D 112
kinds of thing i D 106
kinds is in a D 98
kicking it in a D 96
kissing me as a D 94
kissing up to a D 84
