effect " was first M 336
effect " that could M 280
effect " was found M 260
effect " may occur M 246
effect " that every M 176
effect " can occur M 172
effect " that might M 170
effect " that makes M 118
effect " and which M 117
effect " for which M 114
effort " for which M 94
effect " can cause M 94
effect " was noted M 92
effect " with which M 88
effect " was given M 82
effect " may cause M 80
