vie with it in M 2881
vie with us in M 678
vie with me in M 642
vie with it as M 118
vie with the king M 95
vial out of the D 272
viol hung in the D 208
vial has to be D 122
vial was to be D 120
vial and in the D 84
