cell should span . M 368
cell layers deep . M 168
cell system used . M 145
cell disease pain . M 140
cell number three . M 132
cell number four . M 120
cell awaiting trial . M 112
cell aspect ratio . M 110
cell crisis pain . M 48
cell bodies there . M 41
