cells in a given M 9964
cells of a given M 9284
cells in a table M 6897
cells in s phase M 5612
cells of a plant M 4137
cells in a state M 3481
cells as a model M 2970
cells in a human M 2726
cells in a small M 2631
cells of a human M 2434
cells of a table M 2153
cells as a whole M 2036
cells in a large M 1812
cells at a given M 1762
cells or t cells M 1558
cells in a plant M 1380
cells in a blood M 1367
cells is a major M 1258
cells in a mixed M 1162
cells in a group M 1158
cells of a large M 1130
cells in a growing M 958
cells in a total M 950
cells of a small M 855
cells in a fluid M 834
cells of a group M 795
cells at a later M 790
cells in a model M 770
cells in a short M 760
cells in a loose M 731
cells to t cells M 720
cells in a field M 715
cells of a healthy M 706
cells in a woman M 678
cells to a large M 666
cells to a given M 630
cells on a large M 622
cells to a final M 598
cells in a cross M 594
cells in a healthy M 592
cells in a layer M 578
cells in a block M 560
cells in a chain M 547
cells is a layer M 528
cells at a lower M 506
cells as a cause M 496
cells of a growing M 488
cells in a fixed M 488
cells in a linear M 473
ceases in a short M 467
cells of a woman M 464
cells in a solid M 461
cells at a point M 456
cells to a state M 452
cells at a stage M 452
cells in a known M 451
cells as a group M 434
cells in a local M 422
cells in a water M 418
cells of a green M 414
cells of a child M 414
cells in a final M 412
ceased in a short M 410
cells is a small M 404
cells in a resting M 404
cells at a final M 402
cells in a brain M 400
cells or a small M 392
ceases at a point M 378
cells of a cross M 376
cells by t cells M 370
cells by a layer M 370
ceases in a healthy M 362
cells in a viable M 358
cells is a large M 354
cells in a piece M 354
cells of a solid M 344
cells by a virus M 316
cells on a solid M 314
cells as a major M 313
cells by a human M 300
cells to a point M 292
cells on a given M 292
cells of a blood M 288
cells of a brain M 284
cells to a small M 282
cells in a growth M 280
cells in a whole M 277
cells on a blood M 275
cells is a shift M 272
cells in a stage M 267
cells in a rather M 264
cells in a plane M 258
cells as a method M 258
ceases at a given M 258
cells of a fully M 247
cells of a piece M 244
cells by a method M 242
cells in a child M 239
ceased to a large M 238
cells to a solid M 226
cells of a lower M 218
cells as a power M 214
cells of a mixed M 210
cells in a steady M 208
cells in a focus M 208
cells as a class M 207
cells in a wound M 203
cells is a rather M 202
cells in a later M 199
cells or a group M 198
cells of a fixed M 196
cells to a table M 194
cells in a phase M 192
cells in a fully M 187
cells of a whole M 182
cells as a waste M 182
cells as a first M 181
cells to a group M 179
cells by a short M 174
ceased at a point M 174
cells of a known M 167
cells in a study M 162
ceases in a sense M 162
cells or a change M 158
cells by a small M 158
cells of a rather M 156
cells by a large M 154
cells on a small M 152
cells on a daily M 152
cells is a strong M 150
cells is a group M 150
cells at a wound M 150
cells in a space M 149
cells of a chain M 146
cells at a fixed M 144
cells to a brief M 142
cells is a vital M 142
cells in a frame M 140
cells is a cause M 138
cells in a light M 136
cells as a small M 136
cells of a short M 134
cells to a lower M 132
cells of a white M 132
cells of a linear M 132
cells is a point M 132
cells of a newly M 129
cells of a layer M 126
cells in a sense M 126
cells on a layer M 120
cells of a later M 120
cells in a class M 120
cells as a large M 120
cells in a burst M 118
cells of a still M 117
cells is a basic M 116
cells in a close M 116
cells is a method M 114
cells as a guide M 114
cells in a period M 112
cells of a virus M 110
cells in a lower M 108
cells to a change M 104
cells on a plane M 104
cells on a cover M 104
ceased at a given M 104
cells is a linear M 102
cells is a change M 100
cells in a tight M 100
cells as t cells M 100
cells to a fully M 99
ceased at a later M 98
cells is a fluid M 97
cells in a newly M 96
ceased in a state M 96
cells to a varying M 92
cells to a value M 92
cells in a stream M 92
cells in a major M 92
cells at a local M 92
ceases at a lower M 92
cells as a growth M 90
ceased in a sense M 90
cells to a human M 86
cells of a brown M 86
cells or a large M 80
cells is a first M 80
cells in a mother M 80
cells of a water M 56
ceases at a short M 50
cells of a mother M 44
cells to a light M 42
cells in a tumor D 2258
cells in a cubic D 1524
cells of a honey D 1344
cells of a mouse D 1326
cells of a tumor D 1318
cells in a mouse D 1156
ceiling of a large D 1146
ceiling of a small D 1144
cells on a slide D 1108
cells in a region D 915
ceiling of a house D 872
cells of a gland D 849
cells in a serum D 842
ceiling by a chain D 816
cells on a glass D 763
cells of a sponge D 670
cells in a radial D 584
cells in a lymph D 582
cells to a level D 572
cells by a novel D 569
cells in a sheet D 544
ceiling or a floor D 492
cells of a fetus D 482
cells in a clone D 477
cells in a dense D 474
cells at a level D 467
cents on a pound D 440
cents of a rupee D 426
ceiling as a whole D 412
cells of a clone D 410
ceiling is a large D 410
ceiling on a chain D 394
cells of a sheep D 366
cecum is a blind D 366
ceded by a state D 348
cells of a stoma D 346
ceded by a treaty D 344
cells in a stack D 342
cells of a donor D 336
ceiling or a price D 330
cells as a basis D 324
cells to a fresh D 322
cells in a slice D 320
cells in a biopsy D 302
cells in a honey D 300
cells by a tumor D 299
ceiling of a lofty D 298
cells in a fresh D 296
ceiling to a point D 294
cereal in a large D 292
cells of a fruit D 266
cents by a store D 264
cells in a graft D 262
cells as a novel D 248
ceiling in a house D 240
cells to a glass D 238
cells in a lesion D 238
cells of a chick D 236
cents to a penny D 231
cells on a plate D 228
ceiling by a piece D 224
cells of a fungus D 219
cells at a rapid D 218
cells of a taste D 214
ceiling in a large D 214
cells in a glass D 213
ceiling is a small D 210
cecum is a small D 210
cells in a flask D 209
ceiling in a small D 208
ceiling is a legal D 198
cells in a batch D 186
cells by a basal D 184
cents is a paper D 182
cells of a fresh D 178
cells in a taste D 178
cells in a nerve D 177
ceiling at a point D 176
cereal as a snack D 174
cells of a guinea D 174
cells in a clump D 168
ceiling at a level D 168
cells in a liver D 166
cells on a sheet D 158
cells is a dense D 156
cells by a serum D 154
cells is a novel D 153
cents is a small D 152
cells via a novel D 151
cents or a total D 150
cells in a gland D 150
ceiling of a hotel D 150
cells to a slide D 148
cells as a rapid D 148
cells in a sponge D 146
cells in a motor D 146
cells of a motor D 140
cells is a rapid D 140
cells in a rapid D 140
ceiling of a vault D 140
cecum is a large D 138
cells of a graft D 137
cells of a rigid D 134
cells in a urine D 134
ceiling to a large D 130
cents if i would D 128
cells in a focal D 128
cells of a region D 126
cells is a region D 126
cells in a social D 124
ceiling as a guide D 118
cents in a small D 116
cereal or a piece D 112
ceiling is a vault D 112
ceiling by a small D 112
cells in a crypt D 111
cells of a grove D 110
cents if i could D 108
cells in a broad D 108
ceiling at a lower D 108
cents to a woman D 106
cents on a given D 106
cells of a dungeon D 106
cells in a novel D 105
cells in a basal D 104
ceiling of a studio D 104
ceiling of a space D 104
cedar of a large D 104
cells of a lymph D 102
cells in a pivot D 102
ceiling in a given D 102
cents in a first D 100
ceiling of a lower D 100
ceiling is a binding D 100
cedar is a large D 100
cello or a tulip D 99
cells of a renal D 98
ceiling of a theater D 98
ceiling in a state D 98
cents on a piece D 96
ceiling so i could D 96
cereal or a slice D 94
cereal in a small D 94
cents so i could D 94
ceiling in a dreamy D 94
cereal or a bagel D 93
cells of a liver D 92
cells in a breast D 92
cells by a rapid D 92
cells in a chick D 91
cells of a dozen D 90
ceiling by a metal D 90
cells of a slime D 88
ceiling is a ceiling D 88
cells of a social D 86
ceded in a treaty D 80
cello or a violin D 56
cells in a fetus D 51
cells by a viral D 51
cells in a macro D 50
ceiling is a light D 49
cello as a child D 48
cells of a nerve D 47
cello in a minor D 45
cells as a tumor D 44
cells in a median D 43
ceiling of a drawing D 43
cells on a metal D 42
cells of a basal D 41
