two a and two M 4077
two i did not M 2647
two a day for M 2298
two i can not M 1790
two a day and M 1322
two a year for M 694
two a year and M 686
two i was not M 478
two i had not M 442
two a day with M 398
two i owe you M 258
two i was going M 242
two i was put M 236
two i can see M 234
two i saw him M 214
two a day was M 206
two a and one M 204
two s and two M 202
two a for one M 202
two s and six M 200
two a day can M 158
two i saw that M 148
two a day are M 148
two i had had M 142
two i may use M 128
two a man has M 128
two a day may M 128
two a year are M 116
two i was with M 114
two a year was M 114
two i was too M 112
two a long and M 110
two i set out M 102
two i was all M 92
two i had with M 90
two i can get M 88
two a day now M 86
two a man and M 82
two i was out M 48
two a day that M 46
two i had met D 264
