twice in the year M 36553
twice in the day M 12253
twice in the head M 7893
twice on the way M 7043
twice in the new M 4444
twice at the end M 3858
twice in the air M 2131
twice in the old M 2011
twice on the head M 1768
twice in the two M 1453
twice in the poem M 1417
twice on the day M 1318
twice in an age M 856
twice in the one M 836
twice in the leg M 830
twigs at the top M 786
twice in the arm M 775
twice in my own M 722
twigs at the end M 654
twice at the top M 568
twice in the long M 532
twice at the head M 530
twice in the sum M 472
twice in the war M 470
twice in the mid M 450
twice on my way M 436
twice in the six M 426
twice at the man M 422
twice as he was M 404
twice on the top M 397
twice in the top M 388
twigs of the oak M 380
twice in the ten M 371
twice to the top M 333
twice as if she M 330
twice if he was M 328
twice it is not M 327
twice by the way M 319
twice on the arm M 286
twice if it was M 284
twice in the song M 278
twice in the east M 277
twice to the east M 267
twigs on the top M 259
twice in the way M 252
twice in the set M 245
twigs of an old M 242
twice to the new M 241
twice if he had M 232
twice in an old M 230
twice as he ran M 220
twice at the two M 219
twice to go and M 216
twice in no man M 216
twigs in the top M 213
twice as it was M 210
twigs of the red M 208
twice on the two M 205
twice by the age M 201
twice by the end M 196
twigs of the old M 188
twigs of the ash M 187
twice in the few M 186
twice on the one M 185
twice on my own M 184
twice in the area M 182
twice at the old M 180
twice on the map M 174
twice or on two M 165
twice to the man M 162
twigs of the two M 160
twice in the heat M 158
twice to the end M 154
twice on the long M 152
twice so as not M 148
twice in the act M 138
twigs on the way M 136
twice as he lay M 136
twice in the key M 129
twice if he did M 127
twice to the old M 124
twice if he has M 124
twice as he did M 122
twice as he had M 119
twice in the pre M 118
twice at the age M 117
twice to an old M 116
twice to the earth M 112
twice if we are M 112
twigs as if they M 110
twice on the leg M 110
twice as in his M 110
twigs of an oak M 109
twice by the man M 107
twice in the path M 106
twice in my long M 104
twice to go out M 103
twice in the eye M 103
twice by the year M 103
twice to the head M 102
twice by the two M 101
twigs in the air M 100
twice or to ask M 100
twice to my own M 96
twice to do this M 96
twice on the bar M 96
twice if it has M 96
twice as he sat M 96
twice to the two M 93
twice on the path M 91
twigs on the end M 90
twice to be put M 90
twice if it had M 90
twigs on the path M 88
twigs in the way M 88
twice do we hear M 88
twice in the end M 87
twigs in the path M 86
twice in it and M 86
twice at the bar M 86
twice at my own M 86
twigs of the low M 84
twice on the wet M 84
twice if it can M 84
twice he so far M 84
twigs in the earth M 82
twice do we see M 82
twice by the new M 82
twigs of the long M 80
twice in the far M 46
twigs to the top M 43
twice to me that M 40
twist at the end D 10670
tweed ring in new D 4400
twist on an old D 4330
twist of the head D 3612
twist to an old D 3222
twist on the old D 2984
twist to the old D 2612
twist in the air D 1651
twist to the idea D 1113
twist of the dial D 1098
twist of the arm D 1074
twist of the key D 908
twist at the top D 843
twist it so that D 803
twist of the lip D 795
twist on the idea D 764
tween the king and D 678
twist in the path D 605
twanging of the bow D 597
twist of the rod D 568
twirl in the air D 544
tweed at the head D 528
tweed ring of new D 513
twist of the leg D 474
twigs of the fir D 468
twins at the age D 466
twist it to his D 462
twist to the end D 457
twist it as you D 450
twist in the way D 427
twist in the long D 420
twins at the end D 414
twist of the two D 406
twist of the bar D 404
twill be the death D 402
twist to it that D 395
twist of the law D 392
twist in the end D 389
twins on the way D 360
twist to the way D 342
twist of the old D 338
twist of the pen D 336
twist of the path D 324
twill be an easy D 317
twist it in his D 312
twist on the top D 308
twist of the beam D 294
twanging of the old D 273
twigs of the elm D 266
twist to the long D 262
twist it to fit D 262
twixt the sea and D 259
twist on the way D 259
twist on the use D 258
twins as if they D 258
twist to it and D 236
twixt the king and D 227
twill be the end D 225
twist in my seat D 220
twist in the law D 215
twins on the one D 214
twice in the mud D 206
twist in the use D 204
twice on the eve D 204
twist of the end D 203
twist to the use D 200
twist in the pit D 200
twist of the hip D 198
twist to the age D 195
twice in the gut D 194
twist on the end D 193
twist to the new D 192
twist in the old D 190
twist in the gut D 188
twist to the top D 177
twist of the man D 176
twist at the tip D 176
twist to the myth D 174
twist in the two D 172
twist of an old D 170
twist in the new D 170
twice in the fog D 168
twice on the ice D 166
tween the sea and D 162
twirl of the pen D 160
twain is at his D 160
twist it to mean D 158
twist by the aid D 158
twist to the leaf D 156
twine at the end D 156
twice in the car D 154
twist of my own D 152
twine at the top D 151
twist in it that D 150
twist in my gut D 148
twain is the pen D 145
twist of the thong D 144
twist as we may D 144
twist it up and D 141
twist in an old D 140
twist of the lion D 138
twist as he may D 135
twist on the age D 134
twist to the poem D 128
twist to an idea D 128
twining of the two D 128
twist of my head D 124
twice on the jaw D 124
twice in the jaw D 124
twill be on that D 122
twist of the leaf D 121
twist in the bed D 121
tweed on the east D 121
twist in the rod D 118
twirl at the end D 118
twist of the top D 116
twist it to our D 116
twill be no easy D 116
twist of the air D 115
twine to the top D 115
twice in the rig D 115
twirl it in his D 114
twist of the new D 112
twist of the gut D 112
twist to the law D 110
twist in it and D 110
twill be the old D 110
twist of the cap D 106
twins in the two D 106
twins in the death D 106
twins in the car D 106
twice on the bed D 106
twist to the war D 105
twist is the use D 104
twigs of the rod D 104
twice in the bath D 104
twist in the arm D 103
twain at the end D 103
twist it to see D 102
twist in the poem D 102
twain at the hip D 102
twine to the end D 100
twice in the row D 100
twice in the hot D 100
twist to the east D 99
twist to the head D 96
twist on the long D 96
twirl of the nut D 96
twins of the two D 96
twigs of the sloe D 96
tweed is in his D 96
twice on the rim D 94
twice at the car D 94
twist it to get D 93
twinges of the old D 92
twist to it all D 91
twist of the red D 90
twins it is not D 90
twain to be his D 90
twigs of the pear D 88
twist of the long D 86
twins in the way D 86
twist to the art D 84
twist on it and D 84
twist of the thin D 82
twist of my arm D 82
twins in the year D 82
twine if we both D 82
twist is to use D 80
twist by the use D 80
twist it in her D 65
twist it in any D 59
twist in the leaf D 51
twine of the net D 51
twist of the net D 50
twist it on its D 47
twigs of the fig D 45
twain to be one D 44
twist it in one D 42
twain as he was D 42
twist to the man D 41
twist as if they D 41
tweed in the east D 41
twist on the bed D 40
twist of the eye D 40
twist in my head D 40
tweed on the way D 40
