slow to anger and M 17192
slow in coming and M 8098
slow it down and M 4461
slow to speak and M 4340
slow to learn that M 4078
slow to make use M 3649
slow to take off M 3233
slow to learn and M 2691
slow in making its M 2690
slow to move and M 2181
slow to react and M 1900
slow to anger but M 1701
slow the heart and M 1500
slow us down and M 1473
slow to find out M 1372
slow to come and M 1353
slow to make its M 1338
slow to make any M 1302
slow in dealing with M 1292
slow in making his M 1278
slow in coming but M 1204
slow in coming out M 1165
slow to learn this M 1100
slow in coming that M 992
slow to come out M 951
slow to learn how M 946
slow to part with M 938
slow in coming for M 934
slow to grow and M 902
slow to load and M 888
slow to give way M 837
slow it down for M 831
slow in making use M 830
slow me down and M 827
slow in healing and M 826
slow to give his M 779
slow to take any M 745
slow to move out M 733
slow to give them M 718
slow to make his M 714
slow in paying his M 704
slow to have any M 664
slow to form and M 659
slow to give him M 597
slow to take his M 592
slow to find that M 566
slow to make this M 564
slow it down with M 557
slow to fast and M 554
slow to think and M 552
slow to find its M 551
slow to take this M 550
slow in taking his M 516
slow in giving him M 510
slow to rise and M 506
slow to learn new M 480
slow the rate and M 480
slow in taking off M 474
slow in paying its M 456
slow to work with M 451
slow in mind and M 434
slow to show his M 428
slow to note that M 426
slow to hold that M 426
slow to anger has M 424
slow in making any M 422
slow of mind and M 417
slow in paying for M 406
slow in making this M 404
slow or fast and M 396
slow to reach its M 390
slow to react with M 388
slow to less than M 388
slow to walk and M 383
slow to learn but M 370
slow to make them M 366
slow at best and M 366
slow the heart beat M 364
slow to lose its M 350
slow to take them M 346
slow to make new M 336
slow in making new M 336
slow in taking any M 334
slow to speak out M 329
slow to find his M 329
slow to think that M 328
slow in taking her M 326
slow to show any M 325
slow in giving his M 324
slow in fact that M 323
slow to turn this M 321
slow in taking this M 310
slow the flow and M 296
slow to take her M 294
slow to break with M 294
slow to those who M 292
slow to tell him M 288
slow in giving way M 284
slow to give any M 283
slow in moving and M 280
slow to reach him M 279
slow us down too M 274
slow to show its M 272
slow to talk and M 264
slow or stop its M 264
slow to work out M 263
slow in seeing that M 262
slow of heart and M 259
slow to speak but M 257
slow to find this M 254
slow in moving out M 254
slow to move with M 252
slow to open and M 249
slow to make her M 245
slow it down but M 245
slow to reach out M 243
slow to call for M 239
slow the wind and M 238
slow in making her M 234
slow of faith how M 232
slow in asking for M 230
slow in taking its M 228
slow to take its M 227
slow to work and M 225
slow to come but M 218
slow to leave his M 216
slow if there are M 210
slow to learn his M 209
slow to give her M 208
slow to help them M 206
slow in step and M 204
slow to move but M 200
slow to reach them M 194
slow in giving them M 194
slow to reach this M 191
slow to meet this M 191
slow to take him M 190
slow to obey his M 189
slow to lose his M 189
slow in acting and M 186
slow to make that M 185
slow in seeing this M 184
slow to react but M 177
slow in paying him M 176
slow to reach his M 174
slow in giving its M 174
slow to tell you M 172
slow to open its M 172
slow in your old M 170
slow to show her M 168
slow in reading and M 168
slow to sell and M 164
slow to root and M 163
slow to come for M 160
slow to take you M 156
slow of heart are M 156
slow me down too M 156
slow us down for M 154
slow to clear and M 154
slow in some things M 152
slow in coming due M 152
slow to learn its M 151
slow to cast off M 150
slow as mine now M 148
slow the ship and M 146
slow in taking them M 146
slow to tell her M 145
slow me down for M 145
slow to feel that M 143
slow in giving her M 142
slow to think for M 141
slow to join him M 141
slow to warm and M 140
slow to form any M 140
slow it down too M 140
slow to speak his M 139
slow we think him M 138
slow in saying that M 137
slow or even non M 136
slow us down with M 134
slow to open his M 133
slow to deny that M 133
slow to look for M 132
slow in paying her M 132
slow in paying and M 132
slow in making way M 132
slow in coming this M 132
slow to seek out M 130
slow to help him M 130
slow in making our M 128
slow to turn and M 127
slow to obey her M 127
slow to form his M 126
slow or stop this M 126
slow in coming with M 126
slow up when they M 125
slow or stop his M 125
slow or halt its M 125
slow to join this M 124
slow as there was M 124
slow to keep them M 123
slow in coming was M 122
slow or fast but M 121
slow in word but M 120
slow in rate and M 120
slow in paying off M 120
slow to turn off M 119
slow to take out M 117
slow to call this M 117
slow to turn out M 116
slow in saying yes M 116
slow to leave him M 114
slow to find and M 114
slow wing beats and M 112
slow to shed its M 112
slow to hire and M 112
slow to fire and M 112
slow so much that M 111
slow to reach any M 110
slow in paying them M 110
slow to make and M 109
slow or stop and M 109
slow to reach for M 108
slow to obey him M 108
slow the mind and M 108
slow to move off M 107
slow to meet his M 107
slow to give its M 107
slow me down with M 107
slow in making out M 106
slow in coming off M 106
slow to show that M 105
slow to find any M 105
slow to note this M 104
slow to cool off M 104
slow to take new M 103
slow us down but M 102
slow to grow but M 102
slow to find things M 102
slow it down long M 102
slow in making them M 102
slow to obey and M 101
slow or stop them M 101
slow by care and M 100
slow to give you M 99
slow to push for M 98
slow to think ill M 96
slow to meet new M 96
slow to learn them M 96
slow to anger than M 96
slow or halt this M 95
slow at reading and M 95
slow to feed and M 94
slow to take that M 93
slow to rise but M 92
slow the rate but M 92
slow or fast with M 92
slow in seeing his M 92
slow in moving his M 92
slow in giving any M 92
slow to take our M 90
slow to move his M 90
slow to form new M 90
slow it down was M 90
slow us down long M 88
slow to call any M 88
slow in giving you M 88
slow to give out M 87
slow to lift his M 86
slow to leave her M 86
slow to fall and M 86
slow me down but M 86
slow to find her M 85
slow to thank you M 84
slow to reach new M 84
slow me down any M 84
slow to leave and M 83
slow to take things M 82
slow to move for M 82
slow to lose all M 82
slow to face this M 82
slow of step and M 82
slow to stop him M 81
slow to break out M 74
slow to tell them M 70
slow to find them M 66
slow to meet him M 65
slow to turn his M 58
slow to pull out M 51
slow to keep his M 51
slow in making that M 51
slow to join them M 49
slow in line with M 49
slow to send out M 48
slow to turn them M 47
slow to show how M 47
slow in time and M 47
slow to tell his M 46
slow to draw his M 46
slow to draw this M 45
slow to burn and M 45
slow to come that M 44
slow to love and M 43
slow to come off M 43
slow it down now M 43
slow to pass out M 42
slow to make head M 42
slow to feel its M 42
slow to take and M 41
slow to seek his M 41
slow to help you M 41
slow to single out M 40
slow to meet them M 40
slow to learn her M 40
slow or stop for M 40
slung it over his D 13221
slid it into his D 5622
slung it over her D 5223
slam the door and D 4919
slip it into his D 2891
slid it into her D 2722
slip the fact that D 1895
slit it open with D 1745
slinging it over his D 1716
slip it into her D 1666
slab of rock that D 1568
slip it over his D 1448
slab of rock and D 1416
slit it open and D 1411
slid it over her D 1336
slung it over one D 1320
slow the pace and D 1197
slid it onto her D 1142
slip is made out D 1082
slip it over her D 1038
slow to cope with D 1027
slot is used for D 964
slab of bread and D 956
slid it open and D 902
slid it down her D 846
slid it into its D 810
slid it over his D 778
slid the bolt and D 762
slab of wood and D 738
slab of wood with D 714
slid it from her D 682
slip the other day D 681
slid it back and D 676
slang of their own D 670
slinging it over her D 628
slab of rock with D 598
slip the other end D 595
slew no less than D 568
slim to none that D 553
slid it onto his D 544
slip is used for D 535
slab of rock was D 508
slap my face and D 507
slab of wood that D 505
slung me over his D 494
slag is used for D 491
slap the hell out D 490
slid up over her D 486
slow of foot and D 481
slip in here and D 481
slip in there and D 479
slings it over his D 476
slam the door with D 467
slip is less than D 462
slab of clay and D 462
slam the door but D 456
slip in among them D 450
slit of blue sky D 434
slip the leash and D 428
slid up from her D 428
slip of gold leaf D 420
slid the last few D 400
slab is less than D 386
slow to wrath and D 366
slid it down his D 364
slab is used for D 364
slam it shut and D 362
slip the time for D 358
slug of beer and D 354
slid it from his D 346
slay the wise men D 338
slid up over his D 332
slur on those who D 322
slip my neck out D 319
slid it from its D 314
slip up over her D 312
slew of other things D 300
slur on their own D 294
slab of rock had D 288
slip of land that D 284
slip it into one D 283
slow sea rise and D 280
slop the hogs and D 277
slid up into her D 276
slow the boat and D 266
slow in pace and D 264
slip of your pen D 264
slab of beef and D 264
slip of what had D 258
slip of less than D 258
slip of land and D 256
slip of wood with D 250
slew the giant and D 246
slip the belt off D 244
slid the robe off D 242
slew my young men D 240
slow my pace and D 234
slip the free end D 232
slow in bringing his D 230
slow to suit him D 224
slip on over his D 222
slab to mark his D 222
slung it onto his D 216
sloth of those who D 216
slit is made with D 212
slip in their own D 212
slab of wood for D 212
slip on more than D 208
slab of rock near D 208
slew the giant with D 206
slip it over one D 201
slow in bringing them D 200
slings it over her D 200
slip the loop off D 198
slip of more than D 198
slid it into one D 198
slew the young man D 197
slung it from his D 196
slid an inch and D 196
slap of wind and D 196
slab of rock for D 196
slow to throw off D 195
slow the pace for D 194
slip the news that D 192
slap of cold air D 192
slab is more than D 190
slit the skin and D 188
slab of wood was D 188
slew so many that D 186
slit the tape with D 182
slip up there and D 182
slip it from her D 182
slid in there and D 182
slew the beast with D 182
slap the good man D 182
slit the skin with D 180
slip or fall off D 180
slip of land was D 180
slew the beast and D 180
slay the beast and D 180
slid up into his D 178
slip in saying that D 177
sled so fast nor D 176
slay the giant and D 174
slew the five kings D 172
slot is such that D 170
slab of clay with D 170
slug of wine and D 168
slap at slop and D 166
slit is made and D 164
slinging it over one D 164
slow in drying and D 162
slip it onto her D 162
slab of clay was D 162
slab of bread with D 160
slap at those who D 157
slew of their foes D 156
slap the crap out D 156
slung it upon his D 154
slot is less than D 154
slip it into its D 154
slam the door for D 154
slow in bringing out D 152
slit the flap with D 152
slay thy lady that D 152
slay the soul with D 152
slip up like that D 151
slap my face for D 151
slip of wood and D 150
slid the card out D 150
slew the young men D 150
slip my shoes off D 148
slid up along her D 148
slew the great bear D 148
slid the book out D 147
slip it from his D 146
slid it down and D 146
slew the aged and D 146
slam it into his D 146
slow to wrath has D 142
slow in bringing him D 142
slip up here and D 140
slid the last ten D 140
slew the youth and D 140
slew the mouth that D 140
slip is such that D 139
slut to sell her D 138
slit is made for D 138
slip is made for D 136
slew or took them D 136
slag is less than D 136
slip the wire off D 135
slam it shut with D 134
slab is such that D 132
slut to leave you D 130
slip of land with D 130
slim of body and D 130
slab of unit area D 130
slip on when you D 129
slip my hand out D 128
slow to wrath but D 126
slab of bark and D 126
slow to roll out D 124
slid on some ice D 124
slid it along her D 124
slap the hand that D 124
slap my hand and D 124
slap he gave his D 124
sloth of mind and D 123
slit is used for D 122
slip or pull out D 122
slip it onto his D 122
slid the card key D 122
slew the eagle and D 122
slew so many men D 122
slay the young man D 122
slip the skin off D 121
slid the gown off D 121
slow the pace with D 120
slam the door too D 120
slab of pure ice D 120
slid the other one D 118
slid my hand out D 118
slew the three men D 118
slay us when they D 118
slot of their own D 116
slim to none and D 116
slid it open with D 116
slay by slow death D 116
slab is laid out D 116
slop the pigs and D 114
slit the tape and D 114
slip to show that D 114
slip my mind that D 114
slid it back with D 114
slit is open and D 112
slip it away and D 112
slip is more than D 112
slid the other way D 112
slap my back and D 112
slab of clear ice D 112
slung it into her D 110
slow of gait and D 110
slot in line with D 110
slip or trip and D 110
slip it into this D 110
slay the young men D 110
slap the snot out D 110
slow to bolt and D 108
slip of wood had D 108
slap it down and D 108
slab of clay that D 108
slit the tape that D 107
slit it down its D 106
slit an inch long D 106
slip in more than D 106
slay the beast with D 106
slag or bone meal D 106
slip at least one D 105
slur it over and D 104
slum is more than D 104
slid up from his D 104
slay the other and D 104
slat of wood with D 104
slat of wood and D 104
slap the ball with D 104
slam it down and D 104
slab of cold meat D 104
slid my feet out D 103
slum of hope and D 102
slip of mine going D 102
slip of land lying D 102
slid up onto her D 102
slap my face with D 102
slam my door and D 102
slab of ribs and D 102
slit is less than D 101
slow in meting out D 100
sloth of their own D 100
slip to fill out D 100
slip in making this D 100
slot to send its D 98
slit in line with D 98
slip the open end D 98
slip the bolt and D 98
slab of lake ice D 98
slot to slot and D 96
slip of wood was D 96
slip of sand with D 96
slid my left arm D 96
slew the other and D 96
slab of wood cut D 96
slab of cake and D 96
slab of back fat D 96
slab is cast and D 96
slip in some new D 95
slung my pack and D 94
slow in bringing her D 94
slab of rock has D 94
slab of clay for D 94
slow to suit her D 92
slow in coping with D 92
slip on some ice D 91
slip by saying that D 91
slip the left arm D 90
slip in there for D 90
slid the book off D 90
slang is nothing but D 90
slab to slab how D 90
slit an inch and D 89
slum of fire and D 88
slow in bringing its D 88
slew as good men D 88
slay at least one D 88
slab of dark red D 88
slings or bows and D 86
slid the pack off D 86
slid of their own D 86
slap the grin off D 86
slip is very thin D 84
slap the dust off D 84
slang of those who D 84
slam it down with D 84
slip in here for D 83
slow to suit them D 82
slow to suit his D 82
slid it over and D 82
slew thy sire and D 82
slew the only son D 82
slit it along its D 80
slit in half and D 68
slip by when you D 68
slip in some way D 59
slam the door that D 59
slip the coil off D 57
slip on over her D 56
slag to flow out D 56
slid the tray out D 52
slit to look out D 48
slip the rope off D 46
slip in along with D 45
slit up along its D 44
slip the yarn off D 44
slip on only one D 44
slip is when you D 44
slip the bark off D 43
slip in when they D 43
slip by more than D 43
slip in when you D 42
slip in there with D 42
slew at least one D 42
slay the beast that D 41
slab of land that D 41
slap my knee and D 40
