slow off the mark M 5260
slow and the fast M 2206
slow and in some M 1098
slow and the other M 867
slow that it will M 668
slow for the next M 655
slow this thing down M 634
slow and in many M 572
slow and the rate M 551
slow due to lack M 527
slow and the time M 510
slow and it will M 462
slow way of making M 398
slow and of high M 386
slow and we were M 379
slow and the cost M 373
slow and the work M 354
slow for the last M 329
slow way to make M 324
slow all the time M 298
slow that the time M 284
slow for the fast M 280
slow for the time M 270
slow death of their M 264
slow way of moving M 250
slow for the rest M 246
slow that it must M 244
slow for the work M 240
slow due to their M 232
slow but it will M 224
slow she is sure M 220
slow and the heart M 220
slow for the same M 215
slow death by fire M 210
slow for the past M 209
slow and the food M 200
slow for the most M 188
slow that we have M 184
slow for the turn M 184
slow due to poor M 183
slow and the last M 181
slow for the other M 179
slow that the rate M 175
slow that we were M 174
slow than in fast M 173
slow was the rate M 169
slow and we have M 165
slow and the dull M 162
slow and is used M 156
slow and of poor M 154
slow way to learn M 152
slow and the means M 150
slow for my liking M 146
slow due to high M 146
slow and is only M 146
slow that the only M 145
slow but no less M 144
slow beat of their M 142
slow and the need M 141
slow and the only M 138
slow and be sure M 138
slow death in these M 134
slow and the very M 134
slow day at work M 132
slow and at best M 131
slow and in most M 130
slow death of great M 127
slow and the road M 126
slow and the body M 126
slow for the more M 125
slow for the high M 125
slow way of life M 124
slow and at other M 122
slow not to have M 120
slow and of very M 118
slow owing to lack M 116
slow death of these M 114
slow and in fact M 110
slow and the most M 109
slow but the rate M 108
slow one at best M 106
slow and the main M 106
slow for the young M 105
slow was the work M 104
slow and the more M 104
slow and the full M 104
slow and the load M 103
slow for the best M 102
slow that he will M 100
slow and the slow M 99
slow going at best M 98
slow for me here M 98
slow death in some M 98
slow and so lazy M 98
slow and the young M 94
slow due in part M 93
slow and the flow M 92
slow and the next M 90
slow and the loss M 90
slow and he will M 90
slow way to move M 88
slow was the early M 86
slow that we will M 86
slow did he walk M 86
slow death of mind M 86
slow and to some M 86
slow with the look M 84
slow way of coming M 84
slow was the time M 84
slow and the best M 83
slow and be very M 83
slow way up from M 82
slow that the loss M 82
slow death of many M 82
slow and in need M 82
slow and the risk M 81
slow that the work M 80
slow and it must M 80
slow and of such M 45
slow and my breath M 42
slow due to heavy M 40
slow and the range M 40
slip out of their D 13286
slip out of your D 7072
slip out the back D 6991
slid off the road D 4030
slip out the door D 3832
slid off the desk D 3211
slid off the edge D 2128
slip out of town D 1935
slid off the roof D 1818
slid out the door D 1712
slid off the rock D 1542
slid off the back D 1502
slid out of their D 1498
slip off the edge D 1341
slid off the side D 1268
slid off the sofa D 1198
slot and the other D 1136
slay with the breath D 1136
slit for the eyes D 1107
slip out of here D 1076
slip out the side D 1046
slid off the hood D 958
slit for the mouth D 929
slot can be used D 910
slip out of mind D 792
slip off my shoes D 762
slid off the wall D 723
slip out of life D 720
slip out of reach D 701
slip off the hook D 696
slip one of these D 694
slow that it took D 668
slew one of their D 668
slag may be used D 660
slew all the male D 640
slag can be used D 611
slip with the name D 601
slab can be used D 590
slip out of camp D 585
slow and it took D 578
slit can be made D 572
slab may be used D 552
slip and the slip D 534
slab and the wall D 523
slid out the back D 522
slip can be used D 517
slid off the bank D 498
slit may be made D 497
slew two of their D 496
slip off the skin D 495
slip out as soon D 482
slid off the mare D 478
slay him at once D 474
slid out of view D 470
slip may be used D 460
slit can be used D 444
slap with the palm D 443
slid off the other D 434
sled and the dogs D 433
slit and the other D 430
slid off the high D 428
slew with the edge D 420
slew them in their D 420
slip out of these D 416
slip out of line D 406
slip out of hand D 406
slot may be used D 404
slip out of view D 401
slay one of these D 396
slid off the ways D 380
slow sip of wine D 378
sled and the snow D 378
slit can be seen D 368
slit may be used D 364
slip off the side D 364
slid off the bunk D 360
slip may be made D 357
slit for the neck D 354
slap with the back D 347
slay all the rest D 343
slay them in their D 338
slab can be made D 338
slip and the other D 336
slap with the open D 334
sled with the other D 332
slay not the life D 332
slim ray of hope D 328
slip two or three D 320
slot with the same D 318
slab and the other D 317
slip off the road D 312
slid off the pony D 312
slip out to meet D 310
slot for the next D 308
slip out of those D 308
slid out the other D 306
slid out of reach D 305
slip can be seen D 304
slap with the flat D 302
slab with the name D 302
slew him in single D 298
slag and the iron D 293
slid off the bike D 292
slot can be made D 290
slip can be made D 289
slang for the male D 287
slid off the mule D 285
slab set on edge D 285
slap you so hard D 284
slip out the other D 283
slip with the word D 277
slip out of port D 277
slit and the lens D 274
slam out the door D 273
slim that it will D 272
slay not the soul D 270
slab with the same D 270
slip off the ends D 266
slab can be seen D 266
slay him in puny D 264
slung low on their D 262
sled with so many D 262
slip off the other D 260
slab near the door D 259
slap with the hand D 258
slew two or three D 256
slim and the blue D 255
slip one of those D 254
slid off the reef D 254
slot and the door D 252
slings may be used D 250
slab may be made D 250
slid off the piano D 248
slip off the back D 246
slip and go down D 244
slip off the rock D 240
slings can be used D 240
slay all the male D 240
slip off the boat D 232
slid off the cart D 232
slung them on their D 230
slip out of there D 226
slay one of their D 226
slow was the pace D 222
slid off the rail D 222
slab and the soil D 222
slid off the pile D 220
slay him in cold D 220
slip one or more D 219
slim and the other D 216
slid off the deck D 216
slid and it felt D 214
slop for the pigs D 212
slap you on your D 212
slip off the tooth D 211
slow for at least D 210
slum way of life D 208
slay you in your D 208
slab and the beams D 208
slew him in cold D 202
slid off the tree D 200
slap them on their D 200
slab and the base D 200
slim that he will D 198
slow but at least D 196
slot and the slot D 194
slid out of your D 194
slab and the roof D 193
slip off the nest D 189
slip off as soon D 188
slings and the like D 187
slip off to their D 186
slip off to some D 184
slew him in self D 184
slip with my name D 183
slang can be used D 181
slot may be made D 180
slip off the roof D 177
slot has the same D 176
slew them in great D 176
slap him as hard D 176
slip that he knew D 174
slip for the sake D 174
slew one of these D 174
sled and the other D 174
slab may be seen D 174
slag with the iron D 173
sled was of some D 172
slit near the base D 170
slew all the rest D 170
slab are the same D 170
slid off the raft D 167
slim one at best D 166
slip off the foot D 164
slip with the same D 163
slab and the slab D 163
slid off at once D 162
slap with the other D 162
slip out of sync D 160
slop for the hogs D 159
slip out of time D 158
slap and the blow D 158
slot for the other D 156
sled can be made D 153
slew all the sons D 152
slur can be cast D 150
slap him so hard D 150
slab and the load D 150
slip them on over D 149
slot can be seen D 148
slot and the next D 148
slip with the date D 148
slip off the bone D 148
slid off the face D 148
slew them at their D 148
slap with an open D 147
slot for the card D 146
slew him in fair D 146
slap with the butt D 146
slab for the same D 146
slab and the size D 146
slag can be made D 145
slid off my face D 144
slid off my back D 144
slew all the other D 144
slip for the next D 143
slip off the string D 142
slip for the same D 142
slid and the door D 142
slip rings by means D 141
slow for the pace D 140
slew them in cold D 140
slay him in turn D 140
slang way of saying D 139
slip off the ship D 138
slay not so much D 138
slay all the other D 138
slang for the same D 138
slow sip of beer D 136
slip off the left D 136
slid off the boat D 136
slow for the task D 134
slab has the same D 134
slip with the foot D 133
slew all the youth D 132
slag with the lime D 131
slot that is used D 130
slip out of range D 130
slid off the tray D 130
slap him in jail D 130
slip out the gate D 129
slit and the edge D 128
slip out at once D 128
slip off the jack D 128
slip off my coat D 128
slip off at once D 128
slip for the bank D 128
slab and the stem D 128
slip out to join D 126
slip out by some D 124
slid out the side D 124
slot near the door D 122
slip off my sweat D 122
slid off me like D 122
slay them at once D 122
slab may be cast D 122
slid off the sand D 121
slow and at least D 120
slip them on when D 120
slip out to take D 120
slew all the young D 120
slay him or else D 120
slip out of such D 119
slay him the more D 118
slay and eat their D 118
slit with the same D 116
slot with the name D 114
slip off the rope D 114
slim that we will D 114
slag and the lining D 114
slum and the slum D 113
slit and the film D 113
slip out of tune D 113
slot and it will D 112
slip out the same D 112
slip out of work D 112
slay all the sons D 112
slum area of town D 110
slip off or break D 110
slip and the cash D 110
slip and no slip D 110
slid off my shoes D 110
slow and the race D 108
slay him in such D 108
slip one of their D 107
slang may be used D 107
slip out to their D 106
slip off the tree D 106
slang for the word D 106
slag can be seen D 106
slag and the slag D 105
slip one of your D 104
slap was so hard D 104
slab can be cast D 104
slut out of here D 102
slit and the slit D 102
slim for the rest D 102
slaw can be made D 102
slit may be seen D 101
slid out the tray D 100
slid out the card D 100
slid off the sill D 100
slay one of those D 100
slab and the width D 100
slow for the sake D 99
slip and the book D 99
slim was the only D 98
slid off the step D 98
slid off the limb D 98
slew each the other D 98
slum and be done D 96
slot with the other D 96
slip out on their D 96
slip and the body D 96
slip off the desk D 95
slab with an iron D 95
slit and the exit D 94
slip off the rail D 94
slip off the raft D 94
slip has the same D 94
slip for the time D 94
slip for the last D 94
slid out the open D 94
slid off the door D 92
slew for the sake D 92
slay for the sake D 92
slag and the other D 92
slip off to join D 91
slip off the work D 91
slow and the drug D 90
slow and the ball D 90
slot for the same D 90
slit for the same D 90
slip with the other D 90
slip them in your D 90
slid off the page D 90
slew him in turn D 90
slew him as well D 90
slang and the most D 90
slip out of some D 89
slip off the nail D 89
slid two or three D 88
slid out of range D 88
slid off the bone D 88
slay them on their D 88
slay him in single D 88
slap you in your D 88
slag and is used D 88
slue with the other D 86
slid them up over D 86
slid out of line D 86
slid off the tank D 86
slid off the dock D 86
slew them in heaps D 86
slew him at last D 86
slay him or make D 86
slot for the show D 85
slung off the deck D 84
slot and is used D 84
slim and in good D 84
slid out of town D 84
slid off the left D 84
slay two or three D 84
slab near the spring D 84
slab and the main D 84
slab and at least D 84
slip was the same D 82
slip off to town D 82
slid off the last D 82
slid his id card D 82
slap you in jail D 82
slap and ring their D 82
slag that is left D 82
slip off the body D 80
slip off on their D 80
slid off to some D 80
slid off the rump D 80
slay them is ever D 80
slay them in cold D 80
slip off the thumb D 79
slip and go over D 68
slip off the bank D 62
slip out of mine D 61
slip all the time D 56
slag and the like D 50
slip off the wire D 47
slip may be more D 47
slip out of hers D 45
slip out of what D 44
slip that we were D 43
sled can be used D 43
slow and the boat D 42
slit two or three D 42
slip off the wall D 42
slip for the book D 42
slip off the page D 41
slap one of these D 41
slip out of harm D 40
slip off the face D 40
