round for a few M 3112
route for a new M 2218
rocks and a few M 2188
round for a new M 1711
route that i had M 1454
round that i was M 1416
round with a long M 1262
round for a way M 1198
round with a few M 1145
round and i was M 1106
round for a bit M 1081
round for a long M 1053
roots and a few M 1050
round for a seat M 1036
route for a few M 1032
roots for a new M 1004
round for a meal M 998
round him a few M 996
round and i saw M 964
rocks for a few M 806
rocks for a long M 804
rough and i was M 802
rocks with a few M 798
round with a red M 762
route for a long M 678
route that i was M 660
round for a job M 644
rocks with a low M 631
round with a big M 574
round with a bit M 571
route was a long M 550
round that i had M 545
round for a man M 544
round with a wet M 532
round for a cup M 524
rough for a few M 502
roots and a new M 494
round and i had M 493
rocks that i had M 474
round out a meal M 461
round and a few M 451
roots and a long M 438
roots for a few M 426
round off a meal M 424
round with a new M 397
rough that i was M 386
roots for a long M 350
rocks and i was M 336
route for a day M 327
round with a man M 325
rocks but a few M 316
route and i was M 294
round with a lot M 289
round with a cry M 284
round him a team M 282
route and a new M 280
round with a low M 278
round with a box M 272
rough and i had M 266
round and i can M 261
route and a few M 256
round him a set M 256
route with a few M 240
round with a cup M 239
route than i had M 236
rocks are a few M 232
rough for a long M 230
roots with a few M 226
route and i had M 218
roots for a team M 216
rough and a bit M 214
route that i did M 202
rocks with a long M 202
rough for a man M 192
round off a day M 190
round out a long M 189
route for a year M 186
round and a new M 185
rough with a day M 183
round him a new M 176
roots that i had M 174
route for a man M 172
round for a day M 172
rough that i had M 166
round than a man M 164
round that i can M 163
rocks and i had M 162
royal and i had M 158
rough out a few M 158
rocks that i was M 156
royal for a few M 154
roots with a new M 150
round and a bit M 149
route with a new M 148
rough with a few M 148
round and i did M 143
round with a bag M 141
round out a day M 137
round and i see M 136
roots with a low M 135
round that a new M 133
round for a year M 133
round each i see M 130
round and i got M 129
roots with a long M 128
round with a set M 127
round them a few M 127
route with a long M 124
rocks and i can M 124
rocks and a lot M 124
rocks and a long M 122
rocks and a low M 121
royal and a few M 120
route that i can M 120
round with a bow M 118
rough that i did M 118
rough and i did M 118
rough and a lot M 116
round with a one M 115
round with a sad M 113
rough and i can M 112
rocks for a day M 112
round out a new M 110
round but a few M 105
route was a bit M 102
rough lot i can M 102
rough for a lot M 102
round off a few M 100
round was a long M 98
route was a dead M 96
route and i can M 96
rocks and i saw M 96
route has a long M 94
rough that i can M 94
roots but a few M 94
roots are a few M 92
rough for a boy M 90
route with a low M 88
route was a new M 88
round off a poem M 88
rough with a lot M 88
rough and i got M 86
rocks and a big M 86
rocks that i can M 84
round you a bit M 82
round and i hear M 82
route with a map M 80
route and a long M 80
round and a man M 63
round and a lot M 59
round with a two M 58
round with a six M 57
round her a few M 55
round with a dry M 53
round but i was M 53
round and a long M 48
round with a can M 47
round her a long M 45
round with a dog M 43
route for a set M 42
round out a year M 40
rooms and a bath D 6294
rolling off a log D 3858
rooms are a bit D 3466
roger and i had D 2634
rooms for a few D 2378
rooms and a few D 1586
rolling out a new D 1446
roger and i are D 1380
robin and i had D 1362
roads and a few D 1292
robin and i are D 1084
rooms with a bath D 1026
rooms with a few D 918
rooms and a big D 864
roman and a man D 836
roses and a few D 804
rooms that i had D 782
rolling for a long D 764
rooms and a lean D 756
rooms and a bar D 714
rogue and a liar D 699
rooms and a new D 694
rooms for a long D 652
rooms and a long D 616
roles and a new D 602
roofs and a few D 594
round with a thin D 573
roads and a new D 552
rooms and i was D 510
roads for a few D 504
roses and a box D 492
roads for a long D 490
rooms that i was D 474
rooms and a two D 471
rolling for a few D 434
rooms than i had D 414
roger was a man D 398
rooms for a year D 384
rolls and a cup D 383
round with a swing D 381
rooting for a team D 378
rooms with a long D 356
round with a hat D 354
rooms with a lot D 354
roger and i both D 354
rooms with a bed D 346
rogue and a dog D 342
roger and i got D 338
rolls and a few D 334
round with a gun D 331
rooms with a fan D 326
roles for a few D 312
roles that i had D 308
roads that i had D 302
roger and i sat D 300
rooms and i had D 294
rocks with a thin D 292
rooms for a nap D 290
roles for a new D 288
roger and i did D 286
round with a rim D 275
robes and a red D 273
roses that i had D 272
roman was a man D 270
roles for a long D 268
rooms and a path D 266
robin has a red D 264
rooms for a day D 257
roman law a man D 254
robes with a red D 250
robes and a long D 250
rolling with a few D 246
rogue that i had D 242
round with a row D 234
roses and a big D 234
rooms with a new D 234
rooms off a long D 222
robes with a long D 222
rolls out a new D 221
rowed for a long D 218
roger and i and D 218
roles for a day D 216
robes and a few D 216
roads with a few D 216
rooms with a big D 210
roads and i was D 210
ropes and a few D 204
roger and i set D 204
rooms and a lot D 202
roger and i met D 202
rolling out a red D 198
roger and i can D 192
roles with a new D 190
robin and i got D 190
roman and i had D 188
roast but a nut D 188
roads for a new D 188
rolls for a few D 185
roles and a set D 184
rolling out a pie D 182
roads that i was D 182
roses with a few D 178
rolling out a long D 178
rolls for a long D 177
roles that i was D 176
roaring out a song D 176
rocky and i had D 172
roads are a bit D 171
rooms are a few D 166
rooms and a sun D 166
robin and i both D 166
roses for a long D 164
rolls and a pot D 164
round with a sly D 162
rocky with a few D 156
rooms for a bit D 155
rogue that i was D 154
rooms with a low D 152
rooms with a red D 150
roles and a few D 150
robin and i sat D 150
rolling and i was D 149
rowan was a man D 148
robin has a bad D 148
roads and a lot D 148
roger that i was D 146
roads with a lot D 146
rooms and i can D 144
rooms was a bed D 143
round with a rag D 140
roses and i was D 138
robin and i can D 136
ropes for a few D 134
romping with a dog D 132
roger had a son D 132
roger for a few D 132
rocky and i are D 132
ropes and a long D 130
roles that a man D 130
robin and i did D 126
rooms and a hot D 124
roger for a long D 124
roger and a few D 124
rocks and a thin D 124
ropes with a few D 122
ropes for a year D 122
rooms that i did D 120
rocking for a long D 120
roads that i can D 120
robes and a wig D 119
rolling off a bed D 118
robes and a cap D 118
round for a pen D 115
rolls and i was D 114
roman and a non D 113
rocking for a few D 113
rowed out a long D 112
roots with a thin D 112
rooms with a lean D 112
rooms has a bath D 112
rooms for a new D 112
roger had a bad D 112
rooms with a one D 111
rooms with a bar D 110
rooms that i can D 110
rooms for a fee D 110
rooms but i did D 110
rooms are a real D 110
roads but a few D 110
roads and a long D 110
rooms and i saw D 108
roger was a bit D 108
roads for a year D 108
rowed for a few D 106
roses for a few D 106
ropes and i was D 106
rooms than i can D 106
roofs with a low D 106
robot has a set D 106
robin and i met D 106
rooms was a long D 104
roads for a day D 104
rooms with a man D 103
rowed out a few D 102
rooms that i saw D 102
roles for a man D 102
rocking and a ringing D 102
rough for a car D 100
roger had a lot D 100
rocky for a long D 100
round with a jug D 98
rooms but a few D 98
rooms and a bit D 98
roger was a big D 98
robin for a few D 98
roads that i saw D 98
rooms and a set D 97
round with a gay D 96
round with a dig D 96
roles and i was D 96
robin was a man D 96
robes and a hat D 96
ropes that i had D 95
round for a cab D 94
roger was a boy D 94
rotting for a long D 92
rolling for a new D 92
rooms with a two D 91
rooms with a hot D 90
rolls and a new D 90
roger had a new D 90
robot than a man D 90
round was a dud D 89
roses and i had D 88
rooms are a lot D 88
roofs that a few D 88
rooms with a bit D 86
robin and i and D 86
roads with a low D 86
rooms and a low D 84
rooming with a guy D 84
robot with a set D 84
round with a peak D 82
rooms are a mix D 82
rooms and i are D 82
roles are a way D 82
roast him a pig D 82
roads and i had D 82
route for a car D 80
roles that i can D 80
roast for a few D 76
round with a hot D 65
rooms and a bed D 58
round with a mud D 56
round with a tin D 53
rotor and a two D 53
round with a cap D 50
round with a pot D 49
roaring for a long D 48
rooms are a tad D 46
rover for a few D 45
round with a thong D 43
rolls out a red D 43
rooms and a one D 42
roost for a long D 41
roman and a few D 41
round and a pear D 40
