ax and went to D 502
ax and taking the D 356
ax was used to D 226
ax and swung it D 216
ax bit into the D 214
ax and chop it D 174
ax was laid to D 168
ax was laid at D 154
ax him what he D 150
ax and chop the D 140
ax was heard in D 136
ax and threw it D 108
ax was made of D 98
ax and take the D 98
ax and held it D 96
ax and gave the D 92
ax can also be D 88
