ox or a cow D 3802
ox of a man D 2084
ox or a hog D 358
ox or a pig D 316
ox or a man D 276
ox or a dog D 170
ox or a lion D 164
ox or a ram D 140
ox or a fat D 122
ox at a meal D 112
ox or a few D 86
ox in a team D 82
