hired a man to M 14446
hired a team of M 5618
hired a lot of M 2884
hired a boy to M 2688
hides a lot of M 1534
hitting a lot of M 1172
hitting a low of M 1148
hired a team to M 666
hired a set of M 438
hired a man by M 418
hired a man in M 416
hired a few of M 414
hitting a man in M 402
hitting a man on M 364
hired a man at M 282
hitting a key on M 266
hitting a low in M 236
hitting a few of M 236
hired a man of M 226
hired a fly to M 192
hired a man as M 185
hired a seat in M 162
hills i hear the M 160
hired a poet to M 150
hills i saw the M 148
hides a fear of M 139
hired a box at M 134
hired a kid to M 124
hitting a key to M 118
hitting a bag of M 118
hitting a man or M 116
hills i had to M 114
hitting a man of M 106
hired a man he M 106
hither i was as M 104
hired a pro to M 102
hired a man or M 102
hired a boy of M 100
hitting a man at M 90
hired a man on M 88
hills i see the M 84
hides a set of M 82
hired a boy at M 80
hired a car to D 3342
hired a gang of D 1998
hired a cab to D 1398
hires a man to D 1100
hired a car in D 886
hitting a peak of D 802
hired a guy to D 704
hired a car at D 682
hitting a peak in D 570
hired a bus to D 548
hires a lot of D 542
hitch a team to D 408
hitch a team of D 400
hires a team of D 366
hired a van to D 276
hired a thug to D 244
hires a boy to D 224
hires a car to D 206
hired a mob to D 194
hired a trio of D 188
hires a gang of D 148
hired a rig to D 146
hired a lad to D 146
hired a tug to D 126
hired a car on D 126
hired a spy to D 114
hitting a car in D 112
hired a car so D 103
hires a thug to D 100
hired a gang to D 100
hired a cab at D 98
hired a cab in D 96
hitting a row of D 92
hired a rig at D 88
hired a new ad D 84
hires a set of D 82
