power of a state M 66710
power in a state M 17475
poetry as a whole M 15474
point in a given M 14952
power of a given M 13888
power of a woman M 13007
point in a plane M 12714
point of a small M 10740
power in a given M 9320
power of a strong M 8868
power of a small M 8735
power of a group M 7885
power of a large M 7854
point of a given M 7462
power in a world M 7133
point is a point M 7128
point at a given M 7022
point of a large M 6638
power at a given M 6536
power in a small M 6201
point on a scale M 6191
point on a given M 6144
power of a party M 5819
power of a people M 5808
point to a period M 5464
point on a plane M 5448
point of a story M 5411
point to a strong M 5296
power of a father M 5244
point in a fluid M 5244
point to a given M 5190
point to a large M 5184
power of a prime M 4825
point to a point M 4791
power as a whole M 4770
power on a large M 4742
point on a graph M 4630
point to a growing M 4547
point of a solid M 4327
point to a later M 4199
point in a later M 4182
power of a local M 4027
power is a power M 3922
point is a small M 3912
point to a change M 3836
power of a judge M 3818
power of a human M 3790
point to a close M 3732
power to a small M 3714
point to a major M 3714
power of a black M 3678
power is a major M 3638
point to a plane M 3562
power in a slave M 3551
point to a place M 3328
power of a mother M 3168
power of a study M 3162
point to a small M 3039
power of a praying M 3038
point to a rather M 2952
power as a woman M 2930
power in a large M 2904
power of a class M 2900
point in a field M 2891
power to a power M 2801
point to a state M 2772
power to a large M 2726
point in a space M 2709
power of a ruler M 2691
power is a trust M 2672
power on a scale M 2657
power as a group M 2596
power as a leader M 2594
power by a small M 2541
power of a child M 2501
power of a light M 2434
power of a power M 2410
point in a child M 2410
point of a whole M 2374
point to a basic M 2324
point in a story M 2322
power as a major M 2310
power of a stream M 2308
power as a force M 2280
power to a point M 2234
point to a lower M 2202
power to a group M 2190
point at a later M 2176
power in a group M 2173
point in a woman M 2098
power of a model M 2048
power by a state M 1993
point to a group M 1962
power of a board M 1958
point to a valid M 1896
power of a leader M 1880
power as a class M 1873
point of a major M 1809
point to a shift M 1776
power of a story M 1767
point in a state M 1766
point in a small M 1765
point of a fluid M 1764
point in a study M 1764
power of a whole M 1762
power in a period M 1752
point of a plane M 1742
point is a local M 1724
posed as a model M 1710
power at a lower M 1682
point in a stream M 1661
poetry is a poetry M 1656
point is a large M 1646
power of a world M 1642
power of a river M 1632
point in a large M 1608
power of a civil M 1607
power of a fixed M 1577
point is a valid M 1534
point to a trend M 1510
point to a world M 1474
power of a deity M 1473
point to a whole M 1473
point to a local M 1470
power of a moral M 1440
point to a still M 1438
power as a state M 1433
power to a state M 1422
power of a force M 1411
power is a basic M 1395
power of a sound M 1392
point to a steady M 1376
point is a major M 1368
power by a group M 1362
point in a world M 1361
power is a force M 1356
point to a fixed M 1343
power on a world M 1338
power of a water M 1314
poetry of a people M 1296
point in a rather M 1294
point to a wider M 1293
point on a stream M 1288
point of a piece M 1278
power in a short M 1276
power of a first M 1274
power as a trust M 1274
point of a group M 1274
point in a paper M 1260
point by a small M 1253
point on a piece M 1242
power on a small M 1224
point of a woman M 1224
power of a house M 1219
point to a moral M 1212
point of a short M 1212
power of a demon M 1198
point or a point M 1194
point in a fixed M 1194
point in a solid M 1189
power of a smile M 1176
poetry as a child M 1167
power to a local M 1162
power at a price M 1162
point in a search M 1160
point to a final M 1156
power at a point M 1153
power of a false M 1148
power is a strong M 1144
point in a short M 1136
point of a strong M 1128
point to a value M 1123
point on a river M 1122
power of a major M 1111
point is a place M 1110
power of a vision M 1107
point of a period M 1100
power of a storm M 1098
power of a point M 1096
power at a later M 1094
power of a noble M 1090
power as a party M 1081
point in a cycle M 1076
posed by a large M 1074
point to a child M 1059
power of a plant M 1056
point in a chain M 1052
power of a white M 1042
point to a sense M 1026
point of a field M 1009
power of a growing M 1002
point of a chain M 1001
point to a cause M 992
point as a point M 991
power in a woman M 990
power in a people M 990
point in a piece M 968
point is a study M 966
power of a grand M 964
power of a truly M 960
power is a vital M 960
power to a class M 959
point of a later M 954
power by a party M 952
poetry of a later M 942
point to a total M 937
power is a state M 936
poetry in a world M 935
point in a cross M 934
point at a lower M 934
point in a group M 929
point to a chair M 923
point in a river M 915
power as a moral M 912
point of a study M 910
power to a board M 887
point to a piece M 877
power as a right M 875
point at a fixed M 874
power by a large M 872
point of a moral M 872
point to a quite M 853
point of a total M 852
point to a study M 850
point to a class M 843
point of a class M 843
point of a world M 841
power of a curse M 840
point of a plant M 840
point to a short M 834
power of a legal M 832
power of a kingdom M 832
point at a meeting M 832
point in a meeting M 830
power of a piece M 826
power in a strong M 826
power as a cause M 812
point is a fixed M 807
point of a scale M 806
point of a cross M 804
point of a linear M 801
power to a woman M 800
power or a group M 796
power as a story M 792
point of a child M 792
point to a model M 788
point of a change M 788
point of a space M 784
point of a fixed M 778
power as a power M 776
power at a fixed M 774
point to a human M 773
power in a sense M 772
power as a ruler M 770
power as a people M 770
point on a large M 770
posed by a given M 766
power in a local M 764
power to a given M 762
pouring in a stream M 762
power of a solid M 757
point in a period M 757
point or a small M 755
power of a labor M 748
point to a woman M 748
point of a point M 748
point of a cycle M 748
power in a major M 746
power of a voice M 745
point to a table M 745
pouring in a deadly M 744
point by a force M 744
point of a river M 742
point in a graph M 733
power of a cause M 718
power of a magic M 717
power on a daily M 716
point on a fixed M 715
power as a judge M 714
point in a linear M 713
point of a visit M 710
power as a check M 706
point of a water M 706
point is a strong M 700
power on a local M 696
point on a small M 690
point in a water M 682
power to a party M 680
pouring in a steady M 680
power as a large M 676
point to a story M 673
power of a healthy M 666
point is a rather M 666
power on a solid M 660
poetry as a model M 660
point to a house M 658
power as a guide M 652
power as a human M 649
point in a model M 649
poetry is a speaking M 649
power in a still M 648
point of a sound M 646
power of a royal M 644
power of a right M 640
power in a human M 636
point as a guide M 634
power to a world M 633
posts of a house M 632
power of a place M 630
point in a turning M 629
point in a whole M 625
point of a right M 622
power of a cruel M 614
power at a local M 614
point to a growth M 614
power of a queen M 612
point in a brief M 612
point is a short M 610
power of a fully M 607
power in a field M 607
point of a block M 601
posed by a group M 598
power on a grand M 596
power is a small M 594
point of a local M 594
point of a phase M 592
point to a focus M 591
posed as a woman M 590
power of a linear M 588
point to a field M 588
point on a lower M 588
point is a linear M 588
point of a steep M 587
point of a final M 580
point to a stage M 578
point in a phase M 577
power as a buyer M 576
power of a newly M 574
point of a model M 574
power is a right M 572
point is a brief M 570
power is a large M 566
point of a human M 566
point of a black M 562
point to a unity M 560
power of a wealthy M 558
point in a table M 556
power as a method M 554
power as a basic M 554
power or a power M 549
point of a stream M 549
power of a sense M 548
point of a graph M 548
point as a check M 547
point is a basic M 546
power in a place M 542
point in a sound M 541
power in a child M 532
point of a paper M 532
poetry by a woman M 532
point to a method M 530
power in a class M 529
posed by a growing M 528
power as a healer M 526
power is a prime M 524
power as a first M 524
power to a strong M 520
power to a people M 514
posed to a group M 514
point is a vital M 514
power as a model M 512
point of a search M 512
point on a cross M 509
point by a large M 500
point on a linear M 499
point of a table M 496
point of a white M 494
point by a light M 494
posed by a small M 492
power by a strong M 490
point is a focus M 490
point to a block M 489
power in a legal M 488
power to a lower M 486
point in a quite M 485
power in a wider M 482
point is a piece M 478
point at a large M 476
point as a whole M 476
power in a house M 475
point is a value M 473
power of a short M 472
power of a really M 470
point of a first M 470
point to a color M 466
point of a light M 464
point to a happy M 463
point in a drawing M 461
power of a slave M 460
power in a power M 460
point to a longer M 460
point at a small M 459
power to a wider M 458
power as a child M 458
power in a close M 457
point to a first M 454
power as a mother M 453
power of a method M 452
power in a civil M 452
power in a party M 451
power of a plane M 450
point to a mixed M 449
point in a major M 449
power of a lower M 448
power of a fluid M 446
point up a moral M 443
point to a solid M 442
point to a danger M 442
point on i shall M 442
point of a rather M 440
point of a train M 438
point in a strong M 438
power on a given M 436
poetry as a moral M 436
power in a trust M 430
power as a viable M 430
point to a brief M 430
point or a comma M 430
power to a newly M 428
point to a nearby M 428
point of a state M 425
power by a local M 424
point as a place M 422
point or a limit M 420
point on a phase M 420
point in a hurry M 420
power as a given M 418
point to a right M 418
point is a model M 418
power in a board M 414
power as a vital M 414
power as a prime M 414
posed by a world M 414
point of a turning M 413
posed by a woman M 412
power by a class M 411
point of a party M 408
point is a limit M 408
poetry is a search M 408
power of a total M 407
power in a black M 406
point of a naked M 402
point by a brief M 400
point in a frame M 399
point on a white M 397
point to a fourth M 396
point of a truly M 396
point to a power M 395
power at a period M 394
power as a local M 394
point of a style M 394
point at a right M 391
poetry to a wider M 390
point in a lengthy M 388
point in a joint M 388
point of a growing M 386
point to a healthy M 385
power of a touch M 384
power in a lower M 382
posed by a study M 382
point of a house M 382
point in a match M 382
point as a limit M 379
point in a steady M 378
power to a black M 376
point to a limit M 376
power is a fixed M 374
power is a cause M 372
point is a group M 372
point if i could M 372
poetry is a human M 372
point to a people M 371
power is a moral M 370
power as a reader M 370
poetry of a given M 368
power of a super M 366
point of a civil M 366
poetry of a grown M 366
point of a wider M 360
poetry as a vital M 360
power is a point M 358
point up a major M 358
power to a prime M 356
power as a small M 356
point to a style M 355
power as i could M 354
point of a drawing M 354
point on i began M 352
point of a legal M 352
point is a change M 352
point by a short M 352
point in a scale M 349
point as i could M 349
power to a ruler M 348
point on a route M 348
point on a drawing M 347
posed as a wealthy M 346
point is a given M 346
point in a local M 342
point in a point M 341
power as a world M 339
point to a reason M 339
power of a hated M 338
power by a people M 338
power of a vital M 336
power by a woman M 336
point at a known M 334
power as a father M 332
power in a newly M 331
point at a place M 331
point is a state M 327
point of a power M 324
power in a kingdom M 322
power of a paper M 321
power on a wider M 319
power to a leader M 318
point of a rough M 318
point to a black M 317
power of a change M 314
power as a value M 314
power as a reason M 314
point by a plane M 314
power of a vivid M 312
pouring in a small M 312
power of a risen M 310
point of a lengthy M 310
power to a place M 308
power of a joint M 308
power in a rather M 308
power in a cause M 308
point to a newly M 308
poetry is a whole M 308
poetry as a force M 308
power of a still M 307
power of a poetic M 306
power of a close M 306
point of a longer M 305
power as a strong M 304
point to a named M 304
point of a drawn M 304
point in a class M 303
power is a rather M 302
posed by a strong M 302
point to a phase M 302
point on i could M 302
point of a match M 302
point of a joint M 302
power in a growing M 300
point in a proof M 300
point to a notion M 299
point to a false M 299
point of a round M 299
poetry is a major M 298
power of a field M 296
power is a curse M 296
power is a child M 296
posed by a major M 296
point if a force M 296
poetry of a period M 296
poetry is a world M 295
point in a wider M 294
poetry in a style M 294
power of a working M 293
power of a mixed M 292
point at a short M 292
point as a reason M 291
poetry as i could M 290
power to a civil M 288
power of a trust M 288
power is a danger M 288
point in a power M 288
point of a mapping M 287
power of a color M 286
point is a plane M 286
poetry to a group M 286
poetry of a woman M 286
point in a sense M 285
power to a child M 284
power in a white M 284
power in a mixed M 284
point to a vital M 284
point of a shell M 284
point of a people M 284
point on a light M 283
point of a trend M 282
power as a legal M 281
point on a nearby M 281
power to a human M 280
power or a force M 280
point to a fault M 279
power is a human M 278
point to a vision M 277
power of a brief M 276
point by a given M 276
power of a burning M 275
point at a point M 275
point on a table M 272
point of a motion M 272
point of a fully M 271
power of a blind M 270
point of a place M 270
power to a judge M 268
power by a ruler M 268
poetry as a major M 268
power of a value M 267
power is a linear M 267
point of a walking M 267
power to a whole M 266
point on a short M 266
point as a small M 265
power to a piece M 264
point is a story M 264
point of a brief M 263
power in a hunting M 262
point on a major M 262
point of a route M 262
point of a fault M 262
point to a chain M 261
power of a train M 260
power in a hurry M 260
power as a white M 260
posed as a leader M 260
point so i could M 260
point on a shape M 260
point of a grand M 260
point of a fight M 260
point to a search M 258
point in a legal M 258
point up a basic M 257
power or a right M 256
point to a sound M 256
point to a lengthy M 256
point in a close M 256
power as a fixed M 255
point or a period M 255
point in a light M 255
point to a feeling M 254
point or a plane M 254
point in a human M 253
point of a meeting M 252
power of a tiger M 250
power of a money M 250
power is a proof M 250
power in a study M 250
power by a false M 250
poetry in a sense M 250
point by a story M 248
poetry as a poetry M 248
power as a royal M 247
power in a sound M 246
posed as a moral M 246
power of a feeling M 244
power of a layer M 242
poetry in a prose M 242
power in a healthy M 240
point is a sound M 240
point is a sense M 240
poetry in a short M 240
pouring in a close M 239
point to a space M 239
point in a fight M 239
power by a leader M 238
point on a solid M 238
power to a value M 236
power of a buyer M 236
point on a globe M 236
power is a viable M 234
power in a later M 234
point or a fixed M 234
point of a track M 234
point as a major M 234
power of a label M 232
power is a legal M 232
power in a joint M 232
point to a joint M 232
poetry in a state M 232
power of a brave M 230
power or a change M 228
power of a final M 228
power in a moral M 228
point to a white M 228
point of a newly M 228
point in a plant M 227
power of a crowd M 226
power is a given M 226
power in a truly M 226
posts in a large M 226
point on a track M 225
point in a block M 223
poetry of a whole M 223
posed by a child M 222
poetry is a vital M 222
point in a still M 221
point to a meeting M 219
power of a crown M 218
power in a quiet M 218
power by a given M 218
posts in a state M 218
point to a light M 218
power of a later M 217
poetry is a stray M 217
power as a point M 216
point on i never M 216
point is a woman M 216
power of a shell M 215
power in a right M 215
poetry is a light M 215
power by a power M 214
power at a meeting M 214
point to a river M 214
point of a basic M 214
point in a final M 214
poetry of a black M 214
poetry is a place M 214
point or a group M 213
point in a place M 213
point of a writing M 212
point is a warning M 212
point by a strong M 212
point by a change M 212
power or a small M 211
point is a period M 211
power of a logic M 210
power of a habit M 210
power in a plant M 210
power in a brief M 210
posed as a major M 210
point or a short M 210
point is a whole M 210
power in a story M 209
power or a piece M 208
power of a proud M 208
power at a steady M 208
point to a truly M 208
point to a linear M 208
poetry to a large M 208
power of a rather M 206
power in a space M 206
power as a deadly M 206
point on a floor M 206
point of a coast M 206
point is a waste M 206
poetry or a story M 206
poetry as a human M 206
power or a cause M 204
power in a leader M 204
power in a cruel M 204
point to a really M 203
point on a seven M 203
power to a major M 202
power is a valid M 202
power in a light M 202
power as a prose M 202
point on a fault M 202
point of a steady M 202
point of a ruler M 202
point of a nearby M 202
point of a still M 201
point in a longer M 201
point at a value M 201
power of a devil M 200
point of a groan M 200
point in a first M 200
point in a rough M 199
power to a sense M 198
power in a mother M 198
power at a power M 198
posed in a group M 198
poetry as a place M 198
poetry as a method M 198
point of a known M 197
point as a proof M 197
power is a party M 196
power is a crime M 196
point of a shape M 196
point of a lower M 196
point in a cause M 196
power on a human M 195
power of a known M 194
power as a labor M 193
posed as a linear M 192
point of a mixed M 192
point of a happy M 192
point on a space M 191
power or a trust M 190
posed as a buyer M 190
point on a black M 190
point is i could M 190
power in a quite M 189
point on a cycle M 189
power is a prize M 188
power in a whole M 188
point is a rough M 188
point as a linear M 188
power on a strong M 186
poetry of a world M 186
point to a missing M 185
power of a query M 184
power of a chain M 184
power in a harsh M 184
point of a healthy M 184
point in a topic M 184
point as a focus M 184
poetry in a period M 184
power of a hungry M 182
poetry at a later M 182
poetry as a guide M 182
point to a legal M 181
power to a white M 180
power of a quiet M 180
power is a topic M 180
point in a mixed M 180
point to a shape M 179
point in a round M 179
point by a fixed M 179
power of a nurse M 178
power of a noise M 178
power in a fully M 178
power as a civil M 178
point in a change M 178
point by a group M 178
point as a fixed M 178
poetry on a large M 178
posed by a state M 177
point of a cutting M 177
power of a quick M 176
power of a drive M 176
power in a final M 176
power by a change M 176
power as a maker M 176
point on a field M 176
point is a solid M 176
point is a method M 176
point to a known M 175
point is a turning M 175
point is a close M 175
power of a rough M 174
power is a story M 174
posts in a civil M 174
point on a total M 174
point is a right M 174
poetry is a power M 174
poetry in a given M 174
point of a force M 173
point is a class M 173
power or a sense M 172
power as a final M 172
posed by a basic M 172
poetry is a moral M 172
power on a short M 170
power of a steady M 170
point of a working M 170
point of a trail M 170
point of a shift M 170
point is a quite M 170
point in a black M 170
poetry is a sense M 170
power on a group M 169
power of a clock M 169
power of a press M 168
power is a first M 168
point of a blind M 168
point is a first M 168
point in a learning M 168
poetry as a speaking M 168
power of a quite M 167
poetry to a class M 167
power to a period M 166
power to a growing M 166
power in a tight M 166
power in a labor M 166
point to a slowing M 166
point on a model M 166
point as a first M 166
poetry is a waste M 166
poetry is a method M 166
power of a healer M 164
power of a focus M 164
posts in a given M 164
posed in a study M 164
posed in a given M 164
power to a fixed M 163
point in a right M 163
power or a share M 162
power of a deadly M 162
point of a close M 162
point in a vivid M 162
poetry is a large M 162
point of a burning M 161
power of a motion M 160
power in a judge M 160
posed in a white M 160
point is a round M 160
point at a price M 160
power of a style M 158
power by a legal M 158
point of a hunting M 158
power of a brain M 157
power on a major M 156
power of a happy M 156
power at a joint M 156
power as a change M 156
point on a steep M 156
poetry of a rather M 156
poetry is a blind M 156
point to a vague M 155
power of a guiding M 154
power in a fight M 154
power if i could M 154
point of a frame M 154
poetry is a voice M 154
power is a value M 153
power in a vague M 152
power in a storm M 152
power in a first M 152
power as a guiding M 152
point is a known M 152
point by a linear M 152
poetry is a study M 152
point of a learning M 151
poetry of a child M 151
power in a vision M 150
power as a black M 150
point is a moral M 150
point as a model M 150
poetry is a unity M 150
poetry is a pleasing M 150
poetry in a small M 150
poetry as a point M 150
power in a stream M 149
power in a plane M 149
power as a queen M 149
power on a state M 148
power of a which M 148
power in a total M 148
power in a prime M 148
power as a field M 148
point in a nearby M 148
point by a study M 148
point to a quiet M 147
poetry in a voice M 147
poetry as a study M 147
power at a place M 146
power as a danger M 146
point to a grand M 146
point or a place M 146
point in a trend M 146
point in a house M 146
point in a color M 146
pours in a stream M 145
point to a ruler M 145
point on a world M 145
point on a plant M 145
point of a stage M 145
power to a legal M 144
posed in a rather M 144
posed as a white M 144
point is i never M 144
poetry to a small M 144
point as a class M 143
power of a share M 142
power of a basic M 142
posts of a chair M 142
point of a really M 142
poetry to a world M 142
poetry as a valid M 142
power or a strong M 140
power as a vivid M 140
point in a layer M 140
poetry of a lower M 140
poetry as a woman M 140
point of a fable M 139
power of a gross M 138
power is a grant M 138
power is a false M 138
power in a smile M 138
posed by a black M 138
point to a paper M 138
point on a right M 138
point in a white M 138
point in a season M 138
point as a woman M 138
poetry as a power M 138
posed on a table M 137
point to a quick M 137
point is a plain M 137
point is a paper M 137
point in a motion M 137
point at a press M 137
power to a drive M 136
power in a voice M 136
power as a proof M 136
point to a topic M 136
point by a method M 136
poetry as a field M 136
power in a ruler M 135
point to a crime M 135
point of a proxy M 135
point is a world M 135
point in a total M 135
power or a state M 134
power as a place M 134
power as a close M 134
posed as a black M 134
point on a point M 134
point in a truly M 134
poetry of a power M 134
power of a fourth M 133
power at a large M 132
point of a leader M 132
point in a storm M 132
poetry of a moral M 132
point is a search M 131
power of a tutor M 130
power at a small M 130
power as a piece M 130
posed by a change M 130
point of a nearly M 130
point of a green M 130
point is a lower M 130
point as a child M 130
point to a nearly M 129
point of a proof M 129
point is a cross M 129
power to a right M 128
power of a wider M 128
power of a bribe M 128
power is a joint M 128
posed on a still M 128
point on a trail M 128
point in a press M 128
power of a stage M 127
power of a cross M 127
power in a fixed M 127
point on a later M 127
power or a large M 126
power of a running M 126
power of a block M 126
point of a topic M 126
point of a panic M 126
point is a human M 126
point in a party M 126
point be a point M 126
point as a price M 126
poetry of a group M 126
poetry is a still M 126
point or a change M 125
power so i could M 124
posts on a large M 124
posts of a large M 124
posed to a woman M 124
point to a viable M 124
point to a track M 124
point of a feeling M 124
point of a cloud M 124
poetry or a piece M 124
poetry is a strong M 124
poetry is a rather M 124
poetry if i could M 124
power to a water M 123
power of a relic M 123
point or a given M 123
point on a board M 123
point of a quite M 123
power to a house M 122
power or a habit M 122
power of a virus M 122
power in a night M 122
pouring of a large M 122
posed to a child M 122
posed as a group M 122
point of a method M 122
point of a layer M 122
point of a denial M 122
point is a total M 122
point in a train M 122
poetry is a state M 122
poetry by a black M 122
power of a winning M 121
point to a thriving M 121
point to a fully M 121
power on a people M 120
power on a lower M 120
power in a nearly M 120
power by a grant M 120
power as a unity M 120
posts to a point M 120
posed of a large M 120
point to a noble M 120
point on a water M 120
point of a sense M 120
point of a false M 120
poetry in a rather M 120
power at a total M 119
point in a vague M 119
point as a warning M 119
power is a vague M 118
power in a really M 118
power in a model M 118
point on a rough M 118
point on a coast M 118
point is a claim M 118
point as a method M 118
poetry of a beauty M 118
power or a party M 117
point to a plant M 117
point to a denial M 117
point in a quiet M 117
power of a vowel M 116
power of a frame M 116
posts as a warning M 116
point to a steep M 116
point in a lower M 116
point in a known M 116
point in a grand M 116
point as a human M 116
poetry to a woman M 116
poetry in a large M 116
power of a grown M 115
power is a world M 114
power is a short M 114
power is a sense M 114
power in a vital M 114
power as a focus M 114
posed on a white M 114
point to a scale M 114
point to a force M 114
point to a father M 114
point to a brain M 114
point is a feeling M 114
poetry in a wider M 114
poetry as a state M 114
power of a nearby M 113
point to a proud M 113
point is a light M 113
power to a focus M 112
power of a dogma M 112
power in a solid M 112
power in a piece M 112
power in a clock M 112
posed in a large M 112
point of a plain M 112
point of a color M 112
point is a final M 112
point is a cause M 112
point by a piece M 112
poetry on a prose M 112
poetry as a search M 112
point as a cause M 111
power is a method M 110
power in a style M 110
power in a steady M 110
power by a trick M 110
pouring of a small M 110
posts at a given M 110
point in a reply M 110
point in a plain M 110
poetry of a small M 110
poetry of a class M 110
poetry is a prime M 110
poetry is a model M 110
power or a world M 109
point on a yield M 109
point in a style M 109
power to a light M 108
power to a father M 108
power or a major M 108
power of a valid M 108
power of a reason M 108
power is a mixed M 108
power is a growing M 108
power as a slave M 108
power as a short M 108
posed by a local M 108
posed as a slave M 108
point or a local M 108
point is a river M 108
point is a proof M 108
point by a party M 108
poetry to a poetry M 108
poetry as a space M 108
poetry as a class M 108
point in a growing M 107
power to a final M 106
power to a close M 106
power of a women M 106
power of a space M 106
power of a falling M 106
posed in a chair M 106
point on a daily M 106
point in a visit M 106
point by a power M 106
poetry is a proof M 106
poetry as a viable M 106
point or a cutting M 105
power to a cause M 104
power of a weaker M 104
power in a linear M 104
power as a junior M 104
posed by a model M 104
poetry on a small M 104
poetry is a small M 104
power of a graph M 103
power is a group M 103
power in a water M 103
power by a fixed M 103
point to a leader M 103
point or a cycle M 103
point of a crack M 103
poetry is a force M 103
poetry as a group M 103
power to a known M 102
power on a woman M 102
power of a scale M 102
power in a river M 102
power as a valid M 102
posed as a nurse M 102
point of a season M 102
point of a quest M 102
point of a cause M 102
point is a noble M 102
point in a route M 102
power of a search M 101
posed by a class M 101
point of a value M 101
point as a group M 101
power of a cunning M 100
power is a waste M 100
power is a feeling M 100
power in a season M 100
power in a royal M 100
posed to a large M 100
point of a poetic M 100
point of a growth M 100
point is a steep M 100
point is a fourth M 100
point in a leader M 100
point in a fully M 100
point by a chain M 100
poetry or a short M 100
poetry is a purging M 100
power to a model M 98
power of a teaching M 98
power of a sitting M 98
power is a healthy M 98
power by a major M 98
power as a price M 98
pouring in a storm M 98
posts on a small M 98
point to a clock M 98
point on a looking M 98
point is a joint M 98
point in a blood M 98
point by a rather M 98
point as a basic M 98
poetry of a prose M 98
power by a close M 97
point to a cross M 97
power to a first M 96
power on a plane M 96
power of a pupil M 96
power is a notion M 96
power is a field M 96
posed as a party M 96
point or a turning M 96
point of a smile M 96
point of a habit M 96
point is a steady M 96
point is a child M 96
poetry on a grand M 96
poetry of a really M 96
point as a local M 95
power of a phase M 94
power of a harsh M 94
power of a count M 94
power is a drive M 94
power as a truly M 94
power as a board M 94
point of a board M 94
point is a legal M 94
point is a black M 94
point in a shape M 94
poetry is a quest M 94
poetry is a noble M 94
poetry in a woman M 94
poetry as a noble M 94
posed in a state M 93
power to a fully M 92
power on a truly M 92
power on a board M 92
power of a plain M 92
power is a deadly M 92
power as a warning M 92
power as a fully M 92
posed in a small M 92
posed as a child M 92
point or a piece M 92
point or a moral M 92
point on a woman M 92
point on a print M 92
point in a people M 92
point in a night M 92
poetry in a later M 92
poetry as a denial M 92
power to a still M 91
power of a music M 91
point by a close M 91
power to a buyer M 90
power on a motion M 90
power in a rough M 90
pours in a steady M 90
posts in a purge M 90
posed in a black M 90
posed as a judge M 90
point on a visit M 90
point of a leaded M 90
point of a chair M 90
point in a civil M 90
point at a period M 90
point as a valid M 90
poetry is a happy M 90
point of a night M 89
power to a joint M 88
power or a voice M 88
power is a noble M 88
power is a leader M 88
power is a gross M 88
power by a short M 88
power as a deity M 88
pouring in a large M 88
posed on a small M 88
posed on a chair M 88
point on a longer M 88
point of a thriving M 88
point of a loose M 88
point is a field M 88
poetry to a place M 88
poetry is a woman M 88
poetry is a feeling M 88
posed by a newly M 87
point in a poetic M 87
power of a tight M 86
power of a poetry M 86
power of a daily M 86
power of a claim M 86
power as a prize M 86
posed in a field M 86
posed as a strong M 86
posed as a search M 86
point on a local M 86
point of a crown M 86
point is a vague M 86
point is a growing M 86
point by a point M 86
poetry is a running M 86
power of a period M 85
point of a verse M 85
power to a bunch M 84
power of a watch M 84
power is a peril M 84
power by a white M 84
power by a right M 84
point of a storm M 84
point in a voice M 84
poetry of a quite M 84
poetry is a poetic M 84
poetry in a brief M 84
poetry as a world M 84
poetry as a voice M 84
power on a still M 83
posts on a stand M 83
power of a junior M 82
power is a reason M 82
power is a denial M 82
power in a grand M 82
power by a joint M 82
power as a poetic M 82
power as a joint M 82
posts at a place M 82
point on a falling M 82
point of a which M 82
point of a reader M 82
point of a lasting M 82
point of a claim M 82
point is i really M 82
point is a space M 82
point is a shift M 82
poetry of a place M 82
poetry in a class M 82
point to a working M 81
point to a drawing M 81
point to a blood M 81
point as a final M 81
power to a weaker M 80
power is a growth M 80
posts of a small M 80
point to a verse M 80
point is a vision M 80
point is a false M 80
poetry is a joint M 80
poetry in a child M 80
poetry as a waste M 80
point to a rough M 78
point to a cycle M 68
point to a seeming M 67
power in a fluid M 66
point to a mother M 66
point on a chain M 65
power is a fluid M 64
point to a nearer M 64
point to a route M 62
power of a learning M 60
point of a clock M 60
point at a table M 60
point to a breaking M 59
poetry as a calling M 59
power of a drawing M 57
point to a weaker M 57
point to a glaring M 57
point on a front M 57
power in a known M 56
point to a falling M 56
point to a failing M 56
point to a royal M 54
point to a turning M 53
point to a finding M 53
point or a large M 53
point at a piece M 53
power to a total M 52
point to a labor M 51
point to a green M 51
point to a blind M 51
power as a working M 50
point to a water M 50
point at a group M 50
point to a price M 49
point to a party M 49
power of a writing M 48
point of a grass M 48
poetry to a close M 48
poetry is a sound M 48
point to a stream M 47
point to a round M 47
point to a delay M 47
point on a known M 47
poetic is a blood M 47
point to a gross M 46
point to a fluid M 46
point on a power M 46
point in a logic M 46
power to a proxy M 45
power in a cross M 45
posed by a human M 45
point to a visit M 45
point to a tight M 44
point on a ruler M 44
point if a small M 44
point by a cross M 44
power by a chain M 43
power as a learning M 43
point up a rather M 43
point to a crack M 43
poetry is a close M 43
power of a blood M 42
point to a layer M 42
point of a seven M 42
point of a passing M 42
point of a front M 42
point in a working M 42
point in a value M 42
point to a worse M 41
point to a usage M 41
point to a train M 41
point to a plain M 41
point to a lasting M 41
point in a teaching M 41
power of a speaking M 40
power as a stage M 40
power as a built M 40
point to a landing M 40
point to a habit M 40
point at a close M 40
poetry of a light M 40
point of a knife D 35682
power of a court D 31198
power of a nation D 20594
point of a sword D 14846
point of a sharp D 8880
point on a curve D 8004
porch of a house D 6098
point of a lance D 6019
poles of a strong D 5950
pound to a pound D 4731
poles to a stake D 4366
power of a horse D 4272
point of a curve D 3686
power as a nation D 3461
poles to a white D 3228
power of a grating D 3213
point of a stick D 3134
poles of a large D 2948
power of a prism D 2890
power as a social D 2753
power of a chief D 2732
power as a basis D 2524
point of a ridge D 2332
point on a level D 2244
poles of a horse D 2222
power in a region D 2165
power of a motor D 2134
power in a social D 2118
power in a nation D 2080
point in a region D 2058
power as a weapon D 2030
power of a social D 1908
point of a metal D 1856
pound or a pound D 1753
poetry as a genre D 1736
power of a roman D 1694
polar of a point D 1635
power of a laser D 1542
pound to a penny D 1501
poetry of a nation D 1474
point of a probe D 1414
power of a witch D 1388
poles to a black D 1295
porch of a small D 1284
point of a region D 1284
poles of a small D 1278
point of a steel D 1268
point of a blade D 1264
point to a rapid D 1250
power to a level D 1238
point of a rigid D 1238
point as a cadet D 1226
point to a level D 1183
porch in a rocking D 1171
power of a rival D 1156
point of a social D 1144
power in a court D 1130
power as a lever D 1127
power at a speed D 1116
point of a blunt D 1099
point to a sharp D 1098
power of a serum D 1071
pound to a paste D 1061
point on a smooth D 1054
point to a social D 1032
power of a metal D 1016
power of a spell D 1002
point in a scene D 1002
poles to a stone D 986
point of a brush D 972
power is a social D 966
point to a lesion D 960
point of a rocky D 936
point of a glass D 931
pound is a pound D 926
point in a changing D 921
point on a chart D 900
point of a broad D 898
poles of a given D 896
point of a scene D 892
power in a changing D 883
point of a chord D 877
point of a weapon D 866
point on a conic D 857
pores of a solid D 856
ports in a state D 850
point of a smooth D 850
power of a charm D 848
point in a curve D 848
power as a court D 842
point of a wedge D 840
point on a rigid D 824
point to a broad D 820
point of a rifle D 818
point in a rigid D 818
point to a region D 816
point of a fresh D 812
point to a curve D 810
poles as a nation D 808
point of a drill D 804
ports of a nation D 800
power of a brand D 781
poetry as a social D 772
point on a ridge D 768
pores of a sponge D 750
poles of a fixed D 750
point is a minor D 746
porch of a large D 744
point as a basis D 743
power on a basis D 740
pouring me a glass D 740
pours me a glass D 726
power of a saint D 717
point on a sheet D 717
point of a quill D 708
point as a nation D 708
power to a motor D 690
point to a blank D 690
power of a novel D 688
power on a level D 684
ports of a state D 684
power of a trade D 683
pound of a given D 670
power of a tribe D 662
power of a shunt D 661
poles to a small D 648
poetry as a craft D 636
power of a pound D 627
point of a novel D 622
point of a screw D 621
point of a lever D 620
point of a conic D 607
porch of a nearby D 606
point of a stone D 600
power at a level D 598
point of a heated D 591
power of a lever D 590
power of a paint D 588
porch of a hotel D 576
point of a nation D 570
point of a bluff D 565
porch of a cabin D 558
point to a dozen D 552
point as a pivot D 551
posts of a fence D 546
power of a dozen D 540
porch is a small D 538
power of a screw D 536
power to a court D 535
power of a fleet D 528
power of a glass D 520
posed by a changing D 520
poetry as a weapon D 520
pores of a given D 518
power to a nation D 516
ports as a whole D 514
power in a broad D 512
point of a shoot D 490
posting of a guard D 484
point on a wheel D 482
poles as a warning D 472
power of a fresh D 468
posed in a studio D 468
poles to a large D 465
poles to a beech D 460
point on a screw D 460
polar of a given D 458
pouring in a flood D 456
point in a nation D 456
poetry as a hobby D 454
pools in a river D 452
point to a smooth D 449
power of a weapon D 448
power is a broad D 436
point on a slope D 430
porch is a large D 428
point at a speed D 419
point of a cliff D 416
point of a syringe D 415
power of a broad D 414
point in a social D 412
point in a novel D 410
point in a smooth D 405
power of a wheel D 404
poise of a woman D 404
point in a chart D 404
point to a fresh D 402
point in a movie D 399
power of a sugar D 398
poetry is a sword D 398
power of a widow D 394
point of a split D 392
power of a naval D 390
power as a chief D 390
point of a glaze D 388
power of a rifle D 386
point on a plate D 386
point on a rolling D 385
point on i would D 384
point on a blank D 384
point of a stake D 384
ports in a storm D 382
point to a fatal D 382
point is a sharp D 382
point to a changing D 380
point to a novel D 377
power by a court D 376
poppy in a field D 370
poetry or a novel D 370
poses as a model D 369
porch is a later D 369
power of a petty D 366
power in a fiber D 366
poles of a steel D 364
point to a grave D 364
power of a stare D 362
pores in a given D 362
point to a roman D 359
pooling of a large D 357
power of a fairy D 356
point of a wheel D 354
point to a seaman D 352
point at a level D 352
point of a lofty D 348
power of a godly D 344
poetry is a genre D 342
point in a flowing D 341
power of a flowing D 338
porch of a white D 338
point in a court D 338
poetry of a scene D 336
power of a solar D 334
point of a nerve D 332
point to a nation D 331
poetry is a social D 330
power as a witch D 328
power in a pulse D 326
power as a motor D 326
point of a rusty D 326
power of a voter D 324
power of a stone D 324
porch is a stone D 322
pours in a flood D 321
posts in a fence D 320
point or a region D 320
point in a blank D 319
point to a focal D 316
point in a broad D 314
power on a broad D 312
point of a camel D 310
power of a minor D 306
pouring me a drink D 306
poles to a point D 306
poetry to a level D 306
power of a flame D 304
power in a motor D 304
point in a drama D 304
power of a region D 300
popping up a dialog D 300
point of a gable D 300
point of a fatal D 298
posting of a debit D 287
poles to a sugar D 286
point of a truss D 286
point of a drama D 286
poles as a people D 284
point of a feather D 281
point in a glass D 281
point to a split D 280
point to a scene D 279
power of a wedge D 278
point on a nerve D 277
point in a flame D 276
power of a rupee D 274
power of a pulse D 274
power of a flash D 274
point of a tongue D 274
point of a flame D 274
point to a conic D 270
posed as a social D 268
power of a tidal D 266
power in a rural D 266
power of a steel D 265
pound to a smooth D 265
power on a court D 264
power of a ghost D 264
power of a cubic D 264
poker at a table D 264
point to a minor D 264
poses as a woman D 260
point in a sales D 260
power of a plate D 254
poles in a field D 254
poetry is a craft D 254
power of a griping D 252
power of a snake D 251
power in a setting D 250
pound as i shall D 250
power to a junta D 249
point of a sandy D 248
point in a cable D 247
power of a flood D 246
ports in a given D 246
point on a slide D 246
point of a rapid D 246
power of a mayor D 244
porch so i could D 242
porch in a white D 242
point is a telling D 242
power of a sheet D 238
power as a trade D 238
pores in a solid D 238
point to a stone D 238
power is a chief D 237
power of a radar D 236
power in a laser D 236
point to a chart D 235
posting of a large D 234
point of a trade D 232
power of a title D 230
pouring in a galling D 230
pools of a stream D 230
point or a curve D 230
power of a fuzzy D 228
power of a penny D 226
point or a sharp D 226
point of a horse D 226
power to a shaft D 225
power as a trading D 223
power as a driving D 223
power of a lofty D 222
point of a staff D 222
power of a scene D 220
power by a nation D 220
ports of a given D 220
point of a fishing D 220
point of a sugar D 218
point is a broad D 218
point of a spire D 216
power in a dozen D 215
pound on a table D 215
power of a lover D 214
power is a weapon D 214
polyp on a stalk D 214
poise of a queen D 214
point in a truss D 214
point to a breach D 213
point of a scythe D 213
power of a senior D 212
poles of a scale D 212
power as a rival D 211
ports as a basis D 210
point of a jutting D 210
power of a venal D 206
pound or a penny D 206
posed as a saint D 206
point of a court D 206
poetry in a changing D 206
power of a stock D 204
power of a cation D 204
poles of a field D 203
power of a racial D 202
porch of a store D 202
poles of a lodge D 202
point of a laser D 202
posed as a rival D 201
power by a social D 200
pours me a drink D 200
point in a plate D 199
point in a level D 199
pound or a guinea D 198
point of a roman D 198
point of a grease D 198
power of a treaty D 197
pores of a piece D 197
poles of a power D 196
point of a saber D 196
power of a pumping D 194
point of a movie D 193
power to a chief D 192
posed as a roman D 192
point of a minor D 192
power of a flour D 190
power in a chief D 190
point of a rural D 190
point on a lever D 189
point to a racial D 187
power of a pagan D 186
power in a trade D 184
point to a score D 184
point of a spoon D 184
pores of a stone D 182
point in a steel D 181
power of a maniac D 180
point to a shaft D 180
point on a blade D 180
point of a plate D 180
point of a goose D 180
poles in a motor D 179
point of a razor D 178
point of a cable D 178
point is a smooth D 178
point to a trade D 177
point to a stack D 177
power to a region D 176
posed by a rival D 176
poles in a given D 176
point to a glass D 175
porch as a place D 174
poles as a whole D 174
poked at a piece D 174
point in a heated D 174
point is a region D 173
posed as a loyal D 172
point in a stock D 172
point on a sliding D 171
point of a flint D 171
polls by a large D 170
power on a footing D 168
poles of a motor D 167
ports on a given D 166
point of a fatty D 166
point in a flash D 166
power to a pitch D 164
power of a rigid D 164
point of a shaft D 164
poles of a tepee D 163
point of a stout D 163
polyp is a small D 162
point is a curve D 162
pound to a quart D 161
polka or a waltz D 161
poses as a saint D 160
posed by a panel D 160
point or a knife D 160
point of a wedding D 160
posse of a dozen D 158
point in a nerve D 158
point in a horse D 158
point at a covey D 158
power of a quasi D 156
power of a nerve D 156
poles on a scale D 156
point to a horse D 156
pound is a force D 155
point to a blunt D 155
potion in a glass D 154
point in a sealed D 154
power to a broad D 152
power of a rural D 152
power of a caste D 152
pours in a broad D 152
pouring in a rapid D 152
porch in a chair D 152
polyp is a growth D 152
poles at a point D 152
point to a tower D 152
point on a stone D 152
point of a rivet D 152
poetry as a basis D 152
point on a metal D 151
power of a score D 150
power if i would D 150
power as a voter D 150
posed by a social D 150
poles of a short D 150
point to a basis D 150
poetry is a blend D 150
power on a tidal D 148
posting to a mailing D 148
point on a helix D 148
point of a twist D 148
point of a breach D 148
power of a fiber D 147
point in a basin D 147
power as a ghost D 146
poses as a wealthy D 146
poles in a daily D 146
point on a stick D 146
point on a glass D 146
power in a novel D 145
power of a punch D 144
power of a movie D 144
porch of a shack D 144
point to a photo D 144
point on a cubic D 144
point of a spike D 144
point of a skirt D 144
power is a nation D 143
pools of a river D 142
point to a tumor D 142
point is a level D 142
poetry is a weapon D 142
point to a clash D 139
power of a heated D 138
power is a grave D 138
power in a quasi D 138
power by a title D 138
power is a tacit D 136
porch of a local D 136
point of a witty D 136
point of a score D 136
point in a sharp D 136
point as i would D 136
poetry in a broad D 136
pound or a total D 135
polyp in a child D 135
polls in a state D 135
poles to a maple D 135
point on a score D 135
point in a shaft D 135
power of a rushing D 134
power is a minor D 134
point to a nerve D 134
point on a broad D 134
point of a carving D 134
poetry to a pitch D 134
power of a donor D 133
power to a heater D 132
power of a loyal D 132
power of a brisk D 132
power in a minor D 132
pound to a pinch D 132
poles of a linear D 132
point is a rocky D 132
point in a metal D 132
poetry of a homer D 132
power of a sword D 131
polls as a whole D 131
point of a motor D 131
point of a darning D 131
power of a rebel D 130
power of a jungle D 130
power of a heathen D 130
pound at a fixed D 130
poles at a given D 130
point on a chord D 130
point of a spade D 130
power to a rival D 129
power at a rapid D 128
point to a finer D 128
point is i would D 128
poetry is a fusion D 128
pores in a grain D 127
power of a baron D 126
power is a breach D 126
pores at a given D 126
porch to a house D 126
poker is a lever D 126
point on a rocky D 126
point of a strip D 126
point of a naval D 126
point by a clamp D 126
pools in a stream D 125
power to a social D 124
power of a sharp D 124
pouring in a fresh D 124
popping of a paper D 124
polar to a polar D 124
point on a trade D 124
point on a cliff D 124
point of a trading D 124
poetry on a level D 124
power as a lyric D 123
power in a smooth D 122
posed as a lover D 122
porch on a house D 122
point of a paint D 122
point is a social D 122
point is a scene D 122
power of a level D 121
power as a novel D 121
point on a torus D 121
point at a radial D 121
power on a nation D 120
power of a titan D 120
pound of a horse D 120
ports as a group D 120
polls as a guide D 120
poles of a globe D 120
point to a toxic D 120
point on a shaft D 120
point in a radial D 120
point in a fresh D 120
point or a stone D 119
power to a minor D 118
power of a bible D 118
power as a lover D 118
pouring of a drink D 118
posed as a basis D 118
porch in a small D 118
poles as a group D 118
point of a tower D 118
point of a radial D 118
point of a fiber D 118
point of a breast D 118
point in a fiber D 118
point of a stock D 117
power of a banking D 116
pouring of a glass D 116
posed by a nation D 116
poles on a globe D 116
point of a rival D 116
point in a thesis D 116
point in a dense D 116
point to a patch D 115
point of a dozen D 115
power of a would D 114
power of a vicar D 114
power of a canting D 114
porch to a small D 114
ponds in a storm D 114
polls by a small D 114
point of a vista D 114
point of a fever D 114
point of a crude D 114
point in a telling D 114
poetry of a lofty D 114
poetry in a region D 114
poetry as a trade D 114
point of a level D 113
power of a throne D 112
poles of a sedan D 112
poles of a moral D 112
poles in a small D 112
poles in a large D 112
point in a panel D 112
point of a tumor D 111
power of a fiend D 110
posting of a small D 110
posed as a widow D 110
ports at a price D 110
poles of a unity D 110
point on a bluff D 110
point of a clash D 110
poetry in a drama D 110
power as a stump D 109
poles of a grove D 109
power of a crane D 108
power of a brick D 108
power as a quasi D 108
poses as a motor D 108
ports at a lower D 108
porch is a place D 108
poppy is a plant D 108
point to a purer D 108
point to a dense D 108
point on a strip D 108
point of a treaty D 108
point of a slope D 108
power by a rival D 107
point of a rolling D 107
point in a dozen D 107
power in a scene D 106
pores of a plant D 106
porch of a ranch D 106
pools of a given D 106
point on a locus D 106
point of a shining D 106
point on a polar D 105
power of a privy D 104
power of a creed D 104
power as a charm D 104
pound at a lower D 104
pound at a level D 104
posting to a group D 104
point is a faint D 104
point is a conic D 104
poetry in a minor D 104
power of a micro D 103
point to a reign D 103
point as a plebe D 103
power is a basis D 102
power by a rapid D 102
pound of a solid D 102
pound is a small D 102
pouch is a small D 102
posting in a place D 102
porch in a hurry D 102
point on a crest D 102
point on a cable D 102
point of a patch D 102
point of a march D 102
point of a ledge D 102
point in a ridge D 102
point of a brand D 101
power of a taboo D 100
power by a broad D 100
posts of a trade D 100
pores in a piece D 100
poles in a plane D 100
poked by a stick D 100
poise in a world D 100
point of a pivot D 100
point of a fuzzy D 100
point in a batch D 100
point by a rapid D 100
power on a canal D 98
power of a spark D 98
power of a grain D 98
ports on a footing D 98
pores in a right D 98
pools in a large D 98
poles in a mimic D 98
poked at a small D 98
point on a radial D 98
point of a stiff D 98
point of a punch D 98
point of a lover D 98
point in a trade D 97
point as a social D 97
power to a rural D 96
power of a synod D 96
power of a stern D 96
power is a dirty D 96
posed in a stiff D 96
ports as a naval D 96
porch of a villa D 96
popes in a vision D 96
ponds on a large D 96
poles of a world D 96
point to a setting D 96
point on a canal D 96
point of a gleaming D 96
point of a flash D 96
point in a funny D 96
poetry of a fresh D 96
power to a faint D 94
power of a polar D 94
power is a trait D 94
power by a motor D 94
posts or a fence D 94
poses as a child D 94
porch of a frame D 94
porch of a dutch D 94
porch in a state D 94
porch as a stage D 94
point on a steel D 94
point on a stake D 94
point in a score D 94
point by a curve D 94
point as a datum D 94
power as a roman D 93
point to a wired D 93
power on a plate D 92
power of a toxin D 92
power of a lobby D 92
power in a flash D 92
power as a comic D 92
posed by a toxic D 92
poise as i could D 92
point of a lunar D 92
point by a screw D 92
poetry is a sealed D 92
poetry is a lofty D 92
poetry is a fresh D 92
power of a truck D 91
posed as a rebel D 91
point of a grain D 91
power of a shaft D 90
power at a micro D 90
power as a grave D 90
polls as a basis D 90
polling is a method D 90
point so i would D 90
point of a slide D 90
point is a novel D 90
point by a sharp D 90
point by a rigid D 90
power of a shark D 88
power as a broad D 88
pores of a water D 88
point of a funny D 88
point in a flask D 88
poetry in a nation D 88
power of a brute D 87
power of a horde D 86
power in a rapid D 86
power as i would D 86
power as a senior D 86
pound as a penny D 86
ports in a small D 86
pools on a rocky D 86
poles of a whole D 86
point of a chart D 86
point of a straw D 85
power of a wafer D 84
power of a staff D 84
power of a blast D 84
power is a thumping D 84
pours in a sheet D 84
posed to a chess D 84
ports of a large D 84
ports as a place D 84
porch on a sunny D 84
point to a dutch D 84
point of a meteor D 84
point in a lever D 84
power to a wheel D 82
power to a league D 82
power of a mythic D 82
power of a dense D 82
power is a novel D 82
power in a fresh D 82
power as a horse D 82
pouring in a sheet D 82
point of a cubic D 82
poetry is a skill D 82
poetry is a minor D 82
power of a drama D 80
power as a brake D 80
pouring in a sharp D 80
posed in a scene D 80
porch as i drove D 80
pools in a small D 80
polls as a voter D 80
poled up a swift D 80
point of a violin D 80
point of a tacit D 80
point is a rapid D 80
point in a tower D 80
point to a fusion D 72
point in a polar D 66
point to a viral D 65
point of a sloping D 64
point to a plate D 61
point in a split D 61
power of a sailing D 60
power of a negro D 60
point to a court D 60
power is a crude D 59
point to a clump D 59
point to a pagan D 56
power of a pater D 55
power of a macro D 55
point to a treaty D 54
point to a myriad D 54
point to a dummy D 54
point to a locus D 53
posed in a setting D 51
power as a rebel D 50
point to a slide D 50
pores of a sieve D 48
power of a myriad D 47
point to a metal D 47
posed as a cynic D 46
power to a myriad D 45
power as a tonic D 45
point to a rigid D 45
point to a renal D 45
point on a spoke D 45
point in a motor D 45
point in a treaty D 44
power is a driving D 43
pound in a stake D 43
polar to a given D 43
point to a title D 43
point of a flood D 43
power of a genre D 42
point to a brand D 42
point of a brass D 42
point to a trait D 41
point to a telling D 41
point to a flood D 41
point in a setting D 41
point at a sharp D 41
power of a trading D 40
posed as a would D 40
pores in a sponge D 40
point to a stark D 40
poetry in a novel D 40
