point is that the M 702231
point the way to M 153434
point is that it M 117805
point is that we M 98799
point is that in M 93655
point is not to M 93331
point is that if M 62437
power of god to M 61658
power of god in M 51100
power of man to M 50180
point it may be M 49016
point it out to M 42870
power of god is M 42840
point is that of M 41247
point is that he M 40833
point to bear in M 38232
power to act in M 36099
power of all the M 31636
power to act as M 30597
power to fix the M 29896
point is not the M 27876
point of going to M 27218
point of all the M 25992
power is one of M 24128
power is not the M 23118
point is that no M 22166
point is one of M 22009
point to one of M 21624
power to act on M 20882
power to add to M 20704
power to bring the M 20370
point is not so M 19619
point so that the M 19446
power on earth to M 19276
point of one of M 18982
power to use the M 18630
power to set the M 17798
point is that an M 17228
power as long as M 16958
point of this is M 16398
point as far as M 14966
power is that of M 14530
power is not to M 14506
power to add or M 14278
power to run the M 14109
power to set up M 14100
point is that as M 14079
power to heal the M 13796
point is that by M 13780
power to that of M 13772
power in all the M 13528
power is not in M 13298
power of one of M 13206
power to get the M 13080
power to lay it M 12682
power is that it M 12654
point in one of M 12554
point of doing so M 12214
point is that to M 12188
point is that at M 12055
point in going on M 11779
power is not an M 11670
power to see the M 11608
power so that the M 11262
power of doing so M 11186
power to bring it M 11178
poetry is not the M 10869
power is due to M 10718
power of god as M 10701
power of each of M 10480
power of both the M 10430
point in going to M 10424
power to use it M 10252
point on one of M 9929
point of law to M 9898
poetry is one of M 9734
power so long as M 9409
power of men to M 9316
point in doing so M 9291
power as far as M 9225
point of law or M 9056
power of sin is M 8876
power to put an M 8678
point it can be M 8538
power as that of M 8462
poetry is that it M 8418
point so that it M 8416
point it out as M 8248
power of god the M 7996
power is not so M 7987
power is that the M 7806
point of law is M 7728
power to put the M 7658
point at all in M 7622
point to him as M 7515
power to try to M 7486
power to aid the M 7466
power of sin in M 7466
point is not in M 7453
power so that it M 7372
power of any of M 7364
power to bear on M 7343
point to all the M 7308
power in both the M 7302
point of all of M 7112
point in his or M 7108
point in each of M 7028
point in all of M 6724
power to act or M 6706
point to this as M 6705
point so far as M 6680
poetry is that of M 6656
point of law in M 6632
point in all the M 6608
point by way of M 6578
point is due to M 6530
power at all to M 6406
power to all the M 6326
point of each of M 6286
power to win the M 6182
power by way of M 6168
power of doing it M 5986
power to end the M 5884
point to them as M 5864
power in one of M 5856
point of using the M 5854
power it has to M 5752
point to one or M 5752
power of one or M 5740
power to read the M 5718
power he had to M 5718
power to bring to M 5712
power as one of M 5680
poetry is not to M 5632
power in each of M 5630
power of god at M 5614
power is going to M 5610
power to say no M 5583
power as head of M 5558
power to lead the M 5408
power of using the M 5366
point is for the M 5310
point is not of M 5191
point of arc or M 5166
point of being in M 5134
point as long as M 5106
point he had to M 5090
power to pay the M 5060
point of death in M 5010
power to aid in M 5009
point of law of M 4940
power so far as M 4913
point is how to M 4832
point by using the M 4819
power to one of M 4788
point to try to M 4787
point is not at M 4787
point to see the M 4705
power of man is M 4704
power to put it M 4674
power is apt to M 4654
point to each of M 4646
point is that on M 4601
point of all is M 4594
power in any of M 4592
point to that of M 4536
power in and of M 4468
power in all of M 4458
point the way in M 4362
power to try the M 4354
power to hear the M 4344
point in using the M 4329
power of being in M 4274
power is with the M 4254
power so that he M 4252
point on top of M 4244
point is near the M 4230
point is not an M 4222
point on each of M 4209
power of god or M 4128
power is not as M 4100
point is that my M 4085
point of being an M 4082
power to get it M 4070
power to act is M 4034
point of being the M 4034
point we had to M 4023
power is for the M 4016
point to any of M 4008
power to buy the M 3928
point in any of M 3908
power of god by M 3903
point in doing it M 3858
point is not as M 3836
poetry is not an M 3825
power in that it M 3824
point of doing it M 3812
power by using the M 3804
power on earth is M 3772
poetry of earth is M 3686
point it out in M 3618
power as may be M 3576
point or two in M 3540
power on earth or M 3512
point of going on M 3507
point of both the M 3468
power in one or M 3460
posed to him by M 3450
posed to them by M 3438
power of god on M 3432
poetry is not so M 3381
power to say to M 3352
point or two of M 3339
power of all of M 3336
point in both the M 3285
point as that of M 3271
power to see to M 3256
power of law to M 3222
power he has to M 3128
point of any of M 3118
point the way of M 3115
point to get the M 3041
power it was to M 3034
power to put in M 3020
point or two to M 3016
point we are in M 3001
point of doing the M 2978
point to all of M 2976
point in that it M 2970
power of death is M 2882
power to deal in M 2879
point the idea of M 2871
power of men in M 2864
point as one of M 2859
power is not of M 2854
posed as one of M 2852
power it may be M 2841
power of man in M 2820
point is that so M 2816
point of being so M 2802
power to them to M 2786
poetry is that the M 2776
point is how the M 2772
power at all in M 2750
point the use of M 2709
point of death he M 2706
point to see if M 2697
point is set at M 2688
point is easy to M 2682
point to get to M 2678
point we may be M 2670
power to see it M 2664
power to bear in M 2662
point to one thing M 2646
point of law the M 2644
point is not on M 2644
power by law to M 2624
point is all the M 2602
power of doing the M 2598
poetry as one of M 2586
power of using it M 2582
power in them to M 2574
point of law by M 2574
poetry is not in M 2572
point me out to M 2570
point of death by M 2560
point is with the M 2560
power to bring in M 2557
point it was the M 2538
power of death in M 2524
point of being at M 2521
point of law as M 2519
power of his or M 2510
power he had in M 2504
poetry to that of M 2488
point at one of M 2474
power is not at M 2448
point of all my M 2420
point in both of M 2420
power to sit in M 2358
point to both the M 2352
power to act at M 2350
power to one or M 2330
power of sin to M 2326
power is now in M 2316
point is going to M 2294
power to ask the M 2292
power to end it M 2290
point he was in M 2287
power in him to M 2274
power in man to M 2270
point of law on M 2270
point as near as M 2270
power to lay the M 2250
point he was to M 2246
poetry as that of M 2246
point so long as M 2243
point of use in M 2204
point of death or M 2190
point in that the M 2169
point as may be M 2143
point he had no M 2130
point of death is M 2108
power so that we M 2104
power to act by M 2084
point to aim at M 2070
power in aid of M 2062
power he has of M 2060
power of being is M 2056
power is out of M 2052
power he had of M 2030
power to set it M 2018
power is one thing M 2010
point we see the M 2010
power to bear the M 2000
power to act to M 1988
point as low as M 1988
power it had to M 1980
power or that of M 1968
posts as far as M 1958
power or for the M 1955
power is all the M 1950
poetry is for the M 1950
point of being on M 1946
power it has in M 1942
power to any of M 1934
power of being the M 1934
point to how the M 1932
posed by one of M 1896
point it has to M 1894
point of this in M 1890
power to each of M 1888
point is set to M 1880
posts in both the M 1868
power of death to M 1866
power to run it M 1858
power of each to M 1854
point we are at M 1852
power it has of M 1850
power to him to M 1844
power to bring us M 1836
point he had in M 1831
power of two or M 1828
power to let the M 1822
power the use of M 1818
power he had so M 1807
posts so that the M 1786
power to heal or M 1764
point of going up M 1758
power to both the M 1734
power of kings is M 1728
power of god be M 1728
power to lead us M 1724
power of all to M 1718
power to use or M 1716
point the end of M 1715
power of men of M 1710
power of god so M 1704
power or out of M 1700
power in that the M 1696
poetry in that it M 1694
power to bring an M 1690
power to get to M 1678
point is out of M 1672
point me out the M 1660
point of his or M 1657
power to set in M 1654
power of each is M 1640
power to ban the M 1634
power to heal is M 1632
power by one of M 1632
power to lay an M 1620
power of ten is M 1618
power to cut the M 1610
power to see in M 1599
power at both the M 1594
point of going in M 1594
point or area of M 1593
point of death to M 1586
poetry is not of M 1578
poetry is apt to M 1574
power to ease the M 1558
power to bring on M 1557
point to use the M 1553
point in this is M 1552
point the sum of M 1550
point is apt to M 1544
point the way by M 1536
power to get up M 1532
power to put to M 1526
point so that we M 1520
poetry of all the M 1504
point he was so M 1502
power to see is M 1490
power in earth or M 1488
point of death at M 1488
power to all of M 1486
point me out as M 1486
power is that he M 1480
point of death on M 1478
power to get me M 1474
point of how the M 1466
poetry is due to M 1466
posts in all the M 1462
power to use in M 1449
point is then the M 1442
point in lying to M 1442
point we are to M 1437
point to them in M 1432
pouring in for the M 1424
point of using it M 1424
pouring in and the M 1420
point us out the M 1414
power on all the M 1404
point of death the M 1404
point of all in M 1401
poetry of one of M 1398
point of one or M 1396
power to say the M 1394
power in man is M 1384
point is and the M 1384
point he had the M 1381
power of going to M 1380
point he may be M 1380
point of use is M 1374
poetry is that in M 1368
power of god he M 1358
point or two on M 1356
power of man or M 1352
point so that he M 1345
power to aid me M 1336
point he has to M 1331
power by all the M 1326
point it out on M 1316
power as did the M 1314
point is one on M 1291
point to god as M 1289
power it can be M 1288
point on any of M 1286
power or with the M 1283
point of use or M 1274
point the law of M 1273
point to bring up M 1270
power to bring up M 1266
point if you do M 1266
point of dying of M 1262
poetry is not as M 1258
point to this or M 1257
power is but the M 1256
power at all of M 1254
point to ask the M 1253
power to fix or M 1248
power is now the M 1248
point as near the M 1241
power of men or M 1234
power by use of M 1234
point to two of M 1230
power of sin by M 1228
power it had in M 1217
point to read the M 1216
power to say it M 1212
point of lead is M 1212
power of doing or M 1208
power of kings to M 1206
poetry the idea is M 1206
point we had in M 1198
point of aim is M 1196
power to buy or M 1194
point in doing the M 1194
point in using it M 1192
power of sin as M 1190
power he has in M 1186
poetry by way of M 1186
power as does the M 1182
power of ten by M 1180
posts as long as M 1180
point on both the M 1180
point by one of M 1178
poetry to read to M 1176
point by use of M 1174
power he was to M 1166
power to heat the M 1164
power of men is M 1164
point or end of M 1162
point it was to M 1160
point is one to M 1160
power to pay or M 1158
power of one is M 1156
point is put in M 1155
power to get us M 1150
power is thus the M 1146
point of that is M 1146
point to her as M 1144
power of heat is M 1140
point of law he M 1140
point to bring the M 1137
point as any to M 1133
point or set of M 1129
point on that the M 1128
point up one of M 1124
power of one to M 1112
power by one or M 1108
posed by both the M 1104
power to men of M 1102
power of god we M 1102
point of law it M 1100
point of aim at M 1100
power of being of M 1098
power of doing as M 1082
point of being as M 1079
power to rid the M 1074
power to buy in M 1074
point is now the M 1074
point the head of M 1070
power as low as M 1069
point the path to M 1067
power of man as M 1065
power in god to M 1064
power as was the M 1062
posed is that of M 1062
point to let the M 1058
point of law at M 1056
power to bar the M 1054
power of men as M 1054
power of two is M 1052
power of law in M 1052
power to aid us M 1050
poetry in all the M 1050
power as they do M 1048
power so that no M 1047
pouring it out in M 1046
point on earth is M 1044
posed by each of M 1042
power to get at M 1038
power of myth to M 1036
power is and the M 1034
power in law to M 1028
power it was the M 1022
point he was the M 1021
power is that in M 1016
power to beat the M 1014
power is with us M 1010
point of how to M 1010
power to put me M 1008
power is one to M 1002
power of myth in M 998
power to lead to M 990
point to you as M 990
power to heal by M 988
point of use to M 988
power of any to M 986
power is that we M 984
posts as may be M 984
poetry in one of M 980
point we had no M 979
power as can be M 978
point is now to M 978
point on all the M 974
power of this or M 972
point of use as M 968
power to put on M 967
power on both the M 962
power of law is M 960
pouring in all the M 960
power of song to M 956
point so near the M 955
power of this is M 952
pouring it out of M 952
point is set by M 952
power we mean the M 948
power of war to M 946
point to set the M 943
power in his or M 942
point of two or M 942
power is set to M 936
point as can be M 936
power of heat to M 934
power of two in M 932
power it lay to M 924
point to end of M 921
power of any thing M 920
power to lie in M 918
point the path of M 918
point on earth to M 918
point of use of M 918
power or that the M 917
power of all is M 916
power in two or M 916
power to bring me M 912
power of earth or M 912
power if not the M 912
point we can be M 912
power or act of M 910
point of them is M 908
power to buy up M 906
power to set an M 900
power to pay to M 896
power to pay it M 896
power to hear or M 896
point he was at M 896
point in rear of M 895
point of use by M 894
point as does the M 894
power to put up M 892
power of that of M 886
posed to him in M 886
power of and the M 884
power of being so M 880
power as being the M 880
power is put in M 878
point it was no M 878
power of ten to M 876
point to his or M 874
point it was in M 872
poetry as far as M 872
poetry is that he M 870
poetry is out of M 870
point at all to M 862
point to add to M 855
power to get on M 851
posts of head of M 850
poetry is not at M 848
power of things to M 846
point is one in M 846
power is now so M 844
poetic of all the M 844
point to two or M 841
power at end of M 840
point is thus the M 840
power of kings in M 836
power he had no M 836
power to put us M 834
poetry is one thing M 834
power it was in M 832
point to them on M 828
point to him in M 827
point is you do M 826
power in her to M 822
power of ten in M 820
point at each of M 820
power of him to M 814
point he saw the M 812
power of his to M 808
point to put the M 806
point is how we M 804
power is put to M 802
pouring it out on M 800
power the idea of M 797
power to set us M 796
point of law be M 794
power to sit as M 793
power as with the M 788
point of all to M 786
power to act if M 784
power as for the M 782
point is that is M 782
point to bring in M 780
point in one or M 771
posed in one of M 768
point so that no M 767
power to heal me M 766
point is now in M 766
power to bear it M 762
power of god it M 760
point of death as M 760
power of both of M 758
power if you do M 758
point up that the M 758
point to aid in M 756
point we aim at M 755
point of being no M 755
power of both is M 750
power as all the M 750
power is then the M 748
point to use in M 748
power to see or M 746
point to end the M 746
power of air is M 744
point to ask if M 741
point as being the M 741
power of heat in M 740
power by using it M 740
point to cut the M 739
power of two to M 738
point of each is M 738
point to that as M 734
point is now at M 734
poetry is going to M 730
power by any of M 728
point to new on M 727
power as this is M 726
poetry is but the M 726
power to aid or M 724
power if not in M 724
posts on top of M 724
posed to her by M 724
power to let go M 722
power of using to M 722
power of being to M 722
poetry as long as M 720
posed so that the M 718
power in doing so M 717
power to act so M 713
power of song is M 712
power is set at M 712
point at end of M 712
power on that of M 708
pours it out in M 708
point to win the M 706
point to this is M 704
point the top of M 704
point it had to M 702
point by all the M 702
power to heal in M 700
point we are on M 700
point the law is M 699
point he has in M 699
power in this or M 698
point to see is M 698
point it out at M 696
point is why the M 694
power at all is M 690
point to set up M 687
point as for the M 686
point as this is M 685
point to that at M 684
power of its king M 678
point up both the M 678
point at him as M 676
power on earth in M 674
power is owing to M 674
point as near to M 674
power of going on M 672
power go out of M 672
point in using an M 672
point in being in M 672
power be not the M 670
power to him in M 668
point is then to M 668
point of death of M 666
power by act of M 665
power of being as M 664
power he was in M 664
point be put in M 664
point he got up M 663
point is for us M 662
point to act as M 661
power of real or M 660
power is yet to M 660
point we are no M 660
point it was an M 660
power is set up M 658
point we use the M 658
point on one or M 658
power to fix it M 656
point at one or M 656
power to them in M 654
power to hear it M 654
power as that in M 654
point is off the M 654
power of two of M 652
power or any of M 650
point as was the M 650
poetry so that it M 650
power in that he M 648
power of kings by M 646
power to buy it M 644
power is easy to M 644
point to fix the M 644
point by using an M 644
poetic as that of M 638
power is now at M 634
point it has the M 633
poetry so far as M 633
power to act of M 632
power of death by M 632
point if one is M 631
power of this king M 630
power as any of M 630
power to get an M 628
power we may be M 626
power to bear to M 626
point we saw the M 626
point of both of M 626
power to heal us M 624
power is both the M 622
power to let it M 620
point is set in M 619
point is yet to M 618
point we can go M 617
power to read it M 614
point the air is M 614
posed to them in M 612
posed the idea of M 612
point he has no M 612
power as due to M 608
poetry at all in M 608
point it out by M 607
power of myth is M 602
power of ten of M 600
poetry so long as M 600
power is that by M 598
power to set me M 596
power on earth as M 596
posed is that the M 596
point we can do M 595
power of being at M 593
power if they do M 592
posed by use of M 592
power of being an M 590
power it had at M 590
point of age is M 590
power he may be M 588
power to run an M 586
power in and by M 582
point it out or M 582
point is set on M 580
power we had to M 578
posed to all the M 578
point to sum up M 577
point in his the M 577
power is all in M 576
power in you to M 576
poetry we mean the M 576
power of death as M 574
posts in each of M 574
power in use in M 572
power is not by M 570
power as not to M 570
point the way the M 570
power or that it M 568
point so far in M 568
point is set up M 566
power to heal as M 564
point to get up M 563
power to try or M 560
power to add the M 560
point of war in M 560
power in them is M 558
point to get in M 558
power of each in M 557
power by both the M 556
point to use as M 556
point the set of M 556
poetry is thus the M 556
power to get in M 555
power to try an M 552
point so far is M 552
point in going in M 549
power of song in M 548
point the area of M 548
power as yet to M 542
point to things in M 542
power to her to M 540
power to set my M 538
power on one of M 538
point on earth at M 537
power he was the M 536
point to are the M 536
power we are to M 534
point it was at M 533
point he was on M 532
power he has is M 530
power of being or M 528
point of both is M 528
power he had at M 524
point of and the M 524
power to see if M 520
point he goes on M 520
poetry it may be M 520
poetry in any of M 520
point we can no M 518
point as they do M 518
poetry is not my M 516
power he had as M 514
power as are the M 512
power is not on M 511
power to use as M 510
power to set on M 508
power is but an M 508
power by that of M 508
posed in each of M 506
point we had the M 506
point we had an M 506
point is this is M 506
point is that up M 505
pours it out on M 504
power of ten as M 503
power to let me M 502
point the two of M 502
point he and the M 502
poetry by one of M 502
point it out is M 501
point or that the M 500
power to say so M 499
point he has the M 499
posed by all the M 498
power to act the M 496
power in men to M 496
pouring in with the M 496
point the way as M 496
power at each of M 494
point at them as M 493
point in them is M 490
point as that at M 489
power is one in M 488
power in two of M 488
power of fear to M 486
point the way is M 486
point at him in M 484
poetry is all the M 484
posed to one of M 482
point to him the M 482
point of aim to M 482
power of them in M 480
power of air to M 480
pouring it out to M 480
point of dying in M 480
power to deal as M 474
power so far to M 474
power of doing an M 474
point in two or M 473
power to get my M 472
power is thus an M 472
point of one to M 472
power so that in M 471
power is set in M 470
point of two of M 470
point as you do M 469
power of them by M 468
point in going up M 468
power to cling to M 466
power is now to M 466
pouring tea for the M 466
point in that he M 466
point in being an M 466
power to put at M 464
posts in one of M 464
power to heal it M 462
point is not it M 462
poetry of both the M 462
power to arm the M 460
power to act it M 460
power of god if M 460
power as being in M 460
pouring up out of M 460
power to hear an M 458
point it can no M 458
point is key to M 458
point to lie on M 457
power or not to M 456
power in man of M 456
point to get an M 456
point is read as M 455
point to any thing M 454
poetry in all of M 454
point to see it M 453
point or with the M 452
point of dying on M 452
point or may be M 451
power to let or M 450
point is they do M 450
poetry it was the M 450
poetry in both the M 450
power to ease my M 448
power is set by M 448
point of one is M 448
power to dry up M 446
power he had the M 446
point up and the M 446
power of sin or M 444
power to bear up M 443
power is going on M 443
power is key to M 442
power it has is M 440
posed is how to M 440
point so low as M 440
point we try to M 439
power to win in M 438
power to cut it M 438
power by doing so M 438
power by being the M 438
point by one or M 438
power of man by M 436
point of that of M 436
point it has no M 436
point he was as M 436
power to ban or M 434
point he was no M 434
power to put my M 432
power to fix by M 432
power in them of M 432
point us out to M 431
point to man in M 431
power to say in M 430
poetic we are in M 430
power to try it M 428
power to act up M 428
power in both of M 428
posed as that of M 426
point in being so M 425
power to fit the M 424
power it has on M 424
posts of both the M 424
power on any of M 422
power of this thing M 422
power is that no M 421
point to let me M 421
power of law as M 420
point so that an M 420
point of using an M 420
power to sin is M 418
power of him in M 418
power is all on M 418
power by going to M 418
power he has so M 417
power to them if M 416
power on and the M 416
power in man or M 416
point to see in M 416
poetry as with the M 414
power on earth so M 413
point of death if M 412
point it was so M 411
point as did the M 411
power to sum up M 410
power of earth to M 408
posts as that of M 408
power he was at M 406
point to you the M 406
power of any king M 404
point of age the M 404
power to fix an M 402
power in god is M 402
point is one at M 402
point of age to M 400
point it out so M 399
power the key to M 398
power of doing in M 398
posts of all the M 396
point up and to M 396
point to this in M 395
posed is one of M 394
power or not is M 393
power to pay my M 392
power of kings or M 392
poetry the use of M 392
poetry is but an M 392
power by man is M 390
point of law no M 390
point of doing as M 390
power to win it M 388
power to bow to M 388
power or may be M 388
power it hath to M 388
point to one in M 388
point of being of M 388
poetry is now to M 388
power to read in M 387
power to lay on M 387
power of joy in M 386
point is thus to M 386
power he has the M 384
posts as head of M 384
posed to both the M 384
point he had an M 384
point he can be M 383
power of one in M 382
point the path is M 382
power to you if M 380
power to two or M 380
power of fear in M 380
point to was the M 380
point or top of M 380
power we are in M 378
power to hang the M 378
power at one of M 378
point on was to M 378
point in law by M 378
point in being the M 378
poetry as being the M 378
power of his foe M 376
point it out if M 376
point in and of M 376
point or head of M 375
power of that king M 374
power of man so M 373
point to lead the M 373
power to use my M 372
power to lead in M 372
power to fly to M 372
power in him is M 372
power by god to M 372
point if they do M 372
point we get the M 371
point to bring it M 370
poetry it can be M 370
power to aid it M 368
posts on all the M 368
point it was my M 368
power or that he M 367
point to but the M 367
power to hang or M 366
power is due in M 366
point to bring to M 366
point to say the M 365
point the eye is M 365
point if all the M 365
power of fear is M 364
point at top of M 364
point of use on M 363
power to say at M 362
power on earth by M 362
power is how to M 362
power in one to M 362
power if not to M 362
posts at all the M 360
point to one as M 360
power on top of M 358
power in use is M 358
point of why we M 358
poetry is all of M 358
posed by any of M 356
power to see as M 355
power it has the M 354
power in that of M 354
power if one is M 354
point as with the M 354
poetry is easy to M 354
power to them is M 352
power of wit to M 352
posed on top of M 352
point to doing so M 352
point of wit or M 352
point of that in M 352
point of eating the M 352
point so near to M 351
power to fly in M 350
power in using the M 350
point we are of M 350
point the poet is M 350
power to him or M 348
power or use of M 348
point to get it M 348
point of why the M 348
poetry so that the M 348
point the act of M 347
power to set at M 346
power as old as M 346
point so that if M 345
point is how do M 345
power to ease it M 344
power to bring or M 344
power of that to M 344
point of law if M 344
point in all my M 344
point he was an M 344
point to that in M 343
point the men of M 343
power to use an M 342
power or one of M 342
power of his is M 342
point the heat of M 342
poetry we see the M 342
point as you go M 341
power to say or M 340
power in him of M 340
pouring tea out of M 340
power to men to M 336
power of law or M 336
power of death or M 336
posts so that it M 336
posed to each of M 336
point of aim on M 336
point by each of M 336
poetry to one of M 336
power to them as M 334
power to see at M 334
power to lead is M 334
point we may as M 334
point to near the M 334
point of use at M 334
point if this is M 334
poetry is set in M 334
power to him as M 333
point to that is M 333
power of one thing M 332
power by men in M 332
point or one of M 332
point is put by M 332
point is how it M 332
point to put in M 331
power of each thing M 330
power as son of M 330
posts on both the M 330
posts at both the M 330
posed by far the M 330
point is one we M 330
point by going to M 330
power to bear at M 328
power by men of M 328
posed to all of M 328
point to hear the M 328
point or area in M 328
point on how to M 328
point to with the M 326
point to sit in M 325
point the poem is M 325
power of his ring M 324
power of both to M 324
point or area on M 324
point to pay the M 323
power to read or M 322
power to man to M 322
power to earn the M 322
power of ten or M 322
power is put on M 322
point to say to M 322
poetry to her in M 322
power of ten on M 320
power it has no M 320
power he has no M 320
power as that to M 320
posed to him the M 320
point we may go M 320
point to add or M 320
point the way we M 319
point the eye of M 319
power of our king M 318
power of man at M 318
posts of one of M 318
posed to you by M 318
point to lie in M 318
point to add is M 318
point of air at M 318
poetry or that of M 318
power to win or M 316
power to say of M 316
power or law of M 316
power in man by M 316
posts to men of M 316
point of this or M 316
point to and to M 315
point as that in M 314
poetry is set to M 314
power of all in M 313
power to them at M 312
power if not of M 312
point of who is M 312
point of how it M 312
point is now on M 312
point at any of M 312
power we see in M 310
power to fly at M 310
power as had the M 310
point or two at M 310
point on for the M 310
point of how we M 310
power to read is M 308
power of that thing M 308
power of both in M 308
power an end in M 308
posed to him at M 308
point in this as M 308
power or how to M 306
power of his king M 306
posts in rear of M 306
point to use of M 306
point to fit the M 306
point me out my M 306
point of going as M 305
power of war is M 304
power of using or M 304
power of myth by M 304
power by them to M 304
posed by all of M 304
poetry he has no M 304
point it was as M 303
power to you in M 302
power to set or M 302
power to read my M 302
pouring in that the M 302
posed by one or M 302
point to top of M 302
point so that in M 302
point of law an M 302
point no one is M 302
point is mean of M 302
poetry as for the M 302
point to see to M 301
point at and the M 301
power to let us M 300
power so that by M 300
power he has at M 300
point or two as M 300
point on all of M 300
point to you in M 299
power to lead me M 298
power of any or M 298
point or two or M 298
point in her or M 298
point by and by M 298
poetry is read in M 298
posed to him as M 297
point on his or M 297
power to win an M 296
power to see us M 296
power or set of M 296
power on each of M 296
power of two by M 296
power of men by M 296
point or for the M 295
power to lay up M 294
power he has by M 294
point the way he M 294
point is east of M 294
power in them as M 293
point me out in M 293
power to lead an M 292
power to aim at M 292
power of things in M 292
power of god go M 292
power is thus to M 292
power as they go M 292
power we can do M 290
power to them or M 290
power as you do M 290
posts so long as M 290
posts by way of M 290
point we ask the M 290
point of aim in M 290
point up how the M 289
point to men of M 289
power to reap the M 288
power to dim the M 288
power of that is M 288
point of real or M 288
point in two of M 288
poetry he was to M 288
poetry as can be M 288
power of one so M 286
power in things to M 286
power as she is M 286
point to them to M 286
point by any of M 286
poetry in that the M 286
power to men in M 284
point of this to M 284
point he had so M 284
point at all the M 284
point as any at M 284
power to sit on M 283
point as far to M 283
power to heal my M 282
power it had no M 282
point we hear the M 282
point to for the M 281
point or two by M 281
power of singing on M 280
point the bow of M 280
poetry as they do M 280
posts to act as M 279
point we mean to M 279
power to bring my M 278
power of god of M 278
power is all of M 278
point or can be M 278
point in that of M 278
point at him the M 278
poetry to him is M 278
poetry in him is M 278
point of law so M 277
point at both the M 277
power to use to M 276
power to get as M 276
power to fix on M 276
posed to that of M 276
posed to him on M 276
point to ask me M 276
point as not to M 276
power to leap or M 274
power in men of M 274
power in may of M 274
power at all the M 274
power as that by M 274
point to both of M 274
point is put to M 274
poetry of any of M 274
power to hang on M 272
power or who is M 272
point the way or M 271
point the day of M 271
power to awe the M 270
power of joy we M 270
power of doing us M 270
point he goes so M 270
point up all the M 269
point the man in M 269
power to say we M 268
poetry is dead in M 268
power at all if M 266
point to see me M 266
poetry of each of M 266
poetry to try to M 264
power the men of M 262
power so far we M 262
posts at each of M 262
point of any thing M 262
point is how he M 262
point is both the M 262
poetry so that he M 262
poetry at all is M 262
poetry as this is M 262
point us out as M 261
power to them by M 260
power to see me M 260
power to pay in M 260
power the end of M 260
power he saw in M 260
pouring it out as M 260
point of doing an M 260
point at all if M 260
power of them is M 258
power of air in M 258
power at one or M 258
point is then at M 258
power so that an M 256
power or not the M 256
power is led to M 256
power is his in M 255
point to how it M 255
point the heat is M 255
point of this as M 255
power the way the M 254
power is won by M 254
power in and the M 254
pouring on top of M 254
posts in any of M 254
point of lying to M 254
point at them in M 254
poetry is all in M 254
power as this in M 252
posed to you in M 252
point on can be M 252
poetry is both an M 252
power of myth as M 251
power of now by M 250
power he has as M 250
power at his or M 250
point to fix on M 250
power he was so M 249
point to add the M 249
power or not at M 248
power of two as M 248
point on may be M 248
power the son of M 246
point in doing an M 246
point to put on M 245
point or that of M 245
power on one or M 244
pours it out to M 244
point to bear on M 244
point of why he M 244
power in him as M 243
point to them at M 243
point as are the M 243
power to add an M 242
power of god no M 242
power is with me M 242
power is that if M 242
power as real as M 242
posts to see if M 242
point to fix in M 242
point of this thing M 242
poetry is that we M 242
poetry is read by M 242
poetry as may be M 242
point to get on M 241
power to bias the M 240
point of war is M 240
point of this at M 240
point is now of M 240
poetry or with the M 240
poetry as any in M 240
point we can at M 239
point of this so M 239
power to try in M 238
power to that in M 238
power to one in M 238
power in all he M 238
power he hath to M 238
posed to and by M 238
point the way up M 238
power to read at M 236
power to aid my M 236
power by doing the M 236
posed no bar to M 236
posed by them to M 236
point to can be M 236
point of going by M 236
point is near to M 236
point an act of M 236
power we had in M 235
power of any in M 235
power in man as M 235
point of age as M 235
power it was an M 234
power by each of M 234
point to you is M 234
point to using the M 234
point the way on M 234
point of this he M 234
point of all we M 234
point in how the M 234
poetry the idea of M 234
power to cut me M 232
power of using an M 232
power is then at M 232
power to own or M 230
power to mean the M 230
power to him by M 230
power to buy at M 230
power by using an M 230
pouring so that the M 230
point on this is M 230
point of death it M 230
point of age or M 230
point is put on M 230
point in going at M 230
poetry is both the M 230
power to lead or M 228
power it has at M 228
power in each to M 228
power in any thing M 228
point up with the M 228
point on that he M 228
point of how he M 228
point as that on M 228
power of them as M 227
point to things on M 227
point the death of M 227
power to dry the M 226
power is off or M 226
power he was no M 226
power be put in M 226
power at all or M 226
posed of all the M 226
point it had no M 226
poetry in each of M 226
poetry as being in M 226
point or use the M 225
point of each wing M 224
point is not by M 224
point is far to M 224
point the way at M 223
point the sun is M 223
point or not is M 223
point as being in M 223
power to try as M 222
power is off by M 222
point on that we M 222
poetry he had to M 222
power it has as M 221
power we use in M 220
power to sit up M 220
power to lead it M 220
power of joy to M 220
power as near as M 220
point at her as M 220
point no one in M 219
power to sit at M 218
power to god in M 218
power to bid the M 218
power of them to M 218
power of god do M 218
power in things of M 218
power as was to M 218
pouring it out at M 218
point in each is M 218
power to awe or M 216
power or try to M 216
power of all my M 216
power at all it M 216
poetry or any of M 216
point to say he M 215
power of for the M 214
power is that to M 214
power is cut in M 214
power is both an M 214
power by aid of M 214
power at law to M 214
posts to all the M 214
point to use it M 214
point so that at M 214
point on earth in M 214
point in this or M 214
poetry is with the M 214
power to run to M 212
power to his or M 212
power it had so M 212
power is off the M 212
power is off in M 212
posts in one or M 212
point to buy the M 212
point or two is M 212
point of them in M 212
point of doing at M 212
point in that we M 211
power is weak in M 210
power is and is M 210
posts in all of M 210
posed on them by M 210
point of war by M 210
point of age of M 210
point is for me M 210
poetry the poet is M 210
point to them or M 209
power to say he M 208
power so that if M 208
power as has the M 208
point to run the M 208
point of lying in M 208
point in both is M 208
point as being of M 208
poetry to all the M 208
point to and the M 207
power to sit or M 206
power of him by M 206
power of death on M 206
power is thus in M 206
power is low in M 206
power do not in M 206
point to use to M 206
point of going at M 206
point is won by M 206
power to buy on M 205
point or not at M 205
point of being up M 205
power to sin or M 204
power to lay my M 204
power to fix in M 204
power of this in M 204
power in war or M 204
pours in and the M 204
point to use is M 204
point of air is M 204
power to run up M 202
power to all or M 202
power on earth at M 202
power of things is M 202
power is weak or M 202
power in each is M 202
power in doing the M 202
power in being the M 202
power as that is M 202
posed in all the M 202
point up for the M 202
point is but the M 202
poetic in that it M 202
point to them the M 201
point to man as M 201
power we see at M 200
power to him if M 200
power to each to M 200
power to both of M 200
power it now is M 200
power is now on M 200
power is now an M 200
power in use at M 200
posts he was to M 200
point to him or M 200
poetry is one in M 200
point to that the M 199
point the mean of M 199
point it was of M 199
power the way it M 198
power is for us M 198
pouring in and we M 198
posed to her in M 198
point to put it M 198
point is one thing M 198
point he has an M 198
point as any is M 198
poetry of both is M 198
poetry is that by M 198
power in this as M 197
point we mean the M 197
point to her in M 197
point to get at M 197
point in this if M 197
power the head of M 196
power of that ring M 196
power of eye to M 196
power is low or M 196
power by law or M 196
pours it out of M 196
pours it out as M 196
point or two if M 196
point is set so M 196
point if one of M 196
poetry or one of M 196
poetry is yet to M 196
point it goes on M 195
power to new or M 194
power is out in M 194
point or that in M 194
point is not my M 194
poetry to fit the M 194
poetry an air of M 194
point to each in M 193
point or near it M 193
power to win at M 192
power or use it M 192
power or are in M 192
power of sin on M 192
power if she is M 192
power as this to M 192
point we say the M 192
point on was the M 192
poetry do not go M 192
point to that on M 191
point as far up M 191
power to try by M 190
power the law of M 190
power is this is M 190
pouring on them the M 190
point of one wing M 190
point it can go M 190
point as all the M 190
poetry at all to M 190
power we use to M 188
power to hang me M 188
power to buy is M 188
power on for the M 188
power of sin at M 188
power of death at M 188
power if one of M 188
point it has an M 188
point is set as M 188
point in using up M 188
poetry is now the M 188
point the idea is M 187
power we can be M 186
power to see by M 186
power to end my M 186
power the sum of M 186
power of sin be M 186
power of man be M 186
power it was at M 186
power it has by M 186
power if all the M 186
power as both the M 186
point we add the M 186
point is then in M 186
point he set up M 186
point he put the M 186
poetry as are the M 186
point to men in M 185
point to how we M 185
power to god the M 184
power so dear to M 184
power or can be M 184
power on them to M 184
power of using my M 184
power is that an M 184
point the aim of M 184
point or near the M 184
point is that king M 184
poetry or for the M 184
point as any of M 183
poetry is thus in M 183
power to lay or M 182
power to earn it M 182
power by being in M 182
power as any in M 182
pours us both an M 182
point to lead to M 182
point as this to M 182
power is his to M 181
power at all as M 181
power to set to M 180
power to see my M 180
power of things as M 180
power do not go M 180
power be one of M 180
pours the cup of M 180
point the aid of M 180
point of all he M 180
point of age it M 180
point at all of M 180
point to him is M 179
power of that in M 178
power of being by M 178
power at any of M 178
posts so that he M 178
point is who is M 178
point is thus an M 178
power he did so M 177
point as head of M 177
poetry to lie in M 177
power of wit or M 176
power of earth is M 176
power as god in M 176
posts to see the M 176
posts on each of M 176
posed as men of M 176
point we see no M 176
point of ease of M 176
point it has in M 176
point in law is M 176
point in going if M 176
poetry of two of M 176
power or does it M 175
posed to them as M 175
point to any in M 175
power to this or M 174
power to let to M 174
power to heal to M 174
power of war or M 174
power is thus of M 174
power is cut to M 174
posts is one of M 174
posed by him in M 174
point pi and the M 174
point if not the M 174
point by that of M 174
poetry he had in M 174
poetry by using the M 174
point if not to M 173
power to get by M 172
power of sin so M 172
power in this thing M 172
power in all my M 172
power as being of M 172
point or area to M 172
point on how the M 172
point of war on M 172
point of law we M 172
point of going the M 172
point of being to M 172
point in air is M 172
point at them the M 172
poetry we may be M 172
point as being at M 171
power to you to M 170
power to own the M 170
power to him on M 170
power on him to M 170
power of this ring M 170
power of fear as M 170
power is off to M 170
power he saw the M 170
posed by and to M 170
point so far to M 170
point in being at M 170
poetry in and of M 170
power of each as M 169
point to get my M 169
point so you do M 169
point as that to M 169
power to see of M 168
power or due to M 168
power of song as M 168
power of men at M 168
point we see in M 168
point to put to M 168
point of this by M 168
point of and in M 168
posed to them on M 167
point to them is M 167
power to try me M 166
power to end or M 166
power so that at M 166
power of singing in M 166
power of being on M 166
power in this is M 166
point of this if M 166
point of that if M 166
point of six or M 166
point is with an M 166
point if she is M 166
power to deal at M 164
power to cut up M 164
power on earth of M 164
power on death of M 164
power of six or M 164
power of heat or M 164
point the head is M 164
point of new of M 164
point of aim as M 164
point of age he M 164
point he goes to M 164
point as that he M 164
poetry in him he M 164
point to going on M 163
point the men in M 163
power to use is M 162
power to him is M 162
power or fear of M 162
point we get to M 162
point the boy is M 162
point it out the M 162
poetry to add to M 162
poetry is read as M 162
poetry is now in M 162
poetry is not on M 162
poetry as any of M 162
point to lie at M 161
point if any of M 161
power to tow the M 160
power to run in M 160
power to pay me M 160
power in war is M 160
posed of how to M 160
posed by using the M 160
point to aid the M 160
point on she is M 160
point of death we M 160
point as this the M 159
power to run at M 158
power to dry it M 158
power to die in M 158
power to and the M 158
power or end of M 158
posed to him to M 158
posed the use of M 158
posed by way of M 158
point to say it M 158
point the way it M 158
point on with the M 158
point of being is M 158
point is put at M 158
point is for an M 158
point the earth is M 157
point of doing in M 157
power the death of M 156
power on all of M 156
power he was by M 156
power as that he M 156
point of them as M 156
point of fear of M 156
point it got so M 156
poetry on that of M 156
point my way to M 155
power so that my M 154
power or being in M 154
power on earth the M 154
power it was no M 154
power is put at M 154
power in doing it M 154
power he was an M 154
power he can do M 154
power as men in M 154
pouring in one or M 154
point of death do M 154
point in how we M 154
point he can no M 154
poetry we say we M 154
point to say in M 153
point as that the M 153
power so near to M 152
power on his or M 152
power of war in M 152
power is now no M 152
posed as one in M 152
point or dot on M 152
point of eating at M 152
point do not be M 152
point by being the M 152
poetry to see the M 152
poetry of them is M 152
poetry he was an M 152
point to god in M 151
point it was up M 151
point do any of M 151
power to cut or M 150
power the kings of M 150
power it had of M 150
power is but to M 150
power in earth to M 150
power at all on M 150
power as out of M 150
power as lying in M 150
posed to him or M 150
posed is how the M 150
posed in and by M 150
point the eye to M 150
point or try to M 150
point of age at M 150
point in that if M 150
point an area of M 150
poetry be all the M 150
power of this so M 149
power or wit of M 148
power or not in M 148
power of use to M 148
power of men on M 148
power in and as M 148
power he can be M 148
posts to try to M 148
point of one in M 148
point is but an M 148
point at with the M 148
point at you as M 147
power to see so M 146
power to fix my M 146
power so long in M 146
power of man on M 146
power of death the M 146
power it was so M 146
power is now of M 146
power in you is M 146
power if that is M 146
posts to that of M 146
posed by his or M 146
point we hear of M 146
point to them if M 146
point to read it M 146
point on both of M 146
point on and the M 146
point of use the M 146
point of can be M 146
point me out on M 146
poetry is read to M 146
poetry in one or M 146
poetry by all the M 146
poetry as that in M 146
power of going in M 145
power of and in M 145
point he got so M 145
point as any in M 145
power to use up M 144
power to heal if M 144
power is that is M 144
power is real or M 144
power is may be M 144
power is far in M 144
power in using it M 144
power in all or M 144
power as men to M 144
posed to her at M 144
point so far of M 144
point or plea of M 144
point of that the M 144
point in being on M 144
point he had at M 144
poetry if not in M 144
poetry as being of M 144
point the way so M 143
power to win my M 142
power to win by M 142
power to use at M 142
power to ask it M 142
power of sun or M 142
power of him as M 142
power of air at M 142
power he and the M 142
point we had so M 142
point we got to M 142
point the myth of M 142
point or that it M 142
point it has at M 142
poetry to bear on M 142
poetry at all if M 142
point to say so M 141
poetry in them as M 141
power to get or M 140
power to beat me M 140
power of two the M 140
power is near the M 140
power in them by M 140
power if this is M 140
power as one in M 140
posed on him by M 140
posed is not so M 140
point the aim is M 140
point of war to M 140
point of heat in M 140
point is both to M 140
point is and it M 140
point he can go M 140
point as far in M 140
poetry we are to M 140
poetry the way he M 140
poetry or not is M 140
poetry in them to M 140
point to see as M 139
point to one at M 139
point to hang on M 139
power to two of M 138
power to his king M 138
power to for the M 138
power the man of M 138
power or how it M 138
power of his in M 138
power of head of M 138
power he had by M 138
power he goes to M 138
pouring in and it M 138
posts of six to M 138
point we owe to M 138
point or lead to M 138
point it did in M 138
poetry or that he M 138
poetry he was the M 138
point the man of M 137
power to fly or M 136
power of use or M 136
power of sin the M 136
power of law by M 136
power of each by M 136
power it was by M 136
power it had the M 136
power in use on M 136
power at war to M 136
pouring in day by M 136
point to let us M 136
point to lay the M 136
point is why do M 136
point in one to M 136
poetry is for me M 136
poetic it may be M 136
point to death as M 135
point or that he M 135
point on and to M 135
power to hear in M 134
power to ban it M 134
power so far in M 134
power of fear of M 134
power he may do M 134
power as was in M 134
posts so near to M 134
posts be set up M 134
point of wit to M 134
point of using up M 134
point of that at M 134
point of dying to M 134
point of aim of M 134
point of aim by M 134
point is now so M 134
poetry we hear the M 134
poetry of things is M 134
poetry as being an M 134
power of kings as M 133
point he did so M 133
power to let my M 132
power of this to M 132
power of song by M 132
pouring tea for me M 132
pouring on all the M 132
posed to man by M 132
posed by them is M 132
point to sit at M 132
point or aim of M 132
point be not to M 132
point at all is M 132
poetry of all of M 132
poetry in them is M 132
power to let in M 131
power to use on M 130
power to deal the M 130
power to cut us M 130
power to ban an M 130
power of his he M 130
power of doing to M 130
power as heat in M 130
posts we hear the M 130
posts is that the M 130
posed of men of M 130
point to try the M 130
point to this thing M 130
point of eating it M 130
point is due in M 130
point in any thing M 130
point in air at M 130
poetry so that we M 130
poetry of song of M 130
power is going up M 129
power to beat up M 128
power the way he M 128
power is not my M 128
power he was on M 128
posed to men by M 128
posed to him is M 128
point of death so M 128
point do not go M 128
point by both the M 128
poetry is due in M 128
power or with an M 127
point to why the M 127
point to sit on M 127
power to map or M 126
power to heat up M 126
power to bid in M 126
power or you do M 126
power it had on M 126
power is that at M 126
power in six of M 126
power in one thing M 126
power as men do M 126
posts or for the M 126
posed is for the M 126
point to add in M 126
point of area the M 126
point of air in M 126
point of age in M 126
point is east or M 126
point in and the M 126
point by doing the M 126
point as out of M 126
poetry of war is M 126
poetry it was in M 126
poetry he had no M 126
poetry at one of M 126
point to this by M 125
power to say on M 124
power to pay us M 124
power to not be M 124
power to map the M 124
power or had the M 124
power of heat by M 124
power is yet in M 124
power is off at M 124
power in him or M 124
power he had an M 124
power by far the M 124
power as being at M 124
power as all of M 124
posts it may be M 124
posts is that of M 124
posed in both the M 124
point or area is M 124
point of why it M 124
point of singing the M 124
point of heat is M 124
point of each in M 124
point he led the M 124
point at all on M 124
poetry if you do M 124
power we see the M 122
power to leap the M 122
power to deal on M 122
power to bid up M 122
power to bid me M 122
power the sun is M 122
power of man the M 122
power of him is M 122
power by this or M 122
posed me with the M 122
posed in any of M 122
posed by him to M 122
point to ease the M 122
point so that as M 122
point or idea to M 122
point of each thing M 122
point of and is M 122
point is why we M 122
point is read on M 122
point is read in M 122
point if that is M 121
power we had as M 120
power up for the M 120
power or say in M 120
power it was as M 120
power he had on M 120
power by and by M 120
power as each of M 120
posts so that we M 120
posed of two or M 120
point to pay my M 120
point of them the M 120
point of dying the M 120
point is owing to M 120
point is one or M 120
point is not if M 120
point is all of M 120
poetry as does the M 120
power or was it M 119
point us all to M 119
point up that it M 119
point to things of M 119
power to win us M 118
power to run or M 118
power to pay as M 118
power of fear or M 118
power is new to M 118
power he was of M 118
power do not do M 118
power as you go M 118
power as both an M 118
posts to get the M 118
posed in all of M 118
posed by this is M 118
point to end on M 118
point to end an M 118
point of with the M 118
point of eating in M 118
point he saw no M 118
poetry to see if M 118
poetry to him in M 118
poetry in that he M 118
poetry as did the M 118
point the way if M 117
point the law in M 117
point or does it M 117
power we owe the M 116
power to head the M 116
power to fly the M 116
power so near the M 116
power on earth be M 116
power of singing or M 116
power of few to M 116
power is read on M 116
power be not so M 116
point the war in M 116
point or win an M 116
point or idea of M 116
point of area in M 116
point in lying in M 116
point in law to M 116
point if for no M 116
poetry we read in M 116
poetry it has to M 116
poetry is owing to M 116
poetry is and is M 116
poetry he read to M 116
power to say as M 115
power of two so M 115
power we use is M 114
power or ease of M 114
power by his or M 114
power by him to M 114
power as they at M 114
posts of oak or M 114
posed at ease in M 114
point we are so M 114
point to get as M 114
point the fear of M 114
point of aim or M 114
point is thus at M 114
point in use of M 114
point he got the M 114
point as was at M 114
point as due to M 114
poetry in that of M 114
poetry in him to M 114
poetry if not the M 114
poetry at all or M 114
poetry as you do M 114
point to things or M 113
point is put as M 113
power to man in M 112
power to heal at M 112
power to die as M 112
power or heat of M 112
power of going up M 112
power of both king M 112
power of age in M 112
power in air of M 112
power as near the M 112
power as being an M 112
posed by them as M 112
point the age of M 112
point of war or M 112
point of war if M 112
point of dying at M 112
point in man is M 112
point he can do M 112
power to run on M 111
point to may be M 111
point the man is M 111
point at all it M 111
power we use the M 110
power to read an M 110
power to being the M 110
power the area of M 110
power of singing of M 110
power of any foe M 110
power in her of M 110
power by two or M 110
power by law of M 110
power be not in M 110
power at all at M 110
posts to aid in M 110
posts is not the M 110
posed by god to M 110
point we saw no M 110
point we read the M 110
point we may at M 110
point on that is M 110
point of for the M 110
point me out at M 110
point is why it M 110
point is may be M 110
point in war is M 110
point in lying or M 110
poetry to read in M 110
poetry if one is M 110
poetic as one of M 110
posed to her as M 109
point it was by M 109
power we bring to M 108
power to him of M 108
power of war as M 108
power of men we M 108
power of law on M 108
power of eating or M 108
power is due the M 108
power as kings of M 108
pouring in and he M 108
posts to each of M 108
point to cling to M 108
point the son of M 108
point the job of M 108
point or dot in M 108
point of lead or M 108
point of his is M 108
point it goes to M 108
point is this the M 108
point in that in M 108
point if all of M 108
point at all at M 108
poetry is not by M 108
poetry he had the M 108
poetry at all it M 108
point to this if M 107
point the arm is M 107
power to lay by M 106
power so you do M 106
power is his or M 106
power in him in M 106
power in and on M 106
posts do not go M 106
posed so that it M 106
point we beg to M 106
point on are the M 106
point of this my M 106
poetry is put in M 106
poetry is now of M 106
poetry he may be M 106
poetry by that of M 106
point to with my M 105
point to let go M 105
point to going to M 105
power to bring so M 104
power to aid by M 104
power the lot of M 104
power the act of M 104
power or law in M 104
power or are the M 104
power of who we M 104
power of using up M 104
power of singing to M 104
power is then to M 104
power is led by M 104
power is got by M 104
power is both to M 104
power in men is M 104
power as god of M 104
power am with my M 104
pouring in out of M 104
posts he had to M 104
posed by lead in M 104
point we saw in M 104
point to put up M 104
point the team is M 104
point on that of M 104
point of using my M 104
point of him is M 104
point of doing no M 104
point of day at M 104
point is now an M 104
point in that is M 104
point as this in M 104
poetry is one to M 104
poetry is dead or M 104
power on him as M 103
power of one as M 103
point to say as M 103
point to her the M 103
point it was on M 103
point it had the M 103
point by doing so M 103
power to use so M 102
power to bear me M 102
power of joy is M 102
power of her or M 102
power of her in M 102
power it can do M 102
power is put is M 102
power is how it M 102
power is hid in M 102
power as big as M 102
pouring on him the M 102
point on had to M 102
point of area of M 102
point it ran to M 102
point is then an M 102
point in that at M 102
point he put on M 102
point he let go M 102
poetry we are in M 102
poetry he set to M 102
power of his wing M 101
point to let it M 101
point to doing it M 101
point the job is M 101
point or two the M 101
power to wed me M 100
power to them of M 100
power to sin no M 100
power to die at M 100
power or has the M 100
power on how to M 100
power of his of M 100
power is then in M 100
power is out to M 100
power he set up M 100
power as god to M 100
posed to them the M 100
posed on one of M 100
posed of for the M 100
posed as being in M 100
point to ask my M 100
point to act the M 100
point pi can be M 100
point of going so M 100
point is for it M 100
point is and is M 100
point he was of M 100
point do all the M 100
poetry or that it M 100
poetry is put to M 100
poetry an act of M 100
power to fly up M 99
power so that as M 99
point or any of M 99
power we saw in M 98
power to mix the M 98
power to let no M 98
power or that we M 98
power of this my M 98
power of things of M 98
power of eye he M 98
power of all or M 98
power it does in M 98
power it did in M 98
power as this we M 98
pouring in and in M 98
posed the idea to M 98
posed as being at M 98
point we cut to M 98
point to say of M 98
point on and in M 98
point of zen is M 98
point in this thing M 98
point he read the M 98
poetry of this or M 98
power is now as M 97
point we are the M 97
point to you by M 97
point at her in M 97
point as that is M 97
power we try to M 96
power to win me M 96
power to them on M 96
power to see he M 96
power to her in M 96
power to fly is M 96
power to earn an M 96
power it and the M 96
power if they so M 96
power as one to M 96
posed to them is M 96
point to doing the M 96
point or idea in M 96
point is near or M 96
point is can be M 96
point by aid of M 96
poetry to use the M 96
poetry to them is M 96
poetry to him as M 96
poetry to get the M 96
poetry of each is M 96
power is not up M 95
point to and be M 95
power to use me M 94
power to sin to M 94
power to run my M 94
power to pay an M 94
power to man the M 94
power to bear so M 94
power the aim of M 94
power of this the M 94
posed to them at M 94
posed so long as M 94
point we may do M 94
point to bear the M 94
point the area is M 94
point or idea is M 94
point or area at M 94
point of how an M 94
point in may of M 94
point go for the M 94
point at with my M 94
poetry to her by M 94
poetry of myth is M 94
point we set the M 93
point of war as M 93
point be one of M 93
power we had at M 92
power to sin so M 92
power to say my M 92
power to ease or M 92
power to buy an M 92
power the fear of M 92
power in any or M 92
power as weak as M 92
posts in two or M 92
posed me and my M 92
point we run up M 92
point we read in M 92
point to read at M 92
point the key to M 92
point or that to M 92
point or dot at M 92
point of fear or M 92
point of doing or M 92
point of aim the M 92
point is all we M 92
point in air or M 92
point by far the M 92
poetry the year in M 92
poetry of wit in M 92
poetry as she is M 92
poetic is not the M 92
power of going as M 91
point to one on M 91
point be and the M 91
point as she is M 91
point as one in M 91
power up and the M 90
power to heal an M 90
power to fix at M 90
power the war of M 90
power of singing is M 90
power of doing is M 90
power of all he M 90
power in man in M 90
pours on with the M 90
pouring it out by M 90
posts of each of M 90
posts at one of M 90
posed of one or M 90
posed is why the M 90
point we got the M 90
point to ask in M 90
point of lead to M 90
point of lead in M 90
point is read by M 90
point by far is M 90
poetry to bring to M 90
poetry he had so M 90
poetry by two or M 90
poetry as lying in M 90
point to get me M 89
power to end an M 88
power to awe me M 88
power or all the M 88
power of them on M 88
power of song or M 88
power it has so M 88
power he saw as M 88
posts so far as M 88
posed by them in M 88
point we put the M 88
point to say at M 88
point to bring as M 88
point the arc is M 88
point the act is M 88
point of going if M 88
point of each to M 88
point of being or M 88
point of air to M 88
point as being on M 88
point as being an M 88
poetry we read of M 88
poetry to her as M 88
poetry is thus an M 88
poetry as both the M 88
point to fix it M 87
point on earth or M 87
point be not so M 87
power to see an M 86
power to heal on M 86
power to cut in M 86
power on him in M 86
power of that the M 86
power of kings of M 86
power of both at M 86
power go with the M 86
posts to set up M 86
posed is that it M 86
point we see an M 86
point the song is M 86
point of this it M 86
point of near or M 86
point of ease or M 86
point of earth to M 86
point is this to M 86
poetry to win the M 86
poetry to them in M 86
poetry or that the M 86
poetry on top of M 86
poetry is how to M 86
power it had as M 85
power to say by M 84
power to heat or M 84
power to god is M 84
power to each is M 84
power to deal by M 84
power to all he M 84
power or has it M 84
power of things or M 84
power of how to M 84
power of going at M 84
power in law or M 84
power he has he M 84
power he had he M 84
posed of how the M 84
point to use an M 84
point to sit by M 84
point to say we M 84
point to read to M 84
point to act in M 84
point the man on M 84
point so dear to M 84
point on not to M 84
point of them at M 84
point of may be M 84
point of let us M 84
poetry to use in M 84
poetry is thus to M 84
poetry in him of M 84
poetry if not of M 84
poetry he was in M 84
poetry he has in M 84
point to ask to M 83
point at all as M 83
power to pay is M 82
power to pay at M 82
power to her or M 82
power or use the M 82
power of ten the M 82
power of sin we M 82
power of one king M 82
power of one at M 82
power of heat as M 82
power of death be M 82
power is near to M 82
power is lying in M 82
power is doing the M 82
power he has on M 82
pours tea for the M 82
point we saw an M 82
point to fly to M 82
point on that it M 82
point of that to M 82
point is key in M 82
point in all is M 82
point he ran the M 82
poetry to set up M 82
poetry the poem is M 82
poetry so dear to M 82
poetry is near the M 82
pours in and is M 81
power to fly by M 80
power to add at M 80
power or was the M 80
power or not we M 80
power on them in M 80
power of him or M 80
power of doing at M 80
power it was on M 80
power is all we M 80
power in this to M 80
power in both is M 80
power in being in M 80
power be with us M 80
power at all we M 80
pouring the cup of M 80
pouring tea for us M 80
posts so near the M 80
posts of two or M 80
posed at all in M 80
point we beg the M 80
point to bow to M 80
point so that on M 80
point of this we M 80
point it ran in M 80
point it may as M 80
point it has so M 80
point is all in M 80
point he had me M 80
point by now is M 80
poetry the act of M 80
poetry or song is M 80
point to them by M 73
power to bear as M 68
point at things in M 65
point of use so M 64
point at her the M 63
power in war as M 62
power to lead on M 61
point at one thing M 61
point to who is M 58
point to things we M 58
point to both an M 58
point at for the M 57
point to that he M 55
point to fear of M 55
power to you as M 54
posed as long as M 54
point to each as M 53
power of ten so M 52
point to but do M 51
point if you so M 51
power of his as M 50
point to him to M 50
point to him on M 50
point to act on M 50
point or not to M 50
point of using as M 50
point by going on M 50
point at you in M 49
point up one or M 48
point to this to M 48
point to things to M 48
point to than the M 47
point it for the M 47
power of his by M 46
power we put in M 45
point to how he M 45
point to age as M 45
point or two so M 45
point it had in M 45
point as this no M 45
power in god as M 44
point up that in M 44
point up out of M 44
point to that thing M 44
point to death by M 44
power to fit in M 43
power of this as M 43
point we are as M 43
point up for us M 43
point to this at M 43
point to him at M 43
point the one to M 43
power to heap up M 42
power is low as M 42
point to things he M 42
point or with an M 42
point it can do M 42
power to hang in M 41
point to two in M 41
point it out he M 41
point in them to M 41
point at and to M 41
point as they go M 41
poetry of war as M 41
power of his so M 40
power is then no M 40
point to area of M 40
point the man to M 40
poetic is not to M 40
power to tax is D 15662
power to tax the D 14740
power of art to D 13376
pound or two of D 12518
point of ice is D 4684
point the gun at D 3862
popping up out of D 3498
porch of one of D 3216
pound of air at D 3188
pound of ice at D 3118
power of art is D 2854
poked my head in D 2744
power to tax or D 2410
power is fed to D 2250
power of art in D 2154
poles so that the D 2050
pound of air is D 2016
pound or two in D 1926
power to tax in D 1738
pound of meat or D 1671
pound of fat is D 1656
ports on both the D 1634
pound of fat in D 1620
power to sue in D 1598
power to tax to D 1558
ports as far as D 1546
popping up all the D 1504
pound of each of D 1444
pound or two to D 1442
point the tip of D 1426
ports by way of D 1388
poked up out of D 1294
ports of all the D 1264
power to tax it D 1208
power to tax as D 1184
power of pen to D 1178
ports so that the D 1178
porch to see if D 1160
pound of meat in D 1156
power of art as D 1118
pound of meat is D 1074
poles of all the D 1070
pooling of all the D 1022
ports to all the D 1004
porch to see the D 992
poked the tip of D 992
power to rob the D 982
posit the idea of D 982
pound of meat to D 976
poked my head up D 971
power to sue or D 960
pores so that the D 956
pound of air in D 935
polar sea and the D 894
power to sue the D 886
point of ice at D 886
ports of any of D 812
point of ice by D 794
pound is one of D 761
pound of lead or D 760
power of sex to D 758
pound of meat at D 758
ports as may be D 756
poked the end of D 748
power to seal the D 740
poles is due to D 728
power to tie up D 726
pouring of oil on D 722
power of art or D 718
pouring the oil of D 714
point of art to D 700
poles as far as D 698
porch is one of D 696
poles on top of D 696
point of art is D 694
pound or two on D 678
pound of lead in D 672
porch to sit on D 672
power to tip the D 670
power of sex in D 668
point the toes of D 667
power to mar the D 662
pound it with the D 650
poked it with the D 640
porch to get the D 630
poses is that of D 622
poles of each of D 617
popping the top on D 616
point of tin is D 608
poles of one of D 602
poked at one of D 600
poles to dry in D 596
poses no bar to D 586
power to fan the D 582
pound of wax to D 582
point of ice to D 568
pound or two at D 565
pound of lead is D 558
pound of gas is D 556
power of sex is D 552
pound on all the D 552
pound of oil of D 544
ports as long as D 544
pools of oil in D 532
poles in all the D 526
point the art of D 525
point of his toe D 522
power to hang ye D 520
point of ice as D 518
posse of men to D 514
poppy is one of D 514
power to tax an D 510
point the gun in D 509
posse do not do D 507
pound of ice in D 506
power to tax by D 504
poles so that it D 504
power to hit the D 484
power to tear the D 478
point or tip of D 478
pound is not the D 474
power of pen or D 470
poses as one of D 470
pound of lye to D 466
pound of meat on D 464
poles in each of D 460
power to swing the D 458
ports to act as D 457
pound of ice to D 446
porch to read the D 444
pours the oil of D 432
ports is one of D 432
pound by year at D 424
poles of both the D 422
ports of that sea D 417
power in that sea D 414
poles as long as D 412
poked it with my D 408
pound of each to D 406
porch to sit in D 404
porch in one of D 404
posse if not in D 402
point of ringing the D 402
pound of oil is D 398
pound of ice is D 398
pouch so that the D 395
point of her toe D 394
poker is one of D 391
posting to one of D 384
power to tax at D 382
porch so that the D 382
poetry or art or D 382
power to sue on D 380
poles of one thing D 380
ports of one of D 378
poles is one of D 378
power to sue to D 376
poses is how to D 374
poked me with the D 372
pound of fat on D 368
point my gun at D 366
pools so that the D 362
power to tie the D 358
power to tear up D 358
power of oil of D 358
popping the top of D 352
pools on top of D 352
point ye out the D 352
polls is that the D 350
ports in all the D 348
point of ice in D 348
power to rob us D 344
power to spy on D 342
point of art in D 342
point is met by D 342
ports of both the D 336
point of oil is D 332
poses is that it D 331
poles of one or D 330
poked it out of D 330
ports in both the D 326
point the rod at D 323
power to tap the D 316
power of ice is D 316
pound of air to D 316
poles to get the D 314
power to thaw the D 312
point the gas is D 312
polls as one of D 310
ports so long as D 309
pound it out of D 308
pooling of dye in D 308
poses is that the D 306
power of sex as D 304
ports on that sea D 300
power is fed in D 298
ponds so that the D 298
power to rob me D 294
pound to row us D 294
poses by far the D 294
porch so that he D 294
pound of any of D 286
pools of oil or D 286
pound or two is D 285
power or art of D 284
poses the idea of D 284
pools in all the D 282
power of gas is D 280
porch on one of D 280
poles to set up D 280
point the bed of D 276
popping the tab on D 274
point or peak of D 271
ports in each of D 270
porch he saw the D 266
point to tip of D 266
power to tax on D 265
point to hit the D 265
power or art to D 264
power is met by D 264
pound to each of D 263
point to tie the D 263
pound of lead to D 262
poles by way of D 260
pound by way of D 258
ports by using the D 258
pound as long as D 257
power to tear it D 256
power to lean on D 256
pound or two by D 256
point of hip to D 256
pound as one of D 252
ports in one of D 252
poise of all the D 252
power in art is D 250
pools of oil on D 250
pound of fat to D 248
poles is not the D 248
poles of two or D 244
ports is not the D 242
ports is that the D 240
poles as that of D 240
power to tax be D 238
polling is that it D 238
polling is that the D 236
point of ice on D 236
point the earl of D 235
pouch so that it D 234
ports to see if D 234
popping it off the D 234
ports on each of D 232
pound on her tea D 230
popping up with the D 230
poles to try to D 230
point of art the D 230
power to sue is D 228
pouch of one of D 228
poohs the idea of D 228
pound or two or D 226
pound is not an D 226
pools is that the D 226
poetry or art in D 226
ports to one or D 224
ports of two or D 224
poetry or art is D 224
point of sex is D 222
pound of all the D 220
pound is not to D 219
pooling is that the D 219
pouring the oil on D 218
poles as may be D 218
poetry the art of D 218
pound to pay the D 212
pools of mud in D 212
point of oil of D 212
poles in both the D 210
poker in one of D 210
pound to get the D 208
poker is not the D 208
point the car in D 207
pound of gas at D 206
porch to see us D 206
porch as long as D 206
polar to that of D 206
ports of each of D 204
poked the head of D 204
pokes up out of D 203
power of ice in D 202
pound the top of D 202
polls in all the D 200
poles of art in D 200
point in lac la D 200
pound or two as D 199
point to thee the D 199
point the beam is D 199
pound of ham or D 198
pound of fat or D 198
pores of all the D 198
pound of meat as D 196
ports on all the D 196
ponce is one of D 196
poles is that of D 196
power to tax us D 194
porch by way of D 194
polls is not the D 194
poles in one of D 194
pouch on top of D 192
posting of all the D 192
ports so that it D 192
ports in use on D 192
ports by any of D 192
poked at him by D 192
point of being re D 191
power of ice to D 190
poohing the idea of D 190
poked the man in D 190
power to vex the D 188
pound of one of D 188
pound of air as D 188
posit the use of D 188
poked the gun in D 188
pound of meal to D 186
pools of all the D 186
power to seal on D 184
pound of oil in D 184
pound of lead at D 184
pound is going to D 184
polls is one of D 184
poker to hug me D 184
porch to try to D 180
point of ice or D 180
poetry of art to D 180
ports by act of D 178
porch to hear the D 178
polling is one of D 177
poles to that of D 176
ports on one or D 174
pores is due to D 174
polls to try to D 174
pound to one of D 172
pound the head of D 172
pound or ton of D 172
pound of his tea D 172
ports on top of D 172
poses is one of D 171
polls at each of D 170
point to his ear D 169
pouch by way of D 168
poles is that the D 168
point of tying the D 168
point of one toe D 168
power to art is D 166
pound or two if D 166
pound on all tea D 166
popping it out of D 166
polar sea with the D 166
point the toes to D 166
pouring the oil in D 164
pound of ice or D 164
pound of gas in D 164
pound of air by D 164
porch as far as D 164
popping up for the D 164
power to sap the D 162
power to rig the D 162
pound of wax in D 162
porch so that it D 162
poles to aid the D 162
poker is that it D 162
pound so that the D 161
potion so that he D 161
poles on each of D 160
point the oil is D 160
poses to all of D 159
pound the meat to D 158
posit the end of D 158
ports is that of D 158
polls in one of D 158
poles as one of D 158
point in tying up D 158
power of tying up D 156
point he met the D 156
power to sow the D 154
posse ex his in D 154
poses of all the D 154
ports to get the D 154
ports is due to D 154
pools is one of D 154
pooling the sum of D 154
poles to act as D 154
poise is one of D 154
pound in each of D 153
poles the sun is D 153
power to dig up D 152
pound of wax is D 152
pound of meal or D 152
pouch or sac of D 152
ports in all of D 152
poked the boy in D 152
pound on top of D 150
ports to use the D 150
porch to one of D 150
porch at one of D 150
poles is set up D 150
power the art of D 148
posting an era of D 148
pouch or sac in D 147
pooling is that it D 147
polls to see if D 147
posting to bring us D 146
ports so far as D 146
power as per the D 144
pools as long as D 144
ponds is one of D 143
power to vex me D 142
power is fed by D 142
pound of fat by D 142
ports of one or D 142
poles it may be D 141
pound of peas in D 140
pound of meat of D 140
pound of lead on D 140
pound of air or D 140
pound in one of D 140
poles as they do D 140
poker at one of D 140
poles so that he D 139
power of gas in D 138
pound of this is D 138
pound of meat he D 138
pound is due to D 138
porch to let the D 138
porch on top of D 138
ponds to that of D 138
poles to use as D 137
power to wag in D 136
power of all thy D 136
pound of wax or D 136
pound of each in D 136
posit is not to D 136
ports on one of D 136
poetry of art is D 136
power to nip the D 134
pound of lye in D 134
ports or for the D 134
porch is not the D 134
ponds on top of D 134
polls in both the D 134
poker is put in D 134
point or iota of D 134
pound in all the D 133
power to rob it D 132
power of art by D 132
pound of meat the D 132
pound of gas to D 132
posse of men in D 132
posit an idea of D 132
porch to get to D 132
popping in all the D 132
ponds is due to D 132
poles so that we D 132
point the bed is D 132
point of wax is D 132
point of this ad D 132
point of ringing to D 132
posit an act of D 131
poetry or art as D 131
power of suing or D 130
popping up and the D 130
poked at her by D 130
point the rib is D 130
pound to two or D 129
pound of oil at D 128
pound is that he D 128
posting in one of D 128
posit an end to D 128
ports by one of D 128
porch to see me D 128
power to wring the D 126
pound to see me D 126
pound so that it D 126
pound of this or D 126
pouch in one of D 126
poses in one of D 126
porch on each of D 126
polling to see if D 126
power of suing in D 124
power of oil in D 124
pouring the hot tea D 124
pound of tin to D 124
posting as head of D 124
poses to both the D 124
ports to one of D 124
ports in that sea D 124
pores in all the D 124
porch or out in D 124
poked the gun at D 124
point the beam in D 124
porch to put on D 123
power to hit it D 122
pound to that of D 122
pound of ice as D 122
ports it may be D 122
ports in use by D 122
posit is that the D 121
power to wear the D 120
power the earl of D 120
ports as they do D 120
porch or near the D 120
pools is due to D 120
pools as far as D 120
point of beak to D 120
power to tax so D 119
pound the way it D 119
power to tax of D 118
ports to aid the D 118
poetry an art of D 118
pores on top of D 117
power to say yea D 116
power thy key of D 116
power of ice as D 116
poked by all the D 116
point the peak of D 116
point of pen or D 116
pores so that it D 115
ponds as far as D 115
point of this re D 115
point of ringing up D 115
power to vex us D 114
power is deaf to D 114
pound of peas is D 114
poses is not to D 114
power to tug at D 112
power of gas to D 112
pound it with my D 112
pound it out on D 112
pound as may be D 112
pouch or bag of D 112
ports to any of D 112
ponds to dry up D 112
poles of are the D 112
poles at each of D 112
poker be out of D 112
poach an egg in D 112
point the gun to D 111
pound of hay or D 110
pound of fat as D 110
pound by year or D 110
ports in any of D 110
pores in each of D 110
polls of all the D 110
poles on all the D 110
point to wear the D 110
poetry is sung by D 110
power or sex or D 109
power to rip the D 108
poles on both the D 108
point the sting of D 107
power to sue as D 106
power of art on D 106
pound of oil to D 106
pools in each of D 106
polls so that the D 106
polls if they do D 106
poles to aid in D 106
polar sea and of D 106
point in ringing the D 106
point of art as D 105
power to gag the D 104
pouch is one of D 104
posting on one of D 104
ports to set up D 104
ports is not to D 104
ports is for the D 104
polls is not to D 104
pokes the tip of D 104
poked it out the D 104
point of tying up D 104
power to dig the D 102
pours the oil on D 102
ports so that no D 102
poles by two or D 102
poetry is sung to D 102
power of oil is D 100
pouch or bag in D 100
posting of each of D 100
pores in both the D 100
pools of ink in D 100
poles so long as D 100
poked the top of D 100
point the ore is D 100
point the egg is D 100
point it met the D 100
poetry or art to D 100
poetry is sung in D 100
pound is not so D 99
posit by way of D 99
power to wean the D 98
power of ions in D 98
pores of one of D 98
pools to get to D 98
point of fat is D 98
ports to bring in D 97
power to set thy D 96
power to dig in D 96
power of leas to D 96
power of fun in D 96
power of fat is D 96
posse to aid the D 96
ports or with the D 96
ports it was the D 96
pores is one of D 96
porch is that of D 96
pools of each of D 96
pools of both the D 96
pools in both the D 96
poker so that it D 96
poked it with an D 96
pound or two he D 95
poise on one of D 95
power to woo the D 94
power to row the D 94
power to cow the D 94
pound the meat in D 94
posit or set up D 94
ports of this sea D 94
ponds to see if D 94
ponds as may be D 94
polls in each of D 94
poles to see if D 94
point we met the D 94
point or tip is D 94
polar sea may be D 93
pound to see if D 92
posts of dean of D 92
posse of them to D 92
posse as may be D 92
ports be not the D 92
pores of both the D 92
porch to put it D 92
porch or out of D 92
polls to win the D 92
point the beam at D 92
point of each toe D 92
point of art or D 92
poetry or art of D 92
pooling on top of D 91
power to tear us D 90
pound the use of D 90
pouch on one of D 90
ports to bring the D 90
ports of one to D 90
pores is not the D 90
porch is going to D 90
pools to dry up D 90
pooling it with the D 90
ponds is that the D 90
polls at all the D 90
poles of any of D 90
poker to one of D 90
point of ice the D 90
pores to that of D 89
ports to see the D 88
pools as may be D 88
poles as near the D 88
pokes the end of D 88
poked me with it D 88
point the ray is D 88
poles to put up D 87
power to gar the D 86
power or art is D 86
power of gas or D 86
power of aping the D 86
pound to get me D 86
pound or two the D 86
pound of oil or D 86
poses the end of D 86
porch so that we D 86
porch on one or D 86
pools or near the D 86
pools it may be D 86
poles to beat the D 86
posting so that the D 84
posting it off to D 84
posting is one of D 84
ports he was to D 84
ports at each of D 84
poles is not an D 84
poker to bear on D 84
pooling is not so D 83
point of that sea D 83
power to vex or D 82
power of suing the D 82
pound of meal in D 82
ports to aid in D 82
ports of death to D 82
pools in all of D 82
polls is that of D 82
poles or near the D 82
poles is not so D 82
poise is not to D 82
point at tip of D 82
power to sting or D 80
pound of ore is D 80
posting of them in D 80
posting of one of D 80
ports to that of D 80
porch if you do D 80
popping up off the D 80
ponds to see the D 80
polls in any of D 80
poles so far as D 80
poles of all of D 80
poked it and it D 80
point the mic at D 65
point the beam of D 64
point the zeal of D 62
poked at him as D 52
pound on one of D 51
poppy is going to D 49
point to lean on D 49
ponds it may be D 48
pouch or use it D 47
polar so that the D 46
poses on top of D 45
pooling of two or D 44
polling in all the D 44
poles is not as D 44
pound the end of D 43
pound on each of D 43
pound of them in D 43
polling of all the D 43
poses is not the D 42
pound the earth in D 41
poses so that the D 41
poses is how the D 41
point the pen at D 41
pores as long as D 40
point at thee in D 40
