points to a new M 11491
powers of a man M 6413
points on a map M 6189
pointing to a new M 5242
pointing to a man M 5208
poured me a cup M 4626
points to a real M 3956
points to a way M 3822
pointing to a long M 3748
powers in a way M 3638
points to a long M 3598
posted on a web M 3466
powers as a poet M 3156
pointing to a map M 3124
points of a new M 2964
points in a two M 2614
points in a way M 2499
pointing to a big M 2482
pointing to a few M 2438
powers of a god M 2225
points to a set M 2187
points of a and M 2140
pointing to a low M 2113
points to a few M 2044
points to a key M 2042
points to a man M 1998
points in a few M 1970
powers of a new M 1957
powers to a new M 1930
powers of a and M 1904
powers of a few M 1882
points of a set M 1849
pointing to a seat M 1788
powers in a new M 1760
pointing to a red M 1739
points to a low M 1658
powers of a poet M 1534
points to a far M 1509
pointing to a heap M 1489
points in a new M 1383
points on a path M 1380
points to a path M 1358
points to a non M 1338
pointing to a box M 1302
points in a set M 1300
points in a day M 1294
points of a few M 1278
points in a long M 1115
points on a two M 1094
points of a long M 1082
posted to a web M 1066
points to a gap M 1038
pointing to a set M 1031
points at a and M 1018
posted to a new M 998
pointing to a boy M 996
points in a year M 895
pointing to a real M 876
points to a god M 867
points in a man M 852
powers in a war M 845
pointing at a man M 820
points to a pre M 811
points of s are M 808
points of a two M 786
points in a and M 780
points of a man M 764
powers in a few M 754
pointing to a far M 746
powers of a are M 728
points to a map M 726
pointing to a path M 719
powers as a man M 714
points of s and M 698
poured in a few M 688
pointing to a way M 678
points to a big M 666
points on a long M 662
points to a web M 647
points in a one M 644
points as a way M 616
powers of t and M 602
powers of a head M 596
points in a path M 574
pointing in a new M 562
points as a and M 552
powers of a real M 536
points of a path M 534
points to a weak M 532
poster of a man M 530
points of a real M 523
pointing at a map M 522
powers as a way M 516
points to a two M 514
pointing to a gap M 509
points in a real M 499
points on a real M 491
points to a law M 481
pointing to a dog M 473
powers of s and M 472
points to a red M 464
points of a are M 456
pointing to a two M 444
points to a dog M 442
points in s are M 432
pointing to a non M 419
powers to a few M 412
powers to a man M 408
pointing to a dead M 405
powers of a being M 402
powers in a man M 402
points in a low M 395
points by a few M 394
points in a boy M 390
points on a set M 384
pointing to a bit M 384
points of a dog M 383
pointing at a big M 382
points to a day M 373
points to a box M 366
pointing at a red M 356
poured in a cup M 352
points on a and M 346
points to a fear M 344
points of s that M 337
points in a non M 334
points as a man M 333
powers as i may M 328
points to a near M 328
points in s that M 327
points of a non M 324
pointing to a toy M 322
pointing at a long M 318
powers of t are M 314
powers of s are M 312
powers of a non M 310
points in s and M 308
pointing to a bag M 303
powers on a new M 292
points on a new M 290
points to a url M 287
posted on a big M 278
points to a boy M 278
pointing to a key M 273
powers of a boy M 272
pointing to a log M 272
points to a not M 269
pointing to a near M 268
posted on a bit M 266
points to a yet M 264
pointing to a cup M 264
pointing at a few M 262
points on a one M 261
powers of a far M 260
pointing to a pre M 259
points of t are M 258
poured in a long M 254
points is a set M 251
points in a win M 250
poured in a lot M 248
pointing to a one M 244
pointing to a dim M 244
points in a map M 240
posted in a few M 238
points in a are M 238
points up a key M 236
points of a net M 236
points of a law M 236
pointing to a cat M 234
powers of a can M 232
points in a six M 232
pointing to a web M 227
points to a use M 226
poorly on a math M 225
points to a seat M 225
posted on a low M 224
poured me a big M 222
points of t and M 216
points at a man M 216
poorly as i may M 214
poorer by a few M 212
powers of a low M 204
poured in a heap M 204
pointing to a dot M 204
powers of a law M 203
points to a one M 202
posted in a long M 200
points of a map M 200
points in a poem M 200
powers in a long M 198
posted to a job M 196
pointing to a lot M 196
powers as a war M 194
posted on a long M 192
points in a song M 192
points as i had M 192
points of a one M 190
points be a and M 190
points as i may M 190
powers by a new M 188
powers in a team M 186
points up a real M 186
points of d are M 186
powers to a non M 185
points on a log M 184
points to a and M 183
points in a box M 182
points to a team M 181
pointing at a low M 179
points to a bad M 178
points on a non M 178
pointing at a new M 178
pointing as i did M 178
powers as i had M 176
points to a net M 173
points to a bit M 171
points as i can M 170
poured at a low M 168
powers of i are M 166
points of i and M 166
points of a team M 166
points to a toy M 164
potent as a law M 162
points of d and M 162
points of a that M 162
pointing on a map M 161
poured on a dry M 158
pointing at a boy M 158
powers of a dog M 155
points of a bar M 154
points is a lot M 154
points in a run M 154
pointing to a poem M 154
points on s and M 152
pointing to a bar M 152
points to a heap M 151
poured us a cup M 150
poured in a bit M 148
points on a bar M 148
pointing to a gear M 148
points by a set M 146
points in a bit M 145
points in a key M 144
pointing to a six M 144
points is a key M 143
pointing to a god M 143
points as a new M 142
points to a bias M 141
points to a being M 139
poured in a big M 138
points to a war M 138
points of a with M 138
pointing to a law M 137
pointing to a not M 136
points up a long M 135
points to a sad M 135
posted as a rear M 134
points of a poem M 134
points of a job M 134
points of s lie M 133
points on a few M 132
points of s can M 132
powers in a non M 131
points to a cup M 131
poorer if i had M 130
points of a low M 130
points is a real M 130
posted at a few M 128
points as i see M 128
pointing to a dry M 128
powers to a far M 127
powers as a bar M 126
points to a dead M 126
points in a log M 124
poured in a day M 122
pointing to a head M 122
points to a cat M 121
powers as a god M 120
points of a not M 120
points go a long M 120
pointing to a sun M 120
points in a that M 119
powers of a weak M 118
poorer by a day M 118
points at a few M 118
pointing to a weak M 118
pointing at a dog M 118
points in d and M 116
posted if i hear M 114
poorly on a job M 114
poorly as i did M 114
points on a ten M 113
posted in a log M 112
points to a mid M 112
pointing to a sad M 112
poured in a can M 111
points to a lot M 108
posted on a map M 106
points or a few M 106
points at a new M 106
points to a death M 105
pointing to a sky M 105
poorly as i was M 104
points of s with M 104
points of a six M 104
points of a deal M 104
points in t are M 104
pointing at a set M 104
pointing at a cat M 104
pointing at a box M 104
powers on a dog M 103
poured in a red M 102
poorly of a man M 102
points is a long M 102
points in d are M 102
points as i was M 102
powers of a set M 100
poured on a few M 100
potent in a way M 100
points as i did M 100
pointing to a war M 100
pointing at a two M 100
powers of a war M 99
powers by a law M 99
points in a far M 99
pointing to a yet M 99
points by a new M 98
pointing to a death M 98
points is a way M 96
points in a job M 96
points do i get M 96
powers of i and M 94
powers in a bid M 94
points in s can M 94
points to a job M 93
powers on a few M 92
powers is a new M 92
posted to a non M 92
points in s for M 92
points or a set M 91
points is a bit M 91
points at a low M 91
pointing to a cut M 91
powers on a long M 90
powers of a dead M 90
poured in a new M 90
posted on a job M 90
points of a year M 88
powers in a real M 87
powers to a son M 86
posted in a low M 86
points in a bin M 86
poster of a red M 85
potent in a man M 84
pointing to a day M 84
points as a set M 83
powers as a new M 82
poster of a long M 82
powers of a long M 80
powers by a two M 80
poured by a man M 80
points of a red M 80
points in a big M 80
points to a mean M 73
points in a net M 69
points up a new M 59
points up a few M 56
powers as a law M 55
points to a year M 51
pointing to a ten M 47
points at a set M 45
points to a poet M 44
points to a dot M 44
points to a bag M 44
points to a six M 43
pointing to a can M 43
points to a poem M 41
points to a head M 41
points is a one M 41
powers in a far M 40
points on a day M 40
pointing to a dear M 40
policy in a way D 7714
portion of a long D 7156
points in a row D 6930
portion of a man D 6731
pounds in a year D 6662
portion of a leaf D 6488
portion of a day D 6122
portion of a new D 4933
portion of a year D 4762
policy in a new D 4405
policy as a way D 3722
pounds in a few D 3506
portion of a beam D 2984
pounds in a day D 2870
portion of a lot D 2837
pointing to a row D 2546
portion of a tax D 2484
policy is a set D 2288
policy of a new D 2194
portion of a lung D 2084
pounds is a lot D 2080
portion of a map D 1920
portion of a web D 1838
pocket of a man D 1764
poured in a thin D 1734
portion of a rib D 1670
points of a bay D 1660
portion of a two D 1652
portion of a poem D 1616
policy is a key D 1600
policy to a new D 1550
possum up a gum D 1490
policy in a two D 1416
pounds in a ton D 1309
pocket of a dead D 1216
policy of a few D 1208
portion of a thin D 1202
portion of a set D 1135
portion of a job D 1124
portion of a net D 1118
portion of a song D 1116
portion of a real D 1086
portion of a gas D 1038
policy is a long D 1010
policy on a day D 986
portion of a url D 983
portion of a few D 962
policy or a new D 944
portion of a meal D 935
portion of a dead D 912
poison in a cup D 910
pounds to a man D 904
policy in a few D 878
powder in a cup D 870
policy of a man D 861
portion of a ray D 855
portal is a web D 841
pointing to a thin D 816
policy on a new D 812
pounds to a ton D 780
policy as a key D 776
portion of a low D 763
policy of a war D 748
portion of a path D 744
policy is a new D 732
poured in a hot D 728
ported to a new D 725
portion of a non D 712
portion of a log D 708
portion of a bar D 700
police if i did D 696
powder in a gun D 695
portion of a bed D 674
powder in a dry D 646
portion of a fee D 642
pointing of a gun D 638
policy as a set D 635
points to a row D 620
portion of a one D 614
portion of a leg D 614
poison to a man D 592
pounds to a few D 584
portal to a new D 579
portion of a red D 567
points of a beam D 564
points on a beam D 562
portion of a rod D 544
policy in a long D 544
policy as a new D 542
portion of a row D 530
policy is a way D 530
policy in a low D 522
powder in a few D 518
positing of a new D 517
portion of a law D 517
portion of a car D 516
policy or a set D 505
polish of a man D 499
pounds on a six D 488
policy in a pro D 484
portion of a son D 476
points in a beam D 474
poetics of a new D 470
policy is a bad D 468
portal of a new D 466
pocket of a new D 462
powder in a die D 452
portion of a dog D 451
pointing to a bed D 446
popped up a few D 442
portion is a long D 436
policy is a two D 433
powers of a sub D 432
pointing to a neat D 428
police in a way D 422
pointing to a car D 418
policy is a bit D 415
portion of a big D 410
portion of a gun D 402
pounds of a ream D 400
policy of a weak D 398
policy of a law D 396
polite to a man D 390
powder in a bag D 386
poised on a long D 386
pointing to a fat D 385
points of a thin D 378
portion of a head D 376
policy of a low D 370
portion of a cut D 368
powder in a box D 366
policy to a man D 366
policy in a non D 366
portion of a key D 364
policy is a far D 362
policy in a war D 362
portion of a rat D 356
portion of a run D 352
portion of a war D 348
policy on a long D 348
pocket as i was D 348
potato in a jar D 342
policy is a real D 342
policy of a long D 340
porter is a man D 339
portion of a pre D 336
portion of a jaw D 336
portion of a dam D 336
pointing to a hut D 332
powder in a pan D 330
policy by a new D 330
policy as a long D 328
portion of a far D 326
polish of a far D 325
poured on a hot D 324
portion of a sum D 320
pounds if i had D 318
police as a spy D 314
polish in a day D 312
portion of a beat D 310
portion of a gear D 308
portion of a bear D 306
policy in a fiat D 306
portion of a cow D 304
pounds or a few D 302
poured me a mug D 300
pounds on a new D 300
pounds in a bag D 300
portion of a jet D 300
portion of a pig D 293
points on a ray D 291
policy of a non D 290
police as a way D 286
portion of a boy D 282
policy is a non D 282
portion of a shoe D 280
portion of a seam D 278
popped in a few D 274
policy is a tax D 274
portion of a and D 272
polity in a way D 272
portion of a cup D 270
policy is a big D 270
pounds is a big D 268
portion is a thin D 264
police in a few D 264
portion of a fat D 263
police in a car D 260
pocket so i can D 260
policy of a far D 253
powder to a cup D 252
powder in a thin D 252
points of a ray D 247
pocket of a sling D 246
pointing at a row D 242
pounding on a tub D 240
policy to a far D 240
poison in a few D 240
police in a riot D 233
powder to a man D 232
powers to a sub D 230
pounds by a tax D 230
portion of a pot D 230
policy is a mix D 228
pocket if i had D 228
powers on a par D 226
pounds of a gas D 226
pounds of a and D 226
policy or a law D 225
portion of a dry D 224
powder in a long D 216
portion of a sun D 212
policy of a two D 212
policy in a bid D 212
policy at a low D 212
pounds in a man D 210
policy to a set D 210
powder in a vial D 209
policy as a two D 209
powder in a tin D 208
policy of a tax D 208
poison in a box D 208
portion of a ten D 205
portion of a hot D 205
policy in a far D 205
policy of a big D 204
policy by a few D 204
points of a cow D 204
portion of a bus D 202
polite as i can D 202
pointing to a jar D 200
potash in a ton D 199
policy to a head D 198
police if i had D 198
points of a rod D 196
pocket or a bag D 192
powder or a few D 190
potato or a bit D 190
pocket of a few D 190
policy to a few D 188
portion of a box D 186
powder in a jar D 184
policy is a weak D 184
portion of a pie D 182
polite in a way D 182
policy is a one D 182
pointing to a cow D 182
portion of a lead D 181
policy as a war D 180
policing as a way D 179
poodle is a dog D 178
policy in a real D 178
policy as i had D 178
pounds is a sum D 174
porter in a low D 174
pounds of a new D 170
portion of a heat D 170
points in a gas D 170
police if i was D 169
powder is a dry D 168
points to a thin D 168
portion of a for D 167
policy on a man D 167
pounds at a year D 166
posted as a liar D 166
portion of a team D 166
portion of a cat D 166
portion by a low D 166
points in a thin D 166
polish it a bit D 164
policy on a par D 164
points to a sub D 164
portion of a jar D 162
policy at a dead D 162
poison of a mad D 162
potter is a low D 161
poison in a dead D 160
poised in a way D 160
portion of a bay D 159
poison in a man D 159
police in a new D 158
pounds at a meal D 156
portion of a pit D 156
policy to a pro D 156
powder or a bar D 154
portion of a not D 152
pounds is a deal D 150
portion of a bit D 150
poodle on a lead D 150
policy of a one D 150
police in a gun D 150
police in a bad D 150
pointing to a lad D 150
portion of a die D 149
portion of a bog D 149
pounding in a way D 148
popped in a new D 148
portion of a raw D 147
portion of a with D 146
points to a car D 146
portion of a mean D 144
pointing to a dial D 144
policy is a war D 143
pounds in a new D 142
pounds in a long D 142
police as a man D 141
portion of a cam D 140
pointing at a car D 140
pocket of a long D 140
portion of a seat D 139
poison in a fit D 139
powers as a ram D 138
powder in a dog D 138
portion of a weak D 138
portion as i may D 138
polish up a bit D 138
pounce on a new D 137
pounds in a two D 136
pounce on a man D 134
potato in a pot D 134
potash at a red D 134
pollen of a few D 134
policy on a few D 134
points of a pig D 134
policy is a low D 133
policy in a man D 133
powder to a dog D 132
powder in a hot D 132
policy is a myth D 132
portion to a man D 130
portion of a bow D 130
pointing to a mat D 130
pointing to a guy D 130
pointing to a cot D 130
portion of a poet D 128
portion of a gap D 128
polish up a few D 128
policy on a key D 128
policy is a pre D 128
policy as i was D 128
poised on a new D 128
pocket as i ran D 128
positing of a real D 127
powder on a dog D 126
pounds to a mean D 126
portion of a tag D 126
portion of a pin D 126
policy as a bar D 126
police on a bus D 126
police in a big D 126
pocket as i did D 126
portion of a six D 125
points to a leaf D 125
pocket in a way D 125
powder in a pot D 124
pounds in a box D 124
portion of a pod D 124
portion in a few D 124
policy is a lot D 124
pocket of a boy D 124
pounds as a ton D 123
portion of a yet D 123
poured as a thin D 122
policy on a per D 122
policy of a real D 122
poison on a man D 122
points of a row D 122
points in a car D 122
portion in a new D 120
policy in a year D 120
police to a man D 120
police as a law D 120
pointing to a wig D 120
pointing to a tin D 120
portion of a nut D 118
portion of a lion D 118
poison in a new D 118
pointing to a hat D 118
policy of a year D 117
pounds to a bag D 116
pounds on a long D 116
polite as i was D 116
policy as i see D 116
poised on a log D 116
poised in a new D 116
points to a peak D 115
powder in a can D 114
pouted in a way D 114
pounds to a box D 114
policy in a big D 114
police of a man D 114
poison to a dog D 114
poised on a thin D 114
pointing to a jet D 114
pounds to a low D 112
policy on a non D 112
portion of a fly D 111
portion of a sub D 110
police as i was D 110
police as a new D 110
police is a man D 109
poorer on a per D 108
poodle in a cab D 108
polity of a new D 108
policy to a non D 108
police by a man D 108
portion of a death D 106
polled to a man D 106
poison or a dead D 106
positing of a being D 105
pounds in a car D 104
positing of a non D 104
portion of a hen D 104
portion is a low D 104
policy or a death D 104
policing is a new D 104
poised at a new D 104
pointing to a leaf D 104
portion of a seal D 102
portion of a pay D 102
portion of a fan D 102
porter in a big D 102
policy on a set D 102
police to a new D 102
poised on a leaf D 102
pointing to a gun D 101
pointing to a bay D 101
portion of a bag D 100
policy by a man D 100
policy as a death D 100
police in a year D 99
powder of a red D 98
pounds or a ton D 98
pounds or a bit D 98
pounds on a man D 98
portion of s and D 98
porter in a red D 98
police if i can D 98
poison on a weak D 98
pointing to a pen D 98
poetics as a way D 98
policy as a real D 97
points to a cow D 97
portion to a new D 96
portion of a myth D 96
polite to a new D 96
policy is a dead D 96
policy in a key D 96
points on a par D 96
portion of a ham D 95
policy in a day D 95
pounce on a rat D 94
potato of a man D 94
potato is a far D 94
portion of a hog D 94
porter in a dry D 94
points of a fox D 94
pointing to a peak D 94
powder or a thin D 92
portion of a that D 92
policy in a set D 92
pointing at a thin D 92
police as i had D 91
powder at a low D 90
pounds of a man D 90
potato in a pan D 90
portion of a tcp D 90
policy on a one D 90
points on a dial D 90
policy as a non D 89
pointing to a pig D 89
pocket in a few D 89
powder on a red D 88
pounds to a car D 88
pounds so i can D 88
pounds as a fee D 88
portion of a rim D 88
portion is a bit D 88
pollen of a long D 88
policy by a long D 88
poison in a pot D 88
points to a zeal D 88
pointing to a pot D 88
pounding on a big D 86
pounding as i sat D 86
portion of a hip D 86
policy is a top D 86
pocket of a red D 86
portion of a gel D 85
pointing up a dingy D 85
pocket or a cut D 85
pounds if i did D 84
portion of t lie D 84
police in a bid D 84
pointing to a dingy D 84
portion of a wet D 83
powder in a way D 82
powder in a day D 82
pounding as i ran D 82
potato or a few D 82
portion in a way D 82
portion in a cup D 82
portion by a thin D 82
poison of a bee D 82
pointing at a fat D 82
powder to a dry D 80
powder of a dead D 80
poured on a rag D 80
portion of a hut D 80
portion is a few D 80
pommel of a long D 80
police if a hit D 68
portion of a can D 63
pounds in a six D 59
potent on a per D 59
policy in a one D 56
policy on a tax D 49
pounds on a two D 47
pounds of a low D 47
portion of a mid D 46
policy on a year D 46
powers of a tax D 44
policy of a set D 44
pocket in a year D 44
positing of a set D 41
portion of a pear D 41
portion of a meat D 41
pointing to a yew D 41
pointing to a gas D 41
pounds in a one D 40
police is a key D 40
points to a hot D 40
