led him " to M 3054
led them " to M 932
lead them " to M 874
let him " be M 622
let him " go M 592
lead him " to M 538
let them " be M 494
let them " go M 421
let out " the M 364
led her " to M 344
let not " the M 340
let him " do M 332
let god " is M 316
let out " at M 310
let out " to M 296
let them " do M 288
let out " in M 238
lead one " to M 223
let off " the M 204
let her " go M 198
let out " of M 188
led off " to M 148
let out " on M 146
lead out " the M 145
let fly " at M 136
lead men " to M 129
lead you " to M 128
let off " in M 126
led men " to M 124
let out " by M 120
let you " it M 118
leap out " of M 108
let her " be M 106
lead them " in M 105
let you " no M 104
let her " do M 104
lead them " is M 102
led off " by M 98
leap out " at M 98
lead her " to M 98
lead off " the M 93
let things " go M 84
lead out " or M 83
let him " no M 82
let him " it M 82
leg area " of M 82
led him " in M 80
led them " up M 48
