learning , " in M 17238
leader , " the M 13598
learning , " the M 10225
leader , " he M 9680
learning , " he M 9012
learning , " as M 4882
leaves , " he M 4264
leader , " in M 4038
leaves , " the M 3586
learning , " or M 3249
leader : " the M 3142
leader , " we M 3142
leader , " is M 2778
leader , " or M 2422
leader , " as M 2248
learning , " by M 2149
leader , " it M 2108
legal , " he M 2090
learning : " the M 2028
learning , " is M 1915
learning , " to M 1907
leader , " to M 1802
leader : " we M 1500
learning , " it M 1476
learning , " we M 1348
leaves , " or M 1307
leader , " if M 1222
leaves , " in M 1104
leader : " it M 1104
leaves , " as M 1001
leader : " he M 972
legal , " the M 968
leaves , " is M 884
leaves , " it M 836
learnt , " he M 788
leader , " do M 672
learning , " of M 655
leader , " by M 650
leaves , " to M 647
leader , " an M 646
leader : " in M 624
learning , " an M 561
leaves , " by M 560
leader : " if M 530
leader , " of M 520
learning : " it M 518
legal , " or M 482
learning : " we M 424
leaves , " of M 423
lending , " the M 395
legal , " in M 388
legal , " as M 374
learning , " on M 374
lending , " in M 370
leader , " so M 368
learning , " so M 354
learning , " if M 334
leader : " is M 320
lengths , " he M 319
learning : " in M 318
lethal , " he M 294
learning : " he M 285
learning : " if M 281
leader , " my M 280
leader , " on M 279
leader , " at M 272
leaves , " we M 268
learning , " at M 262
learns , " he M 249
leaves : " the M 248
leader : " as M 235
learns , " the M 233
leaves , " an M 218
leaves , " so M 217
lengths , " the M 206
leader , " king M 196
learning : " as M 195
leader : " do M 192
legal , " it M 190
leader : " to M 184
leader : " no M 157
legal , " is M 150
leaves : " it M 135
learning : " to M 135
legal , " to M 132
leader , " no M 132
leader : " my M 126
leader : " oh M 116
learning , " do M 111
leaves , " on M 104
learns , " is M 102
leader : " at M 100
lengths , " as M 99
lending , " he M 95
leaves , " my M 92
leader , " go M 90
leaves , " if M 88
letting , " he M 86
legal , " we M 84
leader , " be M 82
lethal , " the M 80
lengths , " in M 80
learning , " no M 45
legal : " the M 43
learnt , " the M 43
learning : " at M 43
legal , " so M 42
learns , " in M 42
