author left it . M 786
aught from it . M 684
author puts it . M 594
author sees it . M 542
author grew up . M 346
author like me . M 230
author like me ? M 226
author says so . M 218
author knew it . M 218
aught like it . M 206
author gave it . M 202
author uses it . M 186
author made it . M 160
author used it . M 146
aught from me . M 134
author went on . M 116
author says it . M 116
author must be . M 102
aught like it ? M 86
author told me . M 82
