not a very good M 220869
not a single word M 99818
not a good time M 76420
now i know what M 65840
not a single case M 57117
now i have been M 54686
not a good sign M 48282
now i will tell M 40725
not a word more M 34337
not a very nice M 31216
not a very great M 28108
not a word from M 28080
not a great many M 27566
not a clue what M 22050
now i have come M 22020
now i must tell M 21740
now i feel like M 20008
not a very high M 18890
not a single line M 18157
not a single drop M 17397
now i have told M 17386
now i have seen M 17380
not a single tree M 14310
now i have done M 14256
now i have only M 13808
not a time when M 13808
now i will give M 13362
not a tenth part M 12784
not a single book M 12698
now i have nothing M 12396
now i knew what M 12277
now i will have M 11500
now i will show M 11260
not a word said M 11104
not a good plan M 11032
not a good word M 10787
now i just want M 10748
not a single ship M 10608
now i must leave M 10406
not a single fact M 9871
now i have heard M 9824
not a single copy M 9424
not i have been M 9362
not a good omen M 9057
now i have lost M 8816
now i have made M 8728
now i will take M 8576
not a very clear M 8568
not a dull page M 8511
not a single step M 8477
not a mile from M 8322
now i have said M 8286
now i have some M 8256
not a single good M 8153
not a single item M 8126
not a single work M 7907
not a single note M 7542
now a much more M 7507
now i look back M 7196
now i know there M 7128
not a very wise M 6996
not a very safe M 6964
now i will make M 6918
not a single other M 6824
not a young girl M 6684
not a very well M 6560
not a good play M 6519
nor i have ever M 6460
now a great many M 6418
not a single living M 6364
not a single life M 6323
not i know what M 6064
not a single great M 6048
not a single hair M 6026
not a fair test M 5985
not a gift from M 5896
not a single sign M 5838
now i must take M 5756
not a word came M 5690
not a line from M 5582
now i must have M 5456
not i just tell M 5363
now i will leave M 5342
now i have just M 5242
not a single name M 5068
not a very hard M 5003
not a mile away M 5002
now i think there M 4990
now i must make M 4968
now a good many M 4904
not a single bird M 4892
now i felt like M 4779
now i have more M 4670
now i must stop M 4580
not a single part M 4570
not a single town M 4561
not a good name M 4558
not a young lady M 4536
not i look like M 4492
not a single city M 4266
now i just have M 4250
not a very rare M 4164
not a very heavy M 4082
now i will speak M 4042
not a very deep M 3996
not a good girl M 3974
not a single unit M 3953
not a single page M 3942
not a great work M 3870
now i must give M 3852
not a very wide M 3816
not a good book M 3786
now i know your M 3776
not i have some M 3704
not a good test M 3704
not i stay here M 3660
now a wide range M 3644
not a single time M 3570
now a very good M 3534
not a single text M 3404
not a word here M 3390
not a single hand M 3388
not a wise move M 3386
not a word will M 3376
nor i will ever M 3372
not a single fish M 3284
now i must find M 3244
not a single clue M 3230
now i have three M 3220
not a single male M 3206
not a free good M 3204
now a good time M 3192
now i feel more M 3154
not a sure sign M 3152
not a third part M 3135
now i must speak M 3104
not a very rich M 3090
not a good move M 3090
not a term used M 3040
not a nice word M 3030
not a single well M 3028
not a single girl M 3026
now i will turn M 2966
now i come back M 2961
not a gray hair M 2951
not i just take M 2936
now i have gone M 2922
not i have done M 2916
not a free gift M 2916
not a single young M 2874
not a great step M 2870
now a young lady M 2860
now a word from M 2857
not a single pair M 2850
not a very fine M 2824
now i only have M 2800
not a very young M 2788
not a word must M 2776
now i have none M 2774
not a single room M 2758
now i need your M 2744
not a great book M 2739
not i just stay M 2728
not a single hour M 2674
not a word have M 2658
not a drop more M 2654
not a single hint M 2650
not a great time M 2642
now i will come M 2618
not a single body M 2616
not a single face M 2604
not a much more M 2597
now a very rare M 2596
not a good life M 2595
not a drop left M 2570
now i just need M 2540
now i have your M 2524
not a fair trial M 2514
not i just have M 2511
not a good look M 2504
now i will only M 2486
not a great loss M 2476
nor i have been M 2450
not a single form M 2444
not a clear case M 2434
now i feel very M 2416
not a week went M 2412
not a great part M 2402
not i have just M 2392
not i ever tell M 2380
not a single type M 2367
not a nice girl M 2360
not a single such M 2350
not a good risk M 2321
not a single bone M 2302
not a fifth part M 2288
not a true test M 2276
not a good term M 2273
not i come over M 2272
now i need some M 2268
not i just give M 2260
now i must turn M 2250
not a great play M 2246
now i want your M 2226
not a half hour M 2217
now i must look M 2208
not a single cell M 2188
not a single road M 2184
now i have left M 2182
not i come back M 2130
not a single mark M 2119
now i have time M 2106
now i look upon M 2104
not a case like M 2084
now i will send M 2078
now i know more M 2074
now i want some M 2070
not a single shop M 2060
now i only want M 2044
now i have sent M 2038
now i will just M 2026
now i look like M 2004
not a good hand M 1994
not a single rule M 1980
not i been told M 1978
now i must think M 1974
not a word till M 1968
now i feel sure M 1960
not a drop fell M 1948
not a single bank M 1937
now i just feel M 1930
now a very great M 1926
not a very fast M 1910
not a grey hair M 1910
now i will call M 1908
not a fair copy M 1906
not a single mile M 1890
now i have felt M 1868
not a wild beast M 1864
now i know only M 1862
not a single theory M 1860
now i have kept M 1848
not a free hand M 1824
now i know nothing M 1814
not a part only M 1804
not i just come M 1785
not a step back M 1768
not a word used M 1764
not a sixth part M 1754
not a very warm M 1730
not a kind word M 1726
not a good work M 1710
not a great help M 1690
now a very rich M 1682
now i feel much M 1678
not a very fair M 1678
not i just leave M 1663
not a sign from M 1656
now i must wait M 1644
nor i knew what M 1640
not a full time M 1634
not a single play M 1626
not a single seed M 1614
now i must come M 1606
not i just told M 1598
not i heard from M 1590
not i feel like M 1588
not a fine lady M 1588
now i have other M 1578
not a good case M 1573
not a single free M 1555
now i know well M 1548
not a word during M 1546
now i know some M 1528
not a single high M 1527
not a dull line M 1526
now i know just M 1524
not a lazy bone M 1524
now i knew there M 1522
not a word even M 1498
not a health care M 1498
now i call upon M 1492
not a very kind M 1483
not a word when M 1474
now i will kill M 1456
not a good means M 1456
now a third time M 1454
not a very early M 1453
not a single clear M 1448
not i take care M 1446
not a girl like M 1438
not i just call M 1437
not a half mile M 1422
not a good many M 1414
now i must work M 1410
not a single true M 1400
not a text book M 1396
not a true copy M 1386
not a good faith M 1380
not a word upon M 1358
not a wide range M 1338
not a single union M 1338
now i have here M 1334
not a very full M 1334
now i have four M 1324
not a good rule M 1323
not a single kind M 1316
not a good form M 1312
not a word need M 1308
not a single truth M 1298
now i will look M 1296
not a single full M 1296
not a single thread M 1286
now i have used M 1284
not a word ever M 1270
not a living truth M 1254
not a single vice M 1242
not a single month M 1240
not a single flaw M 1240
now i will play M 1234
now a great part M 1224
now i know from M 1220
not a rare case M 1219
now i will teach M 1216
not a word fell M 1216
now i will talk M 1214
not a good month M 1210
not i have seen M 1208
now i have great M 1206
not a full stop M 1194
not a good will M 1191
not a hair upon M 1190
not a text file M 1184
not a high rate M 1182
not a hard sell M 1180
not a true case M 1174
now a very fine M 1172
not a single lady M 1172
now i know very M 1163
not a good role M 1162
not i know your M 1158
not a single home M 1155
not a single ally M 1148
not a single blow M 1144
not a work made M 1140
not a single door M 1137
not a very clean M 1134
now i must call M 1122
not a single port M 1122
not a break from M 1118
not i come home M 1116
not a clean break M 1112
not a single link M 1108
not i have said M 1106
not a single breath M 1098
now i have very M 1090
now i have many M 1086
not a single heart M 1086
not a drop will M 1086
not a true form M 1082
not a single view M 1079
now i live here M 1078
nor i know what M 1078
not a full moon M 1067
now i will help M 1066
now i must show M 1046
now i feel good M 1044
not i just keep M 1042
not a true part M 1042
not i stay home M 1038
not a fair game M 1038
not a very able M 1036
not a step from M 1028
now i only wish M 1026
not a great evil M 1025
not a single site M 1024
not i have more M 1020
not a great city M 1019
now i must face M 1014
not i will have M 1012
now a much less M 1011
now a very well M 1010
not a clear line M 1005
now i must learn M 1002
now i have also M 1002
not a third time M 1001
now i must send M 996
now i must live M 996
now i also have M 986
not a hard heart M 978
not i just make M 976
not a good food M 976
not a living faith M 974
nor i have seen M 974
not a good road M 971
now a full half M 968
now i felt sure M 962
not i have gone M 960
not a vain hope M 960
not a pure form M 958
now i think back M 956
not i come down M 952
not a very busy M 952
not i will send M 950
not a single test M 950
not a good game M 950
now i must talk M 944
now i must know M 944
not a word having M 944
now i must thank M 942
not a great hand M 939
now i will keep M 932
not a great mind M 930
not a fall from M 928
now a very sick M 924
not i have told M 922
not i just been M 920
not a very loud M 916
not i been able M 914
now i must keep M 898
not a single post M 898
now i have work M 897
not a single fine M 890
not i have made M 888
not a heavy load M 888
not a word like M 886
now i just think M 884
now i have even M 884
now i will stop M 882
not a clear view M 882
not a single gray M 879
not i just said M 878
not i even have M 878
now a full view M 876
not a good type M 876
not a vain word M 875
not a single date M 872
now i have good M 868
not a single plan M 866
not a born fool M 866
nor i will have M 862
now i feel free M 858
now i only know M 854
now i find there M 854
now i need only M 852
not a single week M 850
now a rare book M 847
now i must rest M 846
not a single call M 844
now i knew nothing M 840
not i have heard M 838
not a great risk M 837
now i have these M 836
now i want only M 834
now i have five M 831
not a single self M 830
not i ever think M 828
not a single term M 828
not a single hide M 828
not a single anti M 827
now i think what M 824
not i come along M 819
now i want more M 818
not a good line M 818
not a single pile M 816
now i feel nothing M 809
not a single move M 808
not a very keen M 806
nor a very good M 806
now i will wait M 804
not a good deed M 804
not i come here M 798
nor i half turn M 796
now i have eaten M 794
not a safe port M 793
now i will find M 792
not a very sure M 792
not a single monk M 792
now i also know M 790
not a fool like M 786
not a loud word M 784
not a good part M 783
now i went back M 780
now i will know M 776
not i will make M 774
not i ever have M 774
now i come home M 773
not a single break M 773
not a single spring M 772
now i have such M 770
not a single army M 770
not a hard word M 768
not a wise plan M 766
not a very bold M 766
not a great need M 766
not a drop came M 766
not i ever heard M 762
now i give half M 760
not a full view M 758
now a young girl M 756
now a full time M 754
not i just walk M 754
not a full list M 752
now i felt more M 750
not a great love M 750
not i make some M 748
not i have come M 746
not a video game M 744
not a single hole M 738
now i have laid M 736
now a very high M 736
now i know when M 734
not a single pure M 734
not a leading part M 734
now i find true M 732
not a single poor M 732
not a great threat M 732
not a code word M 732
not a true arch M 730
nor i were able M 730
not a single fire M 729
now i have much M 728
not i think have M 728
not a wild dream M 728
not a single mine M 727
not a very much M 726
not a sure test M 725
not a single grey M 723
not a high risk M 721
not a health risk M 719
not a good heart M 719
now i feel just M 718
not a hand went M 718
now a very busy M 716
now i feel fine M 714
now a fine young M 714
not a move from M 714
not i ever told M 712
not a hard case M 712
now i will pass M 710
now i have what M 706
now i have hope M 706
not a single beast M 706
not a good kind M 706
not i just love M 703
now i come here M 702
not a pure case M 700
now a very wide M 696
not a hair left M 687
now a great city M 680
now i take leave M 678
now i want nothing M 674
not a word there M 674
now i must also M 672
not a book like M 672
not i take your M 670
not i just look M 668
not a word among M 668
not i just wait M 667
now i very much M 666
not a single mass M 666
now i learn from M 664
not i been good M 662
not a single hope M 658
not a single dull M 658
nor a tenth part M 656
not a very cold M 654
now a very poor M 650
not a view held M 650
now i will stay M 648
not a life worth M 647
now i think your M 646
now i must pass M 644
not a single lord M 644
now i know these M 642
not a single care M 642
not a good week M 640
nor i will live M 640
now i must rush M 638
not i ever learn M 638
not a girl have M 638
nor i were ever M 637
now i just hope M 636
not a hard blow M 636
not a great ways M 636
not i have what M 632
not a word left M 630
not a living body M 630
not a single leading M 628
not a rule book M 628
now i feel there M 626
now i dont know M 626
nor i deny nothing M 626
not a single dark M 625
not i will take M 624
not a step will M 624
not i just like M 623
now i make sure M 622
not a month went M 622
not a good show M 622
not i have died M 620
not a single hero M 620
not a call from M 620
not a great good M 619
not a living part M 616
not a main road M 615
not a life lost M 614
not a single look M 612
not a single doom M 612
now a very much M 610
not a single game M 609
not i have pity M 608
not i ever seen M 608
not a very daring M 608
not a tree left M 608
not i seen your M 606
not a single wild M 606
now i take care M 605
now i will rest M 604
not a good home M 604
not i take some M 602
nor a time when M 602
now i look into M 600
not a time come M 600
not a rare bird M 600
not a note from M 600
not a mark upon M 600
not a good theory M 600
not a great name M 598
not a single best M 593
not a good base M 593
now i will also M 592
now i know many M 592
now i just wish M 592
now i have lots M 592
now a last word M 592
not a true love M 590
not a single hill M 590
not i just stop M 589
not a tale told M 588
not a good site M 586
now a gift shop M 584
now i come from M 582
now i will draw M 580
now i need help M 580
now i must stay M 580
now a good road M 580
not a very dark M 580
now i will hold M 578
not i look nice M 578
not a living room M 578
not a great lord M 578
not a good tree M 577
now i think upon M 576
not a great gain M 576
not a good city M 576
not a hair will M 574
not a good sort M 574
nor a single word M 574
not i just talk M 572
not a single evil M 572
not a hard fact M 572
now i must wish M 570
not a safe rule M 570
not a good dream M 570
now i will pray M 568
not i just know M 568
now i have once M 566
not a leading role M 566
now i feel great M 564
now i feel even M 562
not a back door M 562
not a nice name M 560
not a busy time M 558
now i must warn M 556
not a wise step M 554
not a single loss M 554
not a name like M 554
not a city like M 554
not a free will M 552
not a case here M 552
not a single land M 550
now i must just M 548
not a hair from M 548
now a vast body M 546
not a great pity M 546
now i will walk M 544
now a free hand M 544
not a great lady M 544
not a true word M 542
not a line more M 541
not a single wish M 540
not a data type M 538
not i think been M 536
not a line have M 536
now i will wish M 534
now i tell what M 534
now i came back M 532
not i look good M 532
nor a great many M 528
now i think these M 526
now i must play M 526
not a single tomb M 526
not a single open M 526
not i live here M 524
not a true faith M 524
not i done well M 522
now i face home M 520
not i just meet M 520
not a sure cure M 520
not a saving faith M 516
not i tell your M 512
not a much less M 512
now i must move M 510
not a free port M 509
not a true view M 508
now i must kill M 506
not i been trying M 506
now i will move M 504
not i just send M 504
not a dream only M 504
not a dream from M 504
now i have dealt M 502
not i will tell M 502
not a single gift M 502
not a great fool M 500
now i felt very M 496
not a high form M 496
not a hard life M 496
now i will live M 494
now a fair wind M 494
not a mask went M 494
now i will were M 492
not i feel good M 492
not a single live M 492
not a copy from M 492
not a talk show M 489
now i only need M 484
nor i were very M 484
not a single root M 483
not a view from M 482
now i wish only M 480
now i will open M 480
not i think very M 480
now i know full M 476
now a time when M 476
nor i ever heard M 476
not i just pick M 474
not a true theory M 474
not a true life M 472
now i well know M 470
now i only feel M 470
not i have kept M 470
not a test case M 470
not a single rich M 470
not a single duty M 470
not a single baby M 470
now i have need M 469
now i will think M 468
now i must seek M 468
now i know their M 468
not a single deed M 468
not a free pass M 466
not a fish will M 466
not a mile high M 465
now i keep your M 464
not a union shop M 464
not a body part M 464
now i just tell M 460
not a mile wide M 460
not i just wish M 458
not i been saying M 458
not i also have M 458
not a very wild M 458
not a free mind M 458
now i call your M 456
not i look well M 456
not a face among M 456
not i know there M 455
not a good host M 454
not a breath from M 454
now i feel safe M 452
not i will give M 452
not a breath came M 452
now i will break M 450
now i just felt M 450
not a great plan M 450
not a great life M 450
now i have faith M 448
now i feel only M 448
not i just show M 448
not i been here M 448
not a safe time M 448
not a heavy rain M 448
now a days there M 447
now i must lose M 446
not a city girl M 446
not a good face M 445
now i turn from M 444
not i wait till M 441
now i must break M 440
now i knew from M 440
not a single able M 440
now i only hope M 438
now i even have M 436
not a great body M 436
not a good clue M 436
not a young face M 434
not a risk worth M 434
now i need more M 432
now i must draw M 432
not i have your M 432
not a single flag M 432
not a nice sort M 432
not a good town M 432
not a hard rule M 431
not i come into M 430
not a pure type M 430
now i know most M 427
now a great need M 426
not a true cost M 426
not a move away M 426
now i know whom M 424
not a single file M 424
not a nice young M 424
not a heart here M 424
not a clue when M 424
now i must help M 422
now i have less M 422
not a single band M 422
now i must part M 420
not a call girl M 420
now a rare bird M 418
not a great range M 418
now i obey your M 416
not i just drop M 416
not a very poor M 414
not a swear word M 414
not a hope left M 414
now i have held M 412
not a poor body M 412
not a true zero M 411
not a very open M 410
not a fair view M 410
not a clear sign M 408
not a book just M 408
nor i have much M 408
not a next time M 407
not i just shut M 406
not i been there M 406
not a just view M 406
not a core part M 406
now a good part M 404
not a nice book M 404
not a deep heart M 402
now i have mine M 401
now i must walk M 400
now i just know M 400
now i feel some M 400
not i feel more M 400
not a true peace M 400
not a single angel M 400
not a kick left M 400
now i have their M 398
now i have peace M 398
not a road open M 398
not a drop from M 398
now i just take M 396
now i felt even M 396
not a heavy blow M 396
nor a bird been M 396
now i think most M 394
not a tree upon M 394
not a poor girl M 394
now i take upon M 392
not a good ship M 392
not a single trial M 391
now i feel sick M 390
not a true sign M 390
not i will find M 388
not i have time M 388
not a vain dream M 388
not a single love M 388
not a file name M 386
now i hope your M 384
not i have lost M 384
not a true acid M 383
not a single rate M 383
not a true type M 382
not a tree grew M 382
not a single rise M 382
not a single mind M 382
not a huge step M 382
not a drop must M 382
nor a single line M 380
now i must away M 378
now i just keep M 378
not a hair fall M 378
now i will work M 376
now i have hurt M 376
now i feel ready M 376
now a very fair M 376
not a hard rain M 376
now a very clear M 374
not i will come M 374
not i will leave M 372
not i know well M 372
now a vast range M 370
not a single clean M 369
not a sure means M 368
not a more sure M 368
not a step more M 367
now i think more M 366
now i take your M 366
not i have ever M 366
not a third term M 366
not a room left M 366
now i went into M 364
not a single lock M 364
not a single early M 364
nor i have heard M 364
nor a cloth upon M 364
not a single wood M 363
not i just kill M 362
not a great hero M 362
not a heart more M 361
now i think only M 360
now a mile from M 360
not a more just M 360
now i think some M 358
not a true self M 358
not a single nest M 358
not a page from M 358
not a health food M 358
not a single dream M 356
not a good gift M 356
nor a name more M 356
not a mile down M 355
not a good view M 355
not a very pure M 354
not a rest from M 354
not a copy left M 354
not a breath left M 354
nor a single spring M 354
nor a last word M 354
not a hint from M 352
not a body like M 352
not a great game M 351
now i look down M 350
now a great sign M 350
not a main verb M 350
now i also knew M 348
nor i have made M 348
now i will need M 346
now a great mass M 346
not a living tree M 346
now i feel what M 344
now i feel well M 344
not i just turn M 344
now a clear need M 342
not a tree here M 342
not a single youth M 342
not a single goal M 342
not a high ideal M 342
nor a word from M 342
not i have mine M 341
not a single moving M 341
not a fair hearing M 341
now i find your M 340
not a true body M 340
not a single base M 340
not a rich land M 340
not a very late M 338
not a bank note M 338
not i take over M 337
not i just live M 337
not a single stem M 336
not i ever find M 334
not a play upon M 334
not a more rash M 334
not a heart among M 334
not a bird will M 334
now i also want M 332
not i will know M 332
not a single means M 332
not a line item M 332
not a hero like M 332
not a health threat M 332
now a very aged M 331
not a very rash M 330
not a rare book M 330
not a cold fish M 330
not a book from M 330
now i make bold M 328
not a very just M 328
not a time during M 328
not a single verb M 328
now i will thank M 326
not a main part M 326
nor i felt like M 326
not a side show M 325
now a good book M 324
not a great depth M 324
not a girl from M 324
not a true rate M 323
not a good mind M 323
now i give unto M 322
not i just quit M 322
not a wish list M 322
not a true name M 322
now i know those M 320
now a deep blue M 320
not i know more M 320
not a very self M 320
not a living form M 320
not a fine line M 320
not a true threat M 318
not a rest home M 318
not a fast ship M 318
not i will keep M 316
not i must leave M 316
not a huge part M 316
not a game like M 316
now i just love M 315
now a cold wind M 315
not i look great M 314
not a threat from M 314
not a more able M 314
not a bone left M 314
now i will lose M 312
now i pass from M 312
not i come from M 312
not a third were M 312
not a ship will M 312
now i feel your M 310
not a true food M 310
not a loss from M 310
not a great gift M 310
now i only keep M 308
now i felt nothing M 308
now i come down M 308
now a crying mass M 308
not i give your M 308
not a very moving M 308
not a single miss M 308
not a hint here M 308
not a free flow M 308
not i will kill M 306
not a word much M 306
not a nice lady M 306
not a full life M 306
not a free city M 306
not a clear mind M 306
not a single fold M 305
now a full month M 304
not i have felt M 304
not a poor town M 304
not a good goal M 304
not a duty owed M 304
now i will learn M 302
now a mile away M 302
not a fool when M 302
not a step down M 301
not a rich town M 301
now i must save M 300
now i have ever M 300
not a single worm M 300
not a single mode M 300
not a game show M 300
now i think those M 298
now i come into M 298
not a rest cure M 298
now i want these M 296
now i knew very M 296
now a very heavy M 296
not i know these M 296
not a true union M 296
not a single wrong M 296
not a single sick M 296
not a good ending M 296
not a fall into M 296
nor i knew much M 295
now i want what M 294
not a fine young M 294
now i feel less M 293
not i wait here M 292
not i know when M 292
not a single twig M 292
not i think what M 291
not i been more M 291
now i must teach M 290
not a work like M 290
not a stop sign M 290
not a single echo M 290
not a last word M 290
now i feel such M 288
not a very slow M 288
not a load upon M 288
not a bare fact M 288
not a felt need M 287
not i take breath M 286
not a rare form M 286
not a face like M 286
not a cold wind M 286
now i find what M 284
not a work done M 284
not a hand will M 284
not a single meaning M 283
now i will drop M 282
now i felt only M 282
not i learn from M 282
not i know their M 282
not i just want M 282
not a single role M 282
not a great show M 282
not a clear gain M 282
not a case such M 282
not a toll free M 281
not a hard line M 281
now a more open M 280
not a week when M 280
now i look more M 279
now i will treat M 278
now i only think M 278
not a very soft M 278
not a step away M 278
not a single heavy M 278
not a great army M 278
not a fast food M 278
not a bare sign M 278
now i come along M 277
not a single south M 277
now i will save M 276
now a word more M 276
now a clear view M 276
not i have left M 276
not i done what M 276
not i just move M 274
not i have used M 274
not a very ready M 274
not a true blue M 274
not a single bell M 274
not a full range M 274
not a full load M 274
now i will seek M 272
now i will rise M 272
not a wrong done M 272
not a very paying M 272
not a single food M 272
not a room full M 272
not a good port M 272
now i must meet M 270
not a week from M 270
not a fact from M 270
not a clean heart M 270
not a baby like M 270
nor a drop more M 270
not a single ideal M 269
now i only pray M 268
not i have good M 268
not a true city M 268
not a safe plan M 268
not a nine days M 268
not a good young M 268
not a free form M 268
nor a single drop M 268
not a name used M 266
not a game fish M 266
not a game bird M 266
nor a lost hour M 266
now a term used M 264
now a free port M 264
not a single safe M 264
not a move made M 264
not a good text M 264
nor a bank ever M 264
now i felt ready M 262
not a true saying M 262
not a south wind M 262
not a good angel M 262
nor a word said M 262
not a single blue M 261
now i must shut M 260
now i have young M 260
now i also think M 260
not i stay there M 260
now a great lady M 258
not i look fine M 258
not a true work M 258
not a step into M 258
not a single kiss M 258
not a safe test M 258
not a rich girl M 258
not a link will M 258
not a good trip M 258
not a copy here M 258
not a body think M 258
nor i ever knew M 258
not a single half M 256
not a single range M 255
now i just look M 254
not i come there M 254
not a very true M 254
not a third kind M 254
not a pure test M 254
not a look from M 254
not a life like M 254
not a drop till M 254
not a dream come M 254
not a deep meaning M 254
now i will lift M 252
now i will hunt M 252
now i made some M 252
now i felt free M 252
not i even tell M 252
not a word save M 252
not a good root M 252
not a ready made M 251
now i must dash M 250
now a heavy rain M 250
not a single peace M 250
not a single hard M 250
not a part time M 250
now a half hour M 249
now i must hide M 248
now i knew more M 248
now a great body M 248
not i tell what M 248
not a very free M 248
not a true loss M 248
not a true fish M 248
not a life among M 248
not a fair mode M 248
now i work here M 246
now i will love M 246
now a third must M 246
not a time have M 246
not a shop open M 246
not a single side M 245
not a great mass M 245
not i take their M 244
not a vain threat M 244
not a turn away M 244
not a true heart M 244
not a step till M 244
not a single load M 244
not a month from M 244
not a heavy user M 244
not a good hour M 244
not a dream like M 244
not a care will M 244
nor i have done M 244
now i hope there M 242
now i feel kind M 242
not i just play M 242
not i come next M 242
not a good copy M 242
now i have over M 241
now i knew just M 240
now i came upon M 240
not i will obey M 240
not i must have M 240
not a single stop M 240
not a good liking M 240
not a drop ever M 240
not a door open M 240
nor i have time M 240
not a dull book M 239
nor i hope will M 239
now i once more M 238
now i just give M 238
not i work like M 238
not i just work M 238
not a word were M 238
not a single saying M 238
not a mild form M 238
not a good room M 238
not a full hour M 238
not a book only M 238
nor i must ever M 238
now i stay home M 236
now i fell into M 236
now i came here M 236
not i need some M 236
not i call your M 236
not a very cost M 236
not a very cool M 236
not a term like M 236
not a drag upon M 236
not a crying need M 236
not i work hard M 235
now i think nothing M 234
not i have such M 234
not a single just M 234
not a pure gift M 234
not a lady like M 234
now a very hard M 233
not a pity such M 233
nor a single tree M 233
not i ever been M 232
not a love like M 232
not a just peace M 231
not a holy book M 230
not a hard core M 230
not i look just M 228
not a single knot M 228
not a nice kind M 228
not a great trial M 228
not a fine face M 228
not a bird came M 228
not a less evil M 227
now a very nice M 226
now a clear case M 226
not i make sure M 226
not i just hold M 226
not i feel sure M 226
not a single pass M 226
not a single angry M 226
not a good hiding M 226
not a full week M 226
not a case will M 226
not a vain girl M 224
not a true root M 224
not a high type M 224
not a girl just M 224
not a girl here M 224
now i have nine M 223
not a waking hour M 223
not i will quit M 222
not a single tale M 222
not a great sign M 222
not a good unit M 222
not a book upon M 222
not i just list M 221
not a kind heart M 221
not a born idiot M 221
not a single noun M 220
not a single main M 220
not a rich city M 220
not a gift made M 220
not a single third M 219
now i lose time M 218
not i think there M 218
not a true gift M 218
not a pure love M 218
not a name only M 218
not a month when M 218
not a last name M 218
not a good living M 218
nor a loss less M 218
not i will ever M 216
not i talk like M 216
not a note left M 216
not a holy life M 216
not i just skip M 214
not i find some M 214
not i been very M 214
not a good call M 214
not a fast rule M 214
not a cell will M 214
nor i hope ever M 214
not a word less M 213
not a single four M 213
not a full length M 213
now i have full M 212
now a half mile M 212
not i will help M 212
not i walk away M 212
not i look more M 212
not a word heard M 212
not a word game M 212
not a full text M 212
not a move left M 211
not a fair word M 211
now i want those M 210
now i think when M 210
now a very young M 210
now a full week M 210
not i just think M 210
not a true cell M 210
not a single health M 210
not a name more M 210
not a line will M 210
not a great wrong M 210
not a good land M 210
not a food fish M 210
not a data base M 210
not a single thorn M 209
now i must here M 208
now a great army M 208
not a name among M 208
not a great truth M 208
now i want just M 206
now i turn back M 206
now i turn away M 206
now i must feed M 206
now i live only M 206
now i live like M 206
now a fine city M 206
not i look into M 206
not i leave well M 206
not i heard your M 206
not i have three M 206
not a word coming M 206
not a vast body M 206
not a taking away M 206
not a single cure M 206
not a mile ahead M 206
not a know nothing M 206
not a fine work M 206
not a good turn M 205
not a clear break M 205
now i will kiss M 204
now i said nothing M 204
now a very deep M 204
now a very dark M 204
now a full moon M 204
not i ever meet M 204
not i ever make M 204
not a word most M 204
not a single ruin M 204
not a single code M 204
not a kick more M 204
not a huge city M 204
not a food item M 204
not a body take M 204
nor i have said M 204
not a well told M 203
now i will soon M 202
now i feel lost M 202
not i done very M 202
not a sign came M 202
not a jump from M 202
not a great length M 202
not a girl whom M 202
not a fair case M 202
nor a very high M 202
not a true reading M 201
not a side line M 201
not a city make M 201
now i think even M 200
now a good case M 200
not i even speak M 200
not a wild bird M 200
not a single data M 200
not a high hill M 200
not a heavy page M 200
not a good note M 200
not a true unit M 199
now i just stay M 198
now a crying need M 198
not i even take M 198
not a wrong word M 198
not a work upon M 198
not a single ugly M 198
not a port city M 198
not a nice part M 198
not a good user M 198
nor a hair from M 198
now i feel angry M 196
now a full mile M 196
now a dull gray M 196
not i think from M 196
not a word wrong M 196
not a true home M 196
not a single wise M 196
not a single turn M 196
not a single reading M 196
not a single flying M 196
not a hint even M 196
not a heart like M 196
not a good mode M 196
not a girl among M 196
not a fire once M 196
nor i think will M 196
nor i were much M 195
now i only felt M 194
now a word upon M 194
not i just find M 194
not i have these M 194
not i even talk M 194
not a single birth M 194
not a rare name M 194
not a push from M 194
not a nice time M 194
not a high road M 194
not a heavy hand M 194
not a coat like M 194
not a book made M 194
nor i know much M 194
now i only give M 192
now a rich body M 192
now a great help M 192
not a name from M 192
not a hand from M 192
not a deed done M 192
now a rare item M 191
not a single fair M 191
now a heavy part M 190
not i hope from M 190
not a wild young M 190
not a true time M 190
not a sure road M 190
not a single heir M 190
not a rare word M 190
not a nice game M 190
not a good body M 190
not a free land M 190
not a fool only M 190
not a body made M 190
nor a good many M 190
now a living room M 189
not a good wood M 189
now i wish there M 188
now i must pick M 188
now a huge body M 188
not i stay just M 188
not i ever know M 188
not a theory make M 188
not a single more M 188
not a safe means M 188
not a lord over M 188
not a jail cell M 188
not a heavy fall M 188
not a hair fell M 188
not a means only M 187
nor a word less M 187
now i leave nothing M 186
not i been your M 186
not a safe food M 186
not a debt owed M 186
not a bird upon M 186
now a good half M 185
not i take more M 185
not a true fact M 185
now a single word M 184
not a young bird M 184
not a holy city M 184
not a hard wood M 184
not a full trial M 184
now i must join M 182
now i knew well M 182
now a busy time M 182
not a lady born M 182
not a great town M 182
not a free life M 182
nor i were there M 181
now i only come M 180
now i find these M 180
now i felt sick M 180
not i take good M 180
not i just pull M 180
not i been paying M 180
not a word just M 180
not a true tree M 180
not a safe road M 180
not a rise from M 180
not a great care M 180
not a blow from M 180
not a bird left M 180
now i knew only M 179
not a single debt M 179
not a single cold M 179
not a good item M 179
now i just work M 178
now i have half M 178
now a single unit M 178
now a great rush M 178
not i think more M 178
not i just seen M 178
not i just feel M 178
not i dont know M 178
not i been sent M 178
not a single paying M 178
not a single north M 178
not a great role M 178
not a great jump M 178
not a goal unto M 178
not a cake walk M 178
now i have cast M 176
now i care nothing M 176
now a busy town M 176
not a wide open M 176
not a reading test M 176
not a heart full M 176
not a great look M 176
not a fool will M 176
not a dream when M 176
not a good side M 175
not a dark side M 175
now i must push M 174
now a rest home M 174
not i take these M 174
not a true angel M 174
not a rate case M 174
not a huge loss M 174
not a breath upon M 174
nor a mile from M 174
not i have leave M 173
not a single warm M 173
now i must obey M 172
not i look very M 172
not a wrong note M 172
not a very eager M 172
not a single list M 172
not a rich young M 172
not a full theory M 172
not a dire need M 172
nor a word having M 172
not i just open M 171
not a rush what M 171
not i save your M 170
not i have even M 170
not i glad when M 170
not i ever come M 170
not i been nice M 170
not a true tale M 170
not a main line M 170
not a maid like M 170
not a made road M 170
not a lazy hair M 170
not a good army M 170
not a goal worth M 170
not a blow have M 170
not a single very M 169
now i only pity M 168
not a word good M 168
not a tree will M 168
not a threat when M 168
not a sure rule M 168
not a road leading M 168
not a pure work M 168
not a hero only M 168
not a great rush M 168
not a full word M 168
not a full half M 168
not a fair reading M 168
nor a very wise M 168
now i pass over M 167
not i make more M 167
not a true good M 167
now a core part M 166
not i know from M 166
not i have give M 166
not i felt like M 166
not a word only M 166
not a union among M 166
not a sign left M 166
not a good acting M 166
not a girl born M 166
not a book full M 166
not a single want M 165
now a wild beast M 164
now a full stop M 164
not i just saying M 164
not i have peace M 164
not a sore till M 164
not a single idle M 164
not a single fall M 164
not a living word M 164
not a high cost M 164
not a great fall M 164
now i just knew M 162
now i hope soon M 162
not i just jump M 162
not i have sent M 162
not a town like M 162
not a safe game M 162
not a safe book M 162
not a living cell M 162
not a line upon M 162
not a late hour M 162
not a good feed M 162
not a copy made M 162
not a body only M 162
not a good step M 161
not a full month M 161
now i think well M 160
now i need time M 160
now i must soon M 160
now a move away M 160
now a dark blue M 160
not i once tell M 160
not a very holy M 160
not a tree from M 160
not a single west M 160
not a single lake M 160
not a plus sign M 160
not a girl there M 160
not a fine city M 160
not a fate rare M 160
not a high wind M 159
not a full line M 159
now i want very M 158
now i must wash M 158
now a single body M 158
now a free city M 158
not i know some M 158
not a true mode M 158
not a tree there M 158
not a single show M 158
not a great call M 158
not a good health M 158
not a free fall M 158
not a bare poor M 158
nor i knew there M 158
nor a life lost M 158
not a clear call M 157
now a full hour M 156
not i take what M 156
not i meet your M 156
not i done told M 156
not a wide step M 156
not a step ahead M 156
not a stay left M 156
not a past fact M 156
not a note wrong M 156
not a more daring M 156
not a mile over M 156
not a living face M 156
not a free play M 156
not a fact like M 156
not a dull city M 156
not a coming back M 156
nor i have come M 156
not a word what M 155
not a good date M 155
now i must quit M 154
now i like your M 154
now a great fact M 154
now a good three M 154
now a days have M 154
not i will call M 154
not i just sign M 154
not a theory only M 154
not a stem cell M 154
not a male heir M 154
not a have been M 154
not a fair look M 154
not a book will M 154
not a book among M 154
now i dont care M 153
not a sign sent M 152
not a play done M 152
not a life work M 152
not a hearing loss M 152
not a good wish M 152
not a full page M 152
not a clear test M 152
nor i hope from M 152
nor i ever made M 152
nor a very great M 152
now i find more M 151
not a single will M 151
now i will test M 150
now i will feel M 150
now i dare swear M 150
now i came into M 150
now a very just M 150
not i will fill M 150
not i live like M 150
not i know very M 150
not a young land M 150
not a pure fact M 150
not a nice clean M 150
not a heart half M 150
not a great blow M 150
not a deep blue M 150
now i pass into M 148
now i only knew M 148
not i make love M 148
not i made good M 148
not i have nothing M 148
not a word away M 148
not a very trying M 148
not a town hall M 148
not a text from M 148
not a tale from M 148
not a single theft M 148
not a good luck M 148
not a good fire M 147
now i will hand M 146
now i dont want M 146
not i will stay M 146
not i stop crying M 146
not i just help M 146
not i feel safe M 146
not a true lake M 146
not a true cave M 146
not a sure mark M 146
not a single user M 146
not a safe feed M 146
not a data item M 146
nor i said much M 146
nor a single step M 146
now i know much M 145
not a true open M 145
not a safe city M 145
now i take more M 144
not i there when M 144
not i even look M 144
not a very user M 144
not a true dream M 144
not a rich lady M 144
not a land mass M 144
not a hard time M 144
not a hard look M 144
not a good hope M 144
nor a very safe M 144
now i speak unto M 143
now a fact well M 143
not a busy road M 143
now i will burn M 142
now i must hold M 142
now i heard from M 142
now i find from M 142
not a very mild M 142
not a very live M 142
not a true seed M 142
not a true bone M 142
not a single ward M 142
not a pure heart M 142
not a nice face M 142
not a move into M 142
not a jump into M 142
not a holy land M 142
not a hard lady M 142
not a great treat M 142
not a game when M 142
not a full part M 142
not a duty upon M 142
not a drop have M 142
not a dark face M 142
not a book meant M 142
nor i ever said M 142
not i more like M 141
not a pure blue M 141
nor a good life M 141
now i want mine M 140
now i came from M 140
now i came down M 140
now a most meaning M 140
now a call from M 140
not i stay away M 140
not i even know M 140
not a term much M 140
not a term from M 140
not a rare gift M 140
not a good baby M 140
not a full test M 140
not a fool even M 140
not a fact prior M 140
not a book left M 140
nor i will make M 140
now i must kick M 138
now i love only M 138
now i kiss your M 138
now i grew into M 138
now i feel sort M 138
now a sore heart M 138
now a note from M 138
now a most heavy M 138
not i pass away M 138
not i blow your M 138
not a warm heart M 138
not a true hero M 138
not a true data M 138
not a single need M 138
not a single idol M 138
not a single coat M 138
not a single cave M 138
not a road from M 138
not a heavy item M 138
not a great band M 138
nor i ever went M 138
nor a very deep M 138
nor a single case M 138
nor a kind word M 138
not a single epic M 137
not a good reading M 137
now i will wash M 136
now i felt much M 136
now a week away M 136
not i think much M 136
not i just done M 136
not i have eyes M 136
not a wise time M 136
not a verb form M 136
not a true worm M 136
not a single soft M 136
not a great epic M 136
not a good ally M 136
not a clear link M 136
nor i ever felt M 136
not a true free M 135
not a lady living M 135
not a dream what M 135
now i will sign M 134
now i view some M 134
not i will once M 134
not i give some M 134
not a very lady M 134
not a very ideal M 134
not a tree only M 134
not a living fact M 134
not a hard trip M 134
not a hard call M 134
not a good band M 134
not a free body M 134
not a bold sort M 134
nor a very clear M 134
nor a good tree M 134
not a very time M 133
now i heard some M 132
now a very full M 132
not i went into M 132
not i think your M 132
not a true single M 132
not a theory book M 132
not a sure word M 132
not a shop will M 132
not a heavy body M 132
not a great beast M 132
not a good beach M 132
not a full verb M 132
not a full copy M 132
not a full body M 132
not a form like M 132
not a case from M 132
nor i think those M 132
not i just once M 131
not a pure line M 131
not a huge risk M 131
nor a word more M 131
now i must pray M 130
now a single name M 130
now a fine time M 130
not i just speak M 130
not i hold your M 130
not a wish left M 130
not a test item M 130
not a single pain M 130
not a life free M 130
not a great view M 130
not a good ratio M 130
not a good mark M 130
not a free exit M 130
not a fine girl M 130
not a cost item M 130
nor a loss from M 130
not a pure self M 129
not a mass noun M 129
not a fact well M 129
not a clean kill M 129
now i take great M 128
now i must drop M 128
now a busy port M 128
not i take away M 128
not i knew what M 128
not i just learn M 128
not i even think M 128
not i been taking M 128
not a type name M 128
not a single find M 128
not a single deep M 128
not a poor baby M 128
not a home when M 128
not a hand held M 128
not a good single M 128
not a good fish M 128
not a code name M 128
not a breath among M 128
not a bare unit M 128
not a very even M 127
not a true high M 127
now i went over M 126
now i must once M 126
now a single line M 126
now a loud deep M 126
now a great evil M 126
now a good view M 126
now a good hope M 126
not i your lord M 126
not i seen these M 126
not i must come M 126
not i kiss your M 126
not i have faith M 126
not a single arch M 126
not a ship left M 126
not a many like M 126
not a last will M 126
not a hard saying M 126
not a fair type M 126
not a fact also M 126
nor a wide range M 126
now a full four M 125
not a true game M 125
not a true bank M 125
not a pure single M 125
now i will cast M 124
now i walk back M 124
now i only teach M 124
now i felt some M 124
now i ever told M 124
now a reading room M 124
now a rare work M 124
now a huge range M 124
now a busy city M 124
not i think fail M 124
not i also live M 124
not a wise saying M 124
not a very vast M 124
not a town upon M 124
not a toll call M 124
not a third form M 124
not a single fare M 124
not a safe risk M 124
not a port from M 124
not a nice town M 124
not a more holy M 124
not a hard walk M 124
not a hard name M 124
not a gray thread M 124
not a girl when M 124
not a game plan M 124
now i have most M 123
now i also feel M 122
now a vast ruin M 122
now a great lord M 122
not i must tell M 122
not i move into M 122
not i just made M 122
not i just grab M 122
not i hate those M 122
not a work from M 122
not a word true M 122
not a word drop M 122
not a unit cell M 122
not a reading room M 122
not a poor copy M 122
not a main goal M 122
not a love nest M 122
not a heavy loss M 122
not a hard road M 122
not a good pair M 122
not a body will M 122
not a base from M 122
not a great move M 121
not a great line M 121
now i came home M 120
now a very safe M 120
now a very mild M 120
now a hard core M 120
now a great work M 120
now a days most M 120
not i want some M 120
not i think make M 120
not i hope more M 120
not i feel free M 120
not a word pass M 120
not a vain show M 120
not a trap laid M 120
not a stop been M 120
not a holy will M 120
not a hand upon M 120
not a girl know M 120
not a fine town M 120
not a drop lost M 120
not a book dealing M 120
not a single three M 119
now i work hard M 118
now i find some M 118
now a word must M 118
now a mile wide M 118
now a main road M 118
now a living part M 118
now a deep hole M 118
not i heard what M 118
not i been reading M 118
not a truth among M 118
not a true stem M 118
not a step along M 118
not a single nice M 118
not a single bold M 118
not a show trial M 118
not a pure will M 118
not a poor city M 118
not a month back M 118
not a lazy girl M 118
not a kind look M 118
not a fine word M 118
not a dark blue M 118
not a bird note M 118
not a beast like M 118
not a base kick M 118
not a baby girl M 118
nor i will leave M 118
nor a single wish M 118
nor a single fact M 118
now a great port M 117
not i think well M 117
not a good high M 117
now i know none M 116
now i have upon M 116
now a poor town M 116
now a gale from M 116
now a dull rain M 116
not i walk down M 116
not i know just M 116
not i hold forth M 116
not i ever talk M 116
not i been born M 116
not a word unto M 116
not a twig left M 116
not a single bark M 116
not a pure gain M 116
not a line here M 116
not a great deed M 116
not a free union M 116
not a cold call M 116
not a clear plan M 116
not a case when M 116
not a blue coat M 116
nor i have used M 116
nor i ever told M 116
nor a good will M 116
not a true line M 115
not a hair more M 115
now i will pick M 114
now i think such M 114
now i must open M 114
now i know life M 114
now a great lake M 114
now a great hero M 114
now a fine view M 114
now a blow will M 114
not i like your M 114
not i have held M 114
not i ever seem M 114
not a very calm M 114
not a unit less M 114
not a true rule M 114
not a true mark M 114
not a true bird M 114
not a single threat M 114
not a rare type M 114
not a pure free M 114
not a more open M 114
not a more clear M 114
not a line left M 114
not a life form M 114
not a hard push M 114
not a form from M 114
not a door when M 114
not a deep cave M 114
nor i will know M 114
now a vast mass M 113
not a word over M 113
not a soft kind M 113
not a single rash M 113
not a mind game M 113
not a good ideal M 113
now i will list M 112
now i know such M 112
now i knew these M 112
now i give back M 112
now a late hour M 112
not a work moving M 112
not a word many M 112
not a true code M 112
not a third type M 112
not a part from M 112
not a late work M 112
not a land mine M 112
not a home away M 112
not a high paying M 112
not a heavy heart M 112
not a fast rate M 112
not a coming into M 112
not a clean pair M 112
not a body having M 112
not a bearing upon M 112
nor i will lose M 112
nor i care much M 112
not a single trip M 111
not a single even M 111
not a rest stop M 111
not a heavy snow M 111
not a deep well M 111
now i will fill M 110
now i will dare M 110
now i take back M 110
now i show unto M 110
now i have bent M 110
now a fine mist M 110
now a days many M 110
not i walk into M 110
not i take part M 110
not i just hand M 110
not a true will M 110
not a true verb M 110
not a true need M 110
not a true goal M 110
not a rich body M 110
not a rare work M 110
not a nice look M 110
not a leading lady M 110
not a lady here M 110
not a good flow M 110
not a drop less M 110
not a deep mind M 110
not a dark room M 110
not a cold rain M 110
nor i think ever M 110
now i feel calm M 109
not i even rate M 109
not a single past M 109
not a deep hole M 109
not a body plus M 109
now i will shut M 108
now i will cease M 108
now i just wait M 108
now i just hate M 108
now i hope some M 108
now i felt less M 108
now a wide body M 108
now a road from M 108
now a great wealth M 108
not i take time M 108
not i keep these M 108
not i just sent M 108
not i even make M 108
not a well kept M 108
not a true note M 108
not a sign only M 108
not a push over M 108
not a peace plan M 108
not a paying game M 108
not a line came M 108
not a lazy life M 108
not a huge range M 108
not a hard fate M 108
not a great hope M 108
not a full third M 108
not a breath will M 108
nor a young lady M 108
now i just live M 107
not a single core M 107
not a good bird M 107
now i wish most M 106
now i think over M 106
now i think best M 106
now i felt there M 106
now i feel dull M 106
now a fine youth M 106
not i look back M 106
not i have those M 106
not a true ratio M 106
not a true plan M 106
not a true heir M 106
not a single gate M 106
not a single cult M 106
not a single beach M 106
not a mind like M 106
not a losing game M 106
not a hard game M 106
not a hard duty M 106
not a great case M 106
not a good birth M 106
not a fool among M 106
not a fine book M 106
not a date date M 106
not a clear meaning M 106
not a breath moving M 106
nor a gray hair M 106
now a full three M 105
not i just save M 105
not a single loop M 105
not a love note M 105
not a great tree M 105
now i will land M 104
now i will ever M 104
now i turn unto M 104
now a gift from M 104
not i will just M 104
not i want your M 104
not a truth only M 104
not a single left M 104
not a single fool M 104
not a single cake M 104
not a single angle M 104
not a reading from M 104
not a poor young M 104
not a nest there M 104
not a name even M 104
not a huge jump M 104
not a debt upon M 104
not a baby will M 104
nor i think there M 104
now i knew most M 103
not a crying baby M 103
now i think will M 102
now i only learn M 102
now i must clear M 102
now i knew their M 102
now i just like M 102
now i feel their M 102
now a sure hope M 102
now a great range M 102
not i think till M 102
not i must take M 102
not i make other M 102
not i like what M 102
not i just step M 102
not i have other M 102
not i fall into M 102
not i face their M 102
not i even want M 102
not i done tell M 102
not i call back M 102
not a word lest M 102
not a word been M 102
not a turn from M 102
not a theft loss M 102
not a shop left M 102
not a more kind M 102
not a more full M 102
not a meaning plus M 102
not a mark left M 102
not a made book M 102
not a living gift M 102
not a good seed M 102
not a good data M 102
not a full mile M 102
not a free realm M 102
not a form only M 102
not a case dealing M 102
not a call upon M 102
not a bank will M 102
nor a fine lady M 102
now i hand over M 101
nor a single half M 101
now i will pull M 100
now i take from M 100
now i part from M 100
now i only work M 100
now i come like M 100
now a very clean M 100
now a days used M 100
not i your best M 100
not i just sell M 100
not i ever just M 100
not a view upon M 100
not a very dull M 100
not a move back M 100
not a look hope M 100
not a just debt M 100
not a good code M 100
not a full cure M 100
not a door into M 100
not a deep truth M 100
not a clear loss M 100
not a baby born M 100
nor i were sure M 100
nor a third part M 100
now i speak only M 99
now i have well M 99
not i just left M 99
not a reading book M 99
not a great fire M 99
now i seek your M 98
now i made sure M 98
now i have eased M 98
now a very able M 98
now a vast army M 98
now a third type M 98
now a third kind M 98
now a huge mass M 98
now a good range M 98
now a code word M 98
not i will well M 98
not i made like M 98
not i know those M 98
not i been away M 98
not a wild girl M 98
not a union town M 98
not a toll road M 98
not a theory like M 98
not a span free M 98
not a lady move M 98
not a high rise M 98
not a high range M 98
not a good mate M 98
not a full peace M 98
not a form used M 98
not a fine copy M 98
not a bold step M 98
not a bird there M 98
not a baby when M 98
nor a young girl M 98
nor a single sign M 98
nor a pure heart M 98
nor a plus sign M 98
not a truth more M 97
now i will meet M 96
now i make open M 96
now a ready means M 96
now a good home M 96
not i think find M 96
not i must give M 96
not i make your M 96
not i have only M 96
not i give away M 96
not i also tell M 96
not a young tree M 96
not a word else M 96
not a word come M 96
not a very taking M 96
not a very sick M 96
not a true debt M 96
not a single bare M 96
not a room free M 96
not a pass from M 96
not a living spring M 96
not a link left M 96
not a home like M 96
not a hero make M 96
not a good self M 96
not a good hero M 96
not a girl living M 96
not a gain from M 96
not a fine life M 96
not a dull life M 96
not a city hall M 96
not a book here M 96
nor a good deed M 96
nor a fair hearing M 96
not a true risk M 95
not a true living M 95
now i will name M 94
now i think many M 94
now i only look M 94
now i kept some M 94
now i just send M 94
now i hope will M 94
now i have those M 94
now a line from M 94
now a great town M 94
not i think like M 94
not i speak truth M 94
not i look upon M 94
not i just hire M 94
not i help poor M 94
not a work dealing M 94
not a single vast M 94
not a single late M 94
not a means along M 94
not a last step M 94
not a health plan M 94
not a great saving M 94
not a great faith M 94
not a good union M 94
not a good lord M 94
not a good length M 94
not a fish left M 94
not a fair time M 94
not a fair blow M 94
not a fact among M 94
not a code made M 94
nor i were born M 94
nor a single bird M 94
not a mating call M 93
not a good wind M 93
not a fact there M 93
now i only take M 92
now i must side M 92
now a wide open M 92
now a dark gray M 92
now a cold bare M 92
now a body moving M 92
not i feel some M 92
not i feel just M 92
not i been living M 92
not a word says M 92
not a week gone M 92
not a vast range M 92
not a true mass M 92
not a single ratio M 92
not a sign like M 92
not a shop girl M 92
not a safe play M 92
not a safe hiding M 92
not a safe ally M 92
not a nice term M 92
not a moving line M 92
not a mild case M 92
not a living will M 92
not a living bird M 92
not a hero from M 92
not a hard kick M 92
not a great port M 92
not a great living M 92
not a gift over M 92
not a full name M 92
not a fact open M 92
not a clean city M 92
not a been here M 92
nor i will take M 92
nor a very rich M 92
nor a maid will M 92
nor a gift from M 92
not a trip down M 91
not a single made M 91
not a past life M 91
now i must love M 90
now i love truth M 90
now i knew whom M 90
now a very bold M 90
now a rich young M 90
now a good body M 90
not i take into M 90
not i make good M 90
not i give just M 90
not i feel great M 90
not i been just M 90
not a worm like M 90
not a word other M 90
not a time like M 90
not a text like M 90
not a single hall M 90
not a single flow M 90
not a sign even M 90
not a root word M 90
not a post from M 90
not a more true M 90
not a look back M 90
not a live band M 90
not a life full M 90
not a lady when M 90
not a great duty M 90
not a dire threat M 90
not a case upon M 90
not a body from M 90
nor i were hurt M 90
nor a single ship M 90
now a heavy fine M 89
not a well made M 89
not a true tail M 89
not a great wind M 89
not a great test M 89
now i walk into M 88
now i must plan M 88
now i just said M 88
now i just pray M 88
now i just make M 88
now i have torn M 88
now i have room M 88
now i find such M 88
now i dare call M 88
now i come upon M 88
now a huge part M 88
now a good four M 88
now a dark mass M 88
not i just kick M 88
not i just join M 88
not i ever look M 88
not i ever keep M 88
not i even made M 88
not i been hurt M 88
not a warm month M 88
not a true wild M 88
not a true half M 88
not a true cure M 88
not a trip into M 88
not a tree worth M 88
not a term having M 88
not a single curl M 88
not a pure icon M 88
not a pure evil M 88
not a nice walk M 88
not a nice room M 88
not a nice dream M 88
not a more pure M 88
not a means used M 88
not a hard book M 88
not a great wealth M 88
not a great ship M 88
not a gift like M 88
not a free call M 88
not a fire risk M 88
not a deep breath M 88
not a bare form M 88
nor i know when M 88
nor a single hour M 88
not i need more M 87
now i will feed M 86
now i will away M 86
now i well knew M 86
now i walk down M 86
now i pray your M 86
now i only care M 86
now i must step M 86
now i know even M 86
now i knew three M 86
now i felt safe M 86
now a word used M 86
now a single arch M 86
now a huge pile M 86
now a home only M 86
now a heavy body M 86
now a great pile M 86
now a great name M 86
not i want what M 86
not i heard some M 86
not i ever teach M 86
not i even kiss M 86
not a wrong turn M 86
not a week during M 86
not a tree more M 86
not a town from M 86
not a sure fire M 86
not a step moving M 86
not a north wind M 86
not a nice life M 86
not a heavy fill M 86
not a great span M 86
not a great rise M 86
not a code book M 86
not a clear part M 86
not a body moving M 86
nor a high hill M 86
not i done more M 85
not a huge town M 85
not a hard fall M 85
not a bird call M 85
now i will sell M 84
now i will pour M 84
now i think their M 84
now i take time M 84
now i must pull M 84
now i must only M 84
now i cant talk M 84
now a wind went M 84
now a third part M 84
now a huge hole M 84
now a hold upon M 84
now a fine girl M 84
not i will pray M 84
not i seen those M 84
not i know best M 84
not i just gone M 84
not i also know M 84
not a week back M 84
not a very ugly M 84
not a very huge M 84
not a very aged M 84
not a truth also M 84
not a time line M 84
not a single sort M 84
not a single moan M 84
not a show girl M 84
not a safe form M 84
not a pure theory M 84
not a pure nothing M 84
not a living hell M 84
not a great hall M 84
not a great bird M 84
not a gift shop M 84
not a free word M 84
not a form into M 84
not a fine bird M 84
not a fair wind M 84
not a fair show M 84
not a fair means M 84
not a face from M 84
not a dull word M 84
not a drop runs M 84
not a cold heart M 84
not a clear road M 84
not a city plan M 84
not a been able M 84
not a back room M 84
not i want more M 83
now i will note M 82
now i will jump M 82
now i urge those M 82
now i must rely M 82
now i knew also M 82
now i felt what M 82
now a third full M 82
now a full range M 82
now a dream only M 82
not i very well M 82
not i think ever M 82
not i take just M 82
not i like some M 82
not i hope think M 82
not i find such M 82
not i ever take M 82
not a word went M 82
not a wind from M 82
not a trap into M 82
not a third sort M 82
not a stem bent M 82
not a single wash M 82
not a single icon M 82
not a road sign M 82
not a rare tree M 82
not a more idle M 82
not a month away M 82
not a living ideal M 82
not a jail term M 82
not a hero among M 82
not a great fish M 82
not a game here M 82
not a full faith M 82
not a four years M 82
not a fact when M 82
not a case form M 82
not a born angel M 82
not a bird like M 82
nor i have nothing M 82
nor a single hint M 82
nor a line from M 82
now i work from M 80
now i will here M 80
now i take these M 80
now i look just M 80
now i knew when M 80
now i knew some M 80
now a rare form M 80
now a good mile M 80
now a days some M 80
not i slow down M 80
not i send some M 80
not i seem like M 80
not i gone back M 80
not i came home M 80
not a wise will M 80
not a will like M 80
not a waking dream M 80
not a town much M 80
not a third full M 80
not a step upon M 80
not a single rest M 80
not a single loud M 80
not a single jump M 80
not a single hearing M 80
not a ship upon M 80
not a risk when M 80
not a rich living M 80
not a line worth M 80
not a huge room M 80
not a great cost M 80
not a good love M 80
not a good cure M 80
not a good angle M 80
not a fool take M 80
not a deep lake M 80
not a deep dark M 80
not a clue left M 80
not a boring book M 80
nor i were well M 80
nor i were ready M 80
nor a wild beast M 80
nor a single hair M 80
nor a mind more M 80
nor a great part M 80
nor a good word M 80
not i live there M 79
not a face there M 78
not a data file M 74
not a single kill M 69
not a single hold M 66
now i care more M 65
not a single wind M 64
not a girl look M 58
not i stay down M 56
not a single fast M 56
not a hair less M 55
not a full four M 55
not a data flow M 55
not a single five M 54
not a heart there M 54
not a fair dealing M 54
not i walk over M 52
not a good five M 52
now a much used M 51
nor a very well M 49
not a month past M 48
not a hard hand M 48
now i look over M 47
not a true ideal M 47
not a sign there M 46
not a good bank M 46
now i find only M 45
not a single snow M 45
not a pure mind M 45
not a once only M 44
not a just rule M 44
now i went down M 43
now a more even M 43
now a dull grey M 43
not a young male M 43
not a true three M 43
not a great self M 43
nor a single living M 43
now i work part M 42
now a mile deep M 42
not a sore back M 42
not a single ocean M 42
not a laying down M 42
not a good bearing M 42
not a true third M 41
now i went there M 40
now i live there M 40
not a fact worth M 40
not a whit more D 36369
not a living soul D 28296
not a whit less D 27435
not a single soul D 19308
not a single shot D 11196
not a single star D 6740
not a single vote D 6520
not a mere form D 5244
not a single spot D 5050
not a soul there D 4802
not a cent more D 4622
not a soul will D 4578
not a mere theory D 4424
not a soul knew D 4352
not a mere name D 4344
not a single atom D 3799
not a single boat D 3474
not a good wife D 3448
not a mere dream D 3444
not a soul here D 3352
not a foot from D 3328
not a good cook D 3326
not a mere means D 3300
not a good shot D 3051
not a soul came D 3040
not a single foot D 3029
not a mere copy D 3020
not a single inch D 3014
not a soul left D 2926
not a single acre D 2847
not a single cent D 2570
not a yard from D 2556
not a single nail D 2500
not a single coin D 2499
not a whit from D 2426
nor a single star D 2408
not a peep from D 2400
not a cash flow D 2335
not a soul among D 2262
not a true bill D 2244
not a mere word D 2226
not a cent less D 2218
not a mere fact D 2209
not a hard task D 2188
not a pipe dream D 2127
not a mere play D 2116
not a living wage D 2092
not a mere idle D 2090
not a foot away D 1911
not a yard away D 1907
not a cent left D 1814
not a single bomb D 1806
not a mere part D 1776
not a lien upon D 1760
not a mere echo D 1732
not a very tall D 1700
not a gold mine D 1587
not a mere ideal D 1572
not a mere whim D 1570
not a rent made D 1562
not a sine wave D 1559
not a mere tool D 1528
not a great singer D 1508
not a single tooth D 1473
not a free ride D 1444
not a drug user D 1440
not a mere mass D 1436
not a single bill D 1394
not a good tool D 1388
not a mere sham D 1266
not a single sail D 1213
not a good singer D 1210
not a spot upon D 1202
not a great film D 1178
not a very firm D 1171
not a single pane D 1154
not a single firm D 1146
not a bolt from D 1122
not a good joke D 1112
not a single weed D 1107
not a mere book D 1072
not a single tank D 1069
not a pure race D 1068
not a mere sign D 1062
not a great cook D 1058
not a mere case D 1039
not a whit what D 1026
not a soul ever D 1012
not a soul must D 1006
now a mere ruin D 986
not a mere rule D 985
not a single farm D 957
not a single rock D 955
not a mere list D 954
not a mere body D 950
not a rock star D 937
not a single race D 936
not a soul from D 934
not a good spot D 934
not a great eater D 926
not a mere show D 922
not a single gold D 917
not a single lamp D 912
not a single wave D 906
not a good film D 900
now i have paid D 888
not a single gene D 884
not a single yard D 875
not a mere wish D 872
not a damn fool D 868
not a jury trial D 862
not a mere nothing D 858
not a single mill D 852
not a pure sine D 843
not a mere mode D 836
not a single peer D 835
not a shot from D 818
not a mere game D 814
not a bathing suit D 812
not a true cyst D 810
not a shot came D 788
not a slam dunk D 787
not a single iron D 750
not a film star D 742
not a single canoe D 739
not a good bill D 736
not a very thick D 732
not a single wall D 731
not a diet book D 726
not a single pole D 724
not a single film D 722
not a pint left D 706
not a mere tale D 705
not a soul living D 700
not a single damn D 694
not a mere string D 686
not a very tidy D 682
not a mere slip D 682
not a mere threat D 680
not a theme park D 676
not a single tent D 674
not a mere freak D 664
not a foot high D 658
not a single tool D 656
not a single gleam D 650
not a single bite D 650
now a city park D 636
not a true lease D 631
not a single dish D 628
not a single ball D 623
not a mere lack D 622
not a tooth left D 618
not a single hoof D 609
not a mere pious D 595
not a palm tree D 586
not a soul took D 584
not a soul went D 580
not a single tone D 574
not a mere epic D 572
not a single rose D 570
not a firm rule D 570
not a card game D 570
now a gaping hole D 568
not a mere gift D 568
now a lame duck D 562
not a very loving D 560
not a great soul D 560
not a giant step D 560
not a single sale D 552
not a single steam D 546
not a single bush D 544
not a lone wolf D 538
not a face card D 534
not a damn word D 532
now i will ride D 528
not a single scar D 524
not a mere code D 522
not a single rail D 521
not a lost soul D 520
not a soul else D 518
not a mere work D 516
not a cent from D 514
not a soul upon D 488
not a roof over D 474
not a single task D 472
now i will shew D 466
not a single drug D 466
not a foot deep D 464
not a very cheap D 462
not a single fort D 462
not a single bale D 462
not a soul moving D 460
not a mere self D 452
not a good crop D 444
not a single suit D 440
not a damn cent D 438
not a pure tone D 436
not a jazz singer D 434
not a damn soul D 432
not a test tube D 428
not a single club D 428
not a ball game D 428
now a rising star D 423
not a very sexy D 422
not a mere side D 422
not a bird flew D 422
not a soul save D 420
not a single finger D 418
not a mere pose D 418
not a joke when D 416
now i have sold D 414
not a true moss D 412
not a sail upon D 412
not a foot more D 406
not a shot must D 404
not a great task D 404
not a cash crop D 403
not a single lump D 402
not a single cart D 400
not a soul down D 398
not a single tusk D 398
not a mere girl D 398
not a loan from D 398
not a true pine D 396
not a mere joke D 396
not a true rice D 394
not a cock crew D 394
not a great wine D 392
not a fair race D 392
not a mere hope D 390
not a freak show D 390
not a spot left D 386
not a single card D 386
not a wild boar D 380
not a single loaf D 380
not a mere love D 380
not i just throw D 378
not a single radio D 378
not a soul coming D 376
not a shot will D 372
not a good fuel D 371
not a soul whom D 370
not a mere unit D 370
not a single nook D 366
not a single sigh D 364
not a heavy eater D 363
not a mere living D 361
not a pious hope D 358
not a soul said D 356
not a cent will D 354
not a single string D 350
not a yard deep D 348
not a single roof D 348
not a drip from D 348
not a great star D 347
not a pine tree D 346
now i have news D 342
now a dining room D 342
not a mere flux D 342
not a foot wide D 341
not a soul heard D 340
not a sigh among D 340
not a tool used D 334
not a foot will D 332
not a mere void D 331
not a tall tale D 330
not a single plot D 330
not a good soil D 328
not a gold coin D 327
not a cash item D 327
not a single deer D 326
not a roof left D 326
not i done tole D 324
not a good drug D 324
now a ruling body D 322
not a mere union D 322
not a cent when D 322
not a born singer D 320
not a single slip D 318
not a single bond D 318
not a nose among D 318
not a dining room D 318
not a dark spot D 318
not a single hymn D 317
not a true goat D 314
not a tall tree D 314
not a single flat D 313
not a single cash D 312
not a mere loss D 312
not a main theme D 312
not a whit like D 310
now a lien upon D 308
not a single theme D 306
not a mere text D 306
now a rising young D 304
not a single blot D 304
not a cash cost D 304
not a single wife D 302
not a safe drug D 302
not a mere pawn D 302
not a peep came D 300
not a dime more D 299
now i must pack D 298
not a null string D 298
not a great shot D 298
not a yard high D 297
not a single jute D 297
not a sunk cost D 294
not a single camp D 294
not a pious wish D 294
not a mere single D 294
not a cheap form D 294
not a single news D 293
not a single crop D 292
not a mere wild D 292
not a true sine D 291
not a single loan D 291
now a mere form D 290
not a tall girl D 290
not a single tiny D 290
not a mere cold D 290
now i have writ D 289
not a true wife D 288
not a mere type D 287
not a soul made D 286
not a single pearl D 286
not a peep show D 285
not a very rosy D 284
not a star left D 284
not a mining town D 284
not a great gulf D 284
now a foot deep D 283
now a mere name D 282
not a mold into D 282
not a single joke D 280
not a good grip D 280
not a giant like D 280
not a flat disc D 280
not a mere line D 279
not a single tile D 278
not a news item D 278
not a single clod D 276
nor a roof over D 276
not a true palm D 274
not a single wink D 272
not a food crop D 272
nor a living soul D 272
now a tall young D 270
not a true crab D 270
not a blot upon D 270
not a single limb D 266
not a mere lien D 266
now i will throw D 264
not a mite more D 264
not a firm will D 264
not a true fern D 260
not a soft spot D 260
not a single taxi D 260
not a mere duty D 260
now a mere mass D 258
not a single wisp D 258
not a roll call D 256
not a mere life D 256
not a fine joke D 256
not a think tank D 255
not a very pious D 254
not a true sale D 254
not a soul were D 254
not a single mule D 254
not a rock band D 254
not a single wire D 252
not a puling love D 252
not a fair coin D 252
not a single coal D 251
not a loving wife D 250
not a mere mask D 248
not a farm girl D 248
not a soul even D 246
not a single dime D 246
not a flat rate D 246
not a yard wide D 244
not a mere airy D 244
not a good diet D 244
not a mere lump D 243
not a coal mine D 243
now a wide gulf D 242
not a mere band D 242
not a cheap date D 241
now i must ride D 240
not a sigh from D 240
not a mere raid D 240
not a fish leaping D 240
not a pale copy D 238
not a lame duck D 238
not a good card D 238
not a cash sale D 238
not a mere term D 237
now a great gulf D 236
not i look okay D 236
not a boom town D 236
not a single wolf D 234
not a single goat D 232
not a mere saying D 232
not a good boss D 232
not a nail used D 230
not a hard slap D 230
not a mere city D 229
now a pale blue D 228
not a time bomb D 228
not a clean spot D 228
not a mowing idiot D 227
now a golf club D 226
not a folk tale D 226
not a fast boat D 226
not a soul mate D 225
not a mock trial D 224
not a heavy task D 224
not a folk singer D 224
not a dumb beast D 224
not a single bolt D 222
not a mere item D 221
not a true lily D 220
not a great boon D 220
nor a mere means D 220
not a wash sale D 218
not a single lens D 218
not a mere tour D 218
not a boat upon D 218
not a single chip D 216
not a good ball D 215
not a germ cell D 214
not a clap from D 214
now a dirt road D 212
not i paid more D 212
not a tooth even D 212
not a seen gaze D 210
not a mere loan D 210
not a golf club D 210
not a dime left D 210
not a coin left D 210
nor a single soul D 210
not a single pope D 208
not a boat left D 208
not a shot left D 206
not a shot having D 206
not a jazz band D 206
not a giant among D 206
not a single peso D 205
not a single palm D 205
now a tall girl D 204
not a soul paid D 204
not a single tune D 204
not a single crew D 204
not a mere flat D 204
not a heavy crop D 204
not a half inch D 204
not a book club D 204
now i will slay D 202
not a wild goat D 202
not a star like D 202
not a mere make D 202
not a whit when D 200
not a sigh came D 200
not a mere time D 200
not a mere hole D 200
not a good eater D 200
not a text string D 198
not a stir from D 198
not a quiz show D 198
not a mere link D 198
not a soul gave D 196
not a single sane D 196
not a sail came D 196
not a mite like D 196
not a soul need D 195
not a true loan D 194
not a true cone D 194
not a single thief D 194
not a single pine D 194
not a single gram D 194
not a folk hero D 194
not a clean bill D 194
not a wall left D 192
not a soul sees D 192
not a flat disk D 192
not a cheap shot D 192
not a cheap food D 192
not a bearing wall D 191
now a tall youth D 190
not a tall race D 190
not a firm hold D 190
not a clog upon D 190
not a waning moon D 189
not a true bulb D 188
not a single park D 188
not a safe spot D 188
not a free soul D 188
not a clan name D 187
now i will avow D 186
not a single crow D 186
not a less vent D 186
not i thine only D 185
not a single vine D 185
not a single skin D 184
not a single fowl D 184
not a rich soil D 184
not a fish eater D 184
not a firm body D 184
not a clinging vine D 184
not a soul have D 182
not a good soul D 182
not a gleam from D 182
not a cook book D 182
not a bare spot D 182
not a true coal D 181
not a rude word D 179
not a root node D 178
not a good tone D 178
not a good boat D 178
not a mere reading D 177
not a stir among D 176
not a single spear D 176
not a mere sect D 176
not a firm grip D 176
nor a mere youth D 176
not a single roll D 175
not a single throb D 174
not a mere vain D 174
not a mere fool D 173
not a true rent D 172
not a mere dull D 172
not a mere angel D 172
not a lisp have D 172
not a single tube D 170
not a single pipe D 170
not a mining camp D 170
not a baby doll D 170
not a cream puff D 169
now a firm part D 168
not a single vein D 168
not a mere trial D 168
not a mere five D 168
not a single wreath D 166
not a single reef D 166
not a bulk sale D 166
not i just ride D 164
not a huge task D 164
not a foot left D 164
not a fair wage D 164
now a great herd D 162
not a wolf left D 162
not a snob like D 162
not a single duck D 162
not a single dock D 162
not a high wall D 162
not a good leaving D 162
not a finger must D 162
now a foot high D 161
now a mere thread D 160
now a great wave D 160
not a true star D 160
not a single ruling D 160
not a single pool D 160
not a single clap D 160
not a mere beast D 160
not a hair singed D 160
nor a single spot D 160
not a porn star D 159
not a true dome D 158
not a single herb D 158
not a ready sale D 158
not a mere cell D 158
not a foot less D 158
not a firm faith D 158
not a dull clod D 158
nor a duke from D 158
now a poor crab D 156
not i look cute D 156
not a young buck D 156
not a single berth D 156
not a mere mark D 156
not a foot race D 156
not a single boot D 155
not a side dish D 154
not a true horn D 152
not a soul more D 151
not a single loom D 151
not a gold rush D 151
not a thief like D 150
not a silk gown D 150
not a rope among D 150
not a jury case D 150
not a mere will D 149
not a single wasp D 148
not a rill there D 148
not a good news D 148
not a full crop D 148
not a cheap city D 148
not a single sous D 147
not a more loving D 147
now i have eyed D 146
not a sore spot D 146
not a sneak thief D 146
not a mere test D 146
not a good plot D 146
not a drug will D 146
nor a wave upon D 146
not a single frog D 145
not i just slip D 144
not a single wage D 144
not a single twinge D 144
not a single golf D 144
not a single dose D 144
not a mere truth D 144
not a mere jest D 144
not i just pack D 142
not a wide gulf D 142
not a star trek D 142
not a single rite D 142
not a single germ D 142
not a mere longing D 142
not a hard shot D 142
not a hard disk D 142
not a grim idol D 142
not a great ball D 142
not a good wine D 142
not a true pope D 141
not a true folk D 141
not a sour note D 140
not a nice joke D 140
not a hick town D 140
not a mere three D 139
not a mere bird D 139
now a fine farm D 138
not a very rude D 138
not a single cafe D 138
not a clean dish D 138
not a cast iron D 138
not a cash fund D 138
not a single giant D 137
not a mere post D 137
not a trial jury D 136
not a rope left D 136
not a health club D 136
not a golf ball D 136
not a dumb jock D 136
not a single rood D 135
not a damn what D 135
now i have dame D 134
not a work camp D 134
not a single pious D 134
not a single cock D 134
not a single bull D 134
not a mere plan D 134
not a high wage D 134
not a high rank D 134
not a free vote D 134
not a wink last D 132
not a true tick D 132
not a sure crop D 132
not a single raid D 132
not a mere singer D 132
not a great joke D 132
not a good bull D 132
not a canoe came D 132
not a task like D 130
not a single wine D 130
not a single sack D 130
not a single herd D 130
not a single calf D 130
not a sick joke D 130
not a mere ruse D 130
now a flying gull D 129
not a good camp D 129
now a firm ally D 128
not a soul come D 128
not a single node D 128
not a sail bent D 128
not a mere call D 128
not a free soil D 128
not a single serf D 127
not a mere half D 127
not a wild card D 126
not a slur upon D 126
not a single pack D 126
not a single ford D 126
not a single clan D 126
not a mere wrong D 126
not a mere spot D 126
not a mere free D 126
not a mere bald D 126
not a menu item D 126
not a loan word D 126
not a good mood D 126
not a good farm D 126
not a firm base D 126
now a lost soul D 124
now a firm hold D 124
not a single duke D 124
not a mere zone D 124
not a mere pile D 124
not a dash cent D 124
not a zoning case D 122
not a wild duck D 122
not a wife like D 122
not a true soil D 122
not a sure shot D 122
not a single silk D 122
not a single media D 122
not a mere step D 122
not a mere hearing D 122
not a mere cult D 122
not a hoof left D 122
not a great spot D 122
not a soul hurt D 120
not a shot took D 120
not a mere want D 120
not a mere pair D 120
not a heavy yoke D 120
not a great chef D 120
not a good race D 120
not a coin less D 120
nor a wren find D 120
not a soul like D 118
not a soul been D 118
not a mere room D 118
not a mere army D 118
not a live wire D 118
not a good dish D 118
not a good chap D 118
not a foot thick D 118
not a diet plan D 118
not a single bust D 117
not a mere hill D 117
not a mere anti D 117
not a veto over D 116
not a spot more D 116
not a soup bowl D 116
not a slang term D 116
not a single hook D 116
not a single desk D 116
not a singer like D 116
not a firm hand D 116
not a soul only D 114
not a single bulb D 114
not a rock singer D 114
not a mere youth D 114
not a finger move D 114
not a clear shot D 114
not a yard more D 113
not a task free D 112
not a single sect D 112
not a single cook D 112
not a sale made D 112
not a mere faith D 112
not a mere debt D 112
not a mere cheat D 112
not a loving heart D 112
not a high tone D 112
not a full vote D 112
not a chat room D 112
not a boot camp D 112
not a mere semi D 111
not a mere land D 111
not a single piano D 110
not a single dent D 110
not a single bleat D 110
not a poor soul D 110
not a mere sale D 110
not a mere rite D 110
not a jerk like D 110
not a cent coming D 110
not a film buff D 109
not a well paid D 108
not a thick book D 108
not a task done D 108
not a soul daring D 108
not a rest camp D 108
not a peach tree D 108
not a moss upon D 108
not a mere pipe D 108
not a mast left D 108
not a love duel D 108
not a loom idle D 108
not a farm hand D 108
not a dual union D 108
not a cent went D 108
not a single peep D 107
not a mere giving D 107
now a film star D 106
not a thief till D 106
not a soul hears D 106
not a single spar D 106
not a single mast D 106
not a single hull D 106
not a punk band D 106
not a mere flow D 106
not a joke left D 106
not a great feast D 106
not a gift loan D 106
not a deep tone D 106
not a damn good D 106
not a cheap jack D 106
now a milk cart D 104
now a mere tool D 104
not i your wife D 104
not i drum well D 104
not a work ethic D 104
not a single pace D 104
not a single gull D 104
not a safe boon D 104
not a poor chap D 104
not a mere drop D 104
not a mere atom D 104
not a good vote D 104
not a good thief D 104
not a giant have D 104
not a dumb girl D 104
not a cuss word D 104
not a cent over D 104
not a true gold D 103
not a hard rock D 103
not a bald eagle D 103
now a very tall D 102
now a fair fist D 102
not i must skin D 102
not a very sane D 102
not a vast gulf D 102
not a true vein D 102
not a true rose D 102
not a task only D 102
not a single clay D 102
not a mere oral D 102
not a junk food D 102
not a huge joke D 102
not a high rent D 102
not a gaping hole D 102
not a cool spot D 102
not a clear spot D 102
not a cell wall D 102
nor a good wife D 102
not a single pore D 101
not a single fund D 101
now a sunk cost D 100
now a living soul D 100
not a wail from D 100
not a union jack D 100
not a true bond D 100
not a stingy bone D 100
not a single diet D 100
not a mess like D 100
not a hard news D 100
not a good throw D 100
not a film made D 100
not a drug like D 100
not a club like D 100
not a boat from D 100
not a base camp D 100
not a ball gown D 100
not a great fund D 99
now i must pore D 98
now a very rising D 98
now a pale gray D 98
now a north pole D 98
now a mere nothing D 98
now a mere dull D 98
not a wine bush D 98
not a whit their D 98
not a true race D 98
not a true drug D 98
not a spot from D 98
not a slut like D 98
not a single tape D 98
not a single singer D 98
not a pure spin D 98
not a pious mind D 98
not a paying crop D 98
not a pale nose D 98
not a pack mule D 98
not a mere rising D 98
not a main dish D 98
not a love feast D 98
not a lone star D 98
not a firm date D 98
not a damn clue D 98
not a cheap book D 98
not a boat ever D 98
not a single pill D 97
not a great jazz D 97
now i will comb D 96
now a mere three D 96
not a single vase D 96
not a single tuft D 96
not a single para D 96
not a nail upon D 96
not a mink coat D 96
not a mere wall D 96
not a mere shop D 96
not a mere high D 96
not a mere adding D 96
not a joke book D 96
not a good sale D 96
not a finger will D 96
not a dumb book D 96
not a city park D 96
nor a mere part D 96
not i tell mama D 95
not a good club D 95
now i give alms D 94
now a firm grip D 94
not i dote upon D 94
not a young wife D 94
not a single mining D 94
not a single lamb D 94
not a shot told D 94
not a mere baby D 94
not a dime less D 94
not a boss over D 94
not a bite will D 94
now a folk hero D 93
not a very taxing D 93
not a soul over D 93
now a life peer D 92
not a wife whom D 92
not a vote will D 92
not a true hawk D 92
not a true bass D 92
not a tiny baby D 92
not a soul having D 92
not a single tire D 92
not a single rope D 92
not a single beer D 92
not a single axis D 92
not a pane left D 92
not a nice chap D 92
not a mere coup D 92
not a mere club D 92
not a heavy clay D 92
not a foot over D 92
not a flat spot D 92
not a club foot D 92
not a cheap item D 92
not a bald spot D 92
nor a whit more D 91
not i take clay D 90
not a wife from D 90
not a true wolf D 90
not a true skin D 90
not a true limb D 90
not a suit upon D 90
not a single ripe D 90
not a single peach D 90
not a single coil D 90
not a rising tide D 90
not a rich dish D 90
not a more firm D 90
not a mere pays D 90
not a mere open D 90
not a mere blur D 90
not a loon among D 90
not a high dose D 90
not a great race D 90
not a dumb show D 90
not a drug case D 90
not a bomb fell D 90
not a peer only D 89
nor i paid much D 89
now i will dive D 88
not a wife have D 88
not a single moor D 88
not a single friar D 88
not a single duel D 88
not a mere mood D 88
not a mere hero D 88
not a jury will D 88
not a good tune D 88
not a flat roof D 88
now a dull ache D 87
not a star wars D 87
not a mere coming D 87
now a rising tide D 86
now a boom town D 86
not a wimp like D 86
not a single mite D 86
not a race boat D 86
not a pale face D 86
not a more pious D 86
not a mere weaving D 86
not a mere walk D 86
not a mere soul D 86
not a mere herd D 86
not a mere fine D 86
not a drug bust D 86
not a chip from D 86
not a back yard D 86
nor a pure race D 86
now a prey from D 84
now a mere mess D 84
now a great throng D 84
not a true deer D 84
not a true clay D 84
not a single voting D 84
not a single fork D 84
not a single clew D 84
not a rape case D 84
not a post card D 84
not a poor joke D 84
not a nice grin D 84
not a mere wave D 84
not a mere theme D 84
not a mere task D 84
not a mere foil D 84
not a loan made D 84
not a fair ruse D 84
nor a waving flag D 84
nor a single sail D 84
nor a bird flit D 84
now i took note D 82
now i have sunk D 82
now a mere five D 82
now a hard task D 82
now a fine crop D 82
not a thief when D 82
not a soul know D 82
not a single jury D 82
not a single buoy D 82
not a rock upon D 82
not a loaf left D 82
not a gory tale D 82
not a good barn D 82
not a full beard D 82
not a foot wrong D 82
not a flat tire D 82
nor a bent tube D 82
now i felt numb D 80
now a thick mist D 80
now a hush fell D 80
now a cash crop D 80
not a true oval D 80
not a solo singer D 80
not a single slab D 80
not a single byte D 80
not a mouth less D 80
not a loan will D 80
not a hard drug D 80
not a full crew D 80
not a cook like D 80
nor a single foot D 80
nor a gold mine D 80
not a mere well D 77
not a pure bred D 75
not a mere taking D 73
not a goal node D 67
not a single paid D 66
not a mere past D 66
now a mere farm D 58
not a mere hack D 57
not a mere wage D 54
not a mere hand D 54
not a true rock D 51
not a tearing down D 51
not a single folk D 51
not a cast shoeing D 51
not a mere face D 50
not a mere bread D 50
not a mere fringe D 48
not a single sand D 47
not a rose bush D 45
not a full semi D 45
not a moving cube D 44
not a mere camp D 44
now a pale pink D 43
not a whit over D 43
not a single puff D 43
now a single farm D 42
not a mere zero D 42
not a life raft D 42
not a single horn D 41
not a mere four D 41
