nonsense to me . M 3662
nonsense of it . M 2406
normally do so . M 1836
northwest of it . M 1595
northwest of us . M 991
nonsense it is . M 728
nonsense it is ! M 706
nonsense in it . M 662
normally do it . M 388
normally to it . M 314
nonsense to me ! M 306
nonsense to me ? M 296
nonsense to us . M 272
nonsense in it ! M 232
normally on it . M 194
nothingness of it . M 178
normally go to . M 158
nobleman he is . M 158
nonsense to it . M 135
normally to be . M 120
northwest of me . M 116
nonsense to it ? M 108
nourishing to me . M 105
normally be so . M 104
nonsense at me . M 104
nonsense of it ? M 100
nothingness to it . M 94
normally in it . M 84
nobleman or king . M 82
nourishing to eat . M 64
nourishing it is . M 58
