periods of a few M 19582
person of a man M 11521
person in a way M 8926
periods of a year M 6730
periods in a year M 5822
person is a man M 5523
person or a few M 3608
person in a new M 3278
perish in a few M 2701
person is a being M 2602
person in a long M 2092
periods of a day M 2081
peopled by a few M 1952
person in a few M 1946
perish to a man M 1857
permit me a few M 1757
person to a new M 1748
person as a man M 1732
person as a being M 1650
person or a team M 1625
person as i was M 1592
person is a real M 1561
person in a job M 1550
person is a new M 1520
person in a real M 1376
person in a fit M 1360
person as a way M 1358
person of a new M 1338
person in a year M 1317
perish in a day M 1286
person is a non M 1270
person or a bad M 1175
person to a job M 1098
periods in a day M 1049
person in a day M 1024
person as i had M 986
person of a son M 935
person if i had M 932
peoples in a way M 924
person in a low M 921
person is a fit M 913
person of a boy M 880
person on a low M 844
person in a bad M 804
person is a law M 776
periods of a man M 773
person in a non M 772
person on a team M 752
person in a big M 728
person of a low M 710
person is a bad M 706
person is a way M 700
person or a dog M 696
person of a non M 694
person is a key M 674
person as a new M 664
person or a new M 638
peopled by a new M 627
periods in a man M 608
person as a real M 604
person in a one M 596
person is a bit M 590
person to a man M 582
person in a two M 582
person of a mean M 570
person in a team M 556
person in a red M 556
person or a pet M 555
person or a man M 538
person if i did M 538
person or a god M 534
periods in a way M 526
person or a non M 524
peoples of a low M 514
person in a key M 510
person on a one M 492
peoples in a new M 490
person as i can M 482
person on a job M 480
person is a myth M 480
person by a man M 480
person to a seat M 467
person of a few M 466
peoples to a new M 460
periods in a few M 456
person or a set M 451
person to a few M 450
person of a weak M 430
person if i can M 426
person is a long M 420
person in a lot M 420
person is a lot M 418
person as i may M 412
person as i did M 412
person is a boy M 398
periods of a long M 394
perish if i did M 388
peoples at a low M 388
person is a big M 384
person as a set M 384
person on a long M 382
person as a non M 378
person so i can M 370
peoples as a way M 366
person in a man M 363
person is a son M 354
person or a dead M 348
peoples in a low M 348
person of a real M 335
permit of a long M 335
person in a bar M 332
person by a long M 332
person is a set M 326
person of a sum M 324
person is a poet M 314
perish if i can M 310
person or a being M 304
person on a day M 300
permit on a fly M 299
person to a non M 293
peoples on a low M 290
permit of a man M 286
periods as a way M 286
permit of a new M 284
person or a lot M 282
peoples in a war M 282
permit of a few M 281
person of a bad M 280
person to a set M 277
person of a long M 276
peopled by a set M 272
person of a god M 269
person or a real M 250
periods at a low M 249
person on a new M 248
person is a dead M 247
person is a sin M 242
periods of a low M 241
person as a son M 240
person if i was M 238
person in a far M 237
person to a two M 235
person is a far M 231
perish in a war M 229
permit to a new M 228
person on a path M 226
person in a box M 222
person by a law M 222
person at a low M 222
person of a poet M 218
perish by a death M 218
periods as i can M 218
perish in a way M 216
person of a dead M 214
person in a poem M 214
periods of a new M 214
person at a meal M 213
person is a god M 210
person or a job M 208
person to a real M 206
person be a man M 206
peoples of a new M 202
person as a god M 201
person in a weak M 200
person to a law M 196
perish in a year M 190
person is a weak M 186
person in a top M 186
periods in a long M 184
person of a far M 178
person as a bad M 178
person of a big M 176
person is a team M 175
person to a dead M 172
person to a long M 170
person in a seat M 170
person as a key M 170
periods in a dry M 170
peoples on a new M 168
person is a near M 167
person as a fit M 165
person in a web M 164
person am i going M 164
permit of a real M 161
person or a law M 159
person in a law M 157
person at a few M 154
person or a cat M 153
person to a meal M 152
person by a few M 148
person to a low M 146
person is a one M 146
person as a and M 146
perish in a new M 144
periods in a new M 142
person in a set M 141
person on a set M 140
person on a man M 140
person or a weak M 136
person as a law M 135
person am i that M 135
person to a far M 134
person or a poem M 132
person in a war M 131
person as i now M 130
person as a boy M 130
person or a big M 128
person or a two M 125
person in a pre M 125
person in a dying M 124
person if i say M 124
person of a nun M 122
person of a job M 122
periods of a and M 122
person at a new M 120
person on a bad M 118
person is a head M 116
person do a job M 116
person as a poet M 116
person or a head M 114
person as a path M 114
peopled by a man M 114
person to a team M 112
permit me i can M 112
periods of a war M 112
periods as i may M 112
peoples is a long M 112
peoples in a few M 112
person on a pro M 111
person is a low M 110
person in a dead M 110
person at a real M 110
person as a head M 108
person in a lie M 106
person as a team M 106
person on a buy M 104
person of a and M 104
person is a bar M 104
person in a six M 104
person by a boy M 104
person as a dead M 104
person so i was M 102
person or a myth M 102
person in a sum M 102
person in a bag M 102
person is a ten M 100
person by a new M 100
permit of a low M 100
perish if i had M 100
permit to a man M 99
person or a toy M 98
person is a not M 98
periods by a few M 98
person in a dry M 94
periods on a few M 94
periods in a non M 93
person or a way M 92
person in a not M 90
perish as a dog M 90
periods at a few M 90
person at a bar M 88
person as i see M 88
peoples is a new M 88
perish as a man M 87
person in a mad M 86
peoples as a new M 86
person on a death M 84
permit me a bit M 84
perish in a dry M 84
person to a lot M 82
periods to a few M 82
person so i did M 80
person is a few M 80
periods of a weak M 80
peoples of a far M 54
person of a dear M 51
person in a lying M 46
permit of a far M 46
person of a lay M 44
person is a two M 44
person on a two M 42
periods in a two M 42
person to a one M 41
person of a being M 41
peoples in a far M 41
petals on a wet D 4706
perked up a bit D 3114
pencil or a pen D 2944
periods in a row D 1718
petiole of a leaf D 1678
perils of a long D 1594
person in a car D 1586
penned by a man D 1465
person is a liar D 909
perils of a new D 848
petals of a red D 836
pencil on a pad D 714
pension to a man D 696
person on a bus D 690
pension of a few D 654
person on a bed D 544
pencil on a leaf D 506
peasant is a man D 504
pencil on a bit D 450
perils of a lee D 430
pepper in a jar D 400
pebble in a shoe D 390
perils of a war D 388
pelvis of a man D 381
petrol in a car D 370
pension of a year D 352
person in a bed D 338
pencil on a map D 338
pelted by a mob D 338
person or a car D 332
peacock of a man D 330
pegged at a low D 326
person as a sex D 322
pencil or a bit D 271
peasant as a man D 270
person is a spy D 268
person by a mob D 268
pencil in a few D 268
perked up a lot D 260
perching on a low D 257
pencil so i can D 256
person on a swing D 240
pebble or a bit D 240
person is a tax D 236
person in a row D 228
perching on a dead D 218
pencil in a way D 214
pepper in a cup D 212
pencil in a new D 212
petard of a man D 206
pencil in a box D 206
peanuts in a bag D 202
person on a par D 199
person in a hot D 198
pepper or a few D 195
pellet in a fit D 188
pension as a war D 186
petals of a bud D 182
person on a heath D 180
person of a fee D 179
pepper in a bag D 177
pension in a few D 172
petals of a new D 162
person or a cow D 162
pedals of a car D 162
person as a liar D 158
peasant in a red D 158
person on a hot D 156
person in a bath D 152
pension of a lac D 151
pepper in a pan D 150
pension of a man D 150
pellet in a few D 148
peasant in a new D 148
penned by a poet D 144
person in a fog D 138
person in a fur D 136
peasant in a long D 136
penned in a few D 135
person to a bed D 133
peters is a man D 132
person of a fat D 130
person in a bus D 130
periods in a hot D 130
pelvis in a way D 130
pepper in a pot D 128
pencil of a man D 128
pedals in a car D 128
perils of a too D 127
perils of a bad D 126
pecked at a few D 126
pencil or a pin D 125
pencil in a neat D 124
pencil on a few D 122
peeked in a few D 122
person to a car D 120
person of a lad D 120
peasant in a cap D 120
person of a sex D 118
person of a raw D 118
pension or a job D 116
peasant in a hut D 116
person in a lab D 114
pension as a man D 114
pencil on a fly D 113
peoples as a dew D 112
pencil to a long D 110
pencil on a thin D 110
person in a cap D 109
person is a thin D 108
person in a swing D 106
pebble in a sling D 105
pepper in a pie D 104
pencil on a long D 104
pencil or a thin D 102
person of a neat D 100
person of a deaf D 98
perils of a one D 98
perusing it i was D 96
person if i met D 96
petals in a jar D 92
person in a bob D 92
person or a deaf D 90
person is a doer D 90
pelvis of a cow D 90
perching in a row D 88
pension or a sum D 88
penned in a neat D 88
peasant of a man D 88
petrol in a can D 86
periods in a car D 84
pension is a sum D 84
pelvis of a dog D 84
pebble or a leaf D 84
person of a hot D 82
person is a pig D 82
person in a tub D 82
person in a lax D 80
perils of a two D 48
pencil or a key D 47
person as a thou D 45
petals of a dying D 42
pebble in a box D 42
peasant in a year D 41
peasant in a fur D 41
