young as he was M 61114
young of the year M 16299
young to the old M 7552
youth of the day M 6571
young or the old M 4830
youth of the new M 4019
young as he had M 2786
young to an old M 2784
youth of the year M 2637
youth of the two M 2474
young to be out M 2455
youth of the age M 2441
young at the age M 2334
youth in the area M 2314
young to go out M 2173
youth at the age M 2145
young as we are M 2112
youth of the area M 2091
young as it was M 2072
youth in the new M 2024
youth in the age M 1982
youth up he had M 1936
youth is the age M 1868
young to be going M 1810
young of the two M 1762
young king in his M 1744
young by the old M 1646
youth of the poet M 1636
young to be his M 1551
young at the end M 1460
young of the new M 1457
young to be doing M 1450
youth at the end M 1425
youth to the end M 1355
young in the way M 1318
youth in the way M 1254
youth as he was M 1248
youth in the old M 1224
youth to the old M 1194
youth of my own M 1192
young or an old M 1192
young as he then M 1078
youth in the east M 1056
youth of my age M 1036
youth by the arm M 1018
young to be put M 1004
youth of the earth M 972
young in the new M 969
youth in the mid M 956
youth on the one M 955
young king to his M 944
young at the bar M 896
young to be her M 886
young to go with M 874
youth of the old M 867
young in the year M 844
youth in the war M 809
youth of the east M 785
youth is the one M 767
young to do this M 764
young as the age M 764
young to do that M 744
young to be one M 734
youth to the age M 719
youth is the son M 706
young to go off M 704
young it is not M 704
your king is not M 694
youth as in age M 692
young as he did M 670
youth at the head M 666
young of the red M 664
youth of the man M 663
young as the day M 662
young to do any M 654
youth in the use M 648
young of my own M 634
youth of the boy M 622
young king on his M 622
youth we do not M 618
young to the end M 616
youth or in old M 600
youth in the pit M 584
youth it is not M 582
young we do not M 580
youth as it was M 564
youth or in age M 554
youth to the use M 550
young as if they M 544
youth as we can M 538
youth in the two M 523
young to be that M 523
youth up he was M 516
youth in the act M 510
youth of the men M 506
young in the old M 494
youth or in his M 486
young to be old M 464
youth up to his M 458
youth to an old M 458
youth to the day M 452
youth is an age M 452
young to be with M 444
youth as he had M 438
youth is in its M 432
youth on the old M 422
young in the war M 421
young to be any M 420
youth if he had M 412
youth at the seat M 412
young to go and M 400
youth of the one M 398
young as the old M 396
young on the one M 388
youth in the year M 385
young or as old M 384
youth as if they M 380
youth if we are M 378
young at the head M 376
youth on the way M 374
youth or an old M 370
young in the use M 368
youth at the bar M 366
youth up to age M 361
youth in the big M 360
youth on the head M 358
youth of the son M 352
young by the way M 352
young at the death M 352
youth to the new M 350
youth of an age M 342
young as the boy M 342
youth or of age M 336
youth is in his M 336
young to be this M 336
youth in the air M 333
youth as the son M 332
youth up to this M 330
youth to go out M 326
youth to the war M 325
youth to go and M 320
youth to be his M 320
young to be sad M 320
youth in the man M 308
youth as in old M 306
youth of the era M 303
youth of my day M 303
young king at his M 296
your it is not M 288
youth in the far M 284
youth in an age M 283
youth up he has M 282
young to be yet M 282
youth of the mid M 280
young in the mid M 279
youth in the fear M 276
youth by an old M 276
young as it had M 276
your king as you M 274
young king of his M 272
young on the way M 261
young to me now M 260
young of an age M 259
young as the new M 256
youth in the red M 255
young on the old M 254
young in an old M 252
youth to do with M 250
youth in the poem M 242
young to be all M 240
young thing in her M 238
youth in an old M 232
young king by his M 232
young to be dead M 226
youth to the year M 225
youth on the run M 222
youth to go with M 220
youth is in her M 220
youth as in his M 220
young to be thus M 220
young to be our M 220
young as he can M 220
youth is to see M 218
youth in the long M 218
young in the air M 218
young as the one M 216
youth of my new M 214
young thing at his M 214
youth the king had M 212
young of the old M 212
your king is dead M 210
young or so old M 210
young at the top M 209
young as we both M 208
youth to the idea M 206
youth as it had M 206
your tea is too M 206
your king to death M 206
youth to the man M 204
youth or the age M 202
youth as he did M 202
young in the area M 202
youth is on his M 200
youth at an age M 198
young as we was M 198
youth or of his M 196
young king of all M 196
youth or the man M 194
youth as it did M 194
youth as an age M 194
young in the fear M 194
youth in the path M 192
young to do all M 192
young or in old M 190
young as he may M 190
youth at the top M 187
youth is to get M 186
young in an age M 185
young king of that M 184
youth is in this M 182
young thing he had M 182
young in the path M 182
young as he does M 182
youth on he had M 180
youth as the new M 180
youth as it can M 178
your tea if you M 178
young he or she M 178
young as the man M 177
youth to no one M 176
young to be set M 176
young of the day M 176
youth to do this M 174
youth or we may M 174
youth in the low M 174
youth in the dry M 174
youth if he has M 172
young on the day M 172
young to the death M 170
youth to be one M 169
youth as to his M 168
young to be let M 168
young of my age M 168
youth of the war M 166
young on the top M 163
youth of an old M 162
young as it does M 162
your ring on her M 160
young as my own M 160
youth by the end M 158
young thing as you M 158
young it is easy M 158
your king in his M 156
youth in the pre M 155
young thing to death M 155
youth to be her M 154
youth as of his M 154
youth as it does M 154
young in the age M 154
youth as it has M 152
young to be using M 152
young of the big M 152
young of the long M 150
youth of the red M 149
youth on the day M 148
youth in my own M 148
youth in an area M 148
young to do things M 148
young at an age M 148
young to be dying M 146
young of the bear M 146
young to the new M 144
young by the end M 144
youth in the heat M 143
youth as the old M 142
youth on the path M 140
youth of the poem M 140
youth it is easy M 140
youth by the use M 140
young thing on his M 140
young thing in his M 140
young of the dog M 140
young king as his M 140
youth is the key M 138
youth is an old M 138
young do as they M 138
young is the son M 137
youth to be not M 136
youth is at its M 136
young to the age M 136
young or the weak M 136
young or do not M 136
young as we can M 136
young as it did M 136
young as in old M 136
young as the earth M 135
youth to be put M 134
youth to be led M 134
youth in no way M 134
your ring to her M 134
young if he had M 134
young he is not M 134
young to be off M 133
youth up in his M 132
youth in the eye M 132
youth by the new M 132
young or of old M 132
young or if you M 132
young or if they M 132
young as he and M 132
youth of the may M 130
youth in the era M 130
your tea is not M 130
young or to old M 130
youth of the sun M 129
youth is my son M 126
young in so far M 126
youth of the big M 124
youth in an era M 124
young or so new M 124
young he is too M 124
youth to be too M 122
youth as he sat M 122
youth as he lay M 122
young in the two M 122
young as to his M 122
young as my son M 122
youth is to all M 121
youth in the head M 120
youth as to how M 120
youth as the age M 120
youth in the top M 119
youth in the one M 119
youth to be doing M 118
youth in the job M 118
young to me and M 118
young is the way M 118
young if we are M 118
young as if she M 118
young as he has M 118
youth of the pre M 117
youth or of old M 116
youth of the god M 116
youth is to lie M 116
young to be head M 115
youth on the arm M 114
youth by the aid M 114
youth as at this M 114
young thing at her M 114
young thing as she M 114
young in my own M 114
youth to do things M 112
young to eat and M 112
young to be read M 112
young by the use M 112
youth on the east M 111
young as the two M 111
youth is the real M 110
youth is so apt M 110
youth by the old M 110
youth at the rear M 110
your foe is all M 110
young to sing yet M 110
young is the one M 110
youth in the law M 108
young to go far M 108
young to eat meat M 108
youth or the old M 106
youth on the job M 106
youth in my day M 106
youth as to age M 106
young to be wed M 106
young is of too M 106
youth or to his M 104
your tea as you M 104
your king in one M 104
young king at this M 104
young in an era M 104
youth to do his M 102
youth by the year M 102
your thing at all M 102
your or my own M 102
young on the earth M 102
young king is not M 102
young in the things M 102
young as the head M 102
young as it has M 102
young thing as that M 101
youth to be cut M 100
youth in it and M 100
youth he is not M 100
your king in this M 100
young in the far M 99
youth up in all M 98
youth is at all M 98
youth in the idea M 98
youth in so far M 98
your king as with M 98
young thing as this M 98
youth is as old M 96
young to be real M 96
young thing he was M 96
young king in this M 96
young king he was M 96
youth up to that M 94
youth on the far M 94
young in the dim M 94
young he is and M 94
young as of old M 94
youth we go out M 92
youth is to say M 92
your thing is not M 92
young to be too M 92
young as we had M 92
youth of the dead M 91
youth wing of his M 90
youth or of her M 90
youth by the war M 90
youth as if she M 90
your king is both M 90
young in the long M 90
young as we then M 90
young in the day M 89
youth up to our M 88
youth up in this M 88
youth or at any M 88
youth by an off M 88
young or in his M 88
young is to see M 88
young as we did M 88
youth is so far M 86
youth in or out M 86
your ring on his M 86
your king if you M 86
youth on he was M 84
youth is to bring M 84
youth is as yet M 84
young or on its M 84
young is the man M 84
youth the king was M 82
youth at the old M 82
youth as we are M 82
young to be cut M 82
young of the cat M 82
young as the real M 82
youth to be thus M 80
youth to an end M 80
youth or in that M 80
youth if he was M 80
young king to her M 80
young if he can M 80
young as me and M 80
youth it is that M 57
youth as the key M 55
young of the may M 52
young in the top M 46
youth as the one M 45
young is the key M 45
youth in the sun M 44
youth in the rear M 43
young in the east M 42
young in the lead M 41
youth in the near M 40
young king so that M 40
yolk of an egg D 29496
york at the end D 16021
yoke of the law D 14325
yolk of the egg D 12973
york in the year D 9787
york at the age D 7700
york in the mid D 6533
york to be with D 3722
york on the day D 3640
yolk in the egg D 3351
youth in the art D 2812
york on the way D 2609
york as it was D 2458
york in the war D 2269
your ear to hear D 1986
york on the east D 1896
yoke of the old D 1834
york at the head D 1744
york in the new D 1685
york on the one D 1629
york on the eve D 1605
york on my way D 1595
york by the end D 1530
york by the new D 1400
york in the east D 1398
yoga is the path D 1376
your ear as you D 1314
yolk of the hen D 1176
york by the way D 1168
york as he had D 1160
york it is not D 1088
york at the new D 1072
york to the new D 1070
yoke of the new D 984
york or in any D 979
york to be near D 952
yoga is the way D 889
york to the east D 881
young in the art D 790
your pa is not D 740
your ear is not D 710
york in the age D 700
york at the art D 697
yolk in an egg D 690
your ear if you D 652
york in the near D 631
york is by far D 623
yoke of an egg D 618
york as he was D 615
york in the old D 613
yoga or the path D 612
york on the new D 611
yoke is so easy D 582
yoke at the top D 567
york or of any D 564
york as it had D 560
york as the new D 552
your ear to his D 542
young to be fed D 532
york as it does D 528
york on the death D 519
your foe so hot D 518
york or the new D 498
york on my own D 476
yoking of the two D 469
york or in new D 465
young of the lion D 462
yoke at the end D 461
york to be his D 456
york is the one D 440
york to the far D 437
yoga is to bring D 437
your ad is not D 422
york if he had D 422
york in the way D 404
young in the fur D 394
your ear so that D 392
your ex is not D 372
york to the head D 370
york is of this D 358
york to the end D 347
york in the lead D 341
your ma is not D 340
york at the top D 340
york we do not D 337
york at the old D 336
york is the new D 332
york in the end D 331
young on the ice D 320
york of the man D 320
york as it did D 320
york of the new D 315
york up to that D 314
young in the egg D 312
york in the dead D 310
york is so big D 300
young of the cow D 296
york of the one D 290
youth by sea and D 283
york is the big D 282
york is at this D 280
your ear so you D 278
york in the two D 276
york as in any D 274
york by the mid D 271
york as it has D 270
york as in new D 268
yogi is he who D 267
york as he did D 259
your ma do not D 256
youth in ye fear D 254
youth of the lad D 252
york on the old D 252
york by the death D 252
your pa do not D 246
york in the sum D 244
yoga is the art D 242
york to the earl D 239
york to do his D 238
york on the map D 238
york is the seat D 238
yoke to the beam D 238
yoke of the egg D 236
york it is now D 235
youth on the eve D 233
york he is but D 228
your ear to one D 226
your ad in this D 226
york as an art D 226
yoke to be easy D 226
york is at its D 224
yoke of the few D 222
york or to any D 219
york on the long D 216
yoga in the east D 215
york by the east D 214
york is an old D 212
york as if they D 210
york as the seat D 208
york to be one D 206
york as the head D 206
york so we can D 203
york to do this D 200
york if he was D 193
york on the red D 192
york of the east D 189
your ear to this D 188
york to the bay D 187
york in the area D 186
york by the old D 186
yoke of the man D 186
youth is an art D 182
yoke of the then D 181
york of the mid D 180
york is so far D 180
york in so far D 180
yoke of the kings D 180
young or the gay D 178
york by the two D 177
york to be put D 175
your ear to them D 174
your ear if they D 174
york to go with D 174
your toe as you D 172
your ear to that D 170
youth to the tub D 166
youth in the gay D 164
york or to new D 164
yolk in the hen D 164
yoke an ox and D 164
york to do that D 163
your ma to let D 162
your ear to all D 162
your ear to our D 160
york is as hot D 160
yoke of the two D 160
york or the east D 159
york via the new D 157
york by sea and D 157
yolk of the sun D 156
york in an old D 154
york of the day D 152
york in the pre D 152
yoke of the men D 152
your ear to get D 150
york is the hub D 150
your toe if you D 148
york if it had D 147
york in my own D 146
yoga it is not D 145
your ad if you D 144
york is the real D 144
york by an act D 144
york on the bus D 142
york in the car D 142
york if it was D 142
yoke of the fear D 142
your ad so that D 141
york by the ears D 140
youth of the art D 138
young of the sex D 138
york on the lie D 138
yoke of the east D 138
yoga is in its D 137
your ex is doing D 136
your ad to run D 136
york to the old D 136
york to do her D 136
york is the key D 136
yoga is as old D 134
york of the old D 133
your ear to its D 132
young of the eel D 132
york in the heat D 131
youth to the art D 130
your ear to her D 130
york in an area D 130
your ex is going D 128
york in the era D 128
your ad is going D 126
young in the den D 126
york up to this D 126
york so he can D 126
york is in this D 126
york as to any D 126
yoke of the big D 126
york to go and D 125
your ear as they D 124
yoking an ox and D 124
yoke so as not D 124
york is as far D 123
york as it now D 123
yoke in the one D 123
yoga or the way D 123
york to as far D 122
york as the one D 122
york by the earl D 121
your yea or nay D 120
york in the hot D 120
youth in the lap D 118
york is the head D 118
york in the low D 118
york by the act D 118
yolk in the ova D 118
yoga is an art D 116
york to be its D 115
york at the peak D 115
york of the year D 114
youth in the bay D 112
york of the death D 112
york as the two D 112
york as he has D 112
yoke as if you D 112
your ear by his D 110
york if he did D 110
yoke of an old D 110
york on the two D 109
yoke the ox and D 109
your toe is not D 108
york or at any D 108
york is in all D 108
yoke in the year D 108
yoke to be put D 107
yoke is an easy D 107
your ear in this D 106
york is in new D 106
york in the day D 106
youth of an art D 104
york in the long D 104
york as we are D 104
yoke of the war D 104
yoga is of two D 103
your toe in and D 102
york to be read D 102
york so as not D 102
york as the son D 102
york to go out D 101
youth is the tear D 100
your tea so hot D 100
york to do with D 100
youth in the car D 98
york of the far D 98
york is up with D 98
york in the far D 97
your ma to put D 96
york on the top D 96
yoke of the idea D 96
york or of new D 95
yoke of the one D 95
york to the top D 94
york or in one D 94
yoke to the end D 94
young in the rat D 93
york at my own D 93
york as it then D 93
your ear is all D 92
york as the old D 92
york as in all D 92
youth of the car D 90
your ad in one D 90
york by the law D 90
yoke of an all D 90
youth on the bed D 88
york to the day D 88
york to sing for D 88
york to me then D 88
york on the owl D 88
york of an old D 88
york as he can D 88
yoke of the dead D 88
york to the war D 87
york if we had D 87
your ear to see D 86
your ear to any D 86
young in thy new D 86
york to be her D 86
york or at his D 86
york to the year D 85
york if he has D 85
york as the law D 85
your tea in bed D 84
york to the two D 84
york in the wee D 84
york in the may D 84
york at the met D 84
york as to his D 84
york as the man D 84
yoke on the end D 84
yoke of king and D 84
yoga as it was D 84
youth of thy age D 82
york as we had D 82
your ox or ass D 81
york on the plea D 80
york as the leg D 80
yoke of the ego D 80
yoga on the one D 65
yoga to the sun D 53
york by the year D 51
york to the see D 48
york in the mean D 47
yoke me as his D 45
york on the far D 43
york or on long D 42
your ad in that D 41
york is of new D 40
york at the mid D 40
