bad for a man M 8518
bad that i had M 7686
bad that i was M 5848
bad that i can M 5210
bad that i did M 4177
bar for a few M 3712
bag with a few M 3324
bad for a long M 2790
bad and i was M 2138
bad for a few M 2108
bag for a few M 2043
bar and a few M 1894
bad for a kid M 1894
bad for a boy M 1732
bag and a few M 1614
bad for a day M 1540
bad and i had M 1378
bag that i had M 1340
bar with a few M 1302
bad that a man M 1274
bad and i can M 1220
bad things i did M 942
bad and i did M 942
bar and i was M 908
bag and i was M 842
bag with a long M 762
bad things i had M 758
bar with a man M 674
bar for a long M 662
bar with a big M 624
bar that i had M 576
bad that i got M 572
bad off i was M 568
bar with a long M 560
bag for a long M 536
bar was a man M 514
bag with a red M 492
bag and a box M 481
bag for a day M 479
bad for a dog M 454
bag and i had M 434
bad but i did M 434
bad for a new M 430
bad but i was M 426
bar was a long M 420
bad for a lot M 408
bad but i can M 408
bag with a big M 406
bar that i was M 394
bar was a big M 390
bar and a man M 390
bag and a big M 386
bar for a cup M 380
bar and i had M 375
bad for a year M 373
bang out a few M 362
bag and a long M 354
bar and a long M 348
bad that a few M 348
bar and a big M 344
bar and a new M 336
bag and a set M 318
bad and a bad M 318
bar with a new M 310
bag that i was M 305
bad that a lot M 298
bad and i got M 282
bag with a lot M 276
bad for a one M 275
bad for a team M 262
bag and i did M 248
bar and i saw M 244
bar for a bit M 236
bar and a bar M 230
bag with a new M 228
bag and a new M 228
bar with a lot M 226
bar with a real M 218
bar and i got M 218
bad and a lot M 218
bad and a few M 216
bad but i had M 214
bar and a set M 208
bar with a cup M 204
bar with a red M 200
bag that i can M 195
bar and a cup M 192
bag for a new M 192
bad for a bit M 191
bar for a pre M 188
bar for a year M 187
bad for a two M 184
bar and a can M 182
bad that i may M 182
bag and a red M 181
bad for a poet M 180
bar and i did M 178
bad man i was M 176
bar for a new M 174
bad that a new M 172
bar that i can M 170
bad for a weak M 170
bad for a ten M 170
bad for a dead M 170
bag and a bag M 168
bar with a head M 166
bar and a lot M 164
bag and i can M 164
bad that i fear M 164
bad things i was M 156
bar and a bag M 148
bar and i sat M 146
bang and i was M 146
bag and i put M 146
bag and a lot M 146
bar with a wet M 144
bad for a big M 142
bag with a bit M 140
bad for a bad M 140
bar with a bang M 138
bang and a lot M 138
bag and a can M 134
bad boy i was M 134
bar with a dot M 132
bar with a set M 131
ban and a ban M 130
bag for a year M 130
bag and i saw M 130
bar and i can M 128
bad but i got M 128
bag and i got M 126
bad for a six M 126
bag with a two M 124
bag and a cup M 124
bad than i had M 124
ban for a year M 122
bang and a big M 120
bag for a war M 120
bad that i let M 120
bar with a low M 118
bar has a long M 116
bar for a man M 116
bad that i put M 116
bad and i fear M 116
bar and a box M 114
bag with a man M 114
bar was a bit M 113
bar with a bar M 112
bag for a bit M 112
bad that i ran M 112
bad day i can M 112
bad but a few M 112
bad and i get M 112
bar with a two M 111
bad for a non M 110
bar for a day M 108
bar and a dot M 106
bar with a dog M 105
bar and a low M 104
bag with a box M 104
bag for a head M 104
bag with a wet M 103
bag with a one M 103
bar was a bar M 102
bad with a man M 102
bad use i had M 102
bad things i can M 102
bar and a bit M 100
bag was a new M 100
bag and a one M 100
bag with a tag M 96
bar and i see M 94
bar and a red M 93
bar was a new M 92
bar but i did M 92
bag and a man M 92
bar but a few M 90
bad for a cat M 90
bad day i had M 90
bar for a meal M 88
bar and a pro M 88
bad things i say M 88
bag was a big M 86
bad that i saw M 86
bag with a set M 85
bar was a few M 84
bag was a box M 84
bag and a boy M 84
bar was a real M 82
bag with a dog M 80
bad and a sad M 80
bag for a key M 59
bad for a son M 42
bag and a six M 41
bath for a few D 6580
bad for a guy D 3018
bay for a few D 2910
bath and a meal D 1639
bay for a long D 1638
bath and a bed D 1242
bath and a nap D 1216
bath for a long D 1176
bath and a hot D 1115
bay and a few D 1005
bath and a long D 942
bath and a cup D 826
bath and a few D 802
bath for a day D 710
bath with a few D 702
bag for a pen D 646
bath and a new D 622
bay for a day D 609
bay with a long D 575
bay with a few D 573
bay for a year D 493
bay and i was D 469
bath with a tub D 462
bath and i was D 446
bath and a rub D 428
bar with a rag D 404
bay that i had D 336
bay and a long D 304
bag with a zip D 298
bay and i had D 288
bay was a long D 274
bath and a big D 260
bad for a car D 248
bar with a guy D 246
bath and i had D 242
bag and a hat D 236
bath that i had D 234
bath with a spa D 231
bath and a real D 222
bad for a lad D 220
bat with a long D 217
bay leaf a few D 215
bar with a row D 210
bar with a gun D 208
bat that i had D 197
bay are a few D 192
bat that i was D 192
bay has a long D 190
bad for a fat D 188
bat and i was D 180
bar and a row D 180
bath with a hot D 178
bag with a thud D 174
bath for a year D 170
bat with a man D 162
bag with a tie D 162
bath and a bit D 156
bag and a gun D 156
bay with a gun D 154
bat and a few D 145
bath has a tub D 140
bath and a dry D 136
bag and a tin D 136
bar with a pin D 134
bar with a thud D 132
bath that i can D 130
bath with a red D 128
bar with a thin D 126
bath that i was D 124
bat for a long D 124
bag with a thin D 122
bath and a bath D 120
bag with a hot D 120
bath with a man D 118
bath with a low D 117
bay with a low D 115
bay area a few D 114
bar with a neon D 114
bag with a gun D 113
bar and a hot D 106
bath with a cup D 104
bay with a big D 102
bath with a big D 100
bar was a row D 100
bag and a hot D 100
bath was a big D 98
bath and i can D 98
bad for a cop D 98
bay than i had D 94
bath with a long D 94
bar for a gin D 94
bat for a few D 93
bag with a gas D 93
bay and a new D 92
bath with a new D 86
bat with a red D 86
bad with a gun D 86
bay but a few D 83
bat and a deaf D 82
bar and a guy D 82
bag and a thin D 82
bath was a real D 80
bath was a long D 80
