bag hanging from the M 2422
bad name among the M 1968
bad luck from the M 1426
bag back into the M 1344
bar away from the M 1296
bag down from the M 1250
bad angel fire my M 1244
bad faith when it M 1206
bad sign when the M 1198
bad been sent to M 1139
bar next door to M 1092
bag made from the M 1092
bag half full of M 1082
bag away from the M 1069
bad been able to M 1046
bad faith must be M 1032
bad faith from the M 1032
bad been made to M 1032
bad only when it M 950
bad faith when he M 886
bad time during the M 844
bad been made by M 728
bad when there is M 726
bang their heads on M 705
bag down next to M 703
bad name from the M 664
bad been made in M 660
bad will come of M 606
bad ones will be M 598
bad debt loss is M 574
bar will have to M 562
bad time trying to M 562
bad luck will be M 556
bad luck during the M 556
bad faith upon the M 552
bad luck when he M 550
bad days when the M 536
bad faith will be M 524
bad luck when it M 522
bar from time to M 520
bad years when the M 520
bad days when he M 516
bag from hand to M 496
bad luck when the M 488
bad faith when the M 478
bad ones from the M 472
bar will show the M 468
bad health when he M 464
bad time when he M 454
bar just down the M 452
bad luck upon the M 450
bar back into the M 442
bad time from the M 434
bag down into the M 418
bad there were no M 416
bang came from the M 412
ban such acts or M 400
bad time when the M 394
bar will have the M 378
bad debt must be M 378
bad luck into the M 376
bad health during the M 370
bar will move to M 368
bad luck came to M 362
bag hanging over the M 358
bad work done by M 354
bad years there is M 352
bag away from me M 350
bar only when the M 346
bag from time to M 346
bad luck such as M 346
bar from left to M 344
bag held over the M 336
bar from side to M 334
bang these dogs of M 333
bad faith during the M 328
bad debt loss of M 328
bad health from the M 326
bad file name or M 326
bad even when the M 318
bad been sent by M 318
bad even when it M 316
bad debt from the M 308
bad time when we M 304
bad form even to M 302
bad play when the M 300
bad only when the M 300
bad come from the M 300
bad luck even to M 294
bad from time to M 294
bad been done in M 292
bad cold coming on M 289
bar runs along the M 284
bar there will be M 282
bad been used to M 278
bad debt loss in M 276
bad ones among the M 272
bad debt will be M 270
bag down onto the M 266
bad will come to M 260
bad sign when he M 260
bar bent into the M 256
bag tied over the M 254
bag hanging from my M 250
bad omen when the M 250
bad name when it M 246
bad debt only if M 246
bar must also be M 244
bad ones must be M 244
bad been done by M 244
bar when there is M 240
bad name during the M 240
bad been made on M 238
bag made from an M 236
bad cold during the M 234
bar code from the M 232
bad come into the M 232
bag back onto the M 230
bad cold when he M 228
bag went into the M 226
bad luck make my M 226
bad have come to M 224
bad debt ratio of M 224
bad luck over the M 222
bad boys from the M 222
bad ones seem to M 220
bad name over the M 220
bad name among us M 220
bad fall from the M 220
bad luck when we M 218
bar will move the M 214
bad years such as M 214
bad fall down the M 214
bag down over the M 212
bad work will be M 210
bad been done to M 210
bag fell into the M 208
bad been left to M 208
bag held open by M 206
bag hanging from it M 206
bad word from the M 206
bad been left in M 206
bad sign when an M 204
bad faith among the M 204
bar when need is M 202
bar fits into the M 202
bad faith over the M 202
bar will also be M 200
bag will have to M 200
bad ideas from the M 194
bad luck came in M 193
bar made from the M 192
bag will keep the M 192
bad been made of M 192
bar hanging from the M 190
bad sign when we M 188
bad been used in M 188
bar runs from the M 186
bar code must be M 184
bad luck there is M 184
bad luck down on M 184
bad debt loss on M 182
bad cold from the M 182
bag just like the M 180
bad luck must be M 180
bad faith there is M 180
bar code will be M 178
bar came from the M 178
bad turn when he M 178
bad there will be M 176
bad days when we M 176
bar just like the M 174
bad time over the M 172
bad faith only if M 172
bad debt held by M 170
bag hangs from the M 168
bad debt when the M 168
bad been born in M 168
bad years from the M 166
bar were used to M 164
bar down into the M 164
bad luck fell to M 164
bad luck come to M 164
bar will need to M 162
bad ones have to M 162
bad omen from the M 162
bad days during the M 162
bar came over to M 160
bag worn over the M 158
bad come down to M 158
bar code into the M 156
bad food from the M 156
bag will need to M 154
bad wealth came to M 154
bad luck among the M 154
bar just south of M 152
bad road from the M 152
bad there been no M 151
bang next door to M 150
bad only when he M 150
bad luck coming to M 150
bad work done in M 148
bad dream will be M 148
bad debt loss to M 148
bad boys among the M 148
bad some will be M 146
bad part from the M 146
bad been used by M 146
bad beating from the M 146
bad angel came in M 146
bad ones such as M 144
bad work done on M 142
bad heart full of M 142
bad debt ratio is M 142
bag come down the M 140
bad will have to M 140
bad sign from the M 140
bad luck fell on M 140
bad have been the M 140
bad gone into the M 140
bad dream from the M 140
bad days when it M 140
bar there must be M 138
ban came from the M 138
bad face band of M 137
bad luck upon us M 136
bad been wont to M 136
bad been trying to M 136
bag must also be M 134
bad time when it M 134
bar just prior to M 132
bag will help to M 132
bad your life is M 132
bad ones among us M 132
bag from side to M 130
bad dream during the M 130
bad debt during the M 130
bar back onto the M 128
bar back down to M 128
bad your pain is M 128
bad sign when it M 128
bar will take up M 126
bar code used in M 126
bag back over the M 126
bad years must be M 126
bad years most of M 126
bad there must be M 126
bad ones when it M 126
bad lots will be M 126
bad debt when it M 126
bad angel came to M 126
bad nothing else to M 124
bad been held in M 124
bar next door is M 122
bar late into the M 122
bad ones will go M 122
bad ideas into the M 122
bad even from the M 122
bar laid over it M 120
bad when used in M 120
bad luck trying to M 120
bad from what is M 120
bad been kept in M 119
bar fell into the M 118
bad years will be M 118
bad ever been in M 118
bad from want of M 116
bad ever heard of M 116
bad been made at M 116
bad been left at M 116
bar runs down the M 114
bar from acting as M 114
bad there were so M 114
bad take care of M 114
bad only when we M 114
bad health among the M 114
bad during most of M 114
bad data into the M 114
bar will break in M 112
bad health made it M 112
bad from lack of M 112
bag back from the M 111
bar came into the M 110
ban laid down in M 110
bag will soon be M 110
bad ones were the M 110
bad omen among the M 110
bad faith made by M 110
bang their heads in M 108
ban laid down by M 108
bad time ahead of M 108
bad ones those of M 108
bad faith even if M 108
bad came from the M 108
ban most uses of M 107
bag down upon the M 107
bar went into the M 106
bar came back to M 106
bang coming from the M 106
bag when there is M 106
bag came into the M 106
bad omen when he M 106
bad health must be M 106
bad fall when he M 106
bad faith only by M 106
bad deed done in M 106
bad days ahead of M 106
bad data from the M 106
bad been seen in M 106
bad form among the M 104
bad been used as M 103
bar will seem to M 102
bar down from the M 102
bad sign when no M 102
bad luck along the M 102
bar were heard on M 100
bar just over the M 100
bar just north of M 100
bad time over it M 100
bad seed from the M 100
bad part will be M 100
bad only from the M 100
bad ones into the M 100
bad faith such as M 100
bad data will be M 100
bad been left by M 100
bad been among the M 100
bad luck just as M 99
bad down there as M 99
bar were made of M 98
bar room into the M 98
bar food such as M 98
bag from among the M 98
bad ones were to M 98
bad luck made me M 98
bad luck early in M 98
bad gone over to M 98
bad girl from the M 98
bad fled from the M 98
bad fall from my M 98
bad days just as M 97
bag back down on M 96
bad time coming to M 96
bad name even in M 96
bar only when it M 94
bag fell from the M 94
bag away from my M 94
bad wind from the M 94
bad days will be M 94
bad case when the M 94
bad been held by M 94
bag back over my M 93
bar there were no M 92
bar look like the M 92
bar deep into the M 92
bad years during the M 92
bad turn when it M 92
bad luck come of M 92
bad gone back to M 92
bad dream when he M 92
bad done nothing to M 92
bad been told by M 92
bad been lost in M 92
bang your hand on M 90
bag hangs over the M 90
bad once been the M 90
bad half hour in M 90
bad debt rate of M 90
bad breath from the M 90
bad been said by M 90
bad been made the M 90
bar will make it M 88
bar their road to M 88
bar just west of M 88
bad nothing more to M 88
bad name when the M 88
bad dream only to M 88
bar code used to M 86
bag will ever be M 86
bad years like the M 86
bad road leading to M 86
bad dream when the M 86
bad done much to M 86
bad baby from the M 86
bar will reach the M 84
bar will give the M 84
bar were able to M 84
bar from here to M 84
ban will fail to M 84
bad turn when the M 84
bad peace made by M 84
bad only upon the M 84
bad fish will be M 84
bad feel just the M 84
bad dream into the M 84
bad call from the M 84
bad been part of M 84
bar will have an M 82
bar fell from the M 82
bag deep into the M 82
bag coming from the M 82
bad fall during the M 82
bad faith aims at M 82
bad faith need be M 80
bad time came on M 51
bad been sent on M 48
bad been sent in M 44
bad ones just as M 43
bad wind came up M 41
bad news from the D 18231
bay just north of D 1906
bay just south of D 1650
bad news came in D 1602
bar iron from the D 1557
bag slung over my D 1482
bag slung over the D 1168
bad news came to D 1069
bad mood when he D 974
bath from time to D 894
bad news over the D 858
bad guys from the D 838
bad news when it D 816
bad odor from the D 808
bad news must be D 806
bad news will be D 674
bad news when he D 656
bay just west of D 654
bad news from my D 632
bad news when the D 608
bat flew into the D 580
bay away from the D 542
bad news such as D 486
bad guys were the D 474
bay from those of D 464
bad guys will be D 460
bad wine made in D 402
bad guys trying to D 362
bad guys were in D 348
bang your fist on D 344
bay from time to D 342
bad news from me D 330
bad news bears in D 327
bad news back to D 318
bad faith pays or D 318
bad news during the D 314
bad news here is D 308
bad news bears go D 295
bath sunk into the D 284
bar iron made in D 282
bag slung from the D 278
bath will have to D 276
bath will help to D 272
bad guys have to D 268
bar will tend to D 266
bay dogs were to D 263
bath will also be D 260
bad crop years in D 254
bay were able to D 244
bath must also be D 238
bad guys seem to D 234
bad odor among the D 232
bad news when we D 226
bad mood from the D 222
bat away from the D 216
bad guys want to D 214
bad laws must be D 212
bath from five to D 208
bar iron used in D 208
bad laws will be D 208
bad guys show up D 194
bad news there is D 184
bath half full of D 178
bad news into the D 178
bay came from the D 176
bath when there is D 176
bat your eyes at D 176
bad mood most of D 176
bay beach park is D 174
bad news came on D 174
bath just prior to D 172
bat hanging from the D 168
bad ones tend to D 168
ban cars from the D 166
bad news coming in D 165
bad news from an D 164
bath away from the D 160
bad guys were on D 160
bath some odes of D 158
bad news kind of D 156
bath very early in D 154
bath there will be D 152
bad guys have the D 152
bay there were no D 150
bad news just as D 150
bad news came the D 150
bay from north to D 146
baa been made to D 141
bay were among the D 140
bad mood when the D 138
bad eggs from the D 138
bad mood when we D 136
bad been paid to D 136
bad guys into the D 134
bad eggs among the D 134
bag swinging from the D 132
bad slip when he D 132
bad laws have the D 132
bad heart bull in D 132
bay will soon be D 130
bay hill club in D 130
bay have been the D 130
bay seen from the D 128
bath only once in D 126
bath mail will be D 126
bad news hits the D 126
bay were full of D 124
bad joke from the D 124
bad guys know we D 124
bat back into the D 123
bad news came at D 122
bad mood over the D 122
bay were made by D 120
bad news early in D 120
bad mood during the D 120
bath will soon be D 118
bad news came of D 116
bad guys tend to D 116
bath made from the D 114
bath will tend to D 110
bar shot from the D 110
bad seed sown by D 110
bad guys need to D 110
bay runs into the D 108
bay back into the D 108
bath play over me D 108
bay were made in D 106
bay city during the D 106
bad news tend to D 106
bad guys like the D 106
bay will have to D 104
bay were busy in D 104
bat also from the D 104
bay laid down by D 102
bad news must ha D 102
bath from three to D 98
bar rising from the D 96
bad news along the D 96
bad crop years of D 94
bad been paid by D 94
bath will keep the D 92
bad news coming to D 92
bad guys were up D 92
bad laws made by D 90
bay some five or D 88
bay mare into the D 88
bay coming from the D 88
bat flying over the D 88
bad news sort of D 88
bad guys when the D 88
bad guys come to D 88
bay were from the D 86
bath only once or D 86
bat flying into the D 86
bad guys must be D 86
bay were used as D 85
bay were used to D 84
bay lies along the D 84
bad years tend to D 84
bay were said to D 82
bay leading into the D 82
bad guys during the D 82
bay south along the D 80
bay came into the D 80
bat rose from the D 80
bad shot from the D 80
bad news part of D 80
bad news leads to D 80
bad guys came to D 80
bad mood coming on D 46
bad guys come in D 43
bat there will be D 42
