bad to worse . M 143363
bag of bones . M 8270
bag of money . M 7978
bad or worse . M 5398
bar of reason . M 3668
bag of tools . M 2414
bag of worms . M 2196
bad at first . M 2162
bar of music . M 2104
bad to worse ? M 1724
bag of water . M 1578
bad in others . M 1554
bar the action . M 1551
bar in place . M 1484
bad to worse ! M 1482
bad thing either . M 1342
bag of bones ! M 1297
bar at night . M 1266
bag is empty . M 1204
bar of heaven . M 1160
bag of books . M 1160
bar be moaning . M 1144
bad as yours . M 1096
bad at times . M 1086
bag in place . M 1004
bar of light . M 998
bag of bones ? M 988
bad as others . M 968
bad it hurts . M 922
bar the claim . M 919
bad at night . M 784
bad as usual . M 778
bag of rocks . M 768
bag of seeds . M 682
bar as shown . M 680
bad or anything . M 672
bag to carry . M 658
bar in front . M 650
bag at night . M 646
bag of yours ? M 644
bag of onions . M 600
bag of fluid . M 594
bag of money ! M 528
bag of yours . M 504
bag to match . M 488
bag of blood . M 484
bad the weather . M 472
ban on hunting . M 456
bar to action . M 450
bar on board . M 438
bad to stand . M 426
bad it looks . M 422
bad as theirs . M 420
bag of grass . M 416
bang the table . M 414
bag of gifts . M 414
bag of words . M 410
ban on testing . M 408
bad to worst . M 406
bar is shown . M 404
bad in people . M 394
bad at others . M 382
bag of money ? M 378
bad to others . M 376
bag of clothing . M 356
bag of stuff . M 348
bar as usual . M 346
bag of treats . M 344
bad as stealing . M 334
bar by force . M 322
bad as fraud . M 298
bad it feels . M 296
ban in place . M 288
bad thing worse . M 286
bad as feared . M 280
bag as shown . M 278
bad in parts . M 276
bar is empty . M 268
bad he feels . M 268
bag of goods . M 266
bag of dates . M 262
bar to appear . M 256
bad at names . M 254
bag of ashes . M 252
ban of heaven . M 244
bar to order . M 237
bag of cakes . M 236
bad by worse . M 232
bag of birds . M 228
bad as today . M 228
bar up front . M 226
bad or worse ? M 220
bar at large . M 218
bad on paper . M 218
bad in anything . M 218
bar of reason ? M 214
bad to breathe . M 214
bad by others . M 214
ban the party . M 212
bad as falling . M 212
bad of shape . M 210
bar the gates . M 208
bad to cross . M 208
bar to entry . M 204
bar of black . M 204
bar is fixed . M 198
bag of leaves . M 198
bad to fight . M 196
bang in front . M 195
bag on board . M 192
bar of color . M 188
bag of crack . M 188
bag up again . M 184
bad it seems . M 180
bad in poetry . M 178
bad as anything . M 174
bag at first . M 172
bar an action . M 171
bad to awful . M 170
ban to touch . M 164
bad thing again . M 164
bar is moved . M 162
bar by night . M 162
bag of dreams . M 162
bar in bending . M 156
bag in front . M 156
bar is added . M 154
bar in music . M 154
bad as defeat . M 154
bar is showing . M 152
ban on copying . M 152
bar to change . M 150
ban the meeting . M 150
bad at writing . M 146
bar or party . M 142
bag is missing . M 142
bad at games . M 142
bar is given . M 140
bad to repeat . M 138
bad as either . M 136
bar in action . M 134
bag as usual . M 132
bad in prose . M 130
ban of exile . M 128
bar of white . M 126
bar is drawn . M 126
bag or anything . M 126
bag of change . M 126
bad to curse . M 126
bad thing either ! M 126
bad or false . M 126
bad to laugh . M 122
bad in music . M 122
bad as yours ! M 120
bar is missing . M 118
bad or mixed . M 118
bad he looks . M 118
bag of paper . M 116
bad or badly ? M 116
bar or chain . M 114
bar at seven . M 114
bad or cruel . M 114
bar to watch . M 112
bar is closing . M 112
bag in water . M 112
bad in print . M 112
bar to close . M 110
bag of sorts . M 110
bag of magic . M 110
bag is usual . M 108
bag of people . M 106
bad on others . M 106
bad in writing . M 106
bad in order . M 106
bad at anything . M 106
bad to write . M 104
bad to argue . M 104
bag or anything ? M 102
bar or table . M 101
bar at eight . M 100
bad thing really . M 100
ban on women . M 98
bad thing today . M 98
bar at right . M 96
bag on floor . M 96
bad to people . M 96
bad at drawing . M 96
bar of action . M 94
bar is plain . M 94
bad as mother . M 94
bar the change . M 92
bad an actor . M 92
bar the right . M 91
bar or block . M 90
ban the paper . M 90
ban in force . M 90
bad on names . M 90
bad in women . M 90
bag on again . M 88
bad to birds . M 88
bad or missing . M 88
bar he stood . M 86
ban the books . M 86
bag of items . M 84
bar or anything . M 82
bar is small . M 82
bar he owned . M 82
bad at waiting . M 82
bar of heaven ? M 80
bad or badly . M 80
bar the press . M 41
