mud all over the D 3406
mud and filth of D 2084
mud and sand of D 2048
mud and sand in D 2036
mud and mire of D 1720
mud and dust of D 1666
mud and rain to D 1554
mud and scum of D 1490
mud that clung to D 1056
mud and sand at D 1042
mud and sand to D 1033
mud and sand on D 1030
mud and dirt of D 1010
mud and muck of D 1006
mud all over my D 968
mud and bits of D 940
mud and over the D 920
mud and into the D 818
mud and mire to D 736
mud and rain of D 732
mug and held it D 655
mud and snow to D 644
mud and snow of D 640
mud lay deep on D 606
mud and sand by D 592
mud and silt of D 589
mud all over me D 580
mud and dirt in D 576
mud and clay of D 568
mum had told me D 563
mud and rain in D 544
mud and ooze of D 531
mud and filth in D 514
mud and dirt on D 514
mud and threw it D 498
mud all over it D 482
mud was used to D 480
mud and sand is D 474
mud and silt in D 462
mud and some of D 426
mum had gone to D 416
mud and clay in D 398
mud and full of D 390
mud and cold of D 390
mud and silt to D 378
mud and sand as D 376
mum was trying to D 371
mud and clay to D 352
mud and among the D 340
mug and went to D 338
mug and took it D 338
mud and trying to D 334
mud and dirt to D 328
mud and dust in D 324
mud and dust on D 308
mud and snow in D 304
mud that clings to D 300
mud and there is D 300
mud and dust to D 278
mud and made the D 274
mud and have to D 274
mug and gave it D 256
mud and filth on D 248
mud and onto the D 244
mud and made it D 244
mud and snow on D 242
mud and silt on D 242
mud with only the D 232
mud that came up D 230
mud was drying on D 228
mud and from the D 226
mud and filth to D 225
mud and rain on D 224
mum was able to D 219
mud dug from the D 218
mud and rain at D 218
mud all over us D 216
mud and sand the D 210
mud was used in D 208
mud and when the D 206
mud was deep in D 204
mud and make it D 200
mud and mire in D 198
mud and came to D 196
mud and sand or D 194
mud all along the D 194
mud was used as D 192
mud and flung it D 192
mud may also be D 190
mud and even the D 184
mud out into the D 182
mud and left to D 178
mud and dirt at D 178
mud and silt is D 176
mud and ooze at D 174
mud and clay on D 172
mud and throw it D 168
mud and dirt as D 167
mud and silt at D 166
mud and ruts of D 166
mud can also be D 162
mud and left it D 160
mud and muck in D 156
mud and dirt is D 156
mud and went to D 154
mud and lack of D 152
mud and having to D 150
mud and make the D 148
mug and fill it D 146
mud and clay is D 146
mud and came up D 141
mud and mire on D 138
mud and dust as D 138
mud and muck to D 136
mum was born in D 135
mud and filth as D 134
mud and clay at D 132
mum had been in D 131
mug and left the D 130
mud and torn by D 130
mud and mire as D 130
mud and rain as D 127
mug she held in D 126
mud ran down the D 126
mud and feed on D 126
mud are used to D 124
mud that made the D 122
mud and sweat of D 122
mud and weed to D 120
mud and half in D 120
mud and moss of D 118
mud and held it D 118
mud and ends in D 118
mug and threw it D 116
mud and snow at D 116
mud and sand it D 116
mud and fell to D 116
mud was over my D 114
mud for much of D 114
mud and sand so D 114
mud that used to D 112
mud and soil in D 112
mud and jeer at D 112
mud was full of D 110
mud that will be D 110
mud and must be D 110
mud and fell on D 110
mud was over the D 106
mud for most of D 106
mud and soil of D 106
mud and rock to D 106
mud are seen to D 104
mud and rain we D 104
mud and rain the D 104
mud that made it D 102
mug and took the D 100
mud that only the D 100
mud for want of D 100
mud and mire at D 100
mud and snow as D 99
mud got into the D 98
mud and silt as D 97
mud for half an D 96
mud and rock of D 96
mud and mist of D 96
mud and when he D 94
mud and filth by D 94
mud and back to D 94
mum had come to D 92
mug was full of D 92
mud and many of D 92
mud was slung at D 90
mud and most of D 90
mud and making the D 90
mud and heaps of D 90
mud and dust at D 90
mud and also to D 90
mud and come to D 89
mud and keep the D 88
mug and slid it D 86
mug and sent to D 86
mud that even the D 86
mud are used in D 86
mud and mire by D 86
mud and filth at D 86
mud and when it D 84
mud and took the D 84
mud and part of D 84
mug that bore the D 82
mud than those of D 82
mud and wash it D 82
mud and along the D 82
mug all over the D 81
mug and felt the D 80
mud and roof of D 80
mud and ooze in D 80
mud and only the D 80
mud and gore of D 80
mum has told me D 48
mud was made up D 47
mud and ooze as D 44
mud and clay as D 44
mud was just as D 41
mud and dust so D 41
