music hall . " M 3179
music room . " M 2049
music theory . " M 1309
music here . " M 895
music video . " M 689
music there . " M 586
music room ? " M 558
music died . " M 500
music making . " M 482
music hall ? " M 428
music down . " M 396
music down ! " M 246
music here ? " M 244
music down ? " M 222
music hall ! " M 204
music city . " M 188
music well . " M 176
music reading . " M 162
music only . " M 140
music best . " M 134
music also . " M 130
music shed . " M 106
music like ? " M 102
music book . " M 102
music ends . " M 84
music away . " M 84
music vows . " M 49
music time . " M 46
music show . " M 42
