ignored if it is M 2210
ignored as it is M 2030
ignored it as he M 1698
ignored it in the M 1360
ignored as if it M 1162
ignored by the king M 1056
ignored or to be M 806
ignored as of no M 778
ignored as in the M 738
ignored so as to M 608
ignored me as if M 592
ignored me as he M 554
ignores it in the M 452
ignored us as we M 442
ignored up to the M 382
ignored me in the M 374
ignored it at the M 374
ignored it as the M 358
ignored by the so M 313
ignored it as an M 302
ignored it on the M 282
ignored as if he M 270
ignored as if the M 250
ignored as is the M 244
ignored me at the M 236
ignored or if the M 232
ignored it as if M 200
ignored it to the M 180
ignored by us as M 177
ignored or it is M 168
ignored it as it M 168
ignored by us in M 160
ignored it if it M 152
ignored is to be M 142
ignored as to be M 124
ignored if he is M 120
ignored by it in M 120
ignored us as he M 112
ignored as to the M 110
ignored me on the M 104
ignores it as the M 90
ignores me as if M 86
ignored us as if M 86
ignored it if he M 86
ignores it at the M 84
ignores it if it M 82
ignores it as he M 82
ignored in the so M 48
ignition is in the D 600
ignited so as to D 533
ignition is to be D 510
ignoble as it is D 244
ignition is of the D 232
ignited it in the D 176
ignoble thing to do D 150
ignited as it is D 125
ignoble thing to be D 122
ignition so as to D 120
ignoble to go on D 108
ignited in me the D 108
ignoble as to be D 104
ignoble of me to D 102
ignition is on the D 102
ignition is by the D 102
ignition is by an D 88
ignited as in the D 86
