its name . " M 23256
its kind . " M 20310
its meaning . " M 18892
its work . " M 14526
its time . " M 14282
its best . " M 12674
its life . " M 12426
its truth . " M 10400
its face . " M 10138
its feet . " M 9948
its name ? " M 9856
its form . " M 6774
its back . " M 6452
its side . " M 6318
its tail . " M 6298
its will . " M 5540
its size . " M 5464
its birth . " M 5460
its goal . " M 4880
its duty . " M 4582
its body . " M 4530
its base . " M 4448
its fate . " M 4272
its eyes . " M 4218
its heart . " M 4168
its uses . " M 4092
its worth . " M 4038
its past . " M 3970
its mind . " M 3914
its fall . " M 3762
its part . " M 3318
its cost . " M 3252
its mark . " M 3046
its case . " M 2834
its length . " M 2808
its wake . " M 2730
its turn . " M 2612
its ways . " M 2566
its nest . " M 2544
its ruin . " M 2530
its loss . " M 2448
its means . " M 2420
its toll . " M 2266
its ends . " M 2264
its youth . " M 2224
its arms . " M 2220
its core . " M 2186
its reach . " M 2150
its range . " M 2092
its food . " M 1910
its home . " M 1908
its hand . " M 1906
its aims . " M 1900
its root . " M 1856
its wealth . " M 1760
its edge . " M 1742
its like . " M 1682
its coming . " M 1680
its young . " M 1624
its faith . " M 1612
its meaning ? " M 1566
its ideas . " M 1564
its care . " M 1562
its lord . " M 1506
its breath . " M 1506
its cure . " M 1494
its cage . " M 1428
its depth . " M 1416
its doom . " M 1386
its acts . " M 1360
its rise . " M 1304
its rule . " M 1276
its mate . " M 1248
its peace . " M 1226
its making . " M 1174
its role . " M 1160
its flag . " M 1156
its help . " M 1140
its land . " M 1132
its love . " M 1118
its word . " M 1036
its hole . " M 1026
its hold . " M 1024
its fury . " M 962
its type . " M 946
its pain . " M 932
its date . " M 910
its site . " M 890
its last . " M 864
its sons . " M 854
its flow . " M 832
its good . " M 828
its health . " M 818
its door . " M 818
its line . " M 814
its army . " M 804
its life ? " M 786
its ideal . " M 740
its spring . " M 738
its hero . " M 738
its evil . " M 732
its fire . " M 726
its text . " M 720
its room . " M 698
its work ? " M 694
its back ? " M 694
its tail ? " M 690
its mind ? " M 682
its rest . " M 666
its face ? " M 662
its self . " M 618
its ending . " M 612
its debt . " M 608
its joys . " M 606
its plan . " M 598
its other . " M 594
its name ! " M 586
its mass . " M 586
its call . " M 580
its tears . " M 568
its side ? " M 566
its gods . " M 562
its term . " M 560
its seed . " M 556
its over . " M 556
its host . " M 542
its truth ? " M 540
its hair . " M 540
its ally . " M 540
its tail ! " M 538
its need . " M 528
its load . " M 516
its width . " M 506
its best ! " M 478
its left . " M 476
its feet ? " M 472
its time ? " M 468
its theory . " M 464
its stem . " M 436
its eyes ? " M 424
its view . " M 418
its worth ? " M 412
its keep . " M 412
its hour . " M 410
its tomb . " M 400
its back ! " M 392
its hope . " M 390
its echo . " M 380
its size ? " M 378
its gate . " M 374
its copy . " M 370
its fears . " M 366
its hide . " M 358
its bark . " M 356
its days . " M 354
its fold . " M 352
its case ? " M 350
its life ! " M 346
its food ? " M 340
its living . " M 338
its sign . " M 336
its kind ? " M 336
its true . " M 332
its heart ? " M 332
its edge ? " M 332
its time ! " M 330
its birth ? " M 330
its eyes ! " M 326
its wits . " M 318
its rage . " M 310
its ills . " M 310
its dawn . " M 310
its best ? " M 304
its work ! " M 296
its heart ! " M 296
its past ? " M 294
its fall ! " M 292
its body ? " M 290
its songs . " M 274
its cost ? " M 262
its trial . " M 260
its user . " M 254
its mask . " M 254
its nest ? " M 248
its face ! " M 248
its game . " M 246
its dream . " M 244
its feet ! " M 240
its crib . " M 240
its fill . " M 238
its done . " M 232
its wish . " M 230
its bank . " M 230
its heads . " M 228
its realm . " M 226
its range ? " M 226
its full . " M 226
its reading . " M 224
its loss ? " M 224
its poets . " M 222
its heir . " M 218
its bone . " M 218
its young ? " M 216
its form ? " M 216
its data . " M 216
its port . " M 212
its play . " M 210
its lust . " M 210
its will ? " M 208
its poor . " M 206
its anger . " M 206
its unit . " M 202
its toil . " M 202
its road . " M 202
its mate ? " M 202
its home ? " M 202
its duty ? " M 202
its mind ! " M 200
its goal ? " M 200
its list . " M 198
its coat . " M 196
its base ? " M 196
its test . " M 192
its mark ! " M 192
its post . " M 190
its length ? " M 190
its cage ? " M 190
its liking . " M 188
its duty ! " M 186
its threat . " M 184
its wars . " M 182
its thorn . " M 182
its fish . " M 180
its cult . " M 176
its fall ? " M 174
its note . " M 172
its longing . " M 172
its kind ! " M 172
its years . " M 170
its exit . " M 170
its fate ? " M 168
its side ! " M 166
its tale . " M 164
its sort . " M 162
its lack . " M 162
its hill . " M 160
its healing . " M 160
its code . " M 154
its union . " M 150
its look . " M 150
its wind . " M 146
its worth ! " M 144
its tree . " M 144
its like ? " M 144
its beating . " M 144
its bearing . " M 142
its wood . " M 140
its mine . " M 140
its peace ! " M 138
its harm . " M 136
its coming ? " M 134
its meaning ! " M 132
its hurt . " M 130
its home ! " M 130
its ways ? " M 128
its risk . " M 128
its hearing . " M 128
its body ! " M 128
its acting . " M 128
its part ? " M 124
its mark ? " M 124
its loss ! " M 124
its length ! " M 124
its idol . " M 124
its cave . " M 124
its rating . " M 122
its moon . " M 122
its mode . " M 120
its gone . " M 120
its cage ! " M 120
its cell . " M 118
its lock . " M 114
its fine . " M 114
its bows . " M 114
its wrong . " M 112
its vice . " M 112
its there . " M 112
its safe . " M 112
its like ! " M 112
its cool . " M 112
its stay . " M 110
its nest ! " M 110
its hire . " M 110
its hate . " M 110
its deed . " M 110
its rate . " M 108
its ethos . " M 106
its rise ? " M 104
its myths . " M 104
its lies . " M 104
its hand ? " M 104
its will ! " M 102
its what ? " M 102
its land ? " M 102
its aims ? " M 102
its talk . " M 100
its show . " M 100
its mate ! " M 100
its third . " M 98
its paths . " M 98
its move . " M 98
its cure ? " M 98
its angel . " M 98
its wont . " M 96
its gift . " M 96
its calm . " M 96
its wealth ? " M 94
its trap . " M 94
its span . " M 94
its reach ! " M 94
its pull . " M 94
its hole ? " M 94
its well . " M 92
its ties . " M 92
its breath ! " M 92
its thread . " M 90
its keys . " M 90
its hole ! " M 90
its breath ? " M 90
its young ! " M 88
its mass ? " M 88
its city . " M 88
its bent . " M 88
its arms ? " M 88
its word ? " M 86
its want . " M 86
its talk ! " M 86
its leave . " M 86
its book . " M 86
its blow . " M 86
its step . " M 84
its rain . " M 84
its norm . " M 84
its door ? " M 84
its truth ! " M 82
its tour . " M 82
its pain ? " M 82
its kick . " M 82
its feed . " M 82
its depth ? " M 82
its core ! " M 82
its bets . " M 82
its uses ! " M 80
its jobs . " M 80
