its the kind of M 598
its the same thing M 560
its the only thing M 526
its wing span is M 460
its so hard to M 408
its wing over the M 344
its as well as M 328
its the same as M 324
its my turn to M 322
its so good to M 294
its the last thing M 246
its the best thing M 220
its so nice to M 210
its as good as M 168
its wing there is M 154
its king into the M 150
its my duty to M 140
its wing from the M 128
its the sort of M 118
its wing when it M 116
its wing span of M 116
its wing into the M 108
its the same in M 106
its king from the M 96
its wing till it M 84
its the time of M 84
its toe into the D 408
its ear when he D 124
its ear from the D 92
