item i of the M 1028
item i in the M 846
item a of the M 483
item a in the M 382
item a is the M 289
item i at the M 194
item i to the M 145
item i is the M 125
item i to be M 100
item i on the M 62
item d of the M 49
