items at the end M 8097
items in the two M 7479
items in the set M 5951
items at the top M 4137
items in the new M 3746
items in the box M 3277
items he or she M 2876
items of the day M 2441
items on the two M 2437
items in the lot M 2299
items of the two M 1946
items in the bag M 1810
items in the area M 1783
items in it are M 1442
items on the web M 1390
items to be read M 1330
items of the new M 1318
items in the long M 1282
items as if they M 1268
items in the year M 1221
items to be put M 1184
items on the top M 1160
items to the end M 1052
items in the way M 1028
items in the top M 1002
items on the new M 940
items to the new M 889
items in the old M 882
items on the one M 783
items in the real M 744
items is to use M 732
items we do not M 726
items to do with M 726
items on the map M 706
items to be cut M 646
items of the set M 612
items on the way M 600
items in the job M 592
items in it that M 582
items of the old M 579
items on it are M 560
items in the non M 560
items to the top M 532
items on the day M 532
items by the end M 524
items of the non M 510
items on the long M 506
items in it and M 490
items or of net M 442
items to be set M 426
items as the use M 390
items in the day M 387
items in an area M 383
items of the year M 378
items in the pre M 378
items in the sum M 375
items on the job M 370
items in the one M 364
items it is not M 352
items in the meal M 352
items as he can M 352
items to go with M 348
items of the law M 347
items in the poem M 338
items in the six M 337
items at the two M 331
items by the use M 324
items on it and M 322
items of the heat M 308
items up to and M 306
items in the heap M 306
items is the sum M 296
items of my own M 292
items so as not M 282
items in the bid M 278
items in the air M 275
items in the low M 270
items in an old M 270
items to the set M 268
items to the two M 266
items in the net M 263
items in the near M 263
items in the bin M 260
items in the log M 254
items at the head M 248
items as tea and M 246
items on the sat M 245
items or if you M 236
items on it that M 235
items of the real M 234
items in the key M 230
items on or off M 226
items of the job M 222
items if by its M 216
items on the fly M 211
items as it does M 210
items at or near M 209
items of the sum M 208
items of the meal M 206
items on the use M 204
items on the pre M 203
items to the web M 202
items to be had M 202
items on the old M 202
items in the path M 200
items in or out M 200
items in it can M 200
items of the long M 196
items in the sad M 196
items in my own M 196
items as do not M 194
items in the mix M 190
items on the death M 188
items in the web M 187
items in the mid M 187
items in the map M 186
items of the six M 184
items to the sum M 183
items in the act M 182
items of the poem M 180
items in the rear M 178
items at the low M 174
items in the meat M 173
items in the ten M 169
items in no way M 168
items at the new M 166
items of the one M 158
items is the one M 153
items up to that M 151
items on the set M 147
items by the two M 147
items on the war M 146
items of it are M 142
items in the war M 141
items of the war M 140
items in the all M 140
items in so far M 140
items at the rear M 140
items as to how M 140
items is the key M 139
items as the age M 139
items as the one M 136
items on the seat M 134
items so we can M 132
items of the pre M 132
items is the net M 132
items to the box M 130
items to it and M 130
items as we can M 130
items as it was M 128
items as an aid M 128
items in the law M 126
items in the heat M 126
items in the big M 124
items on the end M 121
items to the one M 118
items to the old M 118
items is to ask M 118
items to the men M 114
items is to add M 114
items is the use M 114
items as an old M 114
items on or near M 112
items as the two M 111
items to it using M 110
items in it may M 110
items in it for M 110
items as if she M 110
items or by using M 108
items on the air M 108
items in an easy M 108
items as to her M 108
items in the end M 107
items in the men M 106
items in the man M 105
items or the use M 104
items or if they M 104
items of no real M 104
items as it can M 104
items in the bar M 102
items as he had M 102
items or to add M 100
items up to this M 98
items to the job M 98
items to be bid M 98
items or it may M 98
items of the ten M 98
items of no use M 98
items at the age M 98
items as the new M 98
items to be run M 96
items of the dead M 95
items is to put M 94
items in the sun M 94
items in an all M 94
items on the bar M 92
items on it may M 92
items in the add M 92
items on the far M 91
items or to use M 90
items or do not M 90
items by the year M 89
items to the long M 88
items of the bid M 88
items if he had M 88
items to be hung M 86
items of the area M 86
items in it was M 86
items as it has M 86
items as he may M 86
items on the team M 84
items on it can M 84
items is so low M 84
items of the era M 82
items as it did M 80
items in the pro M 63
items in the east M 59
items on the net M 56
items on the six M 50
items in or near M 46
items in the fear M 43
items on the low M 41
items of the pay M 41
items is the day M 40
items in the tax D 894
items in the car D 810
itching to be off D 805
items in the kit D 667
itching in the ears D 664
items on the bed D 638
itching of the eye D 579
items on the tax D 559
items in the row D 536
items in the pop D 414
itching in the area D 375
items in the sub D 348
itching of the head D 341
items in the gut D 328
itching of the ears D 318
itching to do for D 298
itching at the end D 290
itching in the eye D 283
itching to go out D 258
itching to go and D 235
itching up on his D 206
items on the car D 198
items in the art D 162
itching to be out D 156
items of the tax D 148
items is an art D 148
itching to do this D 144
items on the pop D 138
items in the jar D 134
itching of the lid D 130
itching of the area D 129
itching to do that D 121
itching in the head D 113
items in the pot D 112
items in the lab D 112
itching to be rid D 112
itching to go for D 110
itching is so bad D 110
items to the pop D 109
items to be met D 106
items on the fed D 106
itching to do all D 106
items in the raw D 102
itching at the tip D 100
items in the van D 96
itching of the tip D 92
itching to do things D 86
items to the car D 80
itching at the seat D 69
itching to be doing D 62
items to the tax D 44
