significance M 46608957
specifically M 31733257
sufficiently M 30460965
subsequently M 25284079
satisfactory M 24506205
successfully M 24356586
specification M 11466587
similarities M 7775190
successively M 4427544
superstitious M 3296632
superstitions M 2365222
specialisation M 891135
separateness M 782148
stabilisation M 694322
selflessness M 372071
substantially D 15724079
shareholders D 9365499
supernatural D 8216835
standardized D 7239052
surveillance D 6163245
supplemented D 5863968
stockholders D 5616549
spontaneously D 5589402
socioeconomic D 5513274
schizophrenia D 5270605
specialization D 5252157
spirituality D 5038785
stabilization D 4838037
subordinates D 4366551
subjectivity D 4052952
spectroscopy D 3851087
subordination D 3763626
scholarships D 3374162
subcommittee D 3353016
superimposed D 3147396
subscriptions D 3137118
sedimentation D 3059477
supplemental D 3057744
signification D 3021766
stakeholders D 2865643
straightened D 2634177
subordinated D 2476552
structurally D 2457156
sterilization D 2456309
schoolmaster D 2320778
symbolically D 2182035
superficially D 1979766
spectrometer D 1805027
strawberries D 1781055
sociocultural D 1649993
spectrometry D 1558814
substantiated D 1501382
semicircular D 1464454
synchronized D 1449589
satisfactions D 1419178
scrupulously D 1384277
substitutions D 1375759
superposition D 1278915
spiritualism D 1214296
supermarkets D 1151621
streptococci D 1146169
subjectively D 1101729
sensitization D 1016685
subcontinent D 986121
stereotypical D 922135
sporadically D 903006
streptomycin D 885330
semantically D 872867
scintillation D 863654
sequestration D 856814
slaveholders D 845965
stubbornness D 803404
schoolteacher D 779716
stratosphere D 747419
statisticians D 726934
subservience D 719532
supranational D 714434
solicitations D 698623
stenographer D 695937
simultaneity D 668551
systematized D 633181
substructure D 604667
spokesperson D 604477
superintending D 582127
supplications D 526377
salesmanship D 521794
steadfastness D 515773
subcontracting D 511056
sociolinguistic D 503776
storytellers D 482406
spiritualist D 464697
shortsighted D 461648
spectrograph D 445253
surreptitious D 437241
spectroscope D 433590
smallholders D 430453
steelworkers D 398268
substantiation D 373259
straightaway D 357672
shipbuilders D 355670
symbolization D 354782
secessionists D 353688
subsidization D 338591
screenwriter D 321195
systemically D 312971
sluggishness D 309212
stenographic D 298400
synthetically D 285614
spermatozoon D 283332
sardonically D 274490
separability D 267720
suggestively D 262486
synonymously D 261628
superlatives D 260574
substantives D 258007
stepdaughter D 257190
storekeepers D 254480
straightness D 254233
stepchildren D 253666
somnambulism D 252620
stockbrokers D 252248
sanctimonious D 246316
superhighway D 232579
schoolhouses D 226356
southwesterly D 223075
substantiates D 219858
submissively D 215776
semipermeable D 215701
scintillator D 214614
semiautomatic D 212826
suffragettes D 211018
sensuousness D 205555
semiconducting D 205471
straitjacket D 200772
scandalously D 194986
sledgehammer D 193572
sharecropper D 192477
straightedge D 190796
syndicalists D 184228
sarsaparilla D 182196
streetlights D 179779
superscripts D 174542
suburbanites D 172808
switchboards D 162047
shirtsleeves D 159063
scarification D 157709
supercharged D 150822
steeplechase D 148421
subcontracts D 147936
southwestward D 147431
snobbishness D 147113
stereographic D 147095
stationmaster D 144185
solicitously D 140444
schoolfellow D 138372
scriptwriter D 134122
screwdrivers D 130198
simpleminded D 129822
sportswriter D 126785
simplicities D 123976
sharpshooter D 123362
sinusoidally D 122465
stewardesses D 121071
slovenliness D 119678
sequestrated D 118553
somnambulist D 116743
solitariness D 115885
supercharger D 115021
stroboscopic D 111658
systematical D 110951
subliminally D 107486
solemnization D 104568
sponsorships D 101611
superintends D 99543
scrupulosity D 99259
stagecoaches D 96924
squeamishness D 96224
supercomputing D 95567
sententiously D 94103
shamefacedly D 94095
scatological D 94065
supremacists D 91901
shuffleboard D 89792
synchronizes D 89547
sticklebacks D 88061
seismographs D 87426
semiconscious D 87378
suitableness D 87297
sensationally D 84937
speechwriter D 84679
semidarkness D 84527
sophisticate D 84196
superimposes D 79951
slipperiness D 78211
semitropical D 76820
syllabication D 76274
suppressants D 75857
submersibles D 75184
spinsterhood D 74071
symbiotically D 55966
sadistically D 54892
swashbuckler D 54525
sportscaster D 52806
stomachaches D 52299
sleepwalkers D 50789
streetwalker D 50285
sheepherders D 50264
semanticists D 49440
surmountable D 49386
spectaculars D 49272
subjunctives D 49077
subexpression D 48869
succinctness D 48139
standardizes D 47749
studentships D 46403
supertankers D 44903
semidetached D 44853
spitefulness D 44315
slaughterers D 43921
steppingstones D 43765
stupendously D 43335
sacrificially D 43138
soliloquized D 42619
seismometers D 41255
somersaulted D 39958
subversively D 39223
superscribed D 38037
saxophonists D 37934
soundproofed D 37737
systematizes D 32341
snowboarders D 32183
straightener D 31971
speechlessly D 31054
swallowtails D 29055
skillfulness D 28857
seismologist D 28521
scintillated D 27843
shatterproof D 27491
servicewomen D 27017
stipendiaries D 25504
speleological D 25233
strikebreaker D 25097
survivalists D 24560
schoolfriend D 24209
speedometers D 23944
sonorousness D 23833
stallholders D 23763
soliloquizes D 22862
suppressible D 22313
shamefulness D 21457
shuttlecocks D 20968
sparrowhawks D 20449
sharecropped D 19424
scoutmasters D 18831
spotlessness D 18622
skittishness D 18209
summerhouses D 18154
scatterbrain D 18076
southeastwards D 17876
soullessness D 17859
skateboarder D 17171
sempstresses D 16975
semitrailers D 16739
subharmonics D 16497
scintillates D 15210
sheepishness D 15076
smokescreens D 14690
signalization D 14590
spellbinders D 14171
scurrilously D 13801
spellchecker D 13769
scandalmonger D 13154
sensibleness D 13000
spaceflights D 11866
salaciousness D 11417
sportsperson D 11243
superannuate D 11171
steamrollered D 11169
seductresses D 10789
sophisticating D 10616
singularization D 10412
switchblades D 9966
stockbreeder D 9870
sprightliest D 9796
straightways D 9400
scorekeepers D 8450
semifinalist D 8059
showstoppers D 7912
speleologists D 7786
serializations D 7633
specificness D 7263
seraphically D 7160
scratchiness D 7119
selenography D 6524
sexagenarians D 6323
speakerphones D 6137
supergrasses D 5930
snappishness D 5506
stroboscopes D 5415
storyboarded D 5393
steeplejacks D 4876
sandblasters D 4717
supercharges D 4566
servicewoman D 4361
strangleholds D 4116
smorgasbords D 3495
stretchiness D 3447
seismography D 3171
semilattices D 3137
sisterliness D 2582
salutatorians D 2576
surjectivity D 2567
stretchmarks D 2507
sailboarders D 2482
syllabicated D 2260
sequestrates D 2255
semiweeklies D 2249
subbasements D 2077
skateboarded D 1844
superannuating D 1689
subservients D 1686
scrumptiously D 1459
scratchcards D 1377
superscribes D 926
sculptresses D 871
spitefullest D 636
semimonthlies D 546
shuttlecocking D 404
silverfishes D 401
suborganisms D 281
squeezeboxes D 234
schmaltziest D 193
syllabicates D 56
