more a thing of M 4822
more i am in M 2018
more a thing is M 1814
month i go to M 890
more i go on M 760
more i do it M 760
more i am to M 626
more a thing to M 596
more i am at M 588
month i am to M 464
more i do the M 410
more i am on M 359
more i go to M 348
more i am the M 322
mode i is the M 299
most i of the M 296
more s in the M 286
more i do so M 266
more a king he M 261
more a king in M 237
more i am of M 224
more i eat the M 218
more a king of M 214
more i do to M 190
month i am in M 183
more i am my M 182
more i do in M 180
most i do is M 178
more a king or M 165
more i go the M 162
move a to the M 161
more i am so M 136
more a thing in M 127
more i am by M 122
moon i am the M 114
more a foe to M 104
month t is the M 98
move a thing in M 94
mood i am in D 1281
move a toe or D 226
morn i to the D 208
more a sea of D 52
