mother and sister . M 66440
money and credit . M 28785
mother and brother . M 18584
motion was denied . M 10054
months had passed . M 9942
mother and myself . M 9404
money was scarce . M 8964
money and prices . M 8481
money and effort . M 8465
moved him deeply . M 6564
money was needed . M 6124
money and energy . M 5754
mother and family . M 5682
moaning and groaning . M 5515
money was raised . M 3686
money for myself . M 3660
money and clothes . M 3533
mother was buried . M 3306
mother and sister ? M 3206
mother was killed . M 3186
moved too slowly . M 3134
money for school . M 2898
mother was furious . M 2690
money and labour . M 2576
money was stolen . M 2448
money than before . M 2399
money they needed . M 2376
mother was silent . M 2338
mother and teacher . M 2321
moral and ethical . M 2224
motion was passed . M 2162
moved her deeply . M 2142
money for clothes . M 2136
money was wasted . M 2084
money was hidden . M 2026
mother was asleep . M 1958
motion and strength . M 1944
money she needed . M 1848
moral law itself . M 1780
moves and changes . M 1764
months and seasons . M 1756
months that follow . M 1744
model and reality . M 1653
mother and friend . M 1651
money and advice . M 1578
motion and energy . M 1504
money than brains . M 1456
mother and sister ! M 1432
motion and emotion . M 1374
mother for advice . M 1320
money and profit . M 1320
money and papers . M 1284
mother and smiled . M 1276
moral and divine . M 1248
money for travel . M 1248
moved with caution . M 1196
money for itself . M 1184
model being tested . M 1178
model for reform . M 1164
money nor credit . M 1160
money for another . M 1138
mother was pleased . M 1128
money for relief . M 1120
money they wanted . M 1118
model and mentor . M 1097
money for something . M 1078
months each winter . M 1058
mother was absent . M 1050
money was issued . M 1036
money she wanted . M 1030
money was wanted . M 996
mother was sleeping . M 990
mother was around . M 962
moves too slowly . M 953
money and output . M 952
money and talent . M 950
model for memory . M 948
motion and speech . M 940
money lying around . M 938
model was created . M 932
money that counts . M 914
months each summer . M 912
moved him greatly . M 906
moved his family . M 860
model was chosen . M 840
mother and worker . M 826
mother and brother ? M 806
mother had become . M 798
money you borrow . M 764
moved and breathed . M 758
money and stores . M 746
model are needed . M 740
motion and matter . M 730
model for another . M 717
mother was standing . M 710
money for extras . M 710
moved but slowly . M 704
model was tested . M 704
model was needed . M 702
moved them deeply . M 700
money and assets . M 698
moved nor spoken . M 692
mother had spoken . M 688
mother was insane . M 684
moved off slowly . M 674
mother lay buried . M 672
modes and orders . M 672
money and morals . M 668
money was buried . M 636
months and beyond . M 630
money they borrow . M 596
moves and breathes . M 592
money this summer . M 578
model you choose . M 576
mother had changed . M 568
mother had called . M 566
moral and mental . M 562
morning was bright . M 560
morning for school . M 560
money are wasted . M 558
moved them around . M 556
mother was afraid . M 556
model for reality . M 552
money and favors . M 546
morning has broken . M 537
mother was watching . M 530
model and matter . M 518
moved and changed . M 516
morning had passed . M 512
mother had chosen . M 510
money you desire . M 510
money was plenty . M 508
money for building . M 506
mother and babies . M 504
money and brains . M 502
money for profit . M 492
money does matter . M 488
money and family . M 484
moved with safety . M 480
mother was better . M 462
money was better . M 462
model are obvious . M 462
money has changed . M 458
model has changed . M 458
money are needed . M 456
modes and methods . M 456
money for training . M 452
mourn and lament . M 450
motion for reform . M 450
money has fallen . M 448
morning sky beyond . M 446
money had bought . M 440
modes are stable . M 440
money for bribes . M 438
moved things around . M 436
morning was lovely . M 432
money too freely . M 432
model and teacher . M 430
motion and thought . M 428
motion for relief . M 424
money all around . M 412
money and checks . M 410
model for anyone . M 410
money for masses . M 398
moral was obvious . M 396
money and credit ? M 396
model and methods . M 394
mother was visiting . M 392
moral and proper . M 386
morning had dawned . M 384
money for anyone . M 384
money and honors . M 382
model with reality . M 382
money they raised . M 380
model for humans . M 380
mother had bought . M 376
modes are active . M 370
motion and forces . M 364
mother had failed . M 364
mother was laughing . M 362
money had failed . M 360
model for planning . M 360
mourn for myself . M 358
money was stolen ? M 352
money was hidden ? M 350
model and measure . M 350
model and design . M 348
money and honour . M 347
mother cry before . M 344
mother had wanted . M 342
money and riches . M 342
mother had fallen . M 338
mother had warned . M 334
months this summer . M 332
money you needed . M 330
moved far enough . M 328
mother was amazed . M 328
model was fitted . M 328
money being wasted . M 320
moved and worked . M 318
moved and pleased . M 318
mother had worked . M 318
money was created . M 318
morning for church . M 316
model and master . M 316
model has failed . M 314
money and praise . M 312
money had passed . M 308
moves but little . M 305
mother had created . M 302
model are listed . M 302
model for myself . M 301
mother was raised . M 300
modes are needed . M 300
mother was jealous . M 298
mother was called . M 296
months has passed . M 296
months are common . M 296
moves them around . M 295
moved any further . M 292
morning with prayer . M 290
model this effect . M 290
mother was anxious . M 288
money was placed . M 288
months and counting . M 282
mother and myself ? M 280
money and training . M 280
moved but little . M 278
money and effort ? M 278
money was intact . M 276
model with another . M 276
mother was pretty . M 272
model its effect . M 272
mother are buried . M 270
moral and useful . M 270
moved and stored . M 268
moves but slowly . M 266
model for training . M 264
motion for papers . M 262
money this winter . M 262
mother had wished . M 260
money was another . M 260
money than another . M 260
money and strength . M 260
money and return . M 260
money was enough . M 258
model for prayer . M 258
moved for speech . M 256
mother had passed . M 256
model and system . M 256
motion was normal . M 254
moral and honest . M 254
moved any closer . M 252
mourn and grieve . M 252
money thus raised . M 252
money she spends . M 252
mother was killed ? M 250
mother had agreed . M 250
money was passed . M 250
morning has dawned . M 248
morning for prayer . M 248
money for myself ? M 248
money can secure . M 244
moves him deeply . M 242
money being raised . M 242
motion and notice . M 240
mother with horror . M 240
model had failed . M 240
model are changed . M 240
mother and writer . M 238
motion may result . M 236
money has passed . M 236
mother was lonely . M 234
money and values . M 234
model and friend . M 234
morning and sunset . M 232
money not scarce ? M 232
model for preaching . M 232
moved her greatly . M 230
money and depart . M 230
moved and passed . M 226
money and orders . M 226
mother and doctor . M 224
months that summer . M 224
motion and impact . M 222
mother was strict . M 222
mother this summer . M 222
money for anyway ? M 222
model being fitted . M 222
moved out slowly . M 220
mother had shared . M 220
mother and family ? M 220
money you wanted . M 220
money can afford . M 220
mother than myself . M 218
moral and modest . M 218
money can supply . M 216
model for thought . M 216
money and smiled . M 214
moved with emotion . M 212
money and spirit . M 212
model for design . M 212
model any further . M 211
months may elapse . M 210
moves with thought . M 208
money goes further . M 208
money and retire . M 208
money was stored . M 206
mother was serious . M 204
money for someone . M 204
moved off center . M 202
modes and values . M 202
motion and figure . M 200
money that summer . M 200
money nor clothes . M 200
money and travel . M 200
money and prices ? M 198
model and beyond . M 198
months are passed . M 196
months and younger . M 196
model for itself . M 196
motion and number . M 194
moral and decent . M 194
money with anyone . M 192
money and weight . M 192
mother has changed . M 190
money had fallen . M 190
money and breeding . M 190
money for awhile . M 188
model you select . M 188
moved and fought . M 186
mother had taught . M 186
mother had missed . M 186
money being stolen . M 186
model that worked . M 186
mourn its demise . M 184
mother was inside . M 184
morning had broken . M 184
money was inside . M 182
model for speech . M 182
motion can result . M 180
motion and desire . M 180
mother for awhile . M 180
months are needed . M 180
money has bought . M 180
money can obtain . M 180
modem can handle . M 180
model are varied . M 180
moved him before . M 178
mother had played . M 178
morning for orders . M 178
money for something ? M 178
money and thought . M 178
money and energy ? M 178
moves our wonder . M 176
money you wanted ? M 176
moves and actions . M 175
mourn his demise . M 174
motion for debate . M 174
model was solved . M 174
moved and turned . M 172
mother any further . M 172
money lying around ? M 172
money for school ? M 172
money and standing . M 172
mould was broken . M 170
mould our future . M 170
motion and colour . M 170
model was flawed . M 170
model are tested . M 170
mourn our losses . M 168
motion and effort . M 168
money for safety . M 168
money are scarce . M 168
money and forces . M 168
modes and routes . M 168
moves you deeply . M 166
monks and nobles . M 166
money was lodged . M 166
moved him little . M 164
motion are common . M 164
mother and brother ! M 164
money they manage . M 164
model this system . M 164
moves are needed . M 162
mother than before . M 162
money was useful . M 162
money long enough . M 162
mother was normal . M 160
mother was enough . M 160
months old already . M 160
money was raised ? M 160
money and market . M 160
money and wisdom . M 159
money was spared . M 158
moaning and groaning ? M 157
moral law itself ? M 154
money for preaching . M 154
money and stress . M 154
mother for safety . M 152
money that exists . M 152
money for clothes ? M 152
model can handle . M 152
money and safety . M 151
motion has changed . M 150
mother who worked . M 150
mother was treated . M 150
monks and ladies . M 150
money was urgent . M 150
money was secure . M 150
modes and habits . M 150
morning and waited . M 148
moral than another . M 148
moral act itself . M 148
money and planning . M 148
model was simple . M 148
moved out already . M 146
moved him around . M 146
mother and smiles . M 146
money and shares . M 146
motion that occurs . M 144
mother and itself . M 144
model and another . M 144
moaning and groaning ! M 143
mother had thought . M 142
months are crucial . M 142
money you needed ? M 142
money they desire . M 142
money and laughing . M 142
motion was proper . M 140
mother was scared . M 140
months was enough . M 140
money was seized . M 140
money and bribes . M 140
morning was wasted . M 138
money had changed . M 138
modes are changed . M 138
model you prefer . M 138
moved and walked . M 136
moved all around . M 136
mourn him deeply . M 136
mother was spared . M 136
mother has become . M 136
months for training . M 136
money they demand . M 136
money for favors . M 136
money and failed . M 136
model was absent . M 136
model and source . M 136
moved out anyway . M 134
moved nor breathed . M 134
mother was enduring . M 134
moral law sought . M 134
months this winter . M 134
model are simple . M 134
motion and spirit . M 132
mother was carrying . M 132
mother was another . M 132
mother she adored . M 132
mother nor sister . M 132
mother can endure . M 132
mother are killed . M 132
money nor effort . M 132
modes and models . M 132
model with caution . M 132
moaning with desire . M 132
mourn with another . M 130
mother with spirit . M 130
mother was special . M 130
mother for something . M 130
mother and divine . M 130
modes and causes . M 130
moves and stands . M 129
mould her future . M 128
motion was wasted . M 128
mother was guilty . M 128
mother got better . M 128
morning was better . M 128
moved with desire . M 126
moral and ethical ? M 126
model than another . M 126
model being created . M 126
moved her closer . M 124
mould was filled . M 124
mother lay sleeping . M 124
mother goes through . M 124
money put options . M 124
money for myself ! M 124
money and waited . M 124
modes are listed . M 124
moves with caution . M 122
moves off slowly . M 122
motion has passed . M 122
mother nor brother . M 122
mother has failed . M 122
mother had before . M 122
mother and waited . M 122
morning they parted . M 122
model with adults . M 122
model for adults . M 122
motion was changed . M 120
motion and stress . M 120
morning was ruined . M 120
monks was silent . M 120
money and misery . M 120
moves things around . M 119
motion and becoming . M 118
mother had smiled . M 118
mother did return . M 118
morning was special . M 118
months was normal . M 118
monks than reasons . M 118
money was common . M 118
modes and options . M 118
moaning and bleeding . M 117
mother and nature . M 116
morning for myself . M 116
morning for advice . M 116
moral law exists . M 116
months had passed ? M 116
money was crucial . M 116
money they charge . M 116
money for printing . M 116
money and murder . M 116
modes are absent . M 116
model was changed . M 116
motion than before . M 114
motion and another . M 114
mother was strange . M 114
mother long enough . M 114
months that winter . M 114
months than before . M 114
money they handle . M 114
money than anyone . M 114
money and emotion . M 114
money and desire . M 114
model was placed . M 114
mother was famous . M 112
mother was engaged . M 112
mother lying asleep . M 112
money and access . M 112
model and nature . M 112
motion are needed . M 110
motion and weight . M 110
mother and myself ! M 110
months for another . M 110
money was changed . M 110
money was burned . M 110
money going around . M 110
model for reasoning . M 110
model for mothers . M 110
mourn his decease . M 108
motion long before . M 108
mother was amused . M 108
mother had stayed . M 108
mother had argued . M 108
morning has passed . M 108
morning and prayed . M 108
money thus gained . M 108
money for repair . M 108
money are burned . M 108
mother was twelve . M 106
mother that summer . M 106
mother earth figure . M 106
mother and school . M 106
morning and monday . M 106
moral and devout . M 106
money has failed . M 106
modes and tenets . M 106
model was better . M 106
model for grieving . M 106
moves her deeply . M 104
moved them before . M 104
mother had prayed . M 104
model was sought . M 104
model was formed . M 104
model was broken . M 104
motion had passed . M 102
motion had failed . M 102
mother she wanted . M 102
mother and person . M 102
months are listed . M 102
money and escape . M 102
model for nature . M 102
moves off center . M 100
mother with relief . M 100
mother can afford . M 100
mother all summer . M 100
morning that summer . M 100
morning and taught . M 100
months for adults . M 100
money for shares . M 100
moved with wonder . M 98
motion are solved . M 98
modes and states . M 98
model was copied . M 98
model for pupils . M 98
model and object . M 98
moves and shifts . M 97
mould his future . M 97
mother and fathers . M 97
moves for reform . M 96
motion with itself . M 96
motion they permit . M 96
mother had looked . M 96
months one summer . M 96
money and methods . M 96
morning all around . M 95
moved and thought . M 94
mourn his friend . M 94
motion are changed . M 94
mother was residing . M 94
mother was lovely . M 94
mother was broken . M 94
mother had theories . M 94
mother had served . M 94
mother got killed . M 94
mother for rescue . M 94
mother for rebirth . M 94
mother for myself . M 94
morning had changed . M 94
monks lie buried . M 94
money goes abroad . M 94
money and profit ? M 94
model can emerge . M 94
moved with energy . M 92
mould its future . M 92
motion and strain . M 92
mother with chores . M 92
mother can supply . M 92
mother and mentor . M 92
money for lodgings . M 92
money and rights . M 92
money they issued . M 91
moved him thereto . M 90
moved for safety . M 90
mother was obvious . M 90
mother has chosen . M 90
mother being killed . M 90
morning and smiled . M 90
money was higher . M 90
money this summer ? M 90
money may direct . M 90
mother was planning . M 88
mother has passed . M 88
mother had raised . M 88
mother and maiden . M 88
months that passed . M 88
money for models . M 88
money and malice ? M 88
moved with passion . M 86
moved for papers . M 86
mother for another . M 86
mother does better . M 86
mother and parent . M 86
mother all winter . M 86
morning was monday . M 86
money they obtain . M 86
modes and shapes . M 86
moves one deeply . M 84
moved them slowly . M 84
mourn his losses . M 84
motion was needed . M 84
mother was abroad . M 84
morning was broken . M 84
monks had become . M 84
money was called . M 84
money nor labour . M 84
money had become . M 84
money got stolen . M 84
money for raises . M 84
money for naught . M 84
modes and stages . M 84
modes and colors . M 84
model for mission . M 84
mourn and suffer . M 82
motion for another . M 82
mother far behind . M 82
moral and sacred . M 82
months had failed . M 82
money she needed ? M 82
money for credit . M 82
moved out earlier . M 80
moved and cleaned . M 80
motion than another . M 80
motion are reached . M 80
mother she looked . M 80
morning was enough . M 80
money was stable . M 80
money that winter . M 80
