moment i heard the M 11986
moment i want to M 8086
moment i have no M 5162
moment i felt the M 4972
moment i felt as M 4776
monday i went to M 4730
modify a noun or M 4714
moment i heard of M 4450
moment i left the M 3354
moment i came to M 2668
moment i wish to M 2654
moment i have to M 2428
moment i woke up M 2375
mornings a week to M 2316
moment i think of M 2248
moment a sort of M 2166
moment i heard it M 2068
moment a kind of M 2022
moment i seem to M 2004
moment i have the M 1922
moment i felt my M 1858
mornings a week at M 1734
moment i came in M 1721
moment i think it M 1684
moment a part of M 1630
moment i think he M 1624
moment i knew the M 1614
moment i said it M 1592
moment a look of M 1572
moment i lost my M 1564
moment a pair of M 1474
mornings a week in M 1466
moment i feel the M 1440
moment i felt it M 1416
moment i will be M 1360
moment i feel as M 1360
moment i went to M 1346
moment i heard my M 1338
moment i said to M 1316
mostly i want to M 1306
mostly a case of M 1304
moment a band of M 1286
moment i cease to M 1196
mostly a kind of M 1190
moment a body of M 1178
mornings i wake up M 1111
moment i knew it M 1108
mornings i used to M 1080
moment i wake up M 1079
moment i open my M 1072
moment i made the M 1056
moment i fell in M 1030
moment i made my M 1028
moment i felt an M 992
moment i come to M 972
moment i think we M 968
moment i cast my M 962
moment i made up M 886
moment i speak of M 864
mostly i think it M 858
moment i leave the M 818
moment i think the M 796
moment i find it M 760
moment i must be M 748
moment i knew he M 732
moment i laid my M 722
moment i gave up M 721
moment i felt so M 670
moment a drop of M 658
moment a mass of M 654
moment i have an M 646
modify a copy of M 642
moment i look at M 624
mostly a form of M 612
moment i went on M 610
moment i came up M 592
moment i left my M 588
moment a baby is M 584
monday i hope to M 578
moment i knew we M 576
moment i knew my M 568
moment i held my M 566
modify a verb or M 554
mornings a week he M 550
monday i have to M 546
moment i were to M 540
mostly a sort of M 536
moment i heard an M 534
moment i felt no M 534
moment i need to M 516
mornings i went to M 514
moment i went in M 514
moment a work is M 512
moment i have in M 508
moment i know of M 502
moment i gave my M 500
mostly a part of M 488
moment i heard he M 488
modify a part of M 488
mostly a mass of M 482
moment a rush of M 470
moment i turn my M 462
modify a noun in M 454
mostly i think of M 450
moment a note of M 444
moment i gave the M 432
mostly a list of M 416
mostly i like to M 414
moment i give the M 404
moment i feel it M 402
moment i shut my M 398
moment i came on M 386
mostly i have to M 384
mostly a land of M 380
monthly a list of M 379
mostly a time of M 372
mostly a good thing M 372
moment i open the M 368
moment a line of M 368
modify a plan at M 368
moment i held the M 366
moment i have my M 360
moment i will go M 358
moment i know it M 358
modify a word in M 356
moment i turn to M 354
mornings a week on M 348
moment i walk in M 344
mornings i woke up M 343
moment i call it M 338
modern a date to M 338
moment i said the M 334
mostly a means of M 328
monday i will be M 328
moment a breath of M 318
moment i lost the M 316
moment i feel an M 316
moment i left it M 312
moment i date the M 310
moment i feel my M 308
moment i take my M 302
moment i knew of M 302
moment i gave it M 298
moment i leave my M 290
moment a work of M 288
moment i give my M 286
modify a file in M 286
mornings a week the M 284
moment i felt in M 280
moment i take the M 278
moment i must go M 276
moment a copy of M 274
moment i find the M 270
modern a date as M 270
mornings a week as M 269
models a kind of M 268
models a form of M 268
mornings i have to M 264
modify a word or M 264
mostly i think he M 262
moment i made no M 262
moment i have so M 260
moment i heard no M 258
moment i make the M 256
moment a host of M 254
modest a view of M 254
moment i come in M 253
moment i felt he M 250
moment i felt at M 250
moment a hint of M 248
mostly a lack of M 246
monday i went on M 244
moment i make my M 244
modify a range of M 244
moment i told the M 240
mostly a sign of M 238
mostly a game of M 236
moment a word is M 236
moment a ship is M 236
monday i came to M 234
moment i have it M 234
moment i fail to M 234
mostly i kept my M 232
moment i felt we M 232
modern a pair of M 232
moment i know the M 230
mostly a work of M 228
moment i take up M 228
moment i feel so M 228
moment a file of M 228
moment a girl is M 226
moment i held it M 220
moment i used to M 218
monday i went up M 217
moment a view of M 214
modify a rule of M 214
moment i reach the M 208
moment i take it M 204
moment a fish is M 202
mostly i went to M 200
mostly a means to M 200
moment a flag of M 200
moment i look to M 196
moment i feel no M 196
moment i pick up M 194
moment i meant to M 194
moment i leave it M 194
moment a bend in M 192
mornings a week we M 190
monday i woke up M 190
moment i meant it M 190
moment a case is M 190
monday i will go M 188
moment i went up M 188
moment a ship of M 188
moment i made it M 186
moment a hole is M 186
mostly a tale of M 184
moment a door at M 184
moment i swear to M 178
moment i shut the M 178
moment i make no M 178
moment i just do M 178
modify a noun by M 178
modify a file or M 178
moment i hope to M 172
moment a youth of M 170
moment i need it M 166
moment a case of M 166
moment i give up M 164
monthly a copy of M 163
monday i want to M 162
moment i know my M 162
moment a sign of M 162
moment a lull in M 162
mostly a test of M 156
moment a life of M 156
moment i knew no M 154
moment a girl of M 154
moment a body is M 154
moment i live in M 152
moment i find my M 152
moment a word of M 152
moment i think my M 150
modeling a range of M 150
mostly a pain in M 148
moment i lose my M 148
moment a tree is M 148
modeling a pair of M 148
moment i speak to M 146
moment a blow is M 146
models a part of M 146
mostly a view of M 144
moment i make up M 144
mornings a week so M 142
moment t will be M 142
mourning a loss of M 140
modify a term of M 140
moment i want it M 138
moment i made an M 138
moment a hail of M 138
moment a book is M 138
modify a verb is M 138
modeling a life of M 138
mortal a time the M 136
moment i like to M 136
moment i knew in M 136
moment i held up M 136
mostly a copy of M 134
moment i lose the M 130
moment a rain of M 130
moment a line is M 130
moment a fire of M 130
models i want to M 130
moment a lack of M 128
moment a turn of M 126
modern a city as M 126
moment i look up M 125
mostly a city of M 124
moment i know no M 124
modify a verb in M 124
modify a verb by M 124
modeling a part of M 124
mostly a bird of M 122
moment i pull the M 122
moment i pray to M 122
moment i make it M 122
moment i kept my M 122
moment i have on M 122
moment a form of M 122
moment a door on M 122
mostly a type of M 120
mornings i like to M 120
monday i left the M 120
moment i know he M 120
moment a plan is M 120
moment a fire is M 120
moment i step on M 118
modeling a form of M 118
moment a door in M 116
modify a list of M 116
mornings a week of M 114
moment i lack the M 114
moment i give it M 114
modern a work as M 114
monday i went in M 113
moment i show my M 112
moment i reach my M 110
moment i lost it M 110
models a range of M 110
mostly a life of M 108
moment i said so M 108
moment i date my M 108
moment a lady in M 108
monday i must be M 106
monday i have an M 106
moment i want the M 106
moment a load of M 106
modern a book as M 106
models a pair of M 106
moment i fell to M 104
moment a duty is M 104
modify a noun as M 103
mostly a book of M 102
mostly a body of M 102
mornings i heard the M 102
monday i made my M 102
moment i told my M 102
moment i have at M 102
moment i feel in M 102
modify a noun is M 102
modify a line of M 102
models a type of M 100
mothers i know do M 98
moment a word or M 98
models i have in M 97
mornings a week by M 96
monday i went by M 96
moment a door is M 94
moment a blow on M 94
mostly a pair of M 92
mornings i woke to M 92
moment i think to M 92
moment i kind of M 92
moment a list of M 92
modify a plan to M 92
mostly i like the M 90
monday i said to M 90
monday i gave the M 90
moment i woke in M 90
moment i sent it M 90
moment a case in M 90
moment a break in M 90
mostly a more or M 88
moment i stop to M 88
moment a hand is M 88
moment a girl in M 88
mostly i kept to M 86
moment i take no M 86
moment i land in M 86
modest a part in M 86
motions i find in M 84
moment i will do M 84
moment i turn on M 84
moment i draw the M 84
models i used to M 84
monday i told the M 82
moment i died the M 82
monday i think it M 80
monday i have the M 80
moment i heard in M 80
moment a sign is M 80
modify a form in M 80
mortal a blow to M 54
moment i grew up M 47
moment i gave in M 43
module a unit of M 43
module a list of M 41
monday i came in M 40
morrow i hope to D 3316
morrow i will go D 2913
morrow i will be D 1716
moment a wave of D 1662
morrow i must go D 1238
moment a gust of D 1192
morrow i have to D 1073
moment i took the D 1000
moment i took my D 992
mounting a pair of D 968
morrow i must be D 961
moment a gleam of D 890
morrow i will do D 815
moment i took it D 754
moment a puff of D 494
moment i took up D 486
movies i want to D 464
morrow i went to D 453
mostly a string of D 364
morrow i dine at D 364
movies i used to D 360
moment a roar of D 344
moment a prey to D 336
motive i have in D 328
motley a crew as D 327
morrow i want to D 310
morrow i think we D 276
moment i clung to D 276
moment i rose to D 274
monday i took the D 266
moment i took to D 244
moment a herd of D 236
moment a bolt of D 228
morrow i wish to D 226
morrow i have the D 224
moment a shot is D 224
moment a heavy sea D 220
moment i threw the D 214
morrow i have an D 210
mounting a threat to D 204
mounting a show of D 204
morrow i hope we D 194
moment i drew up D 187
moment a bill is D 186
moment a string of D 184
modeling a bust of D 176
mounting a play in D 172
moment a pack of D 172
morrow i take my D 171
motley a kind as D 169
movies i grew up D 166
moment i took no D 166
mounting a dome on D 162
monday i took my D 162
morrow i must do D 154
mounting a drop of D 146
motley a crew of D 144
morrow i think of D 144
morrow a copy of D 139
molest a mind so D 137
moment a clap of D 136
monday i rode to D 132
mounting a raid on D 130
mounts a pair of D 129
movies i went to D 124
moment a twinge of D 124
moment a soul is D 122
morrow i take the D 121
moment i drew the D 120
mounting a hill to D 118
mooted a plan to D 118
moment i took in D 112
mounds a foot or D 111
movies i like to D 110
morrow i cease to D 110
moment i threw my D 110
mouthed a string of D 108
mostly a pack of D 108
mostly a blur of D 106
morrow i hope the D 106
moment i threw it D 106
moment a ball of D 106
moment a bevy of D 102
motive i have to D 100
morrow i leave the D 100
moment i drew my D 100
moment a roof is D 100
moment a glow of D 100
morrow i give to D 98
moment a tone of D 98
moment a bond of D 98
morrow i make my D 97
morrow i move on D 96
mounting a pile of D 94
mounting a body of D 94
morrow i pass the D 94
moment i paid no D 94
moment a wall of D 94
moment a mule in D 94
mounting a tire on D 90
mounting a cart in D 90
moment a sale is D 90
mosque i went to D 89
movies a week in D 88
mounting a kind of D 88
mostly a task of D 88
moment i hove in D 88
moment a star is D 88
mounts a kind of D 87
monday i flew to D 86
moment a wisp of D 86
moment a spur of D 86
mounts a hill to D 85
mounting a lens in D 80
moment a gush of D 80
morrow i have no D 43
morrow i were to D 42
morrow i leave to D 40
morrow a mass of D 40
