vows i made to M 420
void a drop of M 151
void i felt in M 125
vows i made in M 92
vote a bill of D 380
vote a lack of D 326
volt a unit of D 317
vote i gave the D 284
vote a bill to D 210
vote a part of D 198
vote a want of D 159
vote a test of D 139
voting a lack of D 134
vote a loan of D 110
vote i gave on D 102
voting a part of D 96
vote a vote in D 60
void a sale of D 53
vote a list of D 47
