volume of traffic . M 21646
volume of solution . M 9550
volume of material . M 6854
volume of capital . M 5970
volume is reduced . M 4306
voices of dissent . M 3572
voices in protest . M 3136
volume is measured . M 2252
volume in question . M 2222
volume of stories . M 2080
voices of silence . M 2046
voices of protest . M 1958
volume is devoted . M 1912
volume is doubled . M 1702
voices of freedom . M 1678
volume of letters . M 1598
volume of product . M 1576
volume of history . M 1270
voyage in question . M 1232
volume of research . M 1004
voices of comfort . M 959
volume of service . M 896
volume to increase . M 858
volume of travels . M 788
volume of profits . M 730
volume is limited . M 714
volume is increasing . M 672
volume is written . M 648
voices of friends . M 636
volume of records . M 632
voices in history . M 556
volume of mixture . M 554
volume is unknown . M 548
voiced the question . M 536
volume or volumes . M 528
volume of exchange . M 498
voices of spirits . M 496
voices in question . M 492
volume to decrease . M 480
voyage in history . M 454
voices of history . M 450
volume of borrowing . M 446
volume of culture . M 426
volume is twofold . M 398
voices in harmony . M 398
voyage or journey . M 394
volume of produce . M 386
volume is decreasing . M 360
volume is present . M 354
voices of animals . M 354
volume is desired . M 346
volume is offered . M 322
volume of current . M 312
volume or quality . M 308
voices in society . M 304
volume in general . M 302
volume to discuss . M 296
volume is printed . M 284
voices of despair . M 278
voyage to nowhere . M 272
voyage as captain . M 266
voices in concert . M 256
voyage or voyages . M 254
volume is planned . M 254
volume in solution . M 252
volume of support . M 246
volume of studies . M 246
voiced my thoughts . M 246
vowels in question . M 242
volume as follows . M 241
volume of objects . M 240
voyage of pleasure . M 236
volume is divided . M 236
volume of samples . M 228
volume of protest . M 228
volume of traffic ? M 224
volume to maximum . M 220
volume of destiny . M 218
voices of dissent ? M 216
voiced no protest . M 212
volume of content . M 208
volume is minimal . M 208
voices in congress . M 204
voices of command . M 202
volume of credits . M 196
volume is removed . M 188
volume to himself . M 186
volume is covered . M 180
volume is altered . M 180
volume to consult . M 174
volume of comment . M 172
voices of teachers . M 172
voiced in congress . M 172
voiced my concern . M 170
volume on profits . M 166
voices in general . M 166
volume is evident . M 164
volume of vehicle . M 162
volume of clients . M 162
voices in dispute . M 162
volume is assumed . M 160
voices of society . M 158
volume is located . M 156
voyage in returning . M 154
voices of decline . M 154
voyage to freedom . M 152
voyage in company . M 152
volume or surface . M 147
volume of returns . M 146
voices in support . M 146
volume is greatest . M 144
volume at present . M 144
voices of concern . M 144
volume of outputs . M 142
volume in advance . M 142
volume of results . M 138
volume is correct . M 138
volume is defined . M 136
volume the eleventh . M 133
voyage is unknown . M 132
volume or profits . M 126
voices of parents . M 126
voices as writers . M 126
volume to explain . M 124
volume of details . M 124
volume is declining . M 124
volume as desired . M 124
vowels in general . M 122
voyage or travels . M 116
voices to silence . M 116
volume of harmony . M 114
voices sing together . M 114
volume to surface . M 112
volume is lowered . M 112
voyage is resumed . M 110
volume is realized . M 110
volume in history . M 110
voices of triumph . M 110
volume is uniform . M 108
voices of support . M 108
volume is helpful . M 106
volume of demands . M 104
voyage in general . M 102
volume at maximum . M 102
voyage as planned . M 100
volume is applied . M 100
voyage in command . M 98
volume of dissent . M 98
volume of buildings . M 98
volume is tripled . M 98
voiced in private . M 96
voices of victims . M 94
voices in dissent . M 94
voyage in between . M 92
voices in between . M 92
volume of poverty . M 90
volume of figures . M 90
vowels in between . M 88
volume on liberty . M 88
volume of violence . M 88
volume in between . M 88
voices of religion . M 88
volume to survive . M 85
volume or variety . M 84
volume of despair . M 84
voices of illusion . M 84
voyage at present . M 82
volume of searches . M 82
voices in protest ? M 82
