die rather than to M 14793
die rather than be M 8324
did agree that the M 6718
did nearly all the M 6696
did admit that the M 5970
did agree with the M 5596
did state that the M 5562
did admit that he M 5104
did allow him to M 4342
die every year in M 4218
did appear that the M 3856
dim light and the M 3676
did allow for the M 3490
did anything for me M 3472
did point out the M 3428
did anything for the M 3066
did allow them to M 3008
did argue that the M 2986
did state that he M 2404
did change was the M 2266
did carry out the M 2202
did worse than the M 2198
did could not be M 2182
die rather than do M 2177
did allow her to M 2122
die every year of M 2117
did every one of M 2112
did arise out of M 2052
did anything out of M 2008
did nearly all of M 1964
did point out to M 1950
did exist for the M 1834
die every day in M 1829
did claim that the M 1802
die rather than go M 1740
did admit that it M 1736
did cause him to M 1724
did reveal that the M 1680
did every day of M 1668
did agree that it M 1634
did right not to M 1608
did anything with it M 1532
did prove that the M 1466
did either one of M 1450
did agree with me M 1374
die every year as M 1347
did occur and the M 1332
did state that it M 1312
did imply that the M 1298
did cause them to M 1298
did every day in M 1288
die within two or M 1233
did order that the M 1208
did occur with the M 1202
did force him to M 1172
did anything with the M 1162
did carry with it M 1140
die every day of M 1137
did every day at M 1126
did begin with the M 1108
did carry off the M 1066
did exist and the M 1058
did allow that the M 1058
did share with the M 1012
did write for the M 968
did anything for us M 926
did agree not to M 906
did either you or M 882
did anything that he M 858
did agree that he M 744
die rather than the M 736
did stand for the M 734
did exist and it M 732
did claim that he M 726
did every bit of M 706
did argue that it M 702
die rather than eat M 698
did fight for the M 682
dim light that the M 668
did anything bad to M 668
die within two to M 666
did about how to M 666
did agree that if M 644
did stand out in M 640
did occur was the M 636
did change with the M 618
did argue for the M 608
die alone and in M 604
did never ask it M 604
did apply for the M 604
did change for the M 594
did catch any of M 594
did start out as M 592
did cause her to M 586
did occur was in M 580
did first was to M 580
did state that if M 578
did admit that in M 578
did point out in M 566
did later with the M 564
die within one or M 562
did force them to M 562
did appear that he M 558
did occur for the M 552
did appear for the M 552
did after one of M 548
did about all the M 544
did reveal that he M 538
did agree that we M 538
did offer him the M 530
did every year at M 530
dim light and he M 528
dip water out of M 525
did awful things to M 524
dim light and in M 518
die every day as M 508
did rather than by M 508
did right was to M 500
did above for the M 494
did every man in M 492
did claim that it M 492
did write that the M 490
did never see the M 488
did fight with the M 484
did amazing things to M 484
did later for the M 480
did prove that he M 478
dim light with the M 464
did under that of M 462
did state that in M 460
dim light for the M 458
did every one in M 440
die could not be M 439
did order him to M 438
did stand out as M 436
did rather than on M 434
did start with the M 432
did people try to M 432
did others say it M 428
did exist was the M 422
dim light that he M 418
dim notion that the M 406
did never hear of M 406
did check out the M 402
did appear with the M 402
did rather than in M 398
did anything but to M 398
did write that he M 396
did every day to M 396
did allow that he M 396
did gather one of M 394
did allow you to M 394
did people get the M 390
did exist with the M 388
did really mean to M 386
dim light than in M 384
did drive out the M 384
die within one to M 382
did rather than the M 382
did admit that if M 382
dim light and at M 378
did sense that the M 376
did carry out an M 376
did agree with it M 376
dim sense that he M 364
did occur and it M 364
did cheer him up M 359
did prove one thing M 358
dim sense that the M 356
dim notion that he M 356
did people use to M 354
did begin with an M 354
did allow for an M 354
did really try to M 352
did drive him to M 348
did every bit as M 346
did engage with the M 342
did after all the M 342
did exist but it M 340
did place him in M 338
did exist was in M 338
die first and the M 335
did imply that he M 334
did serve with the M 332
did unite with the M 328
did rather than to M 328
did exist and he M 328
dim light that is M 326
did worry that the M 326
did occur due to M 324
did gather that the M 322
die waiting for the M 320
did check with the M 318
did anything for my M 318
die every year on M 316
die knowing that he M 313
did occur but the M 312
did allow that it M 312
did grant that the M 310
did arise with the M 306
did grant him an M 302
dim light near the M 298
did rather for the M 298
did force her to M 298
did every two or M 298
did agree that in M 298
did nasty things to M 296
did every year on M 296
dip could not be M 294
dim light may be M 294
did mother say to M 294
dim feeling that it M 292
die knowing that my M 292
die after two or M 290
did exist and in M 290
did serve for the M 284
dim light was on M 282
did sleep with the M 282
did share with me M 282
did share one thing M 282
did drift off to M 278
did never owe so M 277
did rather than at M 276
die every day on M 274
did people get to M 270
did order them to M 270
did anything that the M 270
did above with the M 270
die within six to M 268
did occur can be M 268
did women get the M 262
did start out in M 262
did enjoy was the M 262
did occur but it M 260
did catch one of M 260
dim light and to M 258
die while she is M 257
dim light that it M 256
die every year by M 256
did after him the M 256
did either she or M 254
die first day of M 252
dim feeling that the M 250
did prove that it M 250
did about that of M 250
did about any of M 250
did every day on M 248
did start out of M 246
did grant him the M 246
did appear that it M 246
dim sense that it M 244
did occur may be M 244
did anything for it M 244
did agree with my M 244
did visit him in M 238
did people mean by M 238
did never use to M 238
did enjoy going to M 238
die block and the M 236
did every man of M 236
did occur and in M 234
did sense that he M 232
die casting can be M 230
did quite get the M 230
did exist was an M 226
did exist that the M 226
did really cry in M 224
did exist but the M 224
dim light can be M 222
die every day to M 222
did start out to M 218
did visit them in M 216
did occur and is M 216
did honor both to M 216
did reveal was the M 214
did imply that it M 212
did press for the M 210
did appear out of M 210
did anything with me M 210
dim feeling that he M 208
did place them in M 208
did often lead to M 208
did guess that the M 208
did share was the M 206
did fully all the M 206
did today was to M 204
did marry one of M 204
did fight for it M 204
did write out of M 202
did might not be M 202
did arise for the M 202
die rather than he M 200
did women win the M 200
did really mean it M 200
did never see or M 198
did ought not to M 196
did never see of M 196
did apply for an M 196
did visit her in M 194
did order all the M 194
did cruel things to M 194
did arise and the M 194
die first year of M 192
die after one or M 192
die after eating the M 192
did people say to M 192
did never put us M 192
did begin for the M 192
did appear and the M 192
did write one of M 190
did judge that it M 190
did exist and if M 190
did count was the M 190
did anything mean or M 190
did anything but go M 190
did anything but eat M 190
did appear that in M 189
die every day he M 188
did exist and to M 188
did carry him to M 188
dim light was the M 186
did fight for me M 186
did after all go M 186
did allow one to M 184
did worse than to M 182
did start going to M 182
die opening and the M 181
did really ask the M 180
did often use the M 180
did drive them to M 180
did change and the M 180
did anything that we M 178
did write one or M 176
did worse things to M 176
did start out on M 174
did exist then in M 174
did drive them by M 174
did anything mean to M 174
die after all he M 172
did exist and we M 172
die first and be M 171
dim light and is M 170
did working for the M 170
did cover all the M 170
did every year in M 168
did enjoy all the M 168
dip joint can be M 166
die knowing that the M 166
dim light than the M 164
die author nor the M 164
did which was the M 164
did search for the M 164
did offer him an M 164
did never hear or M 164
did really was to M 162
did drive out to M 162
did climb out of M 162
did badly out of M 162
did anything with my M 162
did anything but the M 162
did agree that an M 162
did about all of M 162
dim light saw the M 160
did offer was the M 160
did start for the M 158
did right was no M 158
did occur was of M 158
did never bring so M 158
did enjoy being in M 158
did argue with the M 158
did about how the M 158
die which can be M 156
die after all the M 156
did point out an M 156
did occur near the M 154
did admit that at M 154
die every year at M 152
did visit him at M 152
did state that an M 152
did merge with the M 152
did write for it M 150
did which was so M 150
did visit all the M 150
did order her to M 150
did either one or M 150
did really mean the M 148
did found that the M 148
did admit him to M 148
did really see the M 146
did appear was the M 146
did allow men to M 146
dip joint and the M 144
die alone and be M 144
did worse than in M 144
did reveal that in M 144
did often with us M 144
did offer her the M 144
did right and the M 142
did carry with me M 142
did agree that at M 142
did about six or M 142
did reveal that it M 140
did please god to M 140
did people see in M 140
did after that is M 140
did write all the M 138
did refer him to M 138
did often say in M 138
did nearly all my M 138
did marry her in M 138
did anything with an M 138
dim feeling that we M 136
dim cries far in M 136
die alone with no M 136
did people use in M 136
did looking for no M 136
did infer that he M 136
did claim that in M 136
did anything bad in M 136
did allow him the M 136
die while yet in M 134
die under age to M 134
did exist was of M 134
did every act of M 134
die every man of M 132
did refer them to M 132
did often try to M 132
did offer them the M 132
did exist may be M 132
did every year to M 132
did amazing things in M 132
die while doing so M 131
die which hath no M 128
die waiting for an M 128
did people use the M 128
did people get so M 128
did occur had to M 128
did never see it M 128
did match them in M 128
did exist then the M 128
did exist had to M 128
did argue that in M 128
die within ten to M 126
die which has the M 126
did trust that the M 126
did point you to M 126
did point out at M 126
did people put up M 126
did fight two or M 126
did exist and is M 126
did every day as M 126
did doubt was my M 126
did carry them in M 126
did apply for it M 126
did admit that on M 126
dip joint may be M 124
dim light and it M 124
did study for the M 124
did never read the M 124
did gather that he M 124
did argue that if M 124
did argue that he M 124
die casting and the M 123
did worse than he M 122
did which was to M 122
did order you to M 122
did never win of M 122
did never see in M 122
did drive her to M 122
did cause you to M 122
did admit that an M 122
did about ten of M 122
die again for the M 121
die every day by M 120
die again and be M 120
did share with us M 120
did share was an M 120
did drive all the M 120
die knowing that we M 118
did write with the M 118
did offer you the M 118
did grasp that the M 118
did claim that if M 118
did catch him in M 118
die while one is M 117
die which may be M 116
die every man in M 116
did train him on M 116
did though not in M 116
did place her in M 116
did marry him in M 116
did exist but in M 116
did enjoy being the M 116
did could ease my M 116
did cause all the M 116
did carry out in M 116
did again sit in M 116
dim notion that it M 114
did under all the M 114
did start with an M 114
did often bear the M 114
did infer that the M 114
did exist can be M 114
did admit that we M 114
did about one of M 114
did agree that no M 113
did state that no M 112
did press him to M 112
did first bear the M 112
did exist both in M 112
did appear that we M 112
did still try to M 110
did right was the M 110
did right out of M 110
did people see the M 110
did order that he M 110
did belong with the M 110
did about two or M 110
die again with the M 108
did sleep with me M 108
did enjoy doing it M 108
did agree with us M 108
dim signs out of M 106
dim light but the M 106
did write any thing M 106
did really get to M 106
did often had to M 106
did often bring to M 106
did offer them to M 106
did beauty let the M 106
did allow them the M 106
die walls and the M 105
die twice for the M 104
die happy and in M 104
die after eating it M 104
did worry that he M 104
did visit with the M 104
did stand for it M 104
did seven out of M 104
did grant them the M 104
did crawl out of M 104
did cheer her up M 104
did carry not on M 104
did apply and the M 104
did allow that in M 104
did after win of M 104
did after going to M 104
did adopt one of M 104
did shows that he M 102
did refer her to M 102
did occur all the M 102
did exist out of M 102
did catch her at M 102
did admit them to M 102
did twice bring in M 101
did start off as M 101
die every day at M 100
did yield her as M 100
did trust him to M 100
did please him to M 100
did offer was an M 100
did occur then the M 100
did match that of M 100
did exist had no M 100
did create one of M 100
did create for the M 100
did arise due to M 100
dip which can be M 98
die while any of M 98
did still use the M 98
did occur was an M 98
did occur both in M 98
did never try to M 98
did never but in M 98
did drive off the M 98
did after that he M 98
dim light and an M 96
die yearly for the M 96
die where she is M 96
did prove that as M 96
did occur was to M 96
did occur was on M 96
did force you to M 96
did father say to M 96
did exist near the M 96
did enter one of M 96
did change one thing M 96
did burst out in M 96
did brave things in M 96
did alter was the M 96
did working with the M 94
did visit one of M 94
did never sit in M 94
did later was to M 94
did every man on M 94
did abide for the M 94
did prove that in M 92
did occur and to M 92
did never that of M 92
did grant that he M 92
did catch her in M 92
did carry out my M 92
dim again with the M 90
die within her as M 90
die until all of M 90
did write that it M 90
did train him to M 90
did really die on M 90
did plans for the M 90
did first see the M 90
did first see me M 90
did argue that we M 90
did after all in M 90
did admit that no M 90
die lower end of M 88
did start him on M 88
did sense that it M 88
did really fear my M 88
did money mean to M 88
did either this or M 88
did carry them to M 88
did alone all the M 88
did allow him an M 88
did about going to M 88
die either with or M 87
did rather than as M 87
dip which may be M 86
dim notion that we M 86
dim light and by M 86
dim light all the M 86
dim hopes for the M 86
did write out the M 86
did today was the M 86
did shows that the M 86
did others for the M 86
did offer one of M 86
did occur but in M 86
did occur and he M 86
did fifty things at M 86
did exist for me M 86
did badly with the M 86
did after two or M 86
die rather than it M 84
die every day or M 84
did write and the M 84
did write all of M 84
did women use the M 84
did right for the M 84
did really see me M 84
did prove that an M 84
did people say of M 84
did knock off the M 84
did imply that in M 84
did first with the M 84
did fetch her to M 84
did exist then it M 84
did claim was the M 84
did alert him to M 84
did agree and the M 84
did write that in M 83
die every one of M 82
die daily for the M 82
die alone was the M 82
did write for us M 82
did which led to M 82
did really die of M 82
did order one of M 82
did knock out the M 82
did fully set me M 82
did either out of M 82
did doubt that he M 82
did appear that an M 82
did agree for the M 82
did above was to M 82
dim yearning for the M 80
dim place with the M 80
dim light was in M 80
did women see in M 80
did visit him on M 80
did stand one of M 80
did people die of M 80
did judge that the M 80
did every bad thing M 80
did check all the M 80
die shall not be M 65
die until all the M 55
die casting may be M 52
did every day so M 52
die rather than by M 49
did really act as M 47
die turns out to M 46
die reason for the M 44
die later than the M 43
die feeling that he M 42
did watch him as M 41
did state that on M 41
did quite fit in M 41
die maker for the M 40
did funny things to D 2006
did would not be D 1728
dig holes for the D 1362
dim woods rang to D 1252
did crazy things to D 816
did trade with the D 620
did moses and the D 600
did quake and the D 548
die would not be D 524
dim waves and to D 472
did clash with the D 450
did flirt with the D 402
did peter and the D 370
did weird things to D 356
dig wells and to D 352
did queer things to D 322
did spell out the D 316
did washing for the D 314
dial which can be D 298
did japan and the D 294
did excel them of D 270
dial setting and the D 250
dig wells for the D 246
did dance and sing D 230
did peter say to D 228
din blast you the D 226
did merry men go D 220
did moses say to D 212
did peter mean by D 204
dig people out of D 200
die nobly than to D 198
did dance with me D 170
did stamp them as D 164
dig anything out of D 162
dig roots and hoe D 160
did shine that the D 154
dial gauge can be D 154
did stick with the D 152
did stick with me D 152
did peter try to D 152
dim fancy that he D 150
dial setting for the D 150
dingy ceiling and the D 148
did china and the D 146
dial which may be D 146
did shake off the D 144
did mount him up D 138
die thrown out of D 136
did dance with the D 136
did would lead to D 134
did endear him to D 126
did stick out of D 124
dial plate and the D 124
dial could not be D 124
dig roots out of D 122
dial gauge and the D 122
dim longings for the D 116
dig mines and to D 116
die plate and the D 116
did stick out so D 116
dip slope and the D 112
did moses get the D 112
dial gauge may be D 112
did stick with it D 110
did drink out of D 110
dig roots and eat D 108
dig holes with the D 108
did shoot one of D 108
die nobly and in D 106
die basis for the D 106
did whine for it D 104
dingy house and the D 102
did spell out in D 100
did pinch her in D 100
did march with the D 100
did moses mean by D 98
did impel him to D 98
did ensue and the D 98
dig clams out of D 96
did tempt him to D 96
dingy abode for the D 94
dig money out of D 94
did silly things to D 94
did shine with the D 94
did moses lead the D 94
dim skies and the D 92
did shoot him in D 92
did offer thee as D 92
dial ought not to D 92
dig roots and to D 90
dig rocks out of D 90
did jemmy and the D 90
dim stars and the D 88
dim faint idea of D 88
did sprang out of D 88
did march out of D 88
did blush all the D 88
die nobly and as D 86
did liven things up D 86
did dirty things to D 86
dial shows that the D 86
did would then be D 84
did would end up D 84
dingy hotel near the D 82
did excel was in D 82
did drink and eat D 82
din broke out in D 80
dig worms out of D 80
did please thee in D 80
did crazy things in D 80
die would then be D 59
dis cover that the D 49
did chirp and sing D 44
dig rather than to D 42
dig holes near the D 40
