die from it . M 15284
did know it . M 7882
did love me . M 5316
did like it . M 5154
did find it . M 4482
did make it . M 4380
did show up . M 4274
did tell me . M 4202
did think so . M 3624
did have it . M 3414
did want to . M 3272
did want it . M 3018
did turn up . M 2608
did take it . M 2570
dip into it . M 2356
did come up . M 2072
did like me . M 2054
did help me . M 1814
did feel it . M 1728
did their thing . M 1640
did look up . M 1562
did need it . M 1496
did love it . M 1402
did wake up . M 1378
did from me . M 1362
did sign it . M 1288
did wish it . M 1264
did hurt me . M 1172
did lose it . M 1106
did call me . M 1100
did give it . M 1010
die from it ? M 1003
die upon it . M 932
did grow up . M 912
did think it . M 862
did open it . M 860
did make it ? M 858
did deny it . M 784
did give me . M 740
did want me . M 732
did love me ? M 726
did have to . M 714
did know it ! M 710
did miss it . M 686
did steal it . M 656
did know me . M 656
did give me ! M 636
did love me ! M 628
did warn me . M 624
did keep it . M 614
did reach it . M 600
did seem so . M 582
did save it . M 576
did send it . M 566
did give up . M 562
did leave it . M 554
did shut up . M 546
did speak up . M 534
did find it ? M 518
did send me . M 510
did what go ? M 508
did break up . M 490
did learn it . M 488
did help us . M 470
did stop it . M 456
did love us . M 454
did hate it . M 442
did upon me . M 440
did unto us . M 424
did hold it . M 424
did need me . M 418
did kiss me . M 416
did pick up . M 410
did take it ? M 404
did break it . M 400
did save me . M 394
die among us . M 393
did move on . M 392
did know it ? M 390
did tell us . M 386
did sell it . M 386
did show it . M 366
did from us . M 352
did find me . M 346
did come on . M 346
did kill me . M 344
die into it . M 341
did open up . M 338
did come by . M 334
die from it ! M 326
did leave me . M 322
did unto me . M 316
did pass it . M 310
did blow up . M 310
did hope so . M 304
did kill it . M 294
did mind it . M 290
die over it . M 286
die like me . M 285
did hate me . M 276
did come to . M 274
did tell it . M 272
did like it ! M 252
did miss me . M 250
did stay on . M 244
did teach me . M 240
did have it ? M 230
did gain it . M 224
did find it ! M 224
did like it ? M 222
did play it . M 220
did make it ! M 220
did early on . M 218
did pity me . M 216
did spring up . M 214
did join us . M 212
did need to . M 210
did think of . M 208
did join it . M 206
did drop it . M 206
did sign it ? M 200
did live on . M 200
did sign up . M 198
did show up ? M 196
did face it . M 196
did meet it . M 194
did move it . M 190
did reach me . M 188
did move me . M 184
did have it ! M 184
did hold on . M 182
did call it . M 182
did give us . M 176
did call me ? M 176
did reach us . M 172
dim view of . M 170
did just so . M 168
did come in ! M 168
did show me . M 166
did lock it . M 164
die like us . M 162
did your thing . M 162
did rise up . M 162
did even so . M 162
did save us . M 160
did leave us . M 160
die same thing . M 156
did find us . M 156
did swear it . M 154
did stop by . M 152
did plan it . M 152
did fail me . M 152
did time go ? M 150
did seem to . M 150
did dream it . M 150
did warn us . M 148
did obey it . M 148
did from it . M 146
did good to . M 144
did feel so . M 144
did stop me . M 142
did keep up . M 142
did help it . M 142
did steal it ? M 140
did speak it . M 140
did keep on . M 140
did come in ? M 140
did teach it . M 138
did take me . M 138
did take it ! M 138
did hurt us . M 138
did hire me . M 138
did want to ? M 136
did pass by . M 134
did want it ! M 132
did among us . M 130
did upon it . M 128
did wake me . M 126
did turn up ? M 126
did thank me . M 126
did fool me . M 126
did undo me ? M 124
did coming up . M 124
did want it ? M 122
did turn it . M 122
did push so ! M 122
did push it . M 122
did burn it . M 122
did want to ! M 120
did pass on . M 118
did wish to . M 116
did fire me . M 114
did during it . M 114
did warm up . M 110
did over me . M 110
did mark do ? M 110
did hurt me ! M 110
did send it ? M 106
did like me ! M 106
did join up . M 106
did post it . M 104
did meet me . M 102
did think so ! M 100
did keep me . M 100
did hold up . M 100
did fire it . M 100
did clear up . M 100
did term it . M 98
did much to . M 98
did live it . M 98
did want me ! M 96
did take up . M 96
did steal it ! M 96
die during it . M 94
did tell me ! M 94
did talk to . M 94
did ruin it . M 92
did clean up . M 92
did burn us . M 92
did well on . M 90
did upon us . M 90
did tell me ? M 90
did like us . M 90
did hide it . M 90
did cure me . M 90
did blow it . M 90
did seek it . M 88
did help me ! M 88
did wish it ! M 86
did play it ! M 86
did over it . M 86
did pull up . M 84
did make up . M 84
did wrong me ! M 82
did take on ! M 82
did omit it . M 82
did look so . M 82
did draw it . M 82
did love it ! M 80
