direct use of the M 41493
direct you to the M 33357
direct them to the M 27120
direct him to the M 16013
direct and to the M 14803
disease and in the M 14707
disease due to the M 13786
divide each of the M 13276
dividing this by the M 11648
direct way to the M 11446
direct them in the M 11010
direct path to the M 11008
direct aid to the M 10647
direct path of the M 10226
disease may be the M 9886
disease and of the M 9535
divide this by the M 8869
direct heat of the M 7328
dividing each of the M 6893
disease and it is M 6609
disease and to the M 6191
dividing them by the M 5902
direct him in the M 5874
direct them to be M 5726
direct act of the M 5532
divine idea of the M 5500
disease are to be M 5379
divine head of the M 5326
differ both in the M 5180
direct sum of the M 5166
direct that it be M 5082
disease than in the M 4928
direct use in the M 4928
divine law of the M 4898
disease was in the M 4724
direct you in the M 4686
disease and on the M 4537
divine being in the M 4301
divine law in the M 4240
disease one of the M 4206
disease has to be M 4198
direct say in the M 4152
differ due to the M 3992
direct her to the M 3927
direct that he be M 3848
disease may be in M 3586
direct one of the M 3566
direct use to the M 3562
disease was to be M 3478
disease may be of M 3390
disease that it is M 3374
disease and by the M 3370
divide that by the M 3369
direct way is to M 3270
dividing one by the M 3145
direct than in the M 3065
disease out of the M 3018
divine law is the M 3005
direct aim at the M 2932
disease may be so M 2923
divide one of the M 2907
disease may be an M 2884
direct him to be M 2867
divine and of the M 2748
direct them to do M 2715
divide them by the M 2710
direct you to do M 2658
disease due to an M 2624
disease and is the M 2594
direct him to do M 2532
direct use by the M 2498
disease had to be M 2464
disease but it is M 2434
disease led to the M 2430
direct aid of the M 2414
divine being is the M 2396
disease that is the M 2300
disease may be at M 2278
divine things of the M 2264
disease than it is M 2260
direct way to do M 2182
divine being as the M 2181
divine idea as it M 2112
divine things in the M 2106
differ with me in M 2011
direct for me at M 2008
disease and so on M 1978
direct all of the M 1978
divide all of the M 1889
dividing one of the M 1877
direct one to the M 1856
direct one on the M 1838
divine aid in the M 1836
divine son of the M 1827
disease and at the M 1816
digits are to be M 1810
direct out of the M 1753
direct aim of the M 1732
divert them to the M 1726
direct you to an M 1719
direct that in the M 1704
direct aid in the M 1685
differ not in the M 1682
disease was of the M 1666
digits are in the M 1646
disease are in the M 1645
disease and to be M 1618
differ with me on M 1614
disease than is the M 1608
divine law as the M 1591
direct end of the M 1584
dividing each by the M 1578
disease was on the M 1490
divide them in the M 1488
disease than to the M 1486
direct use of it M 1485
dividing that by the M 1468
direct way in the M 1468
divine law to the M 1463
divine being of the M 1462
disease this is an M 1428
direct and in the M 1426
divine being to be M 1396
disease may be as M 1396
digits add up to M 1356
direct way by the M 1346
differ both as to M 1338
disease this is the M 1336
disease than by the M 1314
direct them as to M 1300
direct him as to M 1288
divine that is in M 1286
divine kings of the M 1270
divide any of the M 1249
divide one by the M 1241
direct any of the M 1234
divine and in the M 1228
divine idea in the M 1178
differ with us in M 1174
divine that it is M 1160
divine law to be M 1155
divine being to the M 1124
disease owing to the M 1112
disease may go on M 1096
divine things to the M 1076
divine law or the M 1076
divine law is to M 1072
divert any of the M 1070
differ and it is M 1068
direct you to it M 1066
dividing all of the M 1053
direct them to an M 1053
disease that is in M 1043
disease that is so M 1038
disease and is an M 1028
disease both in the M 994
disease lay in the M 984
direct way on the M 978
disease and as an M 968
disease can be the M 964
direct her in the M 954
direct them on the M 947
divine and to the M 941
direct than it is M 931
disease can be so M 916
disease and if the M 865
disease that in the M 854
differ owing to the M 848
direct men to the M 842
disease not to be M 828
divine act of the M 822
direct them to go M 818
direct and at the M 818
direct use of an M 816
direct him to an M 815
divide each by the M 811
disease are by no M 807
direct yes or no M 807
direct you as to M 799
disease but in the M 796
divide them so as M 795
direct that it is M 790
divide them on the M 760
disease are on the M 746
disease than on the M 745
dismay that it is M 738
dividing them in the M 736
direct aim is to M 732
disease for up to M 726
disease are of the M 726
direct head of the M 720
disease goes on to M 718
direct them to me M 717
divine law on the M 716
direct them at the M 702
disease and is in M 696
divine and to be M 682
divine and it is M 678
disease was at the M 674
direct eye of the M 674
direct one in the M 666
direct arm of the M 666
direct and of the M 663
divine son in the M 658
direct way of the M 658
direct that if the M 650
direct you to my M 649
divine things to be M 644
direct them to it M 634
divine who is the M 627
direct him to go M 626
divine law as to M 623
direct plea to the M 612
divine being is to M 608
divine and at the M 605
direct and it is M 605
disease that is of M 600
disease being in the M 598
direct way is the M 596
differ and so do M 594
disease than of the M 590
disease and is of M 588
divine was to be M 586
disease but to the M 586
divide with me the M 584
disease has on the M 582
divide and in the M 581
disease can be as M 581
differ but as the M 580
differ with us on M 578
differ with me as M 577
disease was in an M 576
disease that is to M 576
direct lie to the M 576
divine song of the M 574
direct that on the M 570
divide them up in M 566
disease that is at M 566
disease was by no M 562
direct sun in the M 562
divert all of the M 560
direct and on the M 558
disease than do the M 550
divine law as it M 548
direct idea of the M 540
divine things by the M 538
direct him on the M 534
disease can be an M 532
divine out of the M 529
divide with it the M 527
divine act in the M 526
disease and up to M 518
direct him to it M 514
disease that he is M 502
direct her to do M 501
divine things on the M 500
divine aid to the M 500
dismay that in the M 498
direct men in the M 496
direct them in it M 491
dividing them at the M 490
dismay that he is M 489
divine law by the M 487
direct than is the M 486
divine son to the M 485
divine than in the M 481
divine was in the M 475
direct them on to M 470
differ not by the M 468
divert one of the M 466
disease and as the M 464
digits are to the M 464
direct heat to the M 460
divine being is in M 455
direct pay of the M 450
divine being or the M 448
divine and is the M 446
dividing two of the M 444
direct man to the M 444
divine war in the M 440
direct you to go M 439
dividing any of the M 438
divide them at the M 438
direct cut to the M 436
divine joy of the M 430
divine being by the M 430
direct way is by M 426
divide and on the M 424
direct each of the M 421
divert them in the M 418
disease set up by M 418
disease may be on M 416
divine being at the M 414
divine being as an M 412
disease but of the M 408
divine has to be M 406
direct key to the M 404
divine being on the M 402
disease can be of M 402
disease but by the M 388
divine that is the M 386
disease than we do M 382
divide with us the M 380
disease are at an M 380
direct use on the M 379
direct and by the M 376
direct this to the M 375
divine things is the M 374
direct air to the M 374
digits had to be M 374
disease has to do M 372
direct her to be M 372
divine idea is the M 370
divine eye of the M 370
disease was of an M 368
disease both of the M 366
direct path in the M 366
digits and of the M 366
digits and in the M 366
direct them by the M 365
direct this to be M 360
divine are to be M 358
disease but at the M 354
disease has in the M 348
direct and to be M 346
direct lead to the M 344
direct you on the M 343
direct way as the M 342
disease may be to M 338
disease going on in M 338
direct all to the M 337
disease but on the M 334
differ but in the M 334
direct them so as M 333
divine being is an M 332
dismay and to the M 330
direct way to go M 330
disease that is as M 324
direct use to us M 324
dividing them on the M 318
disease that is no M 317
disease not of the M 314
direct you to be M 311
disease are at the M 310
divine aid of the M 308
direct for me to M 308
direct one by the M 305
divine and on the M 304
direct with the king M 296
differ too in the M 296
disease and he is M 294
direct war on the M 294
direct them as he M 294
divine man in the M 290
disease set up in M 290
direct path of an M 288
digits out of the M 286
divine things as the M 284
disease and the so M 279
divine end of the M 276
direct use as an M 276
disease but as the M 274
direct aid by the M 274
disease was at an M 270
disease nor is it M 270
direct aid or by M 270
divide and at the M 268
direct sun on the M 268
direct act on the M 268
differ has to do M 268
disease and as to M 266
differ and to be M 266
direct way to it M 264
divine man is the M 262
disease was in no M 262
direct way to be M 262
disease lie in the M 260
divine that he is M 258
divine man of the M 258
direct run to the M 258
dismay him in the M 256
disease and so the M 256
direct heat or in M 256
disease but as an M 254
direct man in the M 254
disease that we do M 252
disease led to an M 252
disease and if it M 252
direct and in an M 252
divide and to the M 250
divert him to the M 250
disease was by the M 250
divide east of the M 249
disease can be in M 249
direct that at the M 249
direct all of my M 247
divine law is in M 246
divide them up by M 246
disease can do to M 246
direct them or to M 244
direct sum of an M 244
divide them up as M 242
direct them to my M 242
direct one of my M 242
divine law or to M 240
divine use of the M 238
divine and as the M 238
disease and in an M 238
direct law of the M 238
disease that he or M 236
divert him in the M 234
differ but it is M 234
divide them to the M 232
disease than at the M 232
divine kings in the M 230
divine had to be M 230
disease now to be M 230
direct how it is M 228
disease than if the M 226
disease lead to the M 226
disease that at the M 222
disease had on the M 220
divine son is the M 218
direct path to an M 218
divine joy in the M 216
divide them up so M 214
disease now in the M 214
direct fit of the M 214
direct but it is M 214
dividing head of the M 212
disease may in the M 212
direct them in an M 212
divine being or in M 210
divine being in an M 210
divine being as to M 210
divine and by the M 210
dividing out by the M 210
dismay that at the M 210
disease that is an M 210
direct you by the M 210
divide and go to M 208
direct seat of the M 208
direct rear of the M 208
direct her to my M 208
disease but is the M 206
direct way to an M 206
differ both on the M 204
divide things up in M 203
direct heat on the M 203
direct path of my M 202
direct him as he M 202
disease and if so M 201
divine law it is M 200
disease goes on the M 200
direct aim is the M 200
divide out of the M 198
disease that is on M 198
disease than to be M 198
divine law or by M 196
dividing them up in M 196
divide has to be M 196
disease add to the M 196
direct path is the M 196
disease death in the M 195
direct that of the M 194
dismay was in the M 192
direct way be to M 192
direct and via the M 192
disease new to the M 189
direct you to me M 189
divine law or of M 188
disease and so is M 188
direct him by the M 188
differ and so the M 188
direct her to go M 186
direct her to an M 186
dismay that the king M 184
disease and so it M 184
disease and is at M 184
direct way or in M 184
differ are in the M 184
divine than it is M 182
direct one to do M 182
differ not as to M 182
direct fear of the M 181
divine law as an M 180
dividing men by the M 180
disease does to the M 180
differ with me is M 180
divine things as in M 178
divine that in the M 178
divide them as to M 178
disease and is no M 178
direct him in it M 178
digits are on the M 178
direct one to be M 177
digits and so on M 177
direct fit to the M 176
divine one of the M 174
divine law is an M 174
dividing both by the M 174
disease and we do M 174
direct way to my M 174
direct map of the M 172
divine being as it M 170
disease who is on M 170
disease and is on M 170
disease all of the M 170
direct you in it M 170
direct gap at the M 170
dividing them by an M 168
disease ran in the M 168
disease has by no M 168
direct way at the M 168
direct end of it M 168
direct cut in the M 168
differ and in the M 168
dividing with it the M 166
disease that of the M 166
disease and to do M 166
disease and is to M 166
disease and in no M 166
direct path to it M 166
direct one is to M 166
direct heat in the M 165
differ with it in M 165
dismay may be the M 164
digits and on the M 164
direct him so to M 163
divine law is no M 162
divine being or an M 162
divine air in the M 162
disease with up to M 162
differ then to an M 162
divine than he is M 160
divine being is no M 160
disease then it is M 160
disease can be at M 160
disease but is of M 160
direct that he or M 160
direct lie on the M 160
direct them to us M 159
direct not to be M 159
disease for it is M 158
direct sum is the M 158
direct for me in M 158
direct use at the M 156
direct that the thing M 156
divine but of the M 154
divide and of the M 154
divert any of it M 154
direct that if my M 154
digits has to be M 154
differ was in the M 154
disease are in no M 153
divine who it is M 152
dividing off of the M 152
disease out of my M 152
disease and go to M 152
direct than on the M 152
direct her as to M 152
disease that is by M 150
disease but is an M 150
direct who is to M 150
direct due to the M 149
divine than the so M 148
divine idea is in M 148
dividing head on the M 148
divide that of the M 148
disease may do so M 148
divine aid as the M 146
direct that if he M 145
disease who is in M 144
disease than as an M 144
disease die in the M 144
direct that he is M 143
divine eye in the M 142
dividing that of the M 142
direct use to me M 142
digits than in the M 142
digits and to the M 142
divide was to be M 141
divine but in the M 140
dividing out of the M 140
disease not in the M 140
direct them as the M 140
differ not on the M 140
differ and if the M 140
direct two of the M 139
divine things it is M 138
divine being or as M 138
dismay her in the M 138
disease die of it M 138
direct than by the M 138
direct but in the M 138
disease and go on M 137
direct use or as M 137
divine things as he M 136
divine law at the M 136
digits and at the M 136
dimmed and in the M 135
divine things to us M 134
divine things is to M 134
divine not in the M 134
disease goes by the M 134
disease can it be M 134
direct way up the M 134
direct path up the M 134
direct him to my M 134
direct eye to the M 134
digits and it is M 134
differ with it on M 134
disease nor to the M 132
direct use or to M 132
direct sun or in M 132
divide them is to M 131
direct all of us M 131
divine poet on the M 130
divide them as he M 130
divert out of the M 130
dismay set up by M 130
disease being of the M 130
direct son of the M 130
differ than in the M 130
disease may be no M 129
dividing head to the M 128
dividing arm of the M 128
divide both by the M 128
disease for us it M 128
differ and as if M 128
divine idea of it M 126
divine being is of M 126
disease had he or M 126
direct him to me M 126
direct and is the M 126
digits due to the M 126
digits and is the M 126
divine may be by M 124
divine age of the M 124
divide them as the M 124
disease may be by M 124
disease but we do M 124
disease and to an M 124
disease and of no M 124
direct aid of an M 124
dimmed eye of the M 124
dimmed that of the M 122
divine aid to be M 120
divide men on the M 120
disease and be in M 120
direct one is the M 120
direct him if he M 120
direct aid on the M 120
divide and on to M 119
divide all of us M 118
divert him by the M 118
disease yet to be M 118
disease not as an M 118
direct way as we M 118
direct and as the M 118
direct act or to M 118
divide that is the M 117
direct use in an M 117
differ with us as M 117
dividing with us the M 116
divide both of the M 116
dismay both of the M 116
disease was of so M 116
disease than in an M 116
disease than if it M 116
disease and if he M 116
direct than to be M 116
direct kin of the M 116
digits are of the M 116
divine way of the M 114
divine idea it is M 114
divide out by the M 114
divide men in the M 114
divide had to be M 114
disease than if he M 114
divine act is the M 112
direct path to my M 112
direct her to it M 112
divine but by the M 110
divine being or to M 110
divine and as to M 110
dividing them so as M 110
disease for it to M 110
direct aim on the M 110
dividing may be the M 109
dismay one of the M 109
divine than to the M 108
divine law is so M 108
divine can be in M 108
divine and so is M 108
divide them or to M 108
disease was of no M 108
direct use to an M 108
direct heat of an M 108
divine law as he M 106
divine being to an M 106
divine being is at M 106
disease had in the M 106
disease being at the M 106
direct way it is M 106
direct way as it M 106
direct use of my M 106
direct her on the M 106
divide with us in M 104
divide two of the M 104
divide them up to M 104
divert you in the M 104
disease both at the M 104
direct him on to M 104
divine may be the M 102
divine law is as M 102
disease may at the M 102
disease lead to an M 102
direct them up the M 102
direct one or an M 102
direct him at the M 102
direct death of the M 102
direct act or by M 102
divine law is of M 100
dividing with me the M 100
dividing them up by M 100
dividing them as he M 100
disease was to the M 100
direct but to the M 100
direct ban on the M 100
differ that it is M 100
direct use to be M 99
direct use is an M 99
direct each of us M 99
direct and in no M 99
divine than is the M 98
divine path of the M 98
divine being is so M 98
divide them in an M 98
disease lay at the M 98
disease and so to M 98
differ with me to M 98
divine was at the M 96
divine had in the M 96
divine for me by M 96
divine and he is M 96
divide them in my M 96
disease are of no M 96
disease and of an M 96
disease and if we M 96
direct them so to M 96
differ with the king M 96
divine can be as M 94
disease out in the M 94
disease had to do M 94
disease east of the M 94
disease and so he M 94
direct one of an M 94
direct leap to the M 94
direct end is the M 94
direct bid to the M 94
direct area of the M 94
divine sun in the M 92
divine end to the M 92
divine but to the M 92
divine but it is M 92
dividing them is to M 92
dividing them is the M 92
dismay out of my M 92
direct than to the M 92
direct path on the M 92
direct him in so M 92
direct act of my M 92
dismay that on the M 91
direct for me on M 91
divine head in the M 90
disease than as the M 90
direct you to is M 90
direct you at the M 90
direct beat of the M 90
direct any of my M 90
direct and by no M 90
direct and as an M 90
dimmed for me by M 90
differ with is to M 90
divine than of the M 88
divine law he is M 88
divine aid on the M 88
disease who is to M 88
direct way or by M 88
direct them if we M 88
direct owing to the M 88
divine son by the M 86
divine one in the M 86
divine not to be M 86
divine law as by M 86
divide was in the M 86
divide them by an M 86
divide than on the M 86
disease both to the M 86
direct way as in M 86
direct say on the M 86
direct job in the M 86
direct him by my M 86
digits may be the M 86
divine poem of the M 84
divine idea to the M 84
divine for us to M 84
divine aim in the M 84
dividing them as to M 84
divide this in the M 84
divide that is so M 84
disease than is an M 84
disease goes to the M 84
disease goes on in M 84
disease and in up M 84
direct way by an M 84
direct heat or by M 84
dimmed them as he M 84
dimmed due to the M 84
digits may be in M 84
differ both by the M 84
disease and in so M 83
direct use as the M 83
divine and so to M 82
dividing them to the M 82
divide not by the M 82
divide him at the M 82
disease can be to M 82
direct way as to M 82
direct her by my M 82
divine being it is M 80
divine and as an M 80
divine act as the M 80
direct out at the M 80
differ and to the M 80
divide and so on M 75
divide and it is M 71
direct that to be M 70
divine and so on M 62
divine being is as M 57
divide and go on M 53
disease can be no M 51
divide due to the M 50
divide and to be M 50
direct use of in M 48
disease can go on M 47
disease and is as M 47
divide and so to M 44
direct things in the M 44
divide and by the M 43
direct one to an M 43
divide and go in M 41
direct that to the M 41
direct men to be M 41
direct both in the M 41
direct and as it M 41
direct both to the M 40
distal end of the D 287617
direct hit on the D 19466
distal tip of the D 14906
dinner was to be D 11800
dinner was on the D 8935
direct tax on the D 7748
dioxide out of the D 5652
dishes out of the D 4700
dictum that it is D 4583
dinner and go to D 3986
dinner out of the D 3762
dinner with me at D 3736
dinner was in the D 3731
dinner and in the D 3538
dipped them in the D 3528
dinner had to be D 3446
dioxide gas in the D 3124
divest them of the D 3039
divest him of the D 3001
dinner one of the D 2898
dinner with the king D 2888
direct hit in the D 2822
dipped out of the D 2798
direct tax in the D 2700
distal end of an D 2622
dinner and to the D 2496
dishes are to be D 2438
dishes had to be D 2414
dinner with us at D 2392
dished out by the D 2388
dipped him in the D 2248
dinner was at the D 2226
diocese and of the D 2004
dished out to the D 2002
dinner with me to D 1878
diagram due to the D 1774
distal area of the D 1766
dinner with me on D 1740
direct tie to the D 1720
direct hit on an D 1680
diagram has to be D 1674
distal end to the D 1656
dinner with us on D 1592
distal row of the D 1584
dinner with me in D 1550
diagram and in the D 1534
dinner and at the D 1508
dinner out on the D 1472
dishes are in the D 1440
dinner with us in D 1404
dinner for us at D 1396
direct tax to the D 1388
diarrhea may be the D 1370
diamond set in the D 1360
direct hit to the D 1355
dishes are on the D 1342
dictum that in the D 1330
dinner with us to D 1316
diamond out of the D 1270
dishes out to the D 1260
dinner was at an D 1256
diocese and in the D 1252
digest all of the D 1207
dinner for the king D 1134
distal arm of the D 1106
distal end in the D 1102
disown him if he D 1101
diaries are in the D 1090
direct hit by an D 1089
dipped low in the D 1076
dinner for me at D 1044
direct beam of the D 1028
dialect and in the D 986
diocese was to be D 972
distal than in the D 954
diocese and to the D 946
divest her of the D 943
direct hit at the D 934
diction and in the D 894
diagram each of the D 889
dished out in the D 878
distal head of the D 876
dinner out in the D 864
dinner has to be D 840
dished out to us D 820
diesel oil in the D 816
diarrhea due to the D 815
dishes and so on D 814
dinner and so on D 791
dinner out of it D 788
dinner and on the D 782
direct ray of the D 760
dioxide due to the D 760
distal end is the D 756
direct tax of the D 756
diamond head in the D 756
dioxide and it is D 736
diagram all of the D 710
dipole due to the D 707
diagram and of the D 698
dipped one of the D 680
diagram and on the D 678
divest him of it D 676
dished out to me D 674
direct hit by the D 665
diagram one of the D 663
dinner for us in D 658
dinner was of the D 656
diagram and it is D 640
direct tax to be D 638
diaries and in the D 630
dishes and in the D 620
dioxide and in the D 620
dinner and eat it D 618
diamond was to be D 616
dioxide and of the D 610
distal rim of the D 604
dinner and do the D 604
dioxide has to be D 590
dinner for me in D 582
distal end on the D 578
dinner with me the D 568
diction not to be D 566
diagram are to be D 566
diamond pin in the D 556
disuse owing to the D 548
dinner with us the D 544
dinner out of my D 544
dispel one of the D 542
direct hit of the D 522
divers things in the D 517
dismal end of the D 516
diagram and to the D 512
digest and in the D 509
diamond was in the D 506
diagram that if the D 500
diamond rings on the D 498
dinner and by the D 496
dictum that if the D 477
divers are in the D 464
diagram than in the D 464
diagram that it is D 444
divest them of it D 440
diagram may be of D 440
dinner put on by D 434
direct hit on my D 430
dialect and of the D 428
direct hit on it D 426
dinner and it is D 426
diagram and by the D 426
diocese was in the D 424
dishes and do the D 422
dioxide gas to the D 420
dinner for us to D 420
disarm one of the D 418
diamond and in the D 414
dished out at the D 412
diaries and so on D 411
dioxide out of it D 408
dictum that to be D 406
dinner with us as D 404
diarrhea may be an D 400
diaries are to be D 398
distal end it is D 396
direct thee to the D 396
diction and of the D 393
distal end at the D 386
divining rod in the D 385
dinner out to the D 382
dilute each of the D 382
diagram are in the D 382
dishes and go to D 370
dioxide and by the D 370
dinner for me to D 370
diagram that in the D 370
digest them in the D 367
dinner going to be D 366
dishes for me to D 362
dinner out at the D 362
dinner and to be D 362
dilute each to the D 360
distal than at the D 358
diagram that is the D 356
dinner and of the D 352
diamond head to the D 352
divine art of the D 348
dioxide may be the D 348
dinner and tea at D 348
dictum that the king D 346
disarm them of the D 342
direct tax is the D 342
dinner and tea in D 342
disuse due to the D 334
distal lip of the D 334
dispel all of the D 332
dishes and of the D 332
dismal cry of the D 324
dipped his toe in D 324
diesel oil to the D 324
diagram may be the D 322
diagram that as the D 320
diamond head on the D 312
divots out of the D 308
divers things of me D 308
dishes set on the D 308
dishes out in the D 308
diamond rings in the D 306
divining rod of the D 304
divers out of the D 304
dispel any of the D 302
diamond set in it D 302
divers things to be D 301
dinner and to go D 300
dilute that it is D 300
dipped low on the D 297
direct tax of at D 296
dipped her in the D 292
diocese and at the D 292
dioxide one of the D 289
divers had to be D 288
diamond had to be D 288
dialect than in the D 288
dishes ran up on D 286
dinner and go on D 286
diapers had to be D 286
dishes out on the D 284
distal than on the D 282
dioxide gas as the D 280
dinner for us on D 280
divest you of the D 278
diocese had to be D 278
dinner with me or D 278
dioxide are to be D 276
dishes and it is D 274
dipped her toe in D 274
dinner with me if D 274
dimmer than in the D 274
diesel oil on the D 272
diamond was at the D 270
diagram any of the D 270
dialect that is the D 268
dimmer than it is D 266
diesel oil at the D 266
dialect had to be D 266
direct fiat of the D 264
diamond has to be D 264
diamond cut in the D 264
dialect are to be D 264
dinner with us or D 262
dinner all of us D 262
diagram can be of D 262
direct tax by the D 260
divine hag of the D 258
digest all of it D 258
dioxide was in the D 256
dioxide and to the D 256
diagram this is the D 255
dialect use in the D 254
dialect not to be D 254
dilute end of the D 252
dilute than in the D 251
dishes for the king D 250
dishes are of the D 246
dioxide and at the D 246
disown you as my D 244
diagram had to be D 244
direct hit of an D 242
dioxide gas of the D 242
diction and to the D 242
dinner and to tea D 240
dinner and on to D 238
dinner and as we D 238
distal tip in the D 236
distal pad of the D 236
direct tax is to D 236
dipped his wing in D 236
dinner may be the D 236
dialect was in the D 236
dinner and he is D 234
dishes sat on the D 232
diction and by the D 232
diarrhea due to an D 232
diarrhea and in the D 232
dialect was to be D 232
diagram and at the D 232
distal tip of an D 230
distal end by the D 230
dialect and to the D 230
dished out on the D 228
dinner cup of tea D 228
divers things as we D 226
disarm him of the D 224
direct tax of so D 224
diarist goes on to D 224
diapers out of the D 224
dialect area of the D 224
distal end is in D 222
diamond set in an D 222
diamond pin in it D 222
diagram for the ring D 222
dinner for me on D 220
dispel fear of the D 218
direct tax or an D 218
distal end as in D 216
dishes are at the D 216
dinner that is to D 216
diagram was to be D 216
divers men in the D 214
dismal end to the D 214
dishes and at the D 214
dioxide had to be D 214
dinner was by no D 212
diamond out of my D 212
divest any of the D 211
dioxide gas is the D 210
dinner was to me D 210
diction that it is D 208
diamond and of the D 208
diagram and is the D 208
disuse can go on D 207
dipole has to be D 206
dioxide than in the D 206
diction was to be D 206
dismal day in the D 204
diggings are on the D 204
dialect out of the D 204
dinner than go in D 203
divest her of it D 200
disarm all of the D 200
dipped out of an D 200
dipole and of the D 200
diocese out of the D 200
dinars out of the D 200
dialect that it is D 200
distal end as the D 198
dismal lot of the D 198
dinner they go to D 198
divers out to the D 196
divers men of the D 196
diocese and by the D 195
divine seal on the D 194
dioxide now in the D 194
dioxide gas at the D 194
distal leg of the D 192
dishes sat in the D 192
dished out of the D 192
dinner but in the D 192
distal tip to the D 190
dishes for us to D 190
dishes and on the D 190
dictum that he is D 190
divest one of the D 189
diamond that is the D 188
dialect map of the D 188
divine seal of the D 186
divine art is the D 186
distal end of it D 186
dismal was to be D 186
dishes sit in the D 186
dilute gas by the D 186
digest and of the D 186
diatoms are to be D 186
diaries had to be D 186
dipole and an ion D 184
diocese are to be D 184
diamond and it is D 184
dialect has to be D 184
diggings are in the D 182
diamond pin of the D 182
dioxide gas by the D 180
dilute them in the D 180
diagram for it is D 180
disuse and by the D 178
dinner two of the D 178
diamond pin on the D 178
dishes and by the D 176
dinner being on the D 176
diggings and in the D 176
diamond lying on the D 174
dioxide owing to the D 172
dioxide are in the D 172
diction are to be D 172
diagram for the ti D 171
distal end to an D 170
dioxide and so on D 170
dilute them to the D 170
dishes not to be D 168
dioxide that is the D 168
dinner nap in the D 168
digest that if he D 168
dialect and it is D 168
diagram but it is D 168
divest man of the D 166
diction out of the D 166
dialect and by the D 166
dioxide than it is D 164
dinner and as the D 164
diamond that it is D 164
digest any of the D 163
dismal that it is D 162
dishes may be of D 162
dictum has to be D 162
diamond goes on to D 162
dialect area in the D 162
dipped low to the D 161
direct bus to the D 160
dinner for up to D 160
diagram than it is D 160
diagram are of the D 160
dirges sung by the D 159
dinner with me so D 159
dinner with me as D 159
dinner with my ex D 158
dishes lay on the D 156
direct tax at the D 156
dioxide and on the D 156
dinner things in the D 156
dinner than it is D 156
dinner sat on the D 156
dinner and as he D 156
diction and on the D 156
diamond head is the D 156
dishes not on the D 154
diagram that at the D 154
dioxide that is in D 152
dinner and the tea D 152
diamond rings of the D 152
diagram out of the D 152
dilate owing to the D 150
diagram for the he D 150
distal one is the D 148
dishes that it is D 148
dipper out of the D 148
dinner that the king D 148
dinner that he is D 148
diamond rings on my D 148
diamond due to the D 148
diagram that is of D 148
divers things in it D 147
diocese and on the D 147
disown him in the D 146
direct beam on the D 146
dinner all at the D 146
diamond and on the D 146
dialect was of the D 146
diagram can be an D 146
dipper was in the D 145
divers things of the D 144
distal pan of the D 144
dishes out of it D 144
dishes lay in the D 144
dioxide gas to be D 144
dialect but in the D 144
diagram than on the D 144
diagram how it is D 143
divine art in the D 142
distal one of the D 142
disarm them in the D 142
dinner one of my D 142
dinner are to be D 142
dictum was to be D 142
dinner and at tea D 140
dilute and in the D 140
diction that he is D 140
divers men at the D 138
dishes and to the D 138
dipped its toe in D 138
dinner that it is D 138
dinner and so to D 138
diaries are at the D 138
disarm them or to D 136
dioxide gas on the D 136
diocese one of the D 136
dinner with us if D 136
dinner nap by the D 136
dinner are in the D 136
dinner and to my D 136
dinner and tea on D 136
dinner all of the D 136
dilute all of the D 136
dished out as the D 134
dioxide that it is D 134
diocese was on the D 134
dinner than in the D 134
dinner out of me D 134
dinner and to do D 134
diamond than in the D 134
disown them in the D 132
dismal lie to me D 132
dinner sat in the D 132
diluting them in the D 132
dilate due to the D 132
diction than in the D 132
diarrhea may be so D 132
dialect and so on D 131
divide thou it by D 130
dinner not to be D 130
dinner got up in D 130
diction had to be D 130
diagram that is to D 130
distal end to be D 128
direct hit on me D 128
dioxide may be an D 128
dioxide for up to D 128
digest was to be D 128
diamond now in the D 128
disuse and it is D 127
diagram for the ion D 127
distal end is at D 126
direct hit in an D 126
diesel oil as the D 126
diarrhea can be the D 126
diagram that is in D 126
diagram may be an D 126
direct oil to the D 125
distal and of the D 124
dismal hue of the D 124
dishes can be as D 124
diggings had to be D 124
disuse that it is D 122
dinner can be as D 122
dilute this to the D 122
diagram can be the D 122
dipole fit to the D 121
dioxide may be as D 121
divers men to be D 120
dilute any of the D 120
direct for the sea D 119
dilute gas in the D 119
divers are to be D 118
distal end is an D 118
dismal year of the D 118
dismal day of the D 118
dishes lying in the D 118
direct tax or by D 118
dinner was to the D 118
dinner can be an D 118
dialect and on the D 118
dialect and at the D 118
direct dial to the D 117
dinner with the in D 117
digest one of the D 117
diarrhea and as an D 117
divining rod to the D 116
dinner each of the D 116
dinner and if he D 116
diluting them to the D 116
diagram was in the D 116
dismal than it is D 114
dishes put on the D 114
dinner then at the D 114
dictum that we do D 114
diamond rings to the D 114
diners sit on the D 113
disown one of the D 112
dishes out to us D 112
diocese was at the D 112
dinner and up to D 112
diarrhea are to be D 112
dialect than to the D 112
diagram and on it D 112
dishes are on it D 110
direct hit or by D 110
dinner due to the D 110
dinner and tea to D 110
digger out of the D 110
diarrhea are at the D 110
dialect poet of the D 110
dipole lying in the D 109
divers had to go D 108
distal end or the D 108
dismal than in the D 108
dished end of the D 108
direct beam at the D 108
dioxide led to the D 108
dioxide gas as it D 108
dioxide both in the D 108
dinner was to go D 108
dinner hot at the D 108
diesel had to be D 108
disuse and of the D 106
dished her up in D 106
dioxide than is the D 106
dinner set in the D 106
dinner has to the D 106
dinner each of us D 106
diction has to be D 106
diagram are on the D 106
dictum that if we D 105
divers kings in the D 104
distal end by an D 104
disown any of the D 104
dishes for me by D 104
dinner you go to D 104
dilating eye of the D 104
diapers are to be D 104
diagram owing to the D 104
diagram map of the D 103
divine ray of the D 102
dishes than in the D 102
dipped them in thy D 102
dioxide may be of D 102
diluting one of the D 102
diaries that the thing D 102
diamond not to be D 102
dialect that he is D 102
diagram may be in D 102
diagram and so on D 102
dioxide was to be D 100
digest them so as D 100
diesel than in the D 100
diaries and of the D 100
diagram lie on the D 100
dinner for us as D 99
dinner set on the D 98
dinner and be on D 98
diarrhea can be so D 98
diaries and to the D 98
diapers and so on D 98
disuse and in the D 96
dishes for up to D 96
direct cox to the D 96
direct beam in the D 96
dinner that is the D 96
dinner and go up D 96
diaries out of the D 96
diamond was on the D 96
discos and so on D 95
diocese and to be D 95
digest and it is D 95
divine fiat in the D 94
dishes has to be D 94
disarm them at the D 94
disarm him by the D 94
direct tax as the D 94
dipped its wing in D 94
dinner was in no D 94
dinner than to the D 94
dinner got up by D 94
diluting any of the D 94
diarrhea may be of D 94
diamond out of it D 94
diamond one of the D 94
divine act of re D 92
divers are on the D 92
disuse and is no D 92
discos are in the D 92
diocese than in the D 92
dinner but it is D 92
dimers are in the D 92
diamond head at the D 92
disown him as an D 90
dishes set in the D 90
diocese and it is D 90
dinner and we go D 90
dinner and we do D 90
diamond path of the D 90
diamond die in the D 90
dialect may be the D 90
diagram lie in the D 90
divine art to be D 88
divers due to the D 88
dipped low at the D 88
dinner out of an D 88
dinars had to be D 88
dimmer and at the D 88
diluting this to the D 88
diction that is the D 88
diarrhea for up to D 88
diamond and at the D 88
diagram was of the D 88
divine fiat or by D 86
distal than to the D 86
dismal end in the D 86
dishes dear to the D 86
dishes and as an D 86
disarm her of the D 86
dipped one toe in D 86
dinner owing to the D 86
digger had to be D 86
diesel out of the D 86
dictum was to the D 86
diarrhea and to be D 86
diaries are of the D 86
diaries and on the D 86
diamond saw in the D 86
diamond head or the D 86
diamond and the ring D 86
diagram for an ion D 86
dishes off of the D 84
dishes dry in the D 84
direct beam by the D 84
dinner for us the D 84
dinner and tea he D 84
dinner and do my D 84
diction that is at D 84
diatoms and of the D 84
dialect than it is D 84
dishes may be the D 82
dioxide gas is an D 82
dioxide gas in an D 82
dinner with at the D 82
dinner fit to eat D 82
dinner and eat the D 82
dictum not to be D 82
diction can be so D 82
dickey was in the D 82
diamond has is as D 82
diagram that is an D 82
diagram led to the D 82
divine art to the D 80
dismal era of the D 80
dished them up in D 80
disarm him in the D 80
direct hit on us D 80
dipped him in it D 80
dinner for us by D 80
diners sat on the D 80
dictum that to the D 80
diction than is the D 80
diaries now in the D 80
diagram that the ear D 80
direct thee in the D 78
dilute one of the D 69
diagram for the in D 56
divest all of the D 53
distal one in the D 53
diagram may be as D 51
direct thee in thy D 49
diesel oil to be D 47
digest fat in the D 46
diesel oil is the D 46
digest each of the D 45
diesel oil by the D 45
dinner with us so D 42
diocese that it is D 41
diagram can be as D 41
