diseases of the eye M 127918
division of the new M 44897
divided by the sum M 39882
divided by the area M 31702
divided by the mean M 24778
division of the two M 22244
division of the earth M 21329
disposing of the dead M 18825
differs in the two M 18681
division of the war M 16865
division of the year M 16586
differs in no way M 14670
division of the old M 14598
division of the day M 13214
diseases of the head M 11823
divided at the end M 10806
dispose of it for M 9964
dignity of the law M 9626
diseases of the dog M 9197
dispute as to who M 8836
directs me to say M 8202
division of the area M 8179
divorce or the death M 8122
divided as it was M 6892
division of the air M 6663
division of the law M 6489
dislike of the man M 6367
dignity of the old M 6296
dignity of the man M 6204
division of the poem M 6180
dispose of the dead M 5874
discuss it at all M 5578
division at the end M 5495
dispute as to how M 5429
dispose of as they M 5428
division of the red M 5254
divided as to how M 5200
division of the east M 5105
dislike of the new M 4952
dispose of the old M 4887
dispute as to its M 4882
division of the one M 4380
divided as to its M 4308
discuss it in this M 4288
dispose of it and M 4256
discuss at the end M 4230
dispose of as she M 4012
divided by the net M 3746
display at the top M 3674
diseases of the air M 3614
disgust at the idea M 3399
dignity of the son M 3390
dislike to the man M 3314
dignity of the new M 3267
display of the ten M 3126
display of the new M 3122
divided by the two M 3094
divided by the heat M 3037
dispose of the idea M 3018
division of the net M 2979
division in the area M 2955
disgust at the way M 2873
dislike of the idea M 2860
dispute of the new M 2834
dispose of it with M 2813
divided it in two M 2790
display on the web M 2780
division of the beat M 2762
directing me to this M 2710
dispose of as you M 2690
divided up so that M 2686
dignity of the two M 2685
dignity of the one M 2653
dispose of in any M 2606
display at the end M 2591
differing in no way M 2556
discuss it in any M 2502
division in the new M 2382
dispute to an end M 2343
dispose of the real M 2322
differing as it does M 2317
disposing of the old M 2314
disturb us in our M 2310
divided by the new M 2304
diseases of the new M 2284
display in the new M 2216
division of the head M 2190
divided at the top M 2154
division of the long M 2144
dispose of the two M 2120
differs in the way M 2104
dispute as to his M 2070
division on the east M 2055
division of the sum M 2007
division in the rear M 1959
distant as it was M 1916
diseases of the old M 1914
discuss it at this M 1898
disturb me at all M 1889
divided by the war M 1882
division of the real M 1850
divided up in this M 1844
dignity of the poet M 1826
disposing of it for M 1824
distant be the day M 1792
differs on the two M 1780
divides it in two M 1762
divided in to two M 1755
dignity of an old M 1754
dispose of or deal M 1734
distant as it did M 1728
division in the war M 1727
dignity of the head M 1724
dislike of the old M 1696
dispute as to any M 1695
dislike to the idea M 1694
divorce of the two M 1680
display at the new M 1666
division to the east M 1645
division in the lead M 1632
distant to the east M 1618
diseases in the area M 1592
dispose of at his M 1588
dismiss it as being M 1568
distant as it may M 1562
diseases by the use M 1558
distant of the two M 1528
division of the sky M 1512
dislike to the new M 1506
display of the red M 1471
dignity of the see M 1442
divided in the earth M 1424
divided as we are M 1424
disturb us in this M 1400
dignity of the dead M 1390
dispose of the new M 1386
display of the two M 1373
divided as to his M 1372
division is the one M 1358
divided in the two M 1352
division of the big M 1346
division of the non M 1344
divided by the dry M 1326
diseases it is not M 1307
display it in its M 1306
dispose of or use M 1304
dignity in the way M 1290
diverge as if they M 1267
dispute as to this M 1266
dispose of in this M 1264
dispose of my own M 1254
divided by the old M 1244
dispose of it all M 1241
division of the meat M 1239
differing in the two M 1232
dislike to me and M 1226
division of the ten M 1220
divided by the real M 1215
differing in the way M 1214
discuss it at any M 1208
discuss it in his M 1188
display of the old M 1173
division of the bar M 1168
dictate of the law M 1164
divided in the way M 1162
dignity at the end M 1154
division at the top M 1152
divided as it had M 1132
dignity of the men M 1128
display on or off M 1123
diseases of the cat M 1117
divorce in the new M 1116
divided as to who M 1106
dispute at the end M 1103
division of an area M 1098
diseases in the new M 1094
dislike of the war M 1092
dispose of the one M 1076
dignity at the head M 1068
division of the men M 1066
dictate to me how M 1065
divided by the end M 1050
discuss it in its M 1048
dispose of me and M 1043
division of the set M 1029
division in the east M 1025
division of the then M 1023
dignity to the end M 1020
dispose of the things M 1016
division of the six M 998
dignity on the one M 997
divided by the age M 996
disgust of the old M 988
division in the two M 985
dictate it to you M 979
division as it was M 968
division of the pre M 966
dispose of the few M 966
dignity of the dying M 961
divided on the death M 956
dislike of the way M 948
dignity of the bar M 948
dignity of the god M 944
dictate to us how M 942
division of the act M 936
divided on the war M 930
division of the oak M 926
division on the one M 923
diseases of the war M 922
disposing of it and M 914
dispute or of any M 903
divided by the law M 894
directs us to use M 894
division of the man M 892
differs in so far M 891
distant as we are M 872
discuss it in all M 860
division of the eye M 858
divided on the two M 853
dislike of the two M 852
dispose of to any M 850
disgust of the new M 841
divided by the long M 834
diseases in the dog M 830
divided it up and M 828
disposing of the two M 826
division of the all M 825
diverse as it was M 822
display in the old M 821
dismiss it as not M 820
disgust of the men M 816
directing it to its M 816
dignity on the job M 814
diverse as the new M 808
diseases of the day M 808
division of the ego M 806
disputing as to who M 805
divided on the use M 804
dispute of the two M 801
display in the sky M 800
diseases on the one M 800
division in the old M 786
display it in his M 785
divided by the run M 782
dispose of the heat M 778
directs it to its M 778
divided by the mid M 774
divorce at the end M 771
dispose of the myth M 768
divided by the year M 760
display it in all M 756
diseases at the new M 756
dispose of us and M 754
dignity to the new M 752
divorce or by death M 746
division in the mid M 746
dispose of the dog M 738
division in the way M 734
divided by the act M 732
division at the head M 728
diseases of the age M 723
division is by far M 720
divided by an area M 720
division at the new M 718
dislike of the use M 716
dignity of my own M 716
dispose of at her M 708
divided by the air M 706
disturb it in its M 704
dispute in the new M 696
dignity in the man M 695
divided on the one M 692
division of the log M 688
dispose of an old M 688
dignity to the man M 688
display of the real M 681
division of the path M 678
diseases of the aging M 676
divided by the use M 674
divisor of the two M 672
division to the rear M 662
division of the things M 656
dignity on the death M 656
division in the year M 654
division of the low M 653
division of the arc M 648
dislike or do not M 648
directs us in our M 648
dignity in the new M 644
dispose of in his M 642
display of the poet M 634
dislike of the law M 634
dislike of the men M 628
display on the one M 627
division of the bow M 626
discuss the thing with M 626
diseases of the area M 624
dignity in the year M 622
diseases we do not M 618
dispose of the bag M 616
division of an act M 612
dismiss it as too M 612
dislike to the use M 611
disturb it in any M 610
dispose of to his M 610
dispose of the lot M 608
dispose of by his M 606
dispose of at any M 606
dismiss it as one M 605
dignity in an age M 604
division of the map M 602
division of it was M 598
dispose of it now M 598
disgust at my own M 597
directs us to our M 596
display in the way M 594
discuss it if you M 592
disposing of the new M 590
disturb me at this M 586
divided by the earth M 585
division by the end M 584
division on the way M 582
disposing of it with M 582
display to the eye M 581
division is as bad M 580
differs is in its M 579
disposing of it was M 578
discuss it at our M 576
directing it to pay M 574
dispose us to act M 572
division of the song M 568
division of the age M 568
dispose of it was M 568
dignity in the east M 568
directs us to see M 566
dispose of it but M 564
dignity of the being M 564
distant as the sun M 561
divorce is so easy M 560
display on the top M 558
directing us to fix M 556
divorce in the old M 552
display of the dead M 549
diseases of the earth M 547
divided in the mid M 546
distant to the near M 546
discuss as to how M 546
division of the sun M 545
discuss it in that M 544
distant as he was M 540
disgust at the end M 540
divulge it to any M 536
directs us to ask M 536
discuss it on its M 532
divided by an east M 526
dispute in the mid M 526
dispose of the net M 524
disgust of the two M 524
disgust at the new M 524
dignity of the east M 523
diseases of the two M 520
directs us to read M 520
discuss it in our M 518
disturb us at all M 516
discern in the dim M 516
dignity to the old M 514
differs as to its M 514
dispose of the earth M 513
differing as it did M 512
diseases in the two M 511
display in the web M 510
disposing of the real M 508
division of the leg M 506
dislike to the old M 506
divorce is the one M 503
discern in the new M 502
dignity to the idea M 502
dispose of or put M 498
dispose of the man M 496
division of the dead M 495
divided by the one M 493
disgust at the man M 490
divided at the death M 486
disturb us by his M 486
dignity as the son M 485
dislike of it was M 482
dignity as it was M 482
dispute in the area M 480
display at or near M 480
diseases at the end M 480
dignity as if she M 480
display of my own M 479
division of the see M 478
divided by an act M 478
dispose of or not M 478
display in the top M 477
diseases of the east M 477
dictate it to him M 476
division of an old M 470
directs us to god M 470
directs us to this M 466
directing us to our M 462
dignity of the idea M 462
dislike to the war M 460
disposing of the idea M 458
dictate to us our M 454
division on the far M 452
display at the air M 452
dignity if he had M 452
division on the head M 450
disturb me in this M 448
dispute as to that M 448
dislike of the one M 448
dignity in the old M 446
dislike of the job M 445
division on the day M 444
division of the cat M 444
division in the red M 444
divided by the saw M 443
dispose of the sum M 440
dispose of my old M 440
directs us to that M 439
display of the day M 438
division at the age M 437
differs as to how M 437
division of the web M 436
dispute in the east M 435
divided up in any M 434
divided by the gap M 434
discuss is the one M 433
divided by the ten M 431
divided by the low M 431
dislike to it and M 430
dignity in the one M 430
dispose of the use M 429
disposing us to all M 426
directs us to act M 426
division it is not M 424
dispute as if they M 424
dislike it at all M 423
distant in an air M 422
dictate to the man M 422
directs me to add M 420
dignity of the earth M 418
dignity as he had M 416
division of the mid M 414
divided up in two M 412
dignity of the act M 412
distant as it had M 410
display at the old M 408
divides at the top M 407
divided on the top M 407
dignity as he can M 406
dictate of my own M 405
dispose of the meat M 404
dispose of it any M 404
display of the web M 404
dimness of the bar M 403
diverse as we are M 402
division of the job M 400
division of the rings M 396
dispose of in that M 395
differs in the use M 395
display in the area M 392
division of the top M 391
dignity to the one M 391
dignity of the real M 391
division to the end M 390
disposing of the heat M 388
dislike of me was M 388
diseases in the head M 388
diseases as we are M 386
dignity of the long M 386
division to the new M 384
division in the use M 384
dispose of the day M 384
dismiss it in this M 384
discern it in its M 382
dislike to the boy M 381
dignity of the end M 380
dictate to us that M 379
divided by the log M 378
divided by the head M 378
divided in the year M 377
distant on the east M 377
division of the far M 376
divided by the red M 376
divided as it has M 376
distant by the way M 376
dislike of the boy M 376
disgust at the old M 376
differs at the two M 376
directing it to his M 375
dismiss at the end M 374
disposing of the men M 372
diseases as if they M 372
divorce on the plea M 370
dispute as it was M 370
disgust at the war M 369
differs on the one M 367
discuss is the use M 364
directing us in our M 364
divulge to no one M 363
distort it so that M 363
dissent in the new M 362
display of the year M 361
discuss it or not M 360
discern if it was M 360
directing it to any M 360
display of the area M 359
diseases in the old M 359
divorce of the new M 358
display of the map M 358
divorce is the death M 356
dispute of the day M 356
display to the end M 356
display of the way M 355
divided by the man M 354
dislike of it and M 354
display in the two M 353
disposing of an old M 352
divided up the earth M 351
dimness of the sun M 350
differing as to its M 349
division or in any M 348
display is to use M 348
dictating it to his M 348
dispute it is not M 346
disposing of my own M 346
discern in it any M 346
dignity to the poem M 346
division on the arc M 345
divided as to this M 344
dimness of the big M 344
display of the head M 342
directs me to ask M 342
directs us to pay M 340
divided by wing area M 338
division in the rings M 336
distant is the day M 336
dignity of king and M 336
dignity at the age M 336
division in the end M 335
dissent on the one M 334
dispute as to her M 334
dispose of in one M 334
dignity as if they M 334
divorce in the mid M 332
dislike to be put M 332
diseases of the red M 332
dignity of the kings M 332
divided by the pre M 331
divided as he was M 330
divided as to her M 328
distant to be out M 328
dissent on the war M 328
division of the use M 326
distant in the rear M 325
disposing of the earth M 325
division to the area M 324
diseases of the year M 323
division or of any M 320
division of the heat M 320
distant in the sky M 320
divided in the set M 319
division of the box M 318
disable it if you M 318
divided up the area M 316
dignity of the poem M 316
dignity in the rear M 315
distant as we had M 314
distant as if she M 314
display of it was M 314
display in the box M 314
diseases in the east M 314
dimness of the old M 314
dictate it to his M 314
division of the few M 312
division in the law M 312
display is the one M 312
divisor of the sum M 310
divided at the mean M 310
distort it to fit M 310
diseases is the use M 310
dictate to us who M 310
division of the arm M 309
discuss it at that M 308
disturb it at all M 307
dispute as we may M 307
dispose of the long M 306
dispose of the ash M 306
dispose of it that M 306
dignity as he was M 306
divorce if he did M 305
dignity of the things M 304
divided up the meat M 302
divided on the map M 302
display it in any M 302
dignity of the use M 302
dispose of the men M 300
dignity of the age M 299
dictate to us and M 299
diverse in the two M 298
dictate as to how M 298
display it at all M 296
division of the end M 295
divulge it to you M 294
divorce by the law M 294
display it to his M 294
disgust of the man M 293
display of the long M 292
dislike of me and M 292
directing us to this M 292
division in the poem M 290
divided on the way M 290
display it in our M 290
diseases of the leg M 290
division on the two M 289
divides at the end M 289
dispute in the law M 289
differs is in his M 289
divided as it now M 288
dimness of my own M 288
divided by an arm M 287
divided as to any M 286
disposing of the lot M 286
divorce is the end M 285
dislike to the law M 285
directing it so that M 285
divorce so he can M 284
division is in all M 284
discuss on the way M 284
differs is the way M 284
divorce on the one M 283
dignity of an end M 283
discern if he was M 282
dignity of the day M 282
divided by the wet M 281
diverse as the one M 281
disturb it by any M 280
dissent in the east M 280
dispose of by way M 280
display of the use M 280
diseases in the near M 280
division in the long M 278
divided as to why M 278
dispose of the boy M 278
diseases to the new M 278
directs us to his M 278
display it so that M 277
dimness of the eye M 277
division on the map M 276
division of the boy M 276
division of an idea M 276
display of the one M 276
division in no way M 274
distant at the end M 274
discern it or not M 274
dignity in the law M 274
divided up the day M 273
divided by the east M 273
division of the poet M 272
division of the idea M 272
diverge in the way M 272
dispute as to why M 272
disposing of the ash M 272
dignity to the two M 272
divided it by two M 271
dictate to me who M 271
divided by the path M 270
divided on the east M 268
dispute in the near M 268
differing as we did M 268
disgust at the two M 267
divided in the one M 266
directing me to you M 266
dimness of the long M 266
dignity or to his M 266
dictating to me how M 266
dictate to me and M 265
divorce of is and M 264
directs us to add M 264
dignity to the head M 264
dictate to the men M 264
division of the rear M 263
divided as if they M 262
dimness of the air M 262
divided up the new M 261
divided to the end M 260
diverse as it has M 260
dispute to the end M 260
dispose of it than M 260
dislike of the big M 260
discuss it as they M 260
divided in the old M 258
display on the map M 258
diseases he or she M 258
dictate to the weak M 258
division by the use M 256
division by the act M 256
division in the one M 254
divided as the two M 254
disposing of the things M 254
disposing of the bad M 254
dispose of the bad M 254
discuss it so that M 254
directs it to one M 254
dictate it to them M 253
dispute it at all M 252
dispose of the non M 252
dispose of in her M 252
dislike of the poet M 252
disputing as to how M 251
dispute it in this M 250
diverge at the top M 249
dispute in the way M 249
division is the way M 248
division by the sum M 248
divided on the idea M 248
diverse as the men M 248
disposing of the few M 248
disgust at the act M 248
diseases of the bye M 248
divided by the sun M 246
directs us to one M 246
directing me to get M 246
dignity of the job M 246
differing as he did M 246
division to the two M 245
divided by the eye M 245
divided it up with M 244
dispose of me for M 244
dignity as the head M 244
display in the air M 243
divorce as it was M 242
division of the now M 242
division as it had M 242
display on the day M 242
display it in this M 242
dislike to me for M 242
directing it in its M 242
dignity to the act M 242
division in the far M 241
divided by the non M 241
division of the lot M 240
dispose of the head M 240
dictate it to her M 240
divorce is the act M 238
divorce at the age M 238
division to an end M 238
divides us is not M 238
divided by the lot M 238
disgust on the one M 238
directs us to its M 238
dignity as to see M 238
divorce by the end M 236
division to the top M 236
disposing us to act M 236
dislike of the act M 236
division on the bar M 234
division of the pro M 234
disturb me in any M 234
dislike at the idea M 234
disgust as he had M 234
division in the near M 232
divided it so that M 232
distant as if they M 232
dispose of the box M 232
division of the near M 231
distant as he had M 230
disposing of it they M 230
display as it was M 230
dislike of the poem M 230
dislike of it may M 230
disgust at the low M 230
discern it at all M 230
dignity in the use M 230
display in the east M 229
division is in two M 228
dispute in so far M 228
dispose of by this M 228
dismiss it on that M 228
discuss it if they M 228
divulge it to her M 226
distant by the near M 226
display is at its M 226
discern in it all M 226
differing in the use M 226
divided by the lead M 225
diverge to the east M 225
dignity of it all M 225
division we do not M 224
divided up by two M 224
divided by the six M 224
display up to six M 224
disgust me of that M 224
directs us to sum M 224
dispute by the way M 223
dislike to do this M 223
discuss in the two M 223
divided by an old M 222
dislike on the one M 222
dignity to go and M 222
dignity of an idea M 222
dispose of us all M 220
dispose of it thus M 220
discuss it in her M 220
directs us to say M 220
directs us in all M 220
division to the aid M 218
division in an area M 218
divided on the new M 218
display on the all M 218
disgust as he saw M 218
directs it to his M 218
divided by the bit M 217
divided is as big M 216
distant as the eye M 216
display it at any M 216
dictate to me that M 215
division is as old M 214
dispose of in our M 214
division of the being M 213
dignity as an end M 213
dispose of is not M 212
display of the mean M 212
discuss it in two M 212
directs us in this M 212
dignity to do any M 212
dignity in the eye M 212
divorce if he had M 211
division of the key M 211
dispute on the one M 210
display of the key M 210
dispute of the mid M 209
dislike of the non M 209
disposing of the one M 208
dispose of the cup M 208
display as if they M 208
discuss it as one M 208
dimness of the weak M 208
dignity by the use M 208
division is the key M 206
divided up the old M 206
dissent is an act M 206
dispute in the year M 206
dispose of as his M 206
dispose me to this M 206
disgust at the use M 206
disgust at the long M 206
dignity or of his M 206
dispute by the use M 204
disposing of the meat M 204
dignity of the weak M 204
division on the death M 202
divided by the arm M 202
disturb us at this M 202
disputing on the old M 202
dispute on the way M 202
diseases of the low M 202
disable it so that M 202
divided up as they M 200
display of the six M 200
dislike of the long M 200
division in the air M 199
dispute in the far M 199
diseased as he was M 199
dictate to the new M 199
divulge it to him M 198
divorce if it was M 198
divided by the top M 198
divided by the gear M 198
dislike to the way M 198
discuss is the way M 198
dimness in the air M 198
dignity to the dying M 198
dignity of the red M 198
dignity of the non M 198
disgust at the bad M 197
divulge it to his M 196
divided it is not M 196
divided by the bar M 196
dismiss it as yet M 196
dislike to go out M 196
diseases in the eye M 196
discuss it on this M 196
directing us to god M 196
differing in the key M 195
dispose of the red M 194
dispose of my things M 194
discuss in the way M 194
dignity in the head M 194
divorce in the near M 192
diseases in the cat M 192
dignity in the end M 192
division of the pay M 191
diverge in the two M 191
dispute in the old M 191
display on the far M 191
directing it to one M 191
division of the and M 190
divided in the war M 190
divided in the long M 190
disturb the king and M 190
disturb or in any M 190
dispute or on its M 190
dispose of the war M 190
dispose of at this M 190
display at the far M 190
diseases in the way M 190
diseases in the long M 190
directs us to put M 190
differing on the two M 190
display to the one M 189
disgust at the things M 189
diseases of the one M 189
dignity of the lay M 189
division as he had M 188
divided by the death M 188
disturb us in that M 188
dignity to the long M 188
dignity to the law M 188
display of the top M 187
dignity to the dead M 187
divorce or in any M 186
divided in the use M 186
divided in the new M 186
divided by the arc M 186
display of the ill M 186
diseases in so far M 186
discuss it in one M 186
discuss it as you M 186
dispute in the two M 185
division to be read M 184
divides it by two M 184
divided up the big M 184
divided it up for M 184
diverse as it may M 184
discern the king nor M 184
directs me on this M 184
dispose of the bear M 183
division of the team M 182
divided so as not M 182
diverse as the use M 182
dissent at the end M 182
discuss it on that M 182
dispute in no way M 181
divorce in the end M 180
divided in to six M 180
divided as to age M 180
diverse in the way M 180
distant to me now M 180
dislike as he had M 180
dignity of my new M 180
dispose of as one M 179
division on the new M 178
division of the dry M 178
diverge at the end M 178
distant on the one M 178
display it is not M 178
display in the war M 178
diseases in the year M 177
discard at the end M 177
dictate as to who M 177
disturb us in any M 176
distort it in any M 176
dispute is the one M 176
dispose of the law M 176
display of the law M 176
dislike it or not M 176
disgust in the man M 176
disgust at it and M 176
diseases or it may M 176
diseases by the end M 176
divided at or near M 175
display of the dying M 175
division is of two M 174
division in the set M 174
divided by the web M 174
diverse of the two M 174
disturb us in its M 174
distant to be real M 174
dispute in the long M 174
disposing of it than M 174
diseases in an area M 174
discuss it is his M 174
dignity we do not M 174
dignity if we are M 174
dignity as the seat M 174
division of the mean M 173
dispute as it has M 173
diseases in the mid M 173
division of my own M 172
disturb us at our M 172
dissent in the war M 172
display of it but M 172
display it to our M 172
display it by using M 172
display in the use M 172
dismiss us to our M 172
differing as to how M 172
divided it by lot M 171
dispute on the use M 171
division of the way M 170
division as it has M 170
dispose us to set M 170
dispose of on his M 170
display it in her M 170
display in the day M 170
differs as it does M 170
divorce by the age M 169
disposing of the sum M 169
display of the sun M 169
division of it with M 168
divided up at all M 168
disposing of the long M 168
dispose of the fear M 168
display it at its M 168
dislike of the death M 168
disgust of the way M 168
diseases in my old M 168
discuss on the air M 168
dignity in my own M 168
differing by an odd M 168
dictate to me his M 168
division as the one M 167
distant in the east M 167
display to the top M 167
display by the use M 167
dislike to it was M 167
discern by the eye M 167
dignity at the top M 167
division is in this M 166
divided up by them M 166
disturb me if you M 166
dispute of the year M 166
dispute of the war M 166
display of it and M 166
display in the big M 166
disgust to the new M 166
discern in the far M 166
dimness of the day M 166
dignity at my own M 166
dignity as we can M 166
dispute to the two M 165
directing it to god M 165
divided up by his M 164
dispose of in its M 164
display to the new M 164
dislike to the two M 164
discuss it as long M 164
diverging at the top M 163
divorce is as easy M 162
divorce as an act M 162
divided up in that M 162
divided by the day M 162
dispose of the plea M 162
dispose of my real M 162
display of an old M 162
disgust of the war M 162
dignity of us all M 161
division of it being M 160
division as to how M 160
divided up by lot M 160
distant by the path M 160
dispose of to our M 160
display of it than M 160
disgust at the law M 160
directs us to two M 160
directs to be read M 160
directing me to put M 160
divided up the two M 159
diseases in the age M 159
divorce as he had M 158
division of it and M 158
division of an arc M 158
division is at all M 158
divided to the two M 158
divided on the old M 158
diverting as it was M 158
dispose as he saw M 158
display of the things M 158
directs it in its M 158
dignity to the day M 158
divided by the cut M 157
dispute as to our M 157
display of the man M 157
discern in the two M 157
divided at the head M 156
dispute is an old M 156
dispose of it are M 156
dispose of as her M 156
display it to you M 156
display at the rear M 156
diseases is the one M 156
diseases by the aid M 156
diseased or in any M 156
discern on the one M 156
directing me to his M 156
dictating to us our M 156
dictate to the poet M 156
divorce it is not M 155
divided by the key M 155
display to us his M 155
display at the war M 155
directing it to that M 155
division at the oak M 154
dispute as the law M 154
dispute as it had M 154
dispose of my all M 154
display it to them M 154
display it on his M 154
disgust at the mean M 154
directing us in all M 154
dignity on the man M 154
divorce in the law M 153
division at or near M 153
diseases by the year M 153
division of it has M 152
divided up the men M 152
distant as the day M 152
dispute in an act M 152
dimness of the far M 152
dictating to me his M 152
divisor of the set M 151
divorce me if you M 150
divorce is the way M 150
division in the pre M 150
distant on the map M 150
dispose us to bear M 150
display of it with M 150
dignity to the job M 150
dignity the king has M 150
dignity of the big M 150
diverging to the east M 149
dispute if it had M 149
divorce as an easy M 148
division in my own M 148
divided up the job M 148
divided by the bin M 148
divided as of old M 148
dispose of the seat M 148
dispose of at its M 148
display of my new M 148
display of it that M 148
display in the long M 148
dislike to the heat M 148
diseases of the dry M 148
diseases is to use M 148
discard it as being M 148
dignity of an act M 148
dictating it to her M 148
dispose of the end M 147
divorce is an act M 146
division is at its M 146
division by the new M 146
diverse as to his M 146
distant on the far M 146
disposing of it but M 146
dismiss the ring with M 146
diseases is as yet M 146
discern it in them M 146
dignity in the long M 146
dignity in so doing M 146
divorce or the end M 144
division to be that M 144
division is to use M 144
divided in the end M 144
distant as it now M 144
display it to all M 144
dignity on the old M 144
dignity in the air M 144
dictate to me this M 144
dictate to me now M 144
diverse as the two M 143
dispose of the six M 143
divorce is an easy M 142
divisor by the new M 142
division to be set M 142
diverse in the old M 142
distant as the sky M 142
dissent in an age M 142
disposing of it has M 142
dispose of at our M 142
display of the war M 142
display if we had M 142
diseases by the way M 142
discuss it is not M 142
discard of the old M 142
dignity of the death M 142
diverge as to how M 141
display in the bar M 141
disgust at the ill M 141
divorce on the day M 140
division of the wings M 140
division is in one M 140
division as in any M 140
divides it so that M 140
divided by the poet M 140
divided at the age M 140
dissent in the low M 140
dissent in the bud M 140
dispute in an area M 140
disposing of it all M 140
dispose of us for M 140
dispose of the big M 140
dispose of my head M 140
display of it for M 140
dignity of the boy M 140
dignity is in his M 140
divided up the year M 139
divided by the set M 139
display of the sum M 139
display of the set M 139
division to the old M 138
divided by the way M 138
divided by the aid M 138
disposing of as you M 138
display at the head M 138
dislike it is that M 138
diseases as we now M 138
disabling as it was M 138
directing us to new M 138
directing me to that M 138
dictating to the old M 138
divorce if he does M 137
divides at the head M 137
divided up by age M 137
dissent in the old M 137
dispute by the two M 137
display of the end M 137
dislike in the way M 137
disgust in the way M 137
diseases in the aging M 137
divided in my own M 136
divided as in any M 136
diverting it to his M 136
disposing of me and M 136
disposing of it are M 136
dispose of at that M 136
dislike to the poet M 136
diseases in the pre M 136
diseases in no way M 136
directs us to set M 136
directing it at his M 136
dignity it is not M 136
dignity in it than M 136
dignity he or she M 136
dispose of at one M 135
disgust as he read M 135
divulging it to his M 134
division up to that M 134
divided in the area M 134
display of the ego M 134
dislike me on that M 134
directs it by his M 134
directing me to pay M 134
directing me to bring M 134
directing it to her M 134
dignity to go out M 134
dignity in so far M 134
dictate of the head M 134
display it in one M 133
divorce if it had M 132
division on the top M 132
divided by the odd M 132
distort the thing far M 132
distort it or add M 132
dispute or to bring M 132
display it to her M 132
dislike to me can M 132
dignity in the dying M 132
dignity as it has M 132
diverging on the eye M 131
diverge in the long M 131
division of the pit M 130
division of it that M 130
division of an era M 130
division in the non M 130
division in the act M 130
divided on the earth M 130
diverse as in any M 130
distant to the area M 130
distant is the old M 130
dissent in the two M 130
dispute in the end M 130
dispose of the air M 130
dispose of at each M 130
display of the boy M 130
dismiss me at any M 130
dislike it if she M 130
diseases to be owing M 130
discuss if we are M 130
discard it if you M 130
directs me to put M 130
dignity on the son M 130
dignity of the few M 130
diverge in the end M 129
dispose it so that M 129
display of the big M 129
division on an aging M 128
division is to set M 128
division is to bring M 128
division is the death M 128
division in the top M 128
divided by an odd M 128
divided as to our M 128
divided as it may M 128
dissent to the war M 128
dispute we do not M 128
disposing of the head M 128
dispose of the key M 128
display it as you M 128
display as he had M 128
dislike to the poem M 128
dislike to the box M 128
disgust as the two M 128
diseases as it has M 128
dimness of the sky M 128
division of the god M 127
disposing of the non M 127
dispose of the ten M 127
dictate to the old M 127
division on the set M 126
divided by the all M 126
dissent in the area M 126
dispute by the end M 126
display of it can M 126
display it on her M 126
disgust of the real M 126
disgust at the men M 126
discern by the way M 126
directs us to try M 126
differs in the long M 126
divorce he or she M 125
divorce as the end M 125
division is the sum M 124
division in so far M 124
division by the two M 124
divided on the real M 124
dispute to the use M 124
dispose of the cat M 124
dispose of me with M 124
display it on its M 124
dismiss me in this M 124
dismiss it as old M 124
disgust of the one M 124
discuss it in due M 124
discuss in my own M 124
discern it in his M 124
dimness of the low M 124
dignity as the new M 124
divorce in the year M 123
division in the being M 123
division by the mean M 123
display is the use M 123
dignity of the sun M 123
dictating it to him M 123
dictate in the law M 123
divorce of the one M 122
division of the meal M 122
division of the kings M 122
division is the use M 122
division is on its M 122
division at the death M 122
divides in the way M 122
distant on the way M 122
distant as the far M 122
dissent of the two M 122
disposing of or using M 122
dispose of me now M 122
dispose of it out M 122
dispose of it can M 122
display of the low M 122
display as an aid M 122
disgust to the war M 122
diseases to be due M 122
diseases is in its M 122
diseases as it does M 122
discern in it few M 122
directing us on our M 122
dignity by the way M 122
division of it had M 120
divided us so long M 120
divided as we now M 120
divided as we had M 120
disturb us on any M 120
distant at the head M 120
dispose of it not M 120
dislike of the heat M 120
dislike it or are M 120
dislike in the new M 120
diseases of the era M 120
discuss it on our M 120
distant to the man M 119
distant or the near M 119
display to us all M 119
display it in red M 119
divorce to the man M 118
division or to any M 118
division is the area M 118
divided at the two M 118
distant so as not M 118
dispute at an end M 118
diseases on the way M 118
discern in the things M 118
directing me to sit M 118
dignity of my being M 118
dignity in no way M 118
dispute it in his M 117
display on the big M 117
diseases at the age M 117
divulge it or not M 116
division as to its M 116
divides us is too M 116
divides in the two M 116
divided up by low M 116
divided up by its M 116
divided by in this M 116
distant as the earth M 116
disputing as to our M 116
dispute to the new M 116
dispute on the death M 116
dispute if it was M 116
disposing of the man M 116
disposing of the dog M 116
dispose of it this M 116
dispose of in due M 116
dispose of as was M 116
display of the age M 116
dismiss it as bad M 116
dislike of the son M 116
disgust to the old M 116
dignity on the day M 116
dignity is the real M 116
differs by an odd M 116
divided at the mid M 115
dispute as to one M 115
dispose of it one M 115
divorce or of death M 114
divorce by the man M 114
division or by any M 114
division of it can M 114
division is to get M 114
divided on the key M 114
dispose us to see M 114
dispose of my two M 114
display in the one M 114
display in an area M 114
dislike to us and M 114
dislike to me that M 114
dislike of my own M 114
dislike it if you M 114
diseases of the long M 114
dignity of the dear M 114
dispose of the now M 113
display up to ten M 113
display on the way M 113
directing on the set M 113
divorce me so that M 112
division of the run M 112
division as if they M 112
divided in so far M 112
divided at the year M 112
divided as in our M 112
disturb us so long M 112
disputing by the way M 112
disposing of the area M 112
disposing of it had M 112
disposing as it does M 112
dispose us to this M 112
dispose of as may M 112
display to an end M 112
display it on our M 112
dislike of the dog M 112
dislike me if she M 112
discern if we are M 112
directs me in his M 112
dignity to the men M 112
dignity of the way M 112
dignity of my age M 112
dignity if it was M 112
distant by the day M 111
dispute at the top M 111
display on the job M 111
dictate as to its M 111
divulging it to any M 110
divisor is the sum M 110
division of the weak M 110
division at the war M 110
divides it in its M 110
dissent is at all M 110
disposing of the myth M 110
dispose of in two M 110
dispose of at all M 110
display of the path M 110
dislike to me has M 110
disgust as he was M 110
discuss or in any M 110
discern in the poem M 110
discern in it that M 110
discern at the end M 110
directs us to him M 110
directs us to bring M 110
directs me in all M 110
dignity in the act M 110
divorce so as not M 109
divided by the now M 109
dislike of the area M 109
directs us so that M 109
division up to this M 108
division on the log M 108
division is in any M 108
divided the king and M 108
divided in the east M 108
dispute at the head M 108
dispose of the area M 108
dismiss it if you M 108
dismiss it as due M 108
dislike of the east M 108
dislike of the bad M 108
disgust to me and M 108
disgust of the few M 108
discuss me at all M 108
directing to an end M 108
directing in the mid M 108
dignity of the ego M 108
dignity in the day M 108
dictate to no one M 107
division by the way M 106
division by the area M 106
divided as to both M 106
dispute or in any M 106
disposing of in any M 106
display of the wings M 106
dismiss me if you M 106
dislike it as being M 106
disgust of it all M 106
diseases to the use M 106
diseases or the use M 106
diseases in the far M 106
discard it on that M 106
discard it as not M 106
dignity to the death M 106
dispute it if you M 105
divorce if it does M 104
division of it may M 104
division of it for M 104
division in the path M 104
divided up in one M 104
distant to be long M 104
distant in the way M 104
distant as the one M 104
dispute to the war M 104
dispose of the wet M 104
dispose of by any M 104
display of the pre M 104
display at an air M 104
dismiss me in all M 104
diseases of an aging M 104
discern in the old M 104
directs me to his M 104
directing me to see M 104
dignity by the two M 104
dictate to the two M 104
divorce in the two M 103
division on the war M 103
division of an air M 103
dispute is the use M 103
display of the log M 103
display it in two M 103
dismiss it as non M 103
diseases of the non M 103
directs it so that M 103
differs in the head M 103
divorce if the man M 102
division or in its M 102
divided us at all M 102
dispose of it had M 102
display it to its M 102
display in the men M 102
dismiss it at any M 102
dismays me to see M 102
dislike of the things M 102
disgust at the age M 102
diseases of the and M 102
discern in the act M 102
directs us to her M 102
directing us to that M 102
directing it to act M 102
dictating to us how M 102
dictate to it how M 102
dislike to me was M 101
divorce if he has M 100
division is to say M 100
division is in its M 100
division in the poet M 100
divided up as far M 100
diverse in the new M 100
distant as the old M 100
dispute as to them M 100
dispose us to all M 100
dispose of the set M 100
dispose at my ease M 100
dislike to go and M 100
diseases in the one M 100
directs to an end M 100
dignity of no man M 100
dictate to us all M 100
dictate to the head M 100
dispute of the age M 99
dispute if it can M 99
display in or out M 99
divorce as it does M 98
division to be put M 98
division is to see M 98
distant it is not M 98
dissent as to this M 98
dispute to be put M 98
dispose of me this M 98
display of the all M 98
disgust to the idea M 98
disgust as if she M 98
diseases of the ego M 98
diseases of the dying M 98
discuss on the one M 98
discuss it to any M 98
discuss in the near M 98
discuss as to who M 98
directs us to aim M 98
directing it at her M 98
dignity if he did M 98
dignity as he sat M 98
dictate to us with M 98
distant as the east M 97
display by the end M 97
dislike of the day M 97
dislike in me that M 97
diseases in the non M 97
differs in the non M 97
divorce is of two M 96
divorce in no way M 96
divorce if it did M 96
division to be one M 96
division is an act M 96
division in the cat M 96
divided us up and M 96
divided it in this M 96
divided as he had M 96
distant as we may M 96
dissent of the new M 96
disposing of me with M 96
dispose of if they M 96
display of the wit M 96
display of the men M 96
display it on this M 96
disgust of my own M 96
disgust as he did M 96
diseases it is now M 96
directs us in his M 96
directing me to one M 96
dignity if he does M 96
differing in the one M 96
differing in the age M 96
dictating to me and M 96
disposing of the use M 95
dispose of the pre M 95
display up to two M 95
divulge it to them M 94
divorce to be had M 94
divorce or if you M 94
division to do this M 94
division in my head M 94
division by the eye M 94
divided as he has M 94
dispute as he may M 94
dispose of by her M 94
display in the sun M 94
dismiss it at that M 94
disgust as the man M 94
diseases as it was M 94
discern in the way M 94
discern in the man M 94
discard it as they M 94
directs me to sit M 94
directing me to read M 94
directing me in this M 94
directing it to you M 94
directing it to him M 94
dignity is an old M 94
dignity in the death M 94
dignity at an age M 94
dignity as king and M 94
dignity as an idea M 94
dissent in the mid M 93
dispose of is that M 93
display of the air M 93
dislike to it that M 93
disgust to the two M 93
divorce of the idea M 92
divided up in each M 92
divided by the fear M 92
divided as at any M 92
disturb me to see M 92
distant as the two M 92
distant as the new M 92
dispute to the one M 92
dispute to the law M 92
dispute on the law M 92
dispute as he was M 92
disposing of the wet M 92
disposing of the boy M 92
display is in use M 92
dismaying thing is that M 92
disgust of an old M 92
diseases on the head M 92
discuss is the idea M 92
discern it in this M 92
dignity to the sun M 92
dignity by so doing M 92
dissent at the top M 91
dispose of the then M 91
division or it may M 90
division of the com M 90
division is as yet M 90
division at the air M 90
division as he was M 90
divided up the way M 90
divided on the day M 90
divided by the big M 90
divided by it and M 90
divided as to each M 90
disturb us as long M 90
distant on the day M 90
dissent to the idea M 90
dispute as he had M 90
disposing of it may M 90
dispose of to you M 90
dispose of to her M 90
dispose of or let M 90
dispose of it far M 90
dismiss it on this M 90
dismaying as it was M 90
dislike of me had M 90
diseases to the end M 90
diseases is an area M 90
diseases in an aging M 90
diseased by the use M 90
discern in the long M 90
directing me in all M 90
dignity to the poet M 90
dignity to the kings M 90
differs as to who M 90
differing as to one M 90
dictate it to one M 90
divided in the near M 89
divorce in the way M 88
division is the real M 88
division if it can M 88
divided as the law M 88
distant to me than M 88
distant of the rings M 88
dissent to the things M 88
dissent to the act M 88
dispose of the low M 88
display of the son M 88
directs us to get M 88
directs it to all M 88
directing it to this M 88
dignity so as not M 88
dignity in the men M 88
dignity in an era M 88
dictate to no man M 88
divorce or if one M 87
disliking as he did M 87
divorce is by far M 86
divorce as he was M 86
divided by the men M 86
disturb it at this M 86
distant of the old M 86
dissent to the use M 86
dispute is as old M 86
dispose of me how M 86
display on the old M 86
display of the easy M 86
dislike to it for M 86
disgust on the man M 86
disgust if he had M 86
diseases in the man M 86
discuss to the end M 86
discuss or to hear M 86
dignity to the son M 86
dignity to go with M 86
differing on the one M 86
division to the one M 85
disputing as to its M 85
divorce if it has M 84
division of the bear M 84
division is an easy M 84
division if it had M 84
division as it did M 84
divides us in our M 84
diverse as if they M 84
disturb us if they M 84
disputing it in its M 84
dispute me on this M 84
dispose of it they M 84
display at the east M 84
dismiss me as being M 84
dislike to the cut M 84
dislike of us and M 84
dislike it if they M 84
disgust of the poet M 84
disgust in the pit M 84
diseases it is apt M 84
discuss it to see M 84
differing by the way M 84
dislike is to that M 83
divorce is the law M 82
division to the head M 82
division of the era M 82
division if we are M 82
divides it up and M 82
divided as the men M 82
diverse of the men M 82
diverse as the old M 82
diverse as the law M 82
distant he or she M 82
distant as an old M 82
dispute at the death M 82
disposing of the net M 82
disposing of the bag M 82
dispose of the son M 82
display to us its M 82
display as it had M 82
dismiss it at this M 82
disgust us at all M 82
disgust of my men M 82
disgust as if they M 82
discuss it at its M 82
discern in the sky M 82
directs it to that M 82
dimness of it all M 82
dignity to the seat M 82
dignity to the bar M 82
dignity of my dear M 82
dignity of it and M 82
dignity in the real M 82
dignity if it had M 82
division in the earth M 81
divulge it to all M 80
divorce in the air M 80
divided up by any M 80
divided it to them M 80
divided it as you M 80
divided as to read M 80
diverse in the area M 80
dispose of it may M 80
display at the seat M 80
dismiss or do not M 80
dismiss it in that M 80
dismiss it in its M 80
dismiss it as but M 80
dislike of it had M 80
dislike me so long M 80
dislike in me for M 80
disgust me as men M 80
diseases to be new M 80
diseases or to all M 80
diseases in the bud M 80
diseased in the way M 80
discern it in all M 80
discern in it not M 80
directing me to act M 80
directing it to our M 80
dignity to the way M 80
dignity on the idea M 80
dignity of the aim M 80
dignity is so far M 80
dignity in it nor M 80
differing as to age M 80
dictate to us its M 80
dictate to me nor M 80
divided by the then M 70
display on or near M 69
disposing of it that M 67
display in the rear M 62
dispose of the year M 59
display on the rear M 57
dignity to do that M 57
display in the mid M 55
dislike to do that M 54
differs in the one M 54
dispose of the lead M 53
dictate to me any M 53
division at the rear M 50
display in the far M 50
division of the lead M 49
divided by an air M 49
display so as not M 49
division at the two M 48
display on the new M 48
diseases of the mid M 48
dignity is the key M 48
disposing of the day M 47
dispose of the cut M 47
dispose of me that M 47
display to be read M 46
display of the sky M 46
dislike of the then M 46
diseases at the top M 46
diseased as it was M 46
discuss the thing that M 46
division in the eye M 45
diverting it to one M 45
disposing of the bear M 45
dispose of the pet M 45
display in the red M 45
dislike to the one M 45
display in the meat M 44
dislike to be near M 44
dislike of the pro M 44
dislike is the idea M 44
dignity on the top M 44
dignity in it that M 44
division to the pre M 43
division is so far M 43
divided as to one M 43
display on the death M 43
disgust in the one M 43
dignity to the mean M 43
dignity of an all M 43
division of the may M 42
division in the man M 42
diverse in the one M 42
dispute is the way M 42
dislike of the sun M 42
directing of the eye M 42
dignity of the war M 42
dignity of the low M 42
divorce to the one M 41
division to go out M 41
dispute to the death M 41
dispose of in new M 41
display or to use M 41
display of the earth M 41
display at the bar M 41
display as it does M 41
dissent as it was M 40
dispute it is that M 40
display is to set M 40
display in the near M 40
dislike it on that M 40
differing in so far M 40
diameter of the earth D 75467
diameter of the sun D 44329
diameter at the top D 27010
diameter of the head D 19779
diameter of the eye D 18424
diseases of the lung D 15256
diameter of the rod D 11072
diameter of the beam D 8906
diameter of the bar D 8462
diameter of the pin D 7685
division of the egg D 6876
diameter of the top D 5358
diameter of the gear D 5200
diameter of the two D 4611
diameter of the jet D 4556
division of the ans D 4287
diameter at the end D 4153
division of the tax D 4019
diagrams of the two D 4009
diameter of the red D 3992
diameter of the area D 3558
diseases of the hip D 3496
divesting it of its D 3333
diameter at the rim D 3161
diameter of the air D 3087
diameter of the rim D 2928
diameter of the rings D 2802
dignity of an earl D 2794
divided as to sex D 2766
diameter of the log D 2745
dilemma as to how D 2706
diameter of the egg D 2662
diameter of the tip D 2586
dignity of an art D 2580
dilemma is to use D 2454
dignity of the art D 2380
diameter of the end D 2372
diameter of the die D 2362
diameter of the cup D 2246
dispose of the fee D 2240
diagrams at the end D 2201
diseases of the ears D 2186
division of the art D 2147
divines of the age D 2080
divided by the peak D 2060
diploma at the end D 1999
diamonds in the sun D 1973
division of the sub D 1925
diabetes at the age D 1901
diameter of the new D 1878
diameter at the tip D 1857
divines of the day D 1852
diabetes in the rat D 1805
diameter of the gas D 1768
display of the art D 1730
diameter of the fan D 1710
diamonds in the sky D 1701
diameter of the low D 1650
diameter of the bed D 1588
diameter of the hub D 1574
diameter of the lead D 1546
dilemma of the new D 1533
division of the pie D 1524
diameter of the pit D 1457
diameter of the tap D 1424
diameter of the cap D 1423
diameter of the seal D 1422
dialects of the east D 1386
dilution of the gas D 1355
diameter of the bit D 1328
diameter of the arc D 1314
dialects of the old D 1292
divesting it of all D 1264
divided by the per D 1194
diameter of the pot D 1146
diameter of the saw D 1106
diameter of the one D 1099
diseases of the gut D 1088
diameter of the arm D 1078
diameter of the oil D 1055
diameter of the ram D 1054
diameter at the head D 1054
dilemma of the two D 1042
diameter of the rear D 1037
dilemma of the man D 1034
dialects of the two D 1032
diameter of an eye D 1029
division of the pan D 1018
dilution of the dye D 1010
ditches to be dug D 1002
diameter of the nut D 998
division of the oil D 991
diameter of the can D 983
divests it of its D 964
diagrams at the top D 955
divided by the beam D 952
disunion of the two D 952
diabetes in the nod D 952
dispose of the car D 946
divided at the tip D 924
division of the leaf D 920
divided by the gas D 920
dispose of the oil D 915
diameter of the net D 910
dilution of the oil D 903
dilated by the heat D 899
diameter of the fly D 890
diameter of the gun D 884
dilated at the end D 883
dialects of the new D 879
diameter on the top D 868
dilemma of the aging D 867
diameter of the bead D 863
diameter of the jar D 852
distill as the dew D 843
diameter of the leg D 826
diagonal of the box D 820
distant in the row D 806
dilemma at the end D 806
diaspora in the new D 798
division of the rod D 796
diseases of the eve D 784
diameter of the pan D 777
discord of the two D 774
dilated at the tip D 748
diameter at the lip D 740
division in the van D 732
division on the dial D 730
dilemma of the poet D 730
dignity of the sex D 730
division of the beam D 718
diagrams as in fig D 716
division of the fee D 710
diameter of the cam D 708
diggers in the earth D 704
dialects of the area D 698
divided the sea for D 688
diploma at the age D 686
diagonal of the end D 684
diameter in the top D 678
diameter of the long D 670
divided the sea and D 668
diagonal of the two D 662
division in the egg D 658
dilation of the eye D 656
dilemma of the one D 649
diameter of the gut D 640
dinners at the inn D 634
display in the art D 633
diameter of the bur D 627
diameter of the cut D 626
diseases of the jaw D 613
dilution of the old D 606
dilution of the air D 597
dilemma is to say D 592
division of the bed D 584
diameter of the path D 584
division of the dial D 574
ditties of the day D 566
diameter is the mean D 566
diameter of the hot D 563
dignify it by that D 562
diameter of the set D 558
diameter of the fat D 550
division of the par D 547
digests of the law D 543
disposing of the oil D 537
disobey the king and D 536
dignity of the earl D 534
dilution of the ore D 533
dilemma is the use D 530
diameter of the old D 524
divines of the two D 522
diabetes in the dog D 521
diameter of the thin D 516
diameter of the box D 514
dialects on the one D 512
division of the bay D 511
diameter of the seat D 510
divests it of all D 500
dialects in the area D 500
divines of the old D 498
dispose of the gun D 498
diseases of ear and D 496
divided by the par D 494
dilemma of the old D 487
dimpled up at him D 486
dilemma of the age D 484
division in the art D 481
diameter of the mean D 481
dilation of the air D 478
diameter of the ions D 478
diluted by the air D 477
display at the art D 476
dimness of the car D 470
diabetes in the cat D 467
diseases of the sex D 466
diagrams as an aid D 460
divided by the tax D 451
dilution of the red D 446
diaspora at the end D 446
diameter of the gel D 443
division on the eve D 440
diagrams of the eye D 440
division of the fat D 436
diameter of the fig D 433
diameter at the big D 433
disband at the end D 430
diseases of the cow D 428
diameter of the rib D 424
diameter of the hob D 424
display in an art D 423
diameter of the lid D 422
diameter as the earth D 422
diameter of the mid D 420
diameter of the bow D 418
division of the lung D 416
diameter on the end D 415
diameter of the dial D 414
division of the gut D 409
division of the lip D 404
disposing of the fee D 404
diameter in the sky D 404
dialects of the one D 402
division of the sac D 401
diameter of the ice D 397
diameter of the bob D 394
dilated by the use D 390
diameter of the lip D 389
diameter of the heat D 389
dignity of my sex D 388
diagonal to the long D 387
dilemma of the war D 385
diameter of the ingot D 383
diabetes in the non D 383
dignity to the art D 382
diameter of the dot D 380
division of an egg D 379
diameter of the pith D 379
division of the sex D 376
diameter of the sac D 370
diameter as the one D 370
diluted by the new D 366
divided by the row D 364
diagrams of the beam D 364
ditches in the area D 363
divided on the eve D 362
dipoles of the two D 360
dispose of the gas D 359
division on the rod D 358
division of the jaw D 358
dilemma is to ask D 358
dilemma is as old D 358
diameter of an air D 357
dickens is at his D 356
diameter of the cob D 356
display of the raw D 355
diameter at the earth D 355
diamonds in the area D 354
diameter as the sun D 354
diseases of the pig D 353
diameter of the cop D 352
diameter as the top D 351
disdain of the new D 350
diameter of the leaf D 349
division on the beam D 348
diameter of the big D 346
disobey me in this D 340
dioceses of the east D 338
diameter as to fit D 338
diameter of the car D 332
diameter of the bin D 332
dialects of the low D 332
diploma of the year D 328
dilemma is to set D 324
dilemma is to try D 322
dilemma is the one D 322
diamonds of the east D 318
diameter as in fig D 318
dilemma in the use D 316
disarming it of its D 314
division of the ray D 313
discord in the new D 313
diameter of an egg D 313
diameter of the orb D 310
diatonic in the key D 309
division of the ore D 308
division of the gun D 308
diameter as the rod D 308
diameter of the real D 307
diameter at the two D 301
diagrams of the new D 301
divines on the one D 300
disrobe it of its D 300
disposing of the car D 300
dilemma in the way D 300
ditched on the way D 299
divines of the new D 296
divesting it of any D 296
diameter is the one D 295
diamonds in the air D 294
divests us of all D 290
diagrams as on his D 290
dilution of the two D 288
diameter of the non D 288
diameter of the near D 287
ditches on the way D 286
diameter of the peg D 285
diameter up to and D 280
diameter of the lag D 280
diameter of the bag D 280
diseases of the gum D 279
discord at the top D 279
diluted in the air D 279
divided as in fig D 278
diluted by the use D 278
dickens as he was D 278
dilemma of the day D 276
diameter of the wear D 276
diameter of the tie D 275
diameter in the two D 275
dilemma is to see D 274
diffuse in or out D 270
diabetes of the rat D 270
disdain at the idea D 269
ditches in the low D 267
division of the toes D 266
diamonds of the dew D 266
diagrams in the oil D 266
diameter to be cut D 265
dimness of the hut D 264
dilemma as to who D 264
dilution of the sol D 263
display at the zoo D 262
dilution of the new D 262
diamonds as if they D 262
diluted so as not D 260
dilated at the top D 259
dilemma in the area D 258
dickens at the end D 258
division of the gas D 256
dispose of the gem D 256
dilemma is to get D 256
diameter of the dry D 256
dialects of the earth D 256
dilemma of the non D 255
dialects in the east D 255
diameter at the rear D 254
dinners of the new D 251
diabetes by the age D 247
diameter of the ray D 246
disdain of the man D 245
diamonds at the top D 245
divided by the hip D 244
ditches of the old D 244
dilemma as it was D 244
diamonds at the end D 244
diagonal is the sum D 244
disdain in the one D 243
disdain of the old D 242
diagrams in the air D 242
dinners in the old D 240
dimples of the sun D 240
division at the tip D 238
diluted as it was D 238
diamonds on the top D 237
diameter on the earth D 236
dilemma as the one D 235
dignity as an art D 235
diamonds at the head D 234
division of the car D 232
diffusing in the air D 232
ditches on the east D 230
dipoles in the two D 230
diameter of the tin D 230
diameter at the mid D 230
diagrams of the way D 230
division of the seas D 228
dirtier of the two D 228
dilemma is to put D 228
diameter as the pin D 228
diagrams of the earth D 227
display of an art D 226
dialysis or by gel D 226
diagrams it is not D 226
division of the rib D 225
dislike of the mob D 224
diffuse in the air D 224
dickens in the old D 224
disdain of the low D 222
dickens at the age D 222
ditties as no art D 218
diameter as the end D 218
diabetic at the age D 218
dilution of the idea D 216
dilemma it is not D 216
diameter in the end D 215
dinners in the year D 214
diameter up to one D 214
diameter is the sum D 214
diameter as the head D 214
dislike to the earl D 213
dinners in the rue D 213
diameter of an oil D 213
diameter of the wet D 212
diameter in the head D 212
divorce of the earl D 210
dilution of the hot D 210
diameter of the pad D 210
division of the ice D 209
diameter of the fun D 207
disdain to be led D 206
dilution of the bath D 206
dialects in the new D 206
disturb the ear with D 204
dislike to the lad D 204
diameter is to that D 203
diameter at or near D 203
diameter of the sub D 202
dislike to the art D 200
discord on the earth D 200
dignity of the lion D 200
diameter of the shoe D 200
diagrams in the two D 200
division of the raw D 199
division of the rat D 198
divines of my own D 198
diameter to the top D 198
diameter of the vat D 198
diameter is at its D 198
dislike of the earl D 196
diameter is to its D 196
divided by the bed D 194
disdain to be any D 194
division of the fig D 192
diseases to be met D 192
diseases of the hot D 192
digests of the two D 192
disdain on the one D 191
dilemma of the law D 191
disposing of the gas D 190
diffusing it is not D 190
diamonds in the mud D 190
diameter in the area D 190
diameter as the old D 190
diameter to the mean D 189
divided by the thin D 188
dioceses in the east D 188
dilution at the end D 188
diatonic to the key D 188
diarists of the day D 188
diamonds on the lid D 188
division of the moi D 187
divests it of that D 184
disunion on the one D 184
diagrams of the area D 184
dinners at the end D 182
dilated in the dim D 182
diameter of the lap D 182
disdain of the mean D 180
diameter of the pie D 180
diameter by the use D 180
diameter as the seal D 180
divines to the ark D 178
disarming as it was D 178
divests it of any D 176
diameter or it may D 176
diameter on the sky D 176
diagonal of the hat D 175
dilated as if with D 174
diabetes is by far D 174
divided by the leaf D 173
diseases of the tear D 172
dickens at the head D 172
diameter of the job D 172
division of the rim D 171
diameter of the six D 171
division of the gum D 170
divided the sea with D 170
dilemma is an old D 170
diameter of the lung D 170
dialysis or the use D 170
division of an oil D 169
diseases of the bean D 168
diameter to the end D 167
diameter to the area D 167
diameter of the tub D 166
diagrams of the head D 166
diagrams as if they D 165
diffusing it so that D 164
diamonds to go with D 164
diameter of the web D 164
diameter it is not D 164
dislike of the tax D 162
dilemma is to bring D 162
diggers of the pit D 162
diamonds on the head D 162
dialects of it are D 162
discord at the end D 161
diamonds in the earth D 161
diameter to the tip D 161
division of sea and D 160
dispose of the ore D 160
dignify it by any D 160
diameter of the hut D 160
diameter up to two D 159
division of the row D 158
dilution is the sum D 158
dialects of an area D 158
dispose of the oft D 157
dialects to the east D 157
division in the rat D 156
diseases in the rat D 156
dilemma on the one D 156
dilemma of my own D 156
dilemma by the use D 156
diagonal in the new D 156
dilution of the urea D 155
divesting us of our D 154
dissect it to see D 154
disdain of the law D 154
diameter of the jaw D 154
diameter of the bath D 154
dispose of the raw D 153
disdain of the big D 152
ditches at the top D 150
diameter of the and D 150
diagonal of the top D 150
dilemma in the mid D 149
diagrams of the air D 149
divided by the raw D 148
divesting it of that D 148
dispose of the tax D 148
diameter in the dog D 148
diameter at the age D 148
dilation of the two D 147
division of the hut D 146
divided by the oil D 146
dinners of the phi D 146
dilated as if she D 146
diamonds as the sun D 146
diameter of an old D 146
distant on the lee D 145
discord in the air D 145
diameter of the pre D 145
diameter in the bed D 145
discord or the war D 144
dilemma in the new D 144
diggers of the old D 144
diamonds in the ears D 144
diameter of the swing D 144
diameter of the gap D 144
diphthong at the end D 143
division of the mob D 142
division of the ewe D 142
divider at the end D 142
ditches at the end D 142
discord in the song D 142
dilemma is to let D 142
diagrams of the old D 142
disobey me in that D 140
dinners at the old D 140
dialects in an area D 140
dialects at the end D 140
display at an art D 139
dialysis in the rat D 139
division of the tip D 138
division of the lid D 138
division in the sex D 138
division in the leaf D 138
divided by the mic D 138
disdain in the easy D 138
dinners to be had D 138
dilemma he or she D 138
dialects is the use D 138
diagonal of the area D 137
dilution it is not D 136
dilemma is to add D 136
diameter or by using D 136
diameter of the raw D 136
diameter at the bung D 136
division of the pot D 134
ditches up to his D 134
disunion in the new D 134
dilemma as to why D 134
dilution of the real D 133
diagonal to the two D 133
diseases in the lung D 132
dirtier by the day D 132
dilution of the ions D 132
dilemma in so far D 132
diamonds of the big D 132
diameter or the area D 132
diameter by the end D 132
diagrams is to use D 131
ditches of the one D 130
discord to an end D 130
diameter of the dead D 130
dilution of the non D 129
divined to be one D 128
divided by the lung D 128
dislike of the sex D 128
diseases of the car D 128
dilemma of the use D 128
dilemma of the poem D 128
dilemma is at its D 128
dilemma as he saw D 128
digital by the end D 128
diamonds to be set D 128
display to the beau D 127
dislike of the art D 127
diameter of the pen D 127
diabetic as in non D 127
disrupt the ho chi D 126
dilution of the sap D 126
diameter is to use D 126
dialects of the day D 126
diffuse in the gel D 125
diameter in the long D 125
division of the ode D 124
divests us of our D 124
ditches of the two D 124
ditches in the earth D 124
display in the pop D 124
diameter to the earth D 124
diggers of the earth D 123
dizzily in the air D 122
disarming us of our D 122
dilution of the raw D 122
diamonds if he can D 122
diagonal of the new D 122
diffuse as it was D 121
diagrams of the real D 121
divided by the sex D 120
ditches by the way D 120
disdain to do this D 120
dinners in the big D 120
dilemma as he had D 120
diamonds to the day D 120
diamonds in the two D 120
diamonds in the bag D 120
diagonal at the top D 120
diagrams of the six D 119
disdain in the way D 118
diploma in the year D 118
diluent to the vial D 118
dickens if he had D 118
diameter in the lid D 118
diameter at the thin D 118
diagonal by the sum D 118
diabetes is of two D 118
diameter on the day D 117
dialects of the six D 117
divesting us of all D 116
display of the row D 116
disdain at the low D 116
dioceses of the old D 116
dilated as if they D 116
diffuse to the top D 116
diameter on the one D 116
dispose of the bed D 115
display in the car D 115
diameter at the mean D 115
diagonal at the end D 115
disobey the king was D 114
diluted tea in his D 114
dilemma of the low D 114
dilated by the bag D 114
dickens to the end D 114
diameter on the head D 114
diameter in the cat D 114
diameter as the box D 114
diagrams as the one D 114
disdain to eat them D 113
diabetes in the two D 113
disposing of the ore D 112
dispose of the hot D 112
dispose of in fee D 112
discord of the day D 112
dioceses in the new D 112
dilution of the egg D 112
dilution of it with D 112
diluted by the low D 112
dilemma by the end D 112
dilemma as to his D 112
dickens in the one D 112
diamonds on the one D 112
diagrams of the sky D 112
division in the pith D 111
discern in the wan D 111
diameter of the fin D 111
division of the hay D 110
divided by the tip D 110
disunion of the east D 110
dioceses to be read D 110
dilemma of the men D 110
dilemma if he had D 110
dickens is the poet D 110
diameter up to six D 110
diameter as the shoe D 110
diameter as it was D 110
diabetes by the use D 110
dilution is the one D 109
diameter to the sun D 109
diagonal as in fig D 109
display of the car D 108
diamonds of the sky D 108
diamonds in my ears D 108
divider as in fig D 107
display as in fig D 107
diabetes it is not D 107
dispute on the eve D 106
disposing of the gun D 106
disgust of the art D 106
disdain of the men D 106
dilution of the one D 106
dilemma in the long D 106
dilemma in my own D 106
dilation of the bed D 106
dilated in the act D 106
diamonds in the new D 106
diameter so as not D 106
diameter of the map D 106
diameter at the hot D 105
division of the earl D 104
divider at the top D 104
ditches to be cut D 104
distill it to its D 104
dispute the sea with D 104
diseases of the fig D 104
diagonal is the one D 104
division of the ins D 103
dilution in the air D 103
dilemma in the far D 103
dilation of the gas D 103
dickens is the one D 103
diameter as the rim D 103
divided as the dew D 102
diverse as the art D 102
dissent in the tax D 102
diseases of the lid D 102
disdain of the weak D 102
disarms it of its D 102
dilution of the pre D 102
diluted in the new D 102
dilemma of the weak D 102
diameter of the vial D 102
diameter is the area D 102
divided by the ice D 101
display in the zoo D 100
discord of the east D 100
diploma in the art D 100
diameter of the leak D 100
diameter of the heap D 100
diameter of an arc D 100
diagrams in the top D 100
diabetes by the year D 100
dislike to the seas D 99
dilemma of the mid D 99
diameter to be one D 99
diagrams of the mean D 99
division of the van D 98
division of the thin D 98
divided up the pie D 98
discord in the old D 98
dilation at the end D 98
diatribe at the end D 98
diamonds on the red D 98
diameter as the bit D 98
division of an art D 96
divided by the rod D 96
dispose of the rag D 96
disdain as he was D 96
disarms us of our D 96
dilution of the ink D 96
dilated by the air D 96
dictate to the pen D 96
diameter to the one D 96
diameter to the die D 96
diameter to an area D 96
diameter as the two D 96
dispose of the gum D 95
diamonds of the earth D 95
dialects of the far D 95
divided as it met D 94
disdain of the mob D 94
directing the ion beam D 94
dinners of the old D 94
dilution of the gel D 94
diluted by the non D 94
dilemma is the way D 94
dilemma in the poem D 94
dilated by the head D 94
diaspora to the new D 94
diamonds in the box D 94
diagonal of the bay D 94
diabetes or if you D 94
diabetes is of long D 94
dimples at the top D 93
dialects it is not D 93
division of the raj D 92
divides the sea and D 92
ditties of the poet D 92
dimness of the cab D 92
dilution of the dry D 92
dilemma to the one D 92
diameter is in this D 92
diameter in the mid D 92
diabetes is the one D 92
dilution of the peg D 91
dispose of the art D 90
diseases in the hot D 90
disarming of the two D 90
diploma in the air D 90
dilemma as it has D 90
dignity of an owl D 90
diffuse to be read D 90
diffuse or it may D 90
diameter in the dry D 90
dialysis of the rat D 90
diagrams of the sun D 90
diagrams of the car D 90
division of the cap D 89
diameter at the but D 89
division as in fig D 88
dislike to the guy D 88
dinners if he had D 88
dilution or the use D 88
dilemma on the eve D 88
dilemma as he was D 88
diggers in the area D 88
dietary is to use D 88
diamonds to the new D 88
diameter as the tip D 88
diagonal of the map D 88
dirtied by the mud D 87
ditches in the way D 86
ditches as if they D 86
dispose of the egg D 86
display of the sex D 86
disdain in the man D 86
diploma at the new D 86
dilemma if we are D 86
digital is the way D 86
diameter at the bed D 86
diagrams in the way D 86
divider of the two D 85
diluted at the end D 85
dilemma in the near D 85
diameter of the dog D 85
divorcing of the two D 84
divined it by his D 84
ditches on the far D 84
disdain of the dead D 84
discern in the art D 84
directing is an art D 84
diopters at the age D 84
dioceses of the two D 84
dinners of the men D 84
dilemma we do not D 84
dilemma of the art D 84
dignity in the bean D 84
diffuse it in all D 84
diameter as the eye D 84
divined it to bear D 82
divined it or read D 82
divesting it so far D 82
dispose of the cow D 82
dinners of the east D 82
dinners in the new D 82
dinners in the inn D 82
dilated as he saw D 82
dickens on the one D 82
dickens is to say D 82
dickens as he had D 82
diathermy is in use D 82
diameter in the one D 82
diameter at the eye D 82
dialects of the red D 82
divided by the fig D 80
dispose of the ice D 80
disdain of the art D 80
disdain at my own D 80
disdain as if they D 80
disarming it of all D 80
dioceses in the area D 80
dinners of the year D 80
dinginess of the old D 80
dimness of the fog D 80
diluted by the long D 80
diluted by the gas D 80
dilemma of the real D 80
dilation of the gut D 80
dialysis is the use D 80
diameter of the key D 72
diameter in the rat D 72
display of the dos D 64
diagrams it is easy D 64
diameter at the air D 62
diameter at the cut D 61
division of the fur D 55
diagonal to the top D 53
diffuse it so that D 52
diffuse at the end D 52
diameter to the east D 52
diffuse to the tip D 51
diagrams on the top D 51
diameter of the ten D 50
diameter of the out D 50
diameter is the key D 49
diseases of the pear D 45
discord of the war D 45
dilemma in the two D 45
display on the bed D 44
diameter of the rat D 44
diagonal in the two D 44
divided by the sub D 43
dilemma of the pre D 43
diffuse in the gas D 43
diameter in the low D 43
discord in the east D 42
diagrams of the set D 42
dilution of the tax D 41
diamonds in the top D 41
distend it so that D 40
display on the eve D 40
dislike of the pen D 40
disdain to eat with D 40
dilemma of an age D 40
dignity of the dean D 40
