types are common . M 1610
types are needed . M 1150
types and colors . M 1104
types and values . M 1068
types and shapes . M 870
types and models . M 844
types are listed . M 748
types and methods . M 604
types are formed . M 572
types and periods . M 560
types and images . M 532
types and breeds . M 494
types and groups . M 456
types and causes . M 434
types and prices . M 416
types are created . M 394
types are absent . M 376
types for printing . M 352
types and stages . M 296
types and phases . M 270
types are useful . M 222
types that follow . M 210
types may coexist . M 190
types and options . M 166
types and arrays . M 158
types and trends . M 144
types and orders . M 140
types are obvious . M 132
types and events . M 132
types and actions . M 132
types may differ . M 130
types are stored . M 128
types are varied . M 120
types and habits . M 118
types are simple . M 112
types and topics . M 102
types are better . M 100
types and design . M 98
types are scarce . M 94
types and shades . M 94
typos and errors . M 92
types are emerging . M 92
types are changed . M 82
types and printing . M 82
