opt in to the M 1069
opt to go to M 1002
opt to do so M 953
opt to do the M 416
opt to do it M 264
opt to go on M 205
opt to be the M 163
opt to go it M 154
opt to go the M 152
opt to be in M 127
opt to eat in M 125
opt on to the M 116
opt to go in M 40
