be called a man M 20368
be called a new M 16922
be something i can M 9632
be called a real M 6163
be called a law M 5975
be called a poet M 4942
be without a job M 4614
be called a war M 4394
be starting a new M 4080
be called a son M 3664
be thought a man M 3300
be before i can M 2974
be called a bad M 2950
be called a non M 2788
be something i was M 2667
be around a long M 2624
be called a god M 2618
be around a lot M 2526
be called a long M 2492
be almost a year M 2286
be fighting a war M 2213
be building a new M 2200
be placed a few M 2190
be honest i was M 2130
be without a head M 2109
be taught a new M 2094
be raised a few M 2044
be deemed a new M 1982
be called a song M 1890
be called a poem M 1888
be called a one M 1881
be merely a new M 1846
be called a two M 1844
be called a set M 1754
be denied a job M 1662
be called a day M 1622
be honest i did M 1616
be called a and M 1613
be without a man M 1564
be called a low M 1500
be simply a way M 1468
be merely a way M 1460
be thought i was M 1439
be created a new M 1414
be someone i was M 1408
be called a dog M 1389
be issued a new M 1370
be called a sin M 1338
be taught a few M 1334
be called a pre M 1327
be called a being M 1310
be called a lie M 1303
be merely a man M 1263
be almost a new M 1210
be thought a wit M 1202
be spared a few M 1138
be without a few M 1104
be absent a few M 1076
be formed a new M 1062
be called a boy M 1058
be before i was M 1020
be something i did M 1005
be simply a new M 980
be something a bit M 978
be deemed a god M 960
be called a path M 958
be served a meal M 942
be someone i can M 938
be merely a few M 920
be traced a long M 914
be simply a man M 883
be called a red M 870
be before i get M 864
be called a big M 863
be something i ate M 846
be carrying a lot M 842
be something i had M 838
be afraid i was M 832
be honest i can M 816
be before i saw M 814
be marrying a man M 808
be spared a lot M 796
be called a weak M 786
be called a dead M 768
be called a myth M 764
be around a few M 748
be merely a set M 741
be thought a bad M 738
be planning a new M 706
be denied a seat M 706
be called a bit M 704
be opened a few M 700
be before i see M 686
be called a map M 672
be indeed a god M 670
be called a death M 670
be honest i had M 662
be deemed a man M 651
be deemed a real M 648
be called a way M 646
be deemed a law M 639
be offering a new M 638
be called a head M 627
be around a man M 626
be called a meal M 623
be killed a few M 618
be thought a fit M 616
be through a new M 610
be called a key M 600
be absent a year M 600
be absent a day M 600
be thought a bit M 598
be called a pro M 594
be before i got M 588
be deemed a non M 586
be thought i had M 579
be almost a sin M 562
be without a god M 558
be deemed a fit M 558
be pushed a bit M 556
be called a dry M 554
be before i had M 542
be before i die M 542
be almost a man M 539
be simply a set M 534
be spared a long M 530
be deemed a day M 530
be better i can M 522
be covering a lot M 520
be traced a few M 504
be almost a law M 504
be called a not M 490
be denied a man M 488
be without a son M 486
be changed a bit M 482
be thought a poet M 480
be called a year M 475
be neither a man M 470
be placed a long M 468
be called a mean M 460
be thought a god M 445
be called a job M 440
be called a team M 436
be enjoying a new M 416
be something a man M 414
be simply a long M 406
be merely a bad M 406
be deemed a bad M 404
be merely a bit M 389
be through a long M 388
be almost a dead M 385
be reborn a man M 382
be turned a few M 380
be lifted a few M 376
be treated a bit M 369
be called a run M 364
be deemed a bar M 358
be before a new M 358
be something a lot M 354
be called a plea M 354
be without a dog M 352
be merely a war M 349
be indeed a new M 348
be denied a real M 344
be called a few M 342
be without a real M 341
be standing a few M 338
be merely a long M 338
be indeed a man M 337
be raised a bit M 336
be someone i had M 334
be adopting a new M 334
be called a top M 332
be tested a few M 326
be evolving a new M 326
be taught a set M 322
be served a cup M 322
be almost a god M 314
be carrying a bag M 312
be called a lot M 311
be joined a few M 310
be called a seat M 310
be without a set M 304
be merely a weak M 302
be absent a long M 302
be violating a law M 300
be buried a few M 300
be someone i did M 298
be founding a new M 298
be called a box M 297
be helped a lot M 293
be itself a new M 292
be carrying a few M 290
be stored a long M 288
be changed a few M 288
be assuming a new M 286
be called a near M 285
be placed a year M 284
be silent a few M 282
be fighting a rear M 281
be called a fear M 281
be around a year M 278
be called a net M 275
be simply a bad M 274
be called a lay M 274
be always a few M 272
be reached a few M 266
be always a real M 262
be carrying a big M 260
be blamed a bit M 260
be called a mid M 257
be simply a few M 254
be without a leg M 252
be taught a lot M 250
be merely a dry M 250
be closed a few M 250
be passed a few M 248
be merely a one M 242
be through a man M 240
be needed a few M 240
be little i can M 240
be called a cat M 240
be always a man M 235
be silent i had M 232
be indeed a son M 228
be without a seat M 226
be simply a non M 226
be proved a lie M 226
be afraid i had M 226
be whether a man M 224
be indeed a day M 222
be called a cut M 222
be called a heat M 221
be choosing a new M 220
be without a due M 218
be called a wet M 216
be arriving a day M 216
be called a sad M 214
be beyond a man M 214
be denied a new M 212
be sleeping a lot M 210
be watching a lot M 208
be placed a bit M 208
be called a cup M 205
be indeed a poet M 204
be changed a lot M 204
be called a bar M 204
be washed a few M 202
be neither a nor M 202
be called a sun M 202
be before a man M 202
be starting a job M 200
be handling a lot M 200
be called a mad M 196
be starting a war M 194
be laughing a lot M 194
be called a leap M 194
be taught a man M 192
be bought a few M 192
be proved a myth M 190
be emerging a new M 190
be devoting a lot M 190
be called a dying M 190
be pushed a long M 188
be played a few M 188
be called a fly M 188
be around a bit M 188
be without a law M 186
be taught a way M 186
be purely a pet M 186
be judged a bad M 184
be caught a few M 184
be called a fit M 184
be without i see M 182
be merely a poet M 182
be hardly a man M 182
be called a web M 182
be becoming a bit M 181
be wholly a new M 180
be simply a one M 180
be handed a new M 180
be fighting a lot M 179
be without a war M 178
be defining a new M 178
be deemed a sin M 178
be without a new M 177
be releasing a new M 176
be issued a few M 176
be afraid i may M 176
be training a new M 174
be judged i had M 174
be carrying a dead M 174
be indeed a sad M 172
be neither a new M 170
be merely a day M 170
be wholly a man M 166
be called a gap M 165
be simply a bit M 164
be pushed a few M 164
be neither a real M 164
be called a bow M 164
be thought a weak M 162
be opened a new M 162
be deemed a long M 162
be almost a non M 161
be unlike a man M 160
be needed a new M 160
be merely a myth M 160
be almost a death M 160
be without a poet M 158
be thought i did M 158
be thought a sin M 158
be absent a lot M 158
be stated a bit M 156
be planning a long M 156
be denied a few M 156
be carrying a new M 156
be played a bit M 154
be planning a big M 154
be needed a year M 154
be merely a heap M 154
be called a bias M 154
be called a log M 152
be without a sin M 150
be called a cry M 150
be inside a box M 148
be denied i was M 148
be whether i can M 146
be without a way M 144
be traced a dim M 144
be studying a new M 144
be quoted a few M 144
be formed a few M 144
be called a toy M 144
be almost a day M 144
be merely a sum M 142
be called a zen M 142
be merely a dead M 141
be spared a new M 140
be lifted a bit M 140
be deemed a use M 140
be carrying a long M 140
be active a bit M 140
be neither a law M 139
be toward a new M 138
be summer a long M 138
be spared a death M 138
be offering a way M 138
be helped a bit M 138
be called a six M 138
be called a kid M 136
be arriving a few M 136
be always a year M 136
be deemed a low M 135
be carrying a box M 135
be thought a near M 134
be taught i then M 132
be raised a new M 132
be enjoying a long M 132
be building a big M 132
be almost a one M 132
be deemed a war M 131
be served a few M 130
be pleased i was M 130
be opened a bit M 130
be killed a year M 130
be enjoying a few M 130
be called a heap M 130
be better a year M 130
be simply a being M 129
be picked a few M 129
be indeed a real M 128
be filled a few M 128
be deemed a due M 128
be before i bring M 128
be whether a new M 126
be created a few M 126
be called a pit M 126
be wholly a bad M 124
be itself a law M 124
be simply a sum M 123
be placed a box M 122
be landed a few M 122
be called a going M 122
be broken a few M 122
be issued a year M 121
be stored a few M 120
be standing a long M 120
be myself a man M 120
be choosing a man M 120
be treated a lot M 118
be starting a long M 118
be placed a new M 118
be engaged a few M 118
be called a bear M 118
be behind a lot M 118
be worked a few M 117
be pursuing a new M 116
be neither a bad M 116
be called a use M 116
be always a bad M 116
be without a bit M 114
be through a set M 114
be reborn a new M 114
be imposing a new M 114
be fought a few M 114
be called a leg M 114
be merely a toy M 112
be called a wit M 112
be bought a day M 112
be called a pet M 111
be surely a man M 110
be studying a lot M 110
be pulled a few M 110
be planning a war M 110
be opened a year M 110
be merely a big M 110
be called t and M 110
be fighting a two M 109
be without a lot M 108
be without a big M 108
be thought a real M 108
be thought a new M 108
be studying a map M 108
be spared a war M 108
be merely a non M 108
be judged a man M 108
be handed a set M 108
be carrying a red M 108
be building a lot M 108
be before i hear M 108
be always a day M 107
be planning a way M 106
be formed a long M 106
be fighting a man M 106
be called a too M 106
be called a bag M 106
be merely a low M 105
be visiting a lot M 104
be treated a few M 104
be slowed a bit M 104
be placed a red M 104
be neither a poet M 104
be afraid i can M 104
be whether a was M 102
be watching a man M 102
be simply a war M 102
be simply a box M 102
be pointing a way M 102
be indeed a sin M 102
be created a real M 102
be always a bit M 102
be simply a poet M 100
be judged a real M 100
be indeed a long M 100
be enjoying a meal M 100
be devising a new M 100
be through a real M 99
be thought a long M 99
be pursuing a path M 98
be neither a long M 98
be through a non M 97
be viewed a bit M 96
be preaching a new M 96
be managing a team M 96
be handed a few M 96
be simply a two M 95
be without a cat M 94
be simply a low M 94
be learned a few M 94
be itself a sin M 94
be itself a set M 94
be breeding a new M 94
be always a poet M 94
be without a long M 92
be varied a bit M 92
be neither a weak M 92
be joined a year M 92
be gathering a lot M 92
be clearer a year M 92
be bought a year M 92
be merely a dog M 91
be wholly a sin M 90
be thought a law M 90
be spared a day M 90
be raised a sum M 90
be proved i did M 90
be judged a bit M 90
be called d and M 90
be without a box M 89
be simply a dead M 89
be purely a war M 89
be deemed a too M 89
be thought a lot M 88
be simply a lie M 88
be pushed a lot M 88
be marked a and M 88
be called a but M 88
be always a law M 88
be almost a meal M 88
be almost a boy M 88
be worrying a lot M 86
be whoever i was M 86
be varied a few M 86
be useful a few M 86
be through a few M 86
be scared a lot M 86
be merely a far M 86
be issued a set M 86
be engaged a long M 86
be arriving a bit M 86
be turned a bit M 85
be warned a few M 84
be simply a law M 84
be scared a bit M 84
be mainly a way M 84
be inside a bag M 84
be handed a map M 84
be called a vow M 84
be whether i was M 82
be thought i can M 82
be called s and M 82
be assuming a lot M 82
be unless i had M 80
be unless i can M 80
be handed a job M 80
be enjoying a bit M 80
be before i did M 80
be around a big M 80
be already a man M 80
be almost a way M 80
be issued a one M 63
be thought a far M 61
be called a ten M 59
be merely a cut M 48
be called a sky M 44
be called a far M 44
be mostly a one M 43
be merely a law M 41
be behind a one M 41
be spending a lot D 14958
be entering a new D 6752
be called a liar D 4212
be spending a few D 2498
be termed a new D 2472
be carrying a gun D 2421
be called a tax D 1589
be called a sub D 1162
be proved a liar D 1144
be called a mob D 918
be without a car D 902
be called a bed D 774
be called a lion D 721
be spending a long D 660
be termed a real D 642
be termed a man D 634
be levied a tax D 618
be hauled a long D 606
be cooked a day D 594
be termed a law D 575
be thought a liar D 531
be termed a non D 495
be drinking a lot D 494
be called a bay D 490
be flogging a dead D 488
be called a riot D 480
be termed a war D 477
be without a gun D 448
be cooked a long D 440
be termed a long D 432
be merely a thin D 414
be spending a day D 412
be called a hot D 389
be deemed a tax D 386
be deemed a fee D 355
be spending a year D 352
be called a pig D 348
be called a gas D 347
be called a gay D 334
be termed a bad D 312
be drinking a cup D 306
be termed a low D 302
be called a spy D 302
be called a cow D 302
be driven a long D 298
be termed a poet D 290
be deemed a per D 282
be termed a two D 275
be called a leaf D 274
be termed a pre D 258
be booked a year D 258
be termed a one D 254
be called a ray D 249
be without a bed D 248
be driven a few D 248
be without a sou D 240
be styled a new D 238
be called a car D 238
be called a thin D 236
be termed a mad D 228
be entering a long D 228
be boiled a long D 224
be termed a sub D 223
be called a fee D 222
be called a gang D 220
be called a hat D 218
be called a sex D 214
be called a fat D 214
be repaid a year D 210
be called a gun D 209
be merely a sub D 207
be termed a set D 202
be served a hot D 202
be pointing a gun D 202
be deemed a spy D 198
be boiled a few D 198
be called a hut D 196
be called a raw D 190
be termed a dead D 188
be denied a tax D 185
be called a fad D 184
be booked a day D 184
be tweaked a bit D 182
be merely a cog D 182
be electing a new D 182
be called a row D 182
be without a hat D 180
be thought a spy D 180
be charting a new D 180
be termed a fee D 175
be docked a day D 174
be called a tie D 172
be called a hit D 172
be called a fog D 172
be styled a man D 166
be called a shoe D 164
be called a bum D 164
be spaced a few D 160
be called a hinge D 157
be floating a few D 156
be cooked a few D 156
be termed a weak D 154
be sporting a new D 154
be smelling a rat D 154
be called a rod D 154
be slipping a bit D 152
be simply a thin D 152
be placed a thin D 152
be called a den D 152
be soaked a few D 150
be called a bath D 150
be relaxing a bit D 146
be styled a law D 140
be proven a liar D 140
be merely a fad D 140
be entering a plea D 140
be termed a myth D 138
be should a hen D 138
be reused a few D 136
be termed a dry D 134
be called a pot D 134
be without a pang D 132
be shaken a bit D 132
be called a beam D 132
be called a rat D 131
be cooled a few D 129
be termed a song D 128
be called a gem D 128
be called a con D 128
be charging a fee D 126
be around a guy D 126
be deemed a feat D 124
be called a tip D 124
be pounding a beat D 122
be inside a car D 122
be called a fox D 122
be spending a bit D 120
be imposing a tax D 120
be shooting a lot D 118
be pulled a peg D 118
be called a fan D 118
be called a fag D 118
be handling a gun D 116
be called a hog D 116
be planning a riot D 114
be deemed a liar D 114
be babied a bit D 114
be tilted a few D 112
be simply a feat D 112
be called a hum D 112
be called a feat D 110
be without a jar D 108
be called a fig D 107
be without a cap D 106
be called a pan D 106
be called a cad D 106
be coaxed a bit D 105
be culled a few D 104
be catching a bus D 104
be called a sot D 104
be termed a near D 103
be termed a hot D 102
be called a seal D 102
be called a pop D 102
be called a peak D 101
be without a pen D 100
be mailed a few D 100
be called a cub D 100
be called a cap D 100
be shooting a gun D 98
be termed a big D 96
be struck a few D 96
be nudged a bit D 96
be building a dam D 96
be soaked a long D 94
be carted a long D 94
be before i met D 94
be termed a sin D 92
be repaid a sum D 92
be forged a new D 92
be thyself a man D 90
be spawning a new D 90
be called a nut D 90
be gleaned a few D 88
be tilted a bit D 86
be through a dial D 86
be without a sting D 84
be thinned a bit D 82
be termed a mob D 82
be merely a gay D 82
be called a nod D 80
be called a per D 50
be called a gut D 49
be termed a mean D 48
be called a beau D 44
be simply a tax D 43
be merely a tax D 42
