being of others . M 28198
being in force . M 25893
being the first . M 17050
bear the blame . M 12093
being the wiser . M 8946
bear the light . M 7406
bear the costs . M 7249
being in danger . M 6806
being an adult . M 5916
being of people . M 5914
being the cause . M 5608
being an actor . M 5412
being the worst . M 4604
bear the cross . M 4563
being in place . M 4220
bear to watch . M 4208
bear it alone . M 4083
being in heaven . M 4067
beat the clock . M 4028
being in error . M 3795
being in motion . M 3761
being of women . M 3752
being the leader . M 3684
being on board . M 3627
beat the enemy . M 3622
being so small . M 3220
being of light . M 3212
being at fault . M 3164
beat me again . M 2996
being in power . M 2875
beat the devil . M 2866
being the author . M 2850
being an author . M 2622
being so close . M 2531
being the father . M 2492
being in front . M 2474
beat the world . M 2441
being the fourth . M 2298
being on stage . M 2256
being an agent . M 2126
being so happy . M 1964
being in space . M 1957
bear the child . M 1954
being in action . M 1905
being the others . M 1688
bet on anything . M 1670
being so strong . M 1667
being of value . M 1656
beat of music . M 1640
being an enemy . M 1544
being in order . M 1537
being the longer . M 1510
beat the price . M 1472
bear no longer . M 1430
being my father . M 1356
being to blame . M 1340
being so brave . M 1306
bear the shame . M 1294
being so short . M 1286
being of reason . M 1286
being so quiet . M 1270
being in exile . M 1255
bear it longer . M 1246
being my mother . M 1240
being in writing . M 1226
being on guard . M 1200
being in touch . M 1195
bear the guilt . M 1182
being an alien . M 1158
being an issue . M 1112
beat the child . M 1109
bear the worst . M 1051
beat the crowd . M 1048
bear up under . M 1042
being the loser . M 1038
being at large . M 1035
being so cruel . M 1000
being in ruins . M 1000
being of others ? M 990
beat my mother . M 958
being so large . M 952
being the older . M 942
being the judge . M 936
being so naive . M 927
beat the house . M 915
being the limit . M 902
being the devil . M 902
beat the storm . M 901
being the elder . M 884
beat the others . M 880
bet or raise . M 878
being in doubt . M 863
being an author ? M 856
being the owner . M 852
being so alone . M 836
bear the risks . M 821
bear it again . M 814
being in water . M 789
being so upset . M 788
being the lower . M 778
being the mother . M 748
being the enemy . M 740
being an actor ? M 714
being as shown . M 713
bear my cross . M 712
being an exile . M 682
being in shape . M 677
bear the blame ? M 666
being to others . M 658
being to exist . M 653
being in denial . M 650
bear the costs ? M 647
being in print . M 641
being the eighth . M 638
beat up people . M 638
bear the glory . M 620
being an owner . M 612
bear at times . M 612
being so named . M 610
being in phase . M 604
being the world . M 602
beat the draft . M 602
beg the issue . M 593
beat the weather . M 588
beat the alarm . M 588
being my guide . M 580
being the reason . M 578
being or power . M 577
beat the water . M 570
being so sweet . M 554
being in class . M 543
being in danger ? M 540
bear it either . M 537
being the state . M 534
being so still . M 528
being or force . M 526
being so cruel ? M 514
beat it again . M 510
being so blind . M 508
being the guide . M 506
being in labor . M 506
being the worse . M 502
beat the train . M 497
being my fault . M 494
being as above . M 493
being in focus . M 489
beat us again . M 482
bear the waiting . M 476
beat the devil ! M 474
being an error . M 466
beat up women . M 462
being in black . M 459
being in pairs . M 458
beat in music . M 457
being so taken . M 456
beat the women . M 454
beat the women ! M 446
being an asset . M 444
being the weaker . M 436
being the agent . M 436
being in others . M 436
bear the light ? M 436
being in season . M 432
bear my child . M 428
being in verse . M 422
being at issue . M 419
being an adult ? M 416
being the whole . M 414
beat the floor . M 414
being an elder . M 408
beg to refer . M 408
being so rough . M 406
bear the change ? M 406
beat the watch . M 402
bear to others . M 400
being so harsh . M 392
bear on others . M 392
being in style . M 386
being the focus . M 384
being my guest . M 384
being in fault . M 382
being an option . M 376
being up front . M 374
beat the people . M 372
bear no delay . M 370
bear it alone ? M 368
being by water . M 366
bear the label . M 366
beat the spread . M 360
beat me easily . M 360
beat up again . M 358
beat the light . M 358
bear the noise . M 358
bear the marks . M 354
being so brief . M 352
being the price . M 348
being so hungry . M 348
bear the grief . M 348
being the queen . M 342
being so moved . M 342
beat my father . M 342
bear the cross ? M 340
being so nasty . M 338
being is known . M 338
being an extra . M 334
beat the woman . M 333
bear to touch . M 331
bear the sound . M 330
being so lucky . M 324
bear to admit . M 324
being so cross . M 322
bear the whole . M 320
bear the change . M 318
bear it easily . M 316
being the child . M 314
being so tough . M 314
being of anything . M 314
being so light . M 312
bear the names . M 312
being as human . M 310
beat no longer . M 309
being or action . M 307
bear to write . M 307
bear it still . M 303
bear the table . M 302
beat me badly . M 300
being so quiet ? M 298
being an action . M 298
being the brain . M 294
being so wealthy . M 292
being so noisy . M 292
beat me again ! M 292
being is built . M 290
being in peril . M 289
beg to state . M 288
being the model . M 280
being an event . M 280
bear the blame ! M 280
bear the agony . M 278
beat the world ? M 276
being on board ? M 273
bear the parting . M 272
being the wiser ? M 270
being the issue . M 270
being so vague . M 270
being in agony . M 270
being so again . M 266
bet he could . M 265
beat the hours . M 264
being the prize . M 262
being my agent . M 262
being in color . M 260
being an agent ? M 260
beat an alarm . M 260
bear to dwell . M 257
bet the limit . M 254
being so nasty ? M 254
being in haste . M 254
being an image . M 254
being so hasty . M 252
being in favor . M 252
being in point . M 250
beat the girls . M 250
bear or carry . M 247
being of power . M 245
being in white . M 244
bear the leaves . M 244
being at night . M 243
being the woman . M 240
being the point . M 240
beat the field . M 240
bear no price . M 238
beat the price ! M 234
bear the shame ? M 234
bear the seeds . M 234
being the place . M 232
beat it quick . M 232
being in women . M 231
bet on games . M 230
bear the place . M 228
being he loved . M 226
being in prose . M 222
bear to climb . M 221
being so needy . M 220
being of woman . M 220
being of today . M 220
being the actor . M 216
being no longer . M 216
bet he knows . M 212
being so awful . M 212
bear me hence . M 212
being so healthy . M 210
being so happy ? M 208
being is given . M 205
bear no blame . M 204
being in press . M 203
being in waiting . M 201
being the buyer . M 198
bear the child ? M 197
being of people ? M 195
being the wider . M 194
beat me again ? M 194
bear to thirty . M 194
bear my share . M 192
bet it hurts . M 188
being an order . M 188
beat the table . M 188
being my model . M 186
beat the count . M 186
beat me today . M 186
bear the ordeal . M 186
bear the curse . M 186
being so quick . M 184
being so proud . M 184
beat me twice . M 184
being so tight . M 182
beat the devil ? M 182
bear the delay . M 182
bear no dates . M 182
bear at first . M 182
bear the touch . M 181
being my father ? M 180
beg the money . M 180
bear no guilt . M 180
bear it alone ! M 180
being as usual . M 179
being on watch . M 178
beat us badly . M 178
bear the motion . M 178
bear no names . M 177
being so small ? M 176
being no others . M 176
being my child . M 176
being in heaven ? M 176
being an ingrate . M 176
bet on black . M 175
bet on people . M 174
being an equal . M 174
being is lacking . M 173
being the period . M 172
being my slave . M 172
beat of sound . M 172
being to appear . M 171
being the people . M 170
being is found . M 170
being or state . M 169
being so noble . M 168
being my first . M 168
being is alive . M 168
beat the tests . M 168
being an adept . M 166
being the ruler . M 164
being the power . M 164
being my enemy . M 164
being an elite . M 164
beat the mother . M 164
beat the habit . M 164
being the reader . M 162
being so happy ! M 162
beat the world ! M 162
bear it badly . M 162
bet we could . M 160
beat the rules . M 160
being or feeling . M 159
being at table . M 159
being the leader ? M 158
being is based . M 158
beat the press . M 158
being the first ? M 156
being so right . M 156
beat or count . M 155
being the later . M 154
being the father ? M 154
being he loves . M 154
beat the enemy ? M 149
being is force . M 148
beat the river . M 148
being in theirs . M 147
being the weather . M 146
being in motion ? M 145
being so human . M 144
bear the parting ? M 144
being so steep . M 142
being so civil . M 142
bear is white . M 142
being up stream . M 140
being to blame ? M 140
being the bearer . M 140
being so frail . M 140
bear the change ! M 140
being as known . M 139
bear is found . M 139
being the giver . M 138
being so given . M 138
beat the woods . M 138
beat the woods ! M 138
beat is strong . M 138
bear no trace . M 138
bear no noise . M 138
being the nurse . M 136
being in words . M 136
bear to heaven . M 135
being so white . M 134
being so brave ! M 134
bear to watch ! M 132
being is about . M 131
being en route . M 131
being the river . M 130
being the nearer . M 130
being no danger . M 130
bear my grief . M 130
being so plain . M 128
being or deity . M 128
being at times . M 128
bear to woman . M 128
bear on women . M 128
being the front . M 126
being the first ! M 126
being an actor ! M 126
bear in beauty . M 126
being of sense . M 125
being the adult . M 124
being or event . M 124
being on track . M 124
beat an enemy . M 124
being is false . M 123
being or thinking . M 122
being of labor . M 122
beat at night . M 122
bear the hunger . M 122
being at large ? M 121
bear on action . M 121
being the slave . M 120
being the easier . M 120
being so loved . M 120
beat the clock ? M 120
being the hosts . M 118
being the guest . M 118
being so close ? M 118
being my pupil . M 118
being is human . M 118
beat the child ? M 118
beat so easily . M 118
bear the waste . M 118
bear at night . M 118
being of words . M 117
being the worst ? M 116
being the crown . M 116
being of either . M 116
being in music . M 116
bear the light ! M 116
being on paper . M 115
being in unity . M 115
being in decay . M 114
beat up others . M 114
beat it easily . M 114
being in space ? M 113
bear the world . M 113
being the story . M 112
being so alive . M 112
being of light ? M 112
bear the crown . M 112
being so alike . M 111
being on offer . M 111
being the wiser ! M 110
being the usual . M 110
being the light . M 110
being so alert . M 110
beg to doubt . M 110
beat me running . M 110
bear the cross ! M 110
bear or tiger . M 110
being on order . M 109
being of girls . M 109
beat to cover . M 109
bear the words . M 109
bear in heaven . M 109
bet it could . M 108
being on water . M 108
being no issue . M 108
bear the place ! M 108
bear to theirs . M 107
bet it works . M 106
being the heroes . M 106
being on point . M 106
being in danger ! M 106
being an array . M 106
being or group . M 105
being of women ? M 105
being of grace . M 105
being me again . M 104
beat us easily . M 104
beat the clock ! M 104
bear the train . M 104
being of space . M 102
being at first . M 102
bear the water . M 102
bear the chain . M 102
being or cause . M 101
being of reason ? M 101
being so spent . M 100
being is seeking . M 100
being is missing . M 100
being in heaven ! M 100
being in check . M 100
being an offer . M 100
bear the guilt ? M 100
bear the danger . M 100
bear my words . M 100
being so black . M 98
beat me often . M 98
bear the blows . M 98
bear no child . M 98
being of poetry . M 97
being in error ? M 97
being the deity . M 96
being in anything . M 96
being at fault ? M 96
beat the feeling . M 96
bear the prize . M 96
bear the feeling . M 96
bear the image . M 95
bear an equal . M 95
bet the house . M 94
being the table . M 94
being my undoing . M 94
being in keeping . M 94
beat or meter . M 94
beat of blood . M 94
bear up again . M 94
bear the loads . M 94
bear of heaven . M 94
being to serve . M 92
being to knowing . M 92
being the cause ? M 92
being on stage ? M 92
being of beauty . M 92
being no water . M 92
being in ashes . M 92
beat the enemy ! M 92
beat of verse . M 92
bear the storm . M 92
bear the crown ? M 92
being so empty . M 90
being so alone ? M 90
beat it small . M 90
being the topic . M 88
being the order . M 88
being of users . M 88
being in issue . M 88
being an input . M 88
being in shade . M 87
being the total . M 86
being the input . M 86
being the chair . M 86
being so short ? M 86
being so green . M 86
being so bored . M 86
bear the trace . M 86
being the water . M 84
being the stage . M 84
beat the grass . M 84
bear to visit . M 84
bear in words . M 84
being or knowing . M 83
being is equal . M 83
being the proof . M 82
being the junior . M 82
being the floor . M 82
being so blind ? M 82
being so amusing . M 82
being my mother ? M 82
being he meets . M 82
beat on women . M 82
beat me first . M 82
beat is lacking . M 82
bear the price . M 82
bear it today . M 82
being so upset ? M 80
being or exist . M 80
being or block ! M 80
being in power ? M 80
beat to action . M 80
bear the shame ! M 80
beat as usual . M 69
bet or check . M 64
being is power . M 64
being or agent . M 58
being to enjoy . M 55
being of forms . M 54
being of deity . M 53
being or value . M 51
being in sleep . M 51
bear to enter . M 51
bet on tails . M 50
being in grace . M 49
being to create . M 45
being to change . M 45
being as woman . M 43
bear on ethics . M 43
being to enter . M 42
being is empty . M 42
being to stand . M 41
being on others . M 41
being by others . M 41
being as breathing . M 41
