being a part of M 285621
being a kind of M 67540
being a sort of M 55292
being a form of M 36312
bear a part in M 26113
being a means of M 21940
being a sign of M 21494
being a case in M 16698
being a work of M 16000
being a threat to M 13714
being a case of M 13414
bear a part of M 12674
being a type of M 11532
being a means to M 11152
being a copy of M 9682
being a time of M 9090
being a mark of M 6536
being a mass of M 6172
being a list of M 5692
being a pair of M 5572
being a mode of M 5542
being a lack of M 5356
being a pain in M 5290
being a more or M 5176
being a body of M 5022
being a land of M 4848
being a term of M 4572
being a lady of M 4428
bear a pair of M 4364
being a book of M 4024
being a rule of M 3904
being a gift of M 3782
being a loss of M 3780
being a good thing M 3744
bear a hand in M 3654
being a city of M 3370
being a unit of M 3350
being a view of M 3042
being a theory of M 2980
being a help to M 2882
being a test of M 2712
being a youth of M 2696
being a girl of M 2696
being a bird of M 2462
being a male or M 2446
being a line of M 2346
being a fact of M 2326
bear a kind of M 2324
being a word of M 2306
being a good or M 2288
being a life of M 2262
being a union of M 2200
being a want of M 2118
bear a load of M 2115
being a step in M 2046
bear a rate of M 2016
being a link in M 1966
bear a more or M 1931
being a site of M 1842
being a thorn in M 1814
being a girl is M 1778
being a ratio of M 1762
bear a sort of M 1730
being a ship of M 1674
being a game of M 1654
being a town of M 1608
being a name of M 1606
being a drag on M 1566
being a hero in M 1558
beg a hair of M 1554
being a text of M 1528
being a ward of M 1522
being a port of M 1422
being a range of M 1412
being a girl in M 1384
being a band of M 1362
being a hero to M 1356
being a tale of M 1344
being a gift to M 1342
being a duty to M 1296
being a girl or M 1288
being a fool to M 1196
being a fine of M 1170
being a nest of M 1162
being a unit in M 1160
being a call to M 1146
being a third of M 1106
bear a coat of M 1106
being a lady in M 1098
being a rise of M 1092
being a hero is M 1092
being a beast of M 1082
being a tenth of M 1062
being a saving of M 1050
beat a heart of M 1042
being a hero of M 1040
being a lord of M 1024
being a host of M 1008
being a male in M 1000
being a loss to M 970
being a means by M 966
being a sign or M 956
being a duty of M 952
being a fall of M 946
bear a life of M 946
being a living thing M 938
being a user of M 936
being a gain of M 914
being a fool or M 888
bear a ratio to M 887
bear a mark of M 883
being a hole in M 872
being a rise in M 864
being a meaning in M 864
being a self is M 862
being a play on M 854
being a male is M 848
being a part or M 846
being a good king M 812
being a mile or M 792
bear a hand to M 790
being a plan of M 768
being i want to M 756
being a drop of M 752
being a realm of M 748
bear a date of M 730
being a part in M 724
being a fall in M 722
being a need to M 720
being a hero or M 714
being a work in M 708
being a self in M 704
bear a loss of M 704
being i have to M 680
being a deed of M 680
beg a copy of M 678
being a term in M 668
being a rule in M 664
bear a name or M 663
being a case to M 648
being a sign is M 634
being a hell of M 634
beat a hole in M 629
being a fool in M 624
being a play of M 622
being a trial of M 620
being a length of M 618
being a great king M 614
being a fool is M 614
being a break in M 612
being a pile of M 610
being a body in M 610
being a mine of M 600
bear a range of M 596
being a debt of M 592
bear a ratio of M 591
being a maid of M 586
being a tree of M 584
being a book on M 580
bear a wealth of M 576
beat a pair of M 568
bear a duty of M 558
being a town in M 550
being a monk of M 550
being a code of M 550
being a rate of M 538
being a love of M 538
bet i know the M 537
being a root of M 534
being a note of M 528
being a bone of M 528
being a monk is M 526
bet i want to M 525
being a baby is M 524
being a bank of M 522
being a girl to M 514
being a risk of M 508
being a word in M 506
being a fact in M 498
being a baby in M 498
being a time to M 494
being a mile in M 492
being a lady is M 480
being a flow of M 474
bet a pair of M 472
being a step to M 468
beat a heart as M 468
being a drop in M 466
being a trip to M 464
being a rare thing M 464
being a city in M 458
bear a word of M 457
being a month or M 454
bear a cost of M 448
bear a name of M 447
being a risk to M 438
being a ship or M 422
bear a hand at M 420
being a fish in M 416
beat a sort of M 415
being a clue to M 408
bear a look of M 405
being a home of M 404
being i have no M 396
being a side of M 394
being a work on M 392
being a lady or M 390
being a half of M 380
being a male of M 378
being a breath of M 378
being a blow to M 378
being a work by M 374
being a link to M 372
being a fire in M 372
being a good in M 371
being a knot of M 370
being a help in M 370
being a coat of M 370
being a plan to M 368
being a goal in M 366
being a time in M 360
being a dream of M 358
bet i know it M 352
being a wish to M 352
beat a kind of M 349
being a week or M 346
being a bird in M 342
bear a copy of M 339
being a post of M 338
being a sign to M 336
being a monk or M 332
being a body is M 332
being a week in M 326
being a book in M 326
bear a knot of M 326
being a gift in M 322
being a step or M 320
being a self or M 320
being a month in M 320
being a sure thing M 318
being a load to M 318
bet i will be M 315
being a truth of M 314
being a trial to M 312
being a single thing M 312
being a depth of M 310
being a cost of M 310
bear a risk of M 309
being a host to M 308
being a flaw in M 308
being a baby to M 306
being a goal of M 304
being a monk in M 302
bear a debt of M 296
beg a drop of M 293
being a past or M 292
being a move to M 292
being a single or M 290
being a means or M 290
being a great or M 290
bet a case of M 288
being a threat of M 288
being i think it M 286
bear a name so M 283
being a stay at M 282
being a line in M 282
bear a part as M 281
being a fifth of M 280
being i have the M 278
being a book the M 278
being a wealth of M 276
being a lull in M 276
bear a part or M 276
being a base of M 274
bear a form of M 271
being a pain is M 268
being a form or M 268
being a fact as M 268
bear a host of M 267
being a part to M 266
being a well of M 264
being a life in M 264
being a home to M 264
being i wish to M 262
being a rule to M 262
being a copy or M 262
being a hard thing M 260
being a page in M 254
being a fish of M 254
being a fool if M 252
being a girl as M 249
being a baby or M 248
being a mask of M 246
being a gain in M 246
being a hero at M 244
being a duty on M 244
being a bank or M 244
bear a hint of M 244
bear a flag of M 244
being a loss in M 242
being a gain to M 242
being a cost to M 240
being a body or M 240
being a book by M 238
being a hero as M 237
being a game in M 232
being a road to M 230
being a maid in M 230
being a cult of M 230
being a cell of M 230
being a move in M 228
being a body to M 228
beg a tale of M 228
bear a mass of M 228
being a rule or M 226
being a girl at M 226
being a city or M 226
being a ship at M 224
being a name or M 224
being a hero by M 224
beat a body of M 224
being i used to M 222
beg a pair of M 222
being a stop on M 218
being a name on M 218
being a book or M 216
being a week at M 214
being a sign in M 214
being a page to M 214
being a note in M 214
bear a body of M 214
being a show of M 212
being a hint of M 212
bear a duty to M 211
being a time at M 210
being a port in M 210
being a name in M 210
being a good to M 210
bear a note of M 210
being a room in M 208
being a need of M 208
being a monk at M 208
being a load of M 208
being a form in M 208
being a bird or M 208
being a cast of M 206
bear a note to M 205
bear a list of M 203
being a ship to M 202
being a fool as M 202
being a tree in M 198
being a host in M 198
bear a cost in M 198
being i call the M 196
bear a sign of M 193
being a word to M 192
being a will or M 192
being a threat or M 192
being a step on M 192
being a self at M 192
being a host or M 192
being a girl on M 192
bear a third of M 191
being a spring of M 190
being a pain to M 190
being a wrong to M 188
being a type or M 188
bear a date on M 188
being a means is M 186
being a gift or M 186
being a true or M 184
being a month of M 182
being a monk he M 182
being a fact or M 182
bear a mark or M 182
bear a mark on M 179
being a word he M 178
being a week of M 178
being a reading of M 178
being a poor or M 178
being a mile to M 178
being a saving in M 176
beg a lock of M 176
being a part as M 175
being i know of M 174
being a noun or M 174
being a core of M 174
being a copy in M 174
being a blow at M 174
beg a kiss of M 173
being a hero on M 172
being i think the M 170
being a taking of M 170
being a game is M 170
bet i have to M 169
bear a date in M 169
being a tree is M 168
being a ship in M 168
bet i have the M 166
being i must be M 166
bear a hand up M 166
bear a hand on M 166
bear a date as M 166
bear a line of M 165
being a town on M 164
bear a tale or M 164
beg a gift of M 163
being a norm of M 162
being a month at M 162
being a noun of M 160
bear a type of M 160
being a link of M 158
being a word or M 156
being i think we M 154
being a just or M 154
being a fact to M 154
being a fact is M 154
being a play in M 152
being a maid is M 152
being a line on M 152
being a lady to M 152
being a cell in M 152
being a unit on M 150
being a tree or M 150
being a face of M 150
being a fine thing M 148
being a young thing M 146
being a vice in M 146
being a verb of M 146
being a text in M 146
being a page of M 146
bear a ship of M 146
bear a cost to M 145
being a root in M 144
being a full or M 144
being a deed to M 144
being a bend of M 144
bear a name is M 144
bear a name as M 143
being a town or M 142
being a lake of M 142
being a bark to M 142
bear a mind of M 142
being a true king M 140
being a hall of M 140
being a mate of M 138
being a deed or M 138
being a book to M 138
being a beast in M 138
being a span in M 136
being a case or M 136
bear a breath of M 136
being a door to M 134
bear a date or M 133
being a ward in M 132
being a span of M 132
being a hint to M 132
being a hero if M 132
being a heart of M 132
being a game at M 132
being a city on M 132
beg a word of M 132
being i have so M 130
being a unit or M 130
being a room of M 130
being a port on M 130
being a lady at M 130
being a host is M 130
being a great thing M 130
being a call of M 130
bear a name to M 130
being a term to M 128
being a sixth of M 128
being a high or M 128
being a fool of M 128
being a faith in M 128
being a youth in M 126
being a theory in M 126
being a part is M 126
being a fold of M 126
being a maid as M 125
bear a load at M 125
being i need to M 124
beg a host of M 124
being i seek to M 122
being a mind or M 122
being a hero he M 122
being a gift by M 122
being a fool at M 122
being a duty in M 122
beg a post of M 122
beat a part of M 121
bear a band of M 121
being a third or M 120
being a noun in M 120
being a half to M 120
being a fool by M 120
being a dream or M 120
bear a fire in M 120
being a tree at M 118
being a sage or M 118
being a note or M 118
being a loss or M 118
bear a meaning in M 117
being i have in M 116
being a kind by M 116
being a goal to M 116
being a face in M 116
being a union or M 114
being a line or M 114
being a baby of M 114
being a thread of M 112
being a saying of M 112
being a fine or M 112
being a dull or M 112
being a duty is M 110
beg a peace of M 110
being a free or M 108
being a bank in M 108
being a will to M 106
being a vice to M 106
being a load on M 106
being a lady if M 106
being a hearing of M 106
being a game or M 106
bear a loss in M 106
bear a drop of M 105
being i felt the M 104
being a worm of M 104
being a walk in M 104
being a rating of M 104
being a port or M 104
being a mild king M 104
being a food of M 104
being a dream to M 104
beg a lift to M 104
beg a lift in M 104
beat a call to M 104
bear a name in M 104
being a giving up M 103
being i will be M 102
being a term he M 102
being a step of M 102
being a name to M 102
being a loss on M 102
beat a heart so M 102
being i love in M 100
being a third in M 100
being a seed of M 100
being a maid to M 100
being a gift is M 100
being a test in M 98
being a step up M 98
being a maid or M 98
being a youth at M 96
being a void in M 96
being a tour of M 96
being a lord or M 96
being a city at M 96
being a book at M 96
being a bird is M 96
beg a lady to M 96
beat i must be M 96
bear a load in M 96
bear a life so M 96
being i have an M 94
being a worm in M 94
being a verb in M 94
being a role in M 94
being a poor thing M 94
being a fish or M 94
bear a part to M 94
being a week on M 92
being a treat to M 92
being a third to M 92
being a text on M 92
being a rare or M 92
being a line at M 92
being a fool he M 92
being a font of M 92
bear a third at M 92
bear a part so M 92
bear a mark to M 92
bear a heart of M 92
bear a hand if M 92
being a vain thing M 90
being a user or M 90
being a self of M 90
being a page at M 90
being a copy by M 90
bear a mark by M 90
bet i must be M 88
being a work the M 88
being a wise king M 88
being a thread in M 88
being a text is M 88
being a port at M 88
being a hill in M 88
being a duty or M 88
being a debt or M 88
bear a kick if M 88
being a work so M 87
being a will of M 86
being a loss by M 86
being a body at M 86
bear a hand the M 86
bear a flag to M 86
bear a doom so M 86
being a wrong or M 84
being a rush to M 84
being a look of M 84
being a lock of M 84
being a cold or M 84
bear a play of M 84
being a wise as M 82
being a rush of M 82
being a half or M 82
being a flag of M 82
bear a tale of M 82
being i know is M 80
being a mate to M 80
beat a loss to M 80
being a lady as M 54
being a body as M 54
bear a blow on M 52
bear i want to M 51
being a part so M 47
bear a loss as M 46
being i gave up M 41
bear a debt to M 41
beat a girl of M 40
being a tool of D 7268
being a race of D 3002
being a prey to D 2894
being a peer of D 1738
being a pawn in D 1680
bear a crop of D 1653
being a wife is D 1558
being a bill of D 1558
being a wife to D 1450
being a string of D 1334
being a tool in D 1288
being a dearth of D 1234
being a tool to D 1232
beg a boon of D 1194
being a wife or D 1168
being a foot or D 1108
being a scion of D 1100
beat a drum to D 1009
being a star in D 1000
being a bond of D 986
bed i used to D 967
being a pawn of D 956
bed i heard the D 891
being a fief of D 890
being a pack of D 876
being a zone of D 790
being a whit the D 782
beat a drum in D 770
being a boon to D 766
being a saga of D 758
being a star is D 734
being a salt of D 728
beat a drum or D 698
being a thief or D 674
being a twin is D 652
bed i went to D 647
being a sale of D 640
being a wife in D 628
bear a tuft of D 615
bed a pair of D 605
being a bore is D 590
being a wife at D 568
being a star of D 552
being a lump of D 548
being a bill to D 548
being a diary of D 538
beat a drum at D 538
bed a week or D 526
being a wall to D 508
being a spur to D 492
being a thief is D 486
being a fort of D 484
being a wife of D 476
being a foot in D 474
being a slip of D 464
being a babe in D 460
being a vote of D 446
being a plot of D 442
being a dupe of D 440
being a jack of D 432
being a ball of D 430
being a blot on D 428
being a boss is D 426
being a rite of D 424
bet a cent on D 416
being a wolf in D 412
bed i want to D 410
being a sale by D 406
being a giant in D 402
being a writ of D 400
being a suit of D 392
being a mere thing D 384
bed i said to D 382
being a dupe to D 378
bed i have to D 378
being a rock of D 376
being a star on D 372
being a teen is D 348
being a pool of D 340
being a lien on D 336
being a cook in D 330
bear a fringe of D 330
being a ball in D 322
being a bore to D 320
being a neck of D 314
being a task of D 306
being a pest to D 304
being a sect of D 298
beg a loan of D 298
being a jerk to D 296
bet a dime on D 290
bed i think of D 290
being a foil to D 288
bear a lily in D 288
bed a part of D 285
being a spot of D 280
being a wife as D 278
being a film of D 272
being a star or D 268
being a wall of D 266
being a sale or D 266
being a limb of D 264
being a loan of D 262
being a cube of D 258
being a maze of D 246
being a coin of D 246
being a chef is D 246
being a wave of D 238
being a theme of D 236
being a mess of D 234
being a crop of D 234
bed i felt the D 234
beg a ride on D 232
being a germ of D 228
being a fund of D 228
being a yard in D 224
being a node in D 224
bed i woke up D 222
bear a rent of D 222
being a singer or D 220
being a singer of D 214
being a star at D 212
being a freak of D 212
being a cook or D 212
being a feast of D 210
bed i took the D 210
being a herd of D 208
beg a ride to D 207
beat a drum as D 205
bed a girl of D 202
being a rank foe D 201
being a suit in D 200
being a giant of D 200
being a twin or D 198
being a ruse to D 198
being a plot to D 198
being a loan to D 196
bear a race of D 196
bed i have no D 195
being a drug of D 194
being a sink of D 192
being a peer or D 192
being a lease of D 192
bear a canoe in D 192
being a pawn to D 188
being a drug in D 188
being a belt of D 188
bear a scar on D 184
being a roll of D 182
being a clog on D 182
being a firm of D 180
beat a drum on D 180
bear a crop in D 180
being a mere by D 178
being a vale of D 176
being a suit to D 176
being a prop to D 176
being a bowl of D 176
being a thief in D 174
being a star to D 174
being a reef in D 174
being a paean to D 172
being a club of D 170
being a whiz at D 168
bed a foot or D 166
being a thief by D 164
being a snob or D 164
being a singer in D 164
being a great sea D 164
bee a kind of D 164
being a prig or D 162
being a hymn to D 162
being a drug on D 158
being a slur on D 156
being a hive of D 156
beg a bowl of D 154
being a soul in D 152
being a boss or D 152
being a tool or D 150
being a jerk is D 150
being a bore or D 150
bee a part of D 150
being a tune of D 148
being a singer is D 146
being a mingling of D 146
being a heavy sea D 146
bed a copy of D 145
being a pest in D 144
being a coil of D 144
bed a pile of D 143
being a tube of D 142
being a slab of D 142
being a hymn of D 142
bet a dime to D 140
being a sheath of D 140
being a chip of D 140
being a ploy to D 138
being a cook is D 138
being a cone of D 138
bear a string of D 138
bed i made up D 137
being a pole of D 136
being a bull in D 136
being a boat of D 136
beat a roll on D 136
being a pope in D 134
being a pest or D 134
being a foot of D 134
bed a sort of D 134
beat a fist on D 133
being a wall on D 132
being a rock in D 132
being a dish of D 132
being a bust of D 132
being a tone of D 130
being a soul of D 130
being a heck of D 130
being a chum of D 130
being a wolf to D 128
beg a ride in D 128
beat a crew of D 128
being a task to D 126
being a rock or D 126
being a lamp in D 126
bet a pint of D 124
being a disc of D 124
being a good sea D 123
bed i like to D 123
being a yoke of D 122
being a spur of D 122
being a coin in D 122
being a boss in D 122
being a slap in D 120
being a joke to D 120
being a bill in D 120
beat a throw to D 120
bed i came to D 119
being a wimp or D 118
being a twin of D 118
being a seer of D 118
bear a joke at D 118
being a vast sea D 116
being a sheaf of D 116
being a wreath of D 114
beat a tune on D 114
being a vase of D 112
being a node of D 112
bear a crop the D 112
being a bore in D 110
bed a mile or D 109
being a soul is D 108
being a shot in D 108
being a rape on D 108
bed i know it D 107
being a teen in D 106
being a chef in D 106
being a pest of D 104
being a levy on D 104
being a fringe on D 104
being a clan of D 104
bed a knot of D 104
beat a drum of D 104
being a seer or D 102
being a farm of D 102
bear a tone of D 101
being a spot on D 100
being a rock to D 100
being a jerk or D 100
being a freak in D 100
bed i must go D 100
bee i speak of D 99
being a star as D 98
being a sale in D 98
being a race to D 98
being a peer in D 98
being a fund as D 98
being a frog in D 98
being a duke of D 98
being a dose of D 98
being a pint of D 94
being a giant or D 94
being a cook to D 94
bed i have the D 93
being a wolf or D 92
being a tuft of D 92
being a sect or D 92
beg a loaf of D 92
being a freak is D 90
being a firm or D 90
being a balm to D 90
beg a boon in D 90
being a yard or D 88
being a vent to D 88
being a tyro in D 88
being a freak or D 88
being a bill or D 88
bed a week at D 88
being a tool by D 86
being a prey of D 86
being a boss of D 86
being a shot of D 84
being a race in D 84
being a peer to D 84
bear a raft of D 84
being a suit by D 82
being a joke on D 82
beat a wife or D 82
being a singer to D 80
being a pawn on D 80
being a node on D 80
being a hook in D 80
being a brat of D 80
bed a pool of D 80
bed i felt as D 79
bed a mass of D 69
bed a prey to D 68
bed i took my D 61
bed a kind of D 61
bed i heard my D 56
bed a half an D 53
bed i left the D 51
being a thief as D 48
bed i wake up D 46
bed i seem to D 46
bed i laid my D 46
bed i felt so D 46
bed i took it D 44
bed i will be D 42
bed a mile in D 42
bear a sheaf of D 40
