being here . " M 26198
being there . " M 21368
being done . " M 16584
being made . " M 12538
being seen . " M 11450
being used . " M 9145
being here ? " M 8998
bear arms . " M 7394
being born . " M 6676
being good . " M 5818
being hurt . " M 5516
being late . " M 5242
being lost . " M 5019
being sick . " M 4813
being said . " M 4366
being told . " M 4355
being heard . " M 4252
being held . " M 4006
being seen ? " M 3858
being poor . " M 3528
being done ? " M 3480
being nice . " M 3419
being free . " M 3254
being there ? " M 3002
being true . " M 2810
being held ? " M 2738
being fair . " M 2680
being wrong . " M 2334
being kind . " M 2125
being used ? " M 2016
being angry . " M 2002
being rich . " M 1956
being gone . " M 1674
being eaten . " M 1290
being away . " M 1264
being born ? " M 1242
being single . " M 1228
being young . " M 1220
being here ! " M 1206
being made ? " M 1205
being well . " M 1153
being sick ? " M 1152
being home . " M 1143
being said ? " M 1129
being lazy . " M 1084
being late ? " M 1074
being sent . " M 1066
bear down . " M 1018
being good ? " M 992
being left . " M 987
being kept . " M 982
being hurt ? " M 966
being idle . " M 924
being safe . " M 891
being great . " M 886
being over . " M 782
being dull . " M 782
being nothing . " M 758
being nice ? " M 756
bear rule . " M 752
being cold . " M 746
being ready . " M 728
being felt . " M 705
being told ? " M 702
bear hunt . " M 700
being what ? " M 674
being busy . " M 624
being wise . " M 602
being laid . " M 602
being fair ! " M 576
being there ! " M 574
being rich ? " M 574
being fair ? " M 568
being poor ? " M 547
being born ! " M 540
being wrong ? " M 539
being open . " M 534
bear what ? " M 531
being such . " M 522
bear lake . " M 522
bear trap . " M 518
being gone ? " M 506
being clean . " M 506
being angry ? " M 502
being cool . " M 492
beat down . " M 492
being single ? " M 484
being free ? " M 482
being kept ? " M 464
being evil . " M 458
being boring . " M 458
beat hell . " M 455
being sure . " M 448
being clear ? " M 430
being sent ? " M 422
being just . " M 418
being boys . " M 414
bear away . " M 412
being mine . " M 402
being lost ? " M 390
being late ! " M 390
being ugly . " M 389
being shed . " M 386
being clear . " M 385
being torn . " M 384
beat fast . " M 370
being shut . " M 366
being back . " M 362
being more . " M 360
being done ! " M 354
being able . " M 354
being true ? " M 350
being home ? " M 350
being heard ? " M 344
being hard . " M 336
bear arms ? " M 336
being good ! " M 326
being kind ? " M 316
beat hell ! " M 315
being sick ! " M 312
being back ? " M 310
being male . " M 296
being high . " M 296
being full . " M 296
being rash . " M 294
being made ! " M 290
bear flag . " M 290
being worn . " M 288
bear much . " M 288
bear more . " M 288
being safe ? " M 276
being eaten ? " M 274
being soft . " M 262
beat time . " M 258
being poor ! " M 253
bear pain . " M 253
being away ? " M 252
bear down ! " M 251
being wise ? " M 244
being used ! " M 244
being hurt ! " M 242
being warm . " M 238
being down . " M 236
being slow . " M 232
being young ? " M 231
being glad . " M 230
being seen ! " M 226
being kids . " M 224
being pure . " M 216
being rare . " M 214
being lost ! " M 214
being early . " M 202
being bent . " M 194
being left ? " M 192
being bold . " M 188
bear lake ? " M 180
beat whom ? " M 177
being calm . " M 173
being vain . " M 168
being fast . " M 166
being rich ! " M 164
being heavy . " M 158
being open ? " M 154
being holy . " M 152
bear back . " M 152
being wild . " M 151
being free ! " M 148
being cast . " M 146
beat hell ? " M 146
being down ? " M 143
being last . " M 139
being nice ! " M 138
being tied . " M 136
bear trap ? " M 136
bet what ? " M 132
being only . " M 131
being blue . " M 130
being well ? " M 128
being told ! " M 128
being past . " M 128
being like . " M 128
being lazy ? " M 126
being dark . " M 126
beat back . " M 125
being living . " M 123
bear sons . " M 123
bet down . " M 120
being less . " M 120
being over ? " M 112
beat note . " M 112
bear young . " M 112
bear mine . " M 110
beat feet . " M 107
being fled . " M 106
beg mine . " M 106
being sure ? " M 104
being lazy ! " M 100
being said ! " M 98
being kind ! " M 98
being fine . " M 98
bear pain ? " M 98
beat mine . " M 97
being weary . " M 96
being many . " M 92
being cold ? " M 92
being along . " M 92
being wrong ! " M 90
being flip . " M 88
beat high . " M 86
being sore . " M 84
being ready ? " M 84
being next . " M 84
being heard ! " M 80
bear here . " M 69
beat army ! " M 59
bear sign . " M 56
bear there . " M 55
beat time ? " M 48
beat army . " M 46
bear arms ! " M 45
bear food . " M 43
bear left . " M 42
being meant . " M 41
bear away ! " M 40
