behind their backs . M 59971
before taking action . M 22794
become very large . M 16940
become more acute . M 14552
became more acute . M 14122
became well known . M 11330
become well known . M 11108
better left alone . M 10736
beyond their grasp . M 9339
beyond their power . M 9208
become very small . M 9018
became very quiet . M 8580
became very close . M 7744
behind their hands . M 7553
before trying again . M 6989
become clear later . M 6840
better think again . M 6367
became very still . M 6154
before been known . M 5813
become much worse . M 5752
better their lives . M 5660
became even worse . M 5640
become much easier . M 5546
became very wealthy . M 5326
becoming more acute . M 5002
before saying anything . M 4972
became much worse . M 4818
become very strong . M 4774
became very strong . M 4540
become very close . M 4454
became their leader . M 4436
become even worse . M 4426
behind their house . M 4252
became very upset . M 4244
before time began . M 4192
become young again . M 3978
behind some trees . M 3934
became much easier . M 3788
behind their lines . M 3781
before last night . M 3771
betray their trust . M 3742
became very large . M 3626
become their leader . M 3448
begins over again . M 3348
before other people . M 3320
before their minds . M 3314
become clear below . M 3300
become more equal . M 3268
become more human . M 3224
beyond their scope . M 3166
before their names . M 3045
before much longer . M 2999
behind some rocks . M 2900
better keep quiet . M 2870
before cold weather . M 2789
become more alike . M 2678
before such meeting . M 2662
become very quiet . M 2644
before their father . M 2550
beyond these walls . M 2526
becoming well known . M 2498
became more vocal . M 2470
behind their walls . M 2448
beyond their dreams . M 2437
behind high walls . M 2422
become very wealthy . M 2392
behind those words . M 2286
better ever since . M 2220
before high water . M 2198
beyond their walls . M 2108
behaving very badly . M 2096
beyond your grasp . M 1996
become less acute . M 1954
became very small . M 1948
became very uneasy . M 1932
behind these words . M 1908
become very acute . M 1902
became calm again . M 1888
before your visit . M 1874
behind their leader . M 1872
before many months . M 1870
become more fluid . M 1856
beyond your power . M 1834
behind those walls . M 1832
behind their words . M 1830
before their meeting . M 1790
beyond their hopes . M 1778
become more aware . M 1766
became very happy . M 1744
become their enemy . M 1738
behind their mother . M 1730
became very hungry . M 1716
behind union lines . M 1704
behind these walls . M 1692
behind their backs ? M 1670
become well again . M 1668
became more alert . M 1640
became well again . M 1566
behind those trees . M 1556
become your enemy . M 1556
behind your house . M 1520
becoming more alike . M 1492
beyond three months . M 1490
before said meeting . M 1490
before your period . M 1480
become very still . M 1466
beyond their names . M 1442
became less acute . M 1440
became very acute . M 1434
become your father . M 1410
behind your backs . M 1362
begins once again . M 1346
beside their table . M 1342
become more vocal . M 1336
beyond their needs . M 1332
become more vivid . M 1332
beyond your dreams . M 1326
become more alert . M 1314
became clear again . M 1310
become very upset . M 1248
become their slave . M 1242
before work began . M 1230
better think twice . M 1226
betray your trust . M 1222
became young again . M 1210
before moving again . M 1196
beyond some point . M 1192
belief into action . M 1188
behind their masks . M 1186
became more equal . M 1182
before many hours . M 1178
before their walls . M 1171
before many times . M 1169
before adding water . M 1168
beside their mother . M 1158
before their maker . M 1154
beside their names . M 1144
became best known . M 1138
before high heaven . M 1130
before next morning . M 1126
beyond their value . M 1116
better hiding place . M 1115
behold your mother . M 1091
became more quiet . M 1080
become free again . M 1072
better last night . M 1057
became more vivid . M 1050
before been given . M 1045
behind their works . M 1031
before dawn broke . M 1026
becoming more human . M 1022
behind your words . M 1020
better make haste . M 1004
became very rough . M 1000
beyond their limit . M 992
before your grace . M 992
before these people . M 990
become much weaker . M 988
behold your mother ! M 983
before last night ? M 983
become clear again . M 960
becoming very large . M 952
become full grown . M 950
before their idols . M 946
become more solid . M 940
became more human . M 940
beyond those trees . M 938
before many weeks . M 938
before your meeting . M 932
belief were false ? M 916
become dark brown . M 902
better worth while . M 898
before your class . M 894
become more whole . M 890
before your father . M 875
before taking action ? M 872
become more viable . M 868
before their judge . M 864
behind your chair . M 858
become their ruler . M 858
before these dates . M 854
better keep still . M 828
became more fluid . M 828
before their visit . M 822
become more alive . M 822
become less steep . M 818
beyond their vision . M 816
before making plans . M 816
became wide awake . M 804
became dark again . M 792
before life began . M 790
become calm again . M 788
become most acute . M 784
better come quick . M 780
becoming more vocal . M 778
before their people . M 772
beyond those walls . M 764
beyond their lines . M 764
before buying anything . M 748
became even wider . M 744
become very short . M 738
became their enemy . M 736
become more fixed . M 732
better think again ! M 728
becoming more aware . M 726
before their mother . M 722
before three months . M 716
behind these words ? M 714
became more fixed . M 704
become much longer . M 698
better from warmth . M 696
beyond those hills . M 694
become best known . M 692
behind their backs ! M 686
before your event . M 674
become more exact . M 672
better role model . M 668
become born again . M 662
became most acute . M 650
becoming more equal . M 648
behind their father . M 646
become good people . M 646
beside their father . M 644
become more healthy . M 644
became angry again . M 638
beyond their angles . M 636
before young people . M 634
become your slave . M 634
before your honor . M 632
better worth knowing . M 630
become much wider . M 630
behind their cause . M 626
become less strong . M 616
before their gates . M 612
beyond three miles . M 608
behind their action . M 604
behave like people . M 600
became more usual . M 586
behind their names . M 584
before taking readings . M 584
became clear later . M 584
become very happy . M 578
before your mother . M 572
becoming even worse . M 572
becoming more fluid . M 566
before next season . M 563
behind some boxes . M 552
become your enemy ? M 548
beside their house . M 546
become very tight . M 546
behave very badly . M 544
behave like women . M 544
before their period . M 544
beyond three weeks . M 540
become even wider . M 540
before your party . M 533
becoming very strong . M 532
became very alert . M 530
before their trials . M 526
becoming very small . M 524
behind those rocks . M 520
behave like beasts . M 516
becoming young again . M 516
became very tight . M 516
became more upset . M 514
before those dates . M 512
became more solid . M 510
beyond their knowing . M 508
before their house . M 508
become hard again . M 506
become very loose . M 504
become less viable . M 504
became very noisy . M 500
better leave alone . M 499
become much rarer . M 498
became more deadly . M 498
become more risky . M 492
before their births . M 488
become very light . M 486
before last light . M 482
became more uneasy . M 482
beyond their prime . M 478
before taking sides . M 478
became sick again . M 478
before these words . M 476
before been tried . M 476
become clean again . M 476
become more vital . M 472
beside your mother . M 470
before been sitting . M 468
before their prime . M 466
become much lower . M 466
beyond making money . M 464
became like blood . M 464
better look again . M 462
before many people . M 462
become even weaker . M 462
before these times . M 460
become your pupil . M 460
before such judge . M 458
become their equal . M 458
became much wider . M 458
became like water . M 456
behind your house ? M 454
before your minds . M 454
beyond their merit . M 452
betray their cause . M 452
before dawn breaks . M 451
before port royal . M 450
became more glaring . M 450
became hard again . M 448
before your house . M 444
better life style . M 442
become very rough . M 442
beyond these facts . M 440
becoming more alert . M 440
became much weaker . M 440
becoming much worse . M 438
become their crime . M 438
become pure again . M 438
became warm again . M 434
became less steep . M 434
beyond most people . M 432
become pure white . M 432
became their ruler . M 432
behind once again . M 431
better kept apart . M 428
behind some books . M 428
become more wealthy . M 428
beyond most others . M 422
behind these facts . M 422
became dull again . M 422
begins from within . M 418
become even easier . M 418
become very noisy . M 416
beyond your scope . M 414
become more adept . M 414
beyond your hopes . M 412
become more glaring . M 412
became very short . M 412
becoming more usual . M 410
become more moral . M 410
behind those hills . M 406
before been shown . M 406
become less equal . M 406
behind these moves . M 404
become good again . M 402
became born again . M 402
become sick again . M 398
behind many masks . M 394
before their leader . M 394
became more alike . M 394
beyond much doubt . M 393
better peace terms . M 392
before their times . M 390
became less harsh . M 388
become more quiet . M 386
become less human . M 386
became their slave . M 386
behind these terms . M 384
behind these lines . M 384
becoming very wealthy . M 380
became more harsh . M 380
became even weaker . M 378
behind these rules . M 372
became free again . M 372
beyond these pages . M 370
before their onset . M 370
better from motion . M 368
before your maker . M 368
becoming their leader . M 368
become your mother . M 368
become other people . M 368
became very light . M 368
beyond their lives . M 366
beside your chair . M 366
behind your backs ! M 366
before your people . M 366
become very steep . M 366
become very hungry . M 366
become their guest . M 364
better from worse . M 362
become their queen . M 362
becoming angry again . M 360
become warm again . M 360
beyond your needs . M 358
beside their leader . M 358
before their defeat . M 358
before been aware . M 358
become dark green . M 356
before three weeks . M 354
becoming less acute . M 354
become your words . M 354
became ever wider . M 354
better worth keeping . M 352
behave like angels . M 348
becoming dark brown . M 348
became much rarer . M 346
better left alone ? M 344
before been taken . M 344
become even lower . M 342
behind their cover . M 340
behind other people . M 340
before their vision . M 340
become less valid . M 340
became more exact . M 340
beyond good sense . M 338
beside your father . M 338
become their habit . M 338
became their guide . M 338
before their parting . M 336
became even easier . M 334
better take cover . M 332
behind their table . M 332
behind their times . M 330
behave like fools . M 330
before your period ? M 330
before taking power . M 330
before play began . M 330
before many others . M 328
becoming very close . M 328
become poor again . M 328
become more deadly . M 328
before said board . M 327
became very steep . M 324
before their exile . M 322
become great again . M 322
became less strong . M 322
before their power . M 320
became very white . M 320
becoming very acute . M 316
become very tough . M 314
beyond their wants . M 312
became more steady . M 312
beyond their world . M 310
before those times . M 310
before term began . M 310
before these rules . M 308
become more upset . M 308
became much longer . M 308
behind these rocks . M 306
before spring comes . M 306
before reading aloud . M 306
beyond three hours . M 304
before such change . M 302
become more usual . M 302
become even rarer . M 302
behind last night . M 301
better next season . M 300
became more vague . M 300
beyond their times . M 298
before your altar . M 298
become more vague . M 298
beyond their gates . M 296
becoming more solid . M 296
become like women . M 296
became more alive . M 296
beyond four weeks . M 292
become very white . M 292
become cold again . M 292
became cool again . M 292
become more happy . M 290
become more basic . M 290
became more close . M 290
before such period . M 286
before been noted . M 286
become single again . M 286
beyond four months . M 284
become less vivid . M 284
became dark brown . M 284
before your group . M 282
become worth while . M 282
behind those walls ? M 280
become very plain . M 278
become wide awake . M 276
better come quick ! M 275
before been found . M 274
become lost again . M 274
become dark again . M 274
became more cruel . M 274
became cold again . M 274
before your vision . M 272
before your judge . M 272
become young women . M 272
become even longer . M 272
behind four walls . M 270
become much safer . M 270
become more lethal . M 270
became part owner . M 270
behind those facts . M 268
behind these works . M 268
became more vital . M 268
become true again . M 266
beyond these walls ? M 264
before making reply . M 264
beyond their words . M 262
before time began ? M 262
became very proud . M 262
became more mixed . M 262
before home games . M 261
behind their front . M 260
behind some cover . M 260
begins much later . M 260
becoming very uneasy . M 260
become ever wider . M 260
became their undoing . M 260
became their agent . M 260
better root growth . M 259
better next morning . M 258
become angry again . M 258
became less close . M 258
better call again . M 257
becoming ever wider . M 256
become wild again . M 256
before help comes . M 254
become rich again . M 254
before their entry . M 252
become less close . M 252
became their guest . M 252
beyond your limit . M 250
beyond other people . M 250
before their queen . M 250
before data entry . M 250
become more known . M 250
before most others . M 248
becoming their slave . M 248
become very lengthy . M 248
become more steady . M 248
became less viable . M 248
better keep looking . M 244
behind your backs ? M 244
behind those masks . M 244
before their fight . M 244
become well mixed . M 244
became rich again . M 244
behind those trees ? M 242
behind city walls . M 242
behave even worse . M 242
become part thereof . M 242
became very vocal . M 242
became good again . M 242
become soft again . M 240
beside their fires . M 238
behind those words ? M 238
behind these forms . M 238
becoming well again . M 238
become more valid . M 238
become full blown . M 238
better take place . M 236
before other parts . M 236
become much older . M 236
become more erect . M 236
belief upon others . M 234
behind their books . M 234
become their guide . M 234
become their father . M 234
become more strong . M 234
became your father . M 234
become your guide . M 232
become more mixed . M 232
before giving chase . M 230
become their mother . M 230
become their lives . M 230
become more binding . M 230
become less fluid . M 230
become cool again . M 230
before whom taken . M 228
become young again ? M 228
become wild beasts . M 228
become very frail . M 228
become more frail . M 228
behind those rules . M 226
before your idols . M 226
become very uneasy . M 226
become more human ? M 226
became even longer . M 226
behind these trees . M 224
before your glory . M 224
before these tests . M 224
before taking anything . M 224
become very vague . M 224
become free goods . M 224
became wide spread . M 224
better luck still . M 222
behind your hands . M 222
beyond these words . M 220
beyond these lines . M 220
behind these names . M 220
become angry easily . M 220
betray your trust ? M 218
before such entry . M 218
before early morning . M 218
became much lower . M 218
beyond their class . M 216
become more adult . M 216
became very vague . M 216
became more known . M 216
beyond these hills . M 214
behind such action . M 214
before most people . M 214
becoming less viable . M 214
became more viable . M 214
behind these texts . M 212
becoming more vivid . M 212
became your mother . M 212
before moving lower . M 210
becoming more fixed . M 210
become their agent . M 210
become more cruel . M 210
beyond those words . M 208
better turn round . M 208
beside many others . M 208
before adding filling . M 208
became more aware . M 208
before those words . M 206
becoming more whole . M 206
before those people . M 204
became very black . M 204
better last night ? M 202
before snow comes . M 202
before other people ? M 202
before taking notes . M 200
becoming less steep . M 200
become like others . M 200
became soft again . M 200
became even rarer . M 200
before your father ? M 198
before four months . M 198
becoming very hungry . M 198
become heavy users . M 198
became very bored . M 198
betray their people . M 196
behave like others . M 196
before warm weather . M 196
before their season . M 196
before full light . M 196
became very cross . M 196
better step aside . M 194
better ones later . M 194
behold from heaven . M 194
behind these masks . M 194
begins soon after . M 194
before your child . M 194
before been asked . M 194
become less risky . M 194
become less cruel . M 194
become also known . M 194
became much freer . M 194
better body image . M 193
beyond some limit . M 192
behind these walls ? M 192
before your train . M 192
before other women . M 192
becoming much easier . M 192
better luck later . M 190
behind these views . M 190
before trying anything . M 190
before their issue . M 190
becoming very upset . M 190
became much safer . M 190
beyond fair haven . M 188
behind their guide . M 188
became very loose . M 188
beyond some trees . M 186
beyond just action ? M 186
behind your party . M 186
behaving like beasts . M 186
before their works . M 186
before late evening . M 186
before coming hither . M 186
become very fluid . M 186
become free people . M 186
beyond your vision . M 184
behave like idiots . M 184
before trial began . M 184
before next meeting . M 184
before coming close . M 184
becoming very short . M 184
becoming more alive . M 184
beyond their depths . M 182
behold your deeds ! M 182
before their table . M 182
before their ruler . M 182
beyond those facts . M 180
beyond these cases . M 180
behind their hands ? M 180
behave like heroes . M 180
before adding color . M 180
become your habit . M 180
before asking again . M 178
becoming more alike ? M 178
better when alone . M 177
before your mother ! M 176
becoming more upset . M 176
become wide spread . M 176
become very vivid . M 176
became more erect . M 176
behind ever since . M 175
becoming less strong . M 174
become their owner . M 174
become more noble . M 174
became very brave . M 174
better their lives ? M 173
better self again . M 172
behind your words ? M 172
behind there still ! M 172
begins crying again . M 172
before your words . M 172
become more worthy . M 172
become less harsh . M 172
become great lords . M 172
became their model . M 172
became full again . M 172
beyond your grasp ? M 170
betray west point . M 170
behave like water . M 170
before their passing . M 170
before giving blood . M 170
become like beasts . M 170
became their tombs . M 170
behind some hills . M 168
before mass began . M 168
before been vague . M 168
becoming born again . M 168
become more local . M 168
beyond these ranges . M 166
before their enemy . M 166
before taking cover . M 166
before nine months . M 166
become their world . M 166
become less healthy . M 166
became full blown . M 166
beyond their edges . M 164
beyond nine months . M 164
beyond face value . M 164
betray their trust ? M 164
behind your walls . M 164
behind your action . M 164
becoming very still . M 164
become their heirs . M 164
became very grand . M 164
became even lower . M 164
beyond their terms . M 162
better life today . M 162
behind their thinking . M 162
behaving like fools . M 162
before been built . M 162
became more plain . M 162
beyond those below . M 160
behind those names . M 160
behind these plans . M 160
behind these people . M 160
before your walls . M 160
before their lords . M 160
become very nasty . M 160
became lost again . M 160
become less binding . M 159
beyond these goals . M 158
behind those lines . M 158
behind these pages . M 158
behind their writing . M 158
before dawn today . M 158
becoming less close . M 158
become well known ? M 158
become very alert . M 158
become their tombs . M 158
become like angels . M 158
beyond those hours . M 156
behind those gates . M 156
before these facts . M 156
become more ample . M 156
became more wealthy . M 156
better kept quiet . M 155
beyond such period . M 154
behind your mother . M 154
behaving like women . M 154
before their opening . M 154
become holy again . M 154
beyond their brief . M 152
beyond dark hills . M 152
better time alone . M 152
better come first . M 152
begins reading again . M 152
before taking risks . M 152
before peace comes . M 152
before five thirty . M 152
become very bored . M 152
become part owner . M 152
became very adept . M 152
became dark green . M 152
beaches were empty . M 152
behind their growth . M 150
before work hours . M 150
before wild beasts . M 150
before rain comes . M 150
becoming more wealthy . M 150
becoming full grown . M 150
become your focus . M 150
become well fixed . M 150
become more linear . M 150
became less vivid . M 150
became busy again . M 150
beyond their group . M 148
better take notes . M 148
behind their tails . M 148
become more acute ? M 148
became pure white . M 148
became less equal . M 148
before their exams . M 146
before nine thirty . M 146
becoming more deadly . M 146
becoming more awake . M 146
become bone cells . M 146
became poor again . M 146
became heavy again . M 146
beyond your power ? M 144
better come round . M 144
before their close . M 144
before such board . M 144
before been moved . M 144
become more harsh . M 144
became less amusing . M 144
better their state . M 143
beyond their reason . M 142
behind their lives . M 142
behaving like idiots . M 142
behave like girls . M 142
begged their lives . M 142
before three months ? M 142
before saying grace . M 142
before other words . M 142
becoming very quiet . M 142
becoming less valid . M 142
become young again ! M 142
become very risky . M 142
became your enemy . M 142
became more cunning . M 142
better call first . M 141
beyond their house . M 140
beyond four hours . M 140
better stay alert . M 140
betray these ideals . M 140
belief from action . M 140
behind such moves . M 140
behind some others . M 140
before whom sworn . M 140
before their start . M 140
before their group . M 140
becoming young women . M 140
becoming more viable . M 140
become pure light . M 140
beyond those trees ? M 138
beyond those times . M 138
beyond these dates . M 138
better ever after . M 138
before these people ? M 138
before been wanting . M 138
becoming single again . M 138
become your world . M 138
become your slave ! M 138
become very black . M 138
become open again . M 138
become more plain . M 138
became their world . M 138
became their prize . M 138
beyond those lines . M 136
before your start . M 136
before making entry . M 136
becoming more lethal . M 136
become your child . M 136
become very proud . M 136
become their child . M 136
become more pleasing . M 136
became very nasty . M 136
became very amusing . M 136
became their father . M 136
became single again . M 136
became more adept . M 136
beyond four walls . M 134
better stop writing . M 134
better home above . M 134
belief ever since . M 134
befall other people . M 134
becoming more healthy . M 134
becoming calm again . M 134
become your slave ? M 134
became worth while . M 134
became more civil . M 134
became ever rarer . M 134
beyond such doubt . M 132
beyond many others . M 132
better once again . M 132
behold your watch . M 132
behind your smile . M 132
before been lacking . M 132
become your style . M 132
become rare today . M 132
become much wiser . M 132
become full again . M 132
became their voice . M 132
became their mother . M 132
became less vital . M 132
beyond your reason . M 130
beyond their right . M 130
beyond their cells . M 130
better luck today . M 130
betray their leader . M 130
behind their views . M 130
before their hearts . M 130
before their games . M 130
before other debts . M 130
become less happy . M 130
beyond these needs . M 128
beyond these forms . M 128
better stay close . M 128
beside your house . M 128
before your mother ? M 128
before their might . M 128
before late morning . M 128
before adding others . M 128
become more aware ? M 128
become like words . M 128
become like theirs . M 128
become like morning . M 128
become angry easily ? M 128
became your slave . M 128
became very tough . M 128
became their focus . M 128
became more lethal . M 128
better take warning . M 126
behind these goals . M 126
behind these books . M 126
behaving like angels . M 126
before your gates . M 126
before these people ! M 126
before their nouns . M 126
before their decay . M 126
become their voice . M 126
become once again . M 126
become great people . M 126
became more sweet . M 126
became more healthy . M 126
became more binding . M 126
became more ample . M 126
beyond these woods . M 124
beyond their grasp ? M 124
behind their rocks . M 124
behind their gates . M 124
before your times ? M 124
before true light ! M 124
before their event . M 124
before such action . M 124
befall some people . M 124
becoming more vital . M 124
becoming more exact . M 124
becoming less human . M 124
become very vocal . M 124
become even wiser . M 124
became very cruel . M 124
became ever weaker . M 124
beyond your house ? M 122
beyond west point . M 122
beyond most women . M 122
beyond city walls . M 122
better self image . M 122
beside their wares . M 122
behind their trees . M 122
behind good walls . M 122
behaving like people . M 122
before your round . M 122
before your exams . M 122
before their maker ? M 122
becoming most acute . M 122
become very sweet . M 122
become their focus . M 122
become rich first . M 122
become less vital . M 122
become less alike . M 122
became more awake . M 122
beyond your knowing . M 120
beyond these trees . M 120
beyond these terms . M 120
beyond these gates . M 120
behind those trees ! M 120
behind these tests . M 120
begins reading aloud . M 120
begins from sense . M 120
before open fires . M 120
before loop entry . M 120
becoming less equal . M 120
become their tools . M 120
become more noisy . M 120
become more civil . M 120
become mine enemy . M 120
became very plain . M 120
became less vocal . M 120
beyond their table . M 118
beyond such limit . M 118
better join hands . M 118
behind left field . M 118
before their steps . M 118
before their altar . M 118
before taking exams . M 118
before other verbs ? M 118
before flying again . M 118
becoming sick again . M 118
becoming even wider . M 118
become very cruel . M 118
become like heaven . M 118
become less vocal . M 118
became their owner . M 118
beyond their focus . M 116
beyond left field . M 116
better luck theirs . M 116
betray their calling . M 116
behind your chair ? M 116
behind these hills . M 116
behind their wares . M 116
before your hands . M 116
before cold working . M 116
become more white . M 116
become more awake . M 116
become fine again . M 116
became more risky . M 116
beyond those terms . M 114
beyond those gates . M 114
beyond their season . M 114
beyond five months . M 114
better life begin . M 114
behind their plans . M 114
behind other parts . M 114
behind many others . M 114
before their spite . M 114
before making readings . M 114
become your story . M 114
become good looking . M 114
became very harsh . M 114
became their state . M 114
became clean again . M 114
beyond their sound . M 112
beyond their merit ? M 112
beyond their hands . M 112
better time comes . M 112
better take action . M 112
better keep quiet ! M 112
betray their plans . M 112
before their party . M 112
becoming pure white . M 112
becoming other people . M 112
become their undoing . M 112
become such today . M 112
better think about . M 110
better have proof . M 110
better face facts . M 110
beside your table . M 110
belief ever after . M 110
behave like verbs . M 110
before have known . M 110
become like water . M 110
become less usual . M 110
become less alert . M 110
become ever rarer . M 110
beyond these hours . M 108
beyond their power ? M 108
beside their loads . M 108
behind those forms . M 108
behind their dreams . M 108
behind such words . M 108
before their lives . M 108
before some others . M 108
before making calls . M 108
before great people . M 108
before been speaking . M 108
becoming much weaker . M 108
becoming more quiet . M 108
becoming more mixed . M 108
become your leader . M 108
become very adept . M 108
became very fluid . M 108
became boys again . M 108
better done alone . M 107
beyond their place . M 106
beyond just words . M 106
behind their fires . M 106
before your shift . M 106
before their lines . M 106
before their guest . M 106
before their fires . M 106
became young women . M 106
became very sweet . M 106
before made known . M 105
beyond those rocks . M 104
beyond those needs . M 104
better move quick . M 104
better life began . M 104
beside their ships . M 104
behold your beauty . M 104
behind your walls ? M 104
behind their class . M 104
behalf once again . M 104
begged some hints . M 104
before your might . M 104
before your board . M 104
before their landing . M 104
before moving anything . M 104
before last evening . M 104
before been faced . M 104
becoming soft again . M 104
becoming much rarer . M 104
become more lasting . M 104
became their blood . M 104
became more steep . M 104
became less happy . M 104
became full grown . M 104
beyond into space . M 102
better make sense . M 102
better life begin ! M 102
better come morning . M 102
behold their beauty . M 102
before these walls . M 102
before these occur . M 102
before their tombs . M 102
before their class . M 102
before term ended . M 102
before dawn comes . M 102
before dawn again . M 102
before coming below . M 102
become their pupil . M 102
become boys again . M 102
became fine again . M 102
beyond those dates . M 100
beyond port royal . M 100
better even today . M 100
betray your cause . M 100
behold your child ! M 100
behind your child . M 100
behind those walls ! M 100
behind their visit . M 100
behind their store . M 100
behind their lords . M 100
behaving like heroes . M 100
begins moving again . M 100
before these women . M 100
before more people . M 100
before main verbs . M 100
becoming more risky . M 100
becoming free again . M 100
become zero again . M 100
become your guest . M 100
become their goals . M 100
become born again ? M 100
became very vivid . M 100
became their equal . M 100
beyond these parts . M 98
better know about . M 98
behind your place . M 98
behind their goods . M 98
behind their goals . M 98
behind such views . M 98
before your match . M 98
before these gates . M 98
before coming again . M 98
becoming ever rarer . M 98
become safe again . M 98
became very mixed . M 98
beware your bones ! M 96
better work force . M 96
better stay awake . M 96
better keep apart . M 96
behind some leaves . M 96
before your meeting ? M 96
before your beauty . M 96
before their leaves . M 96
before such people . M 96
before making tests . M 96
before early evening . M 96
before coming apart . M 96
becoming more adult . M 96
become your queen . M 96
become their idols . M 96
become their cause . M 96
become snow white . M 96
become much dearer . M 96
become more steep . M 96
become more cunning . M 96
became wild again . M 96
became ever longer . M 96
became blue again . M 96
better work alone . M 95
before such words . M 95
beyond their works . M 94
beyond single words . M 94
behind such thinking . M 94
begged some money . M 94
before your reader . M 94
before these items . M 94
before their minds ? M 94
before fifth period . M 94
becoming more glaring . M 94
become very mixed . M 94
become more alike ? M 94
become less moral . M 94
became safe again . M 94
became more strong . M 94
became more noisy . M 94
became free people . M 94
became even again . M 94
better when walking . M 93
better their world . M 93
beyond your walls . M 92
beyond your dreams ! M 92
beyond were empty . M 92
beyond their field . M 92
better worth stealing . M 92
better health state . M 92
beside their girls . M 92
belief very strong . M 92
belief into doubt . M 92
behold such people . M 92
behind these notes . M 92
behind their chair . M 92
behind gray walls . M 92
behave like beasts ? M 92
behave like acids . M 92
begins during sleep . M 92
before taking place . M 92
before good works . M 92
before coming about . M 92
before been usual . M 92
became much older . M 92
beyond union lines . M 90
beyond those hills ? M 90
beyond those hills ! M 90
better worth teaching . M 90
better during motion . M 90
beside these people . M 90
beside their money . M 90
behind your father . M 90
behind their place . M 90
before your father ! M 90
before their women . M 90
before their shift . M 90
before seen print . M 90
before last period . M 90
before come after . M 90
becoming your mother . M 90
become your shame . M 90
become your goals . M 90
became very frail . M 90
became more basic . M 90
became like night . M 90
became less valid . M 90
better life award . M 89
before were missing . M 89
better worth winning . M 88
better stay quiet . M 88
better into train . M 88
better give again . M 88
better food value . M 88
better days again . M 88
beside their holes . M 88
behind those words ! M 88
behind these tales . M 88
behind these cases . M 88
before such event . M 88
before spring opens . M 88
before mine began . M 88
before losing power . M 88
before coding began . M 88
becoming ever weaker . M 88
become very harsh . M 88
become very amusing . M 88
become more equal ? M 88
became only worse . M 88
became more pleasing . M 88
became more frail . M 88
beyond your power ! M 86
beyond these rocks . M 86
beyond four miles . M 86
beyond five miles . M 86
better keep walking . M 86
betray your trust ! M 86
beside some trees . M 86
belief were false . M 86
behind your lines . M 86
behind these words ! M 86
begins from below . M 86
begged from others . M 86
before your power . M 86
before time either . M 86
before these others . M 86
before spring growth . M 86
before some place . M 86
before other verbs . M 86
becoming less healthy . M 86
becoming even rarer . M 86
becoming clear again . M 86
become your equal . M 86
become their lords . M 86
become their judge . M 86
become such people . M 86
become much freer . M 86
become kids again . M 86
became less binding . M 86
better into focus . M 85
beyond your world . M 84
beyond those woods . M 84
beyond those rules . M 84
better hiding place ? M 84
better come alone . M 84
behind those hills ? M 84
behind their teaching . M 84
behind their needs . M 84
behind their music . M 84
before time began ! M 84
before these idols . M 84
before last night ! M 84
becoming these pages . M 84
becoming hard again . M 84
become years later . M 84
become well again ? M 84
become less tight . M 84
become less solid . M 84
become blue again . M 84
became less engaging . M 84
beyond their teaching . M 82
beyond their state . M 82
beyond book learning . M 82
better time walking . M 82
better take cover ! M 82
belief into action ? M 82
behind those boxes . M 82
behind those books . M 82
behind good cover . M 82
behaving even worse . M 82
before your people ? M 82
before seeing anything . M 82
before seeing action . M 82
before five months . M 82
before been known ? M 82
becoming very frail . M 82
become very cunning . M 82
become such again . M 82
become rich people . M 82
became very round . M 82
became more brave . M 82
became bold again . M 82
better work still . M 80
better talk first . M 80
better come again . M 80
behind were women . M 80
before their child . M 80
before taking tests . M 80
before such beauty . M 80
before laid aside . M 80
become more lengthy . M 80
became their cause . M 80
became less fluid . M 80
became less fixed . M 80
became even noisy . M 80
better left aside . M 68
better from within . M 61
before from others . M 52
better from others . M 50
become more close . M 49
better from above . M 48
better help others . M 44
better left alone ! M 43
before from after . M 43
better talk about . M 42
better living space . M 42
better live apart . M 40
behold such beauty . M 40
before from below . M 40
