believed in it . M 40866
believed to be . M 19218
believed in me . M 16522
beautiful to me . M 14584
believes in it . M 12472
beckoned to me . M 10418
beautiful it is ! M 10074
beautiful it is . M 8764
benefits of it . M 6171
believes in me . M 5092
beautiful in it . M 2702
beautiful to us . M 2368
behaviour to me . M 2202
beckoned to us . M 1886
believer in it . M 1874
believed in us . M 1718
believes it is . M 1704
beautiful he is ! M 1542
benefits to us . M 1478
beginnings of it . M 1472
believes he is . M 1368
believes in us . M 1254
believed in it ? M 1194
behaviour in it . M 1164
benefiting by it . M 1024
beautiful he is . M 940
bettered by it . M 930
benefits by it . M 928
believed to do . M 904
beautiful to eat . M 802
beautiful to me ! M 716
beautiful it is ? M 648
believed by us . M 630
believed to be ? M 596
behaviour to us . M 595
benefits to me ? M 592
beckoned me on . M 574
believes in it ? M 566
benefits to it . M 564
believed in me ! M 530
benefits to me . M 490
believed in it ! M 442
believes in me ! M 432
believed it so . M 428
benefits of the . M 400
believer of me . M 384
beckoned us on . M 360
benefits of it ? M 356
beautiful as he . M 356
befallen the king . M 274
beautiful to go ! M 264
behaviour of the . M 248
behaviour to it . M 247
believed in me ? M 242
benefits by it ? M 236
benefits in it . M 232
beautiful to me ? M 226
believed by me . M 220
benefits on us . M 214
benefits of tea . M 214
believes in it ! M 204
beautiful to us ? M 196
beckoned to it . M 188
believed in the . M 186
behaviour to be . M 182
believes in me ? M 178
believed of me . M 174
believer to do ? M 167
bettered by it ? M 166
benefits to us ? M 166
beautiful to be . M 158
beautiful by me . M 154
beginner of it . M 144
believes it so . M 134
behaviour it is . M 128
benefits to be . M 126
behaviour to me ? M 124
beautiful as me . M 124
believed to go . M 122
believed of it . M 122
believed the thing . M 120
believes of me . M 116
beautiful is it . M 116
beautiful in it ? M 114
beautiful in us . M 110
believer to do . M 108
benefits to me ! M 106
beckoned to me ? M 106
believes to be . M 102
beautiful in it ! M 102
benefits on it . M 98
believer in me . M 97
believed to be ! M 94
beautiful of it . M 94
beautiful he is ? M 92
behaviors to it . M 90
beckoned me up . M 90
benefits go up . M 88
beckoned to me ! M 88
believed or no . M 86
beginnings of it ? M 82
behaviour on it . M 80
beautiful in me . M 80
