db loss in the D 984
db width of the D 614
db down on the D 478
db down at the D 386
db gain in the D 305
db loss at the D 194
db loss of the D 168
db drop in the D 167
db when it is D 130
db gain of the D 125
db will be the D 84
db gain at the D 68
db range of the D 66
db down in the D 55
db rise in the D 53
