flying was still a M 602
flow and cause a M 566
flow may cause a M 449
flow can cause a M 378
flow and create a M 374
flow and hence a M 358
flow for which a M 246
flow and creating a M 233
flow and causing a M 183
flow for period t M 170
flying for about a M 156
fled and found a M 152
flag and under a M 144
flow and gives a M 130
flow and forms a M 127
flag was given a M 122
flow can create a M 116
flow but rather a M 111
flow and often a M 110
flag for which i M 108
flow may create a M 98
flying for quite a M 92
flag and holding a M 88
flow and found a M 82
flow for about a M 74
flow for nearly a M 47
flow and after a M 42
flow and forming a M 40
flag and fired a D 1178
flat and forms a D 346
flat for about a D 288
flat and found a D 242
flat and place a D 174
flat area where a D 150
flux and hence a D 140
flat and shows a D 128
flat was above a D 126
flew for about a D 122
flat and makes a D 118
flat and after a D 116
flat and about a D 116
flat for nearly a D 114
flat and gives a D 100
flux and forms a D 96
flew off after a D 90
flap and found a D 85
flew for nearly a D 82
flat for quite a D 82
flat area about a D 82
