floor or in the M 13406
floor or on the M 10061
fluid is to be M 9294
floor is to be M 7820
floor up to the M 5182
floor as if he M 5028
fluid is in the M 5013
floor so as to M 4888
floor as if it M 3450
floor or at the M 2464
fluid as it is M 2454
fluid so as to M 2322
flown in by the M 2194
flown up to the M 2040
fluid or in the M 1908
floor of the ring M 1886
floor or to the M 1691
floor of the king M 1686
fluid is of the M 1595
floor of the wing M 1582
floor as in the M 1570
floor as if to M 1566
flown in to the M 1552
floor is in the M 1488
floor as if in M 1456
fluid up to the M 1417
fluid as in the M 1394
floor as to be M 1282
floor on to the M 1202
floor as if the M 1190
flown in on the M 1176
floor is of the M 1176
floor as it is M 1146
floor is at the M 1126
fluid is at the M 1098
floor is on the M 1054
floor if it is M 1044
flown in at the M 964
floor to go to M 910
fluid if it is M 772
floor of it is M 762
fluid on to the M 705
fluid or of the M 699
fluid is on the M 686
floor as on the M 684
fluid is to the M 674
fluid as to be M 662
floor or in an M 644
flown on to the M 642
fluid or by the M 635
fluid to be in M 586
floor to be of M 520
floor to be the M 504
fluid in it is M 500
floor to do the M 490
floor or by the M 482
flown in to be M 472
floor or of the M 470
floor or on an M 460
fluid or to the M 449
fluid to be the M 433
floor up in the M 432
floor of the so M 418
floor is it on M 408
fluid or on the M 407
fluid as if it M 381
floor of the the M 376
fluid to be of M 357
fluid to be at M 328
flown up in the M 322
floor to do it M 310
floor to do so M 307
floor is at an M 278
fluid is of no M 268
floor as if by M 266
floor wing of the M 258
floor as to the M 254
fluid as is the M 251
floor if he is M 248
fluid to be an M 239
floor to be in M 236
fluid or if the M 224
floor of the tea M 222
floor in the wing M 216
floor so it is M 210
floor is at or M 210
fluid is by no M 206
flown in to do M 206
floor as if on M 206
floor as he is M 202
fluid is in an M 198
fluid is as the M 196
floor as if we M 194
floor it is on M 190
fluid be at the M 182
flown in to us M 174
fluid as at the M 170
floor or wing of M 168
floor or up on M 166
floor as at the M 164
floor to be at M 162
fluid or at the M 158
floor or if the M 158
floor of the thing M 158
floor as is the M 156
fluid in it to M 152
flown so as to M 150
floor is by the M 148
floor up is the M 145
floor is to the M 142
floor to eat it M 138
floor as we do M 138
floor it is the M 136
fluid it is the M 134
fluid is of an M 134
fluid be in the M 133
flown in on an M 132
floor or on to M 132
floor to be on M 129
flown up on the M 128
floor or to be M 128
fluid as to the M 126
fluid or of an M 124
floor to be as M 124
floor or up at M 124
floor of it to M 124
floor is he on M 120
flown by in the M 118
floor is by no M 118
fluid as if the M 114
floor is of no M 114
floor in the so M 114
floor he is on M 114
fluid so it is M 113
floor to eat the M 112
fluid is by the M 110
fluid in at the M 110
floor is in an M 108
fluid of up to M 106
floor up on the M 106
floor to be so M 102
floor of it in M 102
flown to it in M 100
flown in as the M 100
fluid it is to M 96
fluid is the so M 96
flown in in the M 96
flown in by an M 96
floor to go up M 96
floor or to an M 96
flaws so as to M 96
floor or up the M 94
floor or up to M 92
floor as in an M 92
fluid it is in M 90
floor up to my M 90
floor or up in M 90
fluid to do the M 88
flown to the king M 88
flown it to the M 88
flown to tea as M 86
floor or on my M 86
floor is on an M 86
fluid is up to M 82
fluid in or on M 82
fluid as on the M 82
floor at the king M 82
fluid up in the M 80
fluid or as an M 80
floor to do my M 80
floor or as the M 47
flaws in it as M 42
floor of the sea D 22432
flesh is in the D 10686
float up to the D 8858
flowing to the sea D 7758
flows to the sea D 7636
flows on to the D 5578
flowing of the sea D 5495
flare up in the D 5125
flesh is to be D 4866
flesh is of no D 3746
float in the sea D 3261
flesh or of the D 3148
flies up to the D 3130
flowing on to the D 2998
flows in at the D 2936
float on the sea D 2867
flaring up of the D 2784
flows up to the D 2728
flies up in the D 2714
fleet is to be D 2652
flesh of the ox D 2636
flowing in at the D 2594
flesh or in the D 2506
flame so as to D 2492
fleet is in the D 2430
fleet of the king D 2398
flame is to be D 2366
flare up at the D 2190
flesh as if it D 2162
fluid in the ear D 1951
float up in the D 1936
fleet to go to D 1894
flour is to be D 1816
flask up to the D 1717
flesh so as to D 1710
fleet in the sea D 1702
fleet so as to D 1646
flock is to be D 1622
flows so as to D 1620
flowing in of the D 1598
flesh is as the D 1592
flaring up in the D 1560
flows of up to D 1552
flask so as to D 1534
fleet up to the D 1531
flesh of the sea D 1478
flank of the king D 1435
flank or in the D 1386
float it on the D 1354
flank so as to D 1337
flesh of an ox D 1330
flowing up to the D 1329
flows on in the D 1320
fleet on the sea D 1320
flora of the sea D 1294
flock to it in D 1258
flowing in to the D 1246
flask is to be D 1226
flies on the wing D 1213
flesh to be the D 1185
fleet is on the D 1166
flesh is of the D 1130
flame is in the D 1116
flows in to the D 1099
flood of the sea D 1093
flame or in the D 1088
float by in the D 1064
float it in the D 1036
flare up of the D 1007
flame is at the D 974
fleet is at sea D 952
flare up on the D 931
float it to the D 930
flowing in on the D 928
flange is to be D 918
flame up to the D 890
flows on in an D 884
flank it on the D 882
flash by on the D 860
flowing in it is D 854
flash up on the D 834
flash by in the D 820
flies on to the D 794
flesh as in the D 782
fleet to be in D 774
fleet to sea in D 760
flame or in an D 750
flush up to the D 742
flora is to be D 734
flesh as it is D 717
flesh as if he D 715
flows in on the D 712
flame on to the D 710
flood is to be D 700
float by on the D 678
flank on the sea D 673
flour so as to D 666
flame up in the D 662
flesh of the king D 638
flats or in the D 638
fleet of up to D 628
flash up in the D 628
flesh up to the D 620
flock of up to D 618
flock up to the D 596
float so as to D 592
flesh of it is D 576
flows as in the D 572
flank us on the D 570
flame is on the D 562
flies in at the D 560
flame as in the D 560
fleet or in the D 556
flaring up at the D 548
flows or in the D 540
flock to the king D 540
flick of an ear D 538
flour if it is D 536
flows is to be D 530
flame as if it D 524
fleet to the sea D 522
flaming up of the D 520
flesh or to the D 509
float up on the D 508
fleet to sea to D 506
float is in the D 501
flare up in an D 496
flame or by the D 494
flows in by the D 490
flowing on in the D 490
flesh do to me D 480
flesh is by no D 468
flesh on to the D 466
flock in to the D 462
flame as it is D 456
float if it is D 452
flood to the sea D 450
float in on the D 450
flank of the foe D 450
float is to be D 446
fleet to be the D 446
float on to the D 442
flesh or on the D 434
fluid as the sea D 428
flash is to be D 422
flank or to the D 421
flour as it is D 420
flock to it as D 418
flame is of the D 418
flows is in the D 416
fleet is at the D 416
flaps so as to D 414
flock is on the D 412
flaming up in the D 406
flock is in the D 402
flash on to the D 402
fleet at sea in D 400
flame or on the D 400
flesh to be in D 399
floor of the ear D 398
flowing in by the D 396
fluid of the sea D 392
flange so as to D 386
fleet or of the D 375
float is at the D 372
flank to the sea D 371
flows as it is D 364
flesh as to be D 362
flour is in the D 360
float in at the D 360
flats up to the D 360
flange is on the D 358
flash of the sea D 353
flesh as of the D 352
flows in by an D 350
flood so as to D 349
flake of the sea D 347
flesh is on the D 344
flows as if it D 343
fleet to be at D 342
flour on to the D 340
fleet by us in D 336
flies up on the D 332
flame or of the D 332
flash up to the D 328
flies go in the D 326
flits by the sea D 320
flats by the sea D 320
flank up to the D 320
flange is at the D 320
flock to it to D 318
flora is of the D 315
fleet to sea on D 312
flask on to the D 310
flank of the sea D 308
flume is to be D 306
flesh is by the D 304
flowing by in the D 302
flood on to the D 302
fleet to do the D 302
flash on in the D 302
flush is on the D 300
fleet or to the D 298
flame of the sea D 298
flour up to the D 296
flies so as to D 292
flange of the ring D 292
flock on to the D 290
flies is to be D 290
flesh if it is D 288
flesh or by the D 286
flash as if it D 286
flora is in the D 282
flash it on the D 282
flame is to the D 282
flask or in the D 280
float up to me D 278
flint so as to D 278
fleet is of the D 278
flips it to the D 276
float to the sea D 275
flowing in the ring D 274
flank or on the D 274
flock to it by D 272
flesh is to the D 272
flash of it in D 270
flame or by an D 270
flood up to the D 269
fleet at sea to D 268
flags so as to D 266
flock or of the D 264
flock to the sea D 262
flats or on the D 262
flexing it at the D 260
flesh as if to D 258
flits on the wing D 256
flats so as to D 256
flats of the sea D 256
flame of it is D 256
flood is in the D 254
fleet at sea or D 254
flank is to be D 253
flask as in the D 252
flock to us in D 250
float up to us D 250
float up to my D 250
flour is of the D 248
flare up to the D 246
flats to the sea D 244
flint is to be D 242
flash of it is D 242
flaring up on the D 242
flare up as the D 241
fleet as to the D 240
flowing in it at D 238
floor of the la D 238
flash by as the D 238
flank or at the D 238
fleet as it is D 236
flash is of the D 236
flesh to eat in D 232
flows to us in D 230
flash it in the D 230
flash is in the D 230
float is on the D 229
flange or in the D 228
flame up at the D 228
flesh as he is D 226
flesh is of an D 224
flesh to be of D 222
flame if it is D 222
flowing as if it D 220
flint to go to D 220
flowing as in the D 218
flash it to the D 218
flowing as it is D 216
fleet at sea is D 216
flesh is in no D 214
flaring up to be D 214
flows as if the D 213
flash it at the D 213
flags it as an D 212
flies to it in D 210
fleet on to the D 208
flies to it as D 207
flute is to be D 206
flowing so as to D 206
flows in it is D 205
flock so as to D 204
fleeing to the sea D 203
flowing by on the D 202
flowing in the sea D 200
flesh as if the D 200
flash is on the D 200
flash is at the D 200
flaps on the wing D 200
flank is in the D 200
flank it to the D 199
fleet to the king D 198
flats on the sea D 198
flows as of the D 196
flood is on the D 196
fleet as if it D 196
flask is in the D 196
flare up if the D 195
flock to do the D 194
flare up at me D 194
flock in by the D 192
flesh of the toe D 192
flaring up to the D 192
flock on the wing D 190
flaring up of an D 190
flora of the so D 189
flock to go to D 188
flats is to be D 188
flame or on an D 188
flame as if he D 188
flank of the la D 186
flange is in the D 184
flags up to the D 184
flood so is the D 182
flies in to the D 182
fleet as to be D 182
flowing on in an D 180
flash to go to D 180
flows to be the D 179
flaps of the wing D 179
flowing in as the D 178
flute or on the D 175
flies as it is D 175
fleet to sea at D 174
flies to the king D 173
flood or in the D 171
flute to go to D 170
flesh is at the D 170
fleet as in the D 170
flake is to be D 170
flute is in the D 168
flowing up in the D 168
flask as it is D 166
flame in us is D 166
flick of the ear D 164
flesh as to the D 164
fleet of the foe D 164
fleet as of the D 164
flows up in the D 163
flows is of the D 163
flows by in the D 163
fleet to go on D 163
fleet to do so D 162
fleet of the sea D 162
flaying of us in D 162
flask if it is D 162
flail or by the D 162
float it on to D 161
flora as in the D 160
float as if in D 160
flesh if he is D 160
fleet to do it D 158
flies by in the D 157
flips it in the D 156
flesh is in us D 156
fleet at sea on D 156
flank as if to D 155
flowing on to it D 154
flows on by the D 153
flesh of the ear D 152
fleet is to go D 152
flank on to the D 152
flows in the sea D 151
flies up at the D 151
flesh if so be D 150
flesh as is the D 150
fleet to be so D 150
flange is of the D 150
flows by on the D 149
flute is of the D 148
flesh to do it D 148
flash by in an D 148
flank of it is D 148
flock to be the D 146
float it at the D 146
flows to it in D 145
flare up in my D 145
flowing on as it D 144
flour as in the D 144
flesh of the thing D 144
flows is at the D 143
float up to it D 143
flies in on the D 143
flora or in the D 142
flies do in the D 142
flesh to do the D 142
flows if it is D 141
flowing in it in D 140
flout me in the D 140
flood in to the D 140
float in it in D 140
flesh it is the D 138
flare up as it D 138
flows or on the D 137
flexing of the wing D 137
float on in the D 136
flies by on the D 136
flare is in the D 136
flame as if the D 136
flick on in the D 135
flora is by no D 134
flock as to the D 134
flies to the sea D 134
flesh as we do D 134
fleet at sea at D 134
flush as if the D 133
flush it to the D 132
flood of it is D 132
flock to it on D 132
float in or on D 132
flash on us as D 132
flags up on the D 132
flare up as if D 131
flowing in at an D 130
flock to us to D 130
flies or by the D 130
flesh to be as D 130
flash is to the D 130
flaps is to be D 130
flowing on of the D 128
flood or of the D 128
flood it is the D 128
float or to be D 128
float as if it D 128
flick it at the D 128
flesh as on the D 128
flank of the xi D 128
flame is of no D 128
flame as if to D 128
flays us on the D 126
flood or to the D 125
flies as in the D 125
flowing as if in D 124
flops is in the D 124
flood as it is D 124
flock as it is D 124
flick of the wing D 124
fleet or by the D 124
flask to the king D 124
flash up at the D 124
flare is of the D 124
flags as if the D 124
flues so as to D 123
flows on as the D 123
flood as in the D 123
flesh is in my D 122
fleet of wing as D 122
fleeing of the sea D 122
flash by at the D 122
flows on as it D 121
fluid of the ear D 120
flora of the ear D 120
flood is at the D 120
flock to be in D 120
flock on the lea D 120
float on it as D 120
flesh to be so D 120
flame or to the D 120
flesh in the sea D 119
float in to the D 118
flesh to be at D 118
fleet or on the D 118
flags of the king D 118
flows to me in D 117
floor is the sea D 117
flash of the wing D 117
flank it in the D 117
flick it to the D 116
flesh is as it D 116
flame up in my D 116
flame to be the D 116
flows of the sea D 114
flesh he is the D 114
flats of up to D 114
flash or in the D 114
flare up as he D 114
flame of it in D 114
flash as if the D 113
flute or of the D 112
flour or in the D 112
flour of it is D 112
flows on to an D 111
float as in the D 111
flick on the ear D 111
flank of the so D 111
flesh of it by D 110
fleet to be on D 110
flask is on the D 110
flash if it is D 110
flaming on the sea D 110
flies is in the D 109
flare is to be D 109
flume so as to D 108
flour is on the D 108
flora is on the D 108
float up in my D 108
fleet as if he D 108
flats or up the D 108
flows up to it D 107
flows or to the D 107
flows at up to D 107
fleet to go in D 107
flash as it is D 107
flowing in to me D 106
flood is by no D 106
flock in on the D 106
float it up to D 106
flick it on the D 106
flesh to do so D 106
flaring up as the D 106
flaring in at the D 106
flies on in the D 105
flesh to be an D 105
flowing to us in D 104
flock to me in D 104
float us on the D 104
fleet up in the D 104
flask of tea or D 104
flask of tea in D 104
flange as in the D 104
flute as if he D 102
flowing in in the D 102
flout me to my D 102
flora so as to D 102
floor to the sea D 102
flood as to be D 102
fleet is of no D 102
flats is in the D 102
flask is at the D 102
flare is on the D 102
float on or in D 101
flush as if it D 100
flour or by the D 100
flood or by the D 100
flies to be the D 100
flash of the thing D 100
flange as it is D 100
flame is at an D 100
flame as on the D 100
flick up to the D 99
flows on as an D 98
flowing in on us D 98
fleet by the king D 98
flask as if it D 98
flaring as if he D 98
flaming up at the D 98
flesh if it be D 97
flowing in it or D 96
flora in up to D 96
float on as of D 96
float in it as D 96
flies if it is D 96
flask or on the D 96
flaps as in the D 96
flame up on the D 96
float is of the D 95
flaps up to the D 95
flues to be of D 94
flows to be in D 94
flows in on us D 94
floor at the toe D 94
flock as if he D 94
flits by in the D 94
flexing as if he D 94
flesh be to be D 94
flash of the ring D 94
flash as in the D 94
flags on to the D 94
flags is to be D 94
flash up in my D 93
flowing in by an D 92
flora to be of D 92
flock to do so D 92
flock if it is D 92
float on it in D 92
flies up on to D 92
flask of it in D 92
flash so as to D 92
flash as if in D 92
flank of the wing D 92
flame on the sea D 92
flame of the king D 92
flint is in the D 91
flour to be of D 90
flour is by no D 90
flock is of the D 90
flock in at the D 90
float of sea or D 90
flesh on it at D 90
fleet at sea of D 90
flame it is the D 90
flare up as an D 89
flush to the king D 88
flock to eat the D 88
flips up at the D 88
flies of the ox D 88
flesh to go to D 88
flaps or in the D 88
flags go up in D 88
flows on as if D 87
flesh of the he D 86
flank as if it D 86
flame of the tea D 86
flame in the sea D 86
flows on as of D 84
flows on as in D 84
flour in it to D 84
flood is of the D 84
flesh to us to D 84
flesh it is to D 84
flats on to the D 84
flare up at an D 84
flange on to the D 84
flowing at up to D 82
flour is of an D 82
flour as if it D 82
fleet as the roe D 82
fleeing as if the D 82
flats as it is D 82
flats as in the D 82
flask or to the D 82
flange to the toe D 82
flags as in the D 82
flood as if it D 81
flowing to it is D 80
flint is of no D 80
flank is on the D 80
float as it is D 71
flies or in the D 69
flows on the sea D 67
flash on at the D 62
flood in on me D 61
flows in the ring D 60
flops on to the D 59
flies as if it D 59
flash as if he D 59
flows go to the D 57
flood in at the D 56
flies it is the D 56
flows or by the D 55
flows or of the D 53
flood in on the D 53
flies as if he D 53
flows on at the D 51
flows is the so D 51
flake on the sea D 51
flows is of no D 50
flood in on us D 50
flags up in the D 50
flowing in it as D 49
flora on the sea D 49
flies up to my D 49
flows it is the D 47
float at the sea D 47
flash by as we D 47
flows to be as D 46
flows is on the D 45
flush it in the D 44
float as if on D 44
fleet at sea as D 44
flush on to the D 42
flush as in the D 42
flows in as the D 42
flout it in the D 42
flange up to the D 41
flare up by the D 40
