floor beneath him . M 2044
floor beneath them . M 1962
floor above them . M 1602
floor above him . M 1376
floor beneath her . M 1270
floor below him . M 1002
floor right now . M 906
floor below them . M 786
floor every day . M 762
fluid drawn off . M 732
floor above her . M 696
fluid every day . M 630
floor below her . M 562
fluid within them . M 437
floor under them . M 434
floor under him . M 380
floor about him . M 368
floor beneath you . M 342
floor above that . M 312
fluid after death . M 305
fluid comes out . M 218
floor below you . M 216
floor after all . M 200
floor about her . M 190
floor about then . M 188
floor above this . M 182
floor after him . M 178
floor above you . M 176
floor under her . M 160
floor space each . M 140
floor after them . M 132
floor after her . M 132
floor after that . M 126
flown every day . M 124
flown since then . M 118
floor below his . M 112
floor round him . M 110
floor about them . M 108
floor below that . M 106
floor quite dead . M 104
floor given way . M 100
floor every year . M 100
floor below this . M 98
fluid above them . M 93
fluid pours out . M 86
floor while eating . M 82
