cycle , " in M 7798
cycle , " the M 5650
cycle , " he M 1414
cycle , " as M 1254
cycle , " or M 1157
cycle , " by M 836
cycle : " the M 832
cycle , " is M 654
cycle , " to M 344
cycle , " we M 328
cycle , " it M 328
cycle , " an M 308
cycling , " in M 216
cycle : " in M 182
cycle , " so M 163
cycle : " it M 144
cycle , " of M 132
cycle : " we M 116
cycle , " am M 110
cycle , " my M 106
cycling , " the M 85
cycling , " he M 48
