zeros M 1485383
zealot M 343006
zeroed M 175958
zeroth M 169073
zeroing M 117967
zones D 13438472
zenith D 2273250
zonal D 1087005
zodiac D 1082708
zebra D 972399
zoned D 462626
zooming D 329712
zither D 147683
zipping D 137353
zooms D 136875
zloty D 104655
zinnia D 102989
zines D 102214
zapping D 57910
zesty D 56967
zilch D 53001
zippy D 50542
zincs D 23317
zetas D 19701
zebus D 14436
zingers D 12457
zests D 6708
zappy D 3610
zingier D 244
