edges of a wound M 5112
edges of a graph M 3751
edges of a piece M 2560
edges in a graph M 2234
edges of a large M 2098
edges of a small M 1652
edges of a solid M 1026
edges of a board M 955
edges of a given M 942
edges of a table M 712
edges of a field M 680
edges of a cloud M 522
edges of a shape M 496
edges of a group M 462
edges of a frame M 450
edges of a block M 425
edges of a white M 376
edges of a stream M 371
edges of a right M 364
edges in a given M 358
edges of a river M 318
edges of a plane M 318
edges of a clock M 308
edges of a paper M 301
edges of a world M 278
edges of a black M 272
edges of a plain M 261
edges of a print M 238
edges of a model M 228
edges as a guide M 222
edges of a crack M 221
edges of a shell M 207
edges of a floor M 186
edged by a white M 182
edges of a space M 180
edges to a block M 176
edges to a white M 174
edges of a clearing M 169
edges to a point M 168
edges of a joint M 166
edged by a black M 166
edges of a cover M 158
edges of a layer M 156
edges in a plane M 154
edges of a ruler M 150
edges on a piece M 148
edges of a cycle M 144
edges to a black M 142
edges of a newly M 142
edges of a drawing M 142
edged by a small M 140
edges of a smile M 136
edges of a light M 136
edges of a growing M 136
edges of a round M 134
edges at a given M 126
edges of a house M 118
edges to a graph M 111
edges of a water M 106
edges of a storm M 106
edges at a right M 104
edges of a crowd M 96
edged by a large M 94
edged by a winding M 92
edges of a burning M 90
edges to a piece M 88
edges of a child M 88
edges in a small M 86
edges of a color M 85
edges of a short M 84
edges of a green M 84
edges of a nearby M 83
edges is a small M 82
edges of a sheet D 1398
edges of a plate D 1056
edges of a prism D 974
edges of a strip D 568
edges of a panel D 550
edges of a neatly D 430
edges of a pulse D 422
edema is a major D 402
edges of a stone D 344
edges of a patch D 336
edges of a metal D 335
edges of a quilt D 304
edges of a glass D 301
edges of a broad D 298
edges of a blade D 298
edges of a sword D 278
edges of a stack D 268
edges of a drill D 254
editing of a daily D 253
editing at a later D 240
editing of a large D 235
editing of a paper D 216
edges in a scene D 202
edema in a child D 202
edges of a scene D 198
edged by a broad D 188
edges of a region D 186
edges of a knife D 186
edges of a sharp D 184
edict of a ruler D 180
edged by a stone D 178
edges of a steel D 169
edges of a flake D 169
edges of a fresh D 166
edema as a cause D 166
edged up a notch D 162
edged as a razor D 156
edges of a sable D 154
edges of a photo D 152
edges of a cubic D 152
editing of a small D 148
edges of a plank D 148
edges to a smooth D 146
edges of a gable D 143
editing of a scene D 135
edges of a marsh D 134
editing of a story D 133
edged as a knife D 127
edges of a slide D 126
edict of a roman D 118
editing of a movie D 112
edges of a cliff D 110
edges of a rigid D 106
edges of a brick D 104
edges of a brush D 99
edges of a gorge D 97
editing of a piece D 96
edged by a strip D 96
edges of a slice D 88
edges of a horse D 86
edges of a dense D 84
educe by a fatal D 82
edges on a level D 82
edges of a curve D 82
editing of a draft D 80
edges of a split D 60
edges of a blank D 51
edges of a razor D 49
edges of a cleft D 47
edged as a sword D 40
