that has a . M 1002
this was a . M 446
them with a . M 310
then was i ? M 278
they had a . M 144
they are a . M 126
that was i ! M 120
that did i ? M 114
that for a . M 102
that can i ? M 100
then may i ? M 96
them for a . M 86
this than i ? M 80
