then am i ? M 2804
this is a . M 2256
that of a . M 1728
that of a ? M 549
that the i ? M 498
than in a . M 448
them in a . M 440
that in a . M 417
this be i ? M 414
that it i ? M 404
that the i . M 366
that is a . M 326
them to a . M 288
that the a ? M 286
that the s ? M 208
that if a . M 208
that of t . M 180
they or i ? M 168
them as a . M 160
that do i ? M 126
that of s . M 122
that he i ? M 122
this as a . M 116
that the a . M 114
that is i ? M 114
than as a . M 108
that if i . M 104
than at a . M 96
this in a . M 92
this am i ? M 92
that in a ? M 71
that of i ? M 55
that of i . M 49
that as a . M 48
that to i ? M 47
