far as we can M 740326
far as to say M 566263
far as the eye M 483852
far as it goes M 412866
far as he was M 362375
far as we are M 351803
far as it was M 294561
far as it can M 230611
far as it has M 198470
far as he can M 138202
far to the east M 109867
far as it may M 104006
far as the law M 60815
far as he has M 58487
far as he had M 55127
far as my own M 50000
far as it had M 45508
far in the rear M 44130
far as it does M 43254
far as in him M 33818
far as to ask M 32998
far as we may M 32958
far as the east M 28957
far as the new M 28525
far to the rear M 26717
far as the two M 25630
far as the end M 23917
far as in them M 23014
far as the old M 22446
far as to put M 21081
far as it did M 19841
far as the use M 19788
far as he may M 16862
far in the lead M 16457
far as he does M 15962
far as he did M 15946
far as to use M 15928
far as to see M 15242
far on the way M 15061
far as to try M 13956
far as to bring M 13154
far as to get M 12736
far as the head M 12372
far as he goes M 12027
far as the war M 11458
far as is now M 11134
far as it lay M 11008
far as to set M 10958
far as we now M 10796
far as the men M 10550
far as the top M 9918
far as the act M 9780
far as he got M 9573
far as the man M 9203
far as we had M 8991
far as in you M 8902
far as the real M 8696
far as the idea M 8493
far as we see M 8484
far as he and M 8358
far as to let M 8355
far as to lay M 8348
far as is yet M 8038
far it is not M 8005
far as the year M 7781
far as the red M 7679
far as the one M 7426
far we do not M 7326
far as the earth M 7305
far as we yet M 7190
far in the east M 6969
far as to add M 6954
far in the way M 6930
far as the non M 6837
far as the big M 6759
far be it for M 6666
far as in his M 6286
far as to pay M 6148
far as to lead M 5846
far as to buy M 5778
far as the long M 5726
far to go and M 5592
far as my eye M 5430
far as to read M 5419
far as to cut M 5370
far on my way M 5348
far as the area M 5243
far as the sun M 5195
far as he saw M 4921
far in the war M 4838
far as the air M 4801
far to go for M 4688
far to go with M 4382
far as in our M 4262
far as the age M 4018
far as in her M 3894
far as the death M 3863
far as the low M 3702
far as the poet M 3448
far on the path M 3396
far as in any M 3366
far as the mid M 3315
far to go now M 3244
far as the things M 3190
far as the day M 3155
far as the way M 3146
far as the boy M 2797
far as to fix M 2780
far as we did M 2756
far he or she M 2728
far as to sit M 2700
far as to ban M 2672
far as we got M 2615
far be it that M 2511
far as to beg M 2497
far as we saw M 2402
far as in this M 2328
far as the dead M 2234
far as the pre M 2233
far it is due M 2230
far as to run M 2208
far as the ego M 2202
far as it led M 2118
far as the bar M 2036
far as is not M 1992
far as to act M 1988
far as it got M 1910
far as the sum M 1869
far as the job M 1854
far as in its M 1824
far as the heat M 1808
far as the aim M 1804
far as the poem M 1790
far as the few M 1740
far in the new M 1731
far at the end M 1724
far as the near M 1640
far he is not M 1636
far as the mean M 1592
far as an act M 1584
far as the far M 1583
far as it now M 1570
far in the sky M 1550
far as he who M 1534
far as the path M 1504
far as the son M 1497
far as we act M 1476
far as the due M 1472
far as the sky M 1464
far is the one M 1449
far as the seat M 1447
far as the net M 1426
far as the dog M 1426
far in the air M 1422
far as we use M 1389
far as the six M 1373
far as we get M 1363
far as to lie M 1358
far as the fear M 1324
far in the area M 1322
far as the arm M 1314
far is it now M 1308
far as we and M 1268
far as he then M 1266
far up as they M 1264
far as he hath M 1264
far if he had M 1260
far in the use M 1258
far on my own M 1238
far as to this M 1238
far in the year M 1224
far as the rear M 1200
far in the path M 1138
far as by law M 1138
far as we arc M 1134
far as to beat M 1132
far as to bar M 1128
far in the dim M 1089
far to the end M 1083
far as to our M 1066
far as we hear M 1062
far as the all M 1056
far as we all M 1051
far as the key M 1044
far it is all M 1035
far as to hang M 1034
far as to bid M 1030
far as the don M 1008
far as the being M 1008
far as we mean M 992
far as to cry M 978
far as the map M 976
far as the then M 968
far on in his M 948
far as the lay M 940
far on the one M 933
far as at this M 928
far as my weak M 926
far as it hath M 920
far as no one M 904
far as the gap M 900
far in the things M 894
far as to that M 893
far as to die M 892
far the king had M 881
far is he god M 878
far if at all M 874
far as to fear M 856
far as the arc M 856
far by the end M 854
far as it then M 848
far as to his M 844
far as the set M 842
far in the poem M 838
far at an end M 826
far as the web M 820
far the king was M 816
far to me than M 810
far as an old M 802
far as the cut M 790
far as at all M 782
far in my own M 780
far as the ten M 776
far as in that M 775
far is the idea M 770
far to the top M 765
far as my being M 765
far it is easy M 762
far in the day M 757
far up as you M 754
far as the dry M 750
far as to fit M 734
far or be too M 722
far as the team M 722
far as the dim M 722
far in the long M 702
far as to own M 701
far as to not M 700
far as the god M 700
far is the use M 698
far if it had M 692
far as to bear M 692
far up the east M 691
far it is going M 684
far it is now M 676
far in the red M 676
far as to its M 676
far in the heat M 674
far as the plea M 672
far as he now M 672
far up as his M 660
far he is led M 650
far as to end M 650
far up the sky M 648
far to the near M 642
far as to hear M 638
far on the map M 636
far as to aid M 633
far as the bow M 628
far as we deal M 620
far as to you M 618
far as my old M 618
far as the wings M 614
far as to fly M 608
far we go with M 606
far as the bad M 606
far as an idea M 602
far to the red M 600
far in the end M 600
far as it yet M 588
far as by this M 588
far is the law M 585
far in the old M 585
far as in one M 578
far as by any M 572
far as the weak M 570
far as the pay M 570
far as to aim M 568
far as the pit M 568
far as my job M 566
far as it thus M 566
far as it being M 566
far to go yet M 562
far as we read M 562
far of the two M 561
far as by its M 560
far as the lead M 552
far in the one M 548
far as to arm M 548
far up as this M 546
far as the myth M 536
far as we put M 534
far up on his M 532
far to go that M 530
far as the bug M 530
far as it not M 530
far as me and M 526
far as the meat M 525
far as in both M 525
far to be with M 522
far as to win M 520
far as we men M 518
far as the aid M 516
far as by his M 514
far as to deal M 508
far as we try M 507
far as to mean M 504
far as my arm M 504
far in or out M 501
far as he too M 494
far as it too M 486
far is it due M 482
far in the two M 471
far as if they M 467
far is the new M 464
far is the sun M 462
far up as its M 460
far as the song M 460
far up on its M 456
far is to use M 452
far if we are M 452
far he is going M 450
far to do this M 448
far be the day M 448
far as the box M 448
far as at any M 448
far as the oath M 446
far at the head M 442
far up the red M 440
far as we two M 440
far as we then M 440
far it is real M 432
far as the lot M 432
far as my son M 432
far as the kings M 428
far as the cat M 428
far is the way M 423
far as the now M 423
far as the bear M 416
far as it and M 410
far up the leg M 408
far as my new M 406
far as the log M 404
far as it put M 404
far as the oak M 400
far as it both M 394
far of the new M 392
far in the sun M 390
far as at that M 390
far it is one M 388
far as to how M 388
far as it set M 388
far up as she M 386
far as we bring M 384
far as the wit M 382
far as to bet M 380
far up on one M 378
far as in all M 378
far is it that M 376
far in as you M 376
far up the long M 373
far in the earth M 373
far as in each M 372
far as my vow M 360
far as he thus M 358
far on the use M 354
far as king was M 354
far as we who M 352
far as the leg M 352
far as my going M 352
far in the near M 348
far if we say M 348
far as we both M 348
far at the rear M 347
far it is too M 342
far as to don M 342
far at the top M 341
far as we thus M 340
far as me being M 340
far as he yet M 340
far on the east M 339
far is it off M 336
far if he did M 336
far as to mix M 336
far as my age M 336
far as the run M 332
far as the eating M 329
far to go too M 328
far on the long M 328
far it is being M 328
far as the sin M 326
far as it saw M 324
far by the use M 321
far if we had M 318
far as the not M 316
far is the earth M 314
far if it was M 314
far in no way M 312
far as to them M 312
far as it ran M 312
far to go but M 311
far is the top M 311
far as in law M 310
far to be out M 309
far as to leap M 304
far as the pro M 304
far it is fit M 303
far as we aim M 303
far to the one M 301
far the thing was M 298
far in the real M 296
far as we say M 296
far as to bow M 294
far as to him M 292
far up in his M 290
far as the ease M 290
far as in man M 288
far in to get M 286
far to the idea M 284
far to the head M 284
far as the doing M 284
far as an eye M 284
far as my head M 282
far on in our M 278
far in it that M 278
far as to her M 278
far it is that M 276
far as the fly M 276
far up as her M 274
far it is and M 274
far as we was M 274
far as we ask M 272
far the thing has M 270
far as the era M 270
far up the path M 268
far on the wings M 268
far is the man M 268
far be it then M 266
far as to seat M 265
far it is our M 264
far in as they M 264
far as the singing M 264
far to be put M 260
far is it yet M 260
far is it not M 260
far up on her M 258
far as we set M 258
far it is his M 256
far as to vow M 256
far up the arm M 254
far as we too M 254
far to do that M 253
far as the out M 251
far it is but M 250
far up in that M 246
far the king and M 246
far as to box M 242
far as the ill M 240
far of the war M 239
far as to map M 238
far as we hang M 236
far as my wit M 236
far on in may M 234
far it is for M 234
far is as bad M 234
far as by them M 234
far as the for M 231
far up do you M 230
far as the and M 230
far up or too M 228
far in my way M 224
far is to get M 223
far it is off M 221
far is the old M 221
far as the bit M 221
far as my two M 221
far as we let M 220
far up in its M 218
far on the new M 218
far in the few M 218
far to do any M 216
far as to new M 216
far as if you M 214
far by the singing M 213
far as to heap M 212
far as the dying M 212
far is to say M 210
far as the kid M 210
far as by our M 210
far if he does M 208
far as to dip M 208
far the thing had M 204
far if we did M 204
far as if this M 204
far to go out M 202
far to be one M 202
far as to any M 202
far as the wet M 201
far is it all M 200
far as the lie M 200
far up in one M 198
far as the rings M 198
far to go ere M 196
far if he was M 196
far to be near M 195
far as is fit M 194
far as the dear M 193
far of the way M 192
far is he now M 192
far up the old M 190
far as to head M 190
far as he let M 190
far as be was M 190
far in to his M 188
far as is for M 188
far is he who M 186
far as an area M 186
far to go all M 184
far is it going M 182
far as to all M 182
far by the new M 180
far is it our M 178
far do the two M 178
far as to earn M 176
far to do him M 174
far to be any M 174
far it is out M 174
far is the end M 174
far if he can M 174
far as the going M 174
far as the easy M 174
far as the mad M 173
far the king can M 172
far if it does M 172
far as my real M 172
far as it all M 172
far to the old M 170
far to be thus M 170
far as to pre M 170
far up as one M 169
far as the may M 169
far as to one M 168
far as be can M 168
far up to this M 166
far up in her M 166
far to the bad M 166
far it is yet M 166
far in the wings M 166
far if we try M 166
far up as that M 165
far up to see M 164
far as we bear M 164
far as he put M 164
far as the fit M 163
far so as not M 162
far on as you M 162
far in as she M 162
far as we owe M 162
far as to heat M 162
far to the new M 160
far is it and M 160
far as my not M 160
far as he read M 160
far as by that M 160
far or so long M 159
far up on this M 158
far as we pay M 158
far is it for M 156
far as the meal M 156
far as the bias M 156
far up on our M 154
far on the day M 154
far is to put M 154
far he is one M 154
far as to why M 154
far as the joy M 154
far as my dear M 154
far as to who M 152
far as as they M 152
far is by way M 150
far as he that M 150
far as by god M 148
far do we get M 146
far be the sin M 146
far as tea was M 146
far as on him M 146
far as he not M 146
far as at one M 146
far as the saw M 145
far up it was M 144
far on the air M 144
far on in this M 144
far if he has M 144
far by the two M 141
far to go they M 140
far as we lay M 140
far as us being M 140
far to go this M 138
far on the bow M 138
far on in its M 138
far is it then M 138
far by the mid M 137
far as the cry M 136
far as he set M 136
far as he led M 136
far in the law M 134
far he is now M 134
far as the off M 133
far up in this M 132
far to be now M 132
far as my sad M 132
far of the use M 130
far he is being M 130
far as in and M 130
far is it out M 129
far we is not M 128
far as the deal M 128
far as the ash M 128
far as my men M 128
far as if she M 128
far as to toy M 126
far or it may M 124
far as the was M 124
far as to sum M 122
far to do her M 120
far to be set M 120
far is to see M 120
far as no two M 120
far up as new M 119
far as we with M 119
far as to dry M 119
far on the two M 117
far is he going M 116
far in the job M 116
far as to each M 116
far as my idea M 116
far as the too M 115
far is to try M 114
far is it his M 114
far in the big M 114
far as the gear M 114
far as the com M 114
far as it cut M 114
far as an easy M 114
far we be our M 112
far up or how M 112
far my king and M 112
far is to bring M 112
far is at all M 112
far as to long M 112
far as no new M 112
far as my things M 112
far as it pre M 112
far as it but M 112
far as an age M 111
far to my own M 110
far it is east M 110
far as to bang M 110
far as in doing M 110
far up in air M 108
far by the way M 108
far by the men M 108
far as the dip M 108
far as by being M 108
far to do with M 106
far or as long M 106
far on the old M 106
far is to add M 106
far as to ease M 106
far as the ban M 106
far in the mid M 105
far up the dim M 104
far up on both M 104
far on the dim M 104
far is the east M 104
far is it goes M 104
far as on one M 104
far as my end M 104
far as by him M 104
far as as far M 104
far as my singing M 103
far of the act M 102
far he is with M 102
far he is too M 102
far he is doing M 102
far by the heat M 102
far by the aid M 102
far as if all M 102
far he is out M 101
far to the long M 100
far on the earth M 100
far it is with M 100
far it is thus M 100
far is to set M 100
far in the dry M 100
far as we old M 100
far up we are M 98
far to the two M 98
far on the low M 98
far he is off M 98
far do we see M 98
far as to bug M 98
far as the dot M 98
far up to that M 96
far up to now M 96
far up or far M 96
far to be not M 96
far is the poem M 96
far as to air M 96
far as my aim M 96
far as is both M 96
far up in new M 94
far is in its M 94
far is he then M 94
far in the song M 94
far as to pro M 94
far as my way M 94
far as is and M 94
far up as our M 92
far the king has M 92
far on in her M 92
far it is this M 92
far in it was M 92
far as my area M 92
far as is due M 92
far in the low M 91
far as an end M 91
far to be his M 90
far on my long M 90
far as to wet M 90
far as the cup M 90
far as the are M 90
far to the low M 88
far to the eye M 88
far as of this M 88
far as my long M 88
far the thing may M 86
far on the top M 86
far it is both M 86
far by the war M 86
far as the mix M 86
far by the law M 85
far as my death M 85
far to go was M 84
far to go then M 84
far on to this M 84
far in the run M 84
far do we let M 84
far as to pit M 84
far as to and M 84
far of the men M 83
far up on that M 82
far to the use M 82
far to the big M 82
far to do them M 82
far is in any M 82
far in the head M 82
far if it has M 82
far as we fix M 82
far as on his M 82
far as he cut M 82
far in the age M 81
far up to hear M 80
far up the new M 80
far up it goes M 80
far is the long M 80
far is the god M 80
far in my head M 80
far if we can M 80
far on the war M 59
far as an all M 57
far in the dead M 55
far on as one M 49
far is the cry M 49
far in the non M 48
far is the two M 47
far in the pre M 47
far up the big M 45
far as the get M 44
far to be that M 43
far as an air M 43
far is the day M 41
far in so that M 40
fan is in his D 8874
far as the bay D 5699
fat in the pan D 5340
far as the art D 5204
far as the rue D 4787
far as the tax D 4586
far as the tip D 4412
far as to wear D 3236
far as the car D 2662
far on the ringing D 2416
far as the ice D 2306
fax it to you D 2026
fad of the day D 1995
far as the oil D 1938
far as the ears D 1876
far as the bed D 1791
fat as he was D 1738
far in the van D 1721
far up the bay D 1694
fat of the earth D 1665
far as to fay D 1646
fat in the dry D 1622
far as the sex D 1618
fat in the meat D 1546
far as the inn D 1459
fan of the new D 1402
far as the gas D 1354
far as the bus D 1322
fat in the fat D 1308
fat of the pig D 1291
far as to tear D 1230
fan at the top D 1190
fat at the end D 1094
far as the sub D 1045
far as the raw D 1029
far as to dub D 1024
fat of the hog D 980
fat of the meat D 963
far as to dig D 962
fat on the top D 956
far as the hon D 956
fat of the cow D 945
far as in thee D 910
far as to sue D 900
fan at the end D 888
far in the art D 873
far as to rob D 858
fat or an oil D 856
far as the peak D 828
fat on the meat D 825
far as the dam D 807
far as to tax D 781
far as to tie D 772
far as it doth D 714
far as the rim D 708
fat at the top D 691
far as the hip D 680
fat in the meal D 652
far as the toes D 640
far as the hut D 638
far as to hit D 628
far as the hot D 625
fat of the sin D 619
fan of the old D 615
fay it is not D 608
fat is the fat D 590
far as the beam D 586
far as the earl D 584
fat in the two D 576
far at sea and D 557
far as the seas D 539
fan in the air D 536
fat in the pot D 518
far as the ebb D 518
far as the eve D 505
fat on it and D 504
fat of the dead D 477
fat of the bear D 477
fax it to him D 474
far as ye can D 474
far as the fox D 456
far as the gun D 450
far as the per D 443
far as to pat D 438
far as the lion D 436
far as the fat D 436
fat of the seal D 435
fan of the team D 428
fat in it and D 414
far as to lean D 411
fat in the area D 400
far as the lung D 396
far as the fur D 392
fat as he can D 390
far as the fog D 380
far to sea that D 378
far as to fling D 378
far as the cap D 378
far as the thin D 364
fat in the rat D 362
far as the rod D 362
far as the egg D 362
fat to the pan D 354
fat of the egg D 354
far as the rat D 350
fat is by far D 348
far as ho was D 348
fat of the ram D 339
fat in the mix D 333
far to sea and D 330
fat of the rat D 327
far as the icy D 326
fat as it was D 324
far as the row D 324
fax it to them D 322
far as to tap D 318
far as the dean D 315
far as the van D 314
fan or an air D 311
fat in the egg D 310
far in the fog D 306
fat of the dog D 303
far as my pen D 302
far as ye are D 300
far as to pin D 298
fat in the head D 295
far as the ore D 295
fan on the top D 294
fat in the sun D 290
far as to rip D 290
fat or no fat D 286
fat by the use D 286
fat in the lean D 282
fat in the gut D 282
far in the bay D 277
fan up to her D 267
fat of the fat D 266
far as to rub D 264
fat is the one D 263
far up my ass D 263
far in the hot D 260
fan as if for D 260
fat of the two D 258
far as the mud D 257
far as the cow D 256
far as the pen D 252
far as my ears D 252
far as it met D 252
fad of the year D 250
far as the pith D 249
far as the ems D 248
fan at the rear D 248
far as the cab D 246
fat on the cut D 244
fat of the cat D 243
far as the gang D 242
fan at me with D 242
fax it to her D 240
fan of the big D 239
fat on the one D 238
far as to pen D 238
fat as he had D 236
fat of the new D 235
far as the tie D 235
fat of the bat D 234
fat in the way D 232
far as the leaf D 232
far as the orb D 229
fan of the man D 229
fat of the man D 228
far as the tin D 228
far as the mob D 226
far as an inn D 226
far as the jaw D 224
fan of the idea D 224
fay or do any D 221
far as the lip D 221
far to sea both D 220
far as it con D 220
fat in it than D 219
far as the wear D 218
fan on the air D 218
far at sea that D 216
far as the pub D 214
far as the gay D 214
far as the fig D 211
fat as if they D 208
far as the bee D 208
far as my dad D 208
far as the fun D 207
fat to be cut D 206
far as the doer D 206
fad of the mid D 206
far as the yang D 201
fan in the top D 200
fat by the end D 198
fat of the ham D 196
fang at the end D 190
fat it is not D 188
far as the fee D 188
far as the bath D 188
far as he doth D 188
far as to spy D 184
far as to seal D 182
far as the rib D 182
far as the hat D 182
far as the pin D 181
fat in the can D 180
fat as it does D 180
far as the pig D 180
far as my art D 180
fad in the mid D 180
fat of the head D 179
fat as we are D 178
far as the obi D 178
far as my hon D 176
fat to the top D 175
fat at the age D 175
far as the seal D 174
fan to the air D 174
fan of the way D 174
fag of the big D 174
fat to the lean D 172
fan of the air D 172
far as my bed D 171
fat in the long D 170
fat he or she D 170
far as the swing D 170
far as the sac D 170
far as the hub D 168
fat as it can D 166
far the sea has D 166
fat so it can D 164
fat or the lean D 164
far as the zoo D 164
far as the tang D 164
fan in the area D 164
fat of the lion D 163
fan in the rear D 163
far as the ray D 162
far as the ions D 162
fat on the war D 159
fat on the man D 159
fat in the ice D 159
far as to con D 159
far as ye may D 158
far as to rig D 158
far as my car D 158
fat of the leg D 156
far as to tip D 155
fan is the one D 155
fat in the new D 154
fad of the era D 154
far in the mud D 153
far as to nod D 152
far as the mac D 152
far as an art D 151
far as the pew D 148
far as the con D 148
fan on the end D 148
fat of the oil D 147
fat in the red D 147
fat is to use D 146
fat in the raw D 146
far as the shoe D 146
fag of the day D 146
far on the ice D 145
fat to the meat D 144
fat on the dry D 144
far as the lad D 144
far as the hem D 144
fat in the real D 143
fat to go with D 142
fat in the leg D 142
far in the car D 142
far as to pry D 142
far as to ape D 142
fan on or off D 141
fat as an old D 140
far up the bed D 140
far the sea had D 140
far at sea with D 140
far as to tinge D 140
fat in the cow D 139
far as the wad D 139
far as the wax D 138
far as the tap D 138
fan in the box D 138
fat if it has D 136
fan is in use D 136
fat in the pig D 134
far at sea for D 134
far as the pan D 134
far as the deaf D 134
fan at the head D 134
fat or the fat D 133
far as the ape D 133
fat as we can D 132
fat is so low D 130
fat in the low D 130
fat in the hip D 130
fay he is not D 129
fat to eat with D 129
fat as the fat D 129
far as the seam D 129
far as the ova D 128
far as the hinge D 128
far as the hay D 128
far as the guy D 128
far as the fan D 128
fan is the sum D 128
far as to wring D 126
far as the zeal D 126
far as the pot D 126
far as the beak D 126
far as the fir D 125
fat we do not D 124
fan on the bed D 124
fan on the arm D 124
fat to do any D 122
far is the car D 122
far as the sung D 122
far as the lac D 122
far as the nab D 121
far as the ram D 120
far as the heath D 120
far as the gut D 120
fad of my own D 120
fat to the meal D 118
fat is the real D 118
fat in the dog D 118
far as to sew D 118
far as to leak D 118
far as the hen D 118
far as the ham D 118
far as the cod D 118
fat ox or cow D 116
far as ho can D 116
fag us as they D 116
fat to the fat D 114
far to the lee D 112
far by sea and D 112
far as tho eye D 112
far as my mom D 112
fad of the age D 112
far as the lab D 110
fan as if she D 110
far the sea was D 108
far as to hum D 108
far as the met D 108
fan in the bow D 108
fat as to her D 106
far to the car D 106
far on the eve D 106
far as ah can D 106
far to sea for D 104
far as to dye D 104
fat in the air D 103
fay in my own D 102
far as to sow D 102
far as to dial D 102
fat or the thin D 100
fat as it had D 100
far in the thin D 100
far as to wax D 100
far as the ton D 100
fan of the song D 100
fan of the art D 100
far as to rap D 98
far as to hug D 98
fan in the sky D 97
fat on the new D 96
fat of an old D 96
far on the earl D 96
far as the tub D 96
far as the jet D 96
fan to go with D 96
fan or the air D 96
fat in the end D 95
fat of the meal D 94
fat as if she D 94
far as to bay D 94
fan on the east D 94
fan in the old D 94
fat of the emu D 92
far on the lee D 92
far as in fig D 92
fan at the age D 92
fag of my own D 92
fad of the few D 92
fat to be had D 90
fat as is not D 90
far as ho had D 90
far as he con D 90
fan to the end D 90
far as the axe D 89
fay at the end D 88
fat as the seat D 88
far as thy own D 88
fat on the way D 86
fan of the poet D 86
fan in the head D 86
fan at the far D 86
fan as he was D 86
fat to eat and D 84
fat or of fat D 84
far as to bed D 84
fat is the key D 83
fat or it may D 82
fat as he sat D 82
fat in the top D 81
far as the trio D 81
fat in the oil D 80
far as the spy D 80
fan is to get D 80
fat on the ham D 75
fan in an air D 69
far as is con D 62
fan of the red D 56
fat in the hot D 55
fan to the east D 55
fat in an egg D 54
far as the dung D 52
fat on the dead D 51
fat is in this D 51
far as the rig D 51
fat in the lung D 50
far as the dos D 50
fat at the head D 49
far as the elm D 49
fat of the hen D 47
fat in the old D 47
fan of the two D 47
fat on the head D 46
fat on the end D 46
fat is at all D 46
far as the peat D 45
far as the gum D 45
fan in the mid D 45
fan on the rear D 44
fat on the hog D 43
fat is in each D 43
far as the par D 43
fat as the one D 42
far as the ant D 42
far up the yang D 41
fat is the way D 40
