tea and went to M 2692
tea and some of M 1420
tea with lots of M 1386
tea can also be M 1288
tea all over the M 1218
tea with some of M 1106
tea was held in M 1080
tea was held at M 1066
tea and reading the M 1056
tea and trying to M 966
tea bag into the M 922
tea and left the M 880
tea and cake in M 866
tea was made in M 855
tea may also be M 824
tea and tell me M 816
tea and told me M 774
tea was ready in M 704
tea was made by M 682
tea and gave it M 618
tea was used as M 604
tea bag from the M 576
tea and went on M 572
tea was used to M 570
tea cup full of M 542
tea and take it M 542
tea was sent to M 532
tea and talk to M 518
tea and cake to M 504
tea was over he M 494
tea and lots of M 452
tea was over the M 448
tea and cake at M 436
tea and held it M 416
tea was laid on M 414
tea and gave me M 392
tea was laid in M 385
tea has been the M 384
tea and look at M 384
tea and pass the M 378
tea was made of M 364
tea out into the M 360
tea and food to M 348
tea and talk of M 342
tea was used by M 316
tea was held on M 307
tea and told us M 304
tea things into the M 300
tea and cake on M 298
tea and when he M 296
tea things from the M 294
tea and give it M 286
tea and pour it M 276
tea was over we M 264
tea and said to M 264
tea was used in M 260
tea and three or M 260
tea set from the M 254
tea and talk in M 242
tea and there is M 240
tea for half an M 238
tea and held the M 236
tea was said to M 232
tea and bits of M 232
tea are among the M 226
tea and used to M 226
tea and talk at M 224
tea may help to M 220
tea out onto the M 214
tea she went to M 210
tea and laid the M 208
tea had been the M 206
tea she told me M 202
tea bag over the M 202
tea and used as M 196
tea for some of M 192
tea has gone up M 190
tea was part of M 186
tea and more tea M 186
tea was sent in M 183
tea and make it M 178
tea and keep it M 176
tea was ready to M 174
tea bag into it M 174
tea and walk in M 174
tea and left it M 172
tea they went to M 170
tea and make the M 166
tea that will be M 164
tea can only be M 164
tea and when the M 164
tea and made the M 164
tea and felt the M 164
tea and said he M 158
tea are said to M 156
tea was ready he M 154
tea and gave the M 154
tea and came to M 154
tea and sent it M 152
tea and food in M 150
tea and eaten the M 150
tea you gave me M 148
tea had been in M 148
tea and tell us M 148
tea and made it M 146
tea set made by M 142
tea and when it M 142
tea and went up M 140
tea and give me M 140
tea and cake or M 140
tea cup down on M 138
tea are used as M 138
tea and most of M 138
tea she gave me M 136
tea and gave us M 136
tea and also to M 136
tea and made me M 134
tea cup from the M 132
tea and told the M 132
tea all over my M 132
tea had come to M 130
tea but when it M 130
tea and have it M 130
tea was made to M 128
tea has come to M 128
tea and think of M 128
tea and half an M 128
tea and cake as M 127
tea can help to M 126
tea and take the M 126
tea and sell it M 126
tea and gone to M 126
tea but also in M 124
tea and those of M 124
tea and risk of M 122
tea and only the M 122
tea and also the M 122
tea for those of M 120
tea and have the M 120
tea was ready on M 118
tea they gave me M 116
tea she used to M 116
tea and high tea M 116
tea and during the M 116
tea was like the M 114
tea are rich in M 114
tea and leave the M 114
tea and beating up M 114
tea things were on M 112
tea and from the M 108
tea you will be M 106
tea you have to M 106
tea was kept in M 106
tea may well be M 106
tea and half the M 106
tea and food at M 106
tea has been in M 104
tea are some of M 104
tea set made of M 102
tea has made me M 100
tea and tell the M 100
tea and into the M 100
tea act gave the M 100
tea was left to M 98
tea but also to M 98
tea and wash the M 98
tea was just the M 96
tea she gave us M 96
tea and taking it M 96
tea and keep the M 96
tea and said it M 94
tea and open the M 94
tea and meet the M 94
tea and fill the M 94
tea was made at M 92
tea was left in M 92
tea was held to M 92
tea had been an M 92
tea and when we M 92
tea and wash up M 92
tea and told to M 92
tea and talk on M 92
tea and said in M 92
tea they used to M 90
tea they gave us M 90
tea sat down to M 90
tea and paying the M 90
tea and leave it M 90
tea and clean the M 90
tea she said to M 88
tea and sets it M 88
tea and made no M 88
tea was able to M 86
tea out here in M 86
tea did nothing to M 86
tea being over by M 86
tea any time of M 86
tea and meet my M 86
tea and half of M 86
tea and cake by M 86
tea all over me M 86
tea did much to M 84
tea and time to M 84
tea and taking the M 84
tea and food on M 84
tea was made on M 82
tea now coming to M 82
tea and were on M 82
tea and part of M 82
tea and clean my M 82
tea has made the M 80
tea and puts it M 80
tea and many of M 80
tea and warm up M 56
tea and took it D 1732
tea with cream in D 654
tea with milk in D 634
tea and silk in D 608
tea and silk to D 556
tea was sold in D 480
tea and bread in D 478
tea and took the D 440
tea was sold at D 382
tea and bread to D 340
tea and bags of D 318
tea with milk or D 312
tea and buns in D 286
tea and rose to D 282
tea and buns at D 254
tea and bread at D 222
tea and milk in D 218
tea and rice in D 212
tea for sale at D 208
tea and threw it D 204
tea with milk is D 201
tea was sold to D 194
tea and bread or D 192
tea and silk of D 186
tea and iced tea D 158
tea and threw the D 152
tea and bread on D 152
tea and rice to D 150
tea for sale in D 148
tea and stir it D 148
tea and paid the D 148
tea and cups of D 148
tea was sold by D 144
tea and wine in D 144
tea and silk at D 142
tea and gazing at D 136
tea and wine to D 132
tea and buns to D 124
tea and took my D 120
tea and milk to D 120
tea and beef tea D 120
tea and jute in D 118
tea and eggs in D 118
tea and silk as D 115
tea and milk as D 112
tea and silk on D 106
tea with milk at D 104
tea with salt in D 94
tea and cups on D 90
tea with milk to D 88
tea and silk we D 88
tea and milk at D 88
tea and bringing it D 86
tea and silk it D 84
tea and bowl of D 84
tea and tins of D 82
tea and sold it D 82
tea and chat in D 82
tea and soup to D 80
tea and salt to D 80
tea and bread as D 46
