tea and cake . M 4414
tea was ready . M 4250
tea and talk . M 1854
tea and food . M 1332
tea was over . M 1268
tea was made . M 1082
tea was cold . M 814
tea and left . M 652
tea was good . M 444
tea for three . M 340
tea this time . M 324
tea get cold . M 278
tea and rest . M 278
tea was gone . M 256
tea with meals . M 234
tea and cake ? M 228
tea any more . M 198
tea and wait . M 188
tea was laid . M 174
tea out there . M 170
tea and reading . M 160
tea and meals . M 148
tea with mine . M 146
tea for years . M 144
tea and fish . M 142
tea out here . M 138
tea may help . M 132
tea things away . M 126
tea out here ? M 120
tea and cloth . M 120
tea any time . M 118
tea cup down . M 106
tea you want . M 100
tea had come . M 100
tea all ready . M 100
tea things ready . M 96
tea was fine . M 90
tea you like . M 88
tea was held . M 84
tea got cold . M 82
tea for nothing . M 80
