tea in a cup M 1756
tea in a few M 766
tea or a meal M 746
tea or a cup M 552
tea in a big M 478
tea in a day M 308
tea in a bag M 258
tea in a long M 230
tea as a meal M 204
tea in a can M 199
tea or a few M 198
tea at a low M 176
tea as a way M 158
tea or a bit M 150
tea to a man M 140
tea in a box M 132
tea to a few M 130
tea at a long M 128
tea is a meal M 126
tea in a year M 121
tea as i was M 118
tea on a low M 116
tea in a bit M 116
tea on a day M 112
tea is a bit M 106
tea is a way M 98
tea if i was M 98
tea in a real M 96
tea is a long M 90
tea in a way M 90
tea at a meal M 90
tea if i saw M 88
tea if i may M 84
tea as i had M 84
tea is a cup M 80
tea is a low M 41
tea on a hot D 916
tea in a tin D 774
tea in a pot D 772
tea in a mug D 394
tea in a jug D 170
tea or a hot D 168
tea on a gas D 146
tea by a deaf D 100
tea in a pan D 96
tea in a jar D 84
