terms and as a M 13094
terms and in a M 5604
tells him of a M 4626
terms this is a M 4385
teaching job in a M 3110
teaching can be a M 3052
teaching job at a M 2925
testing can be a M 2729
tells him in a M 2320
terms but as a M 2072
teaching and as a M 2048
tests can be a M 1928
tells you of a M 1888
tells how as a M 1852
terms and on a M 1834
testing may be a M 1734
tells them of a M 1640
tests may be a M 1624
terms may be a M 1582
tells her of a M 1580
terms not of a M 1538
terms and at a M 1484
tells her in a M 1480
teaching may be a M 1375
tells you in a M 1374
tells them in a M 1274
terms can be a M 1208
terms are in a M 1206
teaching was of a M 1154
terms than as a M 1140
tests are of a M 1134
testing them in a M 1127
terms that in a M 1095
teaching them in a M 1028
tells you at a M 988
texts are in a M 928
terms but in a M 906
texts are of a M 860
tells you if a M 832
texts and as a M 752
tests led to a M 724
tests and as a M 716
terms and is a M 670
testing them on a M 665
terms both of a M 660
tells how in a M 656
terms are of a M 652
terms and to a M 630
tells him is a M 620
terms that if i M 604
terms one at a M 584
tells you is a M 576
testing this is a M 564
teaching and to a M 544
terms due to a M 534
texts may be a M 530
terms led to a M 530
tests lead to a M 524
texts can be a M 510
teaching was in a M 506
teaching not as a M 504
tests run on a M 494
terms lead to a M 490
terms set by a M 488
tests and by a M 478
texts and to a M 474
teaching job as a M 474
tests are in a M 468
testing and as a M 463
terms out of a M 444
tells how on a M 442
terms and of a M 436
teaching and in a M 436
tests and in a M 430
teaching led to a M 428
teaching and is a M 427
texts out of a M 422
teaching out of a M 418
terms mean in a M 408
tells how at a M 406
terms and by a M 404
terms are to a M 386
teaching but as a M 377
texts but as a M 376
texts and in a M 370
terms that if a M 346
teaching that if a M 322
tests and is a M 320
tells that as a M 314
testing out of a M 310
teaching and of a M 308
testing led to a M 306
tests and to a M 304
terms that is a M 296
tends thus to a M 294
teaching was on a M 289
tells that in a M 280
teaching that is a M 278
texts led to a M 276
tests and on a M 276
teaching them as a M 276
teaching was at a M 269
terms than in a M 268
teaching was to a M 264
testing and is a M 258
tests are to a M 256
tells not of a M 250
tests this is a M 248
tests one at a M 234
terms that as a M 230
teaching him in a M 228
texts are to a M 226
tests out of a M 224
teaching them to a M 224
texts and is a M 218
teaching math in a M 218
tests due to a M 212
texts and by a M 210
tests are as a M 210
terms but at a M 208
tells him at a M 206
tells them is a M 202
tests them in a M 189
teaching and by a M 189
tells this in a M 186
teaching aid in a M 185
tests are on a M 184
tends not to a M 184
tests run at a M 178
terms but by a M 178
testing due to a M 174
tells that on a M 174
tests run in a M 172
testing and to a M 172
tells that at a M 170
terms are as a M 168
tells you as a M 168
tests each by a M 167
terms with in a M 166
teaching and be a M 166
texts and on a M 164
testing them as a M 162
texts not as a M 160
terms owing to a M 160
texts set up a M 158
testing that is a M 158
terms not as a M 158
tests are at a M 156
terms both as a M 156
tells that if a M 156
teaching them is a M 156
testing him in a M 154
tenet are in a M 152
teaching aid is a M 149
tells you on a M 148
tells men of a M 146
teaching are in a M 142
texts and of a M 140
terms with as a M 140
terms not be a M 140
terms but on a M 140
terms with it a M 138
tells him as a M 138
teaching team in a M 138
teaching him as a M 138
terms than by a M 136
teaching both as a M 136
texts are as a M 134
tests was of a M 132
tests and of a M 132
terms she is a M 132
terms are at a M 132
teaching them on a M 132
tests act as a M 130
terms act as a M 128
teaching that in a M 127
tests but as a M 126
teaching math at a M 125
terms are on a M 124
tells her is a M 124
texts act as a M 122
tests are the t M 122
teaching and on a M 120
terms than on a M 118
terms but is a M 118
tells this as a M 118
teaching team is a M 118
tells all in a M 116
teaching law at a M 115
teaching law as a M 113
testing and in a M 110
terms with it i M 110
teaching but to a M 110
terms not in a M 108
testing and on a M 105
texts but in a M 104
teaching law in a M 104
tells her at a M 102
texts both as a M 100
testing one at a M 99
teaching job is a M 99
texts than as a M 98
teaching this is a M 98
texts that in a M 96
testing them by a M 96
terms that to a M 96
terms and be a M 96
teaching job or a M 96
texts but is a M 90
tests and do a M 90
teaching you in a M 90
teaching but in a M 90
texts was of a M 88
terms was in a M 88
terms but to a M 88
terms and if i M 88
teaching are of a M 88
teaching was as a M 87
tests using the t M 86
teaching them at a M 86
testing this on a M 84
texts one at a M 82
texts but on a M 82
testing this in a M 82
testing them at a M 82
teaching this to a M 82
tests for the a M 74
teaching than as a M 56
teaching act as a M 53
texts read in a M 45
teaching that as a M 44
teaching and so i M 43
texts read by a M 40
testing one or a M 40
telling him of a D 5158
telling him in a D 3717
telling you of a D 2554
teddy bear of a D 2184
telling them in a D 2158
telling her of a D 2020
telling her in a D 1988
telling them of a D 1836
telling that to a D 1721
tempt him to a D 1672
teddy bear or a D 1539
tempt you to a D 1171
telling you as a D 1096
telling this to a D 1056
telling you in a D 906
teddy bear in a D 898
tempt them to a D 696
telling you is a D 666
tempo and in a D 648
teddy bear as a D 646
tending bar in a D 635
teddy bear is a D 572
teased out in a D 562
teaching art in a D 562
teased out of a D 542
tending bar at a D 513
teaching art at a D 474
telling you if i D 438
tense and in a D 428
tempt her to a D 406
telling him as a D 390
terry was in a D 372
telling them to a D 370
teddy bear on a D 366
teased her in a D 366
teased out on a D 350
teased him in a D 328
teddy bear to a D 326
tempt one to a D 297
telling him as i D 288
tether him to a D 271
telling her as a D 264
telling how as a D 256
telling that in a D 254
telling you as i D 242
tense and of a D 235
tents are of a D 234
telling you is i D 234
teased him as a D 226
tents are in a D 210
telling use of a D 204
telling can be a D 204
tether them to a D 198
tents and in a D 188
teddy was in a D 188
tense all of a D 185
teased out by a D 184
telling how in a D 180
telling may be a D 178
telling him if i D 172
telling him at a D 172
teeny bit of a D 171
telling them is a D 166
tempt them by a D 164
teens can be a D 164
teens are in a D 160
teens are at a D 160
tense and as a D 156
telling this as a D 156
teaching art as a D 154
tending them as i D 150
tempt him by a D 146
telling you or i D 134
teased her as a D 132
tents set in a D 125
telling him on a D 124
tether her to a D 112
terry was on a D 110
tempt him in a D 110
telling things to a D 110
telling things is a D 110
teaching art is a D 108
telling you if a D 100
telling her as i D 100
tense and to a D 99
teens and as a D 96
telling them as a D 92
telling all in a D 92
teens and is a D 92
telling this in a D 90
telling them as i D 90
tending them in a D 88
tempt eve in a D 88
telling you so i D 88
telling things in a D 88
telling all to a D 88
telling you at a D 86
terry set up a D 84
tense due to a D 83
tenor sax in a D 71
tempt men to a D 55
telling and as a D 53
teddy bear at a D 49
tense may be a D 42
tempo and to a D 42
tempo and at a D 42
