terms of a given M 18404
terms of a model M 17923
terms of a trust M 12534
terms of a fixed M 11738
terms of a small M 11594
tells of a woman M 10454
terms of a change M 9644
terms of a linear M 9222
terms of a power M 7578
teaching as a whole M 6966
tells us a story M 6742
terms of a basic M 6281
terms of a world M 6279
terms of a large M 6204
terms of a state M 6056
tells of a visit M 5922
terms of a total M 5518
terms of a shift M 5512
terms of a moral M 5510
terms of a group M 5327
terms of a human M 5277
terms of a class M 4962
tells me i shall M 4712
terms of a whole M 4466
tends to a limit M 4412
terms of a local M 4382
terms of a wider M 4199
terms of a scale M 3969
tells me a story M 3946
terms of a lower M 3920
terms of a legal M 3678
teaching in a small M 3457
tells of a group M 3450
terms of a final M 3426
terms of a sense M 3420
terms of a child M 3349
texts as a whole M 3287
testing of a large M 3216
terms of a right M 3165
tests on a large M 3022
tells me i ought M 2986
terms of a woman M 2945
terms of a valid M 2858
terms of a search M 2759
terms of a major M 2752
terms of a rather M 2736
terms of a known M 2716
terms of a joint M 2689
terms of a strong M 2636
terms of a first M 2607
terms in a given M 2526
terms of a growing M 2480
terms of a notion M 2408
tells of a meeting M 2346
terms of a value M 2334
testing of a model M 2285
tests of a model M 2283
terms of a logic M 2248
terms of a short M 2198
terms of a force M 2196
tests to a group M 2170
terms of a field M 2154
terms of a truce M 2150
tells of a child M 2113
terms of a grant M 2074
terms of a writing M 2049
terms of a story M 2025
teaching as a moral M 1962
terms of a point M 1914
tests as a whole M 1900
terms of a later M 1816
teaching at a small M 1784
terms of a labor M 1756
terms of a vision M 1740
terms of a graph M 1738
terms of a chain M 1727
terms of a price M 1678
terms of a draft M 1678
teaching at a local M 1648
tells of a small M 1628
terms of a phase M 1612
terms of a cross M 1578
terms of a space M 1574
tests on a model M 1533
terms as i could M 1528
terms of a stream M 1503
tests on a small M 1502
tells of a mother M 1502
terms of a steady M 1450
terms of a cause M 1432
terms in a sense M 1412
terms of a working M 1362
terms of a money M 1353
terms of a cycle M 1292
terms of a period M 1276
terms of a quest M 1270
tends to a value M 1270
tells of a father M 1270
terms of a vague M 1252
terms of a place M 1244
terms of a grand M 1243
teaching in a large M 1238
terms of a learning M 1228
tests to a large M 1222
tests of a large M 1206
terms of a share M 1202
terms as a state M 1158
teaching of a class M 1150
tests of a given M 1132
terms of a royal M 1128
tests in a given M 1124
terms of a lasting M 1124
terms of a black M 1116
teaching of a given M 1104
terms of a fully M 1088
terms of a claim M 1088
terms of a frame M 1084
tells of a vision M 1082
terms of a longer M 1032
teaching is a major M 1028
terms of a binding M 1012
testing is a method M 1009
terms as a whole M 1006
teaching in a local M 1004
tests on a group M 1002
terms of a growth M 994
teaching in a girls M 994
terms of a stage M 989
tests as a guide M 986
terms of a method M 984
texts of a given M 974
terms of a table M 945
tells of a large M 934
testing as a method M 930
teaching in a given M 926
terms of a close M 920
tests in a group M 917
tests on a given M 911
testing is a major M 910
testing on a large M 908
terms of a unity M 896
terms of a people M 894
tells me i could M 890
terms of a mother M 886
terms in a query M 882
terms of a false M 868
terms of a limit M 862
tells of a black M 862
terms of a feeling M 860
terms of a focus M 848
texts in a given M 834
terms of a party M 830
terms of a brief M 814
teaching of a child M 808
terms of a truly M 802
terms of a mixed M 802
terms of a sound M 800
terms of a healthy M 800
tells of a party M 796
tests in a large M 794
terms of a white M 791
tells of a white M 790
tends to a steady M 788
teaching at a girls M 784
terms of a study M 780
terms of a still M 778
testing at a later M 777
teaching in a junior M 777
tends to a state M 770
terms of a newly M 768
texts in a world M 766
terms at a later M 765
terms of a daily M 757
terms of a solid M 754
teaching is a moral M 744
tests at a given M 740
tells of a slave M 740
teaching in a world M 735
terms in a model M 734
terms of a quite M 733
teaching in a state M 728
terms of a civil M 720
tells of a people M 714
testing of a given M 708
terms of a mapping M 707
teaching is a noble M 706
terms of a drive M 698
tells me i might M 698
terms of a fluid M 696
tends to a point M 688
terms of a father M 684
tells of a world M 683
tests at a later M 677
testing of a group M 674
teaching of a large M 668
terms of a color M 662
testing of a small M 660
testing on a small M 658
terms of a block M 651
testing of a child M 650
terms of a rough M 640
teaching as a calling M 635
terms of a motion M 626
teaching is a light M 619
terms of a vital M 610
terms of a plane M 608
terms of a loose M 605
tests of a group M 600
terms of a fight M 587
terms of a green M 580
tests as a method M 578
terms of a house M 578
terms in a search M 572
tends to a fixed M 567
teaching as a major M 564
terms of a poetic M 562
tests in a small M 560
testing in a large M 556
testing as a guide M 554
tells of a wealthy M 550
tells of a fight M 548
terms of a seven M 546
terms of a light M 538
teaching in a nearby M 538
terms of a viable M 532
terms of a style M 531
tells of a place M 528
tells of a night M 526
terms of a water M 521
terms of a meeting M 518
tends to a final M 518
terms of a plant M 517
teaching as a method M 514
terms in a power M 510
terms of a clock M 508
teaching is a calling M 508
terms as a group M 503
teaching at a junior M 502
tests as a group M 501
terms of a trend M 498
terms of a denial M 490
terms in a later M 480
terms of a gross M 474
texts of a later M 473
tells of a story M 473
terms of a noise M 468
teaching in a class M 460
terms of a fourth M 458
teaching at a nearby M 457
testing is a vital M 454
tells of a local M 452
teaching of a group M 452
teaching at a large M 451
terms of a quick M 448
terms of a naive M 448
tests in a short M 444
teaching is a method M 443
tells of a study M 436
tests in a study M 432
teaching is a vital M 429
teaching of a topic M 422
tests on a scale M 418
terms of a piece M 410
terms is a major M 408
terms to a large M 400
terms as a place M 400
terms of a query M 394
tends to a lower M 386
tells of a blind M 386
teaching at a major M 386
terms of a match M 384
tells of a house M 378
teaching in a black M 378
tests of a sound M 375
teaching in a house M 370
tells of a period M 369
testing as a whole M 366
terms of a varying M 365
terms in a world M 361
teaching of a moral M 358
teaching is a human M 356
terms of a spread M 355
terms in a rather M 354
tells of a noble M 346
teaching to a group M 346
terms of a topic M 344
terms in a short M 344
teaching in a place M 344
terms of a yield M 343
tends to a large M 336
terms of a happy M 332
terms at a given M 330
tests is a major M 328
teaching at a later M 327
terms in a loose M 322
teaching in a group M 322
tests as a first M 321
terms of a never M 320
terms of a noble M 318
teaching at a state M 317
terms of a leader M 316
teaching in a field M 316
terms of a river M 312
teaching of a father M 311
testing is a waste M 309
terms as a first M 307
terms in a paper M 306
texts of a large M 304
terms as a model M 303
testing in a given M 301
texts as a group M 300
terms in a large M 299
tests as a check M 298
terms of a falling M 294
terms of a yearly M 292
testing in a group M 291
terms in a linear M 287
teaching on a daily M 286
teaching of a small M 286
terms of a super M 285
teaching on a large M 282
tests in a quiet M 280
teaching is a teaching M 279
tests of a small M 278
terms of a reader M 278
teaching in a first M 278
terms to a given M 274
terms of a layer M 274
testing in a small M 272
terms of a delay M 272
teaching at a women M 272
terms of a count M 270
tells me i never M 270
tells of a first M 268
tests of a child M 266
terms of a shape M 266
texts as a guide M 264
terms in a claim M 264
terms of a teaching M 263
terms to a group M 262
teaching of a method M 262
tells of a rather M 260
tells of a brave M 260
teaching as a woman M 260
terms of a tight M 258
terms of a reply M 258
tells of a whole M 256
tells of a strong M 256
teaching at a black M 254
tends to a habit M 250
tells of a happy M 250
tells of a magic M 249
testing of a method M 248
terms at a meeting M 248
testing of a water M 246
teaching to a large M 246
teaching as a guide M 246
terms in a field M 244
tells of a change M 244
terms of a paper M 243
terms of a harsh M 242
terms in a class M 241
tells of a demon M 240
teaching of a basic M 240
teaching as a first M 240
terms in a state M 239
terms of a visit M 238
terms of a pupil M 238
teaching of a whole M 238
teaching at a given M 238
terms as a period M 237
texts on a given M 236
terms as i shall M 236
tells of a storm M 236
terms as a woman M 234
teaching in a mixed M 234
teaching to a focus M 233
terms of a really M 232
terms as a method M 232
teaching to a learning M 231
terms of a trace M 230
terms in a writing M 230
tells is a story M 230
teaching as a learning M 230
terms of a plain M 229
terms of a shell M 226
terms of a lengthy M 226
terms of a kingdom M 225
terms of a fifty M 225
terms as a change M 224
teaching of a false M 224
tests in a civil M 222
terms as a judge M 222
terms as a class M 222
teaching as a field M 222
texts at a later M 221
terms of a crime M 221
texts to a wider M 220
texts is a major M 220
terms of a gauge M 220
teaching on a given M 220
testing as a first M 219
teaching as a model M 219
testing as a major M 218
terms of a vivid M 218
terms as a major M 218
tells of a search M 218
terms of a habit M 216
tells of a later M 216
terms of a round M 213
terms of a slave M 212
terms of a nearly M 212
terms in a group M 212
tells me a piece M 212
terms of a voice M 210
tells of a human M 210
tests on a daily M 208
terms of a guiding M 208
terms of a blood M 208
terms as a human M 208
testing is a valid M 207
terms of a decay M 206
tells of a newly M 206
teaching in a night M 206
terms of a warning M 202
terms of a running M 202
terms at a lower M 202
testing at a given M 200
terms as a shift M 200
tends to a linear M 200
tells of a queen M 200
teaching is a tough M 199
testing of a whole M 196
terms of a civic M 196
terms of a brain M 196
tells of a drive M 196
terms on a scale M 194
tends to a small M 194
tells of a proud M 194
tends as a whole M 193
terms of a reason M 190
texts as a model M 189
tests at a lower M 188
terms of a forum M 188
terms in a chain M 188
tenet of a small M 188
tells of a brief M 188
teaching in a women M 188
terms as a guide M 186
teaching is a basic M 186
terms as a legal M 184
tells me a woman M 184
terms of a label M 182
terms to a woman M 180
tells of a river M 178
tells of a class M 178
testing of a newly M 177
terms of a thirty M 177
tells of a major M 176
testing of a scale M 175
terms of a quiet M 174
teaching as a noble M 174
testing of a class M 173
teaching at a lower M 173
tests at a local M 172
tests at a fixed M 172
terms in a study M 172
terms in a small M 172
tests to a small M 170
terms of a blind M 170
teaching of a first M 169
texts of a draft M 168
terms to a small M 168
terms of a weaker M 168
terms in a wider M 168
terms by a large M 168
tells me a whole M 168
texts on a large M 166
tests of a healthy M 166
terms in a period M 166
tests to a class M 164
terms of a named M 164
teaching to a child M 163
terms is a basic M 162
texts in a rather M 160
texts as a point M 160
tests in a cross M 160
terms of a train M 160
terms of a sharing M 160
terms of a check M 160
terms or a total M 159
terms of a theorem M 159
tells of a short M 158
tells of a pupil M 158
terms of a closing M 157
terms in a legal M 157
texts in a sense M 156
terms of a judge M 156
tells of a state M 156
teaching of a wider M 156
terms as a child M 155
teaching to a class M 155
testing in a study M 154
terms of a thinking M 154
tests to a child M 152
testing on a group M 151
terms of a missing M 151
teaching to a small M 151
testing of a wider M 150
terms to a model M 150
teaching is a waste M 150
testing on a daily M 149
teaching of a sound M 149
teaching of a later M 149
teaching in a whole M 149
texts in a wider M 148
tests as a major M 148
terms in a brief M 148
tells of a growing M 148
tells of a grand M 148
teaching as a viable M 148
testing of a piece M 146
testing is a search M 146
terms in a first M 146
tells of a cruel M 146
teaching in a model M 146
tests in a testing M 145
tells of a still M 145
teaching of a mother M 145
teaching as a vital M 145
terms as i might M 144
tells of a royal M 144
terms as a force M 143
teaching in a short M 143
teaching at a place M 143
terms of a forty M 142
tells of a quest M 142
teaching in a writing M 142
tests on a piece M 141
tells of a plant M 141
tests in a class M 140
testing of a major M 140
terms at a fixed M 140
tells of a judge M 140
teaching is a prime M 140
terms of a passing M 139
terms of a lived M 139
teaching to a wider M 139
tests of a valid M 138
terms of a women M 138
tells us a whole M 138
testing of a fully M 137
texts in a style M 136
testing is a quick M 136
terms of a which M 136
terms as a moral M 136
terms as a linear M 136
tells of a close M 136
terms of a proof M 134
terms of a guide M 134
terms of a drift M 134
terms of a buyer M 134
terms as a white M 134
terms as a power M 134
tells me i still M 134
teaching of a local M 134
teaching of a human M 134
teaching so i could M 133
texts of a group M 132
testing is a testing M 132
testing is a large M 132
testing if a given M 132
terms of a fault M 132
terms in a table M 132
tends to a rather M 132
teaching in a major M 132
tests in a water M 131
texts of a period M 130
tests on a total M 130
tests in a later M 130
tests by a group M 130
terms of a newer M 130
terms by a group M 130
tells of a kingdom M 130
teaching of a woman M 130
terms of a crack M 129
terms of a board M 129
terms in a fixed M 129
teaching as a basic M 129
texts of a legal M 128
tests to a given M 128
tests is a large M 128
tests in a teaching M 128
testing of a blood M 128
terms to a point M 128
terms of a prime M 128
terms as a small M 128
tells of a method M 128
teaching in a tough M 128
testing is a rather M 127
tells of a power M 127
testing at a lower M 126
terms of a storm M 126
terms of a stand M 126
terms of a turning M 125
texts as a major M 124
tests in a model M 124
testing of a power M 124
terms in a labor M 124
terms as a piece M 124
tells of a seven M 124
terms in a strong M 122
teaching on a small M 122
teaching is a rather M 121
texts on a topic M 120
tests of a scale M 120
tests by a large M 120
terms to a buyer M 120
terms of a grasp M 120
tells of a walking M 120
tests so i could M 119
terms of a drawing M 119
texts on a scale M 118
testing of a woman M 118
testing in a child M 118
tests in a child M 117
terms of a nursing M 117
teaching to a close M 117
texts in a field M 116
tests on a blood M 116
tests of a method M 116
tests is a proof M 116
testing is a basic M 116
terms in a joint M 116
tells of a trick M 116
tells of a final M 116
teaching is a denial M 116
teaching is a viable M 115
testing on a wider M 114
terms of a ruler M 114
terms of a meter M 114
terms if i could M 114
terms at a price M 114
terms as a study M 114
terms as a slave M 114
tells of a thirty M 114
tells me i write M 114
teaching of a major M 114
teaching is a strong M 114
tests of a rather M 112
terms of a yearning M 112
terms in a quite M 112
tells of a nurse M 112
terms of a start M 111
terms of a calling M 111
teaching is a field M 111
texts as a place M 110
tests of a truly M 110
tells of a leader M 110
teaching is a model M 110
teaching is a large M 110
tests of a class M 109
testing of a first M 109
tests of a woman M 108
tests as a valid M 108
testing of a brief M 108
terms of a magic M 108
tends to a happy M 108
tells me i sound M 108
teaching as a child M 107
tests on a local M 106
testing in a later M 106
terms of a press M 106
terms of a build M 106
terms as a world M 106
tells of a fourth M 106
tells me i really M 106
tells as a light M 106
teaching of a world M 106
tells of a hunting M 105
tells in a plain M 105
testing on a given M 104
terms on a given M 104
terms of s rather M 104
terms of a route M 104
teaching of a people M 104
teaching in a later M 103
tests of a thriving M 102
testing in a world M 102
terms to a search M 102
terms of a willing M 102
terms of a danger M 102
terms is a rather M 102
terms at a point M 102
terms as a large M 102
tells of a field M 102
teaching is a cause M 102
texts in a large M 100
terms to a whole M 100
terms of a worst M 100
terms of a vocal M 100
terms of a slowing M 100
terms of a music M 100
terms of a front M 100
tends to a change M 100
tells of a piece M 100
tests as a teaching M 99
testing on a local M 99
terms as a basic M 99
texts at a given M 98
testing at a local M 98
terms to a meeting M 98
terms of a holding M 98
terms of a failing M 98
terms of a built M 98
terms is a sense M 98
terms in a valid M 98
tells of a ruler M 98
terms of a floor M 97
teaching on a point M 97
texts by a group M 96
terms of a waste M 96
terms of a virus M 96
terms of a units M 96
terms of a deity M 96
terms of a cloud M 96
terms in a final M 96
terms as a quest M 96
tends to a feeling M 96
tells of a train M 96
teaching of a piece M 96
teaching in a woman M 96
testing on a scale M 95
terms of a wound M 95
tests as a child M 94
testing is a viable M 94
terms of a burning M 94
terms is a vital M 94
terms is a large M 94
terms as a strong M 94
terms as a sense M 94
teaching on a topic M 94
terms to a fixed M 93
tests of a people M 92
tests in a scale M 92
tests in a period M 92
terms of a usual M 92
tends to a given M 92
texts of a small M 90
texts as a woman M 90
tests is a valid M 90
testing is a small M 90
testing as a check M 90
terms of a where M 90
terms of a store M 90
terms is a strong M 90
terms is a state M 90
terms by a joint M 90
terms as a story M 90
terms as a search M 90
tells us a world M 90
texts to a small M 88
texts to a large M 88
tests in a search M 88
testing as a valid M 88
terms of a fable M 88
terms in a story M 88
terms as i found M 88
terms as a false M 88
tells us a rather M 88
teaching is a daily M 88
teaching as a deadly M 88
tests of a linear M 86
tests at a large M 86
tests as a model M 86
terms to a world M 86
terms to a wider M 86
terms in a local M 86
tests is a small M 85
terms as a point M 85
teaching in a brief M 85
texts in a period M 84
texts by a given M 84
texts as i could M 84
tests of a really M 84
tests as a final M 84
testing by a group M 84
terms of a scope M 84
terms in a basic M 84
terms by a small M 84
tells us a child M 84
tells of a quiet M 84
tells of a morning M 84
teaching of a slave M 84
texts in a state M 82
texts as a method M 82
terms of a lapse M 82
terms of a curse M 82
terms is a proof M 82
terms in a vague M 82
teaching in a block M 81
texts in a later M 80
tests is a strong M 80
terms of a deadly M 80
tenet as a first M 80
tends to a moral M 80
tends in a given M 80
tells of a reply M 80
tells of a hungry M 80
teaching as a father M 80
testing of a total M 68
teaching is a learning M 66
terms of a proxy M 65
testing in a quiet M 62
teaching to a point M 62
teaching in a lower M 62
teaching in a wider M 60
teaching in a child M 60
teaching as a teaching M 58
testing of a working M 57
teaching as a human M 57
teaching on a sound M 56
teaching in a rather M 56
testing at a fixed M 55
testing of a space M 52
tells of a working M 52
tells of a plane M 50
teaching in a cross M 50
teaching as a value M 49
terms of a alone M 48
teaching in a period M 48
tests on a water M 47
terms as a right M 47
terms of a bending M 46
tells of a water M 46
terms of a hunting M 45
texts as a class M 44
tests if a given M 44
testing to a large M 44
terms to a later M 44
teaching in a working M 44
testing of a plant M 43
terms of a breaking M 43
terms as a fixed M 43
teaching if i could M 43
tests is a rather M 42
tests as a learning M 42
testing at a major M 42
tests on a fixed M 41
tests in a field M 41
terms of a loading M 41
teaching in a white M 41
terms of a prize M 40
tends to a right M 40
teaching in a fourth M 40
terms of a treaty D 28434
telling of a story D 22353
terms of a social D 12293
telling me a story D 7336
telling me i could D 5982
terms of a broad D 5300
tenths of a point D 4692
tenths of a cubic D 4052
telling us a story D 3865
tests as a basis D 3455
telling me i would D 3064
terms of a trade D 2922
tenths of a pound D 2820
tending to a breach D 2499
tenths of a grain D 2275
terms of a nation D 2170
terms of a court D 2154
telling me i ought D 2116
terms of a rigid D 2106
teaching in a rural D 1966
terms of a clash D 1882
terms of a changing D 1816
telling me i might D 1760
tends to a breach D 1537
tempo of a piece D 1505
terms of a basis D 1504
terms of a quasi D 1426
terms as a basis D 1370
terms of a stock D 1194
tending to a point D 1188
terms of a sharp D 1140
terms of a level D 1128
terms of a sales D 1088
texts as a basis D 1084
terms of a crude D 1058
tenths of a penny D 1023
tenths of a meter D 1022
terms of a racial D 968
tending to a state D 941
testing as a basis D 925
terms of a split D 916
teaching of a trade D 880
teaching of a skill D 840
terms of a novel D 824
telling of a visit D 824
tents of a night D 796
tells of a roman D 746
terms of a score D 738
terms of a rapid D 720
tells me i would D 712
tending to a limit D 708
tents in a field D 668
tells of a negro D 666
tenths of a grade D 656
telling of a woman D 656
terms of a rural D 645
tenths of a scale D 616
terms of a polar D 610
teaching as a craft D 604
teaching as a basis D 604
teased as a child D 602
terms of a region D 601
terms of a fresh D 600
terms of a grade D 588
teaching is a social D 584
tending to a fatal D 580
tends to a level D 572
tenths of a solar D 568
terms of a smooth D 560
testing by a pilot D 550
terms of a fusion D 550
terms of a penal D 540
terms of a stark D 536
terms of a radial D 520
tends to a fatal D 514
teaching as a social D 504
tenths of a share D 486
terms of a drama D 484
tells of a widow D 472
tenths of a perch D 469
terms of a cubic D 466
terms of a curve D 458
teaching is a craft D 447
terms of a modal D 438
tending to a fixed D 434
tense as a drawn D 423
terms in a treaty D 422
terms of a fuzzy D 418
tents on a small D 418
teaching is a skill D 413
terms of a roman D 403
terms as a social D 400
tents in a small D 398
tells of a tribe D 398
terms of a trait D 396
terms of a motor D 388
terms of a listing D 388
tents in a grove D 388
terms of a sliding D 382
terms of a breach D 380
teaching in a changing D 378
terms of a league D 377
tests of a nation D 350
terms of a mythic D 348
teaching at a level D 348
terms of a scaling D 347
terms of a ranking D 340
terms in a broad D 334
tells of a chief D 332
tenths of a liter D 329
terms of a horse D 326
telling of a meeting D 324
terms of a metal D 318
terms of a scene D 316
tenths of a child D 316
tells of a lover D 312
tempo of a scene D 310
terms of a thesis D 308
tells of a horse D 308
tells of a scene D 306
tents of a tribe D 304
telling me a while D 302
terms on a basis D 292
terms of a naval D 292
terms of a solar D 284
tending to a focus D 284
telling me i shall D 282
tents in a large D 280
tests at a level D 278
tells of a rabbi D 277
tents at a short D 272
teased by a group D 272
terms of a fairy D 270
terms of a dozen D 270
tells of a wedding D 270
tending to a change D 268
terms of a wedding D 264
testing of a novel D 262
terms of a wager D 254
terms of a genre D 254
tells of a witch D 252
telling me a funny D 250
terms of a minor D 249
tending to a small D 246
terms of a serial D 245
terms of a macro D 242
teaching of a craft D 241
teaching in a setting D 241
terms of a driving D 240
terms of a comic D 240
terms of a pulse D 236
tempo of a given D 236
telling of a fairy D 236
terms of a creed D 234
tense as a violin D 231
tense as a steel D 230
telling me i never D 228
testing of a pilot D 227
terms of a lover D 226
terms of a focal D 226
tents in a clearing D 226
tents of a large D 222
tells of a ghost D 222
telling us a fairy D 222
tenths of a pixel D 220
teaching of a social D 220
tells of a nation D 219
terms of a chess D 218
tents in a place D 218
tending to a final D 217
terms of a movie D 216
tenths of a nation D 216
terms of a skill D 214
tense by a change D 214
tending to a given D 214
terms of a median D 212
terms of a blend D 212
tents at a place D 212
tending to a child D 212
terms of a speed D 210
tests on a pilot D 208
terms of a lofty D 208
tending in a given D 208
terms of a quota D 206
terms of a nexus D 206
tells of a stone D 206
tending to a large D 205
terms of a tacit D 202
terms of a ceiling D 202
terms of a bound D 201
tense as a board D 199
tests in a pilot D 198
terms of a dense D 198
telling me a fairy D 198
terms of a micro D 197
terms of a grain D 197
terms of a canon D 194
tending to a happy D 194
teaching at a rural D 194
testing of a broad D 192
terms of a dance D 192
texts of a treaty D 191
terms of a title D 191
teased on a slide D 190
tether to a large D 188
teaching in a broad D 187
testing of a nation D 184
testing at a level D 184
terms of a pagan D 184
tents on a green D 180
tending to a value D 177
tenor of a large D 176
tells of a dance D 176
tempo of a waltz D 175
terms of a plate D 174
testing in a pilot D 172
terms to a level D 172
terms of a molar D 172
tests on a steel D 170
terms as a clash D 170
tells me a funny D 170
telling of a dirty D 170
terms of a genus D 169
tells of a social D 166
telling of a world D 166
telling me a ghost D 166
terms of a brand D 165
tenths of a hertz D 165
telling of a fight D 164
telling of a ghost D 163
tempo of a dance D 162
telling me i still D 162
terms of a wheel D 160
terms of a chart D 160
terms of a caste D 160
testing as a social D 159
tents on a level D 158
teaching is a trade D 158
teaching in a negro D 158
tells me i gotta D 157
tents in a hurry D 156
telling of a group D 156
teaching of a broad D 156
terms of a pound D 155
terms of a locus D 154
tends to a rapid D 154
telling me i gotta D 154
terms of a setting D 151
terms at a level D 150
tending to a lower D 150
tells of a snake D 150
terms of a shock D 149
terms of a trading D 148
terms of a housing D 148
terms of a dummy D 148
tends to a delta D 148
teaching in a bible D 148
texts at a level D 146
tenths of a cycle D 146
terms of a glass D 145
texts in a social D 144
terms of a tonal D 144
tells of a miner D 144
telling me i really D 144
teaching to a level D 144
telling of a large D 143
testing of a urine D 142
terms of a slope D 142
tenor of a treaty D 142
texts as a genre D 140
terms of a staff D 140
tents of a small D 140
tenths of a light D 139
terms of a bonus D 138
terms in a sales D 138
terms if i would D 138
telling of a child D 136
teaching of a bible D 136
terms of a delta D 134
tending to a steady D 134
teens as a group D 134
teaching in a social D 134
tense as a strung D 133
tempo of a march D 132
terms as a nation D 131
terms of a stack D 130
tents in a nearby D 130
tenor of a draft D 130
tending to a worse D 130
tending to a civil D 130
telling it a story D 130
texts in a genre D 129
terms of a pilot D 129
terms as i would D 128
tents on a piece D 128
tents of a nomad D 127
texts in a broad D 126
tells of a bride D 126
terms of a gamma D 124
terms of a damping D 124
tents in a meadow D 124
tenths of a whole D 124
tenths of a class D 124
tenor of a motet D 124
telling of a funny D 123
tents on a patch D 122
tells of a naval D 122
tells of a flock D 122
tells of a clerk D 122
telling of a vision D 122
terms of a myriad D 120
tells of a dutch D 120
terms of a donor D 118
teased in a husky D 118
teaching on a level D 118
terms of a lunar D 116
tenor of a piece D 116
tests on a broad D 114
terms in a social D 114
terming it a happy D 114
tents in a green D 114
telling to a group D 114
teaching of a novel D 114
terms of a tribe D 113
testing of a motor D 112
terms by a treaty D 112
tents on a sandy D 112
tells of a fatal D 112
telling me a piece D 112
tests at a speed D 111
tells of a rural D 110
telling of a plain D 110
telling me a whole D 110
teased in a singsong D 110
tenor of a writing D 109
tells of a fairy D 109
texts of a genre D 108
testing in a broad D 108
terms on a sheet D 108
terms of a stone D 108
tents of a party D 108
tenor of a whole D 108
tells of a court D 108
telling of a short D 108
testing of a metal D 107
terms of a finer D 107
tenths of a joule D 107
terms in a title D 106
tenths of a horse D 106
testing of a fetus D 105
terms of a flood D 105
testing of a weapon D 104
terms of a weapon D 104
tells of a pilot D 104
tests on a batch D 102
testing is a broad D 102
terms of a theater D 102
terms of a sheer D 102
terms of a sealed D 102
terms of a fatal D 102
tents in a quiet D 102
tense of a strong D 102
tenor of a given D 102
telling of a bible D 102
tells of a fishing D 101
tests of a steel D 100
terms of a rhythm D 100
terms of a flowing D 100
tents of a white D 100
teething as a cause D 100
terms of a pending D 98
terms of a papal D 98
tents on a field D 98
tenor of a woman D 98
tells of a saint D 98
telling of a night D 98
telling of a given D 98
telling is a moral D 98
tests is a skill D 96
terms of a token D 96
terms of a banking D 96
teaching is a grave D 96
tense in a given D 95
teaching at a bible D 95
testing of a solar D 94
terms of a supra D 94
terms of a sober D 94
terms of a quark D 94
terms of a dowry D 94
tenths of a radian D 94
tells of a mouse D 94
teased by a bully D 94
teaching as a weapon D 94
terry is a woman D 92
teased by a woman D 92
tests in a rural D 90
terms on a level D 90
terms of a rider D 90
terms as a hedge D 90
tents on a large D 90
tenths of a woman D 90
tending to a wider D 90
tells of a flood D 90
teacup in a toast D 90
terms of a stoic D 89
terms of a pairing D 89
tenths of a micro D 89
testing is a rapid D 88
terms of a poker D 88
terms of a petty D 88
terms of a craft D 88
terms is a social D 88
tends to a smooth D 88
tempo is a human D 88
teaching is a broad D 88
tests of a social D 86
terms to a nation D 86
tents in a strip D 86
tells of a jolly D 86
telling us a funny D 86
tests of a pilot D 84
terms of a march D 84
terms of a flame D 84
tending to a woman D 84
tending to a smile D 84
tells of a minor D 84
telling of a fable D 84
teething is a period D 84
terms of a utopia D 82
terms of a creep D 82
terms in a court D 82
tending to a denial D 82
telling me a bunch D 82
testing of a batch D 80
terms of a frank D 80
tents by a stream D 80
tells of a deacon D 80
teased by a child D 80
terms of a pooling D 79
teaching as a trade D 74
telling of a fresh D 68
telling as a method D 67
teaching as a skill D 67
teaching on a broad D 65
teaching in a grade D 64
terms in a novel D 63
tents on a plain D 60
tending to a close D 60
telling of a small D 60
telling is a story D 59
tense of a modal D 57
tenths of a farthing D 56
telling of a people D 55
terms of a rival D 54
terms as a novel D 53
tempo as a whole D 50
terms of a scoring D 49
tense or a modal D 49
telling as a moral D 49
teaching as a chore D 49
testing on a pilot D 48
terms of a rolling D 48
terms of a melting D 48
terse to a fault D 46
terms of a lipid D 46
terms of a helix D 46
terms of a grading D 46
telling of a whole D 46
telling of a human D 46
telling of a mother D 45
telling of a brief D 45
teens as a whole D 45
teaching in a roman D 45
tests of a chief D 44
terms of a cooling D 43
telling of a father D 43
testing on a broad D 42
terms of a lineal D 42
terms by a court D 42
tents in a plain D 42
tending of a small D 42
telling of a happy D 42
teaching on a basis D 42
terms of a sinking D 41
telling of a white D 41
telling of a grand D 41
tenor as a whole D 40
tending to a total D 40
telling of a storm D 40
