write in such a M 19471
writing of such a M 7852
writing in such a M 7542
wrote in such a M 5288
writing is also a M 3806
writing the book i M 3764
write on such a M 3425
write me such a M 2738
writing is only a M 2672
write the book i M 2624
writing is like a M 2441
writing on such a M 2269
wrote me such a M 2138
writing is such a M 2092
writing to make a M 2085
write as good a M 2013
write of what i M 1651
writing to such a M 1589
wrote it when i M 1506
write or speak a M 1426
write to such a M 1392
wrote the book i M 1372
write or draw a M 1320
writing or reading a M 1302
wrote me back a M 1276
write it into a M 1246
writing is what i M 1111
write me down a M 1052
write to make a M 1025
write of such a M 986
writing is just a M 970
wrote me when i M 960
write it when i M 954
write it like a M 935
write or tell a M 897
write or type a M 893
wrote of such a M 880
write it down i M 844
wrote at once a M 840
writing at such a M 829
writing of what i M 828
wrist he wore a M 820
write me into a M 810
wrist in such a M 800
write at such a M 752
wreck of many a M 748
writing to have a M 684
writing to give a M 684
write or send a M 629
wrote it into a M 612
writing me such a M 600
write so fine a M 594
write so good a M 570
wrote of seeing a M 544
writing we have a M 524
wrote it from a M 520
writing my book i M 518
writing it down i M 518
write me just a M 504
wrote the book a M 486
write it from a M 486
wrote to make a M 478
write it upon a M 478
write up what i M 462
write or edit a M 462
write me once a M 461
wrote it during a M 458
wreck of what i M 456
wrote to many a M 446
writing it into a M 422
write to those i M 412
writing is from a M 408
write or call a M 398
wrote it over a M 374
write the best i M 374
write at once a M 372
wreck of such a M 372
writing we find a M 366
writing or making a M 365
writing to take a M 364
wrote it like a M 350
writing as having a M 350
write the more i M 336
writing it when i M 333
writing to form a M 330
write it down a M 328
wrote me from a M 318
write is like a M 310
wrote on such a M 308
writing to find a M 308
wrote it down i M 306
write me when i M 302
write is what i M 292
writing is more a M 287
write to sign a M 278
writing the book a M 276
write the word i M 270
write on what i M 255
write in what i M 252
writing to sell a M 248
wraps me like a M 248
writing of even a M 247
write or what i M 244
writing by making a M 242
write up such a M 240
write to tell a M 238
writing to tell a M 237
writing the play i M 234
write or make a M 230
writing the text i M 226
wrote of having a M 220
wrote of what i M 218
writing is there a M 218
wrist to form a M 218
writing is less a M 214
wrote as good a M 210
wreck is like a M 210
wrote by hand a M 206
write me what i M 204
write as best i M 204
writing of half a M 198
wrote my book i M 196
writing to meet a M 196
wrote the note i M 194
writing as only a M 189
write the play i M 188
writing it from a M 186
wrote to tell a M 184
writing of part i M 181
write or have a M 181
writing in what i M 180
write or give a M 180
wrest it from a M 179
wrote so good a M 178
writing on what i M 177
writing so fine a M 176
write to have a M 176
write the poems i M 176
write us such a M 174
wrist to make a M 174
writing to reach a M 171
wrote the more i M 170
writing the note i M 170
write so great a M 170
wrote me only a M 168
write we have a M 168
write or hold a M 168
writing my last i M 166
wrote in what i M 164
writing to those i M 164
writing is made a M 164
write the word a M 164
write or sign a M 164
writing so much i M 162
wrote to kill a M 160
wrote the girl a M 160
wrote my love a M 160
writing to fill a M 160
wreck so fair a M 160
write to give a M 158
wrote or sent a M 156
wrote me once a M 156
write it over a M 154
wrote up what i M 152
wrote me down a M 152
wrote it down a M 152
wrote the play i M 150
wrote as best i M 150
write in case i M 148
wrote the lady a M 146
wrote so great a M 146
wrote it upon a M 146
writing of only a M 142
wrote at such a M 140
writing to gain a M 140
write or play a M 140
write as clear a M 140
write is only a M 139
wrote me word a M 138
writing the work i M 138
wrote or what i M 136
wrote in part a M 134
write is also a M 131
wrote the same i M 130
wrote in book i M 130
write it like i M 130
write is just a M 129
writing to what i M 128
writing to show a M 127
writing or have a M 126
writing it till i M 126
writing it like a M 126
wreck in such a M 125
wrote to half a M 124
write the truth i M 124
wrote to such a M 122
wrote the play a M 122
write on till i M 122
wraps it into a M 121
wrote of making a M 120
writhe on like a M 120
write if only i M 120
write as full a M 118
wrote to thank a M 116
wrote to give a M 116
writing as good a M 116
write to send a M 116
write my book i M 116
write to fill a M 114
writing up what i M 112
writing to thank a M 112
write my love a M 112
write it onto a M 110
wrote or said a M 108
writing to keep a M 107
writing as best i M 106
write is when i M 106
write by hand a M 106
write as great a M 106
wrote in part i M 104
writing up such a M 104
writing of many a M 104
write me half a M 104
wrist to take a M 104
wrote to have a M 102
wrote he like a M 102
wreck to make a M 102
wrote the less i M 100
wrote as well a M 100
writing he made a M 100
wrist is like a M 100
write me soon a M 96
write as fine a M 96
wrote to urge a M 94
writing the best i M 94
write to keep a M 94
write or when i M 94
wrist to find a M 94
wrote me just a M 92
writing to send a M 92
write the book a M 92
wrote so fine a M 90
writing it over a M 90
wrote at last a M 88
write by such a M 88
write at will a M 88
write an hour a M 88
wrote we have a M 86
write the girl a M 86
write in half a M 86
write by reading a M 86
wrist to give a M 86
wrote to gain a M 84
wrote as only a M 84
write to when i M 84
write or find a M 84
write or copy a M 84
write me back a M 84
wrest it into a M 84
wrote me saying i M 82
write to half a M 82
write the note i M 82
write it till i M 82
wrist is also a M 82
wrote to meet a M 80
wrote my last i M 80
writing so good a M 80
wraps it like a M 80
writing or even a M 68
writing or from a M 51
writing by taking a M 49
writing by reading a M 49
wraps to make a M 45
writing or saying a M 41
writing at once a M 41
write is such a M 40
write at least a D 4426
wrote at least a D 1692
writing at least a D 1186
wrongs of such a D 480
wrongs do make a D 316
wrote the pope a D 314
wrote my wife a D 290
wrongs of many a D 224
write my wife a D 184
wrist he wears a D 182
writing or typing a D 181
wrongs in such a D 180
wrongs to seek a D 174
wrote to john a D 158
wrongs to stir a D 152
wrongs to make a D 128
write the wife a D 110
wrote the duke a D 104
wrest at least a D 104
write to whet a D 90
wrongs of half a D 88
writing at least i D 86
