writers of the new M 75792
writers of the day M 69353
written at the end M 67203
wrapped up in his M 63236
written in the year M 61506
written in the law M 50774
writers of the age M 32922
wrapped up in her M 32556
written as the sum M 31867
written to be read M 23894
writers of the old M 23634
written at the age M 23353
written at the top M 19994
written in the old M 19171
written in the mid M 17685
wrapped up in this M 15926
written by the poet M 15374
wrapped in an old M 14668
written on the day M 14597
wrapped up in one M 14569
written in the new M 13004
written in an easy M 12250
writers on the law M 10881
wrapped up in that M 10861
written to me that M 10830
wrapped up in our M 9318
written as it was M 9298
written on the death M 8815
wrapped up in each M 8214
written by the man M 7977
wrapped up in its M 6984
written on the top M 6595
written by an old M 6539
written in the heat M 6210
written on the fly M 6151
written on it and M 5977
written to the log M 5916
writers in the new M 5807
written to the new M 5754
written by the two M 5749
written up to that M 5256
written to me for M 5182
written by the men M 5127
written in the key M 5049
written to me and M 4908
wrapped up in them M 4726
written as he did M 4714
written in an age M 4676
written by an eye M 4667
written in my own M 4656
written in the sky M 4645
wrapped up in him M 4606
written to or read M 4387
written in the two M 4383
writers at the end M 4350
writers of the era M 4239
written if he had M 4230
wrapped it up and M 4228
written in the way M 4142
written as in this M 3949
written by the son M 3865
written by the new M 3843
written as if they M 3764
written in an old M 3709
written at the head M 3701
written by me and M 3651
written by the head M 3457
writers of the two M 3429
writers of the mid M 3274
written by the then M 3128
writers in the area M 3012
written by the old M 2977
written up to this M 2890
written in the age M 2887
writers go so far M 2874
wrapped up in all M 2853
wrapped it in his M 2794
written as so that M 2727
written on the map M 2709
written on it was M 2690
written by or for M 2611
written on the use M 2573
written of the son M 2520
written on the new M 2376
written on the two M 2335
written by my own M 2291
written in the east M 2273
written on the way M 2211
writers on the new M 2110
written it in his M 2077
written in the air M 2012
written on the box M 1981
written in the area M 1938
writers of the pre M 1934
written it at all M 1928
written by no one M 1924
writers in the age M 1899
written in the top M 1884
wrapped me in his M 1878
wrecked on the way M 1876
written up to now M 1858
written by the one M 1844
written on it with M 1805
written to an old M 1788
wrapped it in her M 1752
written by the end M 1742
written by me for M 1742
written on the sky M 1738
written to me with M 1727
written in the earth M 1693
written to the end M 1692
writers on the one M 1690
written in the long M 1688
written as we can M 1686
written to no one M 1676
wrapped it up with M 1634
wrapped up in you M 1610
wrapped up in being M 1596
written as he was M 1586
written in the poet M 1544
writers in the mid M 1525
writers in the old M 1522
written in the end M 1518
writers of the east M 1508
writers of the end M 1448
wrapped up in two M 1435
writers as if they M 1424
written to the war M 1421
wrapped up in red M 1406
wrecked by the war M 1372
written up in all M 1358
wrapped in the old M 1338
written on the earth M 1322
written in an era M 1270
written on the old M 1261
written on it that M 1258
wrecked on the east M 1225
wrapped in the red M 1222
written as he has M 1216
written in the pre M 1205
written in the log M 1185
written by the team M 1182
written on the one M 1173
written as we now M 1130
written so as not M 1121
written to the man M 1112
written in the box M 1110
wrecked on the bar M 1110
wrapped up in old M 1106
written to the old M 1092
wrapped it up for M 1084
writers of my own M 1066
wrapped me in her M 1064
written on the head M 1058
writers on the war M 1057
written by the real M 1054
writers of the beat M 1048
written as it can M 1047
written it is not M 1037
written on the war M 1033
written in the era M 1014
written to the head M 1008
written on my own M 1008
written to my son M 1004
written at or near M 1003
written as if for M 971
written in the one M 969
written to be set M 968
written as an aid M 964
written to go with M 960
written on the law M 960
writers in the east M 954
writers of the real M 952
written on an old M 946
written of the way M 944
writers at the new M 939
wrapped up in how M 936
written as if you M 931
written to us that M 920
written by the boy M 910
written of the new M 902
written to the poet M 892
written by my son M 889
writers in the two M 886
written to the two M 885
written in it and M 880
written by my old M 876
writers it is not M 872
written in the ten M 866
written as the two M 861
written if it had M 852
written to the then M 840
written to me this M 838
written up in his M 820
written by the dead M 815
written on the tag M 799
written in an odd M 791
wrapped up in god M 791
written of the two M 790
written in or near M 790
wrapped up in and M 788
written in the song M 786
wrapped in the long M 776
written up in this M 766
written in my head M 757
written of me that M 751
written as if all M 742
writers of an age M 739
wrapped me in its M 738
wrapped it in its M 736
writers of no mean M 730
written to us and M 726
wrapped up as they M 724
written in it that M 709
wrapped in my own M 708
wrapped up in any M 706
written by my dear M 702
written me to say M 700
written as if this M 683
writers of the may M 679
written in the red M 674
wrapped as it was M 664
written as he had M 662
written on the run M 659
written on it are M 655
written in the war M 655
written of the man M 645
written by the aid M 643
writers of the law M 642
written of it with M 640
written in the low M 640
written in the six M 636
written by the top M 633
written by me with M 627
written at an age M 627
writers in the way M 622
written as it has M 621
written on it for M 618
written up in one M 617
wrapped up in things M 616
written on the air M 614
written as the real M 614
written to me two M 607
written in the easy M 604
wrapped up so that M 604
wrapped up to his M 600
writers in the use M 598
written by the few M 595
written as we see M 593
writers of the war M 593
wrapped up in wet M 588
wrapped it in one M 580
written in it was M 578
written in so long M 576
written up to his M 574
written in the dead M 568
written on the end M 567
written it in her M 558
written in the big M 554
written in the near M 553
written to me but M 548
written as by using M 546
written in the few M 544
written to do this M 543
writers on the old M 540
written of in this M 532
written in it are M 532
written in to say M 526
written as we may M 525
written as if one M 522
written we do not M 521
written it on his M 518
written to my old M 516
written on the bag M 516
written by the god M 515
written of my own M 514
written as the mean M 512
written it to you M 510
written in the then M 510
written at the death M 510
written as the set M 509
written in the non M 507
written to us for M 490
written of as being M 490
written it in this M 490
written in it for M 490
written as an act M 488
wrapped as he was M 488
writers of the dead M 486
written up so that M 483
written to the air M 482
written on it but M 482
wrapped up in long M 482
written on the red M 479
written so it can M 476
written by the law M 475
writers in an age M 474
written on the long M 472
written in the fly M 472
written to my dear M 471
wrapped up in new M 466
written on an all M 464
written up by one M 459
written of the war M 457
written as it may M 454
written to the son M 452
writers we do not M 450
written of the old M 448
written on the man M 442
written to the east M 440
written it to him M 440
written it so that M 439
written by the use M 439
writers as it was M 436
written up by his M 435
wrapped in the new M 429
writers of the song M 426
written in the poem M 424
writers as to its M 416
wrapped us in its M 416
writers as to how M 410
written in the dry M 409
wrapped in the wet M 404
wrapped in it and M 404
written as we are M 403
written to the boy M 402
written to me yet M 401
written in the day M 401
written on the job M 400
written of in his M 400
writers to do this M 400
writers to be one M 400
written of the death M 399
written on the idea M 398
written in the act M 398
written by the dying M 396
writers to the end M 396
written to us with M 394
written on the sun M 394
written in the far M 394
wrapped me up and M 394
written by me but M 392
written in the real M 390
writers in the pay M 390
written it or not M 386
wriggling in the air M 381
writers is to use M 380
written by the war M 378
writers to the new M 377
wrongful by the law M 376
wrapped up in doing M 374
written up to then M 372
written up in our M 372
written in the now M 372
written up in any M 370
written to be run M 368
written to the kings M 364
written as to how M 364
written of the men M 362
written by us both M 361
wrapped on the end M 360
wriggling at the end M 359
written to the men M 356
written on or read M 356
wrongdoer as to them M 354
written in it can M 354
written on the big M 350
written on or near M 350
written on the poet M 348
written by the way M 348
written to by his M 347
writers on the east M 346
wrecked on or near M 343
writers on the use M 342
written by the now M 341
written in it with M 339
written as if she M 339
written by us and M 335
written by or with M 334
wrapped up in too M 333
writers of my day M 332
writers by the end M 328
written in the sun M 327
written to me had M 326
wrecked in the war M 324
written by the nun M 322
written me to ask M 320
written to by any M 318
written as he does M 318
writers to be due M 318
wrecked at the end M 318
written to the web M 317
written to on this M 316
wrapped up the day M 316
written it in one M 308
written by me was M 308
wrecked on the new M 308
written up to its M 307
written by an air M 307
written as the one M 307
wrapped up in lead M 307
written up in two M 306
written to it and M 304
written to by one M 301
wrapped in an air M 301
written up as one M 300
wrapped in the one M 298
wrapped at the end M 298
written up by him M 296
writers in the long M 292
wrapped up the dead M 292
wrapped up as she M 292
written to or for M 290
wrapped up by then M 290
written king of kings M 288
written at the old M 286
written of it that M 285
written by an east M 285
written to me all M 284
written as if with M 284
written in to ask M 282
writers do as they M 282
wrecked in the year M 282
written by the non M 281
written as he lay M 280
written to be his M 279
writers in the act M 278
written of the poet M 276
writers to be read M 276
writers in the era M 276
writers as to this M 276
writers in the pre M 275
wrecked in the red M 274
written to the one M 272
wrecked in the area M 272
written as the new M 271
written up to and M 270
written me of his M 268
written as in our M 268
written me as you M 264
written is the one M 264
wrapped up to her M 264
written if we had M 258
written on the wings M 257
written it to her M 256
writers up to that M 256
writers go as far M 256
wrapped in the big M 256
wriggling on the end M 255
written it in red M 254
written it in that M 252
written up in its M 250
written it the way M 250
written in the head M 250
writers on the far M 249
written on the area M 248
written it up for M 248
written of the things M 246
writers of the long M 246
written if we now M 245
written by the six M 245
written by the long M 244
writers up to and M 244
written in the joy M 242
written as at this M 242
writers to the use M 242
writers of my age M 242
written in the mean M 241
written up in both M 240
written it on her M 240
wrapped in the net M 240
written to me was M 236
writers to the idea M 236
written to me long M 235
written by the kings M 235
written by the due M 235
written to my own M 234
writers up to his M 234
written to the dead M 233
written as if his M 232
written it the day M 230
writers on the job M 230
writers is the use M 230
wrapped up in dry M 230
writers as the poet M 228
written on the log M 226
written in the may M 226
written on the key M 224
written by the sun M 224
writers in the year M 224
wrapped it in two M 224
writers of the one M 223
writers up to this M 222
written of the use M 220
writers of it are M 220
written in the bad M 219
written to me not M 218
written in an off M 217
written on it than M 216
writers in no way M 216
written up at all M 214
written or in any M 214
written on the poem M 214
written in an area M 214
writers on the real M 214
writers as the real M 214
wrapped in the web M 214
written in the death M 212
written by me are M 210
written as it had M 210
writers at the top M 210
writers in so far M 208
wrapped up in big M 208
writers of the area M 206
wrapped me in this M 206
written on it can M 204
written as it now M 204
writers in my own M 204
written up in that M 202
written by the lead M 202
writers on the lot M 202
writers as it does M 202
wrapped us in that M 202
wrapped up in who M 202
written or it may M 201
written to be easy M 200
written in the fear M 200
writers as he was M 200
written to at all M 198
written or at any M 198
written me on this M 198
written as if its M 196
wrapped up in both M 196
written on the far M 195
written in the sum M 195
written by an all M 195
wrapped up in six M 195
written of the long M 194
wrapped it in wet M 194
writers on the net M 193
written up on his M 192
written on the east M 192
wrapped up by now M 192
written to the eye M 191
written to be our M 190
written by the ill M 190
writers of the year M 190
writers he is not M 190
written to me thus M 188
written on it has M 188
written in the and M 188
written if it was M 188
written to be both M 186
written of it and M 186
written in the odd M 186
written by no man M 186
written as the heat M 186
wrapped up in war M 186
written by the year M 185
writers as to who M 184
written to the top M 182
written it in any M 182
writers on the area M 182
writers in the end M 182
writers of the non M 181
written to me are M 180
written it to his M 180
written in the job M 180
written as to put M 180
writers on the two M 179
wriggling as if they M 177
wrapped up the two M 177
written in or read M 176
written by king and M 176
written as the use M 176
wrapper in the sun M 176
written in an all M 175
writers of the far M 175
written to us all M 174
written as to its M 174
writers in the law M 174
writers as he did M 174
wrapped up my head M 174
wrapped as to his M 174
written in the man M 173
written as an old M 173
wriggling in the sun M 173
written to me now M 172
written on the boy M 172
written of the law M 172
written it is now M 172
written by the east M 172
written as by one M 172
wrestle to the death M 172
wrapped up the box M 172
written if we are M 171
written as to why M 170
writers as to his M 170
written to the due M 169
written it is easy M 168
writers as it did M 168
wriggle of the path M 168
wrapped me in one M 168
written it in two M 167
writers as the one M 167
written me at all M 166
written it up and M 166
written by the mid M 164
written as to one M 164
written as to lead M 164
writers to be owing M 164
wrenching as it was M 164
wrapped in my old M 164
written at the new M 163
written is the set M 162
written by the pro M 162
wrecked as it was M 162
written up in her M 160
written as if each M 160
writers in the may M 160
writers as an act M 160
writers as the two M 159
wrapper on the can M 159
wrapped in the heat M 159
written of the poem M 158
written by an ill M 158
writers do it all M 158
writers as it has M 158
wrapped up in sin M 158
wrenching of the earth M 157
written to us both M 156
written in so that M 156
written in an ill M 156
written an as yet M 156
written on the pre M 155
written on it all M 154
written it as she M 154
written as to his M 154
writers is the one M 154
wrecked in the end M 154
wrapped me in dry M 154
written up as being M 152
written to me too M 152
written it at his M 152
written up in big M 150
written in or for M 150
written on the set M 148
written on it had M 148
written of it but M 148
written in as few M 148
writers on the way M 148
writers is the way M 148
writers in the top M 148
wrapped up the deal M 148
written to the tag M 146
written to at any M 146
written on the bar M 146
written is my own M 146
writers is to get M 146
written by the eye M 145
writers to be that M 145
written it in our M 144
written at no long M 144
writers at the head M 144
wrecked by the new M 144
wrapped up in fear M 144
written to be put M 142
written of the one M 142
written it up with M 142
written as it does M 142
writers to do that M 142
wrapped in the dry M 142
written on the web M 141
written by the age M 141
writers in the near M 141
written on at all M 140
written of it for M 140
written in the set M 140
written in it has M 140
writers on the team M 140
wriggling on the top M 140
written in as they M 138
written by the job M 138
written to the dear M 136
written in the dim M 136
written as the dot M 136
writers in the war M 136
wrapped up the head M 136
wrapped it in red M 136
written it as one M 135
written as the net M 135
written to my two M 134
written to in this M 134
written it he was M 134
written by the dear M 134
written as we use M 134
written as the poet M 134
wrapped up to our M 134
wrapped up in day M 133
written me up for M 132
written me so long M 132
written if he was M 132
writers is to read M 132
wrestle or to box M 132
wrapped up in man M 132
written in the eye M 131
written as or and M 131
written to me one M 130
written to me how M 130
written in so bad M 130
written in no way M 130
written at an easy M 130
writers as it had M 130
wrapped me up with M 130
written of the day M 129
writers in the real M 129
written on the arm M 128
written it at that M 128
written in it but M 128
writers is the idea M 128
wrongful in the eye M 127
wrapped in an all M 127
wrongdoing in the death M 126
written up by her M 126
written up as they M 126
written up as far M 126
written in the lay M 126
written by us for M 126
written as the war M 126
wrecked by the death M 126
written by an out M 125
writers on the set M 125
written to the low M 124
written to me has M 124
written so we can M 124
written on the dry M 124
written on by his M 124
written of the joy M 124
written at the seat M 124
written as he sat M 124
written to the red M 123
written in so far M 123
written to the yet M 122
written at or for M 122
written as we then M 122
writers if he had M 122
written in no law M 121
written up in new M 120
written on the six M 120
written of the god M 120
written by the air M 120
writers to the old M 120
wrapped it in old M 120
wrapped in the two M 120
wrapped in the idea M 120
wrapped in an odd M 120
written up in who M 118
written to by this M 118
wrecked by the two M 118
written on the dog M 117
written on the seat M 116
written in the sad M 116
wrapper at the end M 116
written up on one M 114
written on the bit M 114
written on my head M 114
written it if you M 114
written in the boy M 114
written in the bar M 114
written as is not M 114
wrecked on the long M 114
written of in any M 112
written me to that M 112
written it is too M 112
written in the for M 112
written in the dying M 112
written by me not M 112
written as or this M 112
writers as he had M 112
wrecked by the use M 112
wrapped in the wings M 112
written by the pre M 111
written to by all M 110
written on my way M 110
written of it then M 110
written in the weak M 110
writers of the use M 110
wrapped in the end M 110
written by the red M 109
wrapped up as one M 109
written by the song M 108
written at the two M 108
written as it did M 108
wrecked at or near M 108
written of the dead M 107
written in or out M 107
written us to say M 106
written up by them M 106
written on the men M 106
written is in its M 106
written by an aging M 106
writers to be too M 106
writers on the eye M 106
writers is to try M 106
writers is to see M 106
writers is in any M 106
wrapped up the old M 106
wrapped up by his M 106
written to me then M 105
written in the dog M 105
wrapped in the all M 105
written to by him M 104
written on the sad M 104
written on the bow M 104
wrapped me in wet M 104
wrapped in the dim M 104
wrapped in my new M 104
written of the east M 103
written in the run M 103
written of me and M 102
written me the day M 102
written it he did M 102
written as to this M 102
written as to see M 102
wrapped up in tow M 102
wrapped in it for M 102
written of the end M 101
written to no end M 100
written on or not M 100
written by the web M 100
written by me has M 100
writers to be not M 100
writers as he has M 100
wrapped in the bag M 100
written by so and M 98
writers as to why M 98
wrecked by the way M 98
wrapped up on her M 98
wrapped in the death M 98
wrapped in the dead M 98
wrapped at the top M 98
written to the law M 97
written it in six M 97
written up the day M 96
written on the fear M 96
written in the gap M 96
written if the poet M 96
written by the aging M 96
written at my own M 96
writers is to put M 96
writers is to bring M 96
wrapped in the myth M 96
written on the non M 95
written in the not M 95
written by the ten M 95
written as or with M 95
written up by its M 94
written to me out M 94
written to it with M 94
written on the real M 94
written in so few M 94
written in my old M 94
written in by him M 94
written by the mad M 94
wrecked in the new M 94
wrecked by the end M 94
written on the can M 93
wriggle to the top M 93
wrestle to the end M 93
wrapped up in ten M 93
written to an area M 92
written on the cup M 92
written in the map M 92
written in the idea M 92
written in it than M 92
written in by his M 92
written as he ran M 92
written as as with M 92
writers to the year M 92
writers to the two M 92
writers by the way M 92
wrapped in it was M 92
writers of the earth M 91
wrapped in the lead M 91
writers to be both M 90
writers on the poem M 90
writers in an era M 90
writers if we are M 90
wrapped up in myth M 90
wrapped up he was M 90
wrapped in the man M 90
writers of the then M 89
written up by both M 88
written to by using M 88
written the ring and M 88
written or do not M 88
written of the year M 88
written by me had M 88
writers on the poet M 88
writers of the big M 88
wrecked by the old M 88
wrapper on the top M 88
wrapper of the box M 88
wrapped in the joy M 88
written up by you M 86
written up by each M 86
written on it yet M 86
written on it may M 86
written me of her M 86
written me by one M 86
written it so far M 86
written it in all M 86
written by the sad M 86
written as as can M 86
writers on the web M 86
wrapped up the year M 86
wrapped up the meat M 86
wrapped up as you M 86
wrapped it in new M 86
written of the age M 85
wrecked by an air M 85
written to me his M 84
written to do all M 84
written on the dead M 84
written of by his M 84
written of as one M 84
written it in its M 84
written in the wet M 84
written in at all M 84
written if we let M 84
written by me long M 84
written be of any M 84
writers to the man M 84
writers in the big M 84
writers as do not M 84
wrestle of the two M 84
wrecked it by his M 84
wrapped up at this M 84
written to do them M 82
written so to all M 82
written it as they M 82
written is the sum M 82
written by me then M 82
written as in both M 82
writers to be set M 82
wrecked at the head M 82
wrapped it in that M 82
written if it has M 81
wrapped up at all M 81
written to me nor M 80
written by it was M 80
writers to be his M 80
writers is to lay M 80
writers is the poet M 80
writers is in his M 80
wrested to an ill M 80
wrecked by the long M 80
written by me that M 73
written on the rear M 72
writers of the six M 72
wriggling in the net M 71
writers to go out M 68
written to the bit M 55
written at the mid M 52
writers in the non M 51
writers as the key M 50
wriggle in the air M 49
wrapped in the sun M 48
written by the all M 47
written by the lay M 46
writers in the one M 46
written in the hey M 45
written as no one M 45
written in an east M 44
written up by two M 41
written to the non M 41
written as an eye M 41
wriggle in the sun M 41
wrapped up in bear M 41
writers up to now M 40
wrapped in the bear M 40
written on the eve D 15798
wrought by the war D 12041
written to be sung D 8374
written by the earl D 6035
wrought by the new D 4550
written to the earl D 3628
writers on the art D 3225
written by the pen D 3163
written on the art D 2928
written by the hon D 2840
wrought in me all D 2839
written by the dean D 2290
wrecked in the bay D 2145
wrought on the earth D 1186
wrought in the old D 1185
written to the hon D 1130
written on the pad D 1117
wrought up to its D 1066
written in the bay D 1056
writers of the fin D 1028
written on the leaf D 909
written at the peak D 896
wrought in the earth D 876
wrapped up in fur D 868
wrought by the use D 862
written to the dean D 854
wrinkling of the earth D 843
wrought up to that D 807
wrapped in the leaf D 796
wrought by the two D 792
wrought by the son D 761
written in thy law D 756
wrought by the god D 709
wrought by the death D 668
written as in fig D 655
written on the lid D 648
written at an inn D 583
written by the rev D 576
wrought up to this D 561
wrought on by any D 560
wrapped up in bed D 555
wrought by the act D 548
wrecked by the mob D 548
wrought by the old D 543
wrought in the man D 521
wrought up by this D 518
wrought in the law D 514
wrapped to the ears D 502
wrought by the aid D 478
wrappings of the dead D 478
wrought up or not D 472
wrought in the way D 472
wrought by the law D 467
wrought in us and D 462
wrapped in an ace D 443
wrapped in the fur D 438
wrecked in the ice D 437
wrought by the one D 430
written in the neat D 430
writers of the sung D 428
wrought by the long D 416
wrought up by his D 403
wrought in the new D 402
wrapped in the thin D 402
wrapped up in thin D 400
wrapped in the rug D 400
wrapped in the fog D 398
wrangler of the year D 397
written in an ink D 395
wrapped in an oil D 390
wrinkle in the earth D 389
wrestling in the mud D 387
written by an art D 384
written on the tab D 376
wrought in the day D 375
written on the flea D 370
wrought by the man D 354
wrought up the year D 340
wrought by the end D 336
written of the art D 334
wrecked at sea and D 329
written in the sung D 320
wrought by the axe D 318
written in the tang D 312
written by the art D 306
wrapped up in oil D 306
wrapped up in hot D 306
wrestling of the two D 304
wrapped up in tin D 304
wrapped up in neat D 302
wrought up to any D 300
wranglings of the mob D 296
wrapped in the bed D 294
wrought on the man D 291
wrapped up in wax D 290
written in the tear D 281
wrestling on the bed D 272
wrought up in his D 266
wrought in it all D 262
written in the ink D 262
written by ho chi D 255
written on the sub D 254
written on in ink D 254
wrought by the dead D 252
wrought up as they D 248
wrought in my own D 248
writers of the tang D 246
wrought on by that D 244
writers in the art D 244
wrought at the end D 242
written in the car D 242
wrought on by them D 236
wrought in the two D 236
wrought by the air D 236
wrought in the art D 234
wriggling in the mud D 233
written on the fan D 228
wrapped it in wax D 228
written on the pot D 224
wrinkle in the old D 223
wrought in an age D 221
wrought up in that D 218
wrought by the tax D 210
wrought as it was D 210
wrought by the poet D 206
wrought by the sun D 203
wrangler in the year D 202
wrought on the old D 200
wrought by the oil D 196
written to the ram D 194
written on the seal D 194
written on the rim D 194
wrinkle in the law D 194
wrapped in my rug D 194
wrought up by her D 192
wrought by the men D 192
written in the row D 192
wrought in the east D 191
wrought in the year D 190
written by thy dying D 188
wrestle in the mud D 187
wrapped in my fur D 187
wrought in me that D 185
wrought at it with D 185
written on the thin D 184
written on the bus D 182
wrinkle if we get D 182
wrought up at this D 180
wrought on the one D 180
wrought it in him D 178
wrinkle in an old D 178
written by king wen D 177
wrought up as she D 176
wrecked on the ice D 171
wrinkle on the old D 170
written by the tang D 166
wrinkle in the rug D 165
wrought by the art D 164
written at the inn D 164
written on the rod D 162
written at sea and D 162
wrought on by his D 160
written on the car D 160
wrought by the mob D 158
wrought by it are D 156
wrought up in this D 152
written in the wee D 152
wrought in us that D 151
wrought in it with D 149
writers of the sub D 149
written on the wax D 148
written in the dean D 148
written by the guy D 148
writers on the eve D 148
wrinkle on an old D 148
wrapped up in art D 148
wrinkle of the earth D 147
wrought by the mad D 146
writers of the sex D 146
wrought in the boy D 145
wrought on me that D 144
wrought by an art D 144
written on the egg D 144
wrinkle of the old D 144
wrought in the area D 143
wrought on the day D 142
written in the thin D 142
wrought up to his D 140
wrought up in her D 140
wrought in the long D 140
wrought by my own D 140
wrought in me and D 139
wrecked by the ice D 138
wrought as if they D 137
wrought us to this D 136
written on the dial D 136
wrought as it has D 133
wrought up in them D 132
wrought on by one D 132
wrought in the one D 132
writers on the sub D 131
wrought by it was D 130
written by the sung D 130
wrecked on the lee D 130
wrapped in the bath D 130
written by the sub D 127
wrought up by its D 126
wrought on by this D 126
written in in ink D 126
written by the deaf D 126
wrapped in the mat D 126
wrought in the top D 124
wrangler in the law D 124
wrought as if for D 123
writers in the bay D 122
wrapped in the hot D 122
wrought in the war D 121
written in the hot D 120
wrapped up in sex D 120
wrangles of the day D 120
wrought by the pen D 119
wrought by the all D 119
written on the bed D 119
written by my pen D 118
written to the bus D 116
wrought at the head D 114
written on the mat D 114
wrestle on the bed D 113
wrapped in an ice D 113
wrought in the death D 112
wrought by the era D 112
written in the earl D 110
wrinkle in the long D 110
wrinkle in the bed D 109
wrestling on the mat D 109
wrought in us all D 106
written on the cue D 106
written on the hot D 105
written in the art D 104
wrapped in the rag D 104
writers of the art D 103
written in the seal D 102
written by the lad D 102
wrinkling of the thin D 102
wrapped in an icy D 102
wrought up by art D 100
written in the gay D 100
wrought at it for D 99
wrought up to see D 98
wrought in the men D 98
written by my dad D 98
wrinkle in the tax D 97
wrought me woe was D 96
written up in ink D 96
wracked as it was D 96
wrought up by that D 94
written as an ode D 94
wrought to the end D 92
wrought on the ego D 92
wrought by the rod D 92
wrought by the sin D 90
wrought by it and D 90
wracked by the fear D 90
wrought in the poet D 89
wrought so in him D 88
wrought by an act D 88
written on the urn D 88
written in the mud D 88
wrapped in the gay D 88
wrinkling of the leaf D 86
wrestling to the death D 86
wrought by the heat D 85
wrought he the earth D 84
wrought by the big D 84
written at sea off D 84
wrathful as he was D 84
wrought up the raw D 82
wrought by the arm D 82
written it in ink D 82
written by the mob D 82
wrought by the way D 80
written on an egg D 74
wrought by an all D 63
wrought by the ice D 58
wrought by the red D 57
wrought by the day D 55
wriggle in the mud D 54
writers of the rig D 50
wrought in it and D 49
wrought on the two D 46
wrought in the heat D 46
written in the sub D 46
written in the tax D 45
wrought on us and D 44
written to the bios D 44
wrestling at the end D 44
wrought in the earl D 43
wrinkling in the sun D 42
written on the tax D 41
wriggling of the toes D 40
wrapped in the fat D 40
