written by one of M 127466
written by him to M 32476
written by him in M 30549
written to him by M 28759
written in one of M 22662
written so that the M 17186
written to him in M 16962
written to him to M 14990
written by men of M 13179
written to him on M 12358
written so that it M 11090
written by him on M 10670
wrapped up with the M 10530
written to one of M 10523
written as and the M 9642
written by him at M 9554
written to her by M 8983
written on one of M 8220
written to you in M 7387
written by way of M 6760
written to you on M 6738
written in all the M 6621
written to all the M 6372
written by two of M 6227
written to her in M 6141
written in any of M 5564
written by one or M 5348
written to you by M 5325
written on how to M 5322
written by her to M 5315
wrapped in one of M 5166
written to him at M 5000
written to you to M 4320
written on each of M 4319
written as this is M 4275
written to you at M 4186
written by any of M 4156
written as with the M 4044
writers to use the M 4000
written on top of M 3920
written on them in M 3855
written by him or M 3854
written as for the M 3630
written to run on M 3599
written of him in M 3504
written to say he M 3334
written to her on M 3262
writers is that the M 3182
written me that he M 3152
writers as one of M 3140
written to her to M 3119
written up for the M 3106
written to him as M 2939
written as are the M 2919
written by her in M 2867
written it off as M 2852
written to fit the M 2758
written by him as M 2738
wrecked on one of M 2675
written by men in M 2640
written in one or M 2630
written on all the M 2533
written to ask if M 2416
written in both the M 2401
written to ask me M 2318
written it with the M 2291
written by using the M 2289
written to him the M 2269
written it for the M 2242
written as using the M 2201
written by and to M 2188
written by all the M 2155
written by each of M 2154
written to you as M 2149
written as far as M 2145
written to you so M 2118
writers is that of M 2118
written by you to M 2088
written to them by M 1974
written by god in M 1960
written to you of M 1934
written as one of M 1871
written to him of M 1856
written in each of M 1849
written by him is M 1846
written to her at M 1842
written of him as M 1796
writers of all the M 1790
writers of both the M 1762
wrapped it all up M 1748
written of him by M 1736
written by them to M 1687
written so far in M 1676
wrapped in all the M 1656
written of them in M 1629
written to use the M 1584
written as let us M 1563
written to them to M 1560
writers in all the M 1554
written to any of M 1549
written it out in M 1527
wrapped up for the M 1524
written as that is M 1521
written of all the M 1510
written by them in M 1503
written in two or M 1499
written is that of M 1498
written to them in M 1474
written in red on M 1466
written to each of M 1456
written to try to M 1454
written so far is M 1382
written to her as M 1380
written the way it M 1360
written me off as M 1308
written as then the M 1299
written to see if M 1288
writers to try to M 1274
written to you the M 1268
written in may of M 1260
written as thus the M 1221
written as and is M 1215
written to ask the M 1212
written by two or M 1194
written to you or M 1188
written as long as M 1171
wrapped the end of M 1160
written to aid the M 1150
written by her on M 1126
written to and by M 1124
wrenching it out of M 1120
written it may be M 1119
written to them on M 1093
writers in that he M 1076
writers is not to M 1068
written by men or M 1064
wrapped my head in M 1064
written it can be M 1040
wrapped up all the M 1040
writers in both the M 1020
written at one of M 1010
written so that we M 1007
written as can be M 984
written of one of M 979
written so far on M 970
written by you or M 968
writers to see the M 968
written on both the M 952
written me that the M 950
written on any of M 940
written to all of M 936
written on them to M 934
written on them by M 926
written of how the M 924
written by her at M 922
writers do not do M 918
written on how the M 893
written to him or M 886
written by god on M 886
writers is one of M 874
written or read in M 858
written the day of M 852
written by you in M 848
written by men to M 848
wrested it out of M 844
wrapped it with the M 844
written or read by M 842
written as and we M 833
written the poem in M 826
written is not the M 826
wrapped the box in M 826
written to her of M 822
written as that of M 822
written at all if M 818
wrapped the head in M 816
written it out of M 796
wrapped the boy in M 782
written as and it M 772
written is that the M 767
written to run in M 749
written to one or M 744
written of her in M 736
written the year of M 734
written up and the M 727
written to you if M 722
written the law of M 722
written as and in M 720
wrapped up and the M 720
written to you is M 718
written by far the M 716
written as one or M 716
written to both the M 708
writers of this or M 702
writers is that it M 698
written to aid in M 690
written by one so M 689
written as and so M 678
written by both the M 676
written by one in M 672
written on with the M 670
wrapped the meat in M 666
written so that he M 664
written by them or M 660
written at all in M 660
written is one of M 658
writers it may be M 658
written to her the M 656
written on one or M 650
written by them on M 648
written to say so M 639
writers on how to M 638
written so that if M 634
written on his or M 631
written in all of M 630
writers is not so M 630
writers as that of M 624
writers is not the M 620
written the day he M 616
written at all is M 616
written of this in M 615
written on all of M 613
wrapped in one or M 606
written in red in M 605
written so far as M 597
written it with my M 590
written so that no M 589
written the sum of M 585
written in his or M 583
written on him by M 578
written the end of M 575
written as for an M 574
writers do not go M 574
writers as being the M 574
written on this in M 573
writers the idea of M 572
written to him so M 570
written it for me M 569
written by you on M 568
written in for the M 566
wrapped in two or M 566
written on them is M 558
written by both of M 556
written by him the M 550
written in and the M 546
written of them as M 544
written to both of M 543
written by men as M 540
writers to that of M 528
wrapped up for me M 522
wrapped up with it M 518
wrapped so that the M 518
written to her or M 512
written in aid of M 511
writers it was the M 506
written by one to M 502
written of her as M 499
written so long as M 496
written of him at M 496
written up with the M 494
written it all in M 494
written as two or M 490
written to bring the M 488
written to set the M 484
wrapped up with my M 484
written is not to M 480
written is not so M 475
written as being the M 474
wrapped it all in M 474
written the song of M 470
wrapped up with an M 470
written as now we M 467
wrapped the earth in M 466
written on him in M 462
written to them as M 460
written as now the M 456
written to get the M 451
written in may or M 450
written by all of M 450
written on them the M 448
written it out on M 448
writers to put the M 448
writers is due to M 448
writers as far as M 446
written to them at M 444
written at all to M 444
writers in all of M 442
written in red or M 441
wrapped up was he M 440
written by men on M 436
written as and if M 436
writers he has the M 436
wrecked in one of M 436
written to two of M 434
written the death of M 432
wrapped the dog in M 430
writers so that the M 428
wrapped up one of M 428
written by him of M 426
written to read the M 425
written it was the M 422
written the use of M 420
written it had he M 416
written by use of M 414
wrestle it out of M 414
written is for the M 412
writers do not in M 410
written to two or M 408
written is that it M 408
written as but the M 400
written on this or M 399
written in this or M 398
writers in each of M 396
written on them as M 395
written of him to M 395
written to pay the M 394
wrapped so that it M 394
writers so far as M 391
written the song in M 386
written so near the M 386
written so that an M 385
written to put the M 381
writers to use it M 380
written by her or M 377
writers the use of M 372
writers as long as M 370
written on two or M 367
written to say the M 366
written it and the M 366
writers is that in M 364
writers is that he M 364
written to beg my M 362
written by man or M 360
written me two or M 358
written the poem on M 356
written as not to M 354
wrapper on top of M 353
written to say it M 352
written to you my M 350
written to him he M 350
written on two of M 350
written of any of M 350
written it off to M 350
writers by way of M 350
written of her by M 348
written us that he M 346
written by them as M 344
writers to one of M 344
written so far to M 342
writers go out of M 342
written is not in M 339
written at all by M 338
written in with the M 336
writers to mean the M 336
writers of any of M 336
writers is that we M 330
writers in using the M 330
wrecked by one of M 330
written in easy to M 329
written to and the M 328
written of this as M 328
wrapped on top of M 328
writers as due to M 326
written to him an M 324
written or read as M 323
written of them at M 320
writers in one of M 320
written as thus we M 318
written as sum of M 318
wrapped to fit the M 316
writers to bring the M 314
wrapped up and in M 314
written is not an M 312
written as with an M 312
written to for the M 306
writers he was the M 306
written to her so M 305
writers of each of M 304
writers on both the M 302
written at all or M 300
written to them of M 298
written on and the M 296
written so far of M 294
writers do not so M 294
written it and it M 291
written the day the M 284
written me that it M 284
writers is how to M 284
written of him is M 280
written as may be M 280
writers in that it M 280
written to win the M 278
written to bring to M 278
written in may to M 278
written as all the M 278
written to all my M 276
writers to get the M 276
written to let me M 274
written the set of M 274
written in them is M 274
writers as they do M 274
written as any of M 273
written so far by M 272
written to with the M 268
written in them by M 268
writers to act as M 267
written the way he M 266
writers to add to M 266
writers is not in M 266
writers in any of M 266
written the way the M 264
written at end of M 264
written up day by M 262
written to act as M 262
writers to use in M 262
wrapped the head of M 260
written of them to M 259
written or may be M 258
written of them by M 258
written by god or M 258
wrapped the arm in M 258
wrapped in red or M 258
written at all on M 256
written as and by M 256
wrapped the dead in M 256
written to ask us M 254
written is that so M 254
written by six of M 254
writers to set up M 254
written to ask my M 252
writers to bring to M 252
written the poem of M 250
written of them is M 250
written in that of M 250
written by them of M 250
writers of using the M 250
written to beg the M 248
written or read at M 248
written to them the M 247
wrongdoing is not the M 246
written to say we M 246
written on with an M 246
writers to see in M 246
written it with an M 244
written or can be M 242
written by you as M 242
wrapped the cat in M 242
written to ease the M 240
written on both of M 240
written it out to M 240
written the poem at M 238
written up and my M 236
written the poem to M 236
written by her as M 236
written me one of M 234
written as then we M 234
writers of one of M 234
wrapped up that he M 234
wrapped the man in M 234
wrapped the leg in M 234
written by you is M 231
written on them or M 228
written the law in M 226
written of how he M 224
written by men is M 224
written as let the M 224
writers of one or M 222
wrapped it for me M 222
wrapped in them as M 222
written at each of M 218
written as each of M 217
written us off as M 216
written to his king M 216
writers as being of M 216
wrapped in his or M 216
written in all my M 212
writers to see if M 212
written up all the M 208
written is due to M 208
writers of two of M 208
wrapped us all in M 206
written to you it M 204
written to add to M 204
written so that in M 204
written or read to M 204
written by him he M 204
written by god to M 202
wrapper of one of M 202
written on them at M 201
wrongful in law or M 200
written in them in M 200
written in one go M 200
written on him as M 199
written it for my M 199
wrongdoing of one of M 196
written in that it M 196
wrapped up for us M 196
written the poem as M 195
written to set up M 194
written in and by M 194
writers do use the M 194
written to use it M 192
written the age of M 192
writers as being in M 192
written to using the M 190
written to them or M 190
written to lead up M 190
written me that if M 190
written to fit in M 189
written by men so M 188
writers it can be M 188
wrapper so that the M 188
written in his the M 187
wrongdoing is not an M 186
written by men at M 186
wrongdoing by one of M 184
written us that the M 184
written or not at M 184
written by and on M 184
written at all it M 184
writers do all the M 184
written or was to M 182
written me out of M 182
written in six or M 182
written or that the M 180
writers is not an M 180
wrecked on them in M 180
wrapped in with the M 180
written me that in M 176
written by his or M 176
writers in that the M 176
wrestle of death is M 176
written of this to M 174
written in and on M 174
written by you at M 174
written as due to M 174
writers to read the M 174
wrapped us both in M 174
written on and in M 172
wrestle it out in M 172
wrapped my arm in M 172
wrongful in that it M 170
written in that the M 170
written by them at M 170
wrongdoing is due to M 168
written in red at M 168
written at top of M 168
writers on all the M 168
written to him is M 166
written on each in M 166
written it with no M 166
written by and in M 166
writers to get to M 166
written to let the M 164
written on can be M 164
written in two of M 164
written it all up M 163
written to you an M 162
written it for us M 162
written by this or M 162
writers on law in M 162
written of each of M 160
written it and he M 160
writers of two or M 160
wrested the law to M 160
wrapped the box up M 159
written up for it M 158
written or how it M 158
writers he had in M 158
written on this by M 156
written of her to M 156
written in and of M 156
written he was in M 156
written by them is M 156
written by him it M 156
wrapped the top of M 156
written the song as M 155
written it and as M 155
wrapped my head up M 155
written so far it M 154
written or for the M 154
writers so long as M 154
written at one go M 153
wrapped up that it M 152
wrapped up now in M 152
wrapped the bag in M 150
written or that it M 149
written as has the M 149
written to fit an M 148
written by six or M 148
writers of that or M 148
written up for an M 146
written me that my M 146
written it all to M 146
written by and the M 146
writers is going to M 146
written on top in M 144
written it than the M 144
writers to all the M 144
writers so that we M 144
writers is apt to M 144
written on them so M 143
written to him if M 142
written is that in M 142
writers to set the M 142
writers or men of M 142
written as now if M 141
written to put an M 140
writers do this by M 140
written so that by M 138
written on them on M 138
written at all the M 138
writers as had an M 138
wrapper so that it M 138
written or read the M 136
written on for the M 136
written of this at M 136
written of old in M 136
written an end to M 136
writers to two of M 136
written to men of M 134
written so and so M 134
written is not of M 134
written by him by M 134
written on this at M 132
written is out of M 132
written by one at M 132
written by him we M 132
written at both the M 132
writers he read in M 132
written the way we M 131
written by him if M 130
writers we see the M 130
writers to deal in M 130
writers do with the M 130
wrestle me for it M 130
written it out as M 129
written is not as M 129
wrongdoer is not the M 128
written as now it M 128
writers as with the M 128
wrapped up this in M 128
written as one in M 127
written up with em M 126
written to and is M 126
written me not to M 126
written it was no M 126
writers or with the M 126
writers of them to M 126
wrapped up all of M 126
written of god in M 124
written is that by M 124
written in red to M 124
writers to use as M 124
writers in one or M 124
written by god as M 123
wrongdoing or for the M 122
wrongdoer to pay the M 122
written to them so M 122
written to that of M 122
written to fix the M 122
written or set in M 122
written of you in M 122
written no end of M 122
written it has to M 122
writers to win the M 122
writers is that if M 122
writers as men of M 122
written to her an M 120
written the year he M 120
written on and by M 120
written of things as M 120
written in them no M 120
wrapped it with an M 120
written to bring in M 119
written the lay of M 118
written the idea of M 118
written it off in M 118
written is going to M 118
writers to use an M 118
writers is all the M 118
writers do try to M 118
written as use of M 117
wrongful in and of M 116
written to lead the M 116
written so that at M 116
written it for an M 116
writers so that it M 116
writers he had the M 116
wrecked the idea of M 116
written of all of M 115
writers is not as M 115
written or are in M 114
written of things to M 114
written as yet on M 114
writers do this in M 114
wrapped the two of M 114
wrapped the lot in M 114
wrapped it and the M 114
written of and to M 112
written it was an M 112
written in fear of M 112
writers to aim at M 112
writers of his or M 112
writers is for the M 112
writers he had no M 112
written by him so M 111
written it out at M 110
written it and to M 110
written if all the M 110
writers in this or M 110
written it had to M 109
writers do not as M 109
written to read in M 108
written to fit it M 108
written or read is M 108
written if they do M 108
writers he had to M 108
writers as can be M 108
wrapped or put in M 108
written to and of M 107
wrongdoer to set up M 106
written to read to M 106
written the day on M 106
written in them the M 106
written as was the M 106
writers is with the M 106
writers as may be M 106
wrongdoing so that the M 104
written to see the M 104
written to one in M 104
written or read on M 104
written of him on M 104
written it that the M 104
written in both of M 104
writers of song in M 104
written on her as M 103
written to let us M 102
written to her he M 102
written on him is M 102
written it was in M 102
writers to lie in M 102
written to men in M 100
written to and he M 100
written the way of M 100
written or that he M 100
written in them at M 100
written in ten or M 100
written in red by M 100
written by this king M 100
writers we owe the M 100
writers as for the M 100
wrapped to fit on M 100
wrapped so that no M 100
written on why the M 99
wrongdoing as long as M 98
written on and on M 98
written by man of M 98
writers to lay the M 98
writers if they do M 98
wrapped my leg in M 98
written up and in M 96
written or with the M 96
written of and by M 96
written me for the M 96
written it had it M 96
written by using an M 96
written by that king M 96
written as and an M 96
writers of them in M 96
writers do this to M 96
wrenching it with my M 96
written up and is M 94
written to beg me M 94
written he was at M 94
written at age of M 94
written as all of M 94
writers on one of M 94
wrongdoing by any of M 92
written or not is M 92
written it all by M 92
written by and is M 92
written at one or M 92
writers to let the M 92
writers to bring it M 92
writers the law of M 92
writers do not at M 92
wrapped up that we M 92
written the song to M 91
wrongdoing so that he M 90
wrongdoing in any of M 90
written to her if M 90
written so far the M 90
written or yet to M 90
written of both the M 90
writers to get at M 90
written the law on M 89
wrongdoing or sin is M 88
written or how the M 88
written on that of M 88
written of this or M 88
written in this my M 88
written as thus if M 88
written as they do M 88
writers to try the M 88
writers or for the M 88
writers as did the M 88
wrongful in him to M 86
written up with an M 86
written to sum up M 86
written to him my M 86
written is one in M 86
written if not on M 86
written as and as M 86
written an act of M 86
writers so that he M 86
writers of all of M 86
writers it was an M 86
writers is not at M 86
wrongdoing or that he M 84
wrongdoer is not to M 84
written to run the M 84
written to end the M 84
written the poem the M 84
written the one in M 84
written so that my M 84
written on him at M 84
written of that in M 84
written of him so M 84
written in them to M 84
written in that he M 84
written in and to M 84
written if not in M 84
written as yet in M 84
written as but it M 84
writers of them do M 84
writers in and on M 84
wrapped up all my M 84
wrapped in lead to M 84
wrapped as far as M 84
written or read or M 82
written in using the M 82
written at all as M 82
writers is that no M 82
writers as men is M 82
wriggling on top of M 82
wrongdoing in them he M 80
written it than he M 80
written it has the M 80
written as any in M 80
writers to put an M 80
writers the way to M 80
writers is now in M 80
writers by one of M 80
writers as was the M 80
wrested to mean by M 80
wrapped in sin by M 80
wrapped up and he M 74
written to bring it M 63
wrapped up and we M 63
wrenching to see the M 60
written in them as M 59
wrapped the boy up M 51
wrapped up and it M 47
written to you no M 46
written as that the M 45
written so that as M 44
written of them so M 42
written in ink in D 8573
written in ink on D 7766
wrought in him by D 4206
wrought in them by D 3589
wrought by god in D 2682
wrought us for the D 2311
written in ink or D 2138
wrought in all the D 1977
wrought by him in D 1837
written an ode to D 1492
wrought up with the D 1203
wrought by them in D 1149
wrought in her by D 947
wrought in you by D 846
wrought in any of D 846
wrought up that he D 832
wrapped the gun in D 832
wrought by all the D 804
wrestling is one of D 761
wrought in man by D 700
wrought by one of D 679
written in ink by D 660
wrought by god to D 618
wrought by man in D 610
wrought in him the D 605
wrought on him by D 557
wrought in and by D 530
wrought it out in D 524
wrought in them the D 516
wrought by men of D 514
writers on art in D 508
written in ink at D 493
written in ink of D 476
wrought on them by D 475
written in ink the D 467
wrought in him so D 465
wrought in her so D 465
wrought the death of D 461
wrought in with the D 433
wrinkle is that the D 428
wrought in him to D 408
wrought in men by D 398
wrought by any of D 388
wrought up was he D 380
wrought so with the D 379
wrought on him at D 364
written in pen on D 350
written an ode on D 344
wrought it out of D 338
wrought in them in D 328
wrought up for the D 316
written an ode in D 316
wrought so far on D 314
written the art of D 314
wrapped the ice in D 314
wrinkle or two in D 310
wrought in them to D 306
writers on art to D 302
wrought on them in D 293
wrought in him at D 293
wrought by god on D 290
writers on art of D 286
wrought in him an D 284
wrought as far as D 278
wrought it with the D 265
wrought by him to D 244
wrought up that the D 238
wrought in him in D 238
wrought by man on D 234
wrought in them or D 230
wrought by war in D 230
written or sung by D 224
wrought on him to D 223
writers on art as D 223
wrought in one of D 220
wrapped the lad in D 220
wrought in him as D 214
wrought up out of D 210
written in ink as D 210
wrought in god or D 205
wrought by sin in D 204
written in pen or D 198
wrought by god at D 192
wrought on them is D 184
written by lee to D 184
wrought by them on D 183
wrought up with so D 176
wrought up one of D 174
wrapped the egg in D 166
written by lee the D 164
wrecked the car in D 164
wrought in him is D 163
wrought by war on D 163
wrought in both the D 162
written as per the D 161
wrought in you as D 160
wrought it out by D 159
wrought by way of D 158
wrought by them is D 154
wrestling to get the D 154
writers he met in D 152
wrought on one of D 151
wrought on him so D 151
wrought in thee by D 150
wrought by aid of D 150
wrought so long as D 146
wrapped the jar in D 142
wrought by him on D 140
wrought on her the D 138
written in ink is D 138
wrought by god is D 136
wrought of all the D 135
wrinkle or two to D 134
wrought on with the D 132
wrought in both of D 132
wrought by and in D 130
wrought as that of D 129
wrestling on top of D 129
wrestling it out of D 128
wrought on all the D 127
wrought in each of D 127
wrought by men in D 127
wrought by him as D 125
wrought in you to D 124
written the ode to D 124
wrought by him is D 122
written or sung in D 122
wrought by both the D 120
wrinkle or two on D 120
wrecked the car on D 120
wrought by them to D 118
wrought by him at D 118
writers the art of D 118
wrought so that the D 113
wrought on earth by D 113
wrought by god or D 112
wrought in her the D 111
wrought in them at D 110
wriggling my toes in D 110
wrought on her by D 108
wrought my way to D 108
wrought by sin on D 108
wrought by her in D 108
written by pen or D 108
wrinkling is due to D 108
wrought so long in D 106
written in ink to D 106
wrought in them an D 105
wrought in all of D 104
wrought by war is D 104
wrapped the tin in D 104
wrought so far as D 102
written to tap the D 102
written in icing on D 100
writers to fan the D 100
wrestling is that it D 100
wrought by each of D 98
wrought by death in D 98
written the ode on D 98
written the eve of D 98
wrestling is not my D 98
wranglings of men of D 98
wrought to day is D 96
wrought by god the D 96
written the earl of D 96
wrestling is that the D 96
wrought in her an D 95
wrought it out to D 94
wrought by them at D 94
wrought by death is D 94
wrapped the hem of D 94
wrought to fear by D 92
wrought in her in D 92
written an art of D 92
wrapped the hut up D 92
wrapped in fur or D 92
wracked by one of D 92
written at bath on D 90
written at bath in D 90
written to thee in D 88
wriggle my toes in D 88
wracked by war or D 88
wrought to fit the D 87
wrought to bring the D 86
written to yow the D 86
writers he met at D 86
wrinkle is that we D 86
wrought in men in D 84
wrought in them is D 83
wrought by sin is D 82
wrought by death on D 82
written to jay in D 82
wrapped the pot in D 82
wrought on them at D 80
writers on art do D 80
wrought of god in D 66
wrought in them as D 66
wrought up and the D 53
wrought on her to D 49
wrought on him as D 48
written in ink so D 48
wrought of old by D 41
