eye a kind of M 578
eye a look of M 538
eye a mass of M 428
eye a sort of M 396
eye a view of M 300
eye a line of M 288
eye i talk to M 258
eye a part of M 234
eye a drop of M 204
eye a type of M 199
eye a list of M 188
eye a pair of M 178
eye a band of M 158
eye a pile of M 132
eye a more or M 128
eye i knew he M 120
eye i have to M 106
eye a form of M 102
eye i seem to M 98
eye i look at M 94
eye i have no M 92
eye i used to M 90
eye a range of M 88
eye a means of M 82
eye a gleam of D 180
eye a ball of D 146
eye a lens of D 138
eye i scan the D 126
eye a spot of D 88
eye a foot or D 84
