eye will see him M 3614
eye open for any M 3387
eye told him that M 1963
eye upon him and M 1610
eye open and one M 1407
eye when they are M 1372
eye upon his own M 1306
eye when she was M 1060
eye upon him for M 910
eye when you are M 896
eye upon him with M 810
eye open for new M 779
eye told her that M 740
eye open for him M 687
eye upon them and M 678
eye open for them M 658
eye will not see M 650
eye over them and M 600
eye upon all that M 598
eye upon her and M 584
eye more than one M 540
eye when she saw M 528
eye when one was M 510
eye upon any one M 484
eye upon them all M 472
eye save his own M 458
eye more than any M 456
eye upon all his M 452
eye will see that M 434
eye open for her M 422
eye upon them for M 418
eye there was but M 414
eye there are two M 402
eye open for that M 385
eye open for his M 382
eye over his own M 374
eye open for this M 363
eye open for you M 358
eye down and out M 335
eye when you say M 334
eye open for all M 319
eye will bring him M 314
eye sees all things M 306
eye from one end M 288
eye sees its own M 282
eye when she had M 278
eye upon our own M 276
eye upon his son M 272
eye from his head M 256
eye over her and M 252
eye upon you day M 248
eye upon all who M 246
eye there was not M 245
eye over him and M 238
eye upon use and M 234
eye seen how his M 228
eye from his own M 228
eye open and his M 227
eye upon him that M 223
eye over them all M 216
eye over all his M 216
eye will see them M 212
eye from one area M 208
eye shut and one M 204
eye upon her that M 203
eye grew dim with M 202
eye over all that M 199
eye sees but one M 196
eye open and then M 194
eye open and saw M 194
eye when you read M 192
eye upon you and M 192
eye over all her M 192
eye open with her M 192
eye care and eye M 192
eye blue and one M 190
eye afar off with M 190
eye when you get M 186
eye open for big M 182
eye more than his M 182
eye told him was M 180
eye over them with M 178
eye grew dim and M 178
eye good and its M 176
eye among them all M 176
eye upon her with M 174
eye over our own M 172
eye when they say M 168
eye upon them but M 168
eye told him she M 166
eye upon him all M 162
eye sees that this M 160
eye upon you all M 158
eye upon her own M 156
eye more than for M 154
eye open for fear M 153
eye will then see M 152
eye will see you M 152
eye only and not M 148
eye seen any god M 146
eye upon him but M 144
eye rule all things M 144
eye brings its own M 144
eye upon all its M 142
eye must see that M 141
eye open with his M 140
eye will see one M 138
eye shut and his M 138
eye sees far and M 138
eye save her own M 138
eye must see him M 138
eye have run this M 134
eye when they see M 132
eye when they had M 132
eye unto all his M 132
eye shut and then M 132
eye clear and his M 132
eye open and see M 131
eye sees and not M 130
eye came out and M 130
eye will see and M 128
eye open for its M 128
eye only for its M 126
eye were not sun M 124
eye when you see M 120
eye when they can M 120
eye also has its M 120
eye upon that man M 118
eye upon its own M 118
eye upon her for M 118
eye open for one M 118
eye into his head M 118
eye when you hear M 116
eye told its own M 116
eye when one has M 114
eye upon all things M 114
eye open and both M 114
eye like our own M 114
eye from that with M 114
eye over his son M 110
eye during that long M 110
eye upon this man M 108
eye from any one M 108
eye sees not for M 106
eye open and was M 106
eye soon saw that M 105
eye view does not M 104
eye upon you for M 104
eye torn out and M 104
eye till they had M 104
eye more than they M 104
eye told her she M 100
eye into one end M 100
eye over them for M 98
eye more than all M 98
eye from that long M 98
eye will see two M 96
eye upon that one M 96
eye only they are M 96
eye into his own M 96
eye when you ask M 94
eye when she did M 94
eye have not yet M 94
eye from that low M 94
eye over this map M 92
eye when she goes M 90
eye when both are M 90
eye what was going M 90
eye open for our M 90
eye must see and M 90
eye like her own M 90
eye open and big M 88
eye when you bid M 86
eye sees them not M 86
eye only for his M 86
eye only can not M 86
eye upon them both M 84
eye unto him and M 84
eye other than that M 84
eye ever saw him M 84
eye ever saw any M 84
eye show how they M 82
eye over this and M 82
eye grow dim and M 82
eye open for things M 80
eye view can not M 57
eye less than one M 55
eye sees all that M 44
eye view was not M 42
eye upon them that M 42
eye caps and eye D 294
eye gene and one D 258
eye upon his dial D 222
eye gaze and head D 175
eye shot out and D 170
eye lens can not D 116
eye gene and its D 110
eye when they met D 108
eye longs for this D 108
eye gleam and his D 98
eye teeth are cut D 92
eye seeing one jot D 92
eye clear and hit D 90
eye grew dim thou D 84
