eyes of a king M 1376
eyes as i am M 678
eyes as i do M 486
eyes if i do M 296
eyes is a thing M 262
eyes to a thing M 254
eyes if i am M 244
eyes so i do M 192
eyes as a thing M 150
eyes on a thing M 134
eyes as i go M 126
eyes on a tea M 102
eyes as i to M 98
eyes of a doe D 1120
eyes of a sea D 474
eyes in a sea D 174
eyes to a sea D 82
