iron in all ages D 5190
iron in his hand D 4641
iron or any other D 3386
iron is not used D 1738
iron in his soul D 1652
iron is put into D 1442
iron in her hand D 1412
iron in any form D 1410
iron is not only D 1259
iron is run into D 1168
iron in one hand D 1092
iron in her soul D 1033
iron in this case D 968
iron of any kind D 920
iron on each side D 890
iron in this form D 786
iron on one side D 766
iron or pig iron D 679
iron at that time D 647
iron in new york D 620
iron at this time D 589
iron up and down D 553
iron at both ends D 547
iron is set free D 530
iron is not very D 523
iron is being used D 488
iron in his mouth D 471
iris of his eyes D 450
iron is not well D 432
iron in his eyes D 408
iron is now used D 400
iron in her diet D 398
iris of her eyes D 393
iron on his left D 384
iron ring set into D 380
iron in his body D 379
iron is not made D 372
iron ring let into D 353
iron is not pure D 342
iron ring that swung D 340
iron in its core D 338
iron is then said D 334
iron at one time D 306
iron is far more D 304
iron in one form D 302
iron on his back D 300
iron it has been D 294
iron in his diet D 286
iron of not less D 280
iron is not much D 280
iron is far from D 274
iron is not more D 270
iron in egg yolk D 270
iron is not good D 256
iron of any sort D 250
iron of this kind D 244
iron is run from D 238
iron ring had been D 232
iron be put into D 229
iron in his left D 225
iron is too soft D 224
iron in this part D 224
iron we who have D 220
iron of this type D 220
iron in its pure D 218
iron in her mouth D 218
iron as they were D 216
iron of his soul D 214
iron is now made D 212
iron is being made D 212
iron in any other D 206
iron in any case D 206
iron in his bare D 204
iron on its heel D 202
iron in him hide D 202
iron is cut into D 196
iris in both eyes D 193
iron in his heart D 192
iron of his will D 190
iron is pig iron D 186
iron or lead pipe D 181
iron in his back D 178
iron to new york D 176
iron in each hand D 176
iron in our diet D 174
iron in his belt D 174
iron in any part D 174
iron if you have D 174
iron he had been D 174
iron at any time D 173
iron in its turn D 166
iron in its most D 165
iron is too high D 164
iron to and from D 162
iron in our food D 162
iron to one side D 157
iron is not lost D 156
iris of both eyes D 154
iris as she went D 154
iron in this type D 153
iron thing they lift D 150
iron is too hard D 150
iron do not have D 150
iron at his feet D 150
iron on his legs D 148
iron in that part D 148
iron it not only D 147
iron as has been D 147
iris at its root D 147
iron in each case D 146
iron is then used D 144
iron is now very D 144
iris on one side D 144
iron in his face D 142
iron in two ways D 141
iron is too cold D 138
iron in her body D 136
iron at low cost D 136
iron is now ready D 134
iron or with iron D 133
iron in this city D 132
iron if you give D 132
iron on his feet D 130
iron by this time D 130
iron so that there D 128
iron on each other D 128
iron in its heart D 124
iron ring and went D 122
iron in its body D 122
iron ring has been D 121
iron to any great D 120
iron in his tone D 120
iron to bar iron D 118
iron or lead ball D 118
iron is far less D 118
iris of this bird D 118
iron is not clear D 117
iron as had been D 116
iris on each side D 116
iron to run into D 112
iron ring that held D 112
iron on his face D 112
iron of egg yolk D 112
iron is too cool D 112
iron in his guts D 112
iris is not only D 112
iron in its mouth D 110
iron by using coke D 108
iron do not form D 106
iron on her back D 105
iron in his fist D 104
iron by pit coal D 104
iris of its eyes D 104
iron is not iron D 103
iron is let down D 102
iron it was made D 99
iron to each dose D 98
iron on his neck D 98
iron to buy food D 96
iron or lead shot D 96
iron is let into D 94
iron is going into D 94
iron in his will D 94
iris of his left D 94
iron in his teeth D 92
iron in his side D 92
iron on his skin D 90
iron on his foot D 90
iron of one inch D 90
iron of any form D 90
iron in its make D 90
iron to get into D 88
iron so that when D 88
iron or lead will D 88
iron in its ores D 88
iron in its food D 88
iron in her food D 88
iron to any other D 86
iron on our heads D 86
iron in his tongs D 86
iron do not move D 86
iron we may take D 84
iron in that form D 84
iron in his shop D 84
iron at its core D 84
iron to one part D 82
iron to his poor D 82
iron to his body D 82
iron or lead into D 82
iron is too great D 82
iron is thus made D 82
iron do not react D 82
iron or bar iron D 80
iron is fed into D 80
iron is eating into D 80
iron is not less D 73
iris is not very D 51
iron of her will D 46
iron is too much D 44
iron in all these D 44
iron to his will D 43
iron by this means D 42
iron in its many D 40
