iron bar in his D 1920
iron ore in this D 1643
iron ore is not D 1636
iron that is not D 1507
iron off the tee D 1348
iron rod in his D 1058
iron was in use D 1038
iron ore to pig D 856
iron ore is being D 788
iron ore is now D 755
iron out of his D 701
iron age in this D 686
iron ore in its D 662
iron for the use D 662
iron and it was D 647
iron and the use D 634
iron and is not D 587
iron and the air D 580
iron ore of this D 577
iron and do not D 543
iron age in east D 513
iron ore is one D 510
iron rod of his D 468
iron with the aid D 461
iron ore is dug D 457
iron ore in that D 436
iron that it was D 423
iron all the way D 423
iron that he had D 410
iron may be due D 366
iron tip of his D 360
iron than in air D 360
iron ore in new D 360
iron age it was D 360
iron age is not D 360
iron may be put D 356
iron can be cut D 354
iron that he was D 340
iron are the two D 334
iron for the new D 330
iron that is too D 328
iron and the earth D 327
iron bar on her D 314
iron and of war D 310
iron bar on his D 309
iron age in sub D 296
iron and the two D 295
iron and of lead D 294
iron bar so that D 287
iron that is being D 286
iron ore in one D 282
iron rod or bar D 278
iron and he was D 276
iron head of his D 275
iron and the art D 274
iron bed in one D 263
iron may be had D 262
iron ore or pig D 259
iron due to its D 259
iron and the lead D 257
iron rings at each D 238
iron but is not D 238
iron and the new D 238
iron out of ore D 235
iron bar is not D 231
iron out of its D 228
iron bar of his D 228
iron ore on his D 227
iron out of our D 226
iron ore to its D 225
iron pot or two D 224
iron bar he had D 222
iron bar in one D 220
iron ore of all D 216
iron than in any D 214
iron man by ted D 214
iron for the war D 214
iron bar or rod D 211
iron that it can D 208
iron out of her D 206
iron can be put D 206
iron key in his D 204
iron and the low D 202
iron and of its D 202
iron age is that D 196
iron and in this D 194
iron with the use D 192
iron may be thus D 192
iron for the year D 191
iron and it has D 191
iron and the heat D 189
iron than it had D 186
iron rings on his D 186
iron pot on his D 186
iron ore in all D 186
iron may be cut D 186
iron ore in our D 183
iron was at one D 178
iron end of his D 178
iron ore at this D 172
iron may be low D 172
iron bed in his D 171
iron ore in his D 170
iron and the sex D 170
iron and the non D 169
iron rod in one D 168
iron ore or oil D 168
iron ore so that D 167
iron ore of any D 166
iron ore is that D 166
iron bar in her D 166
iron and in air D 163
iron was as yet D 160
iron they do not D 160
iron rod is not D 158
iron bar in two D 158
iron and the one D 156
iron rings on each D 155
iron law of our D 154
iron that we are D 152
iron and the sky D 152
iron ore of its D 150
iron rod so that D 148
iron but it was D 148
iron than the earth D 147
iron with an eye D 146
iron law of its D 146
iron and of all D 146
iron was in his D 144
iron may or may D 144
iron but do not D 142
iron and is then D 142
iron now in use D 140
iron bar in its D 140
iron that it does D 138
iron than of any D 138
iron owing to its D 138
iron ore on its D 138
iron rod is then D 137
iron ore on this D 136
iron and to use D 136
iron than it does D 135
iron rings on her D 134
iron can be had D 134
iron and the red D 134
iron ore as raw D 133
iron that is put D 132
iron can be thus D 132
iron that is hot D 130
iron pot or pan D 130
iron and the rim D 130
iron and he had D 128
iron ore to his D 126
iron ore of that D 126
iron out the ups D 125
iron set on low D 124
iron near the end D 123
iron that it may D 122
iron than he can D 122
iron pot in his D 121
iron ore in her D 121
iron and the age D 121
iron ore to that D 120
iron lay on one D 120
iron and the oil D 120
iron than it did D 118
iron ore it was D 118
iron for the head D 118
iron and do all D 118
iron age in its D 118
iron age do not D 118
iron pot in her D 113
iron ore is fed D 112
iron ore at its D 112
iron was so big D 110
iron this is not D 110
iron ore in any D 110
iron bit in his D 110
iron this thing out D 109
iron than in that D 108
iron rings of his D 108
iron may be run D 108
iris got up and D 108
iron with an air D 106
iron and the sum D 106
iron and an old D 106
iron age of war D 106
iron ore is its D 105
iron for the two D 104
iris had no idea D 104
iron ore is met D 102
iron ore at two D 102
iron and in one D 102
iron out of this D 101
iron out of that D 101
iron ore or any D 101
iron that is now D 100
iron rim of one D 100
iron pot on top D 100
iron may be too D 100
iron can be run D 100
iron ore at all D 99
iron was at that D 98
iron pin at each D 98
iron pen of his D 98
iron ore is far D 98
iron cap on her D 98
iron can be set D 98
iron are in use D 98
iron ore is low D 97
iron rod in her D 96
iron ore is due D 96
iron one is not D 96
iron bar is now D 96
iron and the tin D 96
iron age we can D 96
iron age in our D 96
iris may or may D 96
iris are the long D 96
iron for the top D 95
iron was so hot D 94
iron then in use D 94
iron but it has D 94
iron bed of his D 94
iron and the fat D 94
iron law of all D 93
iron was by far D 92
iron rod up and D 92
iron ore it has D 92
iron ore is then D 92
iron box in his D 92
iron bar to get D 92
iron are by far D 92
iron and the gas D 92
iron age is but D 92
iron ore in two D 90
iron for the red D 90
iron ore at one D 89
iron than do men D 88
iron rod on his D 88
iron and the pin D 88
iron and of tin D 88
iron and no way D 88
iron and is thus D 88
iron that do not D 86
iron set of his D 86
iron ore do not D 86
iron bar in fig D 86
iron that it has D 85
iron than it has D 85
iron out of them D 85
iris may be due D 85
iron was in its D 84
iron and the ease D 84
iron and is one D 84
iron age of this D 84
iris led the way D 84
iron was of two D 82
iron than it was D 82
iron rings in them D 82
iron may be set D 82
iron head at one D 82
iron but it does D 82
iron bar he was D 82
iron and the pot D 82
iron ore on earth D 80
iron ore as they D 80
iron for the day D 80
iron axe in his D 80
iron and the men D 80
iron and it may D 80
iron and it can D 80
iron age of that D 80
iron age of our D 80
iron age is now D 80
iron and the top D 63
iris was on her D 55
iris all the way D 55
iris that he had D 51
iris may be cut D 51
iris was the one D 50
iron law is that D 46
iron ore is near D 45
iris was in her D 43
iron pan on top D 42
iron for the earth D 42
iron ore so far D 41
iron near the top D 41
iron that we can D 40
iron rod is now D 40
