even a single one M 12952
even a single day M 10271
even a hint that M 10167
even i know that M 7552
even a great deal M 6722
even a good man M 6114
even a good deal M 6024
even a good one M 5930
even i knew that M 4711
even a name for M 4634
even a wise man M 4588
even a word for M 4128
even a young man M 4101
ever i heard one M 4046
even a poor man M 3993
even a single man M 3928
even a very few M 3814
even a very low M 3670
even a good idea M 3200
even a great man M 3092
even a look that M 2712
even a rich man M 2518
even a month ago M 2390
even i have not M 2313
even a single seat M 2250
even a great one M 2227
even a week ago M 2194
even a single year M 2034
ever a time for M 2022
even a very weak M 1940
even a very long M 1915
even a need for M 1862
even a fool can M 1696
even i will not M 1634
ever a young man M 1610
even a thank you M 1606
even a single act M 1590
even a theory that M 1587
ever a time that M 1550
even a full day M 1474
even a poor one M 1384
even a full year M 1356
even a word that M 1332
even a great and M 1278
even a hope that M 1236
even a great poet M 1234
ever i heard him M 1224
ever a need for M 1186
even a plan for M 1170
ever a good idea M 1136
even a third and M 1134
ever i have had M 1111
ever i knew him M 1110
even i have had M 1100
even a month old M 1092
ever i meet him M 1071
even a girl who M 1052
even a good and M 1044
even a good way M 1008
even a single bit M 994
even a sign that M 988
even a case for M 970
even a very bad M 962
even a call for M 946
even a term for M 934
even a young one M 899
even a young boy M 898
even a very old M 894
even a less than M 878
even a single new M 872
even a wise and M 860
ever i have one M 846
even a young and M 810
even a word with M 804
even a third one M 796
ever a true and M 782
even a mild one M 782
even a very big M 778
ever i meet with M 776
even a word and M 776
even a wish for M 768
evil i will not M 752
even a sick man M 730
even a baby can M 726
even a book that M 722
ever i have any M 721
even a single meal M 718
even a just war M 709
even a more than M 700
ever a girl was M 698
even a clear and M 678
even a bird was M 678
ever i knew you M 662
ever a pure and M 660
even a cure for M 660
ever i knew any M 656
even a poor and M 618
even a fool may M 614
ever i heard any M 604
even a clear idea M 602
even a longing for M 598
ever i knew them M 596
ever a case for M 582
ever a book was M 578
ever i find you M 574
even a free man M 574
even a room for M 568
even i know you M 562
even a list for M 562
ever a girl had M 560
ever a good and M 552
even a half day M 549
even a love for M 540
even a risk that M 538
even a single idea M 530
even a rich one M 528
ever a time you M 522
ever a great man M 521
ever i know you M 512
even a true one M 502
ever i heard man M 500
even a wrong one M 499
even a holy man M 495
ever i have read M 492
even a bird can M 488
even a single use M 484
even a word was M 480
even i know how M 472
ever i knew her M 466
even i felt that M 463
even a single set M 462
even a liking for M 462
ever a poor man M 456
even a rich and M 454
even a less one M 454
ever a monk got M 440
ever a youth was M 434
even a true and M 434
even a baby who M 426
even a girl with M 424
even a wish that M 422
ever i sent him M 420
ever i gave you M 418
even a third year M 416
ever i felt that M 415
ever a good man M 414
even a less sum M 406
even a cold one M 397
even a land that M 396
even a book with M 396
even a third may M 392
even a single sin M 392
even a hearing for M 386
ever i feel that M 383
even i dare not M 380
even a good job M 380
even a bird that M 380
even i knew this M 374
even a time for M 366
even a single poem M 364
even a view that M 362
even a living one M 362
even a mild and M 360
ever i have are M 348
ever a word was M 344
ever a time was M 342
even a hard one M 342
even a home for M 340
even a life that M 333
ever i meet that M 332
even a week old M 332
even a used one M 331
even a single dog M 331
ever a great poet M 328
even a work that M 328
even a single death M 328
even a third set M 326
ever i knew one M 324
ever i knew how M 324
even a wise one M 321
even a name that M 320
even a fair and M 320
even a rule that M 316
even a great way M 310
even a great war M 310
even a single bad M 308
even a mile and M 308
even a hope for M 308
even a duty for M 306
ever i meet you M 302
even a month was M 302
evil i know not M 300
ever a dark and M 299
even a single cup M 298
even a keen and M 298
even a good poet M 298
even a role for M 294
even a fact that M 293
even a week and M 292
ever i heard that M 290
even a room with M 286
even a good end M 286
ever a kind and M 284
even a third job M 284
even a good old M 284
ever a keen eye M 282
even a means for M 282
ever i seen one M 281
ever i find that M 280
even a full meal M 280
even a fool who M 278
even a fake one M 276
ever i knew that M 274
ever i came near M 274
even a just and M 274
even a gift for M 274
ever i find out M 270
even a plan that M 267
even a bold man M 262
ever i give you M 260
even a single head M 258
even a good bit M 258
even i knew was M 256
even a month had M 254
even a book for M 254
even i know this M 252
even i knew how M 252
even a hair can M 252
even a good law M 252
even a fair one M 252
even a hint for M 250
even a threat that M 249
evil a great way M 246
even a test with M 246
even a home run M 245
ever i tell you M 244
even a bird has M 244
even a nice one M 243
ever i call you M 242
ever a just war M 240
even a full set M 240
even a five year M 239
even a blow was M 238
even a good dog M 237
even a fool does M 236
even a break for M 236
even a single non M 235
even a site for M 234
even a high one M 233
ever i heard you M 232
even a week for M 232
even a poor boy M 232
even a bold and M 232
even a name and M 230
even a road map M 229
ever i find him M 228
even a line that M 228
even a good day M 226
even a cold war M 225
even a free one M 221
ever a great and M 220
even a single and M 220
even a test that M 219
even a dull one M 218
ever i felt any M 216
even i feel that M 216
even a tree for M 216
even a case that M 216
even a mind that M 214
even a cold and M 214
even a saying that M 213
even a worm can M 210
even a week had M 208
even a poor old M 208
even a month and M 208
even a hint was M 208
even a single run M 206
even a lazy man M 204
even a tree can M 202
even a living being M 202
even a well man M 200
even a week may M 200
even a just man M 199
even a tree that M 197
ever a mind was M 196
ever a good lay M 196
even a look was M 196
ever a time and M 194
ever a case that M 193
ever i thank any M 192
ever i came for M 192
even a free and M 190
ever i pray god M 188
ever a play has M 188
even a live dog M 188
even a link with M 188
ever i hold you M 186
ever a city was M 186
even a tree was M 186
even a kind and M 186
even a rare one M 185
even a mile off M 185
even a sage can M 184
even a clue that M 183
ever i told you M 182
ever i leave this M 182
ever i have yet M 182
even a just one M 182
even a live one M 180
even a full and M 180
ever a rich man M 178
ever a good one M 177
even a tale that M 177
ever a time she M 176
even a single area M 176
even a lady who M 176
even a date for M 176
ever i told her M 174
even a name was M 174
ever i made any M 172
even a single law M 172
even a look for M 172
even a good act M 172
even a break with M 172
ever a girl who M 170
even a slow one M 170
even a great big M 170
even a good map M 170
even a dull man M 170
ever a town was M 168
even a word can M 168
even a wild dog M 168
even a busy man M 168
ever i make any M 166
ever i made man M 166
ever a sign that M 166
even a three year M 166
even a fine and M 166
ever a case was M 164
even a single real M 164
even a sick one M 164
even a shed for M 164
even a great poem M 164
ever i seen him M 163
even i think that M 163
even a text that M 162
even a girl can M 162
ever i want you M 160
ever i heard them M 160
even a poor job M 160
even a single being M 159
even i will say M 158
even a month for M 158
even a union with M 156
even a slow and M 156
even a fifth and M 156
even a week off M 155
ever i come out M 154
even i think you M 154
even a holy one M 154
even a dull boy M 154
even a trial run M 153
even a single eye M 153
evil a soft and M 152
even a great idea M 152
even a week with M 150
even a third day M 150
even a month may M 150
even a good meal M 149
even a single son M 148
even a single dot M 148
even a late one M 148
even a dull and M 148
even a single long M 146
even a poor fit M 146
even a high and M 146
even a good try M 145
even a half year M 144
ever i quit this M 142
ever a more and M 142
even i knew she M 142
even a week can M 142
even a bird may M 142
ever i meet one M 140
even a word may M 140
even a note was M 140
even a losing one M 140
even a third way M 138
even a single song M 138
even a note for M 138
even a good set M 138
even a full one M 138
even a faith that M 138
even a city with M 137
ever a word had M 136
ever a great one M 136
even a tomb was M 136
even a part that M 136
even a back can M 136
evil i deem you M 135
ever i come near M 135
ever a fair and M 134
even a face but M 134
even a dream that M 134
ever a role for M 132
even a holy war M 132
even a hero for M 132
even a good poem M 132
even a fire was M 132
even a date with M 132
even a cure may M 132
even a huge one M 131
ever i knew men M 130
ever i heard her M 130
even a wind that M 128
even a clean one M 127
ever i think you M 126
even a single cry M 126
even a hole for M 126
even a note that M 125
ever a wise man M 124
ever a free man M 124
even a word being M 124
even a safe one M 124
even a line for M 124
even a life with M 124
even a kiss was M 124
even a hero can M 124
even a duty any M 124
even a deep and M 124
even a copy had M 124
even a warm one M 123
ever a ship was M 122
ever a life was M 122
even i have got M 122
even a tree with M 122
even a talk with M 122
even a rule for M 122
even a love that M 121
even a city that M 121
ever i love you M 120
ever i find any M 120
ever i felt fear M 120
even a very real M 120
even a line and M 120
even a fool has M 120
even a fine one M 120
ever i meant that M 119
ever i find one M 119
even a single old M 118
even a single key M 118
even a single dead M 118
even a fair idea M 118
even a wild one M 117
even a site that M 117
ever i heard our M 116
ever a free and M 116
even a pure and M 116
even a name can M 116
even a month with M 116
even a keen eye M 116
even a game that M 116
even a fish can M 116
even a baby yet M 116
even a deep one M 115
even a bank that M 115
ever i have for M 114
ever i came out M 114
ever a girl did M 114
even a third has M 114
even a blow with M 114
ever i went out M 113
ever i knew man M 112
ever i have you M 112
even a single war M 112
even a single boy M 112
evil i have not M 111
ever i came that M 111
even a single cut M 111
even a test for M 110
even a mild head M 110
even a room that M 109
ever i pray and M 108
ever i have got M 108
ever i felt was M 108
ever a time not M 108
even a four year M 108
ever a heart that M 107
ever a name was M 106
ever a month was M 106
ever a great deal M 106
even a single bar M 106
even a lust for M 106
even a term that M 105
even a heavy one M 105
evil i left that M 104
ever i told him M 104
ever a work was M 104
ever a more than M 104
ever a clear and M 104
even i know not M 104
even a week was M 104
even a good year M 104
even a case with M 104
even a body that M 104
even a bird with M 104
ever a land was M 102
even i know who M 102
even a wise old M 102
even a monk who M 102
even a hard man M 102
even a hard and M 102
even a good lie M 102
even a bone was M 102
even a bird singing M 102
even a third man M 101
even a soft one M 101
even a single beat M 101
ever i tell that M 100
ever i meet her M 100
ever i made with M 100
ever i heard men M 100
ever a home for M 100
even a vain man M 100
even a third for M 100
even a kiss for M 100
even a good war M 100
even a baby one M 99
ever i need you M 98
ever i heard say M 98
ever a sick man M 98
ever a good poet M 98
even a user who M 98
even a trial for M 98
even a single job M 98
even a single fly M 98
even a good boy M 98
even a full two M 98
even a code for M 98
even a breath was M 98
even a single red M 97
ever a high and M 96
ever a busy man M 96
even a warm day M 96
even a lady with M 96
even a hint has M 96
even a hair was M 96
even a cool and M 96
ever i gave him M 95
even a moving one M 95
ever i done was M 94
even i knew they M 94
even a wild cat M 94
even a love song M 94
even a hair out M 94
even a good team M 94
even a good song M 94
even a fair job M 94
even a dream can M 94
evil i have for M 92
ever a hint that M 92
ever a good way M 92
even a wild man M 92
even a love poem M 92
even a form for M 92
even a kind one M 91
ever i wish you M 90
ever i sees him M 90
ever i meet them M 90
ever i leave off M 90
ever a word being M 90
ever a play was M 90
even i knew who M 90
even a word had M 90
even a turn for M 90
even a soft and M 90
even a sign for M 90
even a ship that M 90
even a play with M 90
even a name has M 90
even a hearing aid M 90
even a free cup M 90
even a form that M 90
even a drop for M 90
even a cool head M 90
even a calm and M 90
even a blue one M 90
even a base for M 90
ever i talk with M 88
ever i have sat M 88
ever a ship had M 88
ever a lady who M 88
ever a fifth act M 88
ever a door was M 88
even i know all M 88
even a youth who M 88
even a west and M 88
even a play area M 88
even a lady may M 88
even a game with M 88
even a free meal M 88
even a fish has M 88
even a fire for M 88
even a baby was M 88
even a baby may M 88
ever i made you M 86
ever i have won M 86
ever a longing for M 86
even i will hear M 86
even a very dim M 86
even a single big M 86
even a male who M 86
even a gray sky M 86
even a good cry M 86
even a door that M 86
even a heart that M 85
ever i seek for M 84
ever a just man M 84
even i love you M 84
even a young dog M 84
even a very near M 84
even a sign out M 84
even a hard day M 84
even a dull wit M 84
even a book can M 84
even a single bud M 83
even a blue sky M 83
ever i went with M 82
ever i make you M 82
ever i knew and M 82
ever i have not M 82
ever a wise and M 82
ever a single day M 82
ever a great sin M 82
ever a city had M 82
even a very new M 82
even a page and M 82
even a nice man M 82
even a lost one M 82
even a living man M 82
even a line with M 82
even a clear one M 82
even a bank with M 82
even a baby being M 82
ever i felt them M 80
ever a bold and M 80
ever a bird was M 80
even a week has M 80
even a very easy M 80
even a third son M 80
even a male one M 80
even a hint being M 80
even a good long M 80
even a goal for M 80
even a dull day M 80
even a dark and M 80
even a city boy M 80
even a home that M 59
even a fish that M 53
ever i have that M 52
even i find that M 52
even a third that M 49
even a dull red M 48
even a hand that M 47
even a word out M 46
ever i said that M 43
ever a word that M 43
even a shop that M 43
ever i make that M 42
even a single air M 42
ever i think that M 41
even a file that M 41
even a road that M 40
even a more far M 40
even a deep red M 40
even a cold can M 40
even a tiny bit D 6299
even a very thin D 1682
even a single leaf D 1320
even a tiny one D 1148
even a single ray D 762
even a firm with D 758
even a single tear D 679
ever i have met D 553
even a wife who D 542
even a nail for D 540
even a single pie D 474
even a firm that D 422
even a wife and D 394
even a tall man D 366
even a single cow D 360
even a single gun D 351
even a single egg D 310
even a cheap one D 298
even a single car D 294
even a dime for D 286
even a suit for D 266
ever a soul was D 260
even a pope can D 252
even a sine qua D 242
even a dime with D 240
even a single row D 234
even a used car D 232
even a mere man D 231
ever a wolf that D 226
even a goat for D 222
even a warm bath D 220
even a good liar D 220
even a shot was D 218
even a pious man D 218
even a star was D 212
even a single bed D 211
even a single hut D 208
even a single hit D 208
even a half per D 194
even a foot long D 190
even a thief may D 188
ever i knew thee D 186
even a single iota D 185
even a poll tax D 184
even a shot being D 182
ever a boat was D 178
even a frying pan D 174
even a film that D 174
even a tent for D 172
even a boat can D 172
even a club for D 170
even a spot that D 167
even a joke that D 165
even a five per D 164
even a sail was D 162
even a lame one D 162
even a single ton D 160
even a nice guy D 160
even a cook with D 160
even a single rat D 156
even a tool for D 154
even a sane man D 154
even a very hot D 152
even a foot and D 150
ever a firm and D 148
even a heavy dew D 147
ever a shot was D 144
even a slim one D 142
even a lease for D 142
even a bird sang D 142
even a vote for D 140
even a tiny leak D 140
even a pious and D 140
even a goat can D 140
even a rude and D 136
ever a sail was D 134
even a pond with D 132
even a cent for D 132
even a gold one D 130
even a cold bath D 128
even a lump sum D 124
even a fine art D 124
even a boat with D 124
even a tiny leaf D 123
even a wife has D 122
even a single pang D 122
even a fowl for D 122
ever i took you D 120
even a thief can D 120
even a thief and D 118
even a single sting D 118
even a foot was D 118
even a dumb one D 117
even a good guy D 116
even a mule can D 114
even a drug that D 114
even a desk for D 114
even a task that D 112
even a bald head D 112
ever i love thee D 110
even a wife can D 110
even a tiny area D 110
even a jeep can D 110
even a finger may D 110
even a chat with D 110
ever a lamp was D 108
even a thief has D 108
even a single bee D 108
even a piano and D 108
even a film with D 108
even a cane can D 108
ever i give thee D 105
even a soul that D 105
even a vine and D 104
even a canoe was D 104
even a fist was D 102
even a card for D 102
even a single bead D 100
even a scar was D 100
even a park with D 100
even a bill for D 100
even a beer can D 100
even a tiny cut D 99
ever a loving and D 98
even a tyro can D 98
even a thief who D 98
even a spot for D 98
even a single flea D 98
even a hazy idea D 98
even a dinghy with D 98
even a mere two D 97
even a giant can D 97
ever a race was D 96
even a wife may D 96
even a nice hat D 96
even a foot path D 96
even a bout with D 96
even a third row D 94
even a silk hat D 94
even a race with D 94
even a finger can D 94
even a bush for D 94
even a blue jay D 94
even a wild pig D 93
even a tame one D 93
even a firm and D 92
even a single tax D 90
even a peep out D 90
even a boat was D 90
even a babe may D 90
even a pious one D 89
even a single sip D 88
even a sham one D 88
even a rock for D 88
even a pope who D 88
even a third car D 86
even a single pot D 86
even a piano for D 86
even a mania for D 86
even a sink and D 82
even a roof for D 82
even a pope had D 82
even a diet that D 82
even a comb and D 82
ever i were gay D 80
even a sigh for D 80
even a piano was D 80
even a single ant D 54
even a radio set D 50
even a tiny ant D 43
even a star that D 42
even a wire one D 40
even a tool that D 40
even a single sub D 40
