events are to be M 18546
evolve out of the M 14462
events led to the M 14216
events and of the M 12342
evolving out of the M 9817
events and in the M 9606
events and to the M 7102
events going on in M 6402
events are in the M 6210
events and by the M 5654
events had to be M 5544
events out of the M 4822
events and on the M 4290
events due to the M 3428
events one of the M 3311
events led up to M 3148
events lead to the M 3122
events and so on M 3084
events that it is M 3056
events may be the M 3052
events and it is M 2798
events not to be M 2764
events has to be M 2418
events and at the M 2278
events was to be M 2200
events both in the M 2106
events are of the M 1962
events are on the M 1876
events that go on M 1868
events than in the M 1850
events now to be M 1748
events that in the M 1736
events but in the M 1654
events may be of M 1572
events that he is M 1562
evokes one of the M 1554
events going on at M 1448
events not in the M 1422
evoked out of the M 1412
events are at the M 1402
events and to be M 1400
events that is the M 1354
events led to an M 1218
events can be the M 1154
events may be in M 1102
evolve out of it M 1097
events may be so M 1067
events this is the M 1060
events had on the M 1044
events was in the M 1026
events than by the M 1020
events than to the M 1016
evoked for me the M 1009
events that he or M 968
events put on by M 966
evoked one of the M 947
events that we do M 934
events led me to M 922
events but by the M 916
events yet to be M 908
events are by no M 870
evokes for us the M 861
events may be as M 860
events that go to M 848
events can be of M 828
events lead up to M 810
events but to the M 800
evolve out of an M 786
events lay in the M 778
events than it is M 774
evokes that of the M 764
events but on the M 758
events but of the M 724
events but it is M 700
events and is the M 700
events can be as M 696
events than on the M 694
events may be an M 694
events far in the M 688
evolving area of the M 664
events and as the M 656
events add up to M 636
events that at the M 628
events lead us to M 624
events lie in the M 618
evenly and at the M 606
evolve due to the M 605
events are of no M 594
evolve and to be M 578
evolving law of the M 574
evokes for me the M 565
events lead to an M 560
events can be an M 548
events add to the M 528
events had in the M 518
evoked not by the M 512
events can be so M 504
evolving out of it M 476
events both on the M 470
events set in the M 462
events was by no M 458
evenly than in the M 448
events lying in the M 436
events that is to M 428
events than is the M 428
evolving out of an M 422
evolving and it is M 418
events east of the M 414
events not to the M 412
events not on the M 410
events for up to M 410
events out in the M 406
events that on the M 396
events and as an M 382
events was on the M 376
events had to do M 368
events are to the M 368
events but as the M 366
events has to do M 344
events mean to the M 342
events and in so M 340
events led us to M 338
events but at the M 332
evolve and by the M 330
evoked him on the M 330
events can be in M 330
events than do the M 328
evenly and in the M 328
evolving due to the M 323
events yet in the M 322
events run by the M 318
events bring us to M 318
events but as an M 314
events owing to the M 312
evenly out of the M 312
events for us to M 310
evolving use of the M 304
events both at the M 302
evokes all of the M 299
events lie at the M 298
evolve and it is M 297
events and is an M 296
events that is of M 294
events out of my M 294
events all of the M 293
events are in no M 292
evaded one of the M 292
evenly and it is M 290
events than of the M 280
events and to do M 274
events now in the M 270
events and so the M 266
events may be at M 260
events that is so M 254
evoked than in the M 248
events may be to M 248
events and as to M 242
events set up by M 240
events far to the M 238
evoked both by the M 234
events and is in M 232
evoked for us by M 230
events let us go M 230
events and if the M 228
events that is at M 222
events for me to M 222
evaded them in the M 222
events long in the M 218
events both of the M 216
events for us in M 214
evenly and to the M 214
events and so to M 210
events one thing is M 208
events lead me to M 208
evoked for us in M 206
evolving idea of the M 204
events was of the M 204
evaded him in the M 204
events than we do M 202
events that do or M 200
events for it to M 200
events and to an M 194
events she or he M 192
evolve one of the M 186
events led to my M 186
events are of so M 186
evoked for me by M 184
events that is in M 184
events than he is M 184
events mean to us M 184
events nor in the M 182
evolve and as the M 181
events than at the M 180
events and so he M 180
events are of an M 178
evoked fear in the M 176
events that of the M 174
events out of an M 172
events then it is M 170
events due to an M 164
events may go on M 163
events led to it M 162
evokes fear in the M 161
events and he is M 160
events let it be M 158
events and if we M 158
evolve and in the M 156
events and so it M 156
evolving and is in M 154
events than to be M 154
events and in no M 154
events and by an M 154
evoked both in the M 150
events dear to the M 150
evasion was to be M 150
events was at the M 148
events and of an M 148
events with up to M 146
events that by the M 146
events that in no M 144
evoked and in the M 140
events this is an M 138
evoked for us the M 136
events than as the M 136
events has on the M 136
events being in the M 136
events can be at M 134
events was in no M 132
events get in the M 132
events bring to the M 132
events and of my M 132
evasion and in the M 130
evokes for us in M 128
events not as the M 128
evenly that it is M 128
evolve out of my M 126
events lying on the M 126
events lie on the M 126
events and if it M 124
evenly out to the M 124
events than as an M 122
events got in the M 122
evasion due to the M 122
evaded any of the M 122
evokes out of the M 117
evolving one of the M 116
events not by the M 116
events may be on M 116
events let us be M 116
events that is my M 112
events and in an M 112
evoked them in the M 110
evoked due to the M 110
events then in the M 110
events and so is M 110
events can go on M 109
evolve them in the M 108
evoked that of the M 108
evoked all of the M 108
events that is as M 108
events are in an M 108
events and do so M 106
events that go by M 104
events goes on in M 104
events can in no M 104
evenly than it is M 104
evenly set on the M 104
events that to the M 102
events out on the M 102
evaded all of the M 102
evolving and in the M 101
events nor of the M 100
events led by the M 100
events and up to M 100
evades one of the M 100
evaded him on the M 100
events that to us M 98
events both to the M 98
events bear to the M 98
events for me in M 96
events and so we M 96
events nor by the M 94
events can by no M 94
events and to go M 94
evasion that it is M 94
evasion and to the M 94
evolving heat at the M 92
evoked than it is M 92
events lying at the M 92
evolve for us the M 90
events they do so M 90
events nor to the M 90
evenly and to be M 90
evoked awe in the M 88
events fit in the M 88
events but to be M 88
evenly than is the M 88
events nor is it M 86
events may in the M 84
events had by no M 84
events each of the M 84
events than if the M 82
events set up the M 82
events each of us M 82
events and as it M 82
evasion and on the M 82
events and go on M 61
events can be no M 49
evasion and so on M 49
events may be no M 48
evoked set of the M 46
evolving map of the M 42
events was the so M 41
events and is as M 41
evokes and in the M 40
evenings and on the D 2070
evened out by the D 1384
evened out in the D 1196
evenings and at the D 998
evenings and in the D 966
evince that it is D 930
evenings out of the D 903
evenings out on the D 703
events tab of the D 504
evince that he is D 503
evenings had to be D 352
events tab in the D 330
evenings out in the D 326
evenings than in the D 288
evince them to be D 272
evenings one of the D 228
evenings are to be D 224
evened things up by D 219
evincing that it is D 206
evenings out at the D 196
evince him to be D 190
evenings and so on D 183
evenings and go to D 182
evince that in the D 174
evenings and it is D 170
evince any of the D 166
events can be re D 165
evened him to be D 164
evenings with us in D 148
evincing any of the D 138
evenly met by the D 134
evened out at the D 132
evenings they go to D 128
evened out as the D 126
evenings lying on the D 120
evenings ago in the D 120
evenings and to be D 112
evenings ago at the D 112
evince this to be D 102
evenings with me in D 98
evenings and ring up D 92
evenings and by the D 92
evenings going to the D 88
evince one of the D 86
evenings due to the D 86
evenings was in the D 82
evenings and of the D 82
evenings and to the D 80
evenings and on my D 80
