see later in this M 100373
see where he was M 37210
see where we are M 28452
see anything at all M 26326
see which of them M 19307
see where it was M 15551
see either of them M 14798
see later on that M 12846
set equal to one M 12278
set aside to dry M 10508
set aside to pay M 9837
set about it with M 9567
see where it goes M 8744
see where he had M 8236
see first of all M 7221
set aside the law M 6454
set apart by god M 6072
set aside by any M 5902
see where it had M 5884
see below in this M 5544
set aside so that M 5200
see either of you M 4682
see where it led M 4658
see where we can M 4549
seat which he had M 4478
set aside in this M 4460
see anything in this M 4412
set aside an area M 4178
set about the job M 4170
see where he goes M 4139
see later on how M 4078
see where it has M 4018
see anything of him M 3829
seat where he had M 3708
set aside as being M 3682
set aside the old M 3629
set aside the idea M 3315
set aside by his M 3293
see where he has M 3290
set apart by his M 3205
see again in this M 3108
set apart to god M 3087
see anything in that M 3027
set aside as not M 3010
see people as they M 2992
see anything of them M 2908
set which is not M 2898
see signs of this M 2835
set equal to each M 2752
set aside an act M 2676
set apart by its M 2563
see where it all M 2546
set aside in each M 2520
see notes at end M 2502
see every thing that M 2490
see which of you M 2488
set equal to its M 2459
see where to put M 2426
see above in this M 2416
set apart to him M 2369
see anything of her M 2304
see anything of that M 2268
set equal to that M 2259
set aside the sum M 2256
see later in our M 2226
set about to get M 2194
see where the sun M 2191
set aside in his M 2075
see where the two M 2059
set aside by this M 2054
see notes to this M 2042
set apart in each M 2009
see which of his M 1978
set apart to his M 1950
see where the real M 1937
set apart in this M 1925
set apart to this M 1893
see people of all M 1871
see others as they M 1870
see anything in his M 1832
see anything of you M 1802
set aside in any M 1784
see anything of this M 1764
see where he can M 1688
set aside by god M 1684
set about it and M 1661
see facts as they M 1653
see anything in her M 1638
set aside by law M 1636
set aside in its M 1632
see where the new M 1615
see anything in them M 1594
set aside by him M 1586
see entry in this M 1582
set aside on that M 1567
set apart to that M 1537
see where we had M 1524
set apart to her M 1502
set about to put M 1501
see where the old M 1500
see state of new M 1495
see eight or ten M 1452
set aside the act M 1436
set aside at any M 1422
set close to each M 1413
see kingdom of god M 1412
see where the man M 1411
see under the head M 1408
see where it got M 1395
set aside as too M 1366
seat within the bar M 1362
see where it can M 1354
set about to bring M 1353
set apart as his M 1346
see proof of this M 1330
set aside on this M 1326
see today is not M 1325
see where he got M 1300
set aside if they M 1299
see which of our M 1298
set apart as one M 1291
set aside to buy M 1290
see table at end M 1250
set aside the new M 1238
set equal to this M 1202
see anything in him M 1200
see again the old M 1200
set light to them M 1182
see every thing with M 1181
set aside my own M 1176
set apart to pay M 1160
seat until he was M 1158
seat build in her M 1142
set apart by law M 1121
set aside in our M 1119
set apart by him M 1119
set apart to each M 1118
see until it was M 1096
seat where he was M 1089
see where we get M 1087
set apart by our M 1063
see about it and M 1054
set aside the two M 1049
set about to win M 1030
set aside if any M 1028
see where the path M 1028
set apart by her M 1023
set aside to use M 1004
set apart to them M 994
set about to see M 993
seat where he sat M 993
set aside in one M 987
set aside the death M 983
see light in his M 976
see which of two M 972
see women as being M 969
set aside by our M 967
see anything or hear M 962
set close to his M 946
set apart in any M 933
see anything of his M 914
set right in this M 912
set aside to let M 912
set apart in his M 906
set apart the sum M 901
set close to one M 896
see either of that M 896
set aside by one M 890
set about to try M 888
set aside in all M 882
see signs of his M 875
see blood on his M 874
set aside by her M 866
see again in his M 856
set aside as his M 852
set apart so that M 842
see signs of that M 836
set aside the plea M 834
see where the men M 830
see signs of its M 802
see notes on this M 799
set aside to deal M 797
set aside by that M 789
set aside at this M 776
set about the long M 768
see whose it was M 766
set aside on any M 762
set people up for M 744
seat until he had M 742
set apart in its M 735
see where or how M 734
see today is that M 732
set aside by its M 726
see where we end M 726
see where it may M 722
set aside in that M 716
set aside the day M 707
set aside in her M 702
set aside to get M 699
set aside the one M 699
set apart by them M 698
set aside by them M 692
see which of her M 692
set aside the use M 687
see beauty in all M 687
see anything of our M 686
set aside as one M 682
set apart in our M 664
set aside is not M 662
see anything in its M 662
set store by his M 659
see light of day M 657
see again on earth M 656
set which he had M 649
see again in our M 640
see below on this M 638
see which of its M 626
see under the year M 625
see which it was M 615
set smile on his M 614
see notes to that M 612
see about the new M 612
see about the job M 612
set apart by this M 611
set about it was M 607
set light to his M 603
set aside by act M 603
see others as being M 599
see again the man M 596
seat under the old M 596
see anything to beat M 594
seat close to her M 594
see where the red M 593
see anything in our M 588
set apart as god M 585
see while he was M 583
set equal to and M 582
see which he had M 582
see either the one M 580
set equal to any M 565
set aside by all M 564
set women in his M 552
see either of his M 552
see after the war M 552
see people in this M 548
set aside on his M 544
set aside as far M 543
set about it now M 543
set about to use M 542
see while we are M 540
set point is not M 534
set which do not M 532
set aside the area M 532
see people as being M 530
see people the way M 528
see about it for M 522
set apart in that M 519
see where the idea M 518
see anything in all M 518
see about us are M 518
seat which he was M 518
set smile on her M 516
set above the bar M 516
set about to read M 516
see where the big M 516
see plain as day M 516
see where we may M 514
set apart the day M 510
set equal to two M 505
see where the boy M 502
seat until it was M 500
set apart as being M 499
see where the dog M 499
see anything if you M 498
see anything in any M 496
see again in her M 496
seat until the end M 496
set aside as they M 494
see essay in this M 485
set aside by each M 484
see where to set M 484
set store by this M 480
see below in our M 480
see about it now M 480
seat close to his M 480
set aside the things M 478
set aside as non M 478
see either or both M 476
set aside at his M 474
see about us and M 474
set while he was M 472
see which is not M 471
set people at ease M 470
see until the end M 466
see anything of each M 466
see twice as far M 464
see blood on her M 464
see anything to get M 464
set aside the long M 460
set apart by any M 460
set right by his M 459
see about it this M 458
set honor in one M 457
set aside the non M 455
set aside to her M 453
set right in his M 450
seat after he had M 446
set store by them M 445
set apart an area M 438
set aside so far M 437
set aside to read M 434
set aside or not M 434
see women as they M 434
see where he and M 434
see group of ten M 434
see after the death M 434
set about the new M 432
see where the end M 429
seat while he was M 424
see today in our M 422
set apart to act M 420
see signs of any M 420
see again on this M 420
see where the one M 413
set about in his M 412
set about the day M 409
see trials of war M 405
set lines of his M 404
seat where he can M 402
set rules on how M 395
set after it has M 394
seat which he has M 394
set aside to aid M 390
see cases of this M 390
set aside at each M 388
see merit in this M 388
set store by that M 387
set right by one M 386
set aside the fear M 386
see anything of any M 386
see beauty in things M 384
see hints of this M 382
set about it this M 380
set apart the two M 378
see signs of them M 378
see signs of god M 377
set right on this M 376
set aside the real M 368
see women of all M 368
see light in this M 368
see about it then M 368
see where we all M 366
see proof of his M 366
see again the long M 366
set close to her M 365
see parts of her M 364
see where to cut M 362
see until he was M 362
see merit in any M 362
set aside to see M 360
see where he put M 360
set aside to him M 359
set aside by both M 359
see reason to fear M 358
seat close to him M 356
set woman in her M 355
see where the sky M 354
set store by her M 352
set apart by being M 351
see where he lay M 350
set about the real M 349
see merit in both M 349
see light in god M 348
seat under the big M 346
see table at top M 344
see anything on this M 344
set apart in all M 343
set aside at all M 342
see where it does M 339
see anything on that M 338
set point so that M 337
see value in this M 337
see later on why M 336
set aside at one M 335
see where the head M 335
set above the law M 334
see where we got M 334
see about my new M 334
see where we fit M 332
see where to get M 332
see signs of new M 332
set store by him M 331
set aside to act M 330
see where the long M 330
see people in our M 330
see people do not M 326
set about it too M 324
see others in this M 324
set aside if one M 322
see parts of his M 322
see anything we can M 322
seat where it was M 322
set loose in his M 320
set about it that M 320
set where he was M 316
set apart in her M 316
see people as god M 316
see daily in our M 316
see again as long M 316
see above on this M 316
set based on this M 315
see which of all M 315
set apart by act M 314
set aside on its M 313
set aside is that M 313
set about the doing M 312
see where to aim M 312
see value in both M 311
set right by any M 310
see right up her M 310
set after the sun M 309
set first of all M 308
see which if any M 308
see others as god M 308
see later in his M 308
see again the dear M 307
see again the two M 306
see proof of that M 303
set aside to each M 302
see where the top M 302
set light by his M 301
set which is being M 299
set aside by way M 296
set after the war M 296
set aside as her M 294
see people in all M 294
see signs of her M 293
see later on this M 292
see echoes of this M 292
set until the end M 290
set every thing that M 289
set aside by new M 289
see beauty in them M 288
set apart to lead M 285
set which is both M 282
see anything or not M 282
seat under the oak M 280
see paper in this M 279
see where we now M 278
see parts of this M 278
set aside to hear M 276
set aside an old M 275
see where the bear M 275
see image of god M 275
see again my dear M 275
set apart as they M 274
set about to deal M 274
set about me with M 274
see where to run M 274
see music in its M 274
set apart is not M 273
see where to sit M 272
see where the air M 272
see parts of them M 272
see either of her M 272
set while it was M 270
set apart as her M 268
see either of our M 268
see about the man M 268
see about the old M 266
see beauty in that M 265
see people in that M 264
see anything on his M 264
see anything of god M 264
see color at all M 263
set aside to bring M 262
set about my own M 262
set apart to bear M 261
set about to fix M 260
seat where it had M 260
set terms at all M 259
set aside by man M 259
set apart by all M 258
see signs of our M 258
see about the year M 258
set aside so long M 257
set apart of god M 256
seat until he has M 256
see people at all M 255
set others at ease M 254
see about the two M 253
set which is then M 252
set close to its M 252
see where it lay M 252
see where he may M 252
seat which is not M 252
set women up for M 250
set about to cut M 248
see every thing and M 248
see beauty in its M 248
set aside by men M 247
see easily in that M 246
set apart in one M 244
seat which he now M 244
set apart by that M 242
set apart to its M 239
see where the cat M 238
set where he now M 236
set right the things M 234
see parts of our M 234
set right in that M 232
set apart as its M 232
set about to earn M 232
see people of that M 232
see anything on her M 232
see about as far M 232
set light to all M 231
see again the sun M 231
see women in this M 230
see first if you M 230
set which is now M 228
set party of them M 228
set light by her M 228
set aside to put M 228
set aside at that M 228
see danger in this M 226
set about on his M 225
see about it all M 225
set light to her M 224
see again the way M 224
set aside the cup M 223
see where on earth M 223
set aside or put M 222
set aside on each M 222
see beauty in this M 222
seat under the new M 222
seat under an old M 222
set aside or that M 221
see issue of may M 221
set below the low M 220
see where the weak M 220
see under the sun M 220
set right if you M 218
see until he has M 218
set order to tag M 217
set aside to his M 217
see people my age M 217
set where it was M 215
set aside on one M 215
see where the war M 215
set hands on him M 214
see again in all M 214
set based on its M 213
see where the earth M 213
see right to die M 213
see right of way M 213
set aside if not M 212
set about to lay M 212
see about us now M 212
set aside as out M 211
set about to buy M 211
see anything of its M 210
see about my own M 210
set right on top M 208
set loose in this M 208
set aside in due M 208
set about in all M 208
set until it was M 207
set under the act M 207
see danger in that M 207
set right by them M 206
set point of this M 206
set either of them M 206
see women at all M 206
set goals so that M 205
set aside in two M 205
set apart by two M 204
set about it all M 204
see where the cut M 204
see shame or fear M 204
see people do things M 204
set aside as long M 203
set within the new M 202
see either the sun M 202
set apart as our M 200
see table in this M 200
see since he was M 200
see after my own M 200
seat could be won M 200
set right by god M 199
set loose to run M 199
see again the one M 199
set light by that M 198
see about the dog M 198
set aside or pay M 196
see anything at this M 196
seat which it had M 196
set apart to deal M 195
see where we put M 194
see about the boy M 194
set below the top M 193
set right in our M 192
set right at all M 192
set aside as that M 192
see people or things M 192
see blood on them M 192
set aside by due M 190
set apart on its M 190
see passing up and M 190
see merit in his M 190
seat could be had M 190
set under the law M 188
set times of day M 188
set aside to age M 188
set aside by two M 188
see where in this M 188
see value in them M 188
see proof of its M 188
see given to them M 188
set right in all M 186
see water in that M 186
see others of his M 186
see anything he had M 186
see again the things M 186
set light to one M 184
set aside so they M 184
see signs of how M 184
see again the red M 184
seat nearer to her M 184
set aside on two M 182
see reason in this M 182
set light by any M 181
set aside as she M 180
set again at his M 180
set above the top M 180
set above the head M 180
see where the dead M 180
see today in this M 180
see beauty in her M 180
seat after he was M 180
see which we are M 179
set about to end M 178
set about it than M 178
see where my own M 178
see eight to ten M 178
see cause to lay M 178
see again in that M 178
set close to that M 177
seat eight or ten M 177
set aside if you M 176
set aside as and M 176
see until he had M 176
see first if they M 176
set goals in each M 175
set under the new M 174
set right by him M 174
set money on them M 174
see anything he did M 174
see about my things M 174
see about me are M 174
seat while the two M 174
set aside or its M 172
set aside in both M 172
set apart by each M 172
see quite so far M 172
see anything to fear M 172
set order of things M 171
set close to this M 171
set playing in her M 170
set loose in him M 170
set eight or ten M 170
set aside the myth M 170
see anything of all M 170
see anything at that M 170
see again my old M 170
set ships of two M 168
set aside or his M 168
set aside or add M 168
set apart by one M 167
set aside as our M 166
see heaven on earth M 166
see added to this M 166
seat stood on one M 166
set based on how M 165
set aside to add M 164
set about it for M 164
see either of two M 164
see anything in you M 164
set light by them M 163
set hands on one M 162
set equal to long M 162
see where the poet M 162
see where the bad M 162
see value in each M 162
see cause to put M 162
see about the men M 162
set print on set M 161
seat where no one M 161
set aside the son M 160
set aside the man M 160
set aside in new M 160
see where the heat M 160
see value in using M 160
see value in being M 160
set aside the box M 159
set right by you M 158
set either or both M 158
set aside the top M 158
set aside as you M 158
set aside as sin M 158
set about us with M 158
see parts of two M 158
set aside to them M 157
set about so long M 157
see since it was M 157
set store by our M 156
set aside as its M 156
set piece of this M 155
see notes on that M 155
see change in our M 155
see after he had M 155
set where it can M 154
set close to them M 154
set aside as bad M 154
see where it did M 154
see people of his M 154
set aside the bad M 153
set store on him M 152
set apart by both M 152
see women as weak M 152
see others as you M 152
set apart to bring M 151
set apart by and M 151
set about the two M 151
set about the old M 151
see value in all M 151
set store on her M 150
set light by all M 150
set aside by lot M 150
set about to rid M 150
see beauty is not M 150
seat eight to ten M 150
set aside the ban M 148
set aside it was M 148
set after the end M 148
see seven of them M 148
see power as being M 148
see others do them M 148
see marks of this M 148
see eight of them M 148
see cause to use M 148
see mother of god M 147
set aside to die M 146
set aside to any M 146
set again in its M 146
see people of this M 146
see heaven in his M 146
see anything so fit M 146
seat which is too M 146
seat after the death M 146
set goals in all M 144
see where the day M 144
see where my head M 144
see sense in this M 144
see later it was M 144
see anything so bad M 144
see again in any M 144
seat where the two M 144
set goals at all M 143
see about it that M 143
set within an area M 142
set apart at one M 142
set about my new M 142
see about me and M 142
seat which we saw M 142
set given to him M 141
seat reason on her M 141
set which we can M 140
set aside or new M 140
set about it they M 140
see where to lay M 140
see anything to cry M 140
set loose in her M 139
set aside as god M 139
seat where he and M 139
set aside to try M 138
set about on one M 138
see where we was M 138
set which we are M 137
set tells us that M 137
set given to her M 137
see until the day M 137
set aside at law M 136
see parts of him M 136
see others the way M 136
see later on with M 136
see beauty in his M 136
see again my own M 136
see again as they M 136
set after the death M 135
see where the fly M 135
set right by her M 134
set color to set M 134
see reason to say M 134
see people do this M 134
see anything the way M 134
see after the boy M 134
set lines of her M 132
set equal to his M 132
set aside if its M 132
see since the day M 132
see quite as far M 132
see people of our M 132
see aught in you M 132
set until it has M 131
set since it was M 131
see where he did M 131
see value in that M 131
set working in that M 130
set music to this M 130
see where we lay M 130
see people in his M 130
see light at all M 130
see cause to new M 130
see again or not M 130
see above my head M 130
set within the old M 129
set light by him M 129
see women as men M 129
set right by this M 128
see until we get M 128
see today is but M 128
see aught in that M 128
see added to our M 128
seat which he won M 128
seat beneath an old M 128
set about it may M 127
see where my son M 127
set right it may M 126
set about to aid M 126
set about as far M 126
see until we are M 126
see tells me that M 126
see reason to act M 126
see people in real M 126
see others of them M 126
see blood in his M 126
seat since it was M 126
set later in this M 125
see where the law M 125
set where it had M 124
set under the old M 124
set right in her M 124
set right in any M 124
set light to this M 124
set goals to get M 124
set aside the pre M 124
set apart in two M 124
set about it then M 124
see mixed up with M 124
see fills me with M 124
set where he had M 123
see change in this M 123
set water to heat M 122
set aside in may M 122
set about to act M 122
see where the key M 122
see entry of may M 122
set could be put M 121
set aside to run M 121
set aside the few M 121
set about to add M 121
see while it was M 121
see change as being M 121
see where the things M 120
see signs of real M 120
see often in this M 120
see anything of real M 120
see about the things M 120
seat after it was M 120
set point is set M 119
see anything of one M 119
set tasks to his M 118
set equal to for M 118
set based on that M 118
see where he hid M 118
see people he had M 118
see either the top M 118
see again if you M 118
see after he has M 118
see about the way M 118
see about my son M 118
set where it now M 117
set rules in this M 117
set about the war M 117
set either by god M 116
set apart on all M 116
set above it and M 116
set about to heal M 116
see women in all M 116
see where to add M 116
see others as our M 116
see every thing they M 116
see anything on earth M 116
seat while he sat M 116
seat where the old M 116
seat after he has M 116
set right as far M 115
set based on one M 115
set about the year M 115
set right in its M 114
set loose in our M 114
set light to him M 114
set apart the new M 114
set apart at each M 114
see where the cry M 114
see where an old M 114
see under my own M 114
see proof of how M 114
see light in its M 114
see father in his M 114
see cause to bring M 114
see anything to them M 114
see anything it was M 114
see about me can M 114
set within the area M 113
set loose by his M 113
set aside as new M 113
see signs of aging M 113
set until the day M 112
set until he had M 112
set store by its M 112
set round the old M 112
set right on that M 112
set people at each M 112
set hands to his M 112
set aside to earn M 112
set aside the war M 112
set aside in war M 112
set aside at her M 112
set apart to hear M 112
set apart to and M 112
set about the act M 112
see women in that M 112
see where the way M 112
see where the team M 112
see value in his M 112
see ruins of old M 112
see right up his M 112
see others do and M 112
see humor in his M 112
see beauty in any M 112
seat waiting to hear M 112
set which we may M 111
set right so that M 111
see flaws in his M 111
see close up and M 111
set until he was M 110
set aside by you M 110
set about it not M 110
set about in this M 110
see which is going M 110
see where he fit M 110
see walking up and M 110
see today is due M 110
see signs of him M 110
see reason on this M 110
see reason in his M 110
see panic in his M 110
see every thing for M 110
see either the end M 110
see anything by him M 110
see about the meat M 110
see about me that M 110
set right in one M 109
see danger in any M 109
see about us that M 109
set limit on how M 108
set exact is off M 108
set aside to sit M 108
set aside or for M 108
set aside by being M 108
set aside as things M 108
set apart to any M 108
set anything on them M 108
set after it was M 108
see where the job M 108
see trace of them M 108
see ships of all M 108
see print in his M 108
see people do that M 108
see people at this M 108
see people as all M 108
see aught of that M 108
see anything on our M 108
see again on his M 108
see after my things M 108
see after it has M 108
seat which it was M 108
seat close by her M 108
seat after the war M 108
see essay on man M 107
set store by all M 106
set aside to set M 106
set aside as due M 106
see which we can M 106
see where the rot M 106
see value in doing M 106
see proof of our M 106
see people if they M 106
see others in our M 106
see later is not M 106
see cover of this M 106
see below on how M 106
see beauty in you M 106
see anything if they M 106
see anything he was M 106
see above the earth M 106
see again the dead M 105
set apart by way M 104
set apart as not M 104
set about the things M 104
see which or how M 104
see where the wings M 104
see signs of both M 104
see parts of both M 104
see nearly as far M 104
see learning as being M 104
see anything as you M 104
seat which is now M 104
seat until he saw M 104
seat looking at her M 104
see about the war M 103
set words to them M 102
set music to his M 102
set loose at that M 102
set goals in this M 102
set equal to six M 102
set equal to all M 102
set aside he was M 102
set apply to all M 102
set about in her M 102
see works of this M 102
see where the use M 102
see where the kid M 102
see where the eye M 102
see table on this M 102
see signs of death M 102
see mother in her M 102
see humor in things M 102
see action in this M 102
see about me who M 102
set equal to ten M 101
set apart as far M 101
see tells us that M 101
set which we had M 100
set minds at ease M 100
set apart to buy M 100
set apart at any M 100
see women as both M 100
see where the song M 100
see where the box M 100
see value in our M 100
see signs of war M 100
see every thing going M 100
see drawn at too M 100
see again the big M 100
seat until the new M 100
seat royal of this M 100
seat where we had M 99
seat where we can M 99
set within it and M 98
set aside if she M 98
see people as you M 98
see others of our M 98
see later it has M 98
see fully on this M 98
see every thing but M 98
see danger of that M 98
see close up how M 98
see again the use M 98
seat after it has M 98
set hands on her M 96
set aside to that M 96
set aside as both M 96
see worry in her M 96
see women as not M 96
see reason to use M 96
see later on was M 96
see fifty of them M 96
see belong to one M 96
see anything at any M 96
seat waiting to see M 96
seat again in her M 96
set point of each M 95
set light to that M 95
set apart to aid M 95
set right the gear M 94
set aside on both M 94
set aside by kings M 94
set apart by age M 94
set apart at his M 94
see where it fit M 94
see sitting in his M 94
see people as things M 94
see others of god M 94
see marks of her M 94
see either the death M 94
see doubt in her M 94
see anything to aim M 94
see after the men M 94
seat close by his M 94
set about to fit M 93
set about the sad M 93
see lines of men M 93
see cause to say M 93
see above the top M 93
seat where he has M 93
set place in his M 92
set aside my ego M 92
see where we both M 92
see today in all M 92
see others as not M 92
see doubt in his M 92
see alike on this M 92
see again the son M 92
see about me now M 92
see about it but M 92
seat which the head M 92
set point of one M 91
set people of all M 91
set apart on this M 91
set about to run M 91
see below the top M 91
set under the long M 90
set traps in this M 90
set quite at ease M 90
set apart at that M 90
see since he had M 90
see signs of old M 90
see later on for M 90
see growth in this M 90
see fifty to one M 90
see aught in this M 90
see anything to lead M 90
see anything so far M 90
see anything of old M 90
see anything he can M 90
see again the idea M 90
set which he has M 89
set under the two M 89
set aside is one M 89
set above the two M 89
see where the east M 89
see round the head M 89
set under the big M 88
set store by and M 88
set loose on his M 88
set aside to ask M 88
set aside as for M 88
set apart in new M 88
set apart at all M 88
set after the new M 88
set about to beat M 88
see signs of fear M 88
see parts of things M 88
see panic in her M 88
see merit on both M 88
see links to all M 88
see learning to read M 88
see first if she M 88
see dimly the real M 88
see anything as yet M 88
see again in one M 88
see about us all M 88
see about it with M 88
seat where it has M 88
seat where he may M 88
seat where he lay M 88
seat since he was M 88
seat given to him M 88
see value in her M 87
see first the one M 87
set people at her M 86
set light by old M 86
set aside to this M 86
set aside or are M 86
set apart to get M 86
set again at her M 86
set about to lead M 86
see where the gap M 86
see water on both M 86
see signs of age M 86
see nearly so far M 86
see merit in that M 86
see beauty in each M 86
see arise in this M 86
set apart by man M 85
seat where we sat M 85
seat where the man M 85
set hands to our M 84
set aside on may M 84
set aside as was M 84
set aside as old M 84
set apart to win M 84
set again on its M 84
see where my boy M 84
see reason to put M 84
see people on this M 84
see others do things M 84
see others do they M 84
see heaven in its M 84
see exist in that M 84
see daily in this M 84
see close of this M 84
see belong to her M 84
see added to all M 84
set store by you M 83
set eight to ten M 82
set apart to die M 82
set apart or not M 82
set about to pay M 82
see where or why M 82
see where he sat M 82
see unity in all M 82
see seated at his M 82
see reason in two M 82
see others in that M 82
see later he was M 82
see anything of new M 82
see again the boy M 82
see after so long M 82
set traps of this M 81
set right on his M 80
see worry in his M 80
see where it ran M 80
see ships of war M 80
see print at all M 80
see looking at you M 80
see either the head M 80
see echoes of that M 80
see anything as she M 80
seat which he then M 80
seat close by him M 80
set print on and M 77
set where the two M 74
see cause to fear M 73
set goals is that M 67
set aside to air M 67
set aside the year M 65
set aside the way M 63
set rules on who M 62
set group id bit M 60
set aside the oath M 59
set aside the big M 58
set price at any M 56
set based on his M 56
set aside the meat M 55
set within the set M 54
set lower so that M 53
see until the year M 52
set store on his M 50
set based on two M 50
see after the sun M 50
set makes it easy M 49
set based on each M 49
set shown in this M 48
see first is that M 48
see beauty in our M 48
set which he can M 47
set terms in his M 47
set based on our M 47
set piece in his M 46
set aside to god M 46
set after it had M 46
set about the head M 46
see reason if they M 46
set where we are M 45
set times so that M 45
set piece of his M 45
set could be had M 45
set aside the end M 45
see which he was M 45
see until the new M 45
set method is that M 44
set after he had M 44
set above the earth M 44
set aside the six M 43
set aside the age M 43
see people go out M 43
set which he was M 42
set fires so that M 42
see which he has M 42
see since the war M 42
set where the sun M 41
set until he has M 41
set since he was M 41
set point is then M 41
set model is then M 41
set aside the ego M 41
set aside if that M 41
set anything on top M 41
set about to reap M 41
set right up and M 40
set piece is not M 40
set given in this M 40
see after it had M 40
sex which is not D 33271
set spurs to his D 10516
set shown in fig D 2676
see inset in fig D 2335
see works of art D 2236
see inset of fig D 2007
sex drive is not D 1408
sex roles in our D 1368
sex ratios by age D 1339
seal which he had D 1152
sex drive in both D 1094
see billy the kid D 1021
see listing in this D 1015
sex under the age D 958
set under the ice D 956
sex drive in men D 890
seal which it may D 878
seam where the two D 840
see arrow in fig D 838
see where the car D 758
see where the shoe D 724
see where the fun D 696
seat belts or air D 661
see about the car D 660
see inset to fig D 630
sex roles of men D 618
sex unions in pre D 595
seal shown in fig D 528
sex roles in law D 519
seat belts do not D 513
seat belts in all D 512
seam under the arm D 502
sex roles as they D 476
sex roles do not D 458
sex roles is not D 430
see where it hit D 426
seas which he had D 422
sex above the age D 420
set rates of pay D 418
sex alone is not D 412
seat belts at all D 396
see women as sex D 386
see chart at end D 385
sex roles in this D 382
see would be that D 382
set spurs to our D 368
set afire by her D 348
set round the rim D 346
sex lives of men D 334
sex drive at all D 334
sex appeal to get D 334
sex appeal is not D 330
see infra in this D 326
sex crime or sex D 318
sex which he had D 312
sex lives of his D 312
see under the bed D 304
set aside the tax D 303
sex ratios do not D 300
seam joining the two D 294
set spurs to her D 291
see dance of death D 291
sex drive is one D 290
sex lives of gay D 288
see where the ice D 286
sex until he was D 280
see fewer of them D 280
see annex to this D 280
sex ratios in red D 276
seas within the area D 274
see table in art D 271
seat while the car D 266
seat above the ark D 266
sex after the age D 264
sex while he was D 262
see would be his D 256
see table xi for D 252
set flowing in men D 250
seat shown in fig D 247
sex change is not D 246
sex drive of men D 244
sex ratios in this D 238
seas which he hath D 238
see films of this D 235
sex roles is that D 234
see would be one D 232
set aside by sir D 230
seas broke on them D 230
set screw so that D 227
see works of sir D 227
sex ratios in both D 224
sex lives of our D 224
sex lives as they D 224
sex drive is low D 220
seas where he was D 220
see table in fig D 219
sex which is now D 218
sex organ is not D 218
seal while it was D 216
see waves of heat D 215
sex until the age D 214
seal aloft in his D 214
seat belts as they D 212
see curve in fig D 210
set beneath the ice D 206
seas which do not D 206
sex since he was D 204
seat under the elm D 204
seas where it was D 204
set rates so that D 201
see where the seam D 200
see where the guy D 200
set would be too D 198
set aside the fur D 198
set afoot in this D 198
set afire by his D 198
see where the tip D 198
set below the rim D 194
see would be not D 191
set spies on him D 190
sex ratios of all D 188
sex below the age D 188
set spies on his D 187
sex stuff is both D 186
seal given to him D 186
sex drive in man D 184
seat belts on and D 183
sex plays in our D 182
see where the leak D 182
set would be one D 181
sex ratios in all D 180
sex appeal at all D 180
seas shall be set D 180
sex which do not D 178
seas dried up and D 176
see throngs of men D 174
see model in fig D 174
sex ratios of both D 170
sex group in each D 170
seal which he has D 170
sex roles in both D 168
seal comes up for D 168
seat belts is not D 166
seas fleet in its D 166
sex roles so that D 165
see where the oil D 164
sex lives of its D 162
seal which we use D 162
sex drive of both D 160
set aside on ice D 160
see about the shoe D 160
seat belts on all D 160
seas which he was D 160
sex drive to set D 158
see would be for D 158
sex ratios in each D 156
set frown on his D 156
see where he hit D 156
see under the hat D 156
set stare in his D 155
set sight on you D 154
see would be her D 152
see about my car D 152
seam which is being D 152
see where the gas D 151
sex cells of one D 150
set askew on his D 150
see later in fig D 150
see where the gun D 149
see where the lion D 148
see peter in his D 148
seas where he had D 148
sex until we are D 146
see listing at end D 146
seat belts or not D 146
seat belts in new D 145
sex trade is not D 144
sex organ of one D 144
see where the beam D 144
seas until the end D 144
set footing in this D 143
sex which he has D 140
sex appeal in her D 140
sex roles of both D 138
sex appeal in his D 138
set afoot to bring D 138
set spies on you D 136
seal every thing and D 136
set afire by its D 135
sex which is one D 134
set under the hen D 134
set under the bed D 134
set about to dig D 134
seat until the car D 134
sex could be fun D 133
sex lives of all D 132
sex crime is not D 132
set spies on her D 129
sex cells of both D 128
sex cells do not D 128
sex appeal to her D 128
see where the mud D 128
seas belong to all D 128
sex lives of both D 126
see where the fox D 126
seal shall be set D 126
set japan on its D 124
see where the bus D 124
see stars in all D 124
see sport in our D 124
see folks eat with D 124
seas alone do not D 124
seat belts if they D 123
sex cells in man D 122
set rates so low D 122
seal under the ice D 122
seal since it had D 122
sex until he has D 120
sex roles in his D 120
sex roles in that D 119
set screw is then D 119
sex scene is not D 118
sex cells of each D 118
seat while the bus D 118
seal would be set D 118
see stars at all D 116
set afire by our D 115
sex roles of our D 114
sex ratios of each D 114
sex could be this D 114
sex cells or ova D 114
sex appeal of his D 114
see where the art D 114
seal which is not D 114
sex really is not D 112
sex burnt up and D 112
set rates as they D 112
see would be this D 112
see where the bed D 112
sex would be one D 111
sex appeal or sex D 110
sex would on any D 108
see about the gas D 106
seas known in any D 106
set afire so that D 105
see where the pin D 105
sex roles is one D 104
sex lives do not D 104
set strip of box D 104
seam after it has D 104
see motes in ilk D 103
sex drive is that D 102
sex could be for D 102
set about to woo D 102
see signs of wear D 102
see china as one D 102
sex could be had D 100
set iambic or set D 100
see where to hit D 100
see surging up all D 100
seat under the fig D 100
seas where it may D 100
seal shall be put D 100
sex mixed up with D 98
sex appeal in this D 98
set about to rob D 98
see trade in its D 98
seal would be put D 98
sex roles or sex D 96
sex roles in her D 96
see pathos in him D 96
seas which he has D 96
see graph in fig D 95
see above the rim D 94
seal which he was D 94
sex until the day D 92
sex today is not D 92
sex roles at all D 92
sex lives at all D 92
sex drive of two D 92
set springing up who D 92
set afoot by all D 92
see herds of them D 92
set china on its D 91
see above the gum D 91
seat beneath the yew D 91
sex where he did D 90
see faces in this D 90
seas where the day D 90
see speaks of that D 88
see madam to get D 88
seas which is not D 88
seal shall we use D 88
seal after it has D 88
seal again if that D 87
sex until it was D 86
sex since it was D 86
sex laugh at her D 86
see where the ink D 86
seat would be too D 86
seas above the seas D 86
sex until the end D 84
sex mores of our D 84
see where the cow D 84
see under the car D 84
see piles of them D 84
seas where as yet D 84
seas belong to this D 84
seas began to run D 84
seam shown in fig D 84
sex until we get D 82
set aloft in this D 82
see scars on his D 82
see japan or are D 82
see frank in his D 82
seas would be too D 82
seas where no man D 82
seas below the seas D 82
seal within the cap D 82
sex which he was D 80
sex thrown in for D 80
sex roles in all D 80
sex ratios of any D 80
see tilings as they D 80
set would be that D 72
seas where the sun D 57
sex ratios the sex D 54
set would be all D 53
set given in fig D 53
sex cells so that D 50
seat under an elm D 50
seam where the top D 50
set would be for D 47
sex drive so that D 44
seat belts or car D 44
sex cause of death D 43
set screw on top D 41
set screw is not D 41
seat belts is that D 40
