seen through them . M 7360
sees around him . M 6338
sees before him . M 3006
seem called for . M 2994
sent before him . M 2886
seeing another man . M 2174
seen through him . M 1850
seen amongst them . M 1612
sent through them . M 1602
sets before him . M 1378
seek another job . M 1220
seeing something new . M 1162
seen without them . M 1064
sent through him . M 1046
sees around her . M 990
sets before them . M 970
seeing through them . M 920
seen behind them . M 876
seen through her . M 812
seen before him . M 766
seed inside her . M 724
seen behind him . M 714
seen strange things . M 712
self before god . M 711
sent through her . M 676
sees through them . M 674
sees through him . M 660
sent amongst them . M 636
send someone out . M 612
seen anyone die . M 612
sets before you . M 582
seen around them . M 580
seen through you . M 522
seek another way . M 506
seen around him . M 504
send another one . M 502
seen without one . M 496
seeing through him . M 466
seem almost real . M 440
seeing someone new . M 410
seen beyond them . M 382
seeing another man ? M 372
seen before now . M 366
seen before them . M 336
seeing something red . M 328
seen behind her . M 320
seen through that . M 312
sees before her . M 294
seek another path . M 288
seen another way . M 278
seeing strange things . M 274
seen something new . M 268
seen someone die . M 260
seek public aid . M 260
seen little use . M 254
seeing through her . M 254
seeing anyone now ? M 254
sees through you . M 246
seen without him . M 242
sees through her . M 240
seen anyone yet . M 240
seek another one . M 240
self toward god . M 228
seek something new . M 228
seen through him ? M 226
sent through you . M 220
seeing someone off . M 206
seeing another day . M 202
send another man . M 192
seen before long . M 192
sell through them . M 191
seen enough death . M 188
seen another one . M 188
seem almost easy . M 182
sent before them . M 178
sent before him ? M 178
seeing through things . M 178
sell another one . M 176
seem likely now . M 175
seen enough yet ? M 174
seen around her . M 172
sees something new . M 168
seek higher things . M 166
sees beyond them . M 162
seek better things . M 162
seeing something real . M 160
seen before this . M 158
seen anyone die ? M 154
self before him . M 153
seem unduly long . M 150
seen something too . M 148
seeing through you . M 146
sets behind them . M 144
sent another one . M 144
seen before you . M 144
seem hardly real . M 144
seeing someone now . M 144
seeing around them . M 144
seen become one . M 142
seem strange now . M 142
seem almost one . M 142
seeing before him . M 142
sent another man . M 140
sees before him ? M 140
seem almost new . M 136
seen inside them . M 134
seek divine aid . M 134
seeing another one . M 132
sent before you . M 130
sees through things . M 130
sees through all . M 128
seen anyone dead . M 128
seeing beyond them . M 128
seem without end . M 126
seen further east . M 124
seem better now . M 124
seen before then . M 122
send something out . M 120
seen before death . M 120
sees around one . M 118
seen enough now . M 116
seeing around him . M 116
sees through that . M 114
sees another dog . M 114
seen without her . M 114
seen through this . M 114
seem overly long . M 114
seen another man . M 112
sent before long . M 110
seeing anyone now . M 110
send someone out ? M 108
seem pretty bad . M 108
seek further aid . M 108
seed inside you . M 108
sent another way . M 104
seen clearly now . M 104
sees strange things . M 102
seem unduly low . M 102
seeing something red ! M 102
seeing someone die . M 102
seen amongst men . M 100
seem beyond him . M 100
seeing inside her . M 100
seeing before them . M 99
seen enough now ? M 98
seen beside him . M 98
sent through one . M 92
sees around him ? M 92
seen beyond that . M 92
sell through him . M 91
sent someone out . M 90
sent further east . M 88
seen through her ? M 88
seen sudden death . M 88
seen enough war . M 88
seen amongst them ? M 88
seem another man . M 88
seen curious things . M 86
seen another day . M 86
seem pretty easy . M 86
seem always new . M 86
send through you . M 84
seen worked out . M 84
seen should mean . M 84
seen before that . M 84
seem fairly easy . M 84
sell myself out . M 82
self without them . M 82
self before you . M 82
seen little yet . M 82
seem little things . M 82
seem beyond them . M 82
send through them . M 80
sees little use . M 80
seem washed out . M 80
seek another man . M 80
self through death . M 50
self become one . M 46
