sense that it is M 404051
seems not to be M 200984
sense out of the M 92943
seems now to be M 79226
sense that he is M 71293
seems that it is M 66148
seems that in the M 62478
sending them to the M 55616
seven out of the M 40889
sending him to the M 36312
sense out of it M 27019
sends them to the M 27016
serve him in the M 25158
selling them to the M 24130
seems one of the M 20036
seems that he is M 19774
sense and in the M 19129
selling out to the M 18234
search for it in M 17736
sense that in the M 16773
serve god in the M 16012
sending out of the M 15569
seems out of the M 15560
seize him by the M 14840
sense that if the M 14420
sense for me to M 13747
sense for us to M 13464
sense can it be M 12592
sense and to the M 12400
sense but in the M 11903
seems that at the M 11568
selling them in the M 11242
sending her to the M 11202
seems due to the M 11108
seems that if the M 11078
serve them in the M 11075
sends him to the M 10938
sense that we do M 10394
season and in the M 9399
seems thus to be M 9020
seems then to be M 8884
seize one of the M 8530
sense that he or M 8398
serve you in the M 8330
sense this is the M 8210
seeds are to be M 7732
seems that on the M 7598
seven men in the M 7498
serve all of the M 7372
sense both of the M 7342
sending you to the M 7328
seven and of the M 7296
sense and of the M 7246
sending one of the M 7151
seated him on the M 6988
season than in the M 6915
sending them on to M 6760
sense that if we M 6702
seems odd to me M 6674
seems that by the M 6634
seeds out of the M 6622
selling them on the M 6616
sending end of the M 6599
search for in the M 6518
serve both as an M 6400
sense one of the M 6088
sense than in the M 6050
seems that if we M 5838
seven men of the M 5660
seems that the king M 5556
seize her by the M 5148
serve one of the M 4958
serve him to the M 4874
seated him in the M 4743
sense has to be M 4578
selling them at the M 4531
sense not to be M 4434
sending men to the M 4394
search was to be M 4361
search had to be M 4309
serve him as an M 4214
seems that we do M 4212
sense and it is M 4205
seated her on the M 4194
seems that as the M 4184
serve you to the M 4024
sends you to the M 3994
search for it is M 3978
serve them to the M 3902
seems now as if M 3896
search for it as M 3829
sending aid to the M 3790
sending them to me M 3774
sense than it is M 3772
sense that is the M 3630
serve him as he M 3610
sense are to be M 3606
sending out to the M 3586
search has to be M 3566
sense that if he M 3564
seeking end of the M 3526
sends her to the M 3470
serve any of the M 3462
sense are we to M 3430
selling out of the M 3428
sense that at the M 3426
sense out of an M 3422
sense this is an M 3409
selling any of the M 3381
sense that if it M 3358
sense due to the M 3349
seize them by the M 3328
sense out of my M 3321
seems yet to be M 3284
serve both as the M 3172
seven men on the M 3142
season was to be M 3020
sense and at the M 2999
seeming not to be M 2988
season and at the M 2967
seeking out of the M 2948
search all of the M 2922
season due to the M 2899
search for the king M 2861
seeds are in the M 2802
sense for it to M 2780
search led to the M 2738
seated her in the M 2730
serve out of the M 2691
serve them as an M 2644
season and on the M 2638
serve him as the M 2626
sense was to be M 2622
sense has to do M 2622
serve her in the M 2610
search box at the M 2603
selling one of the M 2601
seven are in the M 2580
sends one of the M 2566
seeds had to be M 2554
sends them on to M 2518
season and it is M 2503
selling end of the M 2465
season was in the M 2438
search for it on M 2428
season and of the M 2409
sends out to the M 2370
search for it by M 2318
seize any of the M 2312
sense but it is M 2289
sending him to an M 2288
seize him in the M 2276
serve them at the M 2270
sense and on the M 2260
seated her at the M 2216
sense and by the M 2215
season and to the M 2198
sense than to be M 2168
season one of the M 2142
serve god is to M 2140
season had to be M 2128
sense than to go M 2124
search box on the M 2119
seems that up to M 2104
seated him at the M 2086
seems odd to us M 2068
seems that of the M 2062
sense that to be M 2061
seated fear of the M 2052
serve and to be M 1997
seeds and in the M 1996
sense that as the M 1995
sense that in it M 1974
sense that on the M 1964
seems that to be M 1960
sense had to be M 1920
selling all of the M 1900
seems not in the M 1884
sending them to be M 1868
serve him on the M 1812
sending you to me M 1812
seven kings of the M 1810
serve them on the M 1806
search one of the M 1801
sense all of the M 1768
sense may be the M 1759
sense that the king M 1743
seeks for it in M 1739
seven and in the M 1733
serve each of the M 1727
seize you by the M 1690
sense this is so M 1688
seeking one of the M 1661
sending them to an M 1654
sending for me to M 1647
search for it at M 1634
sending them up to M 1632
sense can he be M 1620
selling him to the M 1606
sense than is the M 1557
seeking god in the M 1553
seated them in the M 1538
seize them in the M 1524
season and by the M 1512
sense and in no M 1466
season that it is M 1459
sense and to be M 1458
seeking for it in M 1456
seeking him in the M 1450
serve you as an M 1436
sending him on an M 1432
seems this is the M 1431
search box in the M 1430
sense that the thing M 1428
sense not to go M 1424
sending him at the M 1410
search led me to M 1402
sense than to the M 1397
sends them to me M 1390
serve him at the M 1376
season was on the M 1376
search for me in M 1373
seems now to me M 1370
sends for me to M 1368
sending him on to M 1368
sense god is the M 1358
sending him on the M 1356
selling job to do M 1351
sense that it no M 1348
sense yet to be M 1342
seize all of the M 1340
sense that by the M 1335
sending one of my M 1334
sense that of the M 1315
sending one to the M 1300
seven men to the M 1298
sending them in the M 1278
sense not to do M 1276
sense this is to M 1274
serve him if he M 1264
sending them to us M 1262
seems that if he M 1256
sense than to do M 1254
selling off of the M 1246
search and in the M 1242
sending this to the M 1234
seeks not to be M 1234
sense than as the M 1232
selling for up to M 1227
sends them to us M 1226
seated them on the M 1226
seems then as if M 1221
seems real to me M 1212
seeking them in the M 1202
serve god to the M 1200
sense that is in M 1191
search for the so M 1184
seems that to the M 1178
seven men at the M 1170
serve god as he M 1154
selling out at the M 1146
sense that is to M 1142
sense that is so M 1138
sending them on the M 1134
seems both to be M 1128
sending them by the M 1124
sending him to be M 1120
sending off of the M 1114
season was at an M 1114
sense but to the M 1110
seven are to be M 1106
seize him as he M 1100
seeds that be in M 1100
season owing to the M 1098
seems that in an M 1096
search was on to M 1092
sending all of the M 1088
seems not to do M 1088
sense that is at M 1086
sense that if an M 1078
sense may it be M 1074
selling them by the M 1074
seeds and so on M 1074
seated them at the M 1074
sense all of us M 1070
sense not of the M 1057
sends this to the M 1056
seems owing to the M 1054
season out of the M 1054
sense but in an M 1046
serve and to the M 1042
seeks them in the M 1040
season are to be M 1038
serve her to the M 1028
sending him up to M 1028
seven had to be M 1026
search for or to M 1025
serve them as the M 1024
season than at the M 1024
sends one to the M 1022
seems not to me M 1022
seeds and of the M 1022
search key in the M 1018
sense use of the M 1016
search for the ring M 1014
serve all of us M 1012
sense than we do M 1008
seems that if it M 1000
sense are in the M 995
seeks god in the M 990
sending her to an M 988
search for the thing M 976
search and of the M 975
selling her to the M 974
sense she is the M 966
sever one of the M 962
search box or by M 958
sense and in an M 943
serve you at the M 942
seems odd to be M 940
sending him to me M 936
seize him on the M 930
serve them up to M 906
sense was in the M 906
sends him on to M 906
sense and is the M 905
search out in the M 905
sends all of the M 892
selling things in the M 890
serve him in an M 888
sending two of the M 888
sends you to me M 886
sending them in to M 878
seems that the so M 865
serve one or the M 861
sense but as the M 858
sense that is no M 844
seems fit to be M 840
sending off to the M 836
sense may be in M 835
selling them at an M 834
seven men to be M 826
serve you on the M 826
sending them to my M 824
seems that as we M 818
sending any of the M 814
selling for in the M 813
sense both in the M 811
serve him in it M 808
sending you by the M 808
seems that if an M 808
sense out of me M 806
sends him on an M 806
serve him as king M 796
sense this is no M 792
serve him is to M 790
serve you as the M 786
seeking not to be M 786
season has to be M 786
sense nor in the M 782
selling things to the M 779
sending out of an M 778
sense each of us M 776
seize him if he M 776
serve out to the M 775
sense each of the M 772
sense and as the M 772
serve him by the M 770
season may be the M 770
serve god or the M 766
season for me to M 764
sending them up the M 762
sense then it is M 754
sends off to the M 752
sense can we be M 750
sending him in the M 750
seems not to go M 750
sense was on the M 748
selling them on to M 748
serve them up in M 746
sends men to the M 746
seems far in the M 746
seeming now to be M 745
serve both in the M 742
sense that to the M 742
search for us in M 742
sense this in the M 734
seize him at the M 732
seems all to be M 730
seeking death in the M 726
serve you in my M 722
seems due to an M 716
season for us to M 716
search any of the M 711
sense may be so M 710
seated man in the M 709
selling them to an M 703
search was at an M 702
selling them to us M 701
sense may be an M 697
seems sad to me M 694
seems odd in the M 690
seated one of the M 689
seven was to be M 684
seems new to me M 682
selling out on the M 676
sends them to an M 674
serve god at the M 669
sense and as an M 669
selling things on the M 669
seven are of the M 668
search for on the M 668
sense and is in M 666
selling out in the M 666
serve and in the M 660
sense any of the M 660
sends them up to M 660
seeds lying on the M 658
sense than he is M 655
seems set to be M 654
seems odd to the M 650
seeking her in the M 650
seeking aid in the M 650
season but it is M 649
seems real to us M 648
seems that in my M 646
seven and at the M 644
serve him as we M 644
serve god as we M 644
sense but as an M 644
sense and to an M 644
seems real to the M 644
sense that as we M 642
serve for up to M 641
serve god in my M 640
seems that is the M 640
seeds are of the M 640
sending her to be M 638
seize her at the M 638
search area in the M 638
sense can be the M 630
seize them on the M 630
season and up to M 626
sense that is of M 625
serve not as an M 624
sense but by the M 624
seems that in no M 620
sending you in the M 616
seven one of the M 612
search each of the M 612
search and at the M 611
search path to the M 608
search and it is M 605
season but in the M 603
serve him in my M 600
serve god on the M 600
seeking out in the M 596
seated him in an M 596
serve god by the M 591
sense that he no M 587
season that he is M 587
sends out of the M 586
seize her in the M 586
search area of the M 585
serve god in it M 584
search for it or M 580
serve his king in M 578
seated that it is M 578
seems long to me M 576
serve them as he M 574
serve god in an M 574
sense and so on M 573
seeds lie in the M 571
search may be the M 571
sense was by no M 568
sense for it is M 568
selling job on the M 567
sense may be as M 566
seems that as he M 566
search path in the M 566
search and on the M 565
sense but of the M 560
serve and of the M 559
seeds than in the M 558
search them in the M 558
sense than by the M 556
serve with the king M 554
serve them up as M 552
selling him on the M 552
sense both of us M 550
search led us to M 550
sense but at the M 548
serve you to my M 546
sends aid to the M 544
seeds are on the M 544
seated him by the M 543
serve god or to M 542
sense may be of M 542
sends them to be M 538
serve than to be M 536
seems now in the M 536
search for or the M 536
sense that as an M 535
sends him on the M 534
sending out in the M 534
search for it to M 534
sending each of the M 530
seeks him in the M 530
serve and be in M 524
seated now on the M 524
season and to be M 524
seven and so on M 521
seven dead on the M 518
sending her to me M 518
seated not in the M 518
seated near to the M 518
serve her as an M 516
seems easy to do M 516
selling each of the M 514
seeds and it is M 514
sense that in an M 510
sending you to us M 510
seize her in my M 510
seated her by the M 509
seven are on the M 506
search was in the M 505
serve god as the M 504
sense but on the M 504
season may be as M 503
seeds and on the M 500
seated now at the M 500
season was at the M 500
serve this as an M 498
sends out in the M 498
season for it is M 498
serve for us as M 497
seems that the thing M 496
seated now in the M 496
selling and in the M 494
seems then to me M 490
selling them to me M 488
seize them at the M 486
search out of the M 480
sense that is an M 478
season than it is M 475
search for it the M 470
selling them to be M 469
sends him to an M 468
sense nor is it M 466
serve them is to M 464
serve man in the M 462
sense than do the M 462
sense and if the M 462
sending her on to M 460
sense that we as M 459
seeks out in the M 458
seeking any of the M 456
sense that the so M 455
sending her up to M 454
seize one by the M 454
sense that it be M 452
seize two of the M 452
season and so on M 452
serve them by the M 450
sense led to the M 448
seated and in the M 448
seven men in it M 444
sense this is of M 444
sense both to the M 444
search due to the M 443
sends them in the M 442
seems for us to M 442
sense and of an M 440
sending out on the M 440
sending you on the M 436
sends each of the M 434
seems dead to me M 434
seated out in the M 434
season and is the M 433
serve god if the M 430
sending them at the M 430
selling for on the M 430
seated her in an M 430
season for it to M 430
search going on in M 430
sending end to the M 428
sends them on the M 426
sending him to us M 426
selling for at the M 426
seems long to us M 426
seems new to the M 424
seated off to the M 424
sending things to the M 422
search key of the M 422
search for is the M 421
sense and is an M 411
sending this by the M 410
sending for the king M 410
seven and on the M 408
serve them in an M 408
sense than as an M 406
sense that we in M 405
sense owing to the M 404
seems now to us M 404
seems now on the M 404
seems easy to me M 404
seems all to the M 400
serve you as we M 396
serve them as if M 396
serve god is the M 396
seems for me to M 396
serve him up to M 394
seems that at no M 394
seems new to us M 392
season all of the M 392
sense than of the M 390
sense can be so M 390
seize her on the M 390
sense that in no M 389
serve him or to M 388
sense than on the M 388
search path of the M 388
search are to be M 388
season and as the M 385
serve with me as M 384
seeds and to the M 384
seems that in so M 383
serve her as the M 378
sense and if it M 378
search things to the M 378
serve you as he M 374
serve her at the M 374
season this is the M 374
sense too of the M 370
seems that as an M 370
seeming death of the M 370
sense man is the M 368
seems too to be M 368
seems that of an M 368
seems that he or M 368
seeds lying in the M 368
seated out of the M 368
serve you to be M 366
serve her on the M 366
seems long to the M 366
serve now as the M 364
seated out on the M 362
sense that to do M 361
seated than in the M 360
season are in the M 360
seven and go to M 359
serve two of the M 358
sense was of the M 358
sense not in the M 358
sense area in the M 358
sending out by the M 358
search and to the M 358
serve with me in M 356
seeking them at the M 356
selling out to an M 355
serve you in it M 354
serve and to do M 354
sense that we no M 353
selling meat to the M 352
season and if the M 351
seven men in an M 350
serve men in the M 350
seems that at an M 350
seems now to the M 350
search long in the M 350
search for up to M 350
sense that in my M 348
seems that as in M 348
serve him as if M 346
seeds and by the M 346
serve you on my M 344
sends him in the M 344
selling had to be M 344
search far in the M 344
serve with me on M 342
sending you up to M 342
serve not in the M 340
sense idea of the M 340
seeking this as the M 340
search him in the M 340
serve him as it M 338
serve both at the M 338
selling any of it M 338
season not to be M 338
season led to the M 338
sense was at the M 336
sense was he the M 334
seems easy to be M 334
sense can be of M 332
sending him up the M 330
sending him in to M 330
sending for me on M 330
seated with the king M 330
sending for me in M 328
season was by no M 328
season and go to M 328
selling may be the M 327
sending two of my M 326
selling job to be M 325
seven was in the M 324
serve her as he M 324
serve goes to the M 324
serve and on the M 324
seeming end of the M 324
seeks for in the M 324
seated men in the M 324
selling has to be M 323
sense than as it M 322
sense are of the M 322
sending out at the M 322
seeds out in the M 322
selling meat in the M 321
search key is the M 321
seven rings of the M 320
serve both of the M 320
seems not to he M 320
search goes on in M 320
sending you to my M 318
sending them up in M 318
season than do the M 318
seven and it is M 317
serve him is the M 316
sense can be an M 316
selling things at the M 316
seeds due to the M 316
sense them in the M 314
season can be as M 314
selling one of my M 312
seems this is an M 312
season may be of M 312
sense had to do M 310
selling you on the M 310
serve not as the M 308
sense that up to M 308
seems bad to me M 308
seeds may be the M 308
sense that at no M 306
sending you as my M 306
sense are on the M 304
selling all of it M 304
selling was to be M 303
season than on the M 303
sense has to the M 302
search box of the M 302
search than in the M 301
seeking and of the M 300
serve and it is M 298
sense than if he M 298
sending you at the M 298
season may be an M 298
search goes on to M 298
search for it he M 298
serve and at the M 297
serve him in no M 296
sends him to be M 296
sense this is in M 294
selling area of the M 294
seated with us at M 294
season that is to M 294
seeking her at the M 292
season may be so M 292
seems that we as M 291
season due to an M 291
serve you as my M 290
serve them or to M 290
serve but as an M 290
sense was it an M 290
sends him up to M 290
seems out of it M 290
sends you in the M 288
sending any of my M 288
sense then is the M 287
sense that it in M 286
sense now of the M 286
sending them to do M 286
selling and of the M 286
serve but as the M 285
sense and as it M 285
seated him on an M 285
search can be as M 285
sends them by the M 284
sense too it is M 282
sense then of the M 282
sends him to me M 282
season long to be M 282
sense was it the M 280
sense and he is M 280
sending all of us M 280
sense this to be M 279
sends out on the M 276
sending any of it M 276
seated near the king M 276
sense and up to M 274
sense and is of M 274
selling this to the M 274
sever all of the M 272
sends that to the M 272
sending you on an M 272
seems that he at M 272
season may be in M 272
sending them on in M 271
serve him or the M 270
sense are as the M 270
sending them on an M 270
sending her on the M 270
search out to the M 270
search them to the M 269
sense then is it M 268
seize out of the M 268
seeming not in the M 268
sense than if it M 267
seated may be the M 267
sense that the as M 266
sense now to be M 266
selling any of my M 266
seems that we in M 266
seems one of us M 266
seeking aid of the M 266
search was in no M 266
serve and by the M 264
sense may be at M 264
sense and in so M 264
selling them on at M 264
seems but as the M 264
seven each of the M 262
serve them as we M 262
seeds cling to the M 262
seated man on the M 262
search bar at the M 262
sense that in so M 260
sense and is to M 260
seated him on it M 260
season yet to be M 260
search for it we M 260
seven and by the M 259
serve you in an M 258
serve with it in M 258
sending her to us M 258
seems that in at M 258
seeds out of it M 258
seeds lay in the M 258
search for me at M 258
selling and so on M 257
serve for me to M 256
seeds for up to M 256
search may be in M 256
sense going to the M 254
sending this to me M 254
search for it if M 254
sense out of so M 253
serve him to be M 252
sends you to do M 252
selling job in the M 252
serve and be of M 250
sense that if no M 250
sense lead us to M 250
seeks one thing in M 250
seeks death in the M 250
season two of the M 250
search can be an M 250
selling two of the M 248
seems that we no M 248
seated both in the M 248
search for me on M 248
sense him in the M 247
seven men to go M 246
serve god is by M 246
sense this is as M 246
sends them in to M 246
seeks her in the M 246
seated her in it M 245
sending you to an M 244
seeking for it by M 244
search out by the M 244
selling you to the M 243
sense that is as M 242
sense than at the M 242
seeds has to be M 242
search was on the M 242
search and so on M 242
serve god as an M 240
serve each of us M 240
serve both of us M 240
sense how it is M 240
sense but is the M 240
sending for me at M 240
sending for it to M 240
selling things to eat M 240
seize for the king M 240
seems she is the M 240
seems she is in M 240
seize that of the M 239
sense not of an M 238
sense area of the M 238
sends two of the M 238
seems all of the M 238
seeds and at the M 238
search was on in M 238
serve them so as M 237
sense for us as M 237
seeking was to be M 237
sense may be to M 236
sending you to do M 236
selling off to the M 236
seize one of us M 236
seeds was to be M 236
season are of the M 236
search path to be M 236
sense that by it M 234
sense and as to M 234
sends her to be M 234
sending this on to M 234
selling dear is the M 234
seems one of my M 234
seems near to the M 234
seems all in the M 234
season and so the M 234
selling them as the M 233
serve them as it M 232
sense new to the M 232
sending him to do M 232
seated near me in M 232
season was of the M 232
serve all in the M 231
sense was he an M 230
sense not to eat M 230
search was to no M 230
seven and to the M 228
serve you is to M 228
serve her by the M 228
seems dead to the M 228
seeking had to be M 228
season than by the M 228
serve that of the M 226
serve out the tea M 226
sense lead to the M 226
sending him by the M 226
sending for us to M 226
seems set up to M 226
seems set in the M 226
sense and so the M 224
sending you on to M 222
sending her in the M 222
seems not so to M 222
seeking out is the M 222
seated near me at M 222
season was to the M 222
season now to go M 222
serve for us to M 221
sends him in to M 220
seems bad to us M 220
serve man is to M 218
serve long in the M 218
seeming thus to be M 218
seeds out of my M 218
serve now as an M 216
sense for me of M 216
sends them to do M 216
sends for me in M 216
seems new in it M 216
seems due in the M 216
season that is the M 216
search area to the M 216
search and by the M 216
sense she is an M 214
sense for us in M 214
sends both to the M 214
selling that to the M 214
seems was to be M 214
seems this is to M 214
seems apt to be M 214
seems all of us M 214
seeming ease of the M 214
season than to the M 214
season are on the M 214
search may be to M 214
seven you go to M 212
seven men in my M 212
sense that by an M 212
sense but as it M 212
sense are at the M 212
sending you to be M 212
selling her on the M 212
seeds that it is M 212
seeds set in the M 212
serve them up on M 210
sense but to be M 210
seems one thing to M 210
seeking that of the M 210
seeking for it at M 210
seated far in the M 210
season being in the M 210
seated with me in M 208
sense each is an M 207
serve you or the M 206
serve but to be M 206
sense that we go M 206
seems not to the M 206
season and at an M 206
sense being in the M 205
seeking and in the M 205
serve them to my M 204
sends out at the M 204
sending her on an M 204
seems then to the M 204
seems fit to the M 204
seeking use of the M 204
seeds are of an M 204
season both in the M 204
seven out of my M 202
serve you as it M 202
serve him as to M 202
sense are by no M 202
sending them via the M 202
seize you in the M 202
seems was in the M 202
seems out of my M 202
seems near to it M 202
seems easy to the M 202
seeks aid of the M 202
seeds out on the M 202
search was by no M 202
sense head of the M 200
sends you to us M 200
sends air to the M 200
seated then in the M 200
season with us in M 200
season can be the M 200
search that is the M 199
seven each in the M 198
serve was to be M 198
seeks not in the M 198
seeds out to the M 198
season they go to M 198
seven kings in the M 197
seven and up to M 197
serve them in king M 196
sends his ring to M 196
season lead to the M 196
sever any of the M 195
serve with us in M 194
sense and by no M 194
sending out to an M 194
seems easy to us M 194
seeking him at the M 194
search was at the M 194
sense can be no M 193
sense them to be M 192
sends them on an M 192
seems not of the M 192
seeming not to do M 192
seeking him on the M 192
search that it is M 192
selling job to the M 191
seven things to do M 190
serve for the king M 190
sense that as he M 190
sense and so is M 190
sends her to an M 190
sending men to be M 190
seems that to do M 190
sending and of the M 189
seven are at the M 188
sends you by me M 188
seeking all of the M 188
seven men to do M 186
serve not to be M 186
sending both to the M 186
selling out to it M 186
seize them if the M 186
seeds lie on the M 186
season was on in M 186
search than if the M 186
season use of the M 185
serve them if we M 184
sense that it at M 184
sense are we so M 184
sends her on an M 184
seems not of so M 184
seated him in it M 184
search was of no M 184
serve them on an M 182
sense things in the M 182
sense that if in M 182
sense put on the M 182
sense now in the M 182
sense man of the M 182
sends you to be M 182
sending man to the M 182
selling goes on in M 182
seize him as an M 182
seems out on the M 182
seems old to me M 182
seeds for me to M 182
search area on the M 182
sense that is is M 181
seven lay in the M 180
serve you if it M 180
serve them to me M 180
serve both the king M 180
sense death is the M 180
sense but he is M 180
sends them up the M 180
sends him to do M 180
seize one of my M 180
seems too as if M 180
seeds than do the M 180
season add to the M 180
search key to the M 180
seated two of the M 179
serve you or to M 178
serve you if he M 178
serve him up at M 178
serve her if he M 178
serve for me as M 178
serve both on the M 178
seems weak to me M 178
seems weak in the M 178
seems that in it M 178
seeming then to be M 178
seeking aid at the M 178
search for it so M 177
serve you up the M 176
sense that as it M 176
sends him up the M 176
selling are to be M 176
seize him is to M 176
season that in the M 176
serve you by the M 174
serve god if he M 174
sense and be of M 174
seize earth by the M 174
seems set on the M 174
seems but to be M 174
seeking for in the M 174
seeds led to the M 174
search for me if M 174
serve god if we M 172
sense has in the M 172
sense are to the M 172
sends out to do M 172
selling both to the M 172
seize and eat the M 172
seems dead in the M 172
seeming and it is M 172
season and is an M 171
serve are to be M 170
sense that he be M 170
sense out of or M 170
sending both of us M 170
seize this as an M 170
seems that he no M 170
seeking you in the M 170
search may be as M 170
seeking and on the M 169
season than is the M 169
serve them in it M 168
sends you to an M 168
sending you in my M 168
sending one of us M 168
selling him to me M 168
seize him to my M 168
seems was at the M 168
seems that so it M 168
sense led me to M 166
sense and so it M 166
sending men up the M 166
sending for me the M 166
seems that on an M 166
seated not on the M 166
search was of the M 166
sense that is it M 165
serve for it as M 164
sense and to no M 164
sense and if we M 164
sense and at no M 164
sends you on an M 164
sends she to the M 164
sends for us to M 164
seems near to us M 164
seated them by the M 164
search may be an M 164
seven men as the M 162
serve you in so M 162
serve had to be M 162
sense than in an M 162
sense but is an M 162
sense and so to M 162
selling them in an M 162
seize you in my M 162
seeks one of the M 162
search not to be M 162
search may be on M 162
search but in the M 162
sense men of the M 161
seven sat in the M 160
sense and so we M 160
sending off at the M 160
sending her in to M 160
sending end of an M 160
selling and to the M 160
selling men in the M 159
selling and at the M 159
seven men by the M 158
seven did so in M 158
seven and he is M 158
sense that if my M 158
seems low to me M 158
seems going to the M 158
seeking death on the M 158
seeds rot in the M 158
season and in an M 158
search may go on M 157
search for the the M 157
serve one of my M 156
sense yet of the M 156
sending one to me M 156
selling was in the M 156
seize you at the M 156
seems that we go M 156
seems that if no M 156
seeking out of an M 156
seeds both of the M 156
seeds are at the M 156
selling and on the M 155
serve them is the M 154
sense nor to the M 154
sense and is it M 154
sending out to us M 154
sending him as an M 154
seems new in the M 154
seated low in the M 154
season set in at M 154
season can be an M 154
search them on the M 154
selling meat on the M 153
seven may be the M 152
sense that he in M 152
sense goes to the M 152
sending all to the M 152
selling them as if M 152
seeds but it is M 152
season and if he M 151
serve you if we M 150
serve him in so M 150
sense and is so M 150
sending out to me M 150
selling him in the M 150
seems two of the M 150
seems all on the M 150
seeming end to the M 150
seated with me on M 150
sense you at my M 149
search may be of M 149
serve and do the M 148
sense for me as M 148
sense for it in M 148
seems now to he M 148
seems apt in the M 148
seeds can be an M 148
seated near me on M 148
seven east of the M 147
sense she is in M 147
search has to do M 147
serve god in so M 146
serve any of us M 146
sense for the king M 146
sends you on to M 146
seems with us to M 146
seems all we do M 146
seeds not to be M 146
seeds may be in M 146
search not of the M 146
search led to an M 146
search had to go M 146
search for an in M 146
seated man at the M 145
search him to the M 145
search are in the M 145
serve them up the M 144
serve out in the M 144
serve and eat the M 144
sense was it to M 144
sense get in the M 144
sense can in no M 144
sense and is no M 144
sends all of us M 144
seems red to me M 144
seated him at an M 144
seated and on the M 144
search area at the M 144
sense her in the M 143
seven men of my M 142
seven due to the M 142
sense than he of M 142
sense one is the M 142
selling out to me M 142
selling can be an M 142
seize and eat up M 142
seems low in the M 142
seems long in the M 142
seeking are to be M 142
seeds put in the M 142
season each of the M 142
sense she is as M 141
seven out of an M 140
serve them in so M 140
sense are in no M 140
sending her at the M 140
selling them or by M 140
seize all the king M 140
seems thus as if M 140
seems she is of M 140
seeking out by the M 140
season and he is M 140
serve that in the M 139
search for me to M 139
serve with tea or M 138
serve them to us M 138
serve him if it M 138
sense god in the M 138
sense and to do M 138
sense add to the M 138
sends out to us M 138
sending off in the M 138
sending him to my M 138
sending end by the M 138
seems yet to me M 138
seems set to go M 138
seated fear in the M 138
search him on the M 138
serve and to eat M 137
sending and in the M 137
seven things in the M 136
serve you in no M 136
serve you at my M 136
sense not to the M 136
sends off to me M 136
seeds may be so M 136
seated her on it M 136
season out in the M 136
sense can be in M 135
selling and it is M 135
serve and eat it M 134
sense for us at M 134
sends you up to M 134
sends each of us M 134
sending that to the M 134
selling her to me M 134
seize them to the M 134
seeds are of no M 134
search that is to M 134
search for the via M 134
search for in an M 134
search both in the M 134
serve that it is M 133
serve him up as M 133
search this is the M 133
search for in my M 133
search and go to M 133
seven sat on the M 132
seven and be at M 132
sense this is my M 132
sense that of an M 132
sense than as we M 132
sense not as an M 132
sense god is to M 132
sense does in the M 132
sense can be as M 132
sends you on the M 132
sending with it the M 132
sending men up to M 132
selling one to the M 132
seems that by an M 132
seems near to me M 132
seeking has to be M 132
seated with us in M 132
season with us is M 132
season but on the M 132
search box to the M 132
sending and at the M 131
search for the as M 131
search for at the M 131
seven that it is M 130
seven dead at the M 130
serve now in the M 130
serve her as my M 130
sense that if is M 130
sense him to be M 130
selling them as it M 130
selling one or the M 130
selling dear in the M 130
seems real in the M 130
seems apt to me M 130
seeking and at the M 130
seeds may be of M 130
seated and to be M 130
season with me in M 130
search you to the M 130
search area is the M 130
sense and to go M 129
selling job of the M 129
seeking and it is M 129
seeds may be as M 129
search can be the M 129
serve him to do M 128
sense then he is M 128
sense and we do M 128
sense and is at M 128
sense act in the M 128
selling them is an M 128
seize one or the M 128
seems with me to M 128
seems mad to me M 128
seeking may be the M 128
sense that the the M 127
sense that it so M 127
sense now as it M 127
serve them to be M 126
serve god as if M 126
sense that we so M 126
sense lay in the M 126
sense had he of M 126
sense god is in M 126
sense can be at M 126
sending them on by M 126
seems that to go M 126
seems that if in M 126
seems one to me M 126
seeds one of the M 126
seated him in my M 126
season and is in M 126
search team in the M 126
search both of the M 126
selling than in the M 125
selling due to the M 125
search and if the M 125
seven being in the M 124
sense was to the M 124
sense this at the M 124
sense but is in M 124
sends all of it M 124
sending two to the M 124
sending end is the M 124
selling all of my M 124
seems fit to do M 124
seems and is so M 124
seeking was in the M 124
seeking for it on M 124
season east of the M 124
sense and the so M 123
selling arm of the M 123
seven things to be M 122
serve them up at M 122
serve his king as M 122
serve him of the M 122
sense that to go M 122
sense and if he M 122
sends her on the M 122
sending you up the M 122
sending any thing to M 122
seize them if he M 122
seeming gap in the M 122
seeking them on the M 122
seeking for me in M 122
seeking for it the M 122
seeds that we eat M 122
seeds for us to M 122
search for us to M 121
search but it is M 121
serve then as an M 120
serve god as to M 120
sense than if we M 120
sense lie in the M 120
sense both of an M 120
sends him by the M 120
sends her in the M 120
sending you to is M 120
sending out to it M 120
sending meat to the M 120
sending her up the M 120
selling them is the M 120
seize all of it M 120
seems that the ring M 120
seems that he in M 120
seems key to the M 120
seems are to be M 120
seeks god as the M 120
seeks are to be M 120
seeking now to be M 120
seeking and to the M 120
search key is in M 120
selling one thing or M 119
selling going on in M 119
serve you as to M 118
serve you as if M 118
sense man is an M 118
sense for us of M 118
seeds are in an M 118
season for up to M 118
search area to be M 118
sever each of the M 117
seven dead in the M 117
sense who he is M 117
sense that we of M 117
sense and is as M 117
season are we in M 117
serve you up to M 116
serve god or no M 116
sense put on it M 116
sending you in to M 116
seems she is to M 116
seems hung up on M 116
seems and is the M 116
seated with me at M 116
season than of the M 116
season set in the M 116
search path is the M 116
sense one is to M 115
search and to be M 115
seven was on the M 114
serve them as to M 114
serve him up on M 114
serve her if it M 114
sense that to an M 114
sending him is to M 114
sending each to the M 114
seems easy in the M 114
seems dear to us M 114
seeks you on the M 114
seeks out of the M 114
seeds for it to M 114
seeds and eat the M 114
sense but of no M 113
selling them to my M 113
seeking god as the M 113
seven men of us M 112
serve her up to M 112
serve her in my M 112
sense and the thing M 112
sending him as the M 112
selling out of my M 112
seems that the in M 112
seems that as of M 112
seems big to us M 112
seems big to me M 112
seeking for it is M 112
search that is at M 112
search can go on M 112
sense that by so M 111
seeking and by the M 111
serve then as the M 110
serve that king in M 110
serve men as the M 110
serve both to the M 110
sense was in no M 110
sense was at an M 110
sense than to eat M 110
sends him at the M 110
sends her on to M 110
sends for it to M 110
selling them or of M 110
selling her in the M 110
seems she to the M 110
seems and it is M 110
seeking one in the M 110
seeking men of the M 110
seeking god is the M 110
season but by the M 110
season but at the M 110
search than it is M 110
search out on the M 110
search lay in the M 110
search and is the M 110
seven has to be M 109
sense and so do M 109
seems they go on M 109
seated and it is M 109
serve you at an M 108
sense was of no M 108
sense can do it M 108
sense and in my M 108
sense and by an M 108
sends man to the M 108
sending for me so M 108
selling out at an M 108
seems this is no M 108
seems new is the M 108
seeking his in the M 108
seated all of the M 108
season set in in M 108
season can be so M 108
season but to the M 108
search team to the M 108
sense they do so M 107
selling than it is M 107
seven rings in the M 106
seven kings at the M 106
serve you by my M 106
serve with in the M 106
serve them in no M 106
serve them as is M 106
serve him to my M 106
sense that he so M 106
sense nor by the M 106
sense any of it M 106
selling out to go M 106
seize you on the M 106
seize them in my M 106
seize him in my M 106
seize him in an M 106
seems odd to go M 106
seems due on the M 106
seems both of us M 106
seeking death at the M 106
seeds both in the M 106
search you at the M 106
search has to go M 106
search bar on the M 106
sense can do the M 105
seeming may be the M 105
seeking man of the M 105
seven read to the M 104
serve you is the M 104
serve with us to M 104
serve thus as an M 104
serve them or the M 104
sense was to go M 104
sense that he at M 104
sense than if the M 104
sends off in the M 104
sending you as the M 104
sending them in an M 104
selling out by the M 104
selling job is to M 104
seize them as the M 104
seems that up in M 104
seems odd to an M 104
seeks death at the M 104
season and we do M 104
season and if it M 104
sense this as an M 103
sense than is to M 103
sending them to so M 103
seven each to the M 102
serve them if he M 102
sense one thing is M 102
sense led us to M 102
sense has by no M 102
sends one of us M 102
sends him to us M 102
sending him on so M 102
sending any to the M 102
selling out to us M 102
selling any thing to M 102
seems not at the M 102
seems led as it M 102
seeks out the king M 102
seeks for us to M 102
seeking out the king M 102
seeds that in the M 102
seeds out of an M 102
seeds may be an M 102
seeds end up in M 102
season that is so M 102
search them as he M 102
search goes as it M 102
seven men to an M 100
serve men of the M 100
serve her as if M 100
sense that if at M 100
sense lay at the M 100
sense for me at M 100
seems that as to M 100
seems dim to the M 100
seems but it is M 100
seeking out on the M 100
season that of the M 100
season lay in the M 100
season and at my M 100
search was to go M 100
seven had to do M 98
serve them it is M 98
serve him as my M 98
sense going to be M 98
sense are of no M 98
sending for it in M 98
selling him at the M 98
selling both in the M 98
seems now to go M 98
seated them at an M 98
search for it be M 98
serve may be the M 97
sense and be in M 97
selling may be an M 97
sever them at the M 96
seven wings of the M 96
serve too as an M 96
serve this in the M 96
serve him tea in M 96
sense way on the M 96
sense than as he M 96
sense law is the M 96
sense has on the M 96
sense each thing is M 96
sense can do no M 96
sense but by no M 96
sends for me on M 96
sending you is the M 96
sending this to my M 96
sending them by an M 96
sending her to my M 96
selling job at the M 96
seems odd on the M 96
seeking thus to be M 96
seated you on the M 96
season than if it M 96
season out on the M 96
search that in the M 96
search path or the M 96
search goes to the M 96
search for us on M 96
seven that of the M 95
serve with us as M 95
serve them if it M 94
serve due to the M 94
sense why do we M 94
sense than to my M 94
sense lying in the M 94
sense and do the M 94
sends them via the M 94
sends them to my M 94
sending them in my M 94
sending men to do M 94
sending him up in M 94
selling poet in the M 94
seems thus to us M 94
seems old to us M 94
seems odd in an M 94
seems odd if the M 94
seeking for the king M 94
seated him at my M 94
season may be at M 94
season box at the M 94
season and as to M 94
search him at the M 94
serve them as so M 93
sense fear in the M 93
serve this to the M 92
serve them tea in M 92
serve him up in M 92
serve god is in M 92
sense may in the M 92
sense are we the M 92
sense all of it M 92
sense add up to M 92
sends her up to M 92
sending out up to M 92
sending him of the M 92
selling them at so M 92
selling off in the M 92
seize her by it M 92
seems dry to the M 92
seeds and is the M 92
season than if the M 92
search them at the M 92
sense that as in M 91
serve them in my M 90
serve man as an M 90
serve him as in M 90
sense got to do M 90
sense and be the M 90
sends any of the M 90
sending all of my M 90
selling them if he M 90
selling out as the M 90
selling end of it M 90
seize god by the M 90
seems yet to the M 90
seems that the the M 90
seems set to do M 90
seeking joy in the M 90
seeds being in the M 90
seated you in the M 90
season goes by the M 90
season for us in M 90
season can be of M 90
season and as an M 90
serve you up as M 89
sense this as the M 89
seeking was on the M 89
serve all at the M 88
sense she is to M 88
sense let it be M 88
sense and is by M 88
sense and if so M 88
sending them is the M 88
seems that to me M 88
seems she is an M 88
seems mad at me M 88
seems easy on the M 88
seeks death on the M 88
seated her on my M 88
season was on us M 88
sense due to an M 87
serve with the tea M 86
serve meat to the M 86
serve god by it M 86
sense that is by M 86
sense put by the M 86
sense out of in M 86
sense out in the M 86
sense nor of the M 86
sense does so in M 86
sending with me to M 86
selling them as he M 86
selling them as an M 86
seems dead to us M 86
seeming out of the M 86
seeking for the thing M 86
seeking for it he M 86
seated near me to M 86
search that he is M 86
search led to no M 86
search how it is M 86
seeming than in the M 85
serve them tea or M 84
serve but on the M 84
sense for me in M 84
sends you by us M 84
sends her to me M 84
sending her to do M 84
sending air to the M 84
selling them on an M 84
seize him to go M 84
seize him or to M 84
seems real at the M 84
seems odd is the M 84
seems low to us M 84
seems fit to me M 84
seems bad in the M 84
seeks and at the M 84
seeking for the foe M 84
seeds was in the M 84
seeds are by no M 84
seated thus in the M 84
seated him on my M 84
seated both of us M 84
season with me at M 84
season and so is M 84
season and at no M 84
seeking that it be M 83
serve one in the M 82
serve one at the M 82
sense was he to M 82
sense may he be M 82
sense led by the M 82
sense but in no M 82
sends heat to the M 82
sends for the king M 82
sending key in the M 82
sending each of us M 82
seize men in the M 82
seems that it no M 82
seeking for is the M 82
seeds put up in M 82
season was on at M 82
season that is in M 82
season out of it M 82
season led to an M 82
season and is at M 82
search out or to M 82
selling out of an M 81
seeking and so on M 81
season and is of M 81
seven that by the M 80
seven not in the M 80
serve you or do M 80
serve this as the M 80
serve them to no M 80
serve god or we M 80
sense that to us M 80
sense that to it M 80
sense than we at M 80
sense may go to M 80
sense did he do M 80
sends joy to the M 80
sending them in by M 80
sending any of us M 80
seize each by the M 80
seems thus or so M 80
seems this is so M 80
seems this is my M 80
seems that on my M 80
seems that by no M 80
seems apt to the M 80
seeks not to do M 80
seeds than it is M 80
seeds but in the M 80
season few of the M 80
search going on at M 80
search for the in M 69
seeking that is the M 65
search for us as M 63
search not in the M 61
selling toy in the M 59
sense and go on M 58
sense that the in M 57
season and go on M 57
selling area in the M 56
search and go on M 56
sense that he as M 54
seeking has to do M 54
search for us at M 54
selling day of the M 53
sense may be no M 52
seated way in the M 52
search goes on as M 52
seven being on the M 50
seeking than in the M 50
seated one in the M 50
serve has to be M 49
sense way is to M 49
sense now is the M 49
sending them on as M 49
seeking may be an M 49
seated her on an M 49
selling that it is M 48
sense idea of an M 47
sense death in the M 47
sending them in as M 47
sense one of my M 46
selling job by the M 45
search why it is M 45
sense way to the M 44
seeking men in the M 44
serve than in the M 43
search for me as M 43
search for us if M 42
search for the tea M 42
search for the foe M 42
search for me is M 42
search for as the M 42
seven and go on M 41
sense this by the M 41
selling song of the M 41
selling out of it M 41
seeming one of the M 41
seated and to the M 41
search may be no M 41
search for is an M 41
sense this as he M 40
seated and at the M 40
search that is in M 40
search and as the M 40
seizing him by the D 33088
setting out on the D 33072
setting out of the D 20610
setting out in the D 17017
setting out to do D 12579
seizing her by the D 11426
setting them on the D 8352
setting and in the D 8294
setting them in the D 7944
seizing one of the D 7934
sells them to the D 7652
setting out on an D 7455
seeping out of the D 7237
sealed off by the D 6803
senior year at the D 6452
serve hot or at D 6362
setting off on the D 6259
setting them up in D 6246
serving god in the D 5537
setting one of the D 5233
setting sun on the D 5183
sealed with the king D 5062
seeps out of the D 4380
setting off in the D 4373
setting them up as D 4170
setting out to sea D 4067
setting sun in the D 4046
serum and in the D 4027
setting out to be D 3957
setting out on my D 3948
setting out to the D 3801
senior man in the D 3720
setting than in the D 3706
setting him up as D 3680
setting off to the D 3528
senior men in the D 3499
serving one of the D 3425
setting him on the D 3290
sealed end of the D 3262
serving him in the D 3253
senior year in the D 2958
setting him up in D 2784
seizing them by the D 2772
setting and of the D 2712
senior men of the D 2698
sells them in the D 2624
setting and to the D 2572
sealed off in the D 2540
setting off of the D 2472
setting sun of the D 2360
setting him up to D 2352
sells all of the D 2330
setting out at the D 2309
setting has to be D 2309
setting them up to D 2274
sealed off at the D 2202
senior man of the D 2146
setting her on the D 2134
setting may be the D 2086
sexes and of the D 2018
senior year of the D 2006
setting all of the D 2000
serving all of the D 1927
serving them in the D 1918
setting off on an D 1911
setting sun as it D 1808
sexes are to be D 1800
setting and by the D 1774
sexes and in the D 1754
sells them at the D 1684
setting had to be D 1654
setting them up on D 1622
setting sun at the D 1622
setting each of the D 1619
setting and on the D 1616
sells out to the D 1568
setting him in the D 1560
sensing that he is D 1556
serve thee in the D 1550
seine and of the D 1528
setting her up in D 1490
semen and of the D 1474
semen out of the D 1470
setting out to go D 1462
seven seas of the D 1452
serving you in the D 1386
selling car in the D 1381
serving both as an D 1348
setting due to the D 1340
setting her up as D 1336
setting and it is D 1280
serum and of the D 1210
senior man on the D 1204
sells them on the D 1204
sells one of the D 1182
setting you up to D 1180
setting them to the D 1180
serving each of the D 1170
sewed him up in D 1162
selling oil to the D 1160
setting sun to the D 1146
selling rum to the D 1130
setting and at the D 1114
serving out of the D 1097
search for the sea D 1082
setting her up to D 1034
setting that is the D 1030
serum has to be D 1014
setting was in the D 1012
serving men of the D 988
sexes are in the D 984
seaman being at sea D 980
seamen out of the D 979
serving them to the D 974
setting was to be D 965
sensing that it is D 950
serum than in the D 938
sending them to sea D 924
setting and so on D 914
serving both as the D 914
sealed them up in D 914
setting but it is D 911
serve thee to the D 894
setting out by the D 865
setting can be an D 850
sewed them up in D 844
setting than it is D 844
serving with the king D 836
sexes and to the D 830
seine and on the D 829
setting them at the D 820
setting may be an D 819
setting sun or the D 816
setup tab of the D 814
setting out in an D 806
sects are to be D 800
sexes and on the D 788
seine and in the D 781
serving you if he D 776
setting things up so D 774
setting off at the D 766
setting that is as D 762
seamen are to be D 762
septa and in the D 758
setting that it is D 756
setting sun as the D 752
sells for in the D 752
setting off up the D 748
setting out the tea D 744
seizing two of the D 738
sects and of the D 736
setup has to be D 730
serum and on the D 730
sells for up to D 724
sending him to sea D 722
setting that up as D 707
sexes had to be D 706
setting are to be D 701
serum may be of D 688
sells any of the D 688
setting any of the D 664
seamen had to be D 656
sealed jar in the D 646
sealed out of the D 636
setting but in the D 630
setting for up to D 628
semen and in the D 620
setting sun as he D 615
sects and in the D 612
setting you up in D 610
sealed off to the D 602
serve hot as an D 599
serving him to the D 598
seizing all of the D 590
setting out of an D 589
serving any of the D 583
seabed and of the D 578
seeping out of my D 573
setting off on my D 568
setting this is the D 558
setting her in the D 554
seven seas in the D 550
serving her in the D 546
serving both in the D 545
sells her to the D 544
seine than in the D 543
setting than in an D 540
senior son of the D 538
sealed them in an D 536
sending her to sea D 534
sells him to the D 534
sealed off by an D 522
serum and it is D 520
setting them up at D 516
setting them in an D 516
setting and to be D 500
seizing them in the D 500
sedan out of the D 500
seared him to the D 500
setting things up in D 495
setting him up on D 492
setting may be in D 489
serum had to be D 488
serum for up to D 486
senior men at the D 484
serve thee as thy D 483
senior men on the D 480
seizing him in the D 480
serving men in the D 479
sexes are of the D 476
setting off to do D 474
sealed box in the D 472
seeping out of me D 470
setting has to do D 468
serving them up to D 468
sensing area of the D 468
seabed and in the D 468
setting one up in D 465
setting him at the D 462
serving them at the D 442
senior year as an D 440
setting this up as D 438
setting them up is D 438
sealed them in the D 438
setup tab in the D 437
seizing him as he D 436
seems that the sea D 436
sewer has to be D 433
sells them by the D 432
seizing one by the D 432
seeping out of it D 432
serving him as he D 430
setting and is the D 427
setting sun as if D 422
serfs had to be D 422
setting this up is D 420
sexes was to be D 418
serving him at the D 414
setting out as it D 410
serving bias is the D 410
serum due to the D 410
sexes are on the D 408
setting them by the D 408
setting sun is the D 408
senior man at the D 408
setting two of the D 406
serving them on the D 406
sewer was to be D 404
setting that is in D 404
serve thee is my D 402
senior year at an D 402
sending them by sea D 402
seaman out of the D 402
setting may be of D 401
serum and at the D 401
sense that the sea D 401
sells them to an D 400
serve thee in thy D 399
setting can be as D 397
senior year to the D 396
serve hot in the D 394
setting you up as D 392
search tab in the D 392
serving them as an D 390
sensing that if he D 389
setting that is so D 387
serving bias in the D 385
setting that is at D 383
senior year on the D 380
setting can be the D 375
sense doth eat of D 375
setting you on the D 374
serving him up to D 374
serving god to the D 374
serum and to the D 374
sexes than in the D 372
serving head of the D 370
seizing one of my D 370
sexes and it is D 368
serum and by the D 368
senior year to be D 368
setting may be as D 366
seven seas to the D 362
setting for the king D 361
serving man in the D 361
sewed them on the D 360
setup had to be D 360
seeps out at the D 359
setting low in the D 358
setting things up to D 357
seamen not to be D 355
setting out in it D 353
serum are to be D 350
sealed off on the D 350
sexes and by the D 346
seamen and of the D 346
serving god is to D 344
senior job in the D 342
search tab of the D 342
seine and up the D 340
septa and of the D 336
sends him to sea D 336
seine net in the D 335
sealed with the ring D 334
setting and in an D 329
sewer gas in the D 324
setting than to the D 324
serving him as an D 324
senior was in the D 322
sells them to me D 318
seizing any of the D 318
sealed off in an D 318
sexes was in the D 316
serfs and of the D 312
setting than on the D 310
setting this in the D 309
sects and to the D 308
serving now as the D 306
seine and the sea D 304
serving them up as D 303
sells out of the D 302
setting out on so D 300
seamen and to the D 296
setting out as an D 294
sewer had to be D 292
setting them to do D 292
serving god is the D 292
sexes due to the D 290
setting one on the D 290
setting for it is D 290
sealed him up in D 290
setting has on the D 288
serving with it in D 288
sells out at the D 288
senior year is the D 286
selling gas to the D 286
setting this up in D 284
setting them on to D 284
setting them on an D 282
setting out on it D 282
sexes may be the D 280
seeping out at the D 278
sealed box on the D 278
setting him to the D 276
sells them at an D 276
setting off to go D 274
seamen and in the D 273
sexes and at the D 272
setting for me to D 272
senior year in an D 272
senior year as the D 272
sending you the ms D 272
sects and by the D 272
sedan and on the D 271
sealed them on thy D 270
sealed one of the D 270
serving them up in D 268
serving her to the D 268
selling oil in the D 268
senior end of the D 266
seaman put up at D 266
sealed and in the D 265
setup and in the D 264
serving god as he D 262
sells for on the D 262
seaman was to be D 258
seizing you by the D 256
serial use of the D 254
serum out of the D 252
seizing him at the D 252
serving god on the D 251
sealed and it is D 251
setting was at the D 250
setting sun be to D 250
serving use of the D 250
serving god or the D 250
seine was to be D 249
setup one of the D 248
senior boy of the D 248
sewed them to the D 246
setting out of it D 246
senior head of the D 246
seared her to the D 246
sensing that in the D 245
setting for us to D 244
serving out to the D 244
serum and is the D 244
setting that is of D 242
serving with me in D 242
sells him at the D 242
serving area of the D 241
setting out to re D 240
setting out at an D 240
sexes both in the D 238
setting and as the D 236
seaman was in the D 236
sells them on to D 234
sects are in the D 234
serving him as the D 232
senior boy in the D 230
seine and to the D 230
setting led to the D 229
setting out as the D 228
setting off in an D 228
serving god at the D 228
setup due to the D 226
serving god by the D 226
serum may be the D 226
semen has to be D 226
seizing them on the D 226
seaman was on the D 226
sealed off as the D 226
serving one or the D 224
sensing head of the D 224
setting may be to D 223
sewed them in the D 220
sells him to us D 220
seizing one of us D 220
sealed bag in the D 220
setting and as an D 219
serving them is at D 218
senior team in the D 218
sells them to us D 218
sealed him in the D 218
seated near the sea D 217
setting sun as we D 216
setting her to the D 214
serving you at the D 214
sects had to be D 214
setting out of my D 213
serving man of the D 213
setting that is to D 212
setting out by sea D 212
serving him by the D 212
sends thee to me D 212
setting sun is an D 211
setting her up on D 210
sexes has to be D 208
sewed them on to D 208
setting her on to D 208
setting was on the D 206
setting off to sea D 206
serving you to the D 206
sensing this to be D 206
search for the ox D 204
selling sex on the D 203
selling ice to the D 203
setting this thing up D 202
sense that it re D 202
seance was to be D 202
seamen was to be D 202
serving both on the D 200
seamen say to be D 199
setting him to do D 198
serving them in an D 198
sexes that it is D 196
serum led to the D 196
setting are of the D 195
sewed her up in D 194
serfs are to be D 194
setting him on to D 192
senior one in the D 192
seine and at the D 192
sedan sat in the D 192
setting them up or D 190
setting that is an D 190
setting and is an D 190
serving them as the D 190
serial run in the D 190
setting off to be D 188
setting may be so D 188
setting him up at D 188
setting both in the D 188
sensing tip of the D 188
senior year to go D 188
sedan was in the D 188
setting sun by the D 187
setting you up on D 186
setting this to the D 186
senior who is the D 186
seems deaf to the D 186
setting add to the D 185
selling gas in the D 185
senior and in the D 184
setting owing to the D 183
setting them up by D 182
serving east of the D 182
senior dean of the D 182
selling ice in the D 182
sealed all of the D 182
setting and the sea D 181
selling oil on the D 180
setting off by the D 178
sensing end of the D 178
semen was to be D 178
seizing that of the D 178
setting can be of D 177
serving all of us D 176
senior god of the D 176
seize thee by the D 176
serving two of the D 174
serving his king in D 174
sects may be in D 174
setting sun to be D 173
setting are in the D 173
setup and of the D 172
setting was of the D 172
selling sex in the D 172
sedan and in the D 172
serving them is to D 170
seizing her in the D 170
sexes but in the D 168
setting them up so D 168
serum than is the D 168
seizing each by the D 168
sexes and so on D 167
setting that he or D 167
setting but at the D 166
serving now in the D 166
selling hay to the D 166
seizing tom by the D 166
setting than at the D 165
setting off of an D 165
serum that is to D 165
senior one of the D 164
senior men to the D 164
sells for at the D 164
sedan and of the D 164
sects out of the D 164
serum was in the D 162
semen than in the D 162
sells all of it D 162
sealed due to the D 162
setting and if the D 161
serving him up as D 161
setting than is the D 160
setting out to us D 160
setting out as we D 160
sells him or is D 160
seamen are in the D 160
setting can be in D 158
serum was to be D 158
senior year of an D 158
seamen and the sea D 157
setup and on the D 156
serum may be so D 156
sewer and in the D 154
setup was to be D 154
setting red in the D 154
serving them to us D 154
serial was to be D 154
semen had to be D 154
sealed with it by D 154
sealed top of the D 154
sexes but it is D 152
sexes and to be D 152
setting tab of the D 152
senior and at the D 152
seizing him by an D 152
sects and so on D 152
sealed tip of the D 152
seems that the re D 151
serfs out of the D 150
sense art is the D 150
senior year by the D 150
seizing him as an D 150
seething heat of the D 150
seaman was at the D 150
sealed them up as D 150
setting out up the D 148
sells each of the D 148
seizing him on the D 148
seaman had to be D 148
seems that the ex D 147
setting both of the D 146
seaman and of the D 146
sealed and to be D 146
setting that he is D 145
setting out is to D 144
setting out is the D 144
sells him to be D 144
sedan was to be D 144
sects and on the D 144
setting this up on D 142
senior team of the D 142
serving thus as an D 141
sealed bid to the D 141
serfs was to be D 140
sered one of the D 140
sends thee to thy D 140
seizing her by an D 140
semen and it is D 139
sexes are at the D 138
setting this as the D 138
serving god as the D 138
senior out of the D 138
sells oil to the D 138
seeps out to the D 138
seeps out in the D 138
seaman may be an D 138
sealed off as it D 138
setting than by the D 137
sewer may be of D 136
setting sun of an D 136
setting low on the D 136
setting him by the D 136
seamen and by the D 136
sexes and is the D 134
serving and to the D 134
seeping out to the D 134
sects that it is D 134
setting for it to D 133
sewer and of the D 132
septa and at the D 132
sensing one of the D 132
senior was to be D 132
sects than in the D 132
setting than of the D 131
setting hen in the D 131
sells this to the D 130
sealed her in the D 130
sewed all of the D 128
setting this up to D 128
setting them to be D 128
serving god as we D 128
serfs and in the D 128
seizing them at the D 128
sects was to be D 128
seance was at an D 128
sealed both by the D 128
setting may be at D 127
sexes out of the D 126
setting things on the D 126
setting them at an D 126
setting sun or to D 126
serving with us in D 126
serving him is to D 126
serving her in my D 126
senior year or in D 126
seething out of the D 126
search tab at the D 126
setting out as he D 125
setting and so the D 125
sexes than it is D 124
sending oil to the D 124
sells two of the D 124
season and the sea D 123
sexes may be in D 122
sexes are by no D 122
sewer out of my D 122
serum may be an D 122
serum are of no D 122
septa and on the D 122
seething and it is D 122
sects are on the D 122
sealed him to the D 122
serving area in the D 121
seeps out of it D 121
sexes may be an D 120
setting things up on D 120
setting sun in an D 120
setting not in the D 120
setting for the tea D 120
serving not as the D 120
serial out of the D 120
sepal one of the D 120
sensing has to be D 120
semen for up to D 120
seaman that he is D 120
seaman aft at the D 120
selling ads in the D 119
sexes led to the D 118
setup out of the D 118
setting men by the D 118
serving with me on D 118
serum but in the D 118
sensing and in the D 118
seizing six of the D 118
seeps out of me D 117
serving you as the D 116
serving man to the D 116
sects led to the D 116
serum are of the D 115
setting one up is D 114
setting can be so D 114
setting but to the D 114
serving god as an D 114
serum are in the D 114
septa are in the D 114
seers and of the D 114
seamen being at sea D 114
seaman and to the D 114
sealed them up to D 114
sealed off so as D 113
serving then in the D 112
serfs and to the D 112
sensing arm of the D 112
senior than in the D 112
senior and of the D 112
seeding has to be D 112
sealed her up in D 112
setting sun it is D 111
setting men on the D 111
selling art to the D 111
seaman going to sea D 111
sealed and he is D 111
sexes was at the D 110
sexes one of the D 110
setting off at an D 110
setting far to the D 110
setting and on an D 110
serving god in it D 110
serving god if we D 110
sells you on the D 110
sells them as the D 110
seine and the he D 110
setup tab on the D 109
setting one of my D 109
setting sun on it D 108
setting him on an D 108
setting but on the D 108
serving him on the D 108
serve thee as an D 108
seizing him up as D 108
seamen who in the D 108
sealed but in the D 108
seven seas by the D 106
setting for the re D 106
serfs and by the D 106
sense but the ear D 106
sells him on the D 106
seizing each of the D 106
sects are of the D 106
sewed one of the D 105
setting that in the D 105
setting out it is D 105
serving men to the D 105
sexes than is the D 104
sects are by no D 104
setting and is in D 103
setting was by no D 102
setting out to my D 102
serving man at the D 102
sells you to the D 102
seizing her at the D 102
seamen can at sea D 102
sealed box to the D 102
setting that of the D 101
setting sun is in D 101
serving then as the D 101
seine out of the D 101
seabed out to the D 101
seabed due to the D 101
sexes are on an D 100
sewer air in the D 100
setting them to an D 100
serving them is the D 100
serving thee in the D 100
senior man to be D 100
senior goes on to D 100
sells things to the D 100
seine had to be D 100
seeking fun in the D 100
seabed and the sea D 100
seine and by the D 99
seeps out of my D 99
sexes has to do D 98
setting sun on my D 98
setting out or the D 98
setting men to the D 98
setting her at the D 98
setting and if it D 98
serving both of the D 98
septa are of the D 98
septa and by the D 98
sensing may be the D 98
senior year he is D 98
sells her as by D 98
serving now as an D 97
senior year to do D 96
sells and in the D 96
seeking for the sea D 96
sects was in the D 96
sects than to the D 96
sects and at the D 96
sealed with thy ring D 96
sewer and at the D 95
setup can be as D 95
sewer are to be D 94
setup and at the D 94
setting them up the D 94
setting off on it D 94
sensing that if the D 94
senior who is in D 94
sealed them to the D 94
sexes may be of D 92
sexes may be at D 92
setup than in the D 92
setting sun is to D 92
setting far in the D 92
serving out in the D 92
serving not as an D 92
serum and is an D 92
serfs and at the D 92
septa are to be D 92
sending you my ms D 92
setting both on the D 91
serving each of us D 91
seven seas at the D 90
setting sun in my D 90
setting him as it D 90
serving that of the D 90
sending ore to the D 90
sells them to be D 90
sells her to an D 90
seers who is at D 90
seedy area of the D 90
sects that of the D 90
serving with me as D 89
seamen for the king D 89
sexes sit on the D 88
sewed them up to D 88
setting out in my D 88
setting one in the D 88
setting him to sea D 88
serving god in an D 88
serial had to be D 88
serfs was in the D 88
sense that he re D 88
senior team at the D 88
senior men to be D 88
senior job at the D 88
seeps out on the D 88
seeking oil in the D 88
seamen led to the D 88
serving and of the D 87
semen that is the D 87
sexes that is the D 86
sexes being in the D 86
sexes are of an D 86
setting off on so D 86
serving thus as the D 86
serving them up at D 86
serum may be as D 86
senior year of my D 86
senior guy in the D 86
sells things in the D 86
seedy bar on the D 86
sedan and to the D 86
sewer rat in the D 85
serving end of the D 85
sexes was by no D 84
setting out the king D 84
serve thee on the D 84
serve thee as the D 84
serum but it is D 84
senior boy at the D 84
sending him the ms D 84
sells out on the D 84
sells both to the D 84
seedy bar in the D 84
sects this is at D 84
sects and it is D 84
sealed bid on the D 84
setting was in an D 82
serving men at the D 82
serving and in the D 82
semen may be the D 82
sealed off as an D 82
sealed not by the D 82
setting sun is no D 81
sexes that is so D 80
sewed them on my D 80
setup and it is D 80
setting them up we D 80
setting off as if D 80
setting him up by D 80
serve one of thy D 80
sensing him to be D 80
senior was on the D 80
sells are to be D 80
selling ads on the D 80
seizing him in an D 80
seizing her in my D 80
seamen and on the D 80
seaman for it is D 80
sealed with my ring D 80
sealed box to be D 80
seeding and in the D 76
serving that it is D 67
setting him up so D 65
sealed one to the D 62
setting for it in D 60
serving than in the D 58
setting but by the D 54
setting things up as D 53
serving and at the D 52
search tab on the D 52
sensing due to the D 51
setting this up so D 50
setting for the so D 50
sensing and so on D 50
sending out to sea D 50
sewer air to the D 49
sense that the ex D 48
season for the sea D 48
setting not to be D 47
serving for me to D 46
serial set in the D 46
sends her to sea D 46
setting her up so D 45
setting and go to D 45
setting and as it D 45
segue out of the D 45
sewer gas as the D 44
setup and so on D 43
setting you up so D 43
serving myth of the D 43
serving area to the D 43
serving and so on D 43
search for the ms D 43
sealed and at the D 42
sewer end of the D 41
sewer air is the D 41
search for the re D 41
setting now in the D 40
setting are to the D 40
setting and so it D 40
setting all on the D 40
sending men to sea D 40
