sensible thing to do M 54070
selected so as to M 45471
selected to be the M 38224
sentence is to be M 24678
security is to be M 19872
services to the king M 17853
sensation as if the M 16638
selection is to be M 12576
selected to go to M 11904
services so as to M 11732
sentence is in the M 10934
sentence of up to M 10536
selected by the king M 9952
services is to be M 9201
sequence is to be M 6856
security is in the M 6668
selected to do the M 6453
selected it as the M 5827
security of the king M 5706
selected to be in M 5532
services on or in M 5218
sentence as it is M 5038
sentence so as to M 4984
services or in the M 4622
security as to the M 4361
services up to the M 4256
sequence as in the M 4238
separate wing of the M 3926
sensible thing is to M 3734
sequence so as to M 3552
services is in the M 3262
security so as to M 2986
selected to be as M 2960
sequence is in the M 2848
services as in the M 2722
security or to the M 2720
sequence of up to M 2706
services or to the M 2700
sentence if it is M 2646
sentence as if it M 2640
sensible to do so M 2578
selected to go on M 2502
services as it is M 2399
sensation is to be M 2394
sequence up to the M 2318
sentence or in the M 2293
selection is in the M 2186
selection so as to M 2154
sentence of the king M 2150
sensation is in the M 2104
selected to be on M 2023
security as it is M 2022
sensible of it in M 1990
selection is on the M 1986
services or of the M 1924
sensation as if he M 1903
selected me to be M 1826
services of the king M 1798
separate so as to M 1790
selected to be of M 1776
sequence as it is M 1766
selected to be an M 1746
sensation as if it M 1686
selected me as the M 1678
sentence is of the M 1660
selection to be the M 1648
sentence as in the M 1638
selected as to be M 1627
security if it is M 1627
seriously as we do M 1596
security to the king M 1568
selected as it is M 1531
security as in the M 1530
sensible of it as M 1528
security is at the M 1508
selection of the king M 1498
security or in the M 1493
seriously if it is M 1480
secretly to the king M 1476
services is on the M 1446
services or by the M 1422
services to be in M 1384
seriously as it is M 1380
selected to be at M 1370
sentence is at the M 1368
sentence or at the M 1363
seriously as if he M 1350
services if it is M 1346
selection is by no M 1346
seriously as if it M 1326
sentence as to the M 1316
sequence is of the M 1278
sentence to be the M 1254
selected if it is M 1254
security is on the M 1236
services to be the M 1228
severely as to be M 1222
services as to the M 1214
separate as in the M 1198
selection is at the M 1198
security is of the M 1194
sentence up to the M 1186
sequence or in the M 1178
security up to the M 1144
sequence if it is M 1136
selection as it is M 1130
sensible of it at M 1123
severely as in the M 1086
sentence or of the M 1085
securely as if it M 1076
services or on the M 1070
seriously as in the M 1068
sensation it is to M 1066
sensible he is of M 1056
security or of the M 1048
selection as to the M 1042
security as of the M 1042
selection of up to M 1030
sensation is of the M 1022
selected as in the M 1019
sentence as if he M 1016
sensible of the king M 1000
services is at the M 990
sentence is on the M 972
services to be of M 970
selection if it is M 950
seriously as to be M 942
sentence or to the M 942
sequence to be the M 938
sequence is at the M 930
sentence it is the M 926
sentence is to the M 926
sensible as it is M 914
selected is to be M 914
sequence is by no M 896
security to do so M 896
sensible it is to M 886
services it is the M 874
selection as in the M 872
selected is in the M 872
services on an as M 870
sensible thing in the M 866
security to be the M 864
sentence in it is M 860
seriously as to the M 858
selected to do so M 858
services to go to M 855
selection up to the M 848
sensation as it is M 842
services as of the M 834
sensation to be the M 818
services to do so M 817
sensible to go to M 798
severely as if he M 772
sentence on the king M 770
sensation to be in M 762
sensible of it by M 761
sentence is by no M 760
selection or in the M 758
services to me in M 754
sensation as of the M 746
security as if it M 746
selection is of the M 744
selection is by the M 744
selected it as an M 734
security wing of the M 726
selected to do it M 714
sentence of it is M 710
services to do the M 706
sentence is or is M 704
sentence to be an M 698
selected by it as M 691
sequence is on the M 690
security to be of M 676
sentence to the king M 672
sensible to me to M 666
sensation as in the M 652
separate to go to M 644
security or on the M 637
services he is to M 628
services or to be M 626
services if he is M 626
sentence in the king M 626
security as if no M 625
sentence as if the M 614
sensible thing to be M 608
services of up to M 604
services is by no M 600
selected to go in M 598
sensation so as to M 596
security to be in M 594
sensible of it or M 588
sensation is as if M 580
securely on to the M 578
selection of it as M 577
services to be so M 569
sensible as he is M 564
sensation or of the M 564
sentence if he is M 560
securely as if he M 556
selection or to the M 552
seriously so as to M 550
selected is of the M 550
services go to the M 549
sequence or at the M 538
selected to be my M 537
sentence in sing sing M 535
sensation is at the M 534
separate us in the M 531
services or if the M 522
separate it in the M 519
secretly so as to M 516
sensible of in the M 510
security is in me M 508
selection or by the M 502
security is by no M 502
sensation up to the M 500
selection of the so M 499
seriously is to be M 494
services is of the M 492
selected by or on M 491
services to us in M 482
sentence or by the M 481
services at the king M 480
separate it on the M 480
services as he is M 476
selected is on the M 474
services to or on M 472
services in the king M 468
sentence me to the M 468
services if he or M 464
separate as it is M 464
services or as an M 458
selected it to be M 456
sentence is of no M 454
services on to the M 448
sentence to be in M 448
selected by me to M 446
secretly or in the M 446
selected me to go M 444
sequence as if it M 442
sensation of the thing M 442
selection by the king M 436
security or by an M 436
security is at an M 430
selected it in the M 420
selected by us as M 418
securely so as to M 410
selected by me as M 407
services as if he M 402
seriously as do the M 402
sensation of it is M 402
services to be an M 400
sensible to do it M 400
security if he is M 394
seriously as if the M 392
securely as in the M 390
separate thing as the M 388
sensation as if my M 388
security as if he M 380
selection to be an M 378
selection or of the M 374
services or at the M 372
sequence or to the M 372
security or is on M 372
services of the so M 369
seriously to do so M 369
services to me as M 368
sentence as if to M 366
selected or if the M 366
separate as if we M 364
services to be at M 361
sensation is by no M 358
sentence or so in M 356
sensation as of an M 354
selection is in no M 354
security to be so M 354
security is of no M 350
security as if the M 350
services as is the M 348
services it is to M 344
sequence is to the M 344
sensible if it is M 342
security it is the M 340
security is in no M 340
sentence it is in M 339
seriously if we do M 336
separate wing in the M 336
sensible to go on M 336
sensible of it is M 334
separating it on the M 332
sentence or of an M 332
selected to sing the M 332
security or by the M 330
seriously or to be M 328
sensible as to be M 328
sequence it is the M 324
sentence or so of M 324
sensation is to the M 322
selected by it to M 322
selected to go as M 320
sentence or as an M 318
security to be an M 318
sensation in us of M 316
sequence is of no M 314
sentence is by the M 314
selection is up to M 314
selection of me as M 312
severely as if the M 310
services to be as M 309
security by or on M 309
severely so as to M 308
sequence as on the M 308
selected is at the M 308
sensible is it to M 306
services in the so M 303
sequence is up to M 302
sentence so it is M 302
sequence or of the M 300
separate as to be M 300
services in or in M 298
separate if it is M 298
sensation as if an M 298
sensation or to the M 296
sensation or in the M 292
services as do the M 290
services as if it M 286
separate up to the M 285
selected to be so M 285
selection as if it M 284
sentence or as the M 283
sequence of the so M 279
sequence or by the M 278
selection it is the M 278
selected by it in M 278
separate or in the M 276
services to us as M 274
services to it in M 272
services or as the M 272
services of an in M 272
separating so as to M 270
selected to go up M 270
separate it at the M 268
sentence or on the M 268
sensible of me to M 266
sensation as if of M 266
selection or on the M 266
selected as of the M 266
severely as if it M 264
selected or in the M 263
services of an on M 262
sensation it is the M 262
sensation is on the M 262
services as if the M 260
selected as king of M 260
sentence if he or M 258
sentence as he is M 256
security as if we M 256
sensible it is of M 254
sentence on me at M 252
security or as an M 252
severely as it is M 250
services by the king M 250
services as to be M 250
sentence me to be M 250
sequence on to the M 248
sensation as to the M 248
security or if the M 248
services or by an M 246
seriously if he is M 246
sequence or on the M 246
sequence as to the M 246
seriously to it in M 244
separating it in the M 244
sentence or to be M 244
selection is of no M 244
selected in the as M 242
services or to do M 240
sensation as to be M 240
selected by us to M 240
selected as the king M 238
security to be at M 238
security is to the M 238
sensible it is the M 236
sensible it is an M 234
secretly to go to M 234
services to be on M 232
sensible is to be M 231
sentence or in an M 230
sensible to do the M 228
sensible is he of M 228
security of the thing M 228
services is in no M 226
security to go to M 226
services to go on M 225
selected me to do M 224
sequence as do the M 222
sentence is up to M 222
sensation of it in M 222
seriously up to the M 220
severely if it is M 218
sequence to be in M 218
separating it at the M 218
sentence is in no M 218
sensation is of no M 218
sensation if it is M 218
services do so in M 216
sequence is or is M 216
sensible to us to M 216
selected by me in M 216
secretly go to the M 216
separating to go to M 214
separate thing in the M 214
sentence on to the M 214
selection of the in M 213
sensation to be so M 212
sensation is of an M 212
selection of it is M 212
selected up to the M 212
security is or is M 212
securely as if the M 212
secretly up to the M 212
services to or in M 210
seriously by the king M 210
sequence to be an M 210
selection as is the M 210
selected to be it M 210
selected the king of M 210
sentence of it to M 208
sentence is to me M 208
sensible thing is the M 208
selection to do the M 208
security is up to M 206
sensible to me as M 205
sequence to be of M 204
sentence it is to M 204
sentence or if it M 202
secretly as to be M 202
selected as to the M 198
security of the it M 196
sequence it is to M 194
sensation to be on M 194
severely as to the M 192
security is in my M 192
sensible to us in M 190
selected us to be M 190
separate it by the M 189
sentence it is an M 188
sentence as is the M 188
security if he or M 188
selected me as an M 186
severely if he is M 184
services is to the M 184
services is by the M 184
security to us in M 184
security of the so M 184
sensation is the thing M 182
security to be no M 182
securely to the ring M 182
secretly as if he M 182
separate us if we M 180
sensible up to the M 180
selection of it in M 180
selected to sing in M 180
sentence to be so M 178
sentence or if the M 178
sensible of at the M 178
sensation is at an M 178
services to me at M 176
selected it on the M 175
services to go by M 174
sequence as is the M 174
sensation be in the M 174
securely as if in M 174
services is at an M 172
selection of the thing M 172
security on the king M 172
services as on the M 170
separate wing to the M 170
selected to be king M 170
security to do it M 170
security as is the M 170
securely go on in M 170
sequence of the in M 168
sentence to me in M 168
sensible to us by M 168
security as he is M 166
security so to do M 164
security it is to M 164
security in the king M 164
sensation to me to M 162
sensation or by the M 162
sensible to us as M 161
services it is an M 160
separate us at the M 160
sentence of it in M 160
security be in the M 160
severely as on the M 158
services at or in M 158
services as he or M 158
seriously to go to M 158
seriously as is the M 158
sequence as if the M 158
sensible to us the M 158
selected by us in M 158
security id of the M 158
secretly in the king M 158
services to or by M 156
security to or on M 156
services or to an M 154
services at up to M 154
services as at the M 154
selection to go to M 154
security is by the M 154
secretly as to the M 154
sequence to do so M 152
sequence to be as M 152
sequence is as in M 152
sentence is in an M 152
sensation as if we M 152
selection is to the M 152
selected or to be M 151
seriously as he is M 150
sensible of by the M 150
security as to be M 150
services to go up M 149
services is up to M 148
sentence to do the M 148
sentence is as in M 148
selection to be in M 148
sentence to do so M 147
sequence to do the M 146
sequence is in no M 146
securely as on the M 146
separate as if it M 145
security to be by M 145
services as by the M 144
sequence of on the M 144
sentence to go to M 144
sensible thing on the M 144
selection to be of M 144
secretly to do the M 144
services as we do M 142
sensible as to the M 142
securely if it is M 142
severely as at the M 140
services or is it M 140
services in or on M 140
selection of me to M 140
selected in the my M 140
security of the the M 140
securely as it is M 140
sentence at sing sing M 139
severely as we do M 138
services up to an M 138
seriously if he or M 138
sequence is the so M 138
securely as if to M 138
selection of an in M 137
security or to be M 137
services to go in M 136
seriously is in the M 136
separate wing on the M 136
sentence or so to M 136
sentence he is to M 136
sensible he is in M 136
sensible as in the M 136
sensation to be of M 136
sensation to be at M 136
sensation or of an M 136
services to do it M 134
sensible to be in M 134
selfless thing to do M 134
services as an on M 133
sentence be in the M 132
selection is at an M 132
selected us as the M 132
services to be by M 131
services or in an M 131
separate it as an M 131
separate is to be M 131
sentence as of the M 130
selection or at the M 130
sensible to do as M 128
sensible thing at the M 128
sensible of it to M 128
selection on to the M 128
security if we do M 128
services wing of the M 126
sequence it is of M 126
separate thing to be M 126
sentence the king of M 126
sensation is in no M 126
selection of it to M 126
security of up to M 126
services of the in M 125
seriously it is to M 124
sequence or in an M 124
sentence or it is M 124
sensation in it of M 124
selection is to go M 124
services so to be M 123
services as the king M 122
seriously so in the M 122
sentence of the so M 122
sentence in it so M 122
selected or to the M 121
severely as do the M 120
services is to do M 120
sensation to be an M 120
selected as is the M 120
security of the ca M 120
services to the so M 119
selection to go on M 119
services or if it M 118
services by or to M 118
services by or on M 118
sequence or as an M 118
sensible it is my M 118
sensation in it is M 118
selected in the go M 118
security so to be M 118
security as at the M 118
services on an on M 116
sentence by the king M 116
sensible to is the M 116
selection of the wing M 116
selection of the the M 116
selection if he is M 116
selected is by no M 116
services or to go M 114
services at no or M 114
sequence of the the M 114
separating it by the M 114
sentence of the the M 114
sentence is the thing M 114
sensible to be on M 114
selfless is to be M 114
sentence or to an M 113
sentence to be of M 112
sentence to be at M 112
sensation as is the M 112
selfless as to be M 112
security to do the M 112
severely so in the M 110
sequence of the king M 110
sentence as at the M 110
sensible or of an M 110
selection in on the M 110
selected by it on M 110
security of the ring M 110
services it is in M 108
seriously to do the M 108
seriously as if we M 108
sequence or as the M 108
sensible thing to go M 108
selection is or is M 108
selected to do an M 108
security to be as M 107
sequence of it is M 106
separate wing at the M 106
sentence as to be M 106
sensation to go to M 106
sensation of it at M 106
security or if it M 106
services on an in M 105
services in the it M 105
services to it as M 104
services so it is M 104
services is of no M 104
seriously to the king M 104
sequence as to be M 104
sensible to be so M 104
sensible or to the M 104
sensation in the ring M 104
selected me in the M 104
selected by me at M 104
selected by king of M 104
selected as on the M 104
security or of an M 104
security or is an M 104
security or in an M 104
security in the so M 103
services to it by M 102
services or go to M 102
services do so on M 102
seriously to me of M 102
seriously or as it M 102
sequence is in an M 102
separate thing in an M 102
sentence us to the M 102
sensible or in the M 102
selection to do so M 102
selection to be by M 102
selection of the ring M 102
selected it as my M 102
security or go to M 102
security or at the M 102
separate in it the M 101
selection to be as M 101
services or at an M 100
sequence is by the M 100
sentence is as the M 100
sensible to do in M 100
sensible thing it is M 100
sensible as if he M 100
selection it is to M 100
selected or by the M 100
selected is up the M 100
selected as king by M 100
security of the as M 100
severely if we do M 98
services or as to M 98
sequence of in the M 98
sensible to it as M 98
security or is it M 98
security on to the M 98
security of an it M 98
securely as to be M 98
services if we do M 97
sequence of is the M 96
sequence as if he M 96
separating as in the M 96
sentence if it be M 96
security to be on M 96
security or to do M 96
security of it to M 96
security of it at M 96
services of the on M 95
services to us at M 94
services to it or M 94
sequence is of an M 94
sequence as at the M 94
separate or as an M 94
separate it as to M 94
selection to be at M 94
services do or do M 92
sequence so it is M 92
sequence or if the M 92
separate it by an M 92
separate as if the M 92
sentence or is it M 92
sentence in the so M 92
sentence in it to M 92
sentence as by the M 92
sensible as if it M 92
sensation is as the M 92
selected or on the M 92
selected or of the M 92
selected or it is M 92
selected is up to M 92
security or if he M 92
sensation of it as M 91
seriously to do it M 90
sentence or by an M 90
sentence in it by M 90
sentence be to be M 90
sensible thing or of M 90
sensation is the ring M 90
selection as to be M 90
security up to an M 90
security is to do M 90
security is in an M 90
secretly by the king M 90
services the king of M 88
services of the the M 88
seriously to me on M 88
seriously it is the M 88
sensation is or is M 88
securely as if we M 88
services is the so M 87
separate us as we M 87
selection of an on M 87
selected by the so M 87
services on an at M 86
seriously of it at M 86
sequence if we do M 86
sentence is to do M 86
sensible thing of the M 86
sensible of it the M 86
sensation in us is M 86
selection as of the M 86
selected by it the M 86
selected as if the M 86
securely as if no M 86
secretly as in the M 86
services or if he M 84
services do so at M 84
separating us in the M 84
sentence or so at M 84
sensible or of the M 84
sensation is as of M 84
selected to sing at M 84
selected is of no M 84
selected go to the M 84
security as he or M 84
securely to it by M 84
separate it in my M 83
services is via the M 82
services he is in M 82
seriously or is it M 82
seriously is of the M 82
separate us on the M 82
separate the king of M 82
separate or on the M 82
sentence is as it M 82
sentence if we do M 82
sensation of it on M 82
selected it at the M 82
services to up to M 80
services to the the M 80
services to me by M 80
services of the tea M 80
seriously to be an M 80
sequence as we do M 80
separate us to the M 80
selected by us is M 80
securely up to the M 80
secretly as if it M 80
separate or to be M 71
security to go on M 70
security of the in M 66
sentence to go on M 64
sensible to go in M 63
services of the it M 55
sequence of the pi M 54
sentence to be as M 54
services to the in M 47
services if he so M 45
services as an in M 44
separate as to the M 41
services in it as M 40
selected as the in M 40
servants of the king D 39565
servants to do the D 6442
security of the sea D 3792
servants to the king D 2845
servants to go to D 2554
sensible to the ear D 2244
sensation in the ear D 2182
sediment to the sea D 2171
sediment on the sea D 1686
secondly as to the D 1455
servants to do it D 1370
settlers to go to D 1354
segments so as to D 1352
servants as to the D 1334
severity of the king D 1182
segments as in the D 1158
servants is to be D 1150
servants to do so D 1061
secondly it is the D 1049
secretion is to be D 970
servants so as to D 934
segments of the ring D 924
seconded by the king D 904
severity is to be D 888
seizures is of no D 854
servants or in the D 830
segments of up to D 802
seminary is to be D 796
sediment in the sea D 796
seniority is to be D 788
servants to be the D 780
selector is in the D 772
servants to be in D 770
secreted it in the D 760
servants up to the D 742
severity as to be D 722
selected on an ad D 704
serenity of the sea D 692
settlers as to the D 688
secretion is in the D 666
servants in the king D 638
sediment of the sea D 630
senators as to the D 592
sediment is to be D 588
segments up to the D 584
servants as in the D 560
serenely as if he D 548
severity up to the D 520
services on an ad D 504
segments is to be D 498
settlers up to the D 488
settlers or by the D 488
segments or in the D 488
sectioned so as to D 488
secretion or in the D 488
servants or to the D 484
secession is to be D 484
severity if it is D 478
severity as in the D 478
severity so as to D 472
servants or of the D 458
secretion is of the D 450
servants go to the D 432
severity as to the D 424
servants to go on D 424
secreted on to the D 420
sensation to the ear D 416
servants or by the D 412
selenium is in the D 410
seclusion of the king D 406
settlers or to the D 404
secondly it is to D 402
servants to be so D 400
segments of it in D 398
servants as it is D 388
sediment is in the D 388
secondly it is an D 384
secluded as if it D 382
servants is by no D 378
segments of it to D 366
sediment or in the D 360
services of an ex D 355
seclusion of the sea D 351
segments of the it D 350
segments of the so D 342
semester or at the D 339
settlers or in the D 334
secretion as it is D 334
settlers so as to D 328
serpents of the sea D 325
sediment as it is D 323
servants to do in D 318
segments or of the D 314
secretion of the so D 302
senators is to be D 298
segments or to the D 292
servants up at the D 288
sediment on to the D 283
services of the ex D 281
secretion as in the D 279
servants to do as D 278
sensation of the sea D 278
settlers or of the D 274
secreted by the so D 274
secretion so as to D 272
sediment so as to D 268
security on the sea D 268
servants to be of D 266
settlers is to be D 262
secretion is by no D 260
settlers on to the D 256
serrated as in the D 256
sentence in the ms D 256
sensation of the ear D 252
seizures in up to D 252
seniority up to the D 250
servitor of the king D 248
sergeants of the king D 248
secreted it in my D 244
secluded as it is D 244
services of the sea D 242
sensuous as it is D 242
seniority to be the D 238
seduction of the king D 236
servants to do my D 234
segments of the wing D 231
settlers to go on D 230
servants to go in D 230
seniority as of the D 230
segments is in the D 230
sentencing is to be D 228
servants to be at D 226
severity of the sea D 224
sedately up to the D 222
sectarian wing of the D 220
secreted so as to D 218
seclusion is to be D 218
seminary is in the D 214
segments of it as D 207
secretion on to the D 207
secretion or to the D 206
segments of the sea D 204
seconded as it is D 204
servants to be on D 203
severity to be the D 202
severity of the so D 200
settlers to be the D 198
settlers to be on D 198
serialize it in the D 198
selector is on the D 198
segments as it is D 198
secretion is at the D 198
seminary or in the D 196
secretion or by the D 196
servants as if he D 194
serenely as if it D 194
selection of the sea D 194
secretion of the ear D 194
severity as if he D 192
separate the sea of D 192
segments or on the D 192
sequence of the ha D 191
servants up in the D 190
servants is in the D 190
senators to do the D 190
secretion or of the D 189
severity of it is D 188
selected in an ad D 188
seduction is to be D 188
secreted by it is D 188
sediment up to the D 186
selection of the ion D 185
services of an ad D 184
serenity is to be D 184
secretion is of an D 184
serrated so as to D 182
secession of the king D 182
severity or in the D 180
separating the sea of D 180
sentries or by an D 180
severity in the king D 178
segments to be the D 178
secluded as to be D 178
sensation on the ear D 176
severity is in the D 174
seigniors or by the D 174
serenity as if he D 172
secondly of the thing D 172
secluded wing of the D 172
sediment is of the D 170
secluded as in the D 170
seniority as in the D 166
semiotics is to be D 166
seminars or in the D 166
segments or at the D 166
sediment as in the D 165
serviced or to be D 164
segments is of the D 164
seconded in it by D 164
sequencing is to be D 163
settlers as it is D 162
secretion in the ear D 162
sequence of the sea D 161
servants to be as D 160
serpents in the sea D 160
sentinel is to be D 160
servants is of the D 158
sensibly as in the D 156
semester or in the D 154
seduction as it is D 154
seconded by the ex D 154
semester is to be D 150
serenely up at the D 148
settlers to do so D 146
semester to go to D 146
seconded me in the D 146
seminars so as to D 145
severity of the mi D 144
servants or on the D 142
segments to be of D 142
sediment is at the D 142
secretion or on the D 142
secreted or in the D 142
severity of the in D 141
selection of an ad D 141
settlers in the so D 140
secretion by the in D 139
serenely on in the D 138
selection of the ear D 138
segments or by the D 138
servants to eat at D 136
segments on to the D 136
settlers to do the D 134
settlers as in the D 134
servants of the the D 134
secretion of the ion D 134
servants is of no D 132
separate the ear of D 132
sensibly so as to D 132
sensibly as if it D 132
seizures is to be D 132
secretion of it is D 132
secluded as if the D 132
services on the sea D 131
semiotics as it is D 130
secession to be the D 130
servants at the king D 128
seizures is in the D 128
segments of it at D 128
servants to go up D 126
senators to do so D 126
seizures go on to D 126
sediment or to the D 126
secretes it in the D 126
seconded to us by D 126
secession of the so D 126
senators to go on D 125
servants as of the D 124
semester so as to D 124
seizures or in the D 124
sequencing of up to D 122
sentries so as to D 122
segments if it is D 122
secondly it is in D 122
secession wing of the D 122
seminary to go to D 120
seconded to the king D 120
serenity as if the D 118
sensuous is to be D 118
selenium is to be D 118
sediment at the sea D 118
severity of the ms D 117
selection of an ion D 117
servants if we do D 116
sensation in my ear D 116
settlers as by the D 114
servants to be an D 114
servants as to be D 114
selector is to be D 114
segments as is the D 114
seclusion so as to D 114
severity or of the D 112
severity as it is D 112
secretion in the ring D 112
sexually is to be D 110
serpents is to be D 110
serenity of the king D 110
semester or so in D 110
sedately as if he D 110
secretly in the ear D 110
secretion of by the D 110
servants is in it D 108
sequence of the pea D 108
sentinel of the sea D 108
seditious as to the D 108
sediment or by the D 108
secretion of up to D 108
services in an ad D 105
sewerage is to be D 104
severity of the the D 104
settlers to be in D 104
selector is at the D 104
seizures to be the D 104
sediment is on the D 104
seniority or on the D 102
senators to go to D 102
secondly if it is D 102
secession or in the D 102
servants on to the D 100
sensation in the toe D 100
seizures or if the D 100
segments in the ring D 100
seduction of the ear D 100
secretion is by the D 100
services to the ex D 99
settlers go to the D 98
sensuous or in the D 98
sensibly as we do D 98
seniority or to the D 98
secretion as is the D 98
secreted in the ear D 98
seconded to it by D 98
secession as in the D 98
searchers of the sea D 98
servants to the wing D 96
serenely as if the D 96
sentence in the ad D 96
segments of the the D 96
sediment or at the D 96
servants of the ring D 94
semester or so of D 94
secretion is via the D 94
secession or to the D 94
secession as we do D 94
secluded as if in D 93
serenely on to the D 92
serenade us as we D 92
sentinel to go on D 92
selection in my ear D 92
seizures as in the D 92
securely on the sea D 91
secession to be an D 91
severity is by no D 90
serenity of it in D 90
segments is on the D 90
sedative is to be D 90
sedately as if the D 90
security in the sea D 90
secretion is the so D 90
secreted it in an D 90
seconded me to the D 90
seclusion or in the D 90
segments to be in D 89
severity of it in D 88
servants to be my D 88
servants or as the D 88
servants as the king D 88
serenely as if we D 88
selection in the sea D 88
secession up to the D 88
sexually so as to D 86
servants is at the D 86
servants go on in D 86
servants as is the D 86
serenely as if in D 86
sentence in the ear D 86
segments is at the D 86
sediment is by no D 86
sediment as to be D 86
secondly to the king D 86
secondly he is the D 86
seconded the king in D 86
seclusion as of the D 86
services of the ox D 84
serpents to go by D 84
serenely on the sea D 84
sentinel is on the D 84
seniority so as to D 84
secreted up to the D 84
secondly so as to D 84
searchingly as if he D 84
searchers up to the D 84
sentries up on the D 83
serenely to the sea D 82
segments as if the D 82
segments as if it D 82
severity as on the D 80
servants to go at D 80
servants to do or D 80
servants of the sea D 80
sensibly as to be D 80
semester if he or D 80
segments is by no D 80
secretion up to the D 80
sectioned as in the D 50
settlers on the sea D 49
selection of an ex D 48
secretion to be the D 47
settlers to go in D 45
sediment if it is D 43
servants to the sea D 41
selected by an ad D 41
segments of the in D 40
