tub thrown to the D 480
tum right at the D 472
tub stood in the D 400
tub until it is D 214
tub where it is D 160
tub close to the D 160
tug owned by the D 159
tum first to the D 148
tug boats in the D 102
tub needs to be D 102
tug boats on the D 92
tub right in the D 84
tub seems to be D 82
tum again to the D 41
