about a year ago M 192917
about a year and M 143932
about a man who M 135242
about a year old M 34894
about a boy who M 25254
about a few things M 13020
about a man and M 11710
about a day and M 10854
about a man with M 8372
about a new and M 8100
about a god who M 7162
about a boy and M 7124
about a new era M 6491
about a year now M 6064
about a new way M 5270
about a man that M 5152
about a year for M 4864
about a bit and M 4632
about a war with M 4016
about a man she M 4010
about a year with M 3996
about a new idea M 3764
above a year and M 3742
above a year ago M 3726
about i can not M 3654
about a dead man M 3444
about a man being M 3414
about a kid who M 2934
about a new job M 2772
about a dog that M 2608
about a job for M 2606
about a job that M 2592
about a war that M 2318
about a year they M 2132
about a new set M 2088
about a son who M 2060
about a job and M 2046
about a year she M 1924
about a year was M 1918
about a new age M 1818
above a year old M 1798
about i did not M 1778
about a year but M 1768
about a dog and M 1760
about a year had M 1742
about a new one M 1705
above a red heat M 1654
about a man you M 1558
about a boy with M 1538
about a real man M 1499
about a lot and M 1490
about a dog who M 1462
about a poet who M 1410
about i buy you M 1204
about a real and M 1204
about a job with M 1140
about a law that M 1130
about a year that M 1106
about a cat that M 1058
about a day for M 1022
about a new law M 1008
about a job you M 992
about a cat who M 986
about a cat and M 986
about a long and M 938
about a man than M 906
about a man they M 874
about a man going M 870
about a new day M 833
about a new war M 824
about a nun who M 794
about a year this M 790
about a year his M 778
about a bit with M 760
about a boy she M 756
about a man not M 740
about a new man M 726
about a new deal M 720
about a day old M 718
about a way out M 714
about a boy that M 702
about a poem that M 668
about a deal that M 668
about a year has M 656
about a new year M 647
about a deal with M 644
about a year each M 636
about a man for M 622
about a god that M 622
about a song that M 620
about a man are M 616
about a war and M 606
about a dying man M 589
above i can not M 586
about a new area M 571
about a man dying M 554
about a two and M 540
about a cup and M 520
about a bad day M 508
about a year too M 506
about a bear that M 506
about a day that M 496
about a man was M 494
about a few key M 485
about a death that M 480
about a bit for M 478
about a new box M 472
about a way that M 470
about i get you M 464
about a year then M 456
about a big man M 438
abide a man who M 428
about a war for M 426
about a few old M 420
about a team that M 419
about a two year M 406
about a long day M 406
about a bear and M 400
about a year out M 394
about a mean and M 394
about a man doing M 394
about a lot that M 394
about a dead dog M 394
about a being who M 392
about a ten year M 387
about a poet and M 380
about a lot but M 376
about a bear who M 370
above i may add M 354
about a boy being M 350
about a run for M 348
about a lot with M 340
about i was not M 336
above a man who M 334
about a one and M 334
about a big deal M 334
about a day off M 332
about a bit but M 332
about i saw that M 329
about a poem and M 328
about i had not M 326
about a day with M 324
about a day out M 324
above i did not M 322
about a kid with M 322
about a bad man M 322
above a bud and M 320
about a new song M 320
about a mad dog M 320
about a bit too M 318
about a being that M 317
about a job she M 316
about a few men M 316
about a job they M 312
abuse a man who M 311
about a new toy M 305
about a new act M 304
about a god and M 304
above a red and M 296
about a year off M 296
about a new boy M 292
about a year you M 290
about a bad boy M 286
about a mean that M 281
about a dog with M 280
about a dog being M 280
about i let you M 278
about a few new M 278
about a death and M 274
about a long war M 272
about a pet dog M 270
about a god with M 270
about a son and M 262
about a red heat M 260
about a new air M 260
above a long and M 258
about a man can M 258
about a boy going M 258
above a day and M 252
about a job are M 244
abhor a man who M 238
about a pet you M 234
about a new poem M 234
about a man one M 233
about a big one M 230
about a new god M 217
abusing a man who M 216
about a long way M 214
about a man out M 212
about a bad one M 211
about a nun and M 210
about a man may M 204
about a head and M 204
about a dog not M 204
about a deal for M 204
about a day each M 204
about i bring you M 202
about a year her M 200
about a real job M 200
about a mean with M 200
about a year all M 199
about a new mean M 199
about a big dog M 198
about a kid that M 197
about a dead cat M 196
about a few dead M 194
about a and then M 194
above a low and M 192
about a key and M 192
abuse a man for M 190
about i fix you M 190
about a way for M 190
about a man now M 190
about a big new M 190
about a few bad M 188
about a big and M 188
about i ask you M 186
about a man but M 186
about a big idea M 186
above a low red M 182
about a new long M 182
about a bit now M 182
about a new use M 180
about a bid for M 180
about a law and M 178
above a dead dog M 176
above a bud that M 176
about a way you M 176
about a war they M 176
about a song and M 176
about a meal for M 176
about a job was M 176
about a cat with M 176
about a one year M 174
about a kid and M 174
above a year that M 172
about a real war M 170
about a boy you M 168
about a pet that M 167
above i can see M 164
about a year due M 162
about a two day M 162
about a long poem M 162
about a job than M 162
about a dog you M 162
about a dog she M 162
about a toy that M 161
above a bar and M 160
about a new dog M 160
about a man lying M 160
about a few who M 158
about a day they M 158
about a fear that M 157
above a dry one M 156
about a year doing M 156
about a year are M 152
about a sin that M 151
abyss i saw how M 150
about a long run M 150
about a dead boy M 150
about a boy they M 150
about a job can M 148
about a big job M 148
about i pay you M 146
about a toy and M 146
above a head that M 145
about a weak and M 144
about a day you M 144
about a real boy M 142
about a kid being M 142
about a job but M 142
about a box that M 142
about a year one M 140
about a big old M 140
about a few that M 139
about a song you M 138
about a new pet M 138
about a dear old M 136
about a bit you M 136
about a song she M 134
about a man his M 134
about a kid she M 134
about a dying and M 134
abuse i can hear M 132
about a seat for M 132
about a team and M 130
about a real one M 130
about a dog they M 130
about a path that M 127
about a day ago M 127
about a year did M 126
about a map that M 126
about a poem you M 124
about a lot was M 124
about a box and M 124
about a six year M 123
about a new low M 123
above i was not M 122
about a sad and M 122
about a big war M 122
aback i did not M 122
about a meal that M 121
about a pet cat M 120
about a low man M 120
about a map and M 118
about a day too M 118
above i had not M 116
about a real dog M 114
about a lie not M 114
about i see you M 110
about a war going M 110
about a song for M 110
about a new kid M 110
about a bear with M 110
about a not too M 108
about a law they M 108
about a cry for M 108
about a pet they M 106
about a mean for M 106
about a god they M 106
above a year with M 104
about a poem she M 104
about a new but M 104
about a mean old M 104
about i was going M 102
about a new leap M 102
about a new earth M 102
about a man eating M 102
about a boy eating M 102
about a box with M 102
above a dead man M 100
about a deal and M 100
about a set that M 99
about a new web M 99
about a key that M 98
about a job being M 98
about a meal you M 96
about a bar that M 96
above a red one M 94
about a war was M 94
about a man using M 92
about a law for M 92
about a big red M 92
about a big bang M 92
about a new team M 91
about a head that M 91
about a dead one M 91
above a man and M 90
aback i was with M 90
abide a man that M 89
about a song they M 88
about a poem for M 88
about a man thus M 88
about a lot things M 88
about a dog for M 88
above i see that M 87
about a man dead M 87
about a year things M 86
about a day but M 86
about a bow and M 86
about a bit this M 86
above a new and M 84
about a dry and M 84
about i saw him M 82
about a weak man M 82
about a ten day M 82
about a deal you M 82
about a boy not M 82
about a bit then M 82
about a year both M 80
about a dead end M 80
about a year long M 61
about a lie that M 59
about a myth that M 49
abuse i can not M 46
about a bug that M 42
abhor a man for M 42
about a pay cut M 41
about a guy who D 12944
about a ton and D 3444
about a new car D 2032
about a car that D 1100
about a guy with D 970
about a gay man D 952
about a guy that D 868
about a ton per D 702
about a ton each D 698
about a lion and D 568
about a guy she D 536
about a fox and D 528
about a new tax D 520
about a cow that D 448
about a car and D 438
about a tax cut D 436
about a cop who D 434
about a hot bath D 422
about a deaf and D 410
about a lad who D 408
about a fat man D 408
about a hot dog D 402
about a guy and D 392
about a ten per D 390
about a hot new D 388
about a new art D 375
about a fox who D 362
about a car with D 342
about a con man D 328
about a rod and D 304
about a cow and D 300
about a bed for D 294
about a hit man D 290
about a rat and D 280
about a car for D 276
about a new hat D 274
about a hug for D 272
about a lion who D 268
about a gin and D 262
about a one per D 260
about a pig who D 258
about a gun and D 252
about a wee bit D 251
about a gun that D 245
about a fox that D 235
about a guy you D 232
about a bath and D 228
about a lion that D 227
about a rat that D 224
about a par with D 224
about a guy being D 220
about a bed and D 216
about a new guy D 212
about a gun for D 212
about a car being D 208
about a pig and D 206
about a pig that D 199
about a hot cup D 192
about a spy who D 188
about a row with D 184
about a gas leak D 177
about a two per D 176
above a low mud D 172
about a bus that D 171
about a few per D 169
about a car you D 164
about a new ice D 156
above a leaf bud D 151
above a few per D 150
about a mom who D 150
about a fee for D 150
about a hen and D 146
about a hot meal D 145
about a hen who D 144
about a dad who D 144
about a hen that D 143
about a lac and D 142
about a gang that D 142
about a big fat D 142
about a gun being D 140
about a cap and D 140
about a gal who D 138
about a gay bar D 134
about a cow with D 134
about a bad guy D 132
about a new oil D 130
about a lion cub D 128
about a hot tub D 128
about a ton for D 126
about a big mac D 126
about a hit and D 122
about a guy they D 118
about a dead guy D 118
about a day per D 116
about a cow who D 116
about a shoe and D 114
about a neat and D 110
about a cop and D 110
about a riot that D 109
about a deaf man D 108
about a big hug D 108
abbey i saw two D 106
about a cow being D 104
about a hat that D 100
about a bum who D 100
about a gas that D 97
about a six per D 96
about a rum and D 96
about a new peg D 96
about a guy going D 94
above a long thin D 92
about a red car D 92
about a hat and D 92
about a dean and D 92
about a dead rat D 92
about a car than D 92
above a leaf and D 90
about a gay and D 90
above a dam and D 86
about a fan who D 86
about a dam that D 85
about a fat boy D 84
about a dead cow D 84
about a deaf boy D 82
above a long row D 80
about a fat and D 80
about a rod off D 55
about a bee that D 47
about a bear cub D 46
about a tax that D 44
about a bee sting D 40
