about such things as M 82266
about half that of M 63056
about what they do M 58385
about what goes on M 54212
about what you do M 45242
about what can be M 40728
about half way up M 33340
about what was to M 24900
about half way to M 20694
about what may be M 20334
about their use of M 20284
about life and the M 18200
about dealing with the M 16482
about what was in M 14712
about three out of M 14146
above show that the M 13524
about there being no M 12637
about these things in M 12620
about more than the M 11832
about what she is M 11256
about four out of M 10537
about their way of M 10048
about time for the M 9876
about those who do M 9182
about from one to M 8608
about what one is M 8552
about what are the M 8506
about nothing but the M 8316
about time that we M 8170
about even with the M 7704
about what was the M 7624
about what they eat M 7572
about half that in M 7498
about such things in M 7457
about what god is M 7336
about these things as M 6980
about caring for the M 6978
above will not be M 6776
about nine out of M 6712
about what was on M 6488
about time for me M 6468
about time that the M 6082
about what not to M 5934
about what you eat M 5651
about your use of M 5642
about love and the M 5488
about only one thing M 5394
above what can be M 5384
about what has to M 5370
about what each of M 5132
above these are the M 4959
about many things in M 4640
about what had to M 4508
about ready for the M 4506
about these things to M 4442
about these things is M 4364
about your going to M 4208
about their use in M 4054
above those for the M 3744
about time for us M 3722
about work and the M 3616
about like that of M 3576
about other things as M 3574
about paying for the M 3432
above what may be M 3422
above will now be M 3378
about making use of M 3348
about their own or M 3264
about these things at M 3258
about what may or M 3236
about moving out of M 3216
about self and the M 3135
about such things at M 3116
about time and the M 3098
about health and the M 3012
about such things to M 2990
above must not be M 2974
about only with the M 2960
about those things in M 2880
about five out of M 2829
above need not be M 2798
about coming out to M 2738
about such things is M 2712
about food and the M 2598
about saying that the M 2592
about taking her to M 2536
about asking her to M 2504
about other things in M 2502
about asking him to M 2498
above have led to M 2432
above means that the M 2377
about what was at M 2348
about your way of M 2326
about their fear of M 2314
about only one of M 2292
above data that the M 2290
about coming with me M 2286
about half way on M 2282
about whom all the M 2256
about just how the M 2166
about half way in M 2152
about peace with the M 2126
about living with the M 2084
about paying for it M 2030
about half that at M 2024
about what can or M 2016
about coming out of M 2004
about faith and the M 1998
about aids and the M 1992
about giving him the M 1978
about what all the M 1950
about asking for the M 1950
about what can go M 1944
about peace and the M 1906
about from day to M 1904
about other than the M 1882
about what this is M 1876
about half are in M 1869
above your head as M 1858
about their area of M 1854
about food for the M 1834
about make out the M 1812
above will lead to M 1796
about what was or M 1774
about some things in M 1774
about asking you to M 1742
about having had to M 1730
abuse will not be M 1688
about your being in M 1682
about what does or M 1670
about when you go M 1665
about time that he M 1646
about just how to M 1619
about just one thing M 1598
about what all of M 1586
above list may be M 1582
above show that in M 1579
about what lay in M 1575
about saying that he M 1570
about your area of M 1560
about home and the M 1550
about what led to M 1536
about taking him to M 1528
about these things so M 1512
about such men as M 1511
about their being so M 1507
above there was no M 1490
about whom she is M 1488
about your idea of M 1486
about what she or M 1478
above deals with the M 1476
above your head to M 1470
about half way we M 1466
about their going to M 1448
about what man is M 1446
about your job or M 1434
about these and the M 1400
about there being an M 1398
about truth and the M 1388
about among all the M 1386
about some one thing M 1376
about food all the M 1368
about asking for it M 1360
about dealing with it M 1356
about will not be M 1344
about when you do M 1334
about taking out the M 1332
about these things the M 1318
about from one thing M 1318
about their lot in M 1314
above your head in M 1304
above along with the M 1300
about having one of M 1300
about life and to M 1294
about these things or M 1292
about what that is M 1282
about what one of M 1278
about what his or M 1278
about when and if M 1276
about other things to M 1268
above show that it M 1250
about life with the M 1250
about giving them the M 1238
about care for the M 1234
about what any of M 1228
about those things we M 1228
about most things in M 1222
about jobs and the M 1220
above there may be M 1202
above were not the M 1197
about their being in M 1194
abode there for the M 1183
about these things we M 1182
about these may be M 1176
about among them in M 1176
about when one is M 1174
about hell and the M 1166
about asking them to M 1164
about what goes in M 1162
about just one of M 1155
about these can be M 1154
about giving you the M 1140
about trying not to M 1138
about life that is M 1138
about here are the M 1132
about these things on M 1126
about nothing and the M 1126
above other men in M 1123
about some things we M 1123
about whom one is M 1118
above your head is M 1116
about some one of M 1114
above list can be M 1095
above case that the M 1095
above data and the M 1093
above data can be M 1087
about there was no M 1086
about their day at M 1084
about love for the M 1082
above there are the M 1080
about many things of M 1076
about these men is M 1074
above show how the M 1072
about having all the M 1068
above rule may be M 1054
above zero and the M 1052
about these things he M 1042
about those things of M 1040
about these things if M 1036
above there are no M 1025
about your job at M 1024
about their being the M 1014
about paying off the M 1012
about these things by M 1008
above making use of M 1004
about like one of M 1004
above data may be M 987
about from job to M 980
about taking you to M 976
about living off the M 976
about buying one of M 976
about giving her the M 966
about your job in M 960
about much that is M 960
about fell out of M 957
about what law is M 944
about here that the M 944
above these was the M 940
about your fear of M 940
about what men do M 938
about what was so M 935
above there can be M 934
about some things he M 934
about what led up M 926
about what does the M 920
about taking one of M 918
about some things it M 912
about some area of M 912
above such things as M 910
about reading and the M 910
about land use in M 908
about those that do M 897
about done with the M 894
about when one of M 893
about when they do M 886
about from one of M 884
about what did or M 882
about taking them to M 878
about taking off the M 872
about when she is M 870
about union with the M 868
about coming with us M 868
about your job as M 864
about those who go M 862
above list that the M 860
about over and the M 850
about other things or M 844
about many things as M 844
about their use as M 843
about life than the M 842
about such things or M 836
about saying that it M 836
above data for the M 832
about laying out the M 830
above says that the M 828
about gone with the M 827
about your own or M 826
above theory can be M 822
about such things the M 816
about some things as M 816
above form may be M 814
above dealing with the M 813
about like one in M 812
about seeing that the M 810
above your head or M 808
about nothing but my M 808
about town with the M 806
about life that he M 794
about making all the M 792
about life that we M 786
about those things at M 784
about town and the M 782
about their idea of M 782
about your being the M 780
about when they go M 780
above ideas can be M 778
above there was the M 776
about life that the M 770
about their son or M 760
about dealing with an M 754
about life for the M 752
about other things he M 750
about those things he M 744
about from now on M 744
above make use of M 734
about seeing him in M 734
about many things at M 734
about land and the M 734
about having had the M 734
about these men in M 730
about half way the M 728
about what day it M 726
about those things as M 726
about from man to M 726
about their age to M 724
about half can be M 722
about what each is M 718
about risk and the M 718
about taking all the M 710
about like that in M 708
about seeing her in M 706
about such things on M 702
about some one or M 702
about having had an M 700
about those things to M 692
about their job of M 690
about pain and the M 684
about work that is M 680
about some set of M 678
about work for the M 674
above rule can be M 672
about only two of M 670
about here for the M 666
about your day at M 660
about there being so M 660
about half are of M 660
above must now be M 658
about when and to M 652
about more than he M 650
about love that is M 650
about your son or M 648
about only one or M 648
about just out of M 648
about half that on M 648
above your head the M 646
about when all the M 646
about town that the M 646
about time for my M 646
about ways that the M 644
above dealt with the M 643
about what this or M 642
about their job in M 640
about half and the M 640
about their age or M 638
above those set by M 636
about what you or M 636
about these things of M 636
about your age or M 634
about some real or M 633
about meaning and the M 632
above even that of M 631
about life can be M 628
about half out of M 628
about saying that we M 624
about just who is M 624
about other things of M 622
about your being an M 618
about your being so M 612
about most was the M 610
about from sun to M 610
about what death is M 606
about over all the M 606
about time that it M 604
about some way to M 602
about aids and to M 598
about work with the M 596
about when not to M 594
abuse having for the M 592
about some way of M 590
about nothing and as M 582
about wiping out the M 580
about coming out in M 580
about ideas and the M 578
about among them as M 578
about when and in M 576
about what are we M 574
about from two to M 574
above rule for the M 572
above half way up M 572
about among them to M 572
about saying yes to M 570
about many things to M 569
about other things we M 568
about till near the M 566
about more than my M 564
above your head so M 562
about their mean is M 562
above other things in M 560
about taking him on M 558
about youth and the M 556
about many things he M 556
above those due to M 555
above form can be M 555
above will then be M 554
about coming out on M 554
about other men in M 552
about asking him if M 552
about heading for the M 548
about caring for an M 548
about living for the M 546
about giving way to M 544
about half way of M 542
above there was an M 540
above case may be M 538
about along with the M 536
about asking god to M 534
above leads one to M 526
about their job or M 526
about half for the M 526
about these things it M 524
about asking for an M 524
above were due to M 522
about having him in M 522
about more than an M 518
about some things to M 516
about need not be M 516
about just how it M 515
above data with the M 512
about what was up M 511
about like this in M 511
above turn out to M 509
about living with an M 506
about what are to M 502
about three men in M 502
about their day in M 500
about taking off my M 500
above theory may be M 497
about mark and the M 496
about these men of M 494
about good things to M 494
about wealth and the M 492
about life and my M 492
about giving them up M 491
about among them by M 490
about what was an M 488
about living with my M 488
about young men in M 487
about town that he M 486
about giving them to M 486
about evil and the M 486
about seeing him at M 482
about having all of M 482
above your head on M 480
above zero for the M 478
about their use by M 478
about just how he M 478
about giving him an M 478
above form for the M 477
above what was the M 475
about once out of M 473
above were for the M 472
about their age in M 468
about making war on M 468
above work can be M 467
above test can be M 466
about your age to M 466
about nothing with the M 466
about life than he M 464
about your age in M 462
about their use or M 462
about their day to M 462
about healing and the M 462
about such things if M 460
about saving for the M 460
above have one thing M 459
above type can be M 458
about here and the M 458
about from year to M 456
about fate and the M 456
about time one of M 454
about three men to M 454
about losing out on M 454
above case and the M 452
about trying out the M 452
about mixing with the M 452
about asking her if M 452
about moving out to M 450
about flying and the M 450
about your being on M 449
about those men in M 446
about making one of M 446
about taking her in M 445
about such things so M 444
above other men as M 442
about having her in M 441
about your end of M 440
about time for it M 438
about spring and the M 438
about acting and the M 438
about other things at M 436
about loss and the M 436
above your head at M 434
about those who in M 430
about from six to M 430
about four and the M 430
about their own as M 427
above those that the M 426
about even that the M 426
above most men in M 424
about zero for the M 424
about such things he M 424
about zero and the M 423
above also can be M 422
about work all the M 422
about what set of M 422
about their use is M 422
about fish and the M 422
about fire and the M 422
about giving him up M 421
about those things on M 420
about these that the M 420
about more than it M 420
about gone out of M 420
about those things is M 418
about more than is M 418
about ideas for the M 418
about asking one of M 418
abuse will lead to M 416
about what you as M 416
about over for the M 416
about into all the M 414
about half was in M 414
above said that the M 413
about coming out as M 413
about three and the M 412
about ways that we M 410
about many things we M 407
above those who do M 406
about what has or M 406
about ready for it M 406
about five and the M 406
about more than we M 404
about when this is M 402
about what age do M 402
about seeing how the M 402
abler heads than my M 402
above list are the M 400
about your being at M 400
about waking him up M 400
about losing one of M 400
above test may be M 398
about town for the M 398
about like all the M 398
about less than the M 396
about hope for the M 396
about duty and the M 394
about just how we M 393
about when and by M 390
about life than we M 390
about just who the M 390
about other things is M 388
about dogs and the M 388
above case can be M 384
about living with me M 384
about just for the M 381
about town all the M 380
about great men in M 380
about fell off my M 380
about caring for my M 380
above type may be M 378
about giving out the M 378
above from one of M 377
about trying for the M 376
about having them in M 375
above made use of M 374
aback when one of M 374
about taking her on M 373
about whom they do M 372
about such use of M 372
about these men as M 371
above list with the M 370
above half that of M 370
about jobs for the M 370
about your job is M 368
about half may be M 368
about during one of M 368
about seeing one of M 366
above other men by M 365
about some bit of M 364
abuse need not be M 362
about trying one of M 362
about peace and to M 360
about love all the M 360
about life may be M 360
about health and to M 360
about waking her up M 358
about from end to M 358
above brings out the M 356
about when was the M 356
about some things or M 356
about five men to M 356
about aids for the M 356
about food that is M 354
about what being an M 352
about love being the M 352
about hope and the M 352
about what they or M 350
about even with my M 350
above show that he M 348
about such things by M 348
above most men of M 346
above half way to M 346
about your age is M 346
about what being in M 346
about life and so M 346
about help for the M 346
about food and to M 346
above other than the M 344
above list and the M 344
about what both of M 344
about living things is M 344
about other things the M 343
above data are the M 342
above code can be M 342
about what this thing M 342
about what things we M 342
about those that we M 342
about save that he M 342
about even that he M 342
above fact that the M 340
about these two is M 340
about some things at M 340
about your day in M 338
about what path to M 338
about time can be M 338
about seeing her at M 338
about living out the M 338
above sets out the M 336
about their day or M 336
about half way is M 336
about your being my M 334
about from ten to M 334
about just now is M 333
about four men to M 333
about those with the M 332
about such things we M 332
about what day of M 330
about those things the M 330
about many things is M 330
about giving her up M 330
about were not the M 329
about fell off the M 329
about what age is M 328
about those things so M 328
about some things the M 328
about among men as M 325
about boys all the M 324
abuse less than the M 322
about their real or M 322
about taking you on M 322
about half way by M 322
above view that the M 320
about hanging out in M 320
about life that it M 318
about seeing things in M 316
about nothing for the M 316
about just going to M 316
about four men in M 316
about their age at M 314
above have yet to M 312
about waking you up M 312
about some act of M 312
about moving him to M 312
about birth and the M 312
abuse must not be M 310
above hold for the M 310
about time that is M 310
about some things of M 310
about nine and the M 310
about living things in M 310
about half going to M 310
about cost and the M 310
about what was of M 308
about life and it M 308
about health can be M 308
about having one or M 308
about safe use of M 307
about much that he M 307
about having him as M 306
about gone and the M 306
about data that is M 306
about what war is M 304
about jump out of M 304
above ideas may be M 302
about taking off an M 302
about dealing with my M 302
above list for the M 301
above there are in M 300
about seeing all the M 300
about living out of M 300
about here can be M 300
about giving aid to M 300
about what lay on M 299
above such men as M 298
above must then be M 298
about here that we M 298
about half way he M 298
about half due to M 298
about there being in M 297
about their doing so M 297
about work and to M 296
about town and in M 296
about life and in M 296
about here all the M 296
about having you in M 296
about acting for the M 296
above show that we M 295
about done for the M 294
above caring for us M 292
about your lot in M 292
about meaning can be M 292
about buying out the M 292
about your day as M 291
abuse have led to M 290
about whom this is M 290
about what things in M 290
about what may go M 290
about such things it M 290
about when did the M 288
about wars and the M 288
about taking them on M 288
about peace for the M 288
about even one of M 288
about early man in M 287
above data are in M 286
about whom you do M 286
about theory and the M 286
about reading for the M 286
about life with an M 286
about boys and the M 286
about what lay at M 284
about other men or M 284
abide there for the M 284
above three are the M 282
above date and the M 282
about truth can be M 282
about even for the M 282
about caring for it M 282
above meant that the M 281
about went out of M 281
about here and in M 280
abode there with the M 280
about their use to M 278
about other things on M 276
about longing for the M 276
about kids and the M 276
about hanging out at M 276
about must now be M 275
about came out of M 275
about work can be M 274
about whom one of M 274
about here with the M 274
about gods and the M 274
about form and the M 274
about food can be M 274
about five for the M 274
above were all the M 272
about what mix of M 272
about making out the M 272
about land for the M 272
about your going on M 271
about taking any of M 270
about love that we M 270
about half with the M 270
about arms and the M 270
about what area of M 268
about other than by M 268
about life and of M 268
about from east to M 268
about anger and the M 268
above plan for the M 267
about when each of M 266
about what one or M 266
about time for an M 266
about three for the M 266
about these are the M 266
about their job as M 266
about losing his or M 266
about here was the M 266
above work may be M 265
above such that the M 265
above show that if M 264
about your age at M 264
about when using the M 264
about when two or M 264
about many things on M 264
about making for the M 264
about like mad on M 264
about half this in M 264
about nothing and no M 263
above show that at M 262
above kind can be M 262
about seeing you in M 262
about losing out to M 262
about here that he M 262
above show that an M 260
about your and my M 260
about there was an M 260
about there are no M 260
about food may be M 260
about data and the M 260
above will not do M 259
above what was to M 258
above were all in M 258
about making him the M 258
about home and my M 258
above case with the M 256
about those for the M 256
about seeing them in M 256
about love and to M 256
about half goes to M 256
about great things in M 256
above means that we M 254
about what had or M 254
about those things or M 254
about there all the M 254
about sums him up M 254
about life going on M 254
about among them on M 254
about your day or M 252
about ready for us M 252
about over and we M 252
about these and to M 250
about reading all the M 250
about life and is M 250
about mark and me M 248
about making any of M 248
about half that to M 248
about young men of M 247
about were all the M 246
about life and he M 246
about having won the M 246
about from box to M 246
about having her as M 245
above these and the M 244
about what things to M 244
about what does he M 244
above also may be M 242
above other men to M 241
about must not be M 241
above plan may be M 240
above other than an M 240
about what they as M 240
about health may be M 240
about having any of M 240
about love and so M 239
about what job to M 238
abode there all the M 238
above case was the M 237
about when one or M 236
about time that my M 236
about other than to M 236
about nine with the M 236
about losing any of M 236
about just one or M 236
above only with the M 235
above rule that the M 234
about those they do M 234
about half had no M 234
about half did so M 234
about giving you an M 234
about your job to M 232
about what and in M 232
about were for the M 232
about those you do M 232
about these things my M 232
about there with the M 232
about there may be M 232
about here was so M 232
above were not in M 230
about these with the M 230
about some idea or M 230
about coming out at M 230
about their day as M 229
above have had an M 228
about your doing it M 228
about last year in M 228
about having you as M 228
about their being on M 227
above what was in M 226
about what lay to M 226
about their job is M 226
about taking her up M 226
about moving all the M 226
about love can be M 226
about half being in M 225
above their own in M 224
about ideas and to M 224
about giving her an M 224
about acts that he M 224
abuse upon him in M 222
above these may be M 222
about your idea to M 222
about what year it M 222
about taking off in M 222
about some things is M 222
about having had no M 222
about ageing and the M 222
above time and the M 221
above only for the M 221
above note that the M 220
about three things in M 220
about caring for me M 220
above case and in M 218
about work that he M 218
about whom all of M 218
about what sin is M 218
about time now to M 218
about some new thing M 218
about seeing him on M 218
about losing all the M 218
about half that by M 218
about great men of M 218
above ratio can be M 216
above fact can be M 216
above case for the M 216
about your job on M 216
about risk can be M 216
above there are at M 215
above view may be M 214
about these things do M 214
about paying for my M 214
about hoping that he M 214
about your son in M 212
about when you eat M 212
about what does it M 212
about what and to M 212
about there was the M 212
about some man or M 212
about kids who do M 212
about care and the M 212
abyss also may be M 211
above ends with the M 211
about those two in M 210
about these being the M 210
about ready for my M 210
about good things in M 210
about five men in M 210
above theory and the M 208
above fact may be M 208
about laying off the M 208
about giving all the M 208
about acting out the M 208
abuse from one of M 207
about taking him up M 207
about ready for me M 207
about giving you up M 207
above must all be M 206
above gave way to M 206
about what going to M 206
about what did he M 206
about those with no M 206
about those dear to M 206
about these two in M 206
about taking all of M 206
about seeing god in M 206
about over and he M 206
about having two or M 206
about giving them an M 206
above rule and the M 205
abuse from all the M 204
above other men of M 204
about those things if M 204
about play and the M 204
about moving out on M 204
about heading out to M 204
about your idea or M 202
about love with the M 202
about living with it M 202
about asking for my M 202
about only one in M 201
about worn out by M 200
about their son in M 200
about other men of M 200
about other men as M 200
about moving her to M 200
about these men to M 198
about such men is M 198
about only two or M 198
about losing all of M 198
abuse from both the M 197
abuse grew out of M 196
about what are in M 196
about town and to M 196
about there for the M 196
about seeing all of M 196
about only for the M 196
about love than the M 196
about life was the M 196
about having him on M 196
above means that in M 195
about were not so M 194
about some man in M 194
about making all of M 194
about life was in M 194
about having his or M 194
about many things the M 193
about making things up M 193
about what all he M 192
about these for the M 192
about their ease or M 192
about their being at M 192
about some two or M 192
about living with us M 192
about like you do M 192
about just being in M 192
about coming all the M 192
abide here with me M 192
about wise use of M 191
above means that it M 190
about their death or M 190
about more things in M 190
about living and the M 190
about among you an M 190
about room for the M 188
about living near the M 188
about half that if M 188
about half are on M 188
about from all the M 188
about food and my M 188
above data lead to M 187
above grew out of M 186
about saying that if M 186
about most things is M 186
about flying with the M 186
about done with my M 186
about what has so M 185
about those things by M 185
abuse also may be M 184
above name for the M 184
about what led the M 184
about self that is M 184
about other things if M 184
about love and it M 184
about when was it M 182
about three things at M 182
about these than the M 182
about their pay or M 182
about taking him in M 182
about love that he M 182
about living out in M 182
about deaths due to M 182
abuse those who do M 181
above their head to M 180
about what things the M 180
about their end of M 180
about poets and the M 180
about like mad in M 180
about having read the M 180
about great men is M 180
about buying all the M 180
above were not so M 179
above whom are the M 178
above theory for the M 178
above plan can be M 178
about their use on M 178
about seeing that it M 178
about life and an M 178
about flying out to M 178
about adding them to M 178
above theory that the M 176
above some and be M 176
about what was no M 176
about what can we M 176
about their and the M 176
about some idea of M 176
about self can be M 176
about life and we M 176
above data that in M 174
about those that he M 174
about there can be M 174
about half that is M 174
about five and we M 174
about among men in M 174
about aids may be M 174
about will lead to M 173
about most things as M 173
about your job if M 172
about will now be M 172
about town with an M 172
about taking out an M 172
about seeing things as M 172
about saying that to M 172
about making his or M 172
about having things to M 172
about half was to M 172
about aids can be M 172
about taking them in M 171
about ready now to M 171
above areas can be M 170
about those doing the M 170
about some one to M 170
about seeing you at M 170
about pain can be M 170
about life are the M 170
about from seat to M 170
abuse other than the M 169
above have led us M 169
about whom and to M 168
about town with my M 168
about these that he M 168
about mind and the M 168
about losing him to M 168
about hiding out in M 168
abuse lies with the M 167
above will all be M 167
above such sum as M 167
above show how to M 167
about just now in M 167
about your dog or M 166
about years ago in M 166
about will and the M 166
about what was it M 166
about these that we M 166
about some one in M 166
about ages six to M 166
about taking off on M 164
about many things by M 164
about food that we M 164
about deals with the M 164
above want for the M 163
above seen that it M 162
above have for the M 162
about your using the M 162
about what was he M 162
about town who is M 162
about nothing but to M 162
about debt and the M 162
about data can be M 162
about their lot as M 161
above such sum of M 160
about whom are we M 160
about whom all we M 160
about were going to M 160
about some way in M 160
about same age as M 160
about most things he M 160
about most are the M 160
about having had it M 160
about worn out the M 158
about work may be M 158
about whom and the M 158
about nothing but me M 158
about life out of M 158
above areas may be M 157
about ready for an M 157
above text that the M 156
about what you so M 156
about those who eat M 156
about taking one or M 156
about more than me M 156
about life with my M 156
about half way or M 156
about half are the M 156
about four for the M 156
about five and he M 156
about face and the M 156
above call for the M 155
about much that we M 155
abuse along with the M 154
above these lie the M 154
above more than the M 154
about there and the M 154
about their mean in M 154
about their job to M 154
about their act of M 154
about moving with the M 154
about love than he M 154
about hoping that the M 154
about here that is M 154
about from then on M 154
abide here for the M 154
above will aid in M 153
above were all of M 153
about just who it M 153
above what are the M 152
about what use the M 152
about what that thing M 152
about what both the M 152
about ways that he M 152
about three and we M 152
about these men or M 152
about their death in M 152
about love and he M 152
about heading off to M 152
about ending his or M 152
about dealing with me M 152
about coming off the M 152
about asking you if M 152
about acting out of M 152
abode till all the M 152
above work with the M 151
above test with the M 150
above list are of M 150
about wiping off the M 150
about what are or M 150
about west and by M 150
about were not in M 150
about those men of M 150
about pain that is M 150
about like that on M 150
about having them on M 150
about giving her my M 150
about flying off to M 150
about ages ten to M 150
above work and the M 149
above told that the M 149
above have had to M 149
above work that the M 148
above their head in M 148
above text can be M 148
above into one of M 148
above blue and so M 148
about time may be M 148
about their death by M 148
about losing her to M 148
about life was to M 148
about leading them to M 148
about half and in M 148
above your head if M 146
above ratio may be M 146
about zero with the M 146
about your head or M 146
about work and my M 146
about what you no M 146
about what things he M 146
about town and at M 146
about such things do M 146
about more than in M 146
about like that at M 146
about giving him my M 146
above what was at M 144
above those that we M 144
above made that the M 144
above form and the M 144
about there being the M 144
about their being of M 144
about paying all the M 144
about maps and the M 144
about like they do M 144
about leading him on M 144
about flying out of M 144
about beating him up M 144
above heading may be M 143
about what has no M 143
above view can be M 142
above date for the M 142
about what they in M 142
about what day the M 142
about truth that is M 142
about town with no M 142
about these two or M 142
about their being no M 142
about reading can be M 142
about love that it M 142
about like men in M 142
about here with my M 142
about having things in M 142
about half each of M 142
about giving all to M 142
about from area to M 142
about asking for or M 142
about aiming for the M 142
above their head as M 141
abuse means that the M 140
about your death in M 140
about when out of M 140
about what goes to M 140
about seeing that he M 140
about rain and the M 140
about next year or M 140
about love are the M 140
about life than to M 140
about here that it M 140
above time and is M 139
about turn out to M 139
about their being as M 139
above means may be M 138
above kind may be M 138
about your day to M 138
about what you in M 138
about their new king M 138
about seeing her on M 138
about other than my M 138
about love may be M 138
about land that is M 138
about having got the M 138
about food with the M 138
about having her on M 137
above what any of M 136
above their own or M 136
above data are of M 136
about your age if M 136
about your age by M 136
about when things go M 136
about what led us M 136
about what had so M 136
about some use of M 136
about self and to M 136
about reading and to M 136
about paying for an M 136
about over and it M 136
about making them in M 136
about here are so M 136
about held him by M 136
about having them at M 136
about having them as M 136
about when all of M 134
about what men of M 134
about ways out of M 134
about ties with the M 134
about such being as M 134
about some things on M 134
about life that no M 134
about home all the M 134
about even and the M 134
about coming for the M 134
about asking all the M 134
about also that the M 134
above have had the M 133
about your going in M 133
above will act as M 132
about your man in M 132
about their day of M 132
about such that the M 132
about other things so M 132
about nothing that is M 132
about myths and the M 132
about meaning that is M 132
about like this at M 132
about half way at M 132
about even using the M 132
about during all the M 132
abode here for the M 132
above means that if M 131
above fact and the M 131
about seeing him as M 131
about come out of M 131
above were put to M 130
above those that he M 130
about town and he M 130
about till all the M 130
about three and an M 130
about these things be M 130
about their use at M 130
about sums things up M 130
about some boy or M 130
about seeing him or M 130
about risk and to M 130
about making this the M 130
about love than to M 130
about giving you my M 130
about flying for the M 130
about ages two to M 130
above self and the M 129
about your head as M 129
above list are in M 128
above form with the M 128
about what things do M 128
about were hung the M 128
about owning one of M 128
about nine and he M 128
about land use to M 128
about hoping for the M 128
about here and at M 128
about having you to M 128
about even with me M 128
about died out in M 127
above those set in M 126
above many that go M 126
above line and the M 126
about your going so M 126
about young men as M 126
about what law to M 126
about time that an M 126
about those men on M 126
about there out of M 126
about taking out my M 126
about saying that in M 126
about hell than he M 126
about having you on M 126
about having him to M 126
about food and he M 126
about face and go M 126
about ends and the M 126
about dealing with us M 126
about dawn and the M 126
about crying out to M 126
about giving that up M 125
above seen that the M 124
above data are as M 124
above case this is M 124
about your vow of M 124
about your owing me M 124
about work that the M 124
about work and he M 124
about wood for the M 124
about uses for the M 124
about time and to M 124
about their being to M 124
about over for me M 124
about nothing that he M 124
about making him an M 124
about losing them to M 124
about life than in M 124
about land use is M 124
about just why the M 124
about jobs with the M 124
about here are of M 124
about here are in M 124
about even that it M 124
about done with it M 124
about crying that the M 124
about asking them if M 124
above also led to M 123
about giving things up M 123
above four are the M 122
above data set is M 122
about your doing so M 122
about what god or M 122
about waking them up M 122
about those men at M 122
about saying things in M 122
about note that the M 122
about here has to M 122
about health for the M 122
about half was the M 122
about among all of M 122
above show that as M 121
above seem not to M 121
about give you up M 121
above their own to M 120
above mine but the M 120
about what men in M 120
about their men in M 120
about seeing with the M 120
about means that the M 120
about love and in M 120
about land use or M 120
about from bar to M 120
about four and we M 120
about even being in M 120
about buying any of M 120
above type and in M 119
above cost and the M 119
about just doing it M 119
above work for the M 118
above their fear of M 118
above other things of M 118
above list and in M 118
above areas and the M 118
about your job of M 118
about what was by M 118
about what does go M 118
about their mean or M 118
about taking that of M 118
about some men in M 118
about self may be M 118
about here but the M 118
about having got to M 118
about giving all of M 118
about flying that he M 118
about coming off as M 118
about just why it M 117
about good for the M 117
abode will not be M 117
abuse there may be M 116
above what all the M 116
above were two or M 116
above their head or M 116
above line can be M 116
above like that of M 116
about wore out the M 116
about whom does the M 116
about when and on M 116
about what use is M 116
about what job he M 116
about upon that of M 116
about some six or M 116
about seeing you on M 116
about seeing any of M 116
about past use of M 116
about moving them to M 116
about moving off the M 116
about giving out my M 116
about five six or M 116
above from that of M 115
above were not as M 114
above unit area of M 114
above show that by M 114
above must lead to M 114
above caring for the M 114
above areas and in M 114
about youth being the M 114
about your son is M 114
about will and me M 114
about when they sing M 114
about those things it M 114
about such things of M 114
about saying this to M 114
about reading that is M 114
about nothing all the M 114
about meaning that we M 114
about making them so M 114
about health that is M 114
about hanging out the M 114
about half his or M 114
about giving one of M 114
about arms for the M 114
above felt that the M 113
about young men on M 113
about work going on M 113
about these things no M 113
above four out of M 112
about your pet or M 112
about what led me M 112
about what going on M 112
about what did the M 112
about these two as M 112
about singling out the M 112
about prior use of M 112
about moving and the M 112
about more and to M 112
about means for the M 112
about land with the M 112
about ideal for the M 112
about having one in M 112
about food than the M 112
about faith can be M 112
about face for the M 112
about bold and the M 112
above test for the M 111
about wipe out the M 111
above your head by M 110
about your son as M 110
about time than we M 110
about their age is M 110
about seeing her the M 110
about save for the M 110
about reading one of M 110
about making things in M 110
about faith and to M 110
abide till you go M 110
about there that the M 109
about seeing them as M 109
above will set the M 108
above text and the M 108
above list was the M 108
about your bit of M 108
about work are the M 108
about what things or M 108
about their doing it M 108
about taking things in M 108
about taking them at M 108
about show that the M 108
about peace and an M 108
about pain and to M 108
about next year in M 108
about meaning and to M 108
about making them at M 108
about love and is M 108
about having him at M 108
about half are at M 108
about ever being in M 108
abuse when they do M 107
about taking you up M 107
abuse also can be M 106
above what goes to M 106
above most men to M 106
about your head in M 106
about work that we M 106
about what now is M 106
about what has the M 106
about their day on M 106
about their being an M 106
about self that the M 106
about peace with an M 106
about nothing but an M 106
about love than we M 106
about life being an M 106
about jobs can be M 106
about flying off the M 106
about fish out of M 106
about faith that is M 106
about done and the M 106
above will bring the M 105
above were put in M 105
above note may be M 105
about there being as M 105
above those now in M 104
above most things to M 104
above means and by M 104
above list are to M 104
above have two or M 104
about your men of M 104
about when any of M 104
about their going on M 104
about some new or M 104
about peace with us M 104
about paying him the M 104
about luck and the M 104
about love that the M 104
about just who we M 104
about here may be M 104
about here and we M 104
about giving things to M 104
above used for the M 103
above brings with it M 103
above also lead to M 103
above when using the M 102
above view with no M 102
above these can be M 102
above these are of M 102
above only one of M 102
about your year in M 102
about your job by M 102
about your doing the M 102
about your and the M 102
about whom not to M 102
about what they so M 102
about town was the M 102
about time being the M 102
about three men at M 102
about these and he M 102
about their aim of M 102
about taking this on M 102
about size and the M 102
about saying one thing M 102
about risk that is M 102
about nothing and to M 102
about life but to M 102
about half being on M 102
about four and an M 102
about coming out is M 102
abide there with the M 102
above those are the M 100
above loop can be M 100
about time you do M 100
about three men of M 100
about these was the M 100
about taking his or M 100
about seeing her so M 100
about saving all the M 100
about many things or M 100
about losing out in M 100
about life does the M 100
about life and be M 100
about life all the M 100
about having him go M 100
about food and so M 100
about food and it M 100
about fire being the M 100
about among you as M 100
above zero can be M 99
about losing him as M 99
above what one is M 98
above ways can be M 98
above rule has no M 98
above areas are the M 98
above also has an M 98
about when each is M 98
about when and at M 98
about what use he M 98
about very few of M 98
about those yet to M 98
about these men at M 98
about there for an M 98
about their joy in M 98
about taking meat or M 98
about need for the M 98
about meals for the M 98
about just who he M 98
about ideas can be M 98
about here for an M 98
about here and it M 98
about having let the M 98
about food that he M 98
about dogs for the M 98
about among them the M 98
abode along with the M 98
above rate for the M 97
abusing those who do M 96
abuse were not the M 96
above will thus be M 96
above what you do M 96
above those with the M 96
above their use in M 96
above list has no M 96
about your age he M 96
about young men at M 96
about what they go M 96
about what has in M 96
about what for me M 96
about what can in M 96
about time all of M 96
about their god in M 96
about their age as M 96
about taking this to M 96
about nine and we M 96
about ideas that we M 96
about having them do M 96
about five with the M 96
about fears that the M 96
about caring and the M 96
about boys who do M 96
about asking him the M 96
about among them at M 96
abide here with the M 96
above note and the M 95
above made may be M 95
about want you to M 95
about great men to M 95
above zero may be M 94
above zero and it M 94
above step for the M 94
above from ten to M 94
about your idea is M 94
about what job or M 94
about what all we M 94
about truth that we M 94
about those out of M 94
about their idea to M 94
about some act or M 94
about seeing her as M 94
about saying this is M 94
about reading may be M 94
about pain may be M 94
about nothing but he M 94
about making you an M 94
about like going to M 94
about jobs and to M 94
about here and he M 94
about hearing and the M 94
about aids that is M 94
abide here with us M 94
about living things as M 93
abyss into all the M 92
abuse from any of M 92
above what they do M 92
above half that in M 92
above book was of M 92
about your vow to M 92
about your things of M 92
about worn out my M 92
about when god is M 92
about what use to M 92
about what for the M 92
about upon them in M 92
about time with the M 92
about time for tea M 92
about three men on M 92
about there near the M 92
about their year of M 92
about peace was the M 92
about nine for the M 92
about next year is M 92
about making this an M 92
about making her go M 92
about losing you to M 92
about life and do M 92
about here can do M 92
about half way it M 92
about gave you up M 92
about food that it M 92
about food are the M 92
about even with it M 92
about even going to M 92
abode time out of M 92
abide very long in M 92
about town and on M 91
above whom was the M 90
above those who in M 90
above giving way to M 90
about will not do M 90
about whom was the M 90
about what way of M 90
about what was my M 90
about wars with the M 90
about those two or M 90
about those that the M 90
about their dead is M 90
about taking them up M 90
about taking her as M 90
about snow and the M 90
about saying that my M 90
about other things it M 90
about nothing and it M 90
about nothing and in M 90
about nine men in M 90
about next year at M 90
about many things if M 90
about making out in M 90
about love and of M 90
about just this thing M 90
about ideas that he M 90
about having read it M 90
about even with us M 90
about early use of M 90
about buying them at M 90
above their use as M 89
above line with the M 89
about having put on M 89
about give you the M 89
above rule are the M 88
above four men in M 88
above date that the M 88
about your team or M 88
about what you go M 88
about what got me M 88
about what god in M 88
about ways for the M 88
about truth and to M 88
about three and he M 88
about these that it M 88
about some one he M 88
about making her an M 88
about love but the M 88
about life not to M 88
about life and me M 88
about less than an M 88
about just two of M 88
about having two of M 88
about having one at M 88
about care can be M 88
about care and to M 88
about buying things in M 88
about having her go M 87
abhor more than the M 87
above what she is M 86
above their pay as M 86
above made for the M 86
above half way of M 86
about your lying to M 86
about what men or M 86
about time you go M 86
about time than the M 86
about those who so M 86
about those not in M 86
about some deal he M 86
about risk may be M 86
about nothing for an M 86
about nine men to M 86
about meaning are to M 86
about here than in M 86
about hair and the M 86
about four with the M 86
about four and my M 86
about faith that it M 86
about fair use of M 86
about even that we M 86
abyss from top to M 84
above their own as M 84
above ideas are in M 84
about your going up M 84
about your dog in M 84
about what act of M 84
about time and it M 84
about their using the M 84
about their path to M 84
about their ease of M 84
about teams and the M 84
about some day in M 84
about seeing that we M 84
about seeing her to M 84
about saying yes or M 84
about peace and we M 84
about nothing and is M 84
about meaning that the M 84
about love but it M 84
about living things by M 84
about life with me M 84
about life than it M 84
about half had an M 84
about half fit to M 84
about giving each of M 84
about five and my M 84
about coming with the M 84
about coming out or M 84
about trying them on M 83
above what each of M 82
above these that the M 82
above mixing with the M 82
above goal can be M 82
about your job the M 82
about what being on M 82
about their own thing M 82
about their own king M 82
about some job he M 82
about seeing them or M 82
about moving one of M 82
about means can be M 82
about making you my M 82
about love are in M 82
about living things at M 82
about like this is M 82
about like that by M 82
about life has to M 82
about just why he M 82
about jail and the M 82
about ideas that the M 82
about having you do M 82
about food and is M 82
about feed for the M 82
about clean air or M 82
about care that is M 82
about their age on M 81
above term may be M 80
above ratio and the M 80
above also for the M 80
about upon all the M 80
about town can be M 80
about their ease in M 80
about taking two of M 80
about such men in M 80
about pain that we M 80
about other than in M 80
about making one or M 80
about lust and the M 80
about losing her in M 80
about life being so M 80
about jobs that do M 80
about food for me M 80
about come for the M 80
about bach and the M 80
about among two or M 80
about aids and in M 80
abler young men of M 80
abide save for the M 80
above said sum of M 75
about much for the M 71
about dark and the M 71
above were not to M 70
above save that the M 61
above cost for the M 60
above says that if M 59
above will lead us M 58
above show that no M 56
about much with the M 56
about taking you in M 55
above have all the M 53
above says that we M 51
above means that an M 51
about making them as M 51
about here are as M 51
above will aid the M 50
about their age so M 50
above will not in M 49
above said that he M 49
above have led the M 49
about only with an M 49
about dark and we M 49
above will try to M 48
above will lead the M 48
above were not of M 48
above list that is M 48
above show that of M 47
above help you to M 47
above grow out of M 47
above five are the M 47
about many things so M 47
above will add to M 46
above were set up M 46
abuse there was no M 45
above save for the M 45
above call for an M 45
about their own in M 45
above were going to M 44
above want and the M 44
above knew that the M 44
above also has the M 44
about ready with the M 44
about great men or M 44
above lies not in M 43
above vary with the M 42
about your job so M 42
above means for the M 41
above ideas and the M 41
about know how to M 41
about just off the M 41
above were going on M 40
above show how it M 40
above made them so M 40
about their son as M 40
about meant that the M 40
abiding love for the D 3996
about coping with the D 3306
about race and the D 3130
about drug use in D 2000
about what art is D 1802
abiding faith that the D 1718
about noon and the D 1346
about john and the D 1244
about jack and the D 1200
about leaving for the D 1048
about bringing out the D 872
about voting for the D 860
about making fun of D 744
about having sex in D 702
about bringing them to D 682
about noon with the D 678
about what fun it D 668
about what sex is D 636
about their ears in D 632
about noon that the D 626
about rape and the D 618
about drug use by D 614
about noon and we D 602
about noon one of D 590
about leaving him in D 570
about bringing them up D 564
about diet and the D 552
about noon all the D 540
about leaving him to D 534
about drug use or D 516
about bringing her to D 502
about bringing him to D 500
about bill and the D 496
about leaving her in D 476
about leaving her to D 464
about leaving them in D 440
about gold and the D 428
above land and sea D 426
about wine and the D 404
about drug use is D 404
about jack and me D 400
about singly and in D 396
about noon for the D 394
about jazz and the D 390
abbot said that he D 387
above poking fun at D 386
about your ears in D 376
about paid for the D 376
about their ears as D 370
about like peas in D 370
about cars and the D 366
about maria and the D 356
about mama and the D 354
about tony and the D 350
about what lee is D 342
about john and me D 334
about dusk that the D 332
about leaving out the D 330
about troy and the D 326
about siding with the D 326
about timing and the D 322
above making fun of D 312
about leaving you in D 312
about guns and the D 310
about mingling with the D 308
about leaving all the D 308
about from bed to D 304
about mars and the D 302
about nick and the D 300
abiding hope that the D 298
about some guy in D 296
about from hut to D 296
about land and sea D 292
about having fun in D 292
abiding love for it D 290
about race can be D 286
about mike and the D 286
about ripe for the D 284
about film and the D 284
abiding faith that we D 284
about rose and the D 282
abiding till god of D 282
about their ears or D 280
about mining and the D 280
about laws and the D 278
about race and to D 272
about golf and the D 272
about bush and the D 270
about papa and the D 268
about leaving you to D 260
about dining with the D 258
abiding faith that he D 258
about race all the D 256
about bringing all the D 256
about bill and me D 254
about bringing him in D 253
about what car to D 252
about their ears if D 252
about leaving them to D 250
about java and the D 244
about drug use on D 244
about noon and at D 238
abiding union with the D 237
about media and the D 232
abiding faith that it D 230
about their ears by D 226
about dating for the D 226
about race that is D 224
about waging war on D 222
about axes lying in D 222
abbot told him to D 222
about their art in D 216
abbot said that the D 216
abbey road and the D 216
about cope with the D 213
about their art is D 208
about having sex or D 208
about coping with it D 208
about smith and the D 206
about leaving her at D 206
about drug use at D 206
about riding out to D 204
about opting out of D 204
above deck for the D 203
about oral sex in D 202
abhor more than thy D 202
about their art or D 200
about peel and the D 200
about noon and in D 200
about noon and he D 196
about having fun at D 194
above thump him on D 192
about ready for sea D 192
abiding love for us D 190
about safe sex in D 188
about riding with the D 188
about having met the D 188
about poking fun at D 186
about leaving you the D 186
about having sex on D 186
about toad and the D 184
about some hot tea D 184
about cats and the D 184
above deck and the D 183
about safe sex or D 183
about radio and the D 182
about leaving her on D 182
about voting and the D 180
about your mom or D 178
about tony and me D 178
about drug use to D 178
above laws may be D 176
about your guy in D 176
about your car or D 176
about safe sex is D 176
about bears and the D 176
about from lip to D 174
about leaving him at D 172
about leaving and the D 172
about john that he D 172
abiding hope for the D 172
about dining with me D 170
about josh and me D 166
about laws for the D 164
about fame and the D 164
about leaving with the D 162
about leaving off my D 162
about riding with me D 160
about josh and the D 160
abiding faith that in D 160
about bringing him up D 159
about lily and the D 158
about gangs and the D 158
about from inn to D 158
about bringing this up D 158
above camp with the D 156
about mike and me D 156
about leaving him on D 156
about fees for the D 156
about their ears so D 155
about noon and it D 154
about having met me D 154
about their art as D 153
about noon that he D 152
about fixing them is D 152
above mingling with the D 150
about rick and the D 150
about leaving them on D 150
abler pens than my D 149
above dose may be D 148
about pets and the D 148
about pays for the D 147
about their ears is D 146
about rape and to D 146
about hiring one of D 146
about having sex at D 146
abiding love for me D 146
abating only for the D 144
above your bed to D 142
about coping with an D 142
about bringing all of D 142
abiding rest for the D 142
about sealing off the D 140
about pope and the D 140
about bringing one of D 140
abate such use by D 140
about leaving all my D 138
abiding hope can it D 138
about what you re D 136
about leaving one of D 136
above sale for the D 134
about leaving all of D 134
about ford and the D 134
about bringing her up D 133
about media use in D 132
about leaving you on D 132
about leaving things to D 132
about hiring him to D 132
about your ears by D 130
about tearing out the D 130
about news and the D 130
about jazz for the D 130
abiding faith that if D 130
about their ears to D 128
about noon with my D 128
about noon and go D 128
about bringing off the D 128
abbot sent him to D 128
about wearing one of D 126
about drug use as D 126
about bringing them in D 125
about wine for the D 124
abiding love for my D 124
about your dad or D 122
about spying out the D 122
about rock art in D 122
about nick and me D 122
about cows and the D 122
above laws can be D 120
about wine than the D 120
about mama and me D 120
about fixing things up D 120
about dining out in D 120
about dating and the D 120
above laws for the D 118
about noon had the D 118
about milk for the D 118
about fees and the D 118
about bringing you to D 116
about wearing out the D 114
about opting for the D 114
about noon that so D 114
about mars than we D 114
abbot john and the D 114
about their ears the D 112
about race may be D 112
about fuel for the D 112
about clay and the D 112
abbey road for the D 112
above laws are so D 110
about rape can be D 110
about racing and the D 110
about race and in D 110
about leaving them at D 110
about gays and the D 110
about cars than he D 110
abiding word for us D 110
about shoes for the D 108
about race are the D 108
about having fun on D 108
about your dad in D 106
about wine than he D 106
about their own re D 106
about their ears of D 106
abbey were let at D 106
abbey seem all to D 106
abbey along with the D 106
about noon and by D 104
about leaving off the D 104
about leaping out of D 104
about corn and the D 104
abiding link with the D 104
about guys who do D 102
abide there with thy D 102
about their ears at D 100
about posing for the D 100
about oral sex is D 100
about noon near the D 100
about leaving him or D 100
about dusk and the D 100
about bringing her in D 100
abate their zeal in D 100
about your car to D 98
about some guy he D 98
about race for the D 98
about leaving things in D 98
abate nothing for the D 98
abuts upon one or D 96
about soul and the D 96
about gold had to D 96
about fixing him up D 96
about coal and the D 96
abbot took him to D 96
about what fun we D 94
about tort law in D 94
about race are so D 94
about from leaf to D 94
about cape fear to D 94
about camp and the D 94
about from lap to D 92
about bats and the D 92
about urging him to D 90
about john going to D 90
about bringing things to D 90
about bringing any of D 90
about bread and the D 90
abiding truth that the D 90
above your bed or D 88
above laws are the D 88
about their art of D 88
about kyle and the D 88
about from car to D 88
abiding till god in D 88
above tide and the D 86
about wheat and the D 86
about what fun the D 86
about their gay or D 86
about noon with an D 86
about fixing her up D 86
about cars than the D 86
about beer and the D 86
about your ears or D 84
about your ears at D 84
about your car is D 84
about voting for or D 84
about ruling out the D 84
about race with the D 84
about oral sex or D 84
about hiring you to D 84
about dusk and we D 84
about bringing out an D 84
about bread for the D 84
about boxing and the D 84
about their art to D 82
about spying for the D 82
about spin out in D 82
about posing for me D 82
about john that is D 82
about guns and he D 82
about bees and the D 82
abiding home for the D 82
abbot said that it D 82
about toying with the D 80
about tony and of D 80
about their sex or D 80
abiding here for me D 80
abiding hate for the D 80
abbey road was the D 56
above were met by D 46
about bringing you up D 45
about fixing you up D 44
about your ears as D 43
about noon and as D 43
abbey there was no D 41
about wearing them in D 40
about safe sex as D 40
