us out of a M 23816
us all in a M 20120
us that in a M 14984
us that if a M 12884
us all to a M 11716
us that as a M 9508
us this is a M 6858
us off to a M 6084
us are in a M 5904
us all as a M 5742
us set up a M 5510
us out to a M 4940
us that at a M 4766
us all of a M 4652
us not as a M 4572
us off on a M 4072
us one at a M 3944
us out in a M 3908
us and in a M 3882
us both in a M 3808
us out on a M 3732
us all on a M 3568
us was in a M 3150
us can be a M 2952
us may be a M 2890
us now as a M 2884
us off in a M 2802
us off at a M 2614
us that on a M 2258
us and is a M 2170
us both to a M 2060
us with is a M 1988
us are of a M 1988
us both as a M 1972
us sat in a M 1954
us see if i M 1896
us that is a M 1848
us and as a M 1794
us now in a M 1646
us out as a M 1594
us now is a M 1562
us now go a M 1504
us put up a M 1494
us put on a M 1456
us see in a M 1438
us all at a M 1402
us see if a M 1394
us and be a M 1390
us now to a M 1358
us both if i M 1316
us say in a M 1300
us but as a M 1296
us can do a M 1264
us was of a M 1254
us who is a M 1244
us say of a M 1180
us not to a M 1144
us put in a M 1140
us are on a M 1078
us all is a M 1066
us sit in a M 1036
us sat at a M 1036
us are at a M 1020
us all if i M 1016
us that if i M 1000
us but in a M 992
us out at a M 982
us say as a M 952
us and so i M 946
us all by a M 940
us she is a M 860
us get up a M 838
us act in a M 828
us and to a M 826
us sat on a M 818
us this in a M 784
us not in a M 780
us how as a M 776
us that by a M 770
us and as i M 770
us that to a M 712
us and at a M 708
us that of a M 692
us out by a M 668
us going to a M 664
us each to a M 648
us being in a M 648
us off as a M 620
us use as a M 592
us both on a M 572
us get to a M 566
us but by a M 546
us and if i M 536
us not by a M 530
us all up a M 520
us then to a M 484
us then as a M 484
us sit on a M 466
us get on a M 454
us going in a M 442
us say by a M 436
us was on a M 424
us end on a M 424
us this as a M 420
us now do a M 420
us but to a M 418
us say to a M 412
us say at a M 406
us not be a M 406
us that the a M 404
us get in a M 404
us near to a M 388
us bring to a M 388
us how in a M 372
us got in a M 368
us one of a M 366
us and do a M 366
us see at a M 364
us was at a M 358
us but is a M 352
us both at a M 352
us and by a M 346
us are to a M 338
us and on a M 332
us say on a M 324
us due to a M 322
us aim at a M 322
us than in a M 316
us going on a M 316
us each in a M 316
us than as a M 306
us both of a M 304
us going at a M 300
us sit at a M 298
us fix on a M 284
us lay in a M 282
us than to a M 278
us and of a M 276
us god as a M 272
us bring in a M 270
us too in a M 266
us now on a M 264
us not of a M 264
us both as i M 262
us that the t M 261
us then in a M 260
us how on a M 246
us with an a M 243
us god is a M 242
us two at a M 240
us all as i M 238
us got on a M 236
us see as a M 228
us die in a M 228
us man as a M 226
us led to a M 226
us man in a M 224
us has to a M 222
us goes to a M 220
us then is a M 216
us and it a M 216
us one in a M 214
us now of a M 214
us with as a M 212
us who in a M 212
us now by a M 212
us two in a M 208
us off by a M 204
us both by a M 204
us try in a M 198
us all if a M 192
us led by a M 190
us but at a M 190
us that the i M 185
us all be a M 181
us was as a M 178
us owing to a M 178
us cling to a M 178
us now be a M 176
us men as a M 176
us ease at a M 176
us too of a M 174
us far as i M 174
us has as a M 170
us mean by a M 168
us act as a M 168
us two is a M 166
us got up a M 164
us both up a M 164
us are as a M 164
us who do a M 160
us how at a M 160
us had in a M 160
us can go a M 160
us two of a M 154
us two as a M 154
us put it a M 152
us things in a M 150
us sit up a M 150
us men of a M 146
us and we a M 146
us with in a M 144
us going as a M 144
us being on a M 144
us had on a M 142
us add as a M 142
us try it a M 140
us men in a M 136
us death is a M 136
us that the s M 134
us yet in a M 132
us lying in a M 128
us all do a M 126
us has in a M 124
us out if i M 122
us lying on a M 122
us can in a M 122
us than of a M 118
us sum up a M 118
us one as a M 118
us far in a M 118
us add to a M 116
us try as a M 112
us too as a M 112
us lie on a M 112
us for is a M 112
us use on a M 110
us lead to a M 108
us was to a M 106
us than is a M 106
us sit by a M 106
us set in a M 106
us but as i M 104
us that if s M 103
us then of a M 102
us with the a M 101
us thus in a M 100
us bring up a M 100
us too is a M 98
us doing in a M 98
us and if a M 98
us each on a M 96
us but on a M 96
us earn in a M 94
us dead in a M 94
us ask if a M 94
us may in a M 92
us lie in a M 92
us why in a M 88
us than by a M 88
us see is a M 88
us now at a M 86
us act on a M 86
us try by a M 84
us may do a M 84
us get at a M 84
us but of a M 84
us than if i M 82
us long as a M 82
us fix up a M 82
us both is a M 82
us saw as a M 80
us not on a M 80
us got to a M 80
us that the d M 43
us met in a D 514
us met at a D 332
us met on a D 86
