us take a brief M 14565
us into a world M 12569
us into a state M 10805
us into a small M 7866
us into a large M 7832
us into a false M 5418
us take a quick M 4694
us like a cloud M 3536
us take a short M 3260
us take a close M 3134
us have a brief M 2508
us make a brief M 2467
us only a short M 2416
us into a sense M 2282
us from a state M 2257
us from a world M 2241
us only a small M 2078
us into a place M 1966
us like a mother M 1949
us into a field M 1924
us have a right M 1896
us like a father M 1877
us give a brief M 1808
us find a place M 1776
us over a period M 1752
us have a strong M 1666
us make a start M 1509
us take a small M 1502
us such a sense M 1418
us have a quick M 1342
us like a storm M 1322
us have a sense M 1296
us into a blind M 1242
us into a whole M 1212
us have a quiet M 1196
us into a train M 1182
us from a small M 1168
us take a hasty M 1110
us like a black M 1106
us make a short M 1000
us from a sense M 994
us like a bunch M 986
us take a piece M 956
us from a place M 926
us such a trick M 910
us like a river M 898
us into a short M 862
us wait a while M 860
us have a close M 858
us into a right M 854
us from a period M 854
us feel a sense M 840
us have a share M 836
us into a house M 826
us from a large M 810
us into a wider M 794
us from a point M 783
us such a vivid M 782
us take a point M 753
us take a final M 744
us take a group M 728
us into a group M 724
us take a nearer M 722
us like a vision M 716
us into a study M 716
us like a child M 713
us into a panic M 710
us into a fight M 699
us into a period M 688
us like a large M 686
us have a large M 666
us have a short M 654
us make a small M 652
us rest a while M 648
us make a rough M 640
us like a white M 636
us have a feeling M 636
us have a place M 628
us make a quick M 614
us into a feeling M 604
us make a stand M 601
us only a rough M 600
us only a brief M 600
us into a quiet M 600
us from a nearby M 600
us into a people M 584
us into a rather M 576
us into a sitting M 566
us into a worse M 542
us give a short M 542
us from a study M 524
us into a close M 522
us have a small M 516
us make a final M 510
us like a small M 502
us from a false M 500
us down a blind M 498
us make a point M 487
us take a rather M 482
us from a lower M 482
us down a steep M 481
us into a moral M 472
us take a wider M 466
us like a green M 466
us such a short M 460
us have a meeting M 458
us call a truce M 450
us into a space M 449
us such a feeling M 448
us only a vague M 446
us like a stream M 444
us take a stand M 443
us into a tight M 440
us have a basic M 430
us from a woman M 430
us like a cloak M 428
us into a major M 428
us such a strong M 426
us have a story M 423
us into a waiting M 414
us from a house M 412
us have a vague M 406
us cast a brief M 406
us from a worse M 394
us have a habit M 390
us like a piece M 384
us into a still M 383
us make a change M 378
us during a visit M 378
us have a change M 368
us into a drawing M 363
us into a happy M 362
us when i first M 360
us like a human M 360
us such a scare M 354
us make a study M 354
us take a large M 352
us like a solid M 352
us have a party M 352
us like a light M 340
us half a crown M 340
us such a large M 338
us into a civil M 336
us down a short M 330
us take a parting M 328
us over a small M 324
us made a sound M 324
us keep a sense M 324
us have a final M 320
us make a human M 316
us like a voice M 314
us like a strong M 312
us have a truce M 312
us from a short M 312
us into a story M 310
us into a kingdom M 310
us such a happy M 306
us reach a point M 306
us into a search M 306
us into a nearby M 306
us upon a point M 304
us take a white M 304
us have a light M 300
us from a later M 298
us from a final M 298
us like a woman M 294
us into a lodge M 294
us when a child M 290
us take a first M 290
us find a house M 290
us take a passing M 288
us take a longer M 287
us into a brief M 287
us take a given M 286
us also a large M 286
us make a table M 285
us during a period M 284
us what a woman M 282
us stop a while M 281
us when i could M 280
us what a given M 278
us like a tiger M 278
us like a curse M 278
us even a small M 278
us feel a strong M 276
us into a bunch M 274
us stay a while M 272
us from a moral M 270
us such a story M 268
us gain a sense M 268
us such a world M 267
us like a magic M 265
us have a built M 265
us make a class M 264
us from a group M 264
us like a queen M 258
us into a noble M 258
us over a large M 256
us into a quite M 256
us from a whole M 256
us such a state M 255
us take a still M 254
us from a people M 252
us have a piece M 248
us have a touch M 244
us have a grand M 244
us from a close M 243
us into a grand M 242
us have a whole M 242
us back a sense M 242
us from a danger M 240
us tell a story M 238
us have a vision M 238
us from a given M 236
us take a drive M 234
us take a child M 234
us have a rather M 234
us like a hungry M 232
us like a house M 232
us from a fixed M 230
us find a quiet M 230
us have a house M 228
us such a noble M 226
us many a laugh M 224
us over a rough M 222
us into a first M 222
us into a black M 222
us what a human M 220
us have a child M 219
us what a false M 218
us just a short M 218
us into a frame M 216
us into a steep M 211
us have a voice M 210
us felt a sense M 210
us many a story M 208
us like a world M 208
us have a healthy M 208
us down a winding M 208
us make a place M 206
us into a class M 206
us from a local M 206
us from a total M 205
us made a point M 202
us into a truly M 200
us into a human M 200
us from a sound M 200
us such a leader M 198
us make a night M 198
us when i asked M 196
us many a worthy M 196
us into a unity M 196
us having a child M 196
us what a child M 194
us upon a piece M 194
us into a pleasing M 194
us from a strong M 194
us make a large M 192
us have a reply M 192
us such a favor M 190
us make a chair M 190
us like a train M 190
us have a table M 190
us into a wealthy M 188
us into a brave M 188
us make a match M 186
us have a moral M 186
us were a group M 184
us such a vision M 184
us into a meeting M 184
us take a plain M 183
us into a river M 182
us hope i shall M 182
us cast a hasty M 182
us make a first M 180
us into a final M 180
us have a happy M 180
us have a drive M 180
us take a quiet M 178
us such a notion M 178
us into a danger M 178
us have a rough M 178
us what a short M 176
us talk a while M 176
us take a class M 176
us such a power M 176
us sign a paper M 176
us make a strong M 176
us have a fight M 176
us such a right M 174
us into a strong M 174
us into a notion M 174
us from a civil M 174
us along a trail M 174
us make a close M 172
us into a green M 172
us make a sound M 171
us into a lower M 170
us into a lengthy M 170
us from a rather M 170
us down a false M 170
us what a grand M 168
us take a plane M 168
us have a really M 168
us take a value M 166
us from a major M 166
us down a trail M 166
us down a small M 166
us have a plain M 165
us what a small M 164
us take a strong M 164
us such a small M 164
us like a demon M 164
us from a human M 164
us upon a cross M 162
us play a trick M 162
us from a first M 162
us into a dimly M 161
us have a world M 161
us have a reason M 160
us when a given M 158
us upon a quite M 158
us turn a blind M 158
us such a grand M 158
us into a total M 158
us from a focus M 158
us down a whole M 158
us along a winding M 158
us along a track M 158
us have a fixed M 157
us into a white M 156
us into a solid M 156
us into a really M 156
us from a feeling M 156
us take a mixed M 154
us make a noise M 154
us made a shift M 154
us held a meeting M 154
us from a table M 154
us past a small M 152
us make a search M 152
us from a nasty M 152
us such a mother M 151
us only a sense M 150
us cast a quick M 150
us what a strong M 148
us think a while M 148
us make a truce M 148
us along a given M 148
us such a burning M 147
us what a large M 146
us back a whole M 146
us have a vital M 144
us have a notion M 144
us have a first M 144
us have a check M 144
us into a plain M 143
us into a later M 143
us have a round M 143
us were a bunch M 142
us such a sweet M 142
us only a first M 142
us linger a while M 142
us from a piece M 142
us like a slave M 140
us like a happy M 140
us like a model M 138
us into a sweet M 138
us into a chaos M 138
us have a tough M 138
us show a worse M 136
us make a model M 136
us like a crowd M 136
us heard a voice M 135
us make a party M 134
us make a habit M 134
us into a magic M 134
us into a cycle M 134
us call a meeting M 134
us make a total M 133
us from a brief M 133
us take a share M 132
us seek a place M 132
us into a vision M 132
us from a plane M 132
us feel a whole M 132
us like a force M 131
us past a large M 130
us like a story M 129
us have a working M 129
us hold a meeting M 128
us give a truer M 128
us from a cruel M 128
us from a blind M 128
us draw a small M 128
us leave a while M 127
us take a whole M 126
us such a chase M 126
us pass a plane M 126
us make a hasty M 126
us like a blind M 126
us keep a close M 126
us upon a false M 124
us take a cross M 124
us into a never M 124
us into a change M 124
us have a false M 124
us from a night M 123
us only a false M 122
us need a place M 122
us into a hasty M 122
us from a field M 122
us find a sense M 122
us note a point M 120
us like a nurse M 120
us draw a graph M 120
us only a passing M 119
us what a really M 118
us such a proof M 118
us lend a helping M 118
us when i began M 116
us till i could M 116
us such a change M 116
us need a sense M 116
us like a field M 116
us into a thinking M 116
us from a visit M 116
us like a shell M 115
us such a piece M 114
us only a fixed M 114
us many a noble M 114
us make a heaven M 114
us during a rough M 114
us into a chain M 113
us have a crack M 113
us from a paper M 113
us upon a small M 112
us take a lower M 112
us into a deadly M 112
us give a quick M 112
us from a worthy M 112
us make a joint M 110
us like a chain M 110
us into a denial M 110
us from a still M 110
us during a meeting M 110
us what a change M 108
us such a pleasing M 108
us only a piece M 108
us many a night M 108
us into a stream M 108
us into a party M 108
us into a burning M 108
us draw a plane M 108
us take a train M 106
us such a place M 106
us such a night M 106
us like a sweet M 106
us into a phase M 106
us have a match M 106
us make a cross M 105
us into a front M 105
us when i found M 104
us what a noble M 104
us over a black M 104
us like a habit M 104
us find a small M 104
us back a short M 104
us what a world M 103
us into a holding M 103
us take a watch M 102
us only a rather M 102
us make a guess M 102
us just a small M 102
us into a nearer M 102
us into a light M 102
us when a small M 100
us what a group M 100
us what a bunch M 100
us take a round M 100
us such a share M 100
us like a devil M 100
us give a rough M 100
us from a vague M 100
us from a storm M 100
us from a cloud M 100
us when i wrote M 98
us when a woman M 98
us what a truly M 98
us take a woman M 98
us like a falling M 98
us like a deadly M 98
us have a sweet M 98
us have a blind M 98
us form a habit M 98
us call a state M 98
us like a stage M 97
us take a story M 96
us take a quite M 96
us such a cloud M 96
us onto a train M 96
us love a woman M 96
us into a force M 96
us have a major M 96
us give a loose M 96
us from a black M 96
us take a model M 94
us take a block M 94
us make a shift M 94
us make a house M 94
us into a storm M 94
us have a class M 94
us from a party M 94
us felt a strong M 94
us during a whole M 94
us such a royal M 93
us from a right M 93
us make a graph M 92
us like a plain M 92
us like a newly M 92
us into a fourth M 92
us along a small M 92
us over a plain M 91
us such a reason M 90
us over a rather M 90
us made a noise M 90
us like a grand M 90
us lies a world M 90
us kids a sense M 90
us have a point M 90
us from a steady M 90
us from a model M 90
us from a father M 90
us heard a sound M 89
us what a piece M 88
us take a later M 88
us over a steep M 88
us make a visit M 88
us have a joint M 88
us from a share M 88
us form a group M 88
us having a right M 87
us what a happy M 86
us take a state M 86
us such a house M 86
us such a crime M 86
us only a night M 86
us only a feeling M 86
us make a right M 86
us like a virus M 86
us like a burst M 86
us into a poetic M 86
us into a habit M 86
us from a notion M 86
us take a table M 84
us take a rough M 84
us such a model M 84
us over a river M 84
us like a globe M 84
us keep a steady M 84
us join a party M 84
us into a rough M 84
us into a power M 84
us into a piece M 84
us into a legal M 84
us have a vivid M 84
us have a truly M 84
us hangs a large M 84
us from a naive M 84
us from a meeting M 84
us feel a vague M 84
us cast a final M 84
us such a crowd M 82
us many a happy M 82
us like a wound M 82
us like a quiet M 82
us into a sleep M 82
us into a night M 82
us from a healthy M 82
us during a short M 82
us buying a house M 82
us worth a longer M 80
us take a night M 80
us quit a field M 80
us make a rather M 80
us made a quick M 80
us like a growing M 80
us into a vital M 80
us from a stage M 80
us from a crowd M 80
us from a drawing M 77
us like a burning M 57
us from a burning M 50
us like a night M 49
us into a stage M 49
us have a field M 49
us like a floor M 46
us into a clearing M 45
us give a passing M 45
us take a human M 44
us from a passing M 44
us make a round M 42
us into a working M 42
us from a cross M 42
us like a water M 40
us into a region D 3130
us into a nation D 2839
us like a flood D 2748
us half a dozen D 2538
us have a drink D 1874
us take a rapid D 1396
us like a flash D 1224
us like a swarm D 1128
us have a glass D 1094
us like a flock D 1018
us take a glass D 981
us call a spade D 888
us take a drink D 880
us like a ghost D 876
us into a fatal D 836
us into a ditch D 820
us take a fresh D 818
us have a stake D 794
us like a tidal D 757
us make a fresh D 746
us like a stone D 726
us have a dance D 716
us into a hotel D 654
us like a knife D 642
us like a flame D 642
us like a sword D 618
us make a breach D 578
us cast a rapid D 568
us into a social D 544
us only a faint D 528
us like a leech D 496
us into a broad D 478
us like a sheet D 464
us like a snake D 460
us upon a level D 436
us into a fresh D 426
us into a rigid D 424
us make a rapid D 418
us have a social D 416
us from a nation D 415
us into a scene D 410
us have a scene D 410
us have a taste D 406
us like a fairy D 397
us into a snare D 396
us like a glove D 392
us take a broad D 390
us like a spell D 376
us make a treaty D 374
us like a blast D 364
us into a swamp D 352
us paid a visit D 348
us like a scene D 320
us over a cliff D 312
us like a streak D 306
us like a comet D 306
us from a lofty D 282
us into a dense D 280
us have a merry D 275
us into a court D 271
us such a dance D 270
us like a beacon D 268
us into a fever D 268
us like a chasm D 264
us into a truck D 263
us over a glass D 260
us from a region D 258
us have a fresh D 256
us such a scene D 250
us like a horse D 248
us what i would D 246
us like a roaring D 231
us from a scene D 230
us have a toast D 226
us such a shock D 222
us from a score D 222
us like a lover D 218
us only a swift D 216
us like a meteor D 214
us into a motel D 210
us like a fresh D 206
us have a sight D 202
us what a nation D 200
us have a smoke D 200
us take a swift D 196
us like a wedge D 196
us give a rapid D 192
us have a sneaking D 189
us keep a sharp D 188
us having a drink D 186
us upon a footing D 180
us like a dense D 180
us like a brick D 180
us into a tower D 178
us from a dozen D 178
us make a merry D 176
us into a tangle D 176
us from a fatal D 176
us like a smooth D 174
us from a level D 173
us many a hearty D 172
us like a broad D 170
us into a purer D 168
us make a league D 164
us into a dungeon D 164
us have a jolly D 164
us like a raven D 162
us like a puppy D 160
us into a treaty D 160
us into a parking D 160
us into a dirty D 160
us down a notch D 160
us into a level D 159
us take a grain D 154
us into a league D 154
us like a fiend D 152
us over a ridge D 150
us like a mouse D 150
us into a lofty D 150
us such a glowing D 149
us were a dozen D 148
us took a small D 148
us such a sight D 146
us into a suite D 146
us from a social D 146
us throw a hasty D 144
us like a shining D 142
us half a pound D 140
us like a fiery D 139
us take a genus D 138
us over a dozen D 136
us like a sharp D 134
us have a smell D 134
us have a horse D 134
us half a league D 134
us from a ridge D 134
us make a lever D 132
us into a brand D 131
us over a chart D 130
us make a wager D 130
us into a myriad D 130
us have a broad D 130
us take a sober D 128
us into a paved D 128
us took a short D 126
us like a shock D 126
us over a broad D 124
us into a salon D 124
us have a spice D 124
us take a dozen D 122
us like a leper D 122
us have a frank D 122
us like a spark D 120
us into a sharp D 120
us down a slope D 120
us took a piece D 118
us take a scene D 118
us into a stone D 118
us have a wager D 118
us form a league D 118
us draw a curve D 118
us take a metal D 116
us such a hearty D 116
us make a broad D 116
us have a treaty D 116
us have a streak D 116
us into a fairy D 115
us took a train D 114
us make a tower D 114
us make a foray D 114
us like a witch D 114
us like a fever D 114
us just a taste D 114
us from a clump D 114
us such a jolly D 112
us have a suite D 112
us have a cigar D 112
us from a fresh D 112
us came a shout D 112
us over a level D 110
us like a tonic D 110
us like a cliff D 110
us moving a flock D 106
us like a crazy D 106
us into a studio D 106
us into a jungle D 106
us from a ceiling D 106
us take a plate D 104
us from a stone D 104
us only a crude D 103
us steal a march D 102
us like a looping D 102
us like a hound D 102
us have a penny D 102
us such a flood D 101
us went a fishing D 100
us throw a rapid D 100
us such a thrill D 100
us such a fresh D 100
us over a rocky D 100
us like a drill D 100
us into a patch D 100
us wearing a white D 98
us make a toast D 98
us like a bland D 98
us have a dozen D 98
us sign a treaty D 96
us into a horse D 96
us into a grove D 96
us from a ledge D 96
us find a shady D 96
us plot a graph D 94
us over a drink D 94
us like a noose D 94
us like a feather D 94
us into a sandy D 94
us into a fiery D 94
us into a creek D 94
us upon a treaty D 92
us such a merry D 92
us like a movie D 92
us from a flood D 91
us many a merry D 90
us like a blank D 90
us from a trade D 90
us half a sheep D 88
us into a hearty D 87
us when i fired D 86
us take a knife D 86
us such a treaty D 86
us rose a steep D 86
us like a glass D 86
us like a blade D 86
us into a rhythm D 86
us into a comer D 86
us half a grain D 86
us take a sheet D 84
us like a dirty D 84
us into a tizzy D 84
us from a hovel D 84
us even a stone D 84
us like a steel D 83
us till a smart D 82
us rose a smooth D 82
us like a swift D 82
us into a muddy D 82
us throw a light D 81
us took a woman D 80
us onto a truck D 80
us like a finer D 80
us into a dreary D 80
us into a brick D 80
us back a dozen D 80
us along a broad D 80
us just a teeny D 56
us into a grave D 54
us into a novel D 50
us from a roman D 47
us make a crude D 42
us into a trade D 40
