use , " he M 31367
use , " the M 14124
use , " in M 9322
use , " as M 5730
use , " or M 4179
use : " the M 3940
use , " it M 2553
use , " is M 2176
use , " to M 1773
use , " by M 1731
use , " we M 1324
use : " it M 1105
use , " so M 899
using , " he M 859
use : " we M 764
use : " if M 711
use , " if M 612
use : " in M 544
use , " of M 510
use : " he M 476
use , " an M 468
use : " to M 447
use , " on M 360
using , " the M 316
use , " my M 280
use , " at M 242
use : " as M 236
use , " id M 231
using , " or M 192
use : " do M 186
use , " no M 164
use : " my M 120
using , " as M 118
use : " on M 114
use : " at M 107
use , " do M 104
use , " am M 104
using : " the M 92
use : " no M 90
use : " an M 85
use : " by M 56
use : " oh M 50
