used instead of a M 94009
used merely as a M 30107
used mainly as a M 24900
used simply as a M 19287
used solely as a M 12294
user clicks on a M 11548
used widely as a M 9847
used mostly as a M 7194
used except as a M 5178
user access to a M 4048
used purely as a M 4018
used should be a M 3844
used almost as a M 3810
used except in a M 2506
used instead as a M 2020
used freely as a M 1396
used mainly in a M 1284
uses nature as a M 1255
user belongs to a M 1166
used before in a M 1034
used widely in a M 1012
used before as a M 997
used earlier as a M 996
used safely as a M 974
used nature as a M 850
used measure of a M 845
used instead of t M 841
used earlier in a M 840
used mostly in a M 826
used instead of i M 811
used inside of a M 754
used safely in a M 734
user points to a M 722
used merely in a M 714
used solely in a M 710
user clicking on a M 678
used except by a M 673
used instead of d M 662
used gender as a M 621
used instead of s M 597
uses advice in a M 526
used itself as a M 514
used neither as a M 505
used fiction as a M 496
user clicks in a M 480
used herein as a M 478
user should be a M 438
used myself as a M 438
uses gender as a M 421
user enters in a M 416
used freely in a M 416
used prayer as a M 410
uses energy at a M 393
used wholly as a M 382
uses itself as a M 372
used except on a M 356
used result in a M 336
uses fiction as a M 327
used always as a M 326
used further as a M 316
uses instead of a M 313
used mainly by a M 308
user groups in a M 302
used values of a M 296
uses another as a M 286
used herein is a M 284
uses memory as a M 282
used system is a M 277
user points at a M 272
used purely in a M 268
uses speech as a M 262
user rights to a M 258
used always in a M 253
used heavily as a M 252
user instead of a M 244
used serves as a M 244
used rarely as a M 240
used instead in a M 238
user actions in a M 234
used solely by a M 232
used abroad as a M 232
used simply in a M 227
used colour as a M 227
user belonging to a M 224
used widely by a M 220
used depend on a M 216
user groups as a M 212
used safely on a M 204
used already in a M 202
user modeling in a M 200
used wholly in a M 200
uses images of a M 194
used depend to a M 190
used almost in a M 189
used direct as a M 188
user groups is a M 182
used therein as a M 180
user groups on a M 178
user builds up a M 174
uses prayer as a M 172
used murder as a M 172
used mainly on a M 172
user engages in a M 166
used before on a M 165
uses reality as a M 161
used belongs to a M 160
uses something of a M 158
user system or a M 158
used openly as a M 156
used colour in a M 156
user changes to a M 154
used images of a M 150
used except at a M 150
user object is a M 146
used solely on a M 146
used mostly by a M 146
used except to a M 146
used before by a M 146
used another as a M 142
user engaged in a M 140
used already as a M 138
user system is a M 134
used speech as a M 133
used widely on a M 132
used disease as a M 132
used credit as a M 131
used earlier by a M 128
used measure is a M 127
user relies on a M 126
uses colour as a M 123
used instead is a M 120
uses thought as a M 118
user manual is a M 118
user training is a M 116
user access on a M 116
uses travel as a M 115
uses should be a M 114
user starts up a M 114
used school as a M 114
used points to a M 114
used except of a M 114
used before as i M 111
user spends on a M 110
used travel as a M 110
user reaction to a M 108
user passes in a M 108
user access in a M 108
used herein in a M 108
used version of a M 106
used abroad to a M 106
uses matter as a M 104
user actions on a M 104
used wisely as a M 104
used safely by a M 104
used reform as a M 104
used memory as a M 104
user system to a M 102
user charge is a M 102
user enters on a M 100
used modeling as a M 100
used heavily in a M 100
used ground as a M 100
used freely by a M 100
uses images in a M 98
user groups of a M 98
used mostly on a M 98
used amount to a M 96
uses energy in a M 93
user rights on a M 92
uses merely as a M 91
uses simply as a M 89
uses colour in a M 89
used source is a M 89
used served as a M 88
used clothes as a M 87
used training as a M 85
uses something as a M 84
used indeed in a M 84
used images in a M 84
used further in a M 84
used before to a M 84
user appears as a M 82
used something of a M 82
used something in a M 82
used earlier is a M 82
used abroad in a M 82
uses almost as a M 80
user access at a M 80
used wrongly as a M 80
used relies on a M 80
used planning as a M 54
uses except as a M 52
used colors in a M 42
used family as a M 41
used partly as a D 3658
used refers to a D 730
used terror as a D 659
used orally as a D 632
user refers to a D 538
used sports as a D 421
used device is a D 394
used painting as a D 303
used orally in a D 302
used french as a D 230
used satire as a D 228
used liquor as a D 222
uses terror as a D 210
used silver as a D 208
used racism as a D 207
used portion of a D 189
used readily as a D 186
used partly in a D 186
uses oxygen as a D 178
used garlic as a D 170
used cattle as a D 169
uses comedy as a D 168
used comedy as a D 160
used condom in a D 155
used butter as a D 154
uses parody as a D 148
uses ammonia as a D 148
uses oxygen at a D 145
used ammonia as a D 140
used peyote as a D 139
used income as a D 139
used fashion as a D 134
used spanking as a D 132
used panama as a D 132
uses satire as a D 127
used horses as a D 119
used parody as a D 118
used copper as a D 118
used drawings as a D 116
uses painting as a D 113
uses income as a D 112
uses helium as a D 112
user session on a D 110
uses sports as a D 109
used turkey as a D 109
user portion of a D 108
used cinema as a D 108
uses peyote as a D 106
used terror on a D 102
used lazily as a D 102
used famine as a D 100
used realism as a D 96
uses silver as a D 94
used hamlet as a D 94
user inputs to a D 92
used helium as a D 92
used peyote in a D 90
used heroin on a D 90
used heroin as a D 90
used incest as a D 86
uses copper as a D 85
user session in a D 84
used device of a D 66
used drinking as a D 54
used ritual as a D 41
used flight as a D 41
uses refers to a D 40
used oxygen as a D 40
