odds of any one M 604
odds he does not M 514
odds in men and M 470
odds of his being M 386
odds of not being M 364
odds of any man M 344
odds of that are M 336
odds on that one M 299
odds of men and M 274
odds of death for M 258
odds of her being M 254
odds in his own M 224
odds of this being M 212
odds of you being M 204
odds of two and M 190
odds of any two M 190
odds of this are M 188
odds on how long M 186
odds of them being M 172
odds of its being M 166
odds on this one M 157
odds of him being M 156
odds so that they M 152
odds of death and M 152
odds of dying for M 150
odds of dying are M 150
odds of his own M 148
odds as they are M 146
odds on that you M 140
odds of our being M 134
odds if you are M 134
odds on her being M 128
odds in his head M 124
odds on its being M 122
odds of that being M 122
odds of death are M 120
odds in this way M 120
odds to his own M 116
odds on his own M 114
odds of one man M 110
odds of heat and M 110
odds on any one M 105
odds on his being M 102
odds as her own M 100
odds as they had M 98
odds on that are M 96
odds to win his M 92
odds he did not M 92
odds we can get M 90
odds if you can M 86
odds of doing this M 84
odds if they are M 84
odds in war are M 82
odds on that they M 80
odor of death and D 1228
odor of its own D 1226
odor of his own D 1112
odor of oil and D 708
odor of earth and D 572
odor of death was D 564
odor of her own D 532
odor of tar and D 518
odor is that they D 498
odor of this gas D 460
odor of hay and D 456
odor of death that D 396
odds of being hit D 368
odor of this oil D 314
odor of tear gas D 280
odor of bay rum D 278
odor of rot and D 276
odor of gas and D 276
odor of age and D 268
odor of wax and D 266
odor of wet earth D 253
odes of that age D 238
odor of gas was D 234
odor of fear and D 232
odor so bad that D 230
odor of meat and D 200
odor of dead and D 184
odor of rum and D 180
odor of dead men D 176
odor of mud and D 164
odor of dung and D 152
odor is one that D 152
odor is but one D 152
odor of cow dung D 149
odor of man and D 148
odor of ham and D 148
odor of gun oil D 148
odes of his own D 145
odor of raw meat D 144
odor of men and D 144
odor of ink and D 144
odor of death hung D 142
odor of hot oil D 138
odor of that gas D 136
odor of things that D 133
odor of gin and D 130
odor if they are D 130
odor of wet dog D 128
odor of men who D 116
odor of old age D 110
odes of this poet D 110
odor of wet fur D 104
odor is not too D 100
odor he did not D 100
odor of leaf and D 98
odor of her sex D 98
odor of all that D 97
odor of any gas D 94
odor of them that D 84
odor of lye and D 82
odor of rot that D 52
