odious to all the D 2634
odious to him as D 1479
odium of being the D 1412
odious to them as D 1191
odious as that of D 1152
odium of all the D 827
odious of all the D 608
odious to him in D 416
odious it was to D 384
odious to her to D 374
odors of all the D 352
odious as can be D 326
odious to men of D 308
odium of being an D 270
odious to him by D 246
odious to her as D 241
odious as was the D 236
odious he was to D 235
odious to him to D 228
odious to both the D 220
odium of doing so D 200
odious it may be D 200
odious to god as D 194
odious to them by D 184
odious it was in D 184
oddly to one of D 162
odious to you as D 160
odium on all the D 152
odious in all the D 134
odious to man as D 129
odium of being in D 128
odious of him to D 126
odors so that the D 116
odium of doing it D 106
oddly it was the D 102
odious to her by D 100
odors is due to D 98
odium of them to D 94
oddly in that of D 94
odium of being at D 88
odious to him on D 88
odious to see the D 86
odious to them in D 84
odious to all of D 84
odious to one as D 80
