dear a rate . M 4162
dead a week . M 994
dead a month . M 898
deal a blow . M 564
dear a rate ? M 422
dear a cost . M 393
dear a loss . M 368
deal i made . M 300
dear a loss ! M 271
death i seek . M 226
death i will . M 218
dead a week ! M 135
death a duty . M 134
death a birth . M 112
dead i think . M 112
deal i think . M 108
death a cold . M 96
death i wept . M 90
death i think . M 86
death a ruin . M 86
deal i make . M 82
dead i come . M 82
