deeper than that . M 59916
demand for them . M 54158
desire for her . M 24190
deeper than this . M 22280
desire for him . M 12235
desire for them . M 10028
design and use . M 8031
desire for god . M 7903
desire for death . M 5639
decide for them . M 5002
desire for war . M 4769
decide for you . M 4562
desire and fear . M 4486
desire for you . M 4064
decide for him . M 3540
demand for meat . M 3239
debate with him . M 3122
decide and act . M 3004
defend his own . M 2520
deeply for him . M 2062
defend her son . M 2008
deeply for her . M 1880
debate with them . M 1860
design for them . M 1642
desire for one . M 1620
deeply for you . M 1588
decade was out . M 1506
decide for her . M 1488
demand for war . M 1486
desire for men . M 1388
deeper than that ? M 1370
desire and death . M 1369
degree than men . M 1352
depart with him . M 1326
debate with you . M 1262
demand for them ? M 1153
deeply for them . M 1126
denied them all . M 982
demand his death . M 946
depart with them . M 897
design for you . M 892
define each one . M 890
demand for him . M 887
design for him . M 878
desire for her ? M 866
demand for men . M 858
demand was low . M 845
demand for one . M 823
deeply than that . M 820
devour them all . M 819
defied them all . M 806
demand for heat . M 782
defend our own . M 764
desire his death . M 755
devils are dying . M 726
desire for that . M 696
detail for you . M 690
denied his seat . M 690
detail with you . M 688
denied all this . M 682
detail with him . M 680
detail than this . M 680
deeper than long . M 656
deeper than his . M 654
detail than that . M 652
deeply than this . M 652
decide that now . M 644
demand its use . M 640
defend her own . M 616
debate with her . M 614
desire for things . M 610
demand and use . M 605
desire and joy . M 596
denied you not . M 590
desire for this . M 588
design for all . M 587
desire for meat . M 586
devise for them . M 580
demand for this . M 576
devils than men . M 572
demand for each . M 566
deeply and long . M 566
deeply for that . M 562
demand for both . M 558
defend his son . M 558
desire for you ? M 547
defend its own . M 534
desire for eating . M 528
devour them not . M 524
decide for you ? M 524
defend them all . M 522
detail with them . M 520
desire for him ? M 516
deciding for them . M 508
denied for long . M 506
demand for aid . M 506
desire for them ? M 496
denies all this . M 496
degree this year . M 492
deceit and lying . M 485
defeats them all . M 474
deeper than that ! M 472
design his own . M 456
devise for him . M 454
deeply with them . M 452
deciding for him . M 452
deeper than this ? M 442
deeper each day . M 440
detail them all . M 438
design for her . M 436
detail for them . M 434
desire for air . M 429
deciding and doing . M 420
denied him that . M 416
demand for that . M 416
depart with her . M 411
degree than man . M 410
decide all this ? M 408
desire for any . M 402
desire for god ? M 394
decide for god . M 394
demand was weak . M 392
delaying too long . M 392
denied his god . M 380
demand for air . M 380
deemed too low . M 380
depart with joy ? M 379
defend its use . M 374
decade with you . M 374
design with them . M 367
deeper each year . M 367
denied them both . M 364
decide that way . M 364
depart this earth . M 363
degree for that . M 358
deeply with him . M 358
deeper than death . M 354
demand his head . M 353
design and end . M 352
degree with him . M 350
decide for war . M 350
defend his men . M 348
devious than that . M 340
design does not . M 340
define this area . M 340
desire for joy . M 338
denied its use . M 338
design this day . M 326
deeply with you . M 326
define them all . M 324
degree they are . M 322
detail with her . M 320
delete them all . M 320
degree than this . M 320
decide and why ? M 318
devise his own . M 316
define our own . M 312
decaying and dying . M 311
detail but one . M 310
design for man . M 304
deeper with age . M 304
decide who won . M 304
desire and act . M 302
deeper than now . M 302
desire for you ! M 300
detail for him . M 298
denied too long . M 298
deepen with age . M 298
decent old age . M 296
defeats its end . M 295
degree each day . M 294
deeper than they . M 292
degree with them . M 290
degree each year . M 290
detect them all . M 288
desire that way . M 288
deemed his own . M 286
defend this man . M 282
debate thus far . M 280
demand his due . M 276
desire for being . M 274
degree than now . M 274
define for them . M 274
desire and aim . M 272
degree his own . M 272
desire for ease . M 270
demand this year . M 270
demand each year . M 270
degree that year . M 270
degree than they . M 270
define its use . M 270
define for you . M 270
defend him now . M 270
decide for them ? M 270
debate too far . M 268
demand for law . M 266
desire for both . M 264
defeating them all . M 262
deeply than men . M 262
degree they did . M 260
depart with you . M 258
delude them both . M 258
devils and men . M 256
desire with them . M 256
defend this area . M 252
desire them not . M 250
define his own . M 250
deeper than set . M 244
devour them both . M 242
denies them all . M 242
defend them both . M 242
defend his own ? M 242
decent for that . M 240
denied him now . M 238
design for each . M 235
decide for him ? M 234
demand for lead . M 231
deeply with her . M 230
deciding for you . M 230
decide this one . M 230
devils are dying ! M 228
deciding for her . M 228
debate with god . M 228
demand for her . M 227
design and why ? M 226
define and use . M 226
deemed him mad . M 226
demand for use . M 220
defend this man ? M 220
devils they are . M 219
desire with him . M 217
devour her son . M 216
deeper than fear . M 216
decide for all . M 216
devour you both ? M 214
detect his age . M 214
deduct each year . M 214
desire does not . M 212
deeply than they . M 212
desire for sin . M 211
debate this year . M 209
define old age . M 208
decent way out . M 208
depart with any . M 206
define for him . M 206
defend that area . M 206
defend his act . M 206
desire and ego . M 204
design for death . M 202
depart that day . M 201
decide two things . M 200
decent old man . M 198
deceit and death . M 198
define them both . M 196
degree for him . M 192
defend them now . M 192
detail you can . M 190
demand for you . M 190
design our own . M 189
defies them all . M 186
deceit and sin . M 186
design with him . M 183
desiring his death . M 182
defend his head . M 182
deeper one goes . M 182
design that way . M 178
degree for all . M 178
debate that day . M 178
desire and law . M 176
demise was near . M 176
demand its due . M 176
deeper than you . M 176
deemed him dead . M 176
decaying with age . M 176
defect for her . M 174
deemed too long . M 174
depend for aid . M 172
define them now . M 172
defend his seat . M 172
deeper for him . M 172
detect and fix . M 170
denied this man . M 170
denied that too . M 168
deeper than all . M 168
deemed his due . M 168
decide that one . M 168
design each year . M 166
design and act . M 166
denied her that . M 166
define them thus . M 166
decide all things . M 166
design and fit . M 165
deeper with god . M 165
devour its own . M 164
depart for war . M 164
decide for her ? M 164
desire with her . M 163
defies them all ! M 162
decade for him . M 162
denied him this . M 160
demand that key . M 160
defend his rear . M 160
denied this too . M 158
demand with them . M 158
demand his aid . M 158
deeper with him . M 158
decide this now . M 158
decide they are . M 158
decide all that . M 158
desire for death ? M 157
devise our own . M 156
demand for things . M 156
demand does not . M 156
devise for her . M 154
desire her death . M 154
degree her own . M 154
define our age . M 154
desire for man . M 151
devise its own . M 150
degree for you . M 150
degree and all . M 150
design for one . M 149
demand for all . M 149
design was not . M 148
depart his way . M 148
devout than men . M 146
desire nor fear . M 146
demise and death . M 146
devour all things . M 144
detail you see . M 144
desire his death ? M 144
denies his own . M 144
demand for pay . M 144
design her own . M 143
design for use . M 143
deeply his own . M 142
decide for one . M 142
devour you all . M 140
devise and use . M 140
degree are men . M 140
desire our own . M 139
design than this . M 139
depart with joy . M 138
demand was not . M 138
defining old age . M 138
defied him now . M 138
detail each year . M 136
denies his god . M 136
denied his due . M 136
demand for long . M 136
demand are low . M 136
defend with them . M 136
debate with him ? M 136
desire and fear ? M 134
design its own . M 134
denote them all . M 134
denied his own . M 134
demand her death . M 134
deeper than law . M 132
deduct this year . M 132
denote this set . M 131
detail for now . M 130
detail and that . M 130
desire that day . M 130
desire are one . M 130
desire and sin . M 130
define his being . M 130
deduce all this ? M 130
decent and fit . M 130
devils with him . M 129
depose and say . M 128
degree our own . M 128
degree for this . M 128
decide one way . M 128
design was his . M 126
denied all that . M 126
decide our being . M 126
depart not yet ! M 125
delays too long . M 125
devout old age . M 124
desire than this ? M 124
desire than men . M 124
design did not . M 124
design and use ? M 124
denied them now . M 124
define its own . M 124
deduce two things . M 124
desire for her ! M 122
deeper for that . M 122
decide this war . M 122
depart each day . M 121
devious and long . M 120
desiring her death . M 120
demand his own . M 120
degree than you . M 120
define this poet . M 120
define this idea . M 120
defend them with . M 120
design for this . M 119
degree does not . M 118
defied them both . M 118
decide that too . M 118
detail for each . M 116
design for that . M 116
denied than they . M 116
demand for them ! M 116
decide its use . M 116
desire for death ! M 114
degree with age . M 114
defend for him . M 114
decide them all . M 114
design they had . M 112
design cut out . M 112
denies that end . M 112
detail too long . M 110
detail thus far . M 110
demand for any . M 110
degree and way . M 110
design for you ? M 109
detail that day . M 108
desire him not . M 108
design and run . M 108
denied his plea . M 108
define its end . M 108
deeply each day . M 108
deeper than any . M 108
decide that day . M 108
decide for you ! M 108
devils they are ! M 107
design can not . M 106
defend this idea . M 106
defend him with . M 106
decide that yet . M 106
desire but one . M 105
devour his meal . M 104
desire for law . M 104
denied its own . M 104
denied its due . M 104
demand his pay . M 104
defect than that ? M 104
deeply for this . M 104
decide for that . M 104
debate was long . M 104
demand that year . M 103
demand and get . M 103
demand was this ? M 102
define his job . M 102
deeper with her . M 102
decide and act ? M 102
desire for aid . M 100
degree for both . M 100
defend his ego . M 100
deeper they are . M 100
desire for him ! M 99
design and aim . M 99
desire can not . M 98
desire and heat . M 98
design and cut . M 98
demand its death . M 98
defining his own . M 98
defend her son ? M 98
defend her now . M 98
defend her man . M 98
deeper than death ? M 98
decide this way . M 98
debate was going . M 98
devour our meal . M 96
denied doing this . M 96
degree they can . M 96
defining this area . M 96
deeply than you . M 96
deeper than joy . M 96
decent for you . M 96
defiant old man . M 94
detail than men . M 92
desire that end . M 92
design for both . M 92
decays with age . M 91
design was this . M 90
design was cut . M 90
depose her son . M 90
denies them both . M 90
denied his death . M 90
denied him both . M 90
degree too low . M 90
define any idea . M 90
decent that way . M 90
desire was real . M 88
demand and why ? M 88
degree than that . M 88
defining its own . M 88
define our being . M 88
deeply with god . M 88
design and age . M 87
devout old man . M 86
detect its use . M 86
desire for men ? M 86
demand new men . M 86
demand its aid . M 86
degree for them . M 86
define its path . M 86
defend that man . M 86
defeating them both . M 86
deeply our own . M 86
decade ago now . M 85
devils but men . M 84
detect her fear . M 84
define this way . M 84
defect and ill . M 84
decide and how ? M 84
debate for them . M 84
devour her meal . M 82
devising new things . M 82
devising his own . M 82
degree each way . M 82
define that area . M 82
defend all that ? M 82
deemed her dead . M 82
devious for that . M 80
detail them now . M 80
desire for war ? M 80
design was new . M 80
design and idea . M 80
denied his son . M 80
degree was not . M 80
deeply for her ? M 80
decent with them . M 80
design for men . M 55
debate with you ? M 55
design for them ? M 53
desire for all . M 49
desire than this . M 48
demand but this . M 46
defect with him . M 46
design you use . M 44
design this way . M 44
design thus far . M 43
decide that now ? M 43
design with you . M 42
desire cut off . M 41
demand two things . M 41
desire this war . M 40
desire this end . M 40
desire than that ? M 40
desire than that . M 40
desire for each . M 40
