decreases with age . M 27156
designed for them . M 18057
declines with age . M 16186
decisions for them . M 15648
decisions for you . M 11818
designed for him . M 7831
decreased with age . M 7286
decisions for him . M 7052
describe them all . M 6708
destined for him . M 5464
designed for you . M 4480
decisions for her . M 4398
declared for him . M 3782
designed for her . M 3717
designed that way . M 3678
destined for them . M 3588
declined with age . M 3178
declined them all . M 2660
describe each one . M 2419
destined for you . M 2048
designed for men . M 2000
develops with age . M 1998
destined for her . M 1980
demanded his death . M 1920
departed with them . M 1812
designed for this . M 1806
departed with him . M 1736
demanded for them . M 1714
devoured them all . M 1656
definite than that . M 1574
designed this way . M 1549
declared for war . M 1377
designed for that . M 1350
destined for death . M 1320
designed its use . M 1262
describe its use . M 1228
decreases with aging . M 1218
deducted each year . M 1201
decisions for you ? M 1072
designed for one . M 1054
despised them all . M 1050
decisive for him . M 1046
declared him dead . M 1022
destroys them all . M 1014
definite than this . M 1004
destroying them all . M 1000
demanded his head . M 998
departed long ago . M 966
deferred too long . M 966
designed for two . M 916
decreases each year . M 855
designed for use . M 834
develops this idea . M 816
decisions each day . M 794
deception and lying . M 750
declared for them . M 744
developing this idea . M 734
destroying them both . M 732
designed for man . M 728
departed this earth . M 724
deceived them all . M 714
decisions and act . M 688
declines with aging . M 683
detected this way . M 674
destroys them both . M 660
departed with her . M 654
designed for war . M 644
designed for all . M 644
deserved them all . M 640
deduction for them . M 632
decisions each year . M 620
decreased each year . M 608
declined each year . M 608
describe them both . M 572
definite and real . M 570
decisions for them ? M 570
despised old man . M 559
describe this man . M 553
deserved his death . M 552
declines each year . M 539
deceiver are his . M 520
decisions are easy . M 510
deduction each year . M 508
designed for them ? M 498
decisions with them . M 488
destroys all things . M 486
destined for man . M 486
decisions are not . M 484
demanded for him . M 482
developing its own . M 480
developing his own . M 478
designed for each . M 476
deceived any one . M 474
describing its use . M 468
decisions they did . M 462
describe them now . M 460
describe this man ? M 452
detected with ease . M 450
despised them both . M 440
declared for her . M 426
describe all this . M 424
designed them for . M 402
decisive than this . M 386
demanded one day . M 382
destined for this . M 380
deferred one year . M 377
deserved all this ? M 376
decisions for war . M 374
deserves them all . M 372
destined for god . M 370
deduction this year . M 370
describing each one . M 368
deceived for long . M 364
decisive for them . M 360
describe his death . M 358
decreased with aging . M 354
decisions with him . M 354
declared one day . M 352
designed for you ? M 350
deserved that one . M 344
declined with them . M 344
developing this area . M 338
designed and run . M 336
describe for you . M 334
decisions this way . M 332
declared her dead . M 330
decisions that way . M 324
declined that too . M 322
detailed than that . M 320
deserved this death . M 318
decreases with use . M 314
demanded his pay . M 306
developing our own . M 300
describe this one . M 300
destroying his own . M 298
declined them both . M 298
detected thus far . M 296
deserved all this . M 296
decisions are his . M 296
designed this way ? M 294
decisions for all . M 290
detection and death . M 288
designed and cut . M 287
demanded his son . M 286
decisions for him ? M 286
decisions for her ? M 286
deception and death . M 280
destroying our own . M 274
destined for all . M 272
describe his own . M 270
detailed than this . M 268
demanded its use . M 262
defenses are weak . M 256
destroys all this . M 244
deceived them both . M 244
demanded for her . M 242
describing his own . M 240
depicted with wings . M 240
designed his own . M 238
describe this area . M 238
defended his own . M 238
demanded its due . M 236
destined for war . M 234
designed for him ? M 234
despised for that . M 222
decisions and why . M 222
describing them all . M 220
describe all this ? M 216
definite than that ? M 216
describing his death . M 214
demanded his due . M 214
developing her own . M 212
develops each year . M 206
destined for use . M 204
deficits each year . M 204
develops with use . M 202
develops his own . M 200
demanded his aid . M 200
detected long ago . M 198
detected each year . M 198
declared war yet ? M 198
deceives any one . M 198
describe them too . M 196
defended her son . M 196
devoured them both . M 194
defaults read com . M 192
decisions and how . M 192
deepened with age . M 191
designer can use . M 188
designed him for . M 188
designed for both . M 188
defaults for now . M 188
decreased this year . M 188
designed them all . M 186
depleted with use . M 186
developing each year . M 184
developing for him . M 182
declared that law . M 182
developing for them . M 180
despises you all ! M 180
departed this day ? M 180
defended his son . M 180
decisions that day . M 180
developing with age . M 178
describe this idea . M 178
decisions than men . M 178
decisions are law . M 178
demanded her death . M 176
designed you for . M 174
decisions with her . M 174
detailed they are . M 173
devoured his meal . M 172
destroys his own . M 172
deduction for you . M 172
deception was easy . M 172
designed for you ! M 170
denounce them all . M 170
deserves his pay . M 168
deferred for now . M 168
developing that idea . M 166
demanded and got . M 162
developing his idea . M 160
departed for war . M 160
decisive with him . M 160
decisions with you . M 160
destroying his foes . M 158
describe his job . M 158
declared that year . M 156
declared him mad . M 156
declared each year . M 156
destined him for . M 154
despises them all . M 154
despises his god . M 154
deficits are bad . M 154
definite for that . M 152
declined this year . M 152
deception and sin . M 152
describe are real . M 150
declared one man . M 150
decipher them all . M 150
detailed for each . M 148
destroying all things . M 148
deserves its due . M 148
decisions you can . M 148
decisions this year . M 148
deceived any man . M 148
destroys all sin . M 146
designed for singing . M 146
demanded her head . M 146
declared long ago . M 146
develops its own . M 144
designed them both . M 144
defenses are low . M 144
despised was real . M 140
designed for six . M 140
describe them all ? M 140
decisive for her . M 140
decisions and how ? M 140
develops this way . M 138
declared that day . M 136
deception and fear . M 136
destroying her son . M 132
despised him now . M 130
departed that day . M 130
decisive for that . M 130
developing new things . M 128
describing all this . M 128
describe his day . M 128
deducted this year . M 128
declared them dead . M 128
declared for you . M 128
deserved day off . M 127
deformed old man . M 127
declined her head . M 126
declared this year . M 126
decisive than this ? M 126
designed that way ? M 124
describe his singing . M 124
depicted this way . M 124
delusions are real . M 124
declined his aid . M 124
decisions for you ! M 124
detailed and long . M 122
declines with use . M 122
deception for him . M 122
decisions our own . M 120
decisions and why ? M 120
destined for him ? M 118
designed this one . M 118
deserved all that . M 118
decisions that year . M 118
deceived you all . M 118
despised this man . M 116
degraded each year . M 116
declared with heat . M 116
devoured long ago . M 114
devoured his son . M 114
develops with them . M 114
developing that way . M 114
developing that area . M 114
detailed are they ? M 114
destined for each . M 114
depicted that way . M 114
demanded each year . M 114
defended for long . M 114
decreases with age ? M 114
declares him dead . M 114
decisive for all . M 114
despised all men . M 112
deserves not this . M 112
describe them thus . M 112
describe that day . M 112
declared his own . M 112
deserved and won . M 110
decisions for god . M 110
developing with them . M 108
describe our own . M 108
deprived too long . M 108
demanded for all . M 108
decisions are set . M 108
destined for that . M 106
designed her for . M 106
departed with you . M 106
demanded each day . M 106
defenses for them . M 104
declined with him . M 104
decisions you did . M 104
decisions they can . M 104
develops with aging . M 102
designed long ago . M 102
designed for them ! M 102
designed for her ? M 102
descending dry air . M 102
deferred for long . M 102
decisions with ease . M 102
deception for long . M 102
destined for you ? M 100
deserves all this . M 100
describe for him . M 100
definite for him . M 100
dedicate this poem . M 100
detected that way . M 98
destroying this one . M 98
destined for men . M 98
describe him now . M 98
describe all that . M 98
descending with him . M 98
denounce you all . M 98
definite for you . M 98
defender with him . M 98
develops for them . M 96
deserved his end . M 96
describe this set . M 96
declared she was . M 96
declared god dead . M 96
despised all that . M 94
designer for you . M 94
deserves his due . M 94
describing thus far . M 94
describe but one . M 94
deduction does not . M 94
decreased its use . M 94
decisive with them . M 94
decisive than that . M 94
decisions thus far . M 94
depicted with them . M 92
delusions they are . M 92
declared this way . M 92
decisive for this . M 92
declared war yet . M 91
develops that idea . M 90
describe are not . M 90
depletion and death . M 90
deceived that way . M 90
deterred for long . M 88
despised that man . M 88
designed for death . M 88
deserved this death ! M 88
defended with ease . M 88
declined too far . M 88
decisions nor lead . M 88
detection for long . M 86
destined for them ? M 86
designer and poet . M 86
designed all this ? M 86
describe that way . M 86
describe him thus . M 86
denouncing its use . M 86
decisions are few . M 86
deceived they are . M 86
devotions each day . M 84
defended this idea . M 84
declines with age ? M 84
decipher with ease . M 84
developing and using . M 83
devotions with them . M 82
destined them for . M 82
describe each one ? M 82
depletion each year . M 82
depleted with age . M 82
deficits and death . M 82
defaults are set . M 82
deduction for him . M 82
decisive for both . M 82
decisions can not . M 82
despised and weak . M 80
describe her now . M 80
descending too low . M 80
deprived for long . M 80
demanded her son . M 80
declared this war . M 80
decipher this one . M 80
deceived with them . M 80
detailed for you . M 48
detailed for him . M 45
detailed for them . M 44
designed they are . M 43
