found to be the M 756362
found it to be M 448708
found to be in M 410544
focus is on the M 362162
found to be of M 248705
found it in the M 188959
found to be an M 182741
found to be so M 113097
found to be as M 102316
found to be at M 71379
found it on the M 47268
found to be no M 37479
force is to be M 34876
found to be on M 27622
found me in the M 26079
found in the so M 25502
force is in the M 22416
found in it the M 22376
found it at the M 17350
found in up to M 16039
force me to do M 15782
found it in my M 15028
focus in on the M 13658
force the king to M 12689
force so as to M 12188
found as in the M 11966
found to be by M 10509
found in the king M 10208
found it in an M 9836
found me on the M 9708
found in it an M 9683
force us to do M 9610
force me to go M 9200
found us in the M 8914
found up to the M 8814
force up to the M 8663
found to be to M 7930
found me at the M 7858
found is in the M 7620
found to do so M 7582
force me to be M 7524
force us to the M 7132
focus is in the M 7117
found to do the M 7022
focus on in the M 6984
found as to the M 6756
focus on is the M 6716
forms is to be M 6706
found by us in M 6640
found it so in M 6092
force as in the M 6024
found by me in M 6008
force us to be M 5992
force to do so M 5931
force or by the M 5574
focus it on the M 5500
force on it is M 5469
force of up to M 5457
found by me to M 5400
force it to do M 5386
forms as in the M 5369
force as to the M 5362
found the king in M 5306
forms so as to M 5172
force it to the M 5158
found us on the M 5156
found in or on M 5130
force as if it M 5095
force as it is M 5048
force it to be M 4996
force if it is M 4867
force it on the M 4804
force is of the M 4718
found to do it M 4706
found the king of M 4670
force of the king M 4649
found us at the M 4642
force to be the M 4511
found it on my M 4490
forcing the king to M 4394
force me to it M 4385
forms of to be M 4313
found to be up M 4304
focus is on an M 4304
folly in me to M 4258
force is on the M 4198
force is to the M 4122
found me in my M 4104
focus is to be M 4024
found in the the M 4012
forcing me to do M 3970
fourth king of the M 3950
found it by the M 3898
found in it no M 3877
force is at the M 3827
force us to go M 3810
force or of the M 3652
force to do the M 3625
focus is at the M 3603
folly it is to M 3596
forms of the so M 3573
force or in the M 3564
found in it in M 3505
found me to be M 3468
focus to be on M 3431
found on or in M 3378
found it by no M 3170
force as to be M 3110
force as of the M 3106
found to do in M 3091
found in it is M 3082
forms up to the M 3074
fourth is in the M 3068
found in it to M 3054
force on to the M 3022
found the king at M 2934
force to do it M 2887
found in the in M 2780
folly of the king M 2753
focus on it as M 2721
forcing it to the M 2718
force to go to M 2716
forcing it to be M 2682
focus on the so M 2628
force as if the M 2594
found in it at M 2589
found in it by M 2556
found if it is M 2544
force me to the M 2537
found by us to M 2530
found me on my M 2518
forcing me to go M 2474
force of it is M 2460
focus on it in M 2430
found it of the M 2362
folding in of the M 2360
forms it is the M 2326
found in it as M 2318
folding up of the M 2306
forms or in the M 2278
found to be it M 2276
forms of it in M 2274
found it of no M 2266
found to be if M 2260
found so as to M 2260
found is to be M 2246
force the king of M 2219
found or to be M 2216
force on us the M 2188
focus so as to M 2178
forms is in the M 2174
force is as the M 2173
found up in the M 2150
force me to eat M 2045
forming up on the M 2034
force or to the M 2034
folly to do so M 2028
force on the wing M 2021
found to be or M 1998
forms as it is M 1996
found by the king M 1976
fourth is to be M 1954
forcing me to be M 1950
force to be in M 1943
found in it of M 1937
forcing us to do M 1936
forming up in the M 1888
focus on to the M 1872
found me at my M 1858
fools is in the M 1828
found as it is M 1780
found it as he M 1766
force of it in M 1741
found or if the M 1716
forcing us to be M 1708
force it to go M 1637
found by me at M 1610
focus be on the M 1591
forms to be the M 1587
found it to do M 1568
found it as the M 1558
found it is the M 1532
forcing it on the M 1508
forum or in the M 1502
found to go to M 1460
found to be we M 1448
found the ring in M 1422
found in the ring M 1402
found in on the M 1394
found up to an M 1374
found on the wing M 1370
found in in the M 1368
force is by no M 1359
fourth of it is M 1354
found of it in M 1350
force it on me M 1347
force or to be M 1329
found it to the M 1328
found by it to M 1314
found by us at M 1308
found in the by M 1302
forcing it to do M 1294
folly is it to M 1288
found is on the M 1286
forcing us to go M 1236
folly of the thing M 1228
forms as to be M 1214
forcing up of the M 1212
fools of by the M 1212
fourth is on the M 1207
found to be ca M 1196
found in the via M 1192
force it on us M 1188
found in the as M 1184
force is at an M 1180
found to be is M 1176
folly in us to M 1172
found in the thing M 1162
forms is by no M 1155
found it in no M 1144
fools as to be M 1140
folly to go on M 1135
force is of no M 1132
forty or so of M 1110
force as if he M 1103
found by me on M 1090
force to be at M 1087
found on the so M 1086
folly of it is M 1086
found it to my M 1074
forms of it as M 1073
found or is an M 1072
force of the thing M 1063
found it in me M 1062
found to be my M 1042
force us to it M 1028
found to it in M 1026
found to he the M 1022
found to go on M 1016
forum is to be M 1016
folly to go to M 1012
forty of us in M 1010
force it up to M 1010
found the thing he M 1006
found in it so M 998
found on the via M 992
forms or to the M 988
found to he in M 986
found in the no M 985
forcing it to go M 978
force to be an M 976
found to do he M 968
force on the king M 964
found it on an M 960
forms or of the M 958
found us to be M 950
found in the on M 950
focus is to the M 947
forms as to the M 946
folly is to be M 945
found by us on M 944
found in the wing M 938
fourth is to the M 926
found in me an M 920
force of the so M 920
focus if it is M 918
found it so to M 910
force or on the M 906
found up on the M 902
found me in an M 902
found in the of M 901
focus on the king M 884
force to the king M 883
force on the ring M 882
forms if it is M 869
found in me the M 868
folds so as to M 866
found me by the M 858
force or by an M 858
found is of the M 854
forms of the if M 846
forcing us to the M 846
force as at the M 846
focus on the thing M 838
fourth of it in M 824
fools if we do M 822
found on it the M 816
force me to my M 812
force to be so M 810
forcing the king of M 800
focus on at the M 800
found so in the M 796
found or it is M 792
fourth of it to M 788
force on me the M 786
found it up to M 782
found it so at M 776
found in the tea M 772
forum or on the M 768
force to be of M 766
focus as it is M 747
force it in the M 742
forcing me to the M 738
force of it as M 736
forty of the king M 734
force is in no M 732
found in it or M 730
found it as it M 716
found is at the M 716
force it up the M 712
force of it by M 704
fourth of the king M 703
found on the king M 702
force it is in M 695
fourth is of the M 694
found it so by M 692
focus on the in M 691
force us to an M 678
found so to be M 664
forms is of the M 662
force as is the M 661
force or as an M 660
found it to he M 658
found in it on M 658
found the thing in M 654
found in of the M 652
force be in the M 652
found it as an M 650
focus on it to M 648
forms of be in M 647
found at the king M 646
found it so on M 643
found in the ca M 638
found the king on M 636
forms of it is M 636
focus us on the M 626
force in it is M 624
found to do as M 622
found so by the M 622
forcing me to eat M 618
forms it is an M 613
folding it up in M 612
found the king to M 610
focus in on it M 595
forms is on the M 590
found it at an M 588
found it in so M 585
force to be as M 579
forming it in the M 578
force to go on M 578
found on it in M 573
force on it to M 571
forms of the king M 570
forms is at the M 570
force by the king M 568
focus on the the M 566
force in it to M 565
force as on the M 565
force if he is M 564
fourth of the wing M 560
focus on in my M 560
forty or so in M 557
found in the is M 555
folds as in the M 552
force it to an M 551
force it is the M 549
force of it to M 548
force of the wing M 543
focus on as the M 541
force if it be M 539
forcing it up the M 534
focus ring on the M 534
found in the at M 530
forms of it to M 530
force in the ring M 530
found it so as M 525
found in the it M 525
force us to eat M 523
found it of an M 520
force on it in M 519
found in an in M 517
found it is in M 516
force in the king M 514
found by us is M 510
folding it in the M 510
found the ring of M 508
fourth is at the M 507
forcing on us the M 506
forcing it in the M 506
found the king so M 503
found it at my M 500
force to be on M 500
forms of the thing M 499
force it is to M 498
found in my the M 497
focus it in the M 492
force as by the M 490
forming up at the M 488
fourth as in the M 486
force or as the M 486
found in the to M 480
forms or by the M 480
found to go in M 478
found or in the M 478
forms or on the M 478
focus of the so M 478
focus as in the M 478
folds or in the M 477
force in the so M 473
found in or in M 469
force or at the M 466
fools to do so M 466
focus to be the M 464
found in at the M 463
force of the foe M 463
focus on it at M 463
found it if it M 462
force of the the M 462
focus is on my M 452
forum or of the M 450
force it on to M 449
found in the am M 446
found no foe to M 444
found is to the M 444
force me to sing M 438
found to to be M 436
force it up in M 436
forms to be in M 434
found as on the M 430
force of the id M 429
focus in on an M 426
forcing it to an M 424
found it if he M 422
found in the or M 421
found at the so M 417
found it is to M 412
force is if the M 412
forum is in the M 410
forms it is to M 410
force is in an M 410
forms on to the M 409
force of it on M 406
found us in an M 404
found in the he M 404
force or of an M 402
forming the ring of M 400
force to go in M 400
force or to an M 400
forms to do so M 396
forms is to the M 396
force of the by M 396
forms to be of M 393
forms as is the M 392
forms as do the M 392
fools as to go M 392
found in or at M 391
force he is to M 389
force us in the M 388
force of the ring M 388
force at the king M 388
forming it to the M 383
folds up to the M 382
fourth or in the M 380
found in the an M 379
fourth up to the M 378
found is in an M 378
found on it at M 376
forcing me to my M 376
forcing it on me M 374
found up at the M 372
forms it is of M 372
found to do no M 370
found it by my M 370
folds up in the M 369
fourth ring of the M 368
found it is an M 368
found the ring on M 362
fools of us in M 362
fourth thing to be M 360
found in the up M 356
found as if it M 356
force me in it M 352
force is in us M 352
found the thing to M 350
forming it on the M 350
fourth or so of M 348
found is the thing M 348
found on the the M 344
found as of the M 344
force or if the M 344
focus is of the M 343
forming is to be M 341
forms is of no M 339
found it to no M 336
force in the the M 336
fools to go on M 336
found at up to M 334
found it as we M 332
found in the pi M 329
found it is of M 328
found by us as M 328
forms in us the M 328
focus is on me M 328
focus on it is M 326
forming up of the M 324
found to he of M 322
force is by the M 322
forum so as to M 320
found it on me M 318
found in an up M 317
forms of the the M 317
found in the me M 316
found it up in M 315
folding of the wing M 315
focus on me as M 315
found as is the M 314
forum to do so M 314
focus up to the M 314
found or if it M 313
focus on it or M 310
fourth as to the M 308
force me to an M 308
found me in so M 306
force as he is M 306
force as do the M 306
forms it is in M 305
found on it an M 304
focus it at the M 304
found as if the M 303
focus on the it M 301
forcing it up to M 300
forms to be as M 298
force of the in M 298
force if he or M 298
focus on as we M 297
found to eat in M 296
found to go up M 294
found to do on M 294
force is or is M 294
found me by no M 292
force be if the M 292
forms as of the M 290
force it to eat M 290
focus of the king M 290
found by it in M 288
focus on in an M 288
fools to be so M 284
found or to the M 282
forming the wing of M 282
forcing it on to M 282
force as if to M 282
focus as to be M 282
folly to be so M 281
forcing in of the M 280
force it on an M 280
found in the id M 279
force be as the M 278
found to do at M 276
found of it is M 276
found as to be M 276
forms up in the M 276
force on it at M 274
forms of in the M 273
fourth of the so M 272
found as we go M 272
fools to go to M 272
focus in on my M 272
found to be be M 271
forming it at the M 271
found in me no M 270
forms it to the M 270
force to it by M 270
forms of the ring M 268
force as if no M 268
focus as to the M 267
found to do by M 266
found me in no M 266
forms is the so M 266
force to the so M 266
folding up in the M 266
forms as on the M 265
focus is at an M 265
forms it is so M 264
forms is in no M 264
force in it as M 264
folly as to be M 264
force is the so M 261
fourth or to the M 260
found is by no M 260
forcing me to it M 260
folds as if it M 260
fools of us by M 258
found to the king M 256
found on it is M 256
force it on my M 256
found in the us M 255
folly to do it M 255
force do on the M 254
found it to go M 252
forcing us to eat M 252
forms go to the M 250
force as to go M 250
force it at the M 249
force if we do M 249
found in the hi M 248
found if it be M 248
found if he is M 248
folly is it in M 248
found in to the M 247
fourth to be the M 246
force on us an M 246
folding it on the M 246
forms us in the M 244
forcing it on us M 244
force of it be M 244
focus of the it M 241
found to eat the M 240
focus is by no M 239
forms of it at M 238
force is is the M 238
focus or in the M 238
folly is in the M 237
focus on is to M 237
folding is to be M 236
found at in the M 234
fourth to the king M 233
forming up to the M 233
forcing on me the M 232
focus on to be M 232
found to he so M 231
found in the if M 231
found if we do M 230
forum or at the M 230
force or it is M 230
force of of the M 230
fools to do it M 230
focus of it is M 230
found in it we M 228
force in us is M 228
found to go at M 226
found to do to M 226
force as we go M 226
fools as to do M 226
force it by the M 225
found on the ring M 224
found in us in M 222
forum as it is M 222
forcing us to an M 222
folly as it is M 222
found in the nth M 221
forms of to do M 221
forms of the in M 221
found us by the M 220
found or if he M 220
found my thing to M 220
force of on the M 220
focus on the on M 220
folding it at the M 219
focus on it so M 219
fourth to go to M 218
found in us the M 218
found as if by M 218
forming to go to M 218
force to do or M 218
force is in my M 218
found in it if M 216
found in by the M 216
forms of be to M 216
focus or to the M 216
forum up to the M 215
focus on or to M 215
found on it by M 214
force so to do M 214
force on it by M 214
found on in the M 212
fourth it is the M 210
found as at the M 210
forms of the tea M 210
forms of the do M 210
folly of the so M 210
focus on if we M 210
force up on the M 209
force by up to M 209
fourth or at the M 208
forms is by the M 208
force so to be M 208
folds up on the M 206
forcing us on to M 204
fools as to the M 204
found so it is M 202
found at the the M 202
force in the tea M 202
forms it in the M 201
focus of the in M 201
found me of the M 200
found an or of M 200
force up in the M 200
force of it at M 200
forms in the so M 199
force on the nth M 199
found us as we M 198
forty of us to M 198
forming as to the M 198
force is of an M 198
force or is it M 197
found it if the M 196
forcing on to the M 196
force me in the M 196
force is up to M 196
found at or in M 195
forms as if it M 195
fourth or of the M 194
forms to be so M 194
force on it the M 194
forming so as to M 193
force the foe to M 193
fourth is by the M 192
found on the tea M 192
force on it as M 192
fourth thing is to M 190
forty of us at M 190
forms as if in M 190
force me on the M 190
force in it if M 190
folly as to go M 190
folding up at the M 190
forms of it we M 189
force in me to M 189
focus on an in M 188
found the king as M 186
found of the so M 185
folly it is of M 185
fourth king in the M 184
found in the my M 184
found by the so M 184
force us on to M 183
found me at an M 182
folds as it is M 182
focus it on to M 182
found it in as M 181
found in us as M 181
forum as to the M 180
force is the thing M 180
folds of the king M 180
focus it on an M 180
forms of be as M 179
focus on it the M 177
found on it to M 176
forms or if the M 176
force in it at M 176
folds it in the M 176
focus to be in M 176
found to he an M 174
found the ring he M 174
forms or to be M 174
force is to do M 174
folding it in an M 174
found the thing so M 173
forms it is at M 173
fourth thing is the M 172
found in it my M 172
forms to be an M 172
force or be of M 171
found to be en M 170
found so on the M 170
found it if we M 170
forum or to the M 170
forum as in the M 170
force to it in M 170
forms of be or M 169
fourth wing of the M 168
found to my no M 168
found it up on M 168
found it is so M 168
forms or as to M 168
force go to the M 168
force as he or M 168
forms to do the M 167
forty is to be M 166
fools go to the M 166
found to sing the M 164
found it or the M 164
found in an as M 164
fools of us at M 164
folding it up to M 164
forms up on the M 163
forms as if the M 163
force to go up M 163
found it is no M 162
found by me as M 162
force of in the M 162
forms of do in M 161
found to it is M 160
forms or as the M 160
fools of in the M 160
folly to be in M 160
found so at the M 158
found in the em M 158
forms to do it M 158
forms as by the M 158
forms as at the M 158
folding so as to M 158
folding it up as M 157
forum if it is M 156
focus is on us M 156
focus in the so M 156
force as to do M 155
focus on it by M 155
focus is on in M 155
found or of the M 154
forcing on it the M 154
force to do as M 154
folding it to the M 154
focus or of the M 154
found in or by M 152
found in me by M 152
forms as if by M 152
forcing us in the M 152
found it as if M 148
forms as we do M 148
force is to go M 148
found to go as M 147
forms of it by M 147
force the king on M 147
forty of us on M 146
force of the on M 146
force in on the M 146
forming as it is M 145
force it in by M 145
found in me so M 144
found in an on M 144
forms of it the M 144
forms as he is M 144
force as we do M 144
force it is an M 143
found to he on M 142
found is of no M 142
forms of up to M 142
forms of it on M 142
force is it is M 142
found on the in M 141
found on it as M 141
fourth of it by M 140
found on it or M 140
found it so if M 140
found it is at M 140
found as if in M 140
force on it of M 140
folly so as to M 140
folly of it in M 140
focus of an in M 139
fourth or on the M 138
found the in the M 138
found on the of M 138
found me as the M 138
found it up the M 138
found it in at M 138
found it by an M 138
found by in the M 138
forming it so as M 138
forming as we do M 138
force it up by M 138
force is in it M 138
folly as if it M 138
folly or by the M 137
forty or so to M 136
forms up at the M 136
forcing is to be M 136
force it is of M 136
force in at the M 136
fools is as the M 136
folds is to be M 136
folding it so as M 135
forty to go to M 134
forms as we go M 134
focus on as he M 134
focus as if he M 134
focus in on me M 133
found to go the M 132
found it in or M 132
found is by the M 132
forms to go to M 132
fools to be the M 132
fourth of the the M 131
found in is the M 131
forms in it the M 131
found in me to M 130
found in it he M 130
forms if he is M 130
folds or on the M 130
folds or at the M 130
focus on the ring M 129
focus on as an M 129
found up to at M 128
found the ring at M 128
forming up to go M 128
force to us in M 128
force be to the M 128
fools to be in M 128
fools as he is M 128
forms in us as M 127
folds of the wing M 127
focus on is an M 127
found to be via M 126
found the thing we M 126
found in me or M 126
folding is of the M 126
force up at the M 125
force or go to M 125
found us in my M 124
found or by the M 124
found by me is M 124
forms or at the M 124
forming it by the M 124
force if he so M 124
focus on the up M 124
focus of the the M 124
found us as to M 122
found or is to M 122
found me at it M 122
found it is as M 122
found in the be M 122
force is on my M 122
focus to be of M 122
focus of the on M 122
found in to be M 121
found to do an M 120
found me up to M 120
forms of id to M 120
force or if it M 120
folds it up in M 120
focus is to do M 120
forming as in the M 119
found up by the M 118
found or if an M 118
found in the en M 118
found by us the M 118
forms as if to M 118
force so it is M 118
folly is by no M 118
folly if in the M 117
found to eat it M 116
found the thing on M 116
forty if he is M 116
forcing on me in M 116
forcing it on an M 116
force it is as M 116
force is as it M 116
force be at the M 116
folly to be the M 116
focus is in an M 116
forms it is no M 115
focus on the of M 115
found the foe in M 114
found me in it M 114
forms it is as M 114
force on it if M 114
force as if in M 114
folly of me to M 113
folds on to the M 113
fourth on to the M 112
found to he at M 112
found the thing at M 112
found me as he M 112
found it so the M 112
found is the so M 112
found by us or M 112
forms is to go M 112
forming of the so M 112
force on the the M 112
force it if it M 112
force as if we M 112
folds as if the M 112
folding it as he M 112
fourth as it is M 110
found me up in M 110
found he is to M 110
forms of of the M 110
forming on the wing M 110
forcing on of the M 110
forcing it to eat M 110
force be on the M 110
folding as in the M 110
focus ring of the M 110
found to do is M 108
force in us to M 108
folly is of the M 108
folding is in the M 108
focus is on so M 108
found it so he M 106
found if we go M 106
forty or so he M 106
force or in an M 106
force of at the M 106
folly to do at M 106
folds is in the M 106
focus it to the M 106
force in the in M 105
found so to do M 104
forcing it at the M 104
force us to sing M 104
force on the tea M 104
force he is in M 104
folly to do the M 104
forum to be the M 103
forms is it to M 103
force of it so M 103
force in the on M 103
folly as he is M 103
folds in the wing M 103
focus be in the M 103
found us at it M 102
found to go no M 102
found or at the M 102
force to do an M 102
force it is no M 102
folding up on the M 102
force of the no M 101
focus on if it M 101
fourth if it is M 100
found to do if M 100
found the wing of M 100
found the ring to M 100
found at of the M 100
force us at the M 100
fourth so as to M 99
focus to be at M 99
fourth thing in the M 98
fourth of an as M 98
fourth he is in M 98
found the thing it M 98
found or on the M 98
found or if no M 98
found it of so M 98
found by the the M 98
forms in to the M 98
forms go by the M 98
forcing it up by M 98
forcing is in the M 98
fools do in the M 98
focus or is it M 98
focus on me in M 98
force if at the M 97
found on the he M 96
found on of the M 96
found it do so M 96
forty to be the M 96
forming us to the M 96
forming of it so M 96
forgo it in the M 96
force it or to M 96
folly of it by M 96
focus or at the M 96
focus as if it M 96
force in it so M 95
found me on an M 94
found it do me M 94
found is to go M 94
found in me at M 94
found by us if M 94
found by if the M 94
found as by the M 94
forum or if the M 94
forming the ring is M 94
forcing us on the M 94
forcing me on to M 94
forcing it in by M 94
force in to the M 94
focus it is the M 93
fourth to be in M 92
found to go so M 92
found or is in M 92
found at the of M 92
forum on the via M 92
forty as if it M 92
forms as he or M 92
force to the thing M 92
force to it to M 92
focus me on the M 92
force to it as M 91
found it or he M 90
forms to be at M 90
forms the of the M 90
forming is in the M 90
forcing us on up M 90
force me at the M 90
force in it in M 90
folly of it be M 90
focus on or be M 90
focus is in no M 90
forms of do as M 89
forty is in the M 88
forms or to do M 88
forms of it or M 88
forcing on us by M 88
force or at an M 88
force is up the M 88
force as to eat M 88
folds up at the M 87
fourth ring is the M 86
found us at an M 86
found to of the M 86
found the to be M 86
found the king by M 86
forum to go to M 86
force of the tea M 86
force as is in M 86
focus as is the M 86
fourth of it or M 85
forms as in an M 85
found me if he M 84
found in us to M 84
found by me or M 84
found as if he M 84
forms of it do M 84
force it on no M 84
force is we do M 84
folly is at the M 83
fourth thing to do M 82
found so by so M 82
found of the king M 82
found it no go M 82
found is to do M 82
found in it do M 82
found if in the M 82
found by it is M 82
forms or in an M 82
force of it do M 82
force in it on M 82
folds of the so M 82
found to in the M 80
found it or it M 80
found in the we M 80
forty or so at M 80
forms or as an M 80
forming it to be M 80
forming it is in M 80
forcing of the king M 80
force it up or M 80
force be of the M 80
folly is at an M 80
found to be tk M 73
force on us as M 69
folly to go in M 69
found to he as M 68
force in the up M 68
force wing of the M 64
force on us is M 63
focus on us as M 63
forms us to be M 60
fourth of the in M 58
forms us to the M 57
forms is the thing M 57
fourth of it at M 56
found in the do M 54
folly so to do M 54
force to be no M 53
found in me as M 52
force on us in M 52
folly as in the M 52
focus is on on M 52
fourth of it as M 51
forms it is by M 50
forming if it is M 50
force to us as M 50
found in the lo M 49
forms of the no M 49
focus on the at M 49
forms on the wing M 48
forms it on the M 48
forms in it is M 48
force on me in M 47
fourth of an em M 46
found on the up M 46
force of the up M 46
folly it is in M 46
focus to do so M 46
focus is on it M 46
found to be hi M 45
found in us no M 45
forms to go on M 45
forms the ring of M 45
forms on it in M 45
focus to do the M 45
forms in or on M 44
focus as if the M 44
forms on it is M 43
focus or on the M 43
found to be pi M 42
found on to the M 42
found on or at M 42
forming it as it M 42
folds it so as M 42
focus to do it M 42
focus on the as M 42
forty or so on M 41
forms so it is M 41
force on it an M 41
forms as the so M 40
forming or in the M 40
forming of it is M 40
focus or by the M 40
focus is the so M 40
found in the sea D 27955
force of the sea D 15257
found on the sea D 11896
found in the ms D 4645
found in the ear D 3226
found to be rs D 2496
found at sea in D 2002
found in the la D 1971
force us to re D 1816
force on the ion D 1746
found by the sea D 1584
foods so as to D 1522
found in the re D 1393
footing is to be D 1362
footing as in the D 1343
found in in re D 1162
force on an ion D 1160
forms of the sea D 1106
footing as to the D 1062
found in the ad D 1047
force by sea to D 946
found an ad in D 908
found in the ox D 906
forts on the sea D 896
forms in the sea D 880
folks to go to D 878
forcing us to re D 842
found at the sea D 832
force on the sea D 802
fourth toe of the D 760
foods or in the D 758
foods is to be D 750
found in the ex D 745
found the sea so D 739
foist it on the D 727
forming on the sea D 726
footing as if the D 704
footing it in the D 698
folks up at the D 692
foods to eat to D 682
found in the er D 674
foods is in the D 674
footing so as to D 661
folks go to the D 608
found the sea to D 598
folks up in the D 598
focus on the sea D 588
footing it to the D 586
forging is to be D 554
found in the ta D 544
footing as to be D 535
foods to eat in D 535
found to be re D 527
forming in the sea D 520
found at sea or D 490
focus of the ad D 486
fourth toe on the D 482
forms on the sea D 482
found at sea by D 480
force in the sea D 477
fowls to us in D 476
forge or in the D 454
found the ear of D 450
folks to do the D 450
fourth by the sea D 448
forte is in the D 447
folding in the er D 445
foods to eat or D 444
found the sea in D 442
focus on the re D 441
found it in thy D 440
folks up on the D 406
footing as it is D 400
found in the pea D 398
footing as if it D 380
footing as at the D 378
foods we eat is D 376
folks to do it D 376
foods to eat at D 372
found in the pa D 370
force of the ox D 370
found an ear of D 368
foods as it is D 366
found on the ear D 364
folds of the ear D 364
foods we eat to D 358
found the sea of D 354
found at sea is D 354
footing as if he D 354
forms of the ion D 344
found in an ad D 335
foods to eat on D 314
found in the ion D 310
forms of the ear D 308
folks up to the D 306
folks to be in D 306
forts so as to D 304
found the sea as D 302
found in the bi D 300
foist on to the D 300
folds of the sea D 298
found in the ma D 296
forum by the sea D 294
forks so as to D 292
foods as in the D 292
found at the la D 290
found in the dc D 283
footing it on the D 283
force to the sea D 280
footing up to the D 277
found to be ex D 272
found in the roe D 269
footing on the sea D 269
footing up of the D 266
force in the re D 264
force at sea in D 264
footing as is the D 258
found the sea at D 256
forum of the ox D 256
foods we eat in D 254
found to be tho D 248
found in the cs D 244
foaming of the sea D 244
found in the toe D 242
force of the re D 241
foods we eat or D 232
found at the ear D 230
fouls it in the D 228
folks to be at D 226
forts is to be D 222
foods as we do D 222
foods of the sea D 216
foods is on the D 216
forts or in the D 214
foods or to the D 214
forms as the sea D 213
fours up to the D 212
forcing me to re D 212
footing if it is D 211
foods or by the D 210
foist on us the D 209
footing as the king D 206
folks as it is D 206
forms in the ear D 204
force of the ion D 202
foist on me in D 200
folks to be the D 198
found in the ha D 197
folios of the ms D 196
found in the ts D 195
found in the ti D 195
found in the fa D 193
force it to re D 192
folks as to the D 192
foggy as to the D 192
forms of the er D 190
foaming up to the D 186
folks do in the D 184
forms the toe of D 181
found ye at the D 178
found in the lea D 178
forge on to the D 178
forks to eat it D 174
foods if it is D 174
focus on the ex D 173
found the ad in D 172
forte is to be D 172
footing in it is D 171
fourth toe is the D 170
force at sea to D 168
footing it up the D 168
found by sea or D 162
force at the toe D 162
focus of the ta D 162
forcing it to re D 158
foods is of the D 158
found on the la D 156
found at the toe D 156
foray on to the D 155
forms of the ah D 152
found at sea on D 150
foods or of the D 150
folks to go on D 149
foods or to eat D 148
focus of the re D 147
force of the ex D 146
focus on the ad D 145
foods we eat as D 144
foaming to the sea D 144
fowls of the sea D 143
fours so as to D 142
forks or on the D 142
forcing the sea to D 140
foods to be the D 140
fourth toe in the D 138
forming in the ear D 138
force at sea as D 138
forming the toe of D 136
foods we eat at D 136
force at sea is D 135
folks to be on D 135
foaming up of the D 135
forms of sea or D 134
forming the ear to D 134
force on the ear D 134
focus in the ear D 134
foams up in the D 134
foaming up on the D 134
forge or at the D 132
force of the ad D 130
foods to be of D 130
forge is to be D 129
fooling me to the D 128
found to be bi D 127
found at sea at D 124
forts up to the D 124
force of the ax D 124
foots up to the D 123
footing is on the D 122
found in the rs D 120
found in no ms D 120
foods we eat on D 120
foods up to the D 120
foods is to eat D 120
foods do we eat D 120
foist it on to D 120
force of an ion D 119
found on sea or D 118
force by sea or D 118
force of sea on D 116
foods is by no D 116
foyer or on the D 114
forge or on the D 114
foods to eat is D 114
folks to be so D 113
focus of the ion D 113
found in an ear D 112
forms of the re D 112
fouling is to be D 111
footing it is to D 110
folks so as to D 110
forge so as to D 109
forks go on the D 108
forge it in the D 108
force by the sea D 108
footing as if we D 108
foods we eat do D 108
foyer or in the D 107
found to the sea D 107
fouling up of the D 107
force at the sea D 107
foils so as to D 107
foxes to go to D 104
forge it to the D 104
force of an ax D 104
force me to re D 104
foods as to the D 104
forts in the sea D 102
footing as tea or D 102
focus is on re D 101
forming an ion of D 100
force to be re D 100
found at sea to D 98
forms of the ox D 98
forms of the ad D 98
force the sea to D 98
footing it is in D 98
foods it is the D 98
foods if he is D 98
foyer as if he D 96
forging of the ring D 95
forks on to the D 94
forge is in the D 94
foray as if to D 94
foods go to the D 94
folks is to be D 94
fours as if he D 93
forms to the sea D 93
found as in ex D 92
forging on to the D 92
force at sea or D 92
foods to be in D 92
foggy as it is D 92
fogging up in the D 92
fording it in the D 90
forks up to the D 89
folks to be up D 89
forks as of so D 88
forging of the king D 88
folks in on the D 88
footing as by the D 86
foaming on to the D 86
foods as do the D 84
foaming up in the D 84
found in an ox D 82
forts or on the D 82
forging it in the D 82
found an ax in D 80
forms of an ion D 80
forge is to the D 80
force is at sea D 80
footing is in the D 80
fourth of the sea D 59
forms at the sea D 58
foots up to an D 49
fourth of the ear D 48
found in an ex D 47
force in the ex D 47
foods to eat as D 47
folding of the sea D 47
focus on the ear D 47
found to be la D 46
forts by the sea D 46
folks to the ex D 44
found in an ms D 43
foods to be as D 42
folks to be as D 42
found to be ti D 41
forte it is to D 41
forms to be re D 40
