so we should have M 15902
so no matter what M 14681
so it looked like M 13691
so it seemed good M 12381
so it should come M 9237
so he should have M 7672
so it should have M 7588
so he turned back M 7228
so the little girl M 6345
so it seemed like M 5634
so he turned away M 5212
so it sounds like M 5206
so of course there M 4565
so we turned back M 4501
so the bottom line M 4343
so it appears from M 4293
so he walked over M 3586
so in various ways M 3573
so we should take M 3293
so the greater part M 3238
so the legend runs M 2789
so we should make M 2706
so the answer must M 2670
so the system will M 2604
so he looked like M 2601
so it seemed only M 2568
so it seemed from M 2563
so the doctor said M 2480
so we should also M 2412
so he passed over M 2395
so the second time M 2390
so we always have M 2375
so we walked back M 2365
so it became clear M 2343
so it always will M 2340
so we should look M 2333
so we walked down M 2299
so we stayed there M 2292
so the teacher must M 2281
so the reasoning went M 2281
so the second part M 2243
so he called upon M 2217
so it became more M 2175
so it should seem M 2146
so on through many M 2074
so the second term M 2059
so he merely said M 2039
so we walked over M 2034
so he simply said M 2016
so he stayed there M 1906
so the result will M 1903
so it seemed best M 1896
so he walked into M 1887
so he walked back M 1873
so the latter must M 1850
so he walked down M 1829
so to escape from M 1823
so to answer your M 1779
so the church must M 1767
so he turned from M 1765
so as through fire M 1760
so he walked away M 1715
so to follow their M 1699
so the system must M 1693
so it should only M 1676
so he walked along M 1660
so he turned down M 1657
so in actual fact M 1629
so at another time M 1599
so he should know M 1578
so it should also M 1560
so he stayed away M 1557
so he became more M 1540
so the public will M 1533
so we should think M 1531
so we walked along M 1508
so we should find M 1503
so he waited till M 1481
so he turned over M 1470
so we should give M 1457
so the legend says M 1431
so to arrange their M 1427
so he looked down M 1421
so the teacher will M 1417
so in another case M 1417
so he turned into M 1410
so he worked hard M 1398
so it seemed when M 1395
so the second half M 1364
so we should know M 1353
so he handed over M 1334
so of course when M 1326
so he stayed home M 1321
so he bought some M 1320
so the battle went M 1284
so we should keep M 1253
so the client will M 1246
so the little ones M 1242
so the person will M 1220
so the plants will M 1202
so we already have M 1191
so he became very M 1169
so he passed from M 1150
so we should just M 1139
so the papers said M 1138
so we walked into M 1117
so the matter went M 1096
so he reached into M 1091
so the latter were M 1085
so the second step M 1076
so we turned into M 1075
so the legend went M 1071
so he slowed down M 1071
so the square root M 1065
so the doctor told M 1065
so the doctor says M 1062
so we waited till M 1055
so the latter will M 1049
so the writer must M 1031
so it became very M 1023
so he reached down M 1010
so the debate went M 978
so he passed away M 966
so he looked back M 966
so the answer will M 951
so the matter ends M 943
so it proved when M 922
so we should like M 921
so we bought some M 898
so to direct their M 898
so the family will M 892
so if someone says M 890
so the doctor will M 889
so it should work M 887
so he looked into M 886
so the sample size M 880
so the output will M 873
so the waters were M 872
so he became their M 868
so he looked away M 863
so he reached over M 862
so he pulled back M 847
so the matter will M 845
so we turned away M 842
so we should leave M 839
so be better able M 818
so it should take M 814
so he should take M 802
so the doctor went M 800
so we become more M 796
so the little band M 796
so the matter must M 795
so the family went M 788
so we should learn M 784
so he looked upon M 780
so we already know M 779
so the debate over M 766
so the future will M 762
so the teacher said M 760
so the ladies were M 760
so it should give M 760
so the doctor gave M 748
so the second line M 742
so he already knew M 740
so the prince went M 735
so the latter have M 731
so we pretty much M 725
so we worked hard M 724
so the church will M 724
so the output from M 723
so it seemed more M 721
so the choice fell M 719
so the rumour went M 712
so we parted from M 709
so the latter part M 706
so it turned into M 705
so it seemed very M 692
so the report went M 689
so to manage their M 687
so he pulled over M 686
so he looked over M 686
so we pulled into M 684
so if anyone asks M 684
so the former must M 672
so the papers were M 662
so he called saying M 662
so he should make M 661
so if someone were M 658
so the middle ages M 651
so it should make M 648
so the winter wore M 645
so the lights were M 641
so to adjust their M 633
so he called back M 633
so we walked away M 627
so he should also M 612
so the orders were M 608
so we should come M 606
so the bottom edge M 603
so the legend grew M 602
so in neither case M 602
so it became part M 600
so if someone asks M 589
so the summer wore M 585
so the master said M 584
so the matter came M 583
so we walked home M 580
so we stayed home M 580
so he enters into M 580
so he always said M 578
so in reality there M 576
so he pulled into M 576
so the letter went M 574
so in future years M 571
so we became very M 567
so the effect will M 564
so we should seek M 562
so he should give M 560
so the actual cost M 559
so we simply have M 558
so we should stop M 557
so the authors have M 557
so in former days M 552
so the bodies were M 548
so is obvious from M 548
so of course were M 547
so we should walk M 546
so we should feel M 546
so to become more M 546
so in effect there M 545
so he rushed into M 544
so to impose upon M 541
so the animal will M 541
so we turned down M 540
so to anyone else M 538
so we hardly ever M 537
so he stands there M 536
so we should treat M 534
so on through other M 533
so the thought came M 532
so to reduce their M 529
so to extend their M 529
so the summer went M 529
so the family must M 529
so in public life M 528
so we should only M 525
so he backed away M 524
so the doctor must M 519
so it passed from M 514
so if someone else M 514
so we always knew M 513
so to remain till M 512
so the priest said M 510
so it seemed clear M 509
so the family were M 508
so it seemed safe M 508
so he passes from M 508
so he walked home M 507
so the reaction rate M 506
so we should call M 505
so to modify their M 505
so it seemed wise M 502
so the seasons went M 501
so we learned from M 497
so we should note M 494
so the reaction will M 487
so he thought there M 485
so he passed into M 485
so we should live M 484
so we looked into M 484
so the animal must M 479
so the simple fact M 477
so the object will M 477
so he always made M 477
so the teacher says M 476
so he rushed back M 469
so of course must M 467
so he seized upon M 465
so in future also M 464
so the school must M 463
so he parted from M 463
so the dividing line M 460
so my friend said M 460
so he always kept M 458
so we pulled over M 454
so the meetings were M 451
so we should work M 446
so the maiden went M 446
so the guards were M 445
so he simply went M 444
so the record runs M 441
so on differ from M 440
so the client must M 439
so on should also M 438
so in earlier years M 438
so at greater length M 438
so we pulled back M 435
so the market will M 435
so it seemed there M 435
so we waited there M 434
so we slowed down M 434
so in various other M 434
so the doctor came M 430
so he always went M 430
so of course will M 429
so is mortal life M 429
so he waited there M 429
so the liquid will M 428
so the letter must M 428
so we should love M 426
so in record time M 426
so he worked away M 426
so we parted good M 423
so we always went M 422
so my little girl M 421
so it appears there M 421
so the person must M 420
so it proved here M 414
so he pretty much M 413
so to arrange these M 409
so the couple were M 409
so by becoming more M 409
so he caught hold M 408
so in former years M 406
so the tables were M 405
so he turned south M 405
so he changed into M 403
so the winter went M 402
so the server will M 401
so of course their M 400
so it seemed worth M 400
so the priest went M 397
so the divine life M 397
so in earlier days M 397
so it looked more M 395
so he pulled down M 395
so we should speak M 393
so we should pray M 393
so the latter went M 390
so he spends most M 390
so we should wait M 388
so the design will M 387
so the spirit will M 385
so we stayed away M 384
so he pushed open M 384
so at little cost M 384
so it looked from M 382
so we thought there M 381
so the judges were M 381
so the younger ones M 380
so the speaker must M 379
so we looked like M 376
so the larger part M 376
so he relied upon M 376
so the pieces will M 375
so the actual time M 374
so to depend upon M 371
so he simply told M 371
so on without ever M 369
so the burden fell M 368
so he should keep M 368
so he smiled back M 367
so the little lady M 366
so it passed into M 366
so by someone else M 366
so we should turn M 364
so the design must M 364
so the little bird M 363
so the former were M 363
so by starting from M 362
so the greater will M 361
so he turned left M 361
so the matter fell M 360
so the changes were M 360
so the engines were M 359
so to direct your M 358
so on orders from M 358
so he backed down M 358
so the plants were M 355
so the former will M 349
so to arrange your M 345
so of course these M 345
so my brother said M 345
so it became less M 345
so the school will M 344
so my family will M 344
so we became good M 343
so he poured some M 343
so he learned from M 342
so my brother went M 341
so he worked very M 340
so the fighting went M 339
so the summer days M 338
so the report runs M 337
so he should find M 336
so the result must M 335
so the changes will M 335
so the little boys M 334
so in actual life M 334
so we always speak M 332
so the guests were M 330
so he pulled away M 328
so we should talk M 327
so it merely meant M 326
so the editor will M 325
so he played along M 325
so he pushed back M 324
so he looked more M 324
so he calmed down M 324
so he turned upon M 322
so he fought back M 322
so to secure their M 320
so he thought over M 320
so the family name M 319
so the church also M 319
so the teacher gave M 318
so the prince said M 318
so the choice must M 318
so the better part M 318
so it enters into M 318
so we turned from M 316
so the sacred gift M 316
so the colors will M 315
so the writer will M 314
so the effect must M 314
so the report will M 313
so he became angry M 313
so is better able M 312
so in winter when M 312
so he thought nothing M 312
so we passed from M 311
so the methods used M 311
so to further their M 310
so the priest gave M 310
so he thought when M 310
so we passed into M 309
so the report said M 308
so it became their M 308
so we passed over M 307
so we stayed here M 306
so the little town M 305
so the issues were M 305
so the teacher told M 304
so we rushed back M 302
so it should look M 302
so we looked over M 301
so of course your M 301
so to remain during M 300
so the entire body M 300
so it passes from M 299
so the second rule M 298
so the lesson here M 298
so he called over M 298
so we walked there M 297
so we parted ways M 296
so the camera will M 291
so is widely used M 291
so it appears more M 290
so he should look M 290
so he needed some M 289
so the divine will M 288
so at younger ages M 288
so to modify these M 286
so the victim will M 283
so he turned north M 283
so we turned south M 282
so the affair went M 282
so he passed along M 282
so he always felt M 282
so he walked past M 280
so we return once M 279
so is something else M 279
so the guests will M 277
so my friend went M 276
so if anyone ever M 276
so the public health M 275
so on without having M 274
so he looked very M 274
so the teacher made M 273
so the object must M 273
so the couple went M 273
so to retain their M 272
so to regard great M 272
so the record says M 272
so the worker will M 270
so he always knew M 270
so the weight will M 269
so the scheme fell M 268
so the building will M 268
so the number will M 266
so in twenty years M 266
so the teacher asks M 265
so the signal from M 265
so my friend told M 265
so he simply left M 265
so by various means M 265
so the viewer will M 264
so we should teach M 263
so the disease will M 263
so he simply gave M 263
so we missed seeing M 262
so we agreed upon M 262
so the actual rate M 262
so he bought three M 262
so the second week M 261
so the second great M 260
so he hardly ever M 260
so we walked from M 259
so the ground will M 258
so in former ages M 258
so we worked very M 257
so the spirit bows M 257
so we should stay M 256
so to church went M 256
so the record will M 256
so in reality only M 256
so to someone else M 255
so the groups were M 255
so he turned once M 255
so we rushed into M 254
so the worker must M 254
so the source code M 254
so my feelings were M 254
so in effect make M 254
so we always know M 253
so the signal will M 253
so is anyone else M 252
so in common life M 252
so he should just M 252
so the answer lies M 251
so of course what M 251
so by notice from M 250
so the letter said M 249
so we turned north M 248
so the milder third M 248
so on through life M 248
so if anyone were M 248
so to depart from M 247
so to attend upon M 246
so the nights were M 246
so the authors were M 246
so he became like M 246
so the losses were M 245
so we should need M 244
so we called upon M 244
so we became more M 244
so we already knew M 244
so it seemed most M 244
so in little more M 244
so the plants have M 243
so the lights went M 243
so it passes into M 243
so we passed away M 242
so to ensure their M 242
so the public good M 242
so the critic must M 242
so the reaction must M 241
so he opened fire M 241
so we should lose M 240
so he writes down M 240
so the number must M 239
so on through five M 239
so if anyone else M 239
so the pieces were M 238
so the family came M 238
so he merely told M 238
so the common good M 237
so the annual cost M 237
so we better make M 236
so the report says M 236
so the moment when M 236
so he walked among M 236
so the spirit must M 234
so the folded edge M 234
so is exempt from M 234
so he bought land M 234
so it should help M 233
so at someone else M 233
so it looked just M 232
so the summer came M 230
so the sounds were M 230
so the greater their M 230
so the fields were M 230
so we should move M 228
so the prince gave M 228
so the forces were M 228
so my sister said M 228
so he seemed well M 228
so he called some M 227
so it sounds more M 226
so he simply held M 226
so he should come M 226
so is rarely used M 225
so we always made M 224
so the viewer sees M 224
so the screen will M 224
so the damage done M 224
so he called down M 224
so the tracks were M 223
so the entire length M 223
so as anyone else M 222
so the middle term M 221
so the legend said M 221
so the pupils will M 220
so the choice will M 219
so the judges will M 218
so we always keep M 217
so the doctor made M 217
so he stayed here M 217
so the priest came M 216
so it seemed also M 216
so in another part M 216
so he should lose M 216
so he always left M 216
so we thought best M 214
so we opened fire M 214
so the further from M 214
so on through most M 214
so it looked very M 214
so he reached back M 214
so of various other M 213
so we simply need M 212
so we should ever M 212
so the little kids M 212
so on through four M 212
so in subtle ways M 212
so the learner will M 211
so we should hold M 210
so we should help M 210
so to insist upon M 210
so to differ from M 210
so on through their M 210
so the keeper said M 209
so to return home M 208
so on through some M 208
so on should have M 208
so it always must M 208
so in greater depth M 208
so he should feel M 208
so he seemed like M 208
so he became what M 208
so he always gave M 208
so the script will M 207
so of course some M 207
so it appears when M 207
so we should soon M 206
so to decide what M 206
so the higher your M 206
so on through your M 206
so he called into M 206
so we always need M 205
so the proper time M 205
so we should show M 204
so the doctor sent M 204
so he always wore M 204
so the common form M 203
so we pulled away M 202
so go through their M 202
so he pushed ahead M 201
so we humbly pray M 200
so the shadow runs M 200
so the critic deals M 200
so my readers will M 200
so he rushed over M 199
so the reasoning runs M 198
so no wonder many M 198
so the parent will M 197
so the killer must M 197
so of course nothing M 197
so to obtain their M 196
so the entire time M 196
so he should leave M 196
so to adjust these M 195
so we suffer from M 194
so we always used M 194
so we always come M 194
so to obtain some M 194
so to deduce from M 194
so the speaker will M 194
so the effect upon M 194
so as hardly ever M 194
so the readers will M 193
so it seemed during M 193
so we should view M 192
so we became when M 192
so the owners were M 192
so the family left M 192
so he spends much M 192
so the second must M 191
so no wonder there M 191
so we report only M 190
so the winter came M 190
so the initial step M 190
so the entire city M 190
so on through time M 190
so be turned into M 190
so the return trip M 189
so the actual size M 189
so the actors were M 189
so we should plan M 188
so to borrow some M 188
so is rarely seen M 188
so we passed along M 187
so if someone came M 187
so to regard other M 186
so the pupils were M 186
so it lasted till M 186
so the travel time M 185
so the better your M 184
so he turned tail M 184
so he should like M 184
so at second hand M 184
so we obtain from M 182
so the server must M 182
so the moment came M 182
so the higher their M 182
so he sought help M 182
so by return mail M 182
so the window will M 181
so we worked away M 180
so we depart from M 180
so to expand their M 180
so the images were M 180
so he always will M 180
so by orders from M 180
so to divide their M 179
so the initial rate M 179
so if called upon M 179
so in summer when M 178
so we thought nothing M 176
so we bought three M 176
so the thinker will M 176
so the priest told M 176
so the parent must M 176
so it should last M 176
so it looked good M 176
so he should think M 176
so the little book M 175
so the former have M 175
so he should stop M 175
so the prince told M 174
so it proves nothing M 174
so the phrase went M 173
so the energy loss M 173
so the circle will M 173
so to conceal their M 172
so the spoken word M 172
so the second trial M 172
so the public must M 172
so of course have M 172
so it turned back M 172
so as almost half M 172
so the little army M 171
so the letter will M 171
so he called unto M 171
so to arrange those M 170
so the volume will M 170
so the entire mass M 170
so it became even M 170
so he always used M 170
so the sampling rate M 169
so the ladies will M 169
so it passed away M 169
so to reform their M 168
so the simple maid M 168
so the formal mode M 168
so on through what M 168
so it exists only M 168
so to become part M 167
so the latter said M 167
so the latter also M 167
so the battle over M 167
so to lessen their M 166
so the sample must M 166
so the letter runs M 166
so the brother went M 166
so is seldom used M 166
so is looked upon M 166
so the owners have M 165
so the charge will M 165
so he simply kept M 165
so the lights will M 164
so the family made M 164
so the babies were M 164
so in something like M 164
so he missed seeing M 164
so he merely made M 164
so he always told M 164
so to govern their M 163
so the public mind M 163
so we humbly take M 162
so we handed over M 162
so to realize what M 162
so to nobody else M 162
so the sample will M 162
so it should fall M 162
so he hardly knew M 162
so the return type M 161
so the annual rate M 161
so on through half M 161
so we passed among M 160
so to escape their M 160
so the record reads M 160
so it appears only M 160
so is useful when M 160
so at earlier ages M 160
so the images will M 159
so we needed some M 158
so no further work M 158
so he waited three M 158
so the mental health M 157
so of course none M 157
so my sister went M 157
so the weight loss M 156
so the public were M 156
so the entire unit M 156
so the entire line M 156
so the cities were M 156
so the answer here M 156
so on through three M 156
so he should stay M 156
so be exempt from M 156
so we expect some M 155
so to defend their M 155
so the second will M 155
so the crowds were M 155
so we should thank M 154
so to follow from M 154
so to escape losing M 154
so to effect their M 154
so the entire room M 154
so the debate will M 154
so the amount used M 154
so he wanted some M 154
so he walked from M 154
so the lesson went M 153
so no changes were M 153
so we breathed into M 152
so the hidden ways M 152
so the better worth M 152
so he prayed young M 152
so the modern city M 151
so the belief went M 151
so he always came M 151
so we pushed ahead M 150
so the phrase means M 150
so the figure will M 150
so the aspect ratio M 150
so it should keep M 150
so is seldom seen M 150
so he looked when M 150
so he looked even M 150
so the learner must M 149
so the guards will M 149
so the bottom will M 149
so to strange gods M 148
so my letter will M 148
so my inward mind M 148
so it changes from M 148
so it appears like M 148
so by violent means M 148
so the actors will M 147
so he worked from M 146
so we should reach M 145
so the priest must M 145
so the points will M 145
so the editor must M 145
so is becoming more M 145
so the utmost care M 144
so the second test M 144
so the remedy must M 144
so it should just M 144
so he poured forth M 144
so be forced into M 144
so the trains were M 143
so the couple will M 143
so we depend upon M 142
so we better take M 142
so is immune from M 142
so he looked hard M 142
so he called these M 142
so we turned over M 141
so the writer said M 141
so it sounds good M 141
so we always find M 140
so to profit from M 140
so to choose from M 140
so the nobles have M 140
so of becoming like M 140
so he wasted away M 140
so he should learn M 140
so he needed more M 140
so by building upon M 140
so to define their M 139
so the further back M 139
so the babies will M 139
so the actual length M 139
so he became less M 139
so we become less M 138
so we became great M 138
so to retire from M 138
so to remove from M 138
so the thought must M 138
so the fellow went M 138
so the clothes were M 138
so it should flow M 138
so he walked more M 138
so he rushed from M 138
so he needed only M 138
so the handle will M 137
so on through much M 137
so to number your M 136
so the teacher sent M 136
so the prices were M 136
so the plants must M 136
so the master went M 136
so the latter told M 136
so the forces acting M 136
so the charge went M 136
so it seemed their M 136
so it seemed just M 136
so he merely gave M 136
so the visits were M 134
so the purest fire M 134
so the proper meaning M 134
so the friend went M 134
so of meanest worth M 134
so if anyone came M 134
so the values will M 133
so the orders went M 133
so it stayed there M 133
so it appears less M 133
so to number their M 132
so the teacher went M 132
so the report reads M 132
so the common name M 132
so it should stay M 132
so he called their M 132
so the second form M 131
so the energy will M 131
so the agency will M 131
so it passes over M 131
so we assume there M 130
so to submit their M 130
so the master says M 130
so the burden will M 130
so the access time M 130
so my legacy will M 130
so it worked well M 130
so it covers your M 130
so it better fits M 130
so he simply made M 130
so as nobody ever M 130
so we needed more M 129
so my brother will M 129
so it passed over M 129
so the judges have M 128
so the initial cost M 128
so my phrase must M 128
so it passes away M 128
so he enters upon M 128
so we always kept M 127
so the thought runs M 127
so the stores were M 127
so the center will M 127
so the center line M 127
so we should cast M 126
so we parted very M 126
so the return from M 126
so the options were M 126
so the layers will M 126
so the latter came M 126
so the button will M 126
so on through nine M 126
so is obvious when M 126
so the groups will M 125
so no matter when M 125
so is little more M 125
so if anyone says M 125
so we thought when M 124
so we looked upon M 124
so we always felt M 124
so to obtain from M 124
so the states have M 124
so the source must M 124
so the further away M 124
so of course those M 124
so it surely will M 124
so it occurs only M 124
so he smiled upon M 124
so do something else M 124
so by simply asking M 124
so is called upon M 123
so in effect what M 123
so to assert their M 122
so the temple work M 122
so the public reading M 122
so the prince lost M 122
so the doctor sees M 122
so on become more M 122
so he turned west M 122
so he should tell M 122
so he became even M 122
so do various other M 122
so by offering their M 122
so be changed into M 122
so we wonder what M 121
so we looked down M 121
so the vessel will M 121
so the caller must M 121
so it became much M 121
so we turned left M 120
so we should tell M 120
so we should save M 120
so we should meet M 120
so we posted away M 120
so the papers will M 120
so the former brings M 120
so it became ever M 120
so is useful only M 120
so in future ages M 120
so he rarely uses M 120
so he pulled some M 120
so go through your M 120
so by simply adding M 120
so the subtle body M 119
so the custom grew M 119
so the answer came M 119
so it needed only M 119
so we always make M 118
so to better their M 118
so the signal must M 118
so the keeper went M 118
so the couple must M 118
so he tagged along M 118
so the bottom half M 117
so in states like M 117
so he changed over M 117
so we should want M 116
so we should gain M 116
so we mention only M 116
so the papers tell M 116
so the latter half M 116
so the filter will M 116
so it should know M 116
so it should ever M 116
so it seemed fair M 116
so it became like M 116
so it always came M 116
so is neither true M 116
so in unique ways M 116
so in nature there M 116
so in better heart M 116
so in another work M 116
so he stayed only M 116
so he sought other M 116
so he should reach M 116
so he passes over M 116
so he closed down M 116
so to obtain more M 115
so the little tree M 115
so the events were M 115
so in someone else M 115
so we stayed over M 114
so to realize their M 114
so to manage your M 114
so to manage these M 114
so the volume must M 114
so the longest life M 114
so the insect will M 114
so the entire page M 114
so the energy cost M 114
so the branch will M 114
so the bottom part M 114
so the actual work M 114
so the actual loss M 114
so is absent from M 114
so in future when M 114
so he wisely said M 114
so he thought upon M 114
so he became part M 114
so he became calm M 114
so we always take M 113
so he stayed back M 113
so we should draw M 112
so we return from M 112
so we judged from M 112
so we deduce from M 112
so we closed down M 112
so to pursue their M 112
so the person when M 112
so the charge runs M 112
so it appears here M 112
so is almost sure M 112
so in another form M 112
so he simply says M 112
so he bought four M 112
so the priest says M 111
so the models were M 111
so the mental life M 111
so the family said M 111
so the better able M 111
so if something went M 111
so we assume from M 110
so the viewer must M 110
so the values used M 110
so the supply must M 110
so the garden will M 110
so of course many M 110
so no sooner were M 110
so it should hold M 110
so he thought best M 110
so he always says M 110
so we rushed over M 109
so the second mate M 109
so the normal range M 109
so the figure must M 109
so the energy from M 109
so on through more M 109
so he needed help M 109
so we simply take M 108
so we merely went M 108
so the wicked will M 108
so the supply will M 108
so the strain rate M 108
so the demand will M 108
so the actual data M 108
so me thought ever M 108
so it points down M 108
so is purely ideal M 108
so in remote areas M 108
so in proper time M 108
so in modern days M 108
so he sounds like M 108
so he simply used M 108
so he should call M 108
so he rushed down M 108
so by granting only M 108
so we better have M 107
so to impose their M 107
so we borrow from M 106
so we always want M 106
so the school list M 106
so the points were M 106
so the latter term M 106
so the friend said M 106
so the entire cost M 106
so my friend here M 106
so my clothes were M 106
so it seemed even M 106
so it looked even M 106
so it appears hunt M 106
so in proper form M 106
so he wisely held M 106
so he sought some M 106
so he simply sent M 106
so by lowering their M 106
so by devious paths M 106
so as without fail M 106
so the flames were M 105
so my brother came M 105
so we should cease M 104
so we become like M 104
so we always look M 104
so to redeem their M 104
so to enlist their M 104
so the energy lost M 104
so the course will M 104
so the camera must M 104
so my brother told M 104
so it appears most M 104
so is someone else M 104
so in future will M 104
so in cities like M 104
so if someone said M 104
so he wisely left M 104
so by altering their M 104
so the letter says M 103
so the inside edge M 103
so the finish will M 103
so the actual date M 103
so it serves only M 103
so we worked like M 102
so we hardly knew M 102
so we arrive back M 102
so the public gets M 102
so the master must M 102
so the female will M 102
so the energy must M 102
so the clothes will M 102
so the actors must M 102
so it seemed were M 102
so if someone gets M 102
so he joined their M 102
so he backed into M 102
so at little risk M 102
so as nobody hears M 102
so the shadow will M 101
so the ladies said M 101
so the caller will M 101
so we turned west M 100
so we should hope M 100
so we pulled down M 100
so the values were M 100
so the prices have M 100
so the output must M 100
so the masses will M 100
so the impact will M 100
so the fiction runs M 100
so the entire trip M 100
so the divine mind M 100
so the changes must M 100
so the bright eyes M 100
so the affair came M 100
so he writes from M 100
so to occupy their M 99
so the spirit also M 99
so the client gets M 99
so the claims were M 99
so of course only M 99
so we simply went M 98
so we should fail M 98
so we reached home M 98
so we better just M 98
so to purify their M 98
so the reaction time M 98
so the latter gave M 98
so the effort will M 98
so the church came M 98
so is forced into M 98
so is always ready M 98
so in periods when M 98
so in future work M 98
so by something else M 98
so the writer told M 97
so the second page M 97
so the second book M 97
so the prices will M 97
so the family unit M 97
so on someone else M 97
so he spends more M 97
so he should only M 97
so we commit your M 96
so we changed into M 96
so to impair their M 96
so to assure their M 96
so the volume flow M 96
so the mothers were M 96
so the minute hand M 96
so the lights from M 96
so the entire file M 96
so the choice lies M 96
so the changes made M 96
so the building must M 96
so on without ceasing M 96
so on depend upon M 96
so my sister will M 96
so it surely must M 96
so it scarce ever M 96
so it changes into M 96
so is neither here M 96
so he quotes from M 96
so of course also M 95
so is pretty well M 95
so we merely note M 94
so to record some M 94
so to choose their M 94
so the younger sons M 94
so the states must M 94
so the person reading M 94
so the larger ones M 94
so the entire work M 94
so the entire range M 94
so the column will M 94
so the choice among M 94
so the attack must M 94
so my friend will M 94
so my devout fits M 94
so it proved even M 94
so is clearly seen M 94
so in mature years M 94
so he always gets M 94
so at design time M 94
so we rushed down M 93
so the entire town M 93
so the battle must M 93
so we rarely have M 92
so we follow their M 92
so we called some M 92
so to injure health M 92
so the writer uses M 92
so the scheme came M 92
so the little fish M 92
so the ladies went M 92
so the greater must M 92
so it seemed till M 92
so in course their M 92
so he thought only M 92
so he should work M 92
so he pushed away M 92
so he called home M 92
so he almost fell M 92
so as thereby some M 92
so the tenant will M 91
so the former part M 91
so the demand grew M 91
so the changes take M 91
so it stands there M 91
so it seemed well M 91
so it seemed much M 91
so it covers more M 91
so it appears very M 91
so he smiled more M 91
so he drifts into M 91
so we should send M 90
so we should pick M 90
so we expect there M 90
so we embark upon M 90
so the states were M 90
so the seasons came M 90
so the proper name M 90
so the prints were M 90
so the prints have M 90
so the fellow said M 90
so the events have M 90
so the candle will M 90
so it seemed time M 90
so it appears also M 90
so by another deed M 90
so we looked back M 89
so we always move M 89
so the second type M 89
so we perish from M 88
so to reduce these M 88
so to answer their M 88
so the writer says M 88
so the record must M 88
so the prayer book M 88
so the moment there M 88
so the master told M 88
so the heavens must M 88
so the former aims M 88
so the family line M 88
so the colors were M 88
so on result from M 88
so in reality when M 88
so in another month M 88
so he turned onto M 88
so he should speak M 88
so he changed from M 88
so we clearly have M 87
so the lesson from M 87
so the bodies left M 87
so the agency must M 87
so it needed more M 87
so we should drop M 86
so we seldom have M 86
so we refuse those M 86
so we hardly know M 86
so to return unto M 86
so to enable their M 86
so the states will M 86
so the result from M 86
so the plants need M 86
so the credit risk M 86
so on became more M 86
so of little boys M 86
so of course among M 86
so it should show M 86
so it passes along M 86
so is hidden from M 86
so he should send M 86
so he relies upon M 86
so by simply saying M 86
so the plants grow M 85
so the little room M 85
so the energy used M 85
so the amount will M 85
so my little heart M 85
so my letter must M 85
so we simply call M 84
so to forget those M 84
so the second side M 84
so the return north M 84
so the prints will M 84
so the middle part M 84
so the latter dealt M 84
so it sounds very M 84
so it looked nice M 84
so it became just M 84
so is little used M 84
so is desire like M 84
so in varied ways M 84
so in little bits M 84
so in another book M 84
so he wisely kept M 84
so he rushes into M 84
so he rarely went M 84
so he placed some M 84
so he picked some M 84
so he judged well M 84
so he bought half M 84
so by lawful means M 84
so at lowest cost M 84
so the entire book M 83
so the earlier form M 83
so we neither look M 82
so we cleared away M 82
so to divert their M 82
so the widest part M 82
so the simple rule M 82
so the shares were M 82
so the second move M 82
so the market must M 82
so the locals were M 82
so the larger will M 82
so on through such M 82
so my options were M 82
so it should leave M 82
so it proved upon M 82
so is always open M 82
so in another life M 82
so if rights make M 82
so he wanted nothing M 82
so he spends time M 82
so he bought from M 82
so by limiting their M 82
so be gentle when M 82
so we simply said M 80
so we shared what M 80
so we clearly need M 80
so to handle these M 80
so to extend over M 80
so to escape into M 80
so to compel their M 80
so the church made M 80
so it covers only M 80
so it became true M 80
so in larger ones M 80
so in autumn when M 80
so he wisely made M 80
so he rushed upon M 80
so he quoted from M 80
so he gladly gave M 80
so he always uses M 80
so by adopting some M 80
so at periods when M 80
so as nobody else M 80
so it pretty much M 76
so by choosing file M 71
so the little baby M 64
so the changes have M 61
so of someone else M 60
so to affect their M 59
so to become less M 57
so the better sort M 55
so no effort will M 55
so we walked past M 54
so to affect those M 53
so the methods will M 52
so the ladies tell M 51
so we expect more M 50
so the belief grew M 50
so we tagged along M 49
so the masses were M 49
so the latter only M 49
so the battle will M 49
so on through ever M 49
so he stayed over M 49
so he seemed more M 49
so my entire life M 48
so if something else M 48
so he poured upon M 48
so the letter from M 47
so the divine word M 47
so the clouds were M 47
so the system grew M 46
so the speech went M 46
so the nobles were M 46
so the family life M 46
so the entire army M 46
so my sister told M 46
so it seemed less M 46
so if anyone gets M 46
so an effort must M 46
so to narrow down M 45
so the wounds were M 45
so the second coming M 45
so the reaction from M 45
so the attack upon M 45
so it appears much M 45
so we should care M 44
so we better move M 44
so to direct these M 44
so the younger boys M 44
so the measure ends M 44
so the latter left M 44
so the errors were M 44
so the carnal mind M 44
so of course such M 44
so he turned more M 44
so he learned early M 44
so the strain will M 43
so the speaker said M 43
so the matter hangs M 43
so the family felt M 43
so the actors have M 43
so no special care M 43
so to become self M 42
so the writer went M 42
so the source will M 42
so the person taking M 42
so the injury done M 42
so the entire life M 42
so no damage will M 42
so my sister came M 42
so my brother says M 42
so the report came M 41
so the divine love M 41
so the divine good M 41
so the damage will M 41
so of course most M 41
so in modern life M 41
so he worked there M 41
so he reaches over M 41
so he pushed down M 41
so the tragic hero M 40
so the second pair M 40
so the little maid M 40
so the future life M 40
so the flames will M 40
so the entire list M 40
so the doctor left M 40
so the couple left M 40
so the battle ends M 40
so my friend says M 40
so my doctor said M 40
so it dawned upon M 40
so he rested there M 40
so he looked much M 40
so he looked less M 40
so he handed down M 40
so in recent years D 8104
so the soviet union D 3058
so the police were D 1996
so the courts have D 1855
so he jumped into D 1749
so the horses were D 1680
so he plunged into D 1551
so the troops were D 1402
so the french were D 1244
so the police will D 1115
so he sailed away D 1090
so the artist must D 987
so the police have D 879
so by entering into D 868
so he rolled over D 846
so we jumped into D 819
so my patent back D 796
so he jumped down D 727
so the feller took D 702
so the struck eagle D 699
so the police came D 698
so the prince took D 671
so by sticking fast D 654
so we jogged along D 621
so the stakes were D 561
so the houses were D 554
so the courts will D 553
so the income from D 521
so ye perish from D 520
so the french have D 505
so the priest lays D 499
so he simply took D 489
so the police took D 449
so he sailed back D 447
so the surgeon must D 445
so the doctor took D 444
so the struck deer D 441
so the slaves were D 440
so the fabric will D 440
so the farmer must D 434
so the cattle were D 429
so in places like D 426
so the clergy were D 425
so we plunged into D 419
so the rumors went D 410
so the rumors were D 400
so the plural verb D 392
so the spirit took D 390
so the driver will D 388
so we sailed away D 376
so the police said D 375
so the golden rule D 372
so the french army D 367
so as houses were D 367
so the needle will D 362
so the farmer went D 362
so the nations only D 358
so we talked over D 356
so the gossip went D 351
so to bridge over D 344
so he jumped from D 343
so we whiled away D 339
so the seller will D 335
so the decade flew D 334
so the police went D 330
so the singular verb D 320
so to employ their D 318
so as suited their D 316
so the wheels were D 306
so the courts must D 305
so the entire soul D 304
so do without rice D 302
so the bishop went D 301
so the player must D 299
so he ducked into D 294
so the decree went D 291
so the horses will D 285
so the courts were D 284
so the family took D 277
so the porter went D 276
so he always took D 276
so the second wave D 273
so by settling down D 273
so we settle down D 271
so he jumped over D 271
so it varies from D 264
so the budget line D 263
so it boiled down D 258
so it always pays D 256
so the router will D 252
so he sailed from D 251
so the wagons were D 249
so the farmer took D 247
so the police must D 244
so we sailed from D 243
so the piston will D 243
so the farmer said D 241
so he plunges into D 241
so the player will D 239
so by focusing upon D 238
so to settle down D 236
so it tastes like D 236
so the cowboy went D 234
so the cattle will D 233
so the artist will D 233
so we always took D 232
so he jotted down D 230
so the priest took D 229
so the lawyer must D 224
so thy watery bier D 222
so the infant will D 222
so is readily seen D 222
so he rolled down D 222
so the spinal cord D 220
so the driver must D 219
so the allies were D 219
so the watery throng D 218
so the latter took D 215
so we hopped into D 213
so the farther away D 213
so the dinner went D 212
so the amount paid D 211
so the condom will D 210
so he forged ahead D 210
so the planes were D 209
so the stones were D 208
so it befell upon D 208
so he whiled away D 208
so the seller must D 206
so the device will D 206
so the farmer will D 205
so the joints will D 204
so he gulped down D 204
so the astral body D 203
so in bygone days D 202
so he jumped back D 202
so by reducing their D 196
so we camped there D 195
so the butter will D 193
so to render their D 192
so he struck into D 192
so the saints have D 190
so the screws will D 189
so we ducked into D 187
so the common folk D 183
so the teacher took D 180
so the chiefs were D 180
so he plunged ahead D 179
so the peasant went D 176
so on bended knee D 176
so the solder will D 174
so it blends into D 174
so the saints grow D 172
so the sultan sent D 170
so the horses have D 170
so the batter will D 169
so the miller tied D 166
so it befell when D 164
so the cursor will D 163
so the chicks will D 162
so of course poesy D 162
so he dashed into D 162
so he blazed away D 160
so the wheels will D 159
so the plates were D 159
so the lovers were D 158
so the bullet will D 158
so the driver took D 157
so in nitric acid D 155
so the lawyer went D 154
so in pressing upon D 154
so he glided along D 154
so the lender will D 152
so the french will D 152
so the dismal mole D 152
so he shrank from D 152
so he sailed north D 152
so the police think D 151
so the credit card D 151
so my brother took D 150
so he whacks their D 150
so he dashed ahead D 150
so we talked some D 148
so the plural form D 148
so the dollar will D 148
so the powder will D 146
so the little finger D 146
so to temper their D 144
so the hunter went D 144
so he lapsed into D 144
so the rebels were D 142
so the evenings were D 141
so he talked down D 140
so he rented land D 140
so we rolled along D 138
so the target will D 138
so the surgeon will D 138
so the knight took D 138
so the duckling went D 138
so the bishop sent D 138
so he slowly rode D 138
so he merely took D 136
so the income will D 135
so the leaders were D 134
so of recent years D 134
so to invest their D 133
so we struck camp D 132
so he readily gave D 132
so the french word D 131
so we forged ahead D 130
so the hunter took D 130
so the entire crew D 130
so the carpet dust D 130
so the nurses were D 129
so the knight went D 128
so he lapses into D 128
so we bedded down D 127
so the rumors said D 127
so the planet will D 127
so the estate will D 127
so the voters were D 125
so the juices will D 125
so ye craved leave D 124
so the ligand must D 124
so the grower must D 123
so the device must D 122
so the wolves will D 120
so the whites were D 120
so the nations will D 120
so the jailer heard D 120
so the findings must D 120
so the cables were D 120
so the blacks were D 120
so he jogged along D 120
so the waiter will D 119
so the foliage will D 119
so the scotch call D 118
so the lawyer will D 118
so the farther back D 118
so the dosage must D 117
so we plough along D 116
so the sticky side D 116
so the infant must D 116
so the cheese will D 116
so in sundry other D 116
so the rubber band D 114
so the driver told D 114
so of little pots D 114
so it tastes good D 114
so he sailed down D 114
so he bumped into D 114
so the flavor will D 113
so the policy will D 112
so the knocks went D 112
so the herald went D 112
so in divers other D 112
so the grains will D 110
so the atomic theory D 110
so it shrank back D 110
so be driven into D 110
so he sneaked into D 108
so we hauled down D 107
so the hunter must D 107
so the drawer will D 107
so the collar will D 107
so the affair blew D 107
so we shrink from D 106
so the troops went D 106
so the troops kept D 106
so the pilots were D 106
so the hounds were D 106
so the french felt D 106
so the findings from D 106
so the canvas will D 106
so the bullet must D 106
so in places such D 106
so he ducked down D 106
so the scores were D 104
so the ground crew D 104
so the farmer gave D 104
so the energy flux D 104
so the deputy rose D 104
so he jumped onto D 104
so we loafed along D 103
so the slices will D 103
so the office will D 103
so the cement will D 103
so the shells will D 102
so the second wife D 102
so the oration went D 102
so the master took D 102
so the bubble will D 102
so he drinks more D 102
so he begged rope D 102
so the sparks will D 101
so the atomic mass D 101
so to deviate from D 100
so the sexton says D 100
so the rivers were D 100
so the rabbit went D 100
so the farmer told D 100
so my cousin says D 100
so it melted away D 100
so in acetic acid D 100
so he hopped into D 99
so to elicit from D 98
so the tailor went D 98
so the sender must D 98
so we steamed away D 97
so we rolled down D 97
so the switch from D 97
so the couple took D 97
so the weapons were D 96
so the surgeon said D 96
so the prince drew D 96
so the furies were D 96
so the french made D 96
so the french call D 96
so the french book D 96
so the doubling time D 96
so the bridge will D 96
so the switch will D 95
so the poison will D 95
so he struck back D 95
so the strike went D 94
so the stairs were D 94
so the mirror will D 94
so the curves have D 94
so the chairs were D 94
so the bairns were D 94
so it smells like D 94
so by bitter need D 94
so the leaders must D 93
so the comedy went D 93
so the stones will D 92
so the senate said D 92
so the seller pays D 92
so the parson said D 92
so the guards took D 92
so the golden days D 92
so by focusing their D 92
so the dishes were D 91
so the skinny bird D 90
so the section will D 90
so the second task D 90
so the plague came D 90
so the messiah will D 90
so the infant heart D 90
so the gloves were D 90
so the french took D 90
so the feathers will D 90
so he changed tack D 90
so the trucks were D 89
so my friend took D 89
so the waiter brings D 88
so the scribe said D 88
so the jewels were D 88
so the forest took D 88
so the duckling left D 88
so the caliph sent D 88
so the barrel will D 88
so he jumped ship D 88
so he delved into D 88
so by dinner time D 88
so as parching heats D 88
so the series must D 87
so the nurses will D 87
so the findings were D 87
so the breeze from D 87
so to settle their D 86
so to recede from D 86
so the sinful soul D 86
so the saints were D 86
so the french came D 86
so he readily fell D 86
so he gladly took D 86
so by painting their D 86
so we lapsed into D 84
so the visual arts D 84
so the troops will D 84
so the incoming tide D 84
so the broker will D 84
so he stared back D 84
so we talked till D 83
so the packet will D 83
so we simply took D 82
so to fashion their D 82
so the police knew D 82
so the police come D 82
so the flaxen girl D 82
so the church took D 82
so at dinner time D 82
so as stifle twin D 82
so we glided along D 81
so the sultan gave D 81
so we sailed back D 80
so to retard their D 80
so to jockey these D 80
so the ponies were D 80
so the parson went D 80
so the floating veil D 80
so the farmer says D 80
so we sailed along D 54
so it seemed okay D 54
so the mortar will D 50
so the miners were D 49
so the little boat D 49
so the convex side D 48
so he hopped over D 47
so the sinner must D 46
so the findings will D 46
so the driver said D 46
so we sailed down D 45
so the voters will D 45
so the camera lens D 45
so the french said D 44
so the matter blew D 43
so the swedes were D 42
so the stuffing will D 42
so the series will D 42
so the middle finger D 42
so the leaders will D 42
so the holder will D 42
so the gospel pearl D 42
so the camera crew D 42
so the wheels turn D 41
so the muscle will D 41
so we talked more D 40
so the station will D 40
so the saddle will D 40
so the review will D 40
so the french went D 40
so the fashion among D 40
so the farther north D 40
so the bricks will D 40
so he stared hard D 40
