solve them in a M 3048
sorry son of a M 3040
sound can be a M 1455
sound that is a M 1344
sound out of a M 1340
sound may be a M 1320
solid and of a M 1216
sound and in a M 1093
sound and of a M 982
sound was of a M 953
sound and is a M 605
solve all of a M 600
solid and as a M 558
solid and in a M 556
solve them on a M 548
sound and as a M 538
sound due to a M 520
solve them by a M 454
sorry this is a M 446
solid than in a M 432
solid may be a M 396
sound box of a M 392
solve for the a M 388
solve this in a M 380
solid than as a M 366
sorry for me i M 348
solve them as a M 340
sound but as a M 327
solid that is a M 314
sorry for it i M 310
sorry end to a M 300
solid due to a M 295
sorry that as a M 264
sorry that in a M 250
sound that of a M 244
sorry for as i M 244
solid earth as a M 236
solve this as a M 234
solve them is a M 232
sound are in a M 230
solid and is a M 226
solid earth is a M 220
solid man in a M 214
sound odd to a M 211
sound but in a M 210
sound that in a M 208
sound and to a M 202
solid out of a M 202
sound off on a M 196
sorry she is a M 192
sorry for it a M 182
sound and by a M 181
sound off in a M 178
solid earth to a M 162
sound was as a M 158
sorts are of a M 156
sound idea of a M 154
sound this is a M 151
sound than to a M 151
sound man in a M 144
soothing her in a M 144
solve this by a M 144
sound was in a M 142
sound and at a M 142
solid than of a M 142
solve them at a M 140
sound odd in a M 139
sorry but if i M 134
solid earth in a M 134
sound led to a M 133
sound but of a M 128
solid but as a M 128
sorry that at a M 126
sound box is a M 122
sorts out of a M 122
solve one at a M 120
solid can be a M 120
sound out in a M 118
sound head of a M 118
sound use of a M 116
solve for me a M 116
sound was at a M 113
sorts and in a M 112
solid and on a M 112
sound him on a M 110
solid meal in a M 108
sound man is a M 102
solid are in a M 102
soothing him as a M 98
sorry now as i M 96
sound leg of a M 94
solid and to a M 94
sound man on a M 92
sound are of a M 92
soothing her by a M 90
solid things in a M 90
sorts was at a M 88
sorts and as a M 88
sound not of a M 86
solve any of a M 86
sound and on a M 85
sound off at a M 84
sorry end of a M 84
soothing him in a M 84
sorts them in a M 82
sorry and if i M 82
sound all of a M 80
solid bar by a M 80
sound not as a M 70
sound but is a M 65
sound both as a M 52
sound but by a M 48
sound than as a M 45
sound and the a M 44
sound and as i M 44
sound that as a M 40
sound than in a M 40
sound head in a M 40
soaking them in a D 3646
souls are in a D 1952
soils are of a D 1230
social being in a D 862
souls out of a D 856
souls are of a D 734
soils are in a D 734
sorting out of a D 666
solving them in a D 636
souls and in a D 564
social man is a D 558
soils and is a D 550
soups and as a D 542
soils may be a D 540
soils and as a D 486
sober and in a D 484
social and as a D 476
soils and in a D 448
social being is a D 444
social being as a D 436
soothe him by a D 416
soaking wet in a D 409
solving can be a D 379
social and to a D 376
solar day is a D 346
social and in a D 342
solar heat in a D 336
soils are as a D 336
soils and to a D 334
sober him up a D 334
social use of a D 332
soils can be a D 322
social than of a D 318
social law is a D 318
social man as a D 314
sober man in a D 306
social act of a D 298
social act is a D 288
soothe her in a D 282
solving and as a D 275
soaps and as a D 274
socks out of a D 266
sores and as a D 256
solar heat to a D 256
social act as a D 248
sorting them in a D 238
souls and as a D 236
solar heat as a D 232
sober head of a D 228
solving may be a D 222
sowed them in a D 220
social than as a D 214
soils due to a D 212
solid ice in a D 204
solid rod or a D 202
soaring out of a D 198
solving them is a D 196
solar year is a D 192
souls had in a D 190
soothe him in a D 188
soils act as a D 188
sober and of a D 186
sober all of a D 186
solar day as a D 178
social but as a D 178
social man in a D 172
social and of a D 172
souls met in a D 170
sorting out in a D 162
social tie of a D 162
social being of a D 162
sober man or a D 154
solid thud of a D 152
sonny was in a D 148
solar myth or a D 148
solving this is a D 145
souls than as a D 140
solar year by a D 140
social death as a D 138
social sin is a D 136
solid fat in a D 134
social than in a D 134
soaks them in a D 132
solar heat on a D 130
soils this is a D 130
social but in a D 130
sound beam in a D 128
souls and of a D 128
solving them on a D 128
social act in a D 126
solving this as a D 124
solar heat by a D 124
solid ice of a D 122
souls may be a D 118
soothing hum of a D 118
solar heat is a D 118
social and on a D 118
soaking wet as i D 118
social idea of a D 116
social death of a D 116
soils led to a D 114
social map of a D 114
souls are on a D 112
sorry for ye a D 112
social being to a D 112
social being or a D 112
solving for the a D 111
soils are to a D 110
social myth of a D 110
social area of a D 110
sober men in a D 110
soaking wet on a D 108
souls are as a D 106
solar year in a D 106
socks one at a D 100
social tie in a D 100
solid rod of a D 98
social use as a D 98
sound beam at a D 96
solving them as a D 96
soils lead to a D 96
sobbing and in a D 95
soups can be a D 94
sores can be a D 92
social lion or a D 92
sorting out is a D 90
soils and of a D 90
soggy end of a D 90
social mix of a D 88
souls and is a D 86
solid ice to a D 86
solar year as a D 86
soils are at a D 86
soils and on a D 84
socks are in a D 84
social aim of a D 84
social death in a D 82
souls but as a D 80
soothe him as a D 80
social web of a D 80
social mix in a D 80
sorting can be a D 63
soiling may be a D 47
sobbing cry of a D 43
