cling to a man M 1541
cling to a few M 930
cling to a set M 227
cling to a way M 226
cling to a dead M 218
cling to a long M 204
cling to a new M 154
cling to a bit M 126
cling to a job M 124
cling to a bad M 110
cling to a myth M 106
cling to a bear M 88
cling to a toy M 86
cling to a log M 80
cling to a one M 43
cling to a god M 40
cling to a thin D 82
