class , " the M 26194
class , " he M 22636
close , " he M 21562
class , " in M 16465
class , " as M 8060
claim , " the M 7998
class , " or M 7979
close , " the M 6404
claim : " the M 6394
class : " the M 5312
claim , " he M 5194
clock , " he M 4252
cloud , " the M 4154
class , " it M 3891
class , " is M 3426
cloud , " he M 3345
clock , " the M 3334
class , " to M 2995
clothing , " he M 2932
class , " we M 2923
claim , " we M 2814
claim , " it M 2648
climb , " he M 2131
claim : " we M 2109
class , " if M 2086
claim : " it M 1980
cloak , " he M 1974
clothing , " the M 1851
class , " by M 1824
claim , " as M 1767
claim , " in M 1671
close , " or M 1523
class : " it M 1464
claim : " in M 1400
class : " we M 1348
class : " if M 1283
class , " of M 1253
cloud , " as M 1252
close : " the M 1234
close , " as M 1234
closing , " the M 1203
claim : " if M 1188
class , " do M 1184
class , " so M 1169
claim , " if M 1152
cloud , " or M 1118
click , " the M 1094
class , " an M 1090
closing , " he M 1042
cloud , " in M 1034
clock , " or M 988
clearing , " he M 966
close , " it M 960
clock , " as M 947
class : " in M 943
claim , " or M 925
close , " in M 921
clock , " it M 920
cleaning , " he M 920
clock , " in M 893
claim , " is M 888
clothing , " in M 822
claim , " to M 797
clues , " he M 788
clothing , " as M 726
close , " we M 715
climb , " the M 713
cloud , " is M 704
close , " to M 704
close , " is M 664
claim , " my M 662
class , " at M 651
class , " on M 647
class , " my M 644
cloak , " the M 620
clothing , " or M 594
clock , " is M 537
clock , " to M 529
class , " no M 517
claim , " no M 502
cloud , " to M 483
clearing , " the M 461
cloud : " the M 457
clock , " by M 453
class : " he M 450
class : " as M 442
close , " my M 439
clues , " the M 430
close , " if M 427
close : " we M 426
class : " do M 426
cloud , " it M 410
class : " my M 404
clock , " we M 396
close , " so M 394
claim : " he M 385
claim : " my M 380
closing , " is M 373
claim : " no M 359
click , " or M 354
claim : " as M 352
cleaning , " the M 350
click , " as M 337
cloud , " by M 336
closing : " the M 332
claim : " to M 329
clothing : " the M 328
closing , " we M 321
class : " is M 313
close : " it M 305
cloak , " it M 296
click , " he M 293
cloak , " in M 290
close , " do M 289
clears , " he M 282
class : " to M 282
clearing , " in M 278
close : " if M 274
cloud , " we M 272
class : " no M 270
class , " be M 264
closing , " it M 263
close , " by M 260
claim , " by M 249
close : " in M 245
cloud , " no M 243
clearing , " or M 242
clock : " the M 238
clearing , " as M 238
claim , " an M 236
clothing , " is M 232
closing , " to M 230
cloths , " the M 228
cleaning , " in M 228
clothing , " to M 220
claim , " oh M 220
cloak , " is M 218
closing , " or M 217
cloak , " to M 216
cloak , " as M 215
class : " on M 213
closing : " we M 209
claim : " by M 208
cloak , " or M 202
close , " at M 199
close , " of M 196
class : " by M 187
clock , " so M 185
claim , " so M 184
clock : " it M 182
close , " an M 180
clues , " in M 176
click , " in M 175
cloths , " he M 174
close : " my M 171
closing , " as M 166
class , " oh M 164
clothing , " it M 158
class : " oh M 152
class : " an M 152
cloud , " so M 151
clock , " an M 148
close : " he M 142
clothing , " so M 139
click , " it M 139
claim , " of M 135
claim : " on M 134
clothing , " by M 132
class : " at M 132
clues : " the M 130
clothing : " it M 130
clothing , " of M 130
claim : " an M 124
clues , " as M 123
clothing , " an M 122
closing : " it M 122
closing : " if M 122
class : " be M 122
close : " so M 120
class : " so M 120
clearing , " it M 119
cloths , " or M 118
clothing , " we M 118
claim : " at M 116
close , " oh M 112
clock , " at M 110
click , " to M 108
claim : " do M 108
claim , " on M 108
close : " to M 107
cloud , " an M 106
clothing : " we M 106
closing , " in M 106
clears , " the M 106
clues : " it M 104
cloud : " he M 104
clues , " or M 102
clock , " of M 102
climb , " to M 102
claim : " so M 101
clearing , " is M 100
closing : " in M 99
click , " is M 99
cloud , " on M 98
cloths , " as M 97
cloak , " so M 97
clothing , " no M 94
clothing : " he M 90
cloud , " my M 86
class : " of M 84
cleaning , " or M 74
cleaning , " as M 74
climb , " as M 72
close : " do M 47
close : " as M 47
cleaning , " it M 47
cleaning , " by M 47
close , " on M 42
closing , " so M 41
claim , " at M 41
