clearly as i can M 16556
cleaned up a bit M 4650
clearly as i see M 3976
clothes in a bag M 3108
clothes in a heap M 2976
clothes of a man M 2877
closer to a real M 2834
claims of a new M 2664
clearly as i did M 2632
client in a way M 2156
closer to a new M 1918
closed by a few M 1880
cleared in a few M 1802
closer to a than M 1795
closed in a few M 1777
clearly do i see M 1736
cleared up a few M 1620
claims of a few M 1513
closed by a long M 1500
claims in a way M 1447
cleared up a lot M 1430
closer so i can M 1425
clearly as i saw M 1412
clearly in a few M 1404
closer to a man M 1368
claims of a man M 1356
cleared up a bit M 1212
closed by a bar M 1180
clearly as i had M 1100
claims as a poet M 1079
clothes in a big M 1044
clearly as a man M 1044
claims to a new M 1037
clothes or a new M 966
cleaned up a lot M 933
clearly in a way M 928
client is a man M 896
clearly in a bad M 880
clearly as i was M 878
clothes in a box M 841
clothes of a dead M 824
clouds in a sky M 818
clothes so i can M 782
closed by a low M 773
clause in a way M 770
clocks at a and M 768
claims to a seat M 763
closed in a way M 741
climbing up a long M 730
closed by a two M 712
clearer by a few M 712
client to a new M 674
clothes in a way M 668
closed by a new M 632
clothes as i had M 628
client in a non M 626
clearly as i now M 626
clouds of a new M 612
clause in a new M 592
clause in a law M 584
client is a web M 558
closes in a few M 553
clause in a long M 540
clothes in a few M 536
claims in a new M 532
clothes of a boy M 510
cleaned up a few M 506
claims as a man M 498
closer to a year M 495
client as a way M 465
clearly in a new M 460
cleaned in a long M 460
clicking on a web M 453
clause of a law M 453
clothes in a year M 451
clearly be a long M 444
clothes as a way M 434
climbing to a new M 434
closed in a death M 412
clearly on a map M 410
clearly in a long M 406
cleared by a few M 402
closer to d than M 400
clearer if i had M 400
closer to a one M 394
clause is a set M 394
clause as a bar M 394
client is a new M 390
cleared in a day M 388
clearly as i may M 386
closer to a long M 384
client or a web M 383
closer to a few M 382
client in a new M 378
claims on a man M 377
clicking on a map M 369
clearer in a few M 366
closer to a war M 362
closed by a death M 362
clause of a try M 360
clearer if i say M 354
closer in a way M 345
closed in a long M 344
clearly as i hear M 342
clothes as i was M 340
closer to i than M 339
cleaned in a few M 338
closer to a two M 333
claims of a non M 333
closed by a law M 330
client in a real M 329
claims of a long M 326
closer to a deal M 324
clicking on a new M 323
claims of a son M 316
climbing up a few M 314
closed by a red M 312
clause in a real M 308
closed in a box M 303
claims as a way M 302
closer to t than M 300
claims in a year M 300
closer to a set M 295
clearly in a poem M 294
clause is a way M 294
clothes as i did M 292
clearly to a man M 292
closed by a set M 288
closed in a day M 284
clause is a non M 284
closer to a yes M 282
client in a long M 282
clicking on a box M 282
closer to a big M 280
closer to a and M 278
claims of a and M 278
client on a one M 275
closed by a key M 272
cleared in a year M 271
closed at a and M 266
cleaned in a day M 264
clicks on a web M 258
clothes in a new M 256
clearly to a new M 254
clause as a way M 254
clothes to a man M 252
closer to a way M 252
client or a new M 252
clause or a long M 252
closer to s than M 250
closed in a dead M 246
client is a real M 246
clearly on a path M 246
client is a long M 242
closed to a man M 238
closed it a few M 238
cleared up a long M 232
client is a key M 230
clouds on a day M 229
clothes of a new M 228
closed by a non M 228
closer to a non M 226
clothes if i had M 224
closer to a job M 224
clearly go a long M 224
clouds in a long M 218
client in a few M 218
clearly in a lot M 212
client in a job M 210
clearly by a few M 210
clearly be a new M 210
client on a pro M 209
closed as i sat M 208
client as a man M 208
clicking on a url M 208
clearly if i had M 208
client is a bit M 206
closed to a few M 204
client to a web M 204
clothes of a cut M 202
cleaned in a year M 202
closed so i can M 199
clothes on a long M 198
clause in a non M 197
clearly is a key M 196
clause of a new M 196
clocks of a and M 194
closed in a two M 192
closed by a big M 192
clearly at a low M 192
clouds in a way M 190
clothes in a long M 190
clothes in a day M 190
client is a big M 188
clause is a new M 186
clothes as i can M 184
closer as a team M 184
claims of a dying M 182
client in a low M 178
clothes on a day M 177
clicking on a few M 177
clothes on a man M 176
closed in a year M 175
clearly as a way M 174
cleared by a read M 173
closed by a bit M 172
clearly as a new M 172
claims in a few M 172
client on a new M 168
claims by a few M 168
clearly of a non M 167
claims to a few M 167
clouds of a long M 166
closed as i had M 166
client of a law M 166
client in a one M 166
clearly by a man M 166
clearly in a weak M 164
clothes in a dry M 162
cleaned or a new M 162
clothes to a dry M 158
closed by a one M 158
client on a low M 158
clearly is a new M 158
cleaned by a man M 158
claims on a new M 158
closed to a new M 156
closed on a long M 156
closed on a new M 155
client to a job M 154
closed up a bit M 151
cleansing of a man M 151
claims to a long M 150
closer to a day M 149
closed up a few M 148
clearly in a low M 147
closer to a head M 146
closed by a man M 146
closed at a new M 146
clearly in a set M 146
clearly do i now M 146
clearly be a key M 146
closed on a day M 145
closed by a lead M 143
clothes is a way M 142
client as a team M 142
clearly as i read M 142
cleared of a few M 142
cleaned in a way M 142
clause is a dead M 141
clause to a new M 138
claims in a non M 138
clause in a set M 136
claims to a man M 136
client is a non M 135
clothes or a few M 134
clouds of a sky M 133
clocks if i had M 132
client of a new M 132
client of a web M 131
client is a bad M 130
clearly in a key M 129
clothes or a man M 126
clearly is a man M 126
clothes is a real M 125
climbing on a box M 125
climbing up a path M 124
clicking of a key M 124
clearly to a head M 124
clearly in a non M 124
client on a day M 123
claims of a real M 123
clothes to a new M 122
clouds in a few M 120
closer to a low M 120
closed by a weak M 120
closed by a cup M 120
clearly as i sat M 120
claims at a low M 120
climbing up a big M 118
clearly as a set M 118
cleared by a long M 118
clouds of a few M 116
closed on a few M 116
clearly if i did M 116
clearly be a bad M 116
closer to a pro M 115
closed or a new M 115
client as a real M 115
clause as a set M 115
clearly is a way M 114
clause as a new M 114
clicks on a new M 113
clause or a non M 113
closed by a net M 112
client on a long M 112
client as a new M 112
clause of a long M 112
claims as a new M 112
closed so i had M 111
claims to a far M 111
claims on a pro M 111
clearly of a long M 110
clearer if a few M 110
client to a non M 109
closed as i was M 107
client in a bad M 106
clearly so i can M 106
clause is a bit M 106
claims of a far M 106
closer to a god M 105
clothes at a low M 104
clearer if i put M 104
cleared at a leap M 104
claims of a dead M 104
climbing as a boy M 103
claims to a non M 103
clothes or a dry M 102
clothes on a big M 102
clothes in a fit M 102
clothes if i was M 102
closed by a dry M 102
client in a day M 102
cleaned in a weak M 102
claims of a pre M 102
claims to a real M 101
clothes of a few M 100
clothes as a man M 100
closed up a long M 100
closed in a bit M 100
clearly to a long M 100
clearly on a new M 100
clearly is a non M 100
clearly as a dog M 100
clause on a new M 100
climbing in a long M 99
clearly of a far M 99
closer at a few M 98
cleared in a way M 98
clearly as a low M 96
claims to a sum M 96
clothes if i did M 94
clearly is a long M 94
closed in i had M 93
claims to a pro M 92
claims of a law M 92
closed so i did M 90
clearly in a dim M 90
client in a law M 89
clearly in a two M 89
clearly as i that M 89
claims to a set M 89
claims to a pre M 89
clothes or a set M 88
closed in a bud M 88
clearly if i can M 88
clearly by a map M 88
clearer if i got M 88
cleansing of a new M 88
closed in a new M 86
claims to a say M 85
clothes as i ran M 84
client if i did M 84
clearly in a map M 84
clause as i had M 84
clouds at a low M 83
claims in a yet M 83
clothes to a pit M 82
clothes so i did M 82
closer up i saw M 82
closed by a heap M 82
clearly is a lot M 82
clearly if i say M 82
claims of a poet M 82
clothes on a wet M 80
climbing of a long M 80
clearly as a poet M 80
clause as a cat M 80
closer to a pre M 69
clicking on a key M 68
closer to a lot M 67
closer to a win M 62
claims is a new M 58
closer to a dog M 56
clicks on a url M 54
clouds on a sky M 53
closer to a death M 52
closer to a net M 50
closer to a dead M 50
closer to a boy M 50
closer to a near M 48
closer to a mid M 48
client is a two M 47
claims as a set M 47
closer to a poem M 45
closed as a war M 45
client to a set M 45
closer to a ten M 43
closer to a mean M 43
closed by a top M 43
claims in a far M 43
closer to a key M 42
climbing as a way M 42
client in a two M 42
closer to a son M 41
closes on a new M 40
clothed in a long D 12010
climax of a long D 10870
closed by a thin D 4889
clothed in a new D 3660
closed by a lid D 3071
climax to a long D 2908
clothed in a red D 1978
clucking of a hen D 1688
clothes in a tub D 1492
closed by a cap D 1442
clothed in a thin D 944
clothes in a neat D 922
clever as a fox D 766
closed by a dam D 725
clever in a way D 694
clever as a man D 642
climax in a long D 636
clothed in a few D 572
clicking on a tab D 568
closed by a tap D 566
clerking in a dry D 554
climax of a year D 552
closed by a row D 550
climbing to a peak D 518
clothed in a lion D 486
clumsy as a bear D 484
clawed by a bear D 478
clothed as i was D 451
closed in a thin D 436
climax to a day D 425
climax to a year D 421
clothes on a bed D 418
clumps of a few D 398
clever as a cat D 366
clothed in a way D 362
closed by a cam D 362
climbs to a peak D 362
clothes or a car D 342
cleaned in a hot D 330
clique is a set D 326
clearly on a par D 316
clamor of a few D 314
clinic in a few D 302
clique of a few D 298
clause in a gas D 294
clothed in a neat D 286
clergy in a way D 283
clothed as a man D 275
clothes on a hot D 274
closed by a mat D 270
clothed in a mean D 268
clerking in a law D 266
clergy to a man D 260
clumsy as i was D 250
clinic in a new D 250
clicking on a mac D 248
cleaned in a bath D 244
clever as i was D 238
climax of a day D 232
clothes on a peg D 224
clipping of a poem D 218
clinic as a way D 214
climax of a two D 210
climax in a few D 205
clothes in a tin D 204
climax in a way D 203
clumsy as a cow D 202
clawed by a cat D 202
clamor of a mob D 202
closed by a bung D 196
clinic in a low D 193
climax of a new D 192
cleaves to a man D 190
clawed by a lion D 188
clothes in a hot D 184
climbs to a new D 184
climax of a poem D 182
clover is a low D 180
clever as i had D 180
closed on a hot D 175
clutch of a car D 174
clothed in a man D 169
closed by a rod D 168
clothed on a bed D 167
closed by a pin D 161
claret in a box D 161
clones of t and D 160
clutch is a wet D 157
clutch of a man D 156
clearings of a few D 156
clerks in a dry D 154
client on a fee D 151
clutch on a car D 150
clothes of a bed D 150
climax of a war D 149
climax of a set D 149
climax of a song D 144
clothed in a nun D 143
clothed by a few D 142
clause in a tax D 140
clapping of a few D 140
clothed as a nun D 138
clicking on a hot D 138
clerking in a new D 137
clouds on a hot D 136
clerks in a big D 136
clergy as a way D 136
climax to a new D 134
climax in a new D 134
clicks in a row D 134
clutch of a she D 132
clothed in a fur D 132
closed by a pad D 132
clover to a cow D 128
clothed in a bear D 128
closed to a thin D 128
clicking on a row D 128
clerking in a shoe D 127
closed by a seal D 126
claims on a par D 126
clangor of a gong D 125
climbs to a low D 124
clicks on a row D 124
climax of a man D 122
clouds in a hot D 121
closet as a gay D 120
clergy to a new D 120
client in a tax D 118
clutch in a car D 116
climax of a six D 116
climbs up a long D 114
clever as i did D 114
clover is a long D 112
clothed by a thin D 112
clever as a boy D 112
cleaned by a jet D 112
clever as i say D 110
climax of a ten D 109
clothes on a rub D 108
cloves in a pan D 106
closed by a wad D 106
climbing on a bus D 106
client is a liar D 106
clothes or a hat D 100
clothes in a car D 100
clothed in a low D 100
closet so i can D 100
clinic as a new D 100
clicking of a gun D 100
clergy to a due D 100
clicks on a tab D 99
closet in a way D 98
closed by a seam D 98
climbs up a few D 98
clacking of a hen D 98
closet in a box D 96
climbing on a hot D 96
clothes or a bed D 92
clothed in a rag D 92
cliffs in a few D 92
cloven by a gap D 90
clipping of a map D 90
climax is a long D 90
cleaner on a rag D 90
clumsy as a boy D 88
climax of a mad D 88
clashing in a way D 88
clutch of a lion D 86
clutch at a few D 86
cloyed by a too D 86
cloves in a ham D 86
clothed in a web D 86
clutch of a dead D 84
clouds in a car D 84
closed in a nap D 84
clones of a few D 84
climax to a war D 84
cleared in a bath D 84
clumps in a few D 82
clothes as i wear D 82
clothed me i was D 80
clearly as a thin D 80
closer to a sob D 65
clothed in a net D 58
closed by a gas D 49
clinic on a day D 48
clicks on a hot D 46
clarion on a war D 46
clothes on a mat D 45
climax to a two D 45
clothed in a bath D 44
cleric or a lay D 43
clause as a per D 43
clothed in a sky D 42
closer to a tax D 42
