ordering a set of M 1894
ordering a cup of M 1522
ordering a meal in M 1348
orders a man to M 994
ordering a man to M 868
orders a cup of M 848
orders a set of M 524
ordering a lot of M 488
orders i had to M 462
ordering a meal at M 436
orders i was to M 386
orders a meal in M 350
ordering a day of M 322
ordering a meal to M 314
orders i mean the M 302
ordering a meal or M 204
orders a lot of M 200
ordering a dog to M 200
orders i had the M 180
ordering a box of M 172
orders i get on M 166
orders a day of M 150
ordering a ban on M 146
origin a man of M 126
origin a god of M 112
ordering a few to M 112
orders a year in M 108
orders a year or M 106
origin a and the M 104
orders a sum of M 102
ordering a sum of M 100
orders a meal at M 98
orders a day or M 98
orders a man of M 90
ordering a cut in M 84
ordering a seat to M 80
ordain a man to D 427
ornery i got to D 340
ordering a pot of D 294
ordering a tax is D 176
ordering a hit on D 130
ordering a car to D 120
ordering a ton of D 116
orders a car of D 108
orders a pot of D 104
orders a hit on D 104
ordering a mug of D 100
orbiting a man as D 85
