nature of a man M 24113
nature in a way M 10638
nature of a new M 9786
nature of a law M 5968
nature of a being M 5767
nature of a real M 4388
nature as a man M 4127
nature in a new M 3678
nature of a god M 2910
nature of a war M 2610
nature of a plea M 2484
nature of a job M 2240
nature of a few M 2174
nature of a dog M 2130
nature of a set M 2080
nature of a long M 2040
nature in a few M 1674
nature of a non M 1666
nature as a way M 1630
nature in a man M 1613
nature of a and M 1466
nature of a poet M 1376
nature as a being M 1310
nature is a law M 1197
nature of a poem M 1162
nature as a poet M 1110
nature as a set M 1052
nature to a new M 1004
nature of a lie M 924
nature as a new M 881
nature of a two M 854
nature is a lie M 840
nature of a boy M 838
nature is a real M 782
nature of a vow M 762
nature by a man M 746
nature of a cat M 722
nature as i had M 708
nature of a one M 702
nature of a myth M 668
nature of a sin M 656
nature of a pre M 656
nature to a few M 652
nature of a use M 629
nature of a death M 612
nature is a new M 592
narrow as a few M 587
nature of a low M 579
nature as a law M 572
nature as a god M 567
nature me a man M 559
nature is a way M 552
nature to a man M 550
nature of a map M 506
nature of a big M 504
nature of a bad M 504
nature is a key M 504
nature of a web M 501
nature as a real M 496
nature of a lot M 474
nature of a son M 466
nature is a long M 466
nature is a far M 434
nature of a team M 427
nature of a song M 408
nature of a key M 392
nature is a being M 376
nature as i can M 362
nature of a mean M 360
nature by a new M 360
nature of a day M 356
nature in a boy M 356
nature in a far M 354
nature as a non M 354
nature of a red M 352
nature is a set M 349
nature is a war M 340
nature as a dead M 340
nature is a poem M 332
nature is a big M 324
nature as i was M 324
nature is a man M 323
nature of a meal M 318
nature as i see M 316
nature in a poem M 314
nature as a key M 314
nature of a dead M 304
nature of a head M 302
nature of a bet M 302
nature as a war M 292
nature in a non M 290
nature of a due M 286
nature if i did M 280
nature is a web M 276
nature is a bad M 276
nature is a myth M 274
nature as a boy M 274
nature in a day M 263
narrow as a man M 261
nature by a few M 258
nature of a dry M 246
nature in a being M 233
nature is a bit M 232
nature of a cry M 230
nature on a new M 228
nature to a real M 222
nature as i did M 220
narrow as a boy M 220
nature as a poem M 218
nature of a net M 217
nature of a far M 206
nature of a bear M 206
nature of s and M 204
nature to a god M 202
nature of a log M 198
nature is a non M 198
nature of a weak M 196
nature of a leap M 192
nature as i saw M 192
nature to a set M 191
nature as a son M 190
nature in a real M 188
nature as a don M 188
nature of a not M 186
nature of t and M 184
nature of a way M 178
namely as a way M 174
nature to a far M 173
nature of a path M 172
nature as a web M 172
namely as a set M 172
nature is a sin M 168
nature of a cut M 167
nature of a dying M 164
nature in a dog M 162
nature by a long M 162
nature or a new M 158
nature is a god M 158
nature of a sum M 156
nature is a two M 154
nature of a fit M 152
nature is a toy M 152
nature as a sin M 152
nature as a pre M 151
nature to a poet M 150
nature of a now M 150
nature in a long M 148
narrow as a nun M 148
nature of a wet M 142
nature of a bow M 142
nature of a com M 136
nature of a toy M 132
narrow in a way M 132
nature in a low M 130
nature of a deal M 128
nature as a path M 124
nature in a big M 122
narrow it a bit M 119
nature of a try M 118
nature of a bar M 118
nature is a fit M 118
nature is a weak M 116
narrow as a cat M 116
namely in a way M 116
nature on a low M 115
nature to a being M 114
nature of a pro M 114
nature is a lot M 114
nature or a man M 112
nature of a run M 112
nature if i had M 112
nature to a dead M 110
nature of a rear M 110
nature as a dog M 108
nature of a fly M 106
nature of a fear M 106
nature is a low M 106
nature of a bias M 102
nature as a sum M 99
nature or a law M 96
nature of d and M 96
nature of a going M 96
nature is a dead M 96
nature in a fit M 96
nature of a top M 94
nature of a heat M 93
nature of a box M 93
nature is a pre M 93
nature or a god M 90
nature of a bid M 86
nature is a sun M 86
nature of a heap M 84
nature of a buy M 84
nature is a sad M 84
nature in a bad M 84
namely as a man M 82
nature of i and M 80
nature am i now M 80
narrow to a few M 55
nature of a pay M 54
nature as a one M 49
nature of a lay M 45
naught do i see M 44
narrow in a few M 42
nature on a day M 41
nature of a mid M 41
nature as a two M 41
nature in a year M 40
nature of a tax D 7311
nature of a gas D 2165
nature of a fee D 1422
nations in a way D 1418
nations in a war D 1178
nations in a new D 1173
nations to a new D 1060
nations as a way D 1038
nations is a law D 872
nature of a lion D 847
nations as a new D 608
nations of a new D 546
nations in a few D 452
nature of a thin D 440
nature of a bed D 436
nature as a tax D 436
nations in a long D 416
nature of a cow D 394
nature of a riot D 370
nature of a leaf D 357
nature of a pig D 345
nature of a beam D 340
nailed in a box D 340
nations in a low D 336
nations on a new D 320
nature of a jar D 316
nations is a new D 310
nature of a pun D 303
nature of a mob D 286
native of a hot D 284
nailed to a beam D 278
nature of a seal D 272
nature of a fat D 271
nailed to a log D 270
nature of a sub D 267
nature on a par D 262
nature of a bee D 252
nature of a ray D 231
native is a man D 231
nations is a long D 230
nature of a sop D 228
nature of a fad D 226
nature of a raw D 220
nailed to a long D 220
nature of a spy D 216
nature of a car D 214
nature of a pot D 212
nature of a hot D 211
native of a far D 208
nature of a fog D 200
nature is a rag D 200
nations as a law D 194
nations in a day D 192
nature of a dye D 184
nations as a non D 183
nature in a pen D 182
nations is a dead D 180
nature of a gun D 176
native in a way D 172
nailed to a big D 172
native to a non D 171
nature of a fox D 170
native of a dry D 169
nations is a war D 168
native or a non D 161
native to a man D 160
nature of a sex D 152
native of a wet D 151
nations on a per D 151
nature of a gay D 150
nature as a raw D 149
nature of a tie D 148
nations on a par D 148
nature of a rod D 146
nature of a feat D 146
native of a new D 146
nature of a per D 143
nations as a key D 143
nature of a tip D 142
nations is a far D 137
native to a few D 136
nations on a map D 134
nature as a gas D 131
nations by a war D 130
naphtha as a raw D 122
nature of a rat D 120
native is a being D 120
napkin on a hot D 118
native in a few D 115
native as a man D 114
nations on a path D 114
nations is a key D 114
nature of a hinge D 112
nailed to a dead D 112
nailed in a row D 112
nations to a war D 110
nailed up a few D 110
nature of a bay D 108
nations or a new D 106
nature of a con D 104
nations as a man D 104
nailed to a two D 102
nations at a low D 100
nature of a bus D 98
native of a non D 98
nailed to a bed D 98
native in a red D 97
nature of a jet D 96
nations is a real D 96
nations in a web D 96
nations by a new D 92
nations as a war D 92
nature of a hen D 90
nature of a fan D 90
nature in a raw D 89
nations to a far D 88
napkin in a bar D 88
nations as a going D 86
nailed up a fat D 86
nature of a pep D 83
nature of a row D 82
nature of a hog D 82
native to a new D 82
nations in a real D 82
nailed to a thin D 80
nailed to a few D 80
native in a big D 49
nature of a hit D 46
nature of a pin D 45
nature of a pis D 43
nature of a cap D 41
