bird in the hand M 56731
birth of the baby M 46985
birth of an heir M 20658
birth of the hero M 19496
bind to the same M 16050
birth of the young M 13535
birth of the gods M 10911
birth of the cool M 10027
birth of the great M 9550
bird in the cage M 9411
birth in the pure M 8968
bird of the same M 8221
birth of the last M 8204
birth to the most M 7874
birth of the third M 7504
birth of the lord M 6807
birth to so many M 6490
bird in the tree M 5754
birth to the great M 5634
birth of the self M 5511
birth of the next M 5416
birth to the baby M 5388
birth or in early M 5208
bits to the left M 4866
bind to the cell M 4548
birth in the same M 4350
birth of the holy M 4239
birth to the time M 4159
birth of the body M 3973
birth to the next M 3888
bits of the data M 3698
birth of the heir M 3478
bird in the nest M 3454
birth to the other M 3362
bits of the same M 3246
birth to as many M 3220
birth of the city M 3121
birth of the word M 3118
birth of the living M 3108
birth to an heir M 3046
bits in the data M 3020
birth of the moon M 2988
bird to be seen M 2981
bits in the word M 2922
birth at the same M 2866
bits of the word M 2826
bits of the past M 2788
bird of the open M 2738
birth is the most M 2484
bird on the nest M 2458
bird in the same M 2440
birth to the same M 2410
bird of the south M 2344
birth at the time M 2261
birth of the most M 2190
birth to the young M 2169
bird in my hand M 2167
birth to the last M 2166
birth of the other M 2138
birth in the early M 2094
birth in the form M 2060
bird is the most M 2036
bits in the same M 2020
birth of the fifth M 2019
birth to the word M 1978
bird is at rest M 1956
birth to the gods M 1902
birth of my baby M 1884
bits of it were M 1828
birth of the free M 1821
birth to the third M 1807
birth of the union M 1748
bits to be used M 1728
birth to the term M 1707
birth of so many M 1690
bird on the left M 1681
bits of the code M 1676
bits in the code M 1672
birth in the next M 1646
bird on the tree M 1644
bits in the mask M 1590
birth in the mind M 1586
birth to the three M 1570
birth in the case M 1544
birth in the city M 1481
bird of the north M 1463
birth to the male M 1462
birth in the last M 1426
birth is the only M 1395
bird is the only M 1387
bind at the same M 1360
birth of the true M 1340
birth to the very M 1326
birth in the land M 1306
birth in the late M 1296
bird on the other M 1292
birth in the spring M 1291
bird of the size M 1272
birth is the same M 1264
bits of the true M 1251
birth to the theory M 1240
bits of the body M 1232
birth of the three M 1222
birth of the girl M 1216
bird at the same M 1206
birth of the mind M 1189
bird at the time M 1161
birth of the said M 1156
birth of the same M 1152
birth of the male M 1128
birth to the sixth M 1122
bind in the same M 1122
bits at the same M 1118
bind me to your M 1118
birth on the same M 1114
bits of the next M 1098
birth of my third M 1068
birth in the past M 1036
birth to the hour M 1034
birth to the hero M 1033
bird in the wild M 1000
birth of the sons M 990
birth of the theory M 972
birth of the book M 966
bits to be sent M 960
bird in the spring M 934
birth to so much M 932
bird in the room M 926
bits of the last M 920
bits of it here M 902
birth of the late M 890
bird of the snow M 886
bird of the kind M 876
bits on the left M 870
birth of the town M 870
birth to the only M 863
birth to the city M 859
birth in the west M 858
bits of the text M 838
birth to the fire M 838
bits of the other M 836
bird of the high M 828
birth to the more M 827
birth in the heart M 824
birth of the term M 821
birth of the four M 821
bits to the data M 816
birth to the holy M 816
bird is the same M 808
birth to the land M 806
bird in the south M 803
bind to the free M 798
bits of the third M 796
bird in the wood M 790
birth to the work M 788
birth in the town M 788
birth to the best M 785
bits of the host M 784
birth or of wealth M 784
birth to the ideas M 780
birth of the north M 774
birth of the anti M 773
bits in the host M 766
birth to my baby M 760
bird on the back M 759
birth to the true M 752
birth to the name M 750
birth to the union M 747
birth is no more M 746
bird of the great M 740
bits of my life M 735
birth in the very M 732
bits in the last M 730
birth in the home M 721
birth on the other M 720
birth to the self M 718
bids us do good M 715
bits of the truth M 710
birth to the lord M 698
bird on the edge M 698
birth to the heir M 680
birth to the hope M 678
bind me to life M 676
birth to the moon M 674
birth on the cool M 672
bits of the most M 670
birth of the sixth M 667
birth of my last M 658
birth of the only M 657
bits in the case M 656
bits of the book M 649
bird at the nest M 648
bird in the north M 643
bids on the same M 643
bird in the open M 638
birth by the holy M 634
bind us to those M 634
bids to be made M 624
birth to the four M 623
bind to the site M 622
birth or an early M 618
birth of the work M 618
bits of the city M 615
birth of the coming M 612
bits of the road M 602
birth of the south M 596
birth in the most M 594
bird in the dark M 592
bits of the file M 591
birth to no more M 588
bind us to other M 586
birth of the west M 583
bird of the west M 582
bits of the great M 576
bind to the other M 576
birth to the early M 574
bids on the work M 572
bits of the base M 571
birth is the best M 570
bird in the other M 570
birth to the fifth M 569
birth in the great M 567
birth of the early M 566
birth to the book M 563
birth in the body M 563
bits of it into M 560
birth to the life M 559
bind to the host M 556
birth of the fire M 554
bits in the page M 552
birth of the cell M 550
birth or as soon M 542
bird to be heard M 542
bits of the hash M 541
birth to the many M 540
bind us to life M 538
bird is in full M 526
bird in the west M 524
birth to the town M 523
birth by the word M 522
birth to the girl M 520
bits is the same M 518
bits in the third M 518
birth to the ideal M 518
birth or of their M 516
bird to be able M 511
bind to the core M 510
birth on the part M 508
birth is the birth M 506
bird by the feet M 504
bits of the port M 496
bird of the ocean M 496
bird of the deep M 492
bird of my heart M 490
bits on the data M 484
bits of it from M 484
bird by the name M 484
bind to the single M 484
birth of the mass M 482
birth as it were M 480
bird is the best M 479
birth to the type M 478
birth to the late M 478
birth in the north M 478
birth to no less M 475
birth at an early M 472
bird in the early M 472
birth to the date M 470
birth of the very M 470
birth in my mind M 470
birth to the body M 468
bits of the mask M 464
birth of the five M 464
birth to so great M 462
birth in the five M 462
birth to my third M 461
bits of it have M 460
bits in the form M 460
birth in the holy M 460
bird of the pair M 460
bird in the snow M 460
bins at the back M 460
bits on the side M 458
birth to the living M 458
bids us do what M 456
birth to the free M 453
birth or at some M 450
bird in the form M 450
birth in the south M 448
bird on the beach M 440
bits of the page M 439
bits of the keys M 434
bits in the flag M 433
birth of the land M 432
bird of the wood M 431
birth in the realm M 430
bind us in time M 430
bids at the same M 430
bind to the ends M 426
bids me to tell M 426
birth is to take M 424
birth is at hand M 424
bird in the back M 424
birth of the ideal M 422
birth at the very M 422
bird to the other M 422
bird to the nest M 421
bits of the left M 420
bits of the food M 418
bird in the next M 416
bird on the same M 414
birth in the open M 413
bind to the type M 411
bind in the hole M 410
bird to the tree M 406
bird to the left M 404
bids of the other M 404
birth of an only M 402
bind to the high M 402
birth to the form M 400
birth or in their M 400
birth it is said M 400
bits of the mode M 398
birth in the left M 398
birth to the five M 396
bird on the side M 394
birth of my only M 390
bird of the gods M 390
bind up to four M 390
bits of the flag M 388
bits in the next M 388
birth to the need M 386
bird to the next M 384
birth to an ideal M 381
bird in my life M 377
birth to the dream M 376
bird in the left M 376
bird of the wild M 374
bird is in good M 374
bird is in fact M 374
bits of the play M 372
bits in the high M 372
bits in the other M 370
birth of the sage M 370
bird in the land M 370
bids us to love M 369
bids us to look M 369
birth in the other M 368
birth on the risk M 366
birth in the best M 366
birth in the life M 365
birth in the third M 362
bits in the file M 361
birth is the other M 360
birth is the hour M 360
birth by the time M 358
bits in the left M 357
birth to the full M 356
bind the king from M 354
bind it to your M 354
birth or the date M 352
bird by the tail M 352
bind up the hurt M 351
bids us to take M 351
bits of the mind M 349
bits of my body M 348
birth of an ideal M 348
birth in the dark M 348
birth in the three M 347
birth of the lady M 346
birth in the month M 346
bits of the cake M 344
birth on the left M 343
birth or at birth M 342
birth of the single M 342
birth or the birth M 340
birth to no such M 338
birth to the wish M 336
birth in the wild M 336
birth to an only M 335
birth of the seed M 334
birth in the time M 332
bird at the edge M 332
birth to the well M 331
birth in the back M 330
bird in the wind M 328
bits of the main M 326
birth of the post M 326
birth to an army M 324
bind to the data M 324
bind it to other M 324
bids us to come M 324
birth if the baby M 322
bird of the most M 322
bird of the spring M 321
birth in the days M 320
birth to the kind M 318
birth or as late M 316
birth to the nine M 314
birth of the life M 314
bits of the cell M 313
bird on the north M 313
bird is as much M 312
bird is so well M 311
bird is the more M 310
birth of the cold M 309
bird in the blue M 309
bird is in your M 308
bits of the work M 306
birth to the vast M 306
bits of the blue M 305
birth of the time M 305
birth to the anti M 304
bird is at once M 304
bird of the tree M 302
bins in the back M 302
bits of the bark M 301
bird in the heart M 300
bits of the wood M 299
bits of the high M 298
birth to it have M 298
bits of it will M 296
birth to the good M 296
bird on the wind M 296
birth to the fact M 294
birth of the full M 294
birth by the name M 294
birth to the truth M 292
birth to an even M 292
birth of my sons M 292
birth is the work M 292
bits at the left M 291
bids on the item M 291
bits on the line M 290
birth or to have M 290
birth to the much M 288
birth in the years M 288
bits of it away M 287
birth as the baby M 286
bits of the line M 285
birth as the only M 285
birth to the saying M 284
bird of the holy M 284
birth to no other M 282
birth in the full M 282
bird in the last M 282
birth to the high M 281
birth to an anti M 281
bits of the full M 280
birth of the boys M 280
bird or an angel M 280
bits of the root M 278
birth is in fact M 278
birth by the same M 278
bind in the case M 278
birth to the seed M 276
birth of the text M 274
birth as the most M 274
bird is so much M 274
bids at the time M 273
birth to me when M 272
birth of the nine M 271
bird is the size M 270
bind us to their M 270
bird is no more M 267
bits of the self M 266
bits in no time M 266
birth to the rest M 266
bird is in some M 266
bird at the left M 266
bind it by their M 266
bits in the most M 264
birth of the poor M 264
bird is the great M 262
bird in the rain M 262
birth to the cult M 260
birth or by their M 260
birth in the name M 260
bird at the other M 260
bind us by their M 260
birth to the mind M 259
bind to the anti M 259
birth to the sons M 258
bins of the same M 258
bids in the same M 258
bird to the cage M 256
bird in the book M 256
bind to the next M 256
bids on an item M 256
birth of the best M 254
bind us to take M 254
birth in the tenth M 253
birth to the tenth M 252
birth of the game M 252
birth is the rule M 252
bird in the bird M 252
bits of the very M 251
birth on the road M 251
birth is the fact M 250
bind it on your M 250
birth to an idiot M 248
birth of the dream M 248
birth of the will M 247
birth of the tenth M 247
bits of my heart M 246
birth it is clear M 246
bins or the feed M 246
bind up my hair M 246
birth is as much M 245
birth to the love M 244
birth of as many M 244
bird in the case M 244
birth of the good M 243
birth of my self M 243
bits in the book M 242
birth to the south M 242
birth of the heart M 242
bird of the dawn M 242
bind us to what M 242
bind it to their M 242
bird on the road M 241
bits in the cell M 240
birth of the high M 240
bird in the city M 240
birth to the will M 239
bits of the ship M 238
birth in the cave M 238
bird of the dream M 238
bits of the length M 236
birth to no great M 236
birth in the deep M 236
bird at my feet M 236
bids in the last M 236
bits of the town M 234
birth to the rule M 234
birth to the rise M 234
birth to an ugly M 234
birth is the time M 234
bird of the more M 234
birth is as good M 232
bird or the wind M 232
bird in my heart M 232
bird of the heart M 230
bird is at home M 230
bits is the most M 228
birth to the birth M 228
birth of the flag M 228
bird in the great M 228
bids us to pray M 228
birth in the face M 227
bits in the keys M 226
birth to be able M 226
birth of the much M 226
birth of the ideas M 226
birth of the home M 226
bids me to send M 226
bits of the three M 225
birth in the sixth M 224
bids in the form M 224
birth of the past M 221
birth to the wild M 220
birth to the main M 220
birth to an early M 220
bits of the dream M 218
birth of the plan M 218
birth of the bank M 218
bird in the show M 218
bins in the same M 218
bids us to seek M 218
birth of the more M 216
birth of the form M 216
birth in the fall M 216
birth of the tree M 212
bird is so very M 212
bird in the trap M 212
birth in the hope M 210
birth as the birth M 210
bird in the full M 210
bits on the other M 208
birth to the care M 208
birth of the cult M 208
bird in an open M 208
birth to the text M 206
birth or by some M 206
birth is in some M 206
bind on the other M 206
bits in the mode M 204
birth to the plan M 204
birth is no less M 204
birth in the eyes M 204
bird is an early M 204
bird in the fall M 204
bids of the same M 204
birth it is only M 203
birth to the boys M 202
birth to an angel M 202
birth on the side M 202
birth of the main M 202
birth of the love M 202
birth of the faith M 202
birth of an idiot M 202
bits of the moon M 200
bits of the best M 200
bits of the deep M 198
birth up to three M 198
birth to be born M 198
birth is of great M 198
bird is the very M 198
bind to the open M 198
birth is the leading M 196
birth is so much M 196
bids in the hope M 196
birth to the ninth M 194
birth is the last M 194
bird of the past M 194
bits of the type M 193
birth to the north M 193
bind to the three M 193
bits to the next M 192
birth or in very M 192
birth on the date M 192
birth of the pure M 192
bird in the high M 191
birth or in some M 190
birth of the peace M 190
bind up the heart M 189
bits of the wild M 186
bits of the four M 186
birth of an army M 186
birth at the turn M 186
bird in the list M 186
bids on the part M 186
bird at the very M 185
birth of the fish M 184
birth as the time M 184
bind up the hair M 184
bids us go forth M 183
birth of the spring M 182
birth of the rest M 182
bird is no less M 182
birth to an ever M 181
bits of the time M 180
bits of it when M 180
birth to the coming M 180
birth to my form M 180
birth or the time M 180
birth of the fine M 180
birth it is more M 180
birth in the line M 180
bind up the part M 180
bind to the side M 180
bids us to keep M 180
bits in the port M 179
bits to be made M 178
bits of the life M 178
bits of the cloth M 178
birth or by wealth M 178
birth by the fact M 178
bird on the list M 178
bird of the last M 178
bind us to your M 178
bind me by what M 178
bits on the same M 176
bits in the test M 176
bird is of great M 176
bird by the side M 176
bind me so fast M 176
bird in the very M 175
bits of the fish M 174
birth to an evil M 174
bird on the west M 174
bird is as good M 174
bits of the size M 172
bits at the rate M 172
bits at the edge M 172
birth or the fact M 172
birth to the evil M 170
birth of the ninth M 170
bird or the beast M 170
bird of the main M 170
bird is in great M 170
bird at the back M 170
bird is the bird M 169
bits on the road M 168
birth of the name M 168
birth in the army M 168
bird on the lake M 168
bird as an omen M 168
bird on the hand M 167
bits in the main M 166
bits in the hash M 166
bits at the door M 166
birth or the land M 166
birth of the kids M 166
birth of so great M 166
bird or the bird M 166
bird of the third M 166
bits of my past M 165
birth to the fine M 165
bits of the user M 164
birth by the great M 164
bird in my arms M 164
birth to my last M 162
birth or to those M 162
birth of the ages M 162
birth is the main M 162
bird of the wide M 162
bird of the other M 162
bird at the heart M 162
bird of the dark M 161
bird to be kept M 160
bird in the wide M 160
bits in the time M 159
birth on the very M 158
birth by an angel M 158
bird of the city M 158
bird by no means M 158
bird by my leave M 158
bits of the test M 157
bits of it over M 157
birth to the home M 157
bird to the bird M 157
birth to the post M 156
birth to the dawn M 156
birth of my body M 156
birth of an anti M 156
birth in the true M 156
bird as it came M 156
bind us to such M 156
bids me to speak M 156
birth to my lady M 154
birth of the well M 154
bind at the site M 154
bids us to know M 154
bids at the last M 154
bits at the back M 153
bird to go into M 153
birth to the tale M 152
birth to my great M 152
bird in the face M 151
bind to the third M 151
bids us to think M 151
bits of my hair M 150
bits at the most M 150
birth to the heart M 150
birth of the line M 150
birth of my great M 150
birth as we have M 150
bird is so rare M 150
bird is so great M 150
bird in the eyes M 150
bird in the deep M 150
bird in the clear M 150
bins to be used M 150
bird on the hill M 149
bind to the port M 149
bird or the other M 148
bind to the body M 148
bind it to some M 148
bits in the range M 147
bird to the list M 147
bits to the most M 146
birth to the youth M 146
birth or the baby M 146
birth is in many M 146
bird of the type M 146
bird in the dream M 146
bind me to those M 146
bind me to home M 146
birth in the four M 145
bird by the hour M 145
bits of the land M 144
birth to the single M 144
birth to it were M 144
birth to be sure M 144
birth of my fifth M 144
birth of an ocean M 144
birth in the more M 144
bird or the nest M 144
bird is the male M 144
bind us to these M 144
bits in the video M 143
bits to the more M 142
birth to the game M 142
birth to my only M 142
birth or the name M 142
birth by the angel M 142
birth at the rate M 142
bird or the tree M 142
bird on the post M 142
bird of the three M 142
bird as it sits M 142
bind us to ours M 142
bids on the other M 142
bits in the three M 141
bits to be lost M 140
birth to the huge M 140
birth to the blue M 140
birth in my heart M 140
bird is an omen M 140
bind us to make M 140
bits at the ends M 138
birth in us also M 138
bird or of beast M 138
bind it up very M 138
birth is the coming M 137
bird by the time M 137
bind up the most M 137
bids us to make M 137
birth to the poems M 136
birth to the cold M 136
birth of my lord M 136
birth as the best M 136
bird is to have M 136
bide of the road M 136
birth in the high M 135
bins in the range M 135
birth to the winged M 134
birth or the next M 134
birth in the wake M 134
bird to the edge M 134
birth in the snow M 133
bits of the tree M 132
bits of the more M 132
bits in the full M 132
bits at the side M 132
birth to the line M 132
birth to the faith M 132
birth is the great M 132
bird is the type M 132
bird is of very M 132
bind it on their M 132
bits of it came M 130
birth to the wide M 130
birth to be made M 130
birth in the work M 130
bird is the trial M 130
bird as the nest M 130
bird to the great M 129
bits of my baby M 128
birth to the rich M 128
birth or the early M 128
birth of the play M 128
bird on the main M 128
bird on the bare M 128
bird of the land M 128
bird in the road M 128
bird in the most M 128
bind to the peace M 128
bind me to these M 128
bids us to turn M 128
birth to the verb M 126
birth to the mass M 126
birth of my life M 126
birth it is very M 126
birth in the warm M 126
bird is to lose M 126
bird in the vast M 126
bird in the third M 126
bind to the wild M 126
bind on the same M 126
birth in the ocean M 125
bird it is very M 125
bird as the most M 125
bind us by such M 125
bind to the base M 125
bits to the host M 124
bits of the show M 124
bits of the rest M 124
birth of the many M 124
birth of the birth M 124
birth is at once M 124
bird to the young M 124
bird to be very M 124
bird is in such M 124
bird in the hope M 124
bind me to love M 124
bids on the cost M 124
bits of the theory M 122
bits of the soft M 122
birth to the said M 122
birth to the gift M 122
birth at the full M 122
bird or the fish M 122
bird in the wrong M 122
bird at the base M 122
bids us to hope M 122
bids me go forth M 122
bids in the past M 121
bits of me were M 120
bits at the other M 120
birth to the pure M 120
birth of the truth M 120
birth in the hell M 120
birth in the birth M 120
bird of the next M 120
bird in the warm M 120
bind us to some M 120
bind up my feet M 120
bind in the body M 120
bids us to obey M 120
bids in the range M 120
birth of the moving M 119
birth of the half M 119
bird in the more M 119
bits to the word M 118
birth to the wind M 118
birth or by other M 118
bird to be used M 118
bird of the nest M 118
bind to the left M 118
bind me in their M 118
birth on the back M 117
birth of so much M 117
birth of my three M 117
bits to be able M 116
bits of the west M 116
bits of the songs M 116
birth up to five M 116
birth to the means M 116
birth to my body M 116
birth or the like M 116
birth of the kind M 116
bird in my room M 116
bird by the same M 116
bind to the heavy M 116
bits of the form M 114
bits in the show M 114
birth to the view M 114
birth so to speak M 114
birth of the sign M 114
bird to be sure M 114
bird is the fact M 114
bird in the home M 114
bird if it were M 114
bind to the bone M 114
bind in the wood M 114
birth in the cold M 113
birth by no means M 113
bird in the line M 113
bits of the torn M 112
birth to the myths M 112
birth to the dark M 112
birth to be more M 112
birth of the youth M 112
birth is the single M 112
bird to my list M 112
birth to the west M 111
birth to it anew M 111
birth of the wind M 111
bids in the open M 111
bits of the stem M 110
bits in the play M 110
bits in the four M 110
birth to the tree M 110
birth to the fall M 110
birth of the dawn M 110
birth in the fact M 110
bird is in hand M 110
bird as we have M 110
bins on the other M 110
bits in the type M 109
birth of the dark M 109
bird is of such M 109
bits of it left M 108
birth in the ways M 108
birth as to have M 108
bird to eat from M 108
bird on the high M 108
bird in the best M 108
bird as he held M 108
bind up the great M 108
bits of it fell M 106
bits of it back M 106
birth to the peace M 106
birth or if there M 106
birth is the norm M 106
birth in the ninth M 106
birth in an open M 106
bird is to make M 106
bind up the feet M 106
bids by the same M 106
bide at no hand M 106
bits in the line M 105
birth is the very M 105
bird to be more M 105
bird on the ocean M 105
bind to the more M 105
bind in the void M 105
bids us be true M 105
bids us be ready M 105
bits of the hill M 104
bits of the dark M 104
birth at the wrong M 104
birth as the main M 104
bird to the same M 104
bird of the true M 104
bird of the name M 104
bird is so full M 104
bird is my heart M 104
bird is in size M 104
bird go in such M 104
bird as it fell M 104
bits of it come M 102
bits in the hope M 102
bits by the time M 102
birth to my three M 102
birth or in other M 102
birth if the birth M 102
birth at the other M 102
birth as the case M 102
bird to the wild M 102
bird is the blue M 102
bird in the hole M 102
bins at the side M 102
bind us to wish M 102
bind us to obey M 102
bind to the test M 102
bind to the root M 102
bids to the city M 102
birth on the third M 101
bits to the other M 100
bits of the talk M 100
birth to the wise M 100
birth is at home M 100
birth in the care M 100
birth at the home M 100
bind me to give M 100
bind at the time M 100
bids us be sure M 100
bids me to part M 100
bids me be more M 100
bits of the hard M 99
bits of my work M 99
bird to go back M 99
bits of the hide M 98
birth of the beast M 98
birth of an angel M 98
birth if it were M 98
birth at the faith M 98
bird is the omen M 98
bird in the late M 98
bird in my mind M 98
bind us to nothing M 98
bird on the snow M 97
bins at the mine M 97
birth by the most M 96
birth as the sons M 96
birth as it will M 96
bird in my walk M 96
bind up the poor M 96
bind it in such M 96
bids in the early M 96
birth in the term M 95
bind to the four M 95
bids on the next M 95
bits to or from M 94
bits of the early M 94
birth to my fifth M 94
birth or the last M 94
birth in the text M 94
bird to be eaten M 94
bird on the line M 94
bird on the face M 94
bird on the bank M 94
bird is in pain M 94
bind me to such M 94
bids me to come M 94
birth is in what M 93
bird to the last M 93
bits in the text M 92
bits at the time M 92
bits as the word M 92
birth to the wrong M 92
birth of my next M 92
birth is to have M 92
bird of the game M 92
bird of the cage M 92
bird is the young M 92
bird in the past M 92
bind us in such M 92
bids us to stop M 92
bide in the same M 92
bids me go back M 91
bits to the user M 90
bits of the seed M 90
bits of the room M 90
birth up to their M 90
birth to the wealth M 90
birth to the half M 90
birth or of life M 90
birth on the high M 90
birth on the baby M 90
birth of my other M 90
birth is so great M 90
birth in the sign M 90
bird is in these M 90
bird by the other M 90
bird as he went M 90
bins in the shop M 90
bind it to such M 90
bids us to live M 90
bids to the same M 90
bids on the open M 90
bits on the hard M 89
bits by the wind M 89
bird at the side M 89
bind on the side M 89
bide or the other M 89
bits of the tale M 88
bits is the part M 88
bits as the data M 88
birth to the vice M 88
birth to the urge M 88
birth to as much M 88
birth or at other M 88
birth of my poor M 88
birth is the true M 88
birth in the poor M 88
birth in the fifth M 88
birth as to give M 88
bird on the next M 88
bird of the four M 88
bird at the last M 88
bins at the rate M 88
bids is to obey M 88
bird of the lake M 87
bird if we lost M 87
bits to the high M 86
bits of the poor M 86
bits in the name M 86
birth to the sort M 86
birth to the deep M 86
birth on the land M 86
birth in the book M 86
birth by the gods M 86
birth as the means M 86
birth as the last M 86
bird on the open M 86
bins on the side M 86
bind us to love M 86
bids us to walk M 85
bits of the single M 84
bits of the lake M 84
bits of the hair M 84
bits of the bone M 84
birth to the play M 84
birth of my kids M 84
birth is the means M 84
birth in the young M 84
birth in an evil M 84
birth by the hand M 84
bird is the true M 84
bird is the ideal M 84
bird in the days M 84
bird in the arms M 84
bids on the land M 84
bits to the same M 82
bits on the next M 82
bits of it fall M 82
birth to the ages M 82
birth to in your M 82
birth of the open M 82
birth is the gift M 82
birth in the hour M 82
birth in so many M 82
birth in an hour M 82
birth he is said M 82
birth by the side M 82
bind up the eyes M 82
bind it by hand M 82
bind it as well M 82
bids me to stay M 82
bids at the rate M 82
birth of the type M 81
bide of the heart M 81
bide of the body M 81
bits of my book M 80
bits in the wrong M 80
birth of the epic M 80
bird on the page M 80
bind us by ties M 80
bind to or react M 80
bids me be sure M 80
birth in the male M 69
bird in the thorn M 68
bids up the cost M 67
birth or by early M 59
bird to the back M 59
bind us the more M 57
bird or the young M 55
bits is an even M 52
birth of the idiot M 52
bins on the left M 52
birth to the root M 50
birth to the ever M 48
bits of the holy M 47
bird in the living M 47
birth to the poor M 46
birth of the ocean M 46
birth of the blue M 46
bits in an even M 45
birth by the very M 45
bird to be well M 45
bird as it went M 45
bins to the left M 45
birth to the epic M 44
birth of the evil M 44
birth of the arch M 44
birth in the less M 44
bids us be kind M 44
bits of the once M 43
bids us to give M 43
birth to an epic M 42
birth in the post M 42
birth in the coming M 42
bird to the very M 42
birth to the left M 41
birth to be like M 40
bide in the heart M 40
bird in the bush D 8972
birth of the soul D 7063
bill of the same D 6558
bill in the form D 6420
bill at the time D 6136
bill to be paid D 5920
bill on the same D 4752
birth of the duke D 4746
bill in the next D 4611
bill in the same D 4518
birth to at least D 4400
bill as it came D 3886
birth of the bill D 3874
bill of the last D 3542
bile in the gall D 3439
bite of the wind D 3276
bill of the play D 3273
bill in the name D 3267
bill at the same D 2701
bill to the same D 2603
bill in the spring D 2552
bill in the last D 2548
birth of the calf D 2432
bill in the other D 2432
birth in the soul D 2302
bill to the full D 2274
bill is the same D 2136
bill to be sent D 2122
bill in my hand D 2072
bite of the cold D 2055
bill is the most D 2017
bill in the mail D 2016
bill at the last D 1948
bill is to make D 1938
bill in the face D 1928
bill of the bird D 1926
bike in the back D 1818
bill in the early D 1802
bill at the next D 1743
bill if it were D 1732
bits in the byte D 1685
bill to the next D 1678
bill by the hour D 1657
bits of the byte D 1649
bill is to give D 1642
birth of the babe D 1612
bill to the other D 1565
bill of the kind D 1518
birth of at least D 1504
bite of the bread D 1482
bill to the diet D 1480
bill is the only D 1453
bill on the other D 1446
bite of the tick D 1432
bill in the case D 1414
bill to be true D 1412
birth of the bomb D 1393
bill is the best D 1374
bill of the said D 1352
bill to go into D 1326
bill to be laid D 1300
bite of the cake D 1298
birth of the euro D 1288
bill in the hope D 1288
birth or at least D 1262
bill to the bank D 1212
bill by the other D 1210
birth in the womb D 1200
bird on the roof D 1176
bill on the part D 1156
bite at the bait D 1147
bill of the late D 1118
bird by the neck D 1099
bill to be made D 1088
bill of the male D 1070
bite to the neck D 1045
bike on the road D 1022
birth of the foal D 1013
bite of the dogs D 1011
bill to the last D 1008
bite of the food D 1007
biting of the lips D 980
bill to do away D 977
bite on the back D 972
bill in the fall D 968
bill on the third D 964
bird as it flew D 955
bite on the neck D 920
bite at the same D 893
bill in the back D 890
bike up the hill D 888
birth of the twin D 873
bill on the back D 867
bird in the park D 866
bird on the wire D 865
birth of the race D 858
bird of the soul D 858
bird by the legs D 852
bile in the body D 848
bill in the diet D 844
bill in the late D 837
bite in the neck D 828
bill is to have D 814
bile in the back D 807
bite of the most D 806
bill of the other D 804
birth of the arts D 782
bile at the back D 780
bite on the hand D 771
bite of the same D 765
bill in the most D 753
bits in the string D 748
bill as the best D 748
bill on the last D 746
bill as it left D 744
bill or the moving D 731
bind to at least D 728
bill at the desk D 728
birth to the twin D 725
bill to the city D 720
bill is to pass D 720
bill is of such D 720
bite to eat when D 709
bill is in fact D 706
bike or on foot D 699
birth of the lamb D 698
bill or to give D 686
bird in the oven D 676
birth to the soul D 662
bird of the crow D 656
birth of the muse D 634
bill of the young D 634
bite of the lash D 633
bill in the south D 628
bill to the lord D 626
birth of the star D 624
bill as the only D 624
bill as the most D 623
bill or at least D 622
bite of the fish D 620
bill in the past D 620
bill on the desk D 616
bill is to take D 612
bill on the wall D 610
bile in the form D 610
bill on the bank D 602
bind to the heme D 593
birth of the pups D 590
bind to the iron D 578
bird on the lawn D 574
bill as to make D 570
birth of the cubs D 566
bill at an early D 566
bile in the bile D 562
bile in my mouth D 562
bite to the back D 561
bill on the spot D 560
bill of the duck D 558
bill at the rate D 547
bite in my mouth D 544
bits of the wall D 541
bill is at least D 540
bill at the bank D 540
bill to be lost D 522
bill of the most D 514
bite at the back D 512
bird is an eagle D 511
bite to eat from D 508
bill to the vote D 508
bill as it went D 506
bill by the time D 499
bite at the hook D 492
bike to the park D 490
bill in the cash D 488
bite in the early D 481
bite of the wood D 477
bird of the hawk D 476
bite of the whip D 470
bill in the city D 470
bike to the side D 470
bike to the beach D 468
bill by as much D 464
bite of the sand D 463
bill or the bill D 460
bill by at least D 458
birth to the arts D 452
birth on the soil D 452
bits of the rock D 451
birth of the rose D 451
biota of the great D 449
bill to the back D 448
bill on the faith D 448
bill of at least D 448
bird on the wall D 444
bill on the union D 444
bite of the other D 443
birth to the race D 442
bite in the wind D 440
birth of the film D 440
bite of the body D 439
bird in the palm D 438
bill at the cash D 438
bike in the park D 438
bite of the roll D 436
bite is the most D 436
bill is to come D 434
bike in the rack D 434
bier of the great D 430
bill to the tail D 427
bike at the same D 424
bill by no means D 419
bite of the salt D 418
bind to the beads D 416
bill of the next D 416
bike in the shed D 416
bite to eat here D 415
bill at the very D 414
bite is the bite D 410
bill to go back D 406
bile of the gall D 397
bill is of great D 396
bird in the yard D 394
bill to be used D 394
bill is as good D 394
bill at the door D 388
birth to the duke D 384
bill to the eyes D 384
bite on the face D 383
bill to the land D 381
bill of the firm D 381
bits on the wire D 379
bill or no bill D 378
bill on the next D 372
bill is no more D 368
birth of the giant D 365
bite to eat there D 364
bill if he were D 364
bill to the said D 360
bill of so much D 360
bill is the last D 360
birth to the calf D 354
bill to the nape D 352
bind to the gene D 351
bill at the base D 351
bite of the deer D 350
bill is the fact D 350
bill in my life D 350
bird of the duck D 349
bite of the teeth D 348
bill if it came D 348
bill in the coming D 347
birth of the steam D 344
bite in the back D 343
bind to the drug D 342
bike on the lawn D 342
bill to be more D 341
bits of the string D 340
bits of the film D 340
bill to the time D 339
bird on the limb D 332
bite to the bone D 331
bike on the side D 330
bite of the rope D 328
bill is at once D 325
bite of the mite D 324
bill on the tray D 322
bike in the rain D 322
bits to the inch D 318
bite it in half D 316
bird as it rose D 316
bill at the third D 316
bill as to what D 316
bite of the wolf D 315
bill on the very D 314
bill is so much D 314
bill to the ways D 312
bits of the skin D 310
bill to do what D 310
bite on the nose D 309
bite on the left D 307
bite in the same D 306
bird on the sill D 304
bill to the neck D 304
bill is the very D 301
birth is at least D 300
bird is at least D 300
bite of the warm D 298
bill in the star D 298
bill is so high D 296
biting on the tube D 294
birth in the race D 294
bird on the foam D 294
bill in the teeth D 294
bird of the eagle D 292
bike to the left D 291
bite of the stew D 288
birth of the laws D 282
bill by the same D 282
birth of the wife D 280
bill in the third D 279
bill in the full D 278
bite at the base D 277
biting on the tooth D 274
bill is in such D 274
bill is an inch D 274
bill as we have D 274
birth of the colt D 272
bill it is said D 272
bike on the roof D 272
biota of the lake D 271
bits in the mouth D 270
bile at the same D 270
bill is in line D 268
biting it in half D 266
bike in the dark D 266
bite of the north D 265
bike is in good D 264
bill in the main D 263
bind to the poly D 260
bike on the back D 260
bike in the yard D 260
birth is the sole D 258
bits on the disk D 256
birth to the sect D 256
bill of the hook D 254
biting at the same D 253
biting at the skin D 252
bite of the last D 252
bill to the bill D 252
bite on the finger D 251
bite of the rich D 250
bill in the eyes D 250
bite of an angry D 249
birth in the bush D 249
bill me in full D 248
bill in the days D 248
bits on the tape D 246
bite of the eggs D 244
bill in the high D 244
bill at the hearing D 244
bile to the gall D 243
birth as the sole D 242
bind to the skin D 242
birth to the giant D 241
birth of the iron D 240
bill in the north D 240
bill to the town D 238
bill of the hawk D 238
bile at the time D 238
bite is the only D 237
bite to the wind D 236
bill to the tune D 236
bill of the early D 236
bill up to date D 235
bill to do just D 234
bill to be heard D 234
bite on the side D 233
birth of my twin D 232
bill on my desk D 232
biting at the bars D 231
bill by the hand D 230
bids at the sale D 230
biasing of the gate D 230
bite of the acid D 228
bite in the mouth D 228
bill of the name D 228
bite of the steak D 226
bill to be held D 226
bill of the bank D 226
bits of the node D 224
birth or of rank D 224
bill is in many D 224
bike to the rack D 224
bill is the great D 222
bill in the hand D 221
bite on my neck D 220
bile in the same D 220
bill of the great D 218
bill is in some D 218
bill to be dealt D 214
biting of the hand D 213
bike is the most D 213
bits to the puny D 212
bird of my soul D 212
bill or to make D 212
bile is the most D 212
biasing of the diode D 212
bill of an eagle D 211
bill to the duke D 210
bill if he knew D 210
bike is the best D 210
bike by the side D 210
bike at the time D 209
birth to the laws D 208
bier of the young D 208
bill to the best D 207
bird to be shot D 206
bird in the dusk D 206
bill to be sure D 206
bill of the type D 206
bile is the main D 206
bike to the shop D 206
bier in the same D 206
bile to the back D 205
birth of my babe D 204
bill is the work D 204
bill if the bill D 204
bike at the edge D 204
bird of the pine D 203
bits of the bread D 202
biting of the finger D 202
bird on the farm D 202
bins in the barn D 202
bind to the soil D 202
bike at the side D 202
bill of the three D 201
bite to eat during D 200
bill to the third D 200
bill on the date D 200
bill by the late D 200
bird of the rock D 199
bill of the shin D 199
bite of the peach D 198
bite at my bait D 195
birth to an iron D 194
bill on the bark D 194
bill of the lord D 194
bill by the full D 194
bird as he flew D 192
bind to the anion D 192
biasing of the base D 192
biting at the back D 190
bits of the roof D 188
bite of my food D 188
birth of the firm D 187
bird of the arid D 186
bill or the other D 186
bill in the said D 186
bile is the only D 186
bite of the thick D 184
bird at the mouth D 184
bird at the foot D 184
bill to the hill D 184
bill is at last D 184
bill by the wife D 184
bird of the farm D 183
bill in the bank D 183
birth in the camp D 182
bird on the rock D 182
bill on the list D 182
bill in the palm D 182
bill if he pays D 182
bike on the other D 182
bike in the city D 181
bits of the least D 180
bite of the hard D 179
bill to go home D 179
bite on the line D 178
bird in my mouth D 178
bite to the hand D 176
bill to the door D 176
bill it is sent D 176
biting at the bait D 175
bill in the very D 175
biting to the bone D 174
bins on the farm D 174
bike at the curb D 174
bits in the film D 172
bite at the neck D 172
bill of the city D 172
bite in the dark D 171
bite of the soft D 170
bite of the fire D 170
bird of the cape D 170
bind to the beta D 170
bike to the edge D 170
biting of the fish D 169
bite in the case D 168
birth to the lamb D 168
bird on the pole D 168
bill of the time D 168
bill is the form D 168
bill at the other D 168
bits to the byte D 166
bits of the soil D 166
birth of the vine D 166
bike in the bike D 166
bile on the other D 165
bite of the snow D 164
bite is no more D 164
birth by at least D 164
bird on the spot D 164
bird of the bush D 164
bile is of great D 164
bite on the other D 163
bill up or down D 163
birth of the atom D 162
bill in the union D 162
bile by the gall D 162
biasing of the data D 162
biting of the thumb D 160
bite on the body D 160
birth of thy only D 160
bill by the post D 160
bits of the tune D 158
bits of the rope D 158
bite at the time D 158
bird is the soul D 158
bill is as tall D 158
bite of the best D 157
bite at the legs D 157
biting of the skin D 156
bite on the nail D 156
bite on my left D 156
bind to an anion D 156
bill or the rent D 156
bill of the sort D 156
bits of the clay D 154
bird of the gull D 154
bird is the least D 154
bird in the mouth D 154
bind to the pump D 154
bill to the base D 154
bill on the door D 154
bill of the cost D 154
bill in the wake D 154
bite to the base D 153
bite on the hook D 152
bite on my hand D 152
birth on the spot D 152
birth of the radio D 152
bike on the rack D 152
bite to the nape D 151
bite on the foot D 150
bird of the race D 150
bins at the mill D 150
bill in my face D 150
bill by the next D 150
bill at the foot D 150
bill at the club D 150
birth of the opal D 149
bird to an eagle D 148
bird on the spit D 148
bill is the least D 148
bill at the shop D 148
bits of the gold D 146
bird is the eagle D 146
bind to the zinc D 146
bill on the theory D 146
bill is to help D 146
bill at the suit D 146
bite in the late D 144
bird of the salt D 144
bins in the yard D 144
bill on the gate D 144
bill on the face D 144
bill is as much D 144
bike to the mall D 144
bike in the same D 144
birth at the foot D 142
bird of the moor D 142
bird in the tall D 142
bill of the duke D 142
bill in the best D 142
bike in the road D 142
bike in the hall D 142
bill at the helm D 141
bike up the road D 141
bite of the tiny D 140
bite at the hand D 140
bill to the hind D 140
bill on the left D 140
bike in the snow D 140
bits of the news D 139
bits in the chip D 139
bike to the back D 139
biting at my legs D 138
bite of the worm D 138
bird on the bush D 138
bill on the side D 138
bill in the town D 138
bill as the work D 138
bike to the other D 138
bite to the last D 137
biting at my heart D 136
bite of the jaws D 136
bite of the beef D 136
bill or to veto D 136
bill is to keep D 136
bird on the sand D 135
biting at it like D 134
bite of my bread D 134
bite in the spring D 134
birth to the ruling D 134
birth of the corn D 134
bill to the very D 134
bill to the home D 134
bill on the cash D 134
bill is the more D 134
bids in the sale D 134
bite of the skin D 133
bite of the hook D 133
bier at the foot D 133
bits of the plot D 132
birth of the tank D 132
birth of the cods D 132
bind in the slot D 132
bill is the kind D 132
bill in the young D 132
bill in the suit D 132
bill be to stay D 132
bike at the foot D 132
bite at the site D 131
biting of the fleas D 130
biting it so hard D 130
biting at the trap D 130
bird in the sand D 130
bind to the mast D 130
bill is the main D 130
bill at the late D 130
bike to the bike D 130
bite of the great D 129
bits of my soul D 128
bite to eat along D 128
birth to the clan D 128
bird in the eaves D 128
bird by the bill D 128
bill is to cease D 128
bill in the free D 128
bill as he came D 128
bile in the skin D 128
bile in the mouth D 128
bite on the road D 127
bite in the calf D 127
birth of the tiny D 126
birth of the pearl D 126
birth of the bull D 126
bird of the rail D 126
bird in the least D 126
bill is the bill D 126
bite on the skin D 125
bite in the skin D 125
bite in the last D 125
bits of the boat D 124
biting of the acid D 124
bite of my cake D 124
bite me so hard D 124
birth to the babe D 124
bill of so great D 124
bill is in your D 124
bill in my palm D 124
bill by the bank D 124
bill as to leave D 124
biking in the park D 124
bike to the next D 124
bite of the iron D 123
bite of the good D 123
bird in the loft D 123
bite on the film D 122
birth to the pups D 122
birth of the club D 122
birth in at least D 122
bill to the date D 122
bill of the like D 122
bier of the same D 122
bite on the bait D 121
birth of the soil D 121
bill in the post D 121
bits of it flew D 120
birth to the wife D 120
bird is so tame D 120
bird in the pine D 120
bill to be very D 120
bill in the hall D 120
bite on the thumb D 119
bite at the edge D 119
biting at the hook D 118
bite of an bars D 118
birth to the film D 118
birth of the sect D 118
birth of the camp D 118
bind to the wall D 118
bike in the other D 118
bird at the apex D 117
biota of the north D 117
bird on the eggs D 116
bill or an item D 116
bill in the ribs D 116
bill by the name D 116
bill to the firm D 115
bite on the legs D 114
birth of the womb D 114
birth of the germ D 114
bird in at least D 114
bill to the wrong D 114
bill or to pass D 114
bill on the sale D 114
bill is at home D 114
bill in the male D 114
bits in the least D 112
birth to the soil D 112
bird on the neck D 112
bill to be able D 112
bill on the road D 112
bill on the edge D 112
bill in the waning D 112
bill at the cafe D 112
bill as the other D 112
bike in the early D 112
bike in the boot D 112
bite on the tail D 111
bite in the face D 111
bite of the tart D 110
bite of the corn D 110
bite is the same D 110
bite in the hand D 110
birth to the bull D 110
birth of the rock D 110
birth in my soul D 110
bird or an avian D 110
bill in the open D 110
bile is at once D 110
bits of the soul D 108
biting of the wind D 108
biting in the hour D 108
bite of the early D 108
bite in the left D 108
birth to the tiny D 108
birth to the foal D 108
birth of the guru D 108
birth of the axis D 108
bird on the reef D 108
bill at the cost D 108
bill of the ibis D 107
bier of the late D 107
biting on an aching D 106
bite of the tuna D 106
bite in the open D 106
bite at the bread D 106
birth to the womb D 106
bird to the ogre D 106
bill on the hill D 106
bill is in part D 106
bill in the ways D 106
bill if it ever D 106
bill as of great D 106
bier in the early D 106
bill on the south D 105
bits on the chip D 104
biting on the stem D 104
biting at my face D 104
bite of the trap D 104
bite of the pork D 104
bird to the spot D 104
bind to the tooth D 104
bill to the cash D 104
bill on the pile D 104
bill on the mere D 104
bill is the cost D 104
bill in the years D 104
bill in the sand D 104
bier in the hall D 104
biting is the most D 103
bill of the four D 103
bile in the duct D 103
birth of the morn D 102
bill to go ahead D 102
bill is the wrong D 102
bill in no time D 102
bill in at least D 102
bile of the same D 102
bike at the back D 102
bier in the form D 102
biting at the hand D 101
bite of my steak D 101
birth to the rank D 101
bier at the gate D 101
bids up the wage D 101
bite at the least D 100
bite at the club D 100
bite at the bars D 100
birth if at least D 100
bird of the tall D 100
bind to the yeast D 100
bill to the nest D 100
bill in the slot D 100
bill in the road D 100
bill by the lord D 100
bill by the heir D 100
bile is in part D 100
birth to an eagle D 99
bill in the time D 99
bite of the plow D 98
birth on the foil D 98
bird is so fond D 98
bird in the isle D 98
bill to be only D 98
bill of the sale D 98
bill of the rook D 98
bill as the last D 98
biff on the nose D 98
biting at the wood D 97
bite to the other D 97
bite on the tooth D 97
bite of the south D 97
bite of the hand D 97
bite of the dark D 97
bill in the west D 97
bite on the next D 96
birth in the soil D 96
bill to the side D 96
bill to the high D 96
bill is to stop D 96
bill is to meet D 96
bill is the type D 96
bill in the three D 96
bill by the vote D 96
bike to the same D 96
bike to go home D 96
bite of the young D 95
bill in the side D 95
bier in the great D 95
biting of the tube D 94
biting at the other D 94
bite of the huge D 94
bite of the cool D 94
birth to the pearl D 94
birth to the bill D 94
birth is the least D 94
bind up the limb D 94
bill to the young D 94
bill by the said D 94
bill as it made D 94
bike to the curb D 94
bike in the barn D 94
bite on the rump D 93
bill in the dark D 93
biting at the snow D 92
bite of the lamb D 92
bite of my roll D 92
bite of it till D 92
bite at the cafe D 92
bird or the prow D 92
bird as he rose D 92
bill or the note D 92
bill it is clear D 92
bill in the soft D 92
bill in the door D 92
bits of the lining D 91
birth to the plot D 90
birth in the throes D 90
bird on the deck D 90
bird is the sigh D 90
bill to the more D 90
bill to the girl D 90
bill to be good D 90
bill it is lost D 90
biking in the rain D 90
bike to the road D 90
bike is the only D 90
bike in the living D 90
biting at the tail D 89
bill of the swan D 89
biting in the early D 88
biting at the wire D 88
bite of the very D 88
bite of the blue D 88
birth to the colt D 88
birth of my soul D 88
bird is the lark D 88
bird in the wheat D 88
bill to the rest D 88
bill to the form D 88
bill on the radio D 88
bill of the eagle D 88
bill it be meant D 88
bill is an avid D 88
bill in my turn D 88
bile is the part D 88
bile is the bile D 88
bile in no time D 88
bite at the ideal D 87
birth to the star D 87
bile by the bile D 87
bite of the wild D 86
bite of the line D 86
bite at the feet D 86
birth to the steam D 86
birth of the gulf D 86
bird to the eggs D 86
bird to the acre D 86
bird or at least D 86
bird of the hook D 86
bill to the body D 86
bill if he ever D 86
bill at the urging D 86
bill as the case D 86
bill as he took D 86
bike or to swim D 86
bite in the side D 85
bile to the bile D 85
bits of the cord D 84
bits by the teeth D 84
biting at the neck D 84
bite of the goat D 84
birth to my twin D 84
bill or to take D 84
bill as the bill D 84
bike on the bike D 84
bier in the nave D 84
bite me in half D 82
birth of the plot D 82
bill to the feet D 82
bill to be away D 82
bill of the union D 82
bill of the true D 82
bill as it will D 82
bike is the same D 82
bird on the iron D 81
bits of the moss D 80
biting on the nail D 80
biting at the file D 80
bite me or even D 80
bird on the pond D 80
bird of the dusk D 80
bird is the dove D 80
bird in the neck D 80
bird in an iron D 80
bill in my name D 80
bill as he went D 80
bike on the dirt D 80
bill to the left D 69
bite at the other D 67
bill of the south D 67
birth or at weaning D 64
bite to the face D 63
bite on the same D 62
bird to the eagle D 60
bill it to your D 59
bite of the male D 58
bird in the lime D 58
bite in the ocean D 57
birth of the fawn D 56
bill on the tenth D 56
bite on the edge D 54
bind up the gaping D 54
bill is no less D 54
bind to the camp D 53
bill to go over D 53
bill of the road D 52
bite on the bare D 51
bite or at least D 50
bite at the nape D 49
biking in the city D 49
birth to the folk D 48
bill of my hand D 47
bite to the next D 46
bite as it were D 46
bite in the heel D 45
bite in the foot D 45
birth to the firm D 45
bird as an eagle D 45
bill of the town D 45
biting on the part D 44
biting on the back D 44
bill of the cock D 44
bite at an early D 43
bile to the acid D 43
biting in the same D 42
bite on my line D 42
bite in the form D 42
bite at the food D 42
bill in the till D 42
bite at the very D 41
birth of the news D 41
bill to the three D 41
bill at the back D 41
biting of the cold D 40
bite if it were D 40
