birth of our lord M 26439
birth of her baby M 13558
bird of ill omen M 12394
birth to two years M 8278
birth of her last M 8170
birth of her third M 7873
birth to two sons M 7762
birth to her third M 6669
bind to each other M 5374
birth to her baby M 5362
bind on earth will M 5262
birth to age five M 5113
bird in his hand M 4874
birth to six years M 4183
birth to her only M 4036
birth of her only M 3402
bird in its nest M 3054
bird in its cage M 2934
birth of his third M 2904
birth to age three M 2829
birth to two more M 2771
birth to her last M 2741
birth he had been M 2626
birth to new life M 2613
birth of his only M 2585
birth to her fifth M 2564
bird on its back M 2551
birth to new ideas M 2542
birth of two sons M 2506
birth of this book M 2360
bits of meat were M 2336
birth to her young M 2092
bird to its nest M 2088
bird of this kind M 2072
birth of her fifth M 2031
bird of any kind M 1997
birth of new ideas M 1876
birth of this great M 1868
birth of new life M 1836
birth to her sixth M 1751
birth to each other M 1750
birth of his heir M 1750
birth to its young M 1720
birth to this book M 1717
birth to two boys M 1706
bird in her hand M 1558
birth of his baby M 1547
bird of that name M 1540
bits of meat from M 1516
birth of his sons M 1512
birth to one month M 1461
birth or any other M 1428
birth of our baby M 1414
bird on its nest M 1376
birth of her sixth M 1358
birth of new ones M 1342
birth of this baby M 1227
birth of his last M 1198
birth of our third M 1182
birth is not only M 1162
bird in his cage M 1159
bird in one hand M 1143
bits in each word M 1130
birth to new ones M 1130
birth of two more M 992
bits of red cloth M 976
bird or any other M 918
bird is not only M 914
bird of its size M 887
birth to her ninth M 882
birth of her sons M 856
bird on her nest M 846
birth to one baby M 836
birth of her three M 835
bird of bad omen M 835
bird he had ever M 827
birth it has been M 824
bits of his life M 810
birth of his great M 800
bird on one side M 798
birth at that time M 794
birth to two other M 792
bits of dry wood M 788
birth at any time M 780
birth to six sons M 778
birth to one young M 776
bird is not there M 774
bird he had seen M 771
bird is not very M 767
birth to all these M 750
birth to her tenth M 726
birth he has been M 726
birth of her young M 716
birth it had been M 712
birth of her next M 710
birth of our lady M 706
birth of that great M 702
birth of our hero M 702
birth of his fifth M 696
bird to fly away M 690
bits of each word M 688
birth to this baby M 684
birth to his only M 681
birth to age four M 677
birth to ten years M 662
bind to this site M 662
bids the law rule M 661
bird at his feet M 654
bird in his arms M 652
birth of her ninth M 650
birth in his mind M 650
birth at this time M 642
birth to all those M 641
bind me for ever M 638
birth of his three M 634
bits of his body M 630
birth to two young M 628
bird in his nest M 628
bird to its mate M 627
birth or death rate M 623
bits of dead wood M 602
birth to our third M 569
bits at one time M 566
bird of its young M 566
bits of her life M 564
bird of its kind M 562
bind up this hair M 558
birth to all other M 556
birth to his baby M 552
birth in this life M 550
birth to all living M 549
bits of old wood M 537
birth of all beings M 530
bird of this size M 504
bird in this case M 490
bits of real life M 488
birth to two great M 486
bits in this case M 484
bind up her hair M 482
birth of our great M 478
birth or death date M 476
birth of man into M 474
birth of his hero M 470
bird on its side M 470
bird in his left M 466
birth of this kind M 458
birth to all life M 451
birth of this last M 450
birth to this great M 444
birth to low birth M 442
birth of any other M 442
bird at any time M 441
bird in his life M 436
bird of this sort M 434
bird in her nest M 432
birth to men like M 430
bird of that kind M 430
birth of her tenth M 428
birth of each baby M 422
birth of her great M 420
birth to one more M 417
birth to our lord M 416
birth to our baby M 416
birth to all beings M 416
birth or low birth M 414
birth to his last M 402
birth to any more M 401
bird in her arms M 400
bits of old songs M 396
birth to death were M 394
birth in his heart M 394
bird to her nest M 391
bird of that sort M 386
birth as they were M 384
birth to death there M 382
birth or being born M 382
birth in this land M 380
bird in this part M 380
birth is not just M 378
birth of this young M 376
bind up all their M 376
bits of his hair M 374
bits do not have M 374
bits of each other M 370
bird in its wild M 370
bird he had been M 369
birth to too many M 366
birth or who have M 366
bird is not more M 366
bird in each hand M 362
bird on his back M 360
birth of too many M 358
bind to and kill M 356
bird on his hand M 348
birth of his sixth M 346
bits of old cloth M 338
birth of two great M 338
bird on each side M 338
bird is far from M 338
bits of her hair M 336
birth to her sons M 336
birth in due time M 336
bind us for ever M 334
bird we had seen M 330
bits of his work M 328
bird at this time M 324
bids us not only M 322
bits of this type M 320
birth of our last M 320
birth do not have M 320
birth to any other M 314
bird is not much M 313
bird of that size M 312
bits of meat into M 306
bind the top edge M 305
bird to fly over M 301
birth to that great M 300
birth in that city M 298
birth if they were M 298
bind to all three M 298
bits of her body M 296
bind me with your M 296
birth of that most M 293
birth to two sets M 292
birth of any such M 292
birth is far more M 292
bits of bad luck M 290
bits of his past M 289
birth in that case M 286
biding by his rule M 286
birth of this very M 284
bits to and from M 282
birth he has made M 282
birth of his next M 278
bird is far more M 278
bird at that time M 278
birth of one more M 277
bird of this name M 274
bird is put into M 274
birth in this very M 271
bind up his hand M 270
bird on his left M 269
birth of man from M 268
bird of this type M 268
bird is not seen M 268
bird at one time M 268
birth to that baby M 266
birth to and caring M 266
birth of her four M 266
bird to fly into M 266
birth to two kids M 264
birth to ten sons M 262
birth of two other M 262
birth in its turn M 262
birth of its great M 258
bird of any sort M 257
birth in this case M 256
bird on her hand M 256
birth to new ways M 254
bird of our spring M 254
bird do you think M 254
birth to this work M 252
birth to him when M 252
birth of his body M 252
birth of all these M 252
bits of this word M 250
birth of this third M 250
birth of that baby M 250
birth of his work M 250
birth is far from M 250
birth to that most M 249
bits to each other M 248
birth to her three M 248
birth he was born M 248
bird or any part M 248
bird it has been M 247
bits of oak bark M 246
birth of this work M 246
bird at her feet M 246
bits of meat left M 244
birth of this girl M 244
bits of our life M 242
birth of his love M 242
bird to fly from M 242
bird to his nest M 241
birth to two male M 240
birth of new hope M 240
birth to her next M 238
birth of all their M 238
bird in that tree M 238
bins on each side M 236
birth to this hour M 234
bits of earth from M 232
birth to this body M 232
birth to six young M 232
birth he was among M 232
birth in that land M 231
bits of this book M 228
birth to six more M 228
bids at any time M 228
bird up and down M 227
bits in each code M 226
birth in his next M 226
bird of his size M 226
birth we are born M 224
birth or any time M 224
birth of its young M 224
birth of any baby M 224
birth in her heart M 224
bind to any other M 224
bird to its cage M 223
birth to two such M 222
birth of her love M 222
birth in her mind M 218
bird on its left M 218
birth of low mass M 216
birth is not clear M 216
bird in each case M 216
bird he had just M 215
birth of this heir M 212
birth is not very M 212
bird in his heart M 212
birth of her half M 210
bits of them were M 208
birth or for some M 208
bird is not able M 208
bits of old food M 206
birth of new baby M 206
birth of its most M 204
bird on one tree M 204
birth to this very M 201
birth to that last M 200
birth of men from M 200
birth at that early M 200
bits of her past M 199
birth to any sort M 198
birth of his four M 198
bird is now ready M 198
bits of him were M 196
birth to one great M 196
birth to his heir M 196
bird at its best M 196
bind at this site M 196
birth of his half M 195
bird in her cage M 194
bits in one word M 192
bits in his hand M 192
birth of all three M 191
birth in this city M 191
birth to death from M 190
birth or who were M 190
birth of any kind M 190
bird is set free M 190
bird is not flying M 190
bind up each other M 190
birth on one side M 189
bird by its feet M 189
bits of one word M 188
bits of each data M 188
bits of dry land M 188
birth of all those M 188
bind to one side M 188
birth of that very M 187
birth at one time M 186
bind the two ends M 186
bind in this case M 186
birth to age nine M 185
birth to death will M 184
bits of this kind M 182
birth we are just M 182
birth to death along M 182
bird in her life M 182
birth of big band M 180
birth in any other M 180
bird of his kind M 178
bird by its nest M 178
birth of this type M 176
birth of this lady M 176
birth of one baby M 176
bird in any part M 176
birth to all their M 174
birth of two boys M 174
birth of our fifth M 174
bird of any other M 174
bird by that name M 174
bind the two great M 174
birth of all living M 173
birth to our hero M 172
birth so that their M 172
birth of his young M 172
bird or two winged M 172
bind to its site M 172
bits in use among M 170
birth of this love M 170
bits on each side M 168
birth to two very M 168
birth he was made M 168
bird by its call M 168
bits of things like M 167
birth to and care M 167
birth to this type M 166
birth of this body M 166
birth of all life M 164
birth is and what M 164
bird is not laying M 164
bird at its nest M 164
bind us for life M 164
birth to any faith M 162
birth in our time M 162
bird is too well M 162
bind to that site M 162
birth to two baby M 161
birth to them when M 160
bird of any size M 160
birth to his third M 158
birth of our most M 158
birth of all great M 158
bird of that great M 158
bind up two very M 158
birth as far back M 156
bits in each time M 154
birth to his ideas M 154
birth so that there M 154
birth he has ever M 154
bind to red cell M 154
bits of each code M 152
bits as they were M 152
birth or death when M 152
bits of things from M 150
bits in each data M 150
birth to them have M 150
birth to him from M 150
birth of that work M 150
bird in that cage M 150
bind the two main M 150
bird is not well M 149
bits of her heart M 148
bits of his heart M 146
birth on this side M 146
birth is not more M 146
bird on that tree M 146
bird at his side M 146
birth to this rule M 144
birth to our last M 144
birth to all three M 144
birth of new gods M 144
birth of him whom M 144
birth of god from M 144
birth do not seem M 144
bird to his mate M 144
bird in her heart M 144
birth of our only M 143
bits of him away M 142
birth of that other M 142
birth in her home M 142
birth he was able M 142
birth to far more M 141
birth it was said M 140
bird is now very M 140
bird as she sits M 139
bits of all these M 138
birth to this kind M 138
birth to his great M 138
birth to death like M 138
birth of man down M 138
bird or its nest M 138
bird is not worth M 138
bird in any last M 138
birth of his most M 137
birth of her male M 137
birth we can have M 136
birth to new hope M 136
birth if they have M 136
bind on one side M 136
birth to his most M 135
birth he was only M 135
bits at any time M 134
birth we are made M 134
birth to this sort M 134
birth to any moon M 134
birth or death save M 134
birth of our three M 134
birth of his ninth M 134
birth he may have M 134
bird of his heart M 134
bird he has seen M 133
bits of all three M 132
bits as they come M 132
birth or may have M 132
birth of her other M 132
birth of any living M 132
bird is not less M 131
birth to not only M 130
birth of his other M 130
birth is not even M 130
bird in its hand M 130
bird be put into M 130
birth to death life M 129
bits of dry bark M 128
birth of our next M 128
bird is not just M 128
bind us and keep M 128
bind to one type M 128
bird on her back M 127
bird he had once M 127
birth to two fair M 126
birth do not show M 126
birth as any other M 126
bird is singing over M 126
bird is not even M 126
birth of that life M 125
birth of her most M 125
bird to sit upon M 125
bird he had heard M 125
birth we are told M 124
birth to new beings M 124
birth to his sons M 124
birth to her five M 124
birth of its hero M 124
bird or any living M 123
bits of lead from M 122
bits of his mind M 122
birth to his ninth M 122
birth of our sons M 122
birth of her five M 122
bird by any means M 122
birth of his book M 121
bits to see what M 120
bits of his face M 120
birth to two fine M 120
birth to this third M 120
birth to that other M 120
birth to our just M 120
birth to its last M 120
birth of his true M 120
birth he had seen M 120
birth by any means M 119
bird in her left M 119
bits of old blue M 118
birth to this girl M 118
birth to her four M 118
birth of any great M 118
birth in that same M 118
birth is not like M 117
bits of them into M 116
bits of ash from M 116
bits in each cell M 116
birth of that young M 116
birth of god into M 116
birth in each case M 116
birth he was very M 116
birth by being born M 116
bird to one side M 116
bits of that word M 114
bits of lead into M 114
bits of her were M 114
birth or has been M 114
birth in this same M 114
bird is not here M 114
bird in its most M 114
bind up his name M 114
bids do not reach M 114
bird is not like M 113
bits of its body M 112
birth to ten more M 112
birth to his coming M 112
birth to both good M 112
birth is not such M 112
bird is two years M 112
bind us not only M 112
bird to see what M 111
birth to see what M 110
birth to our very M 110
birth to any such M 110
birth to any great M 110
birth of this realm M 110
birth in that town M 110
bids to each other M 110
bids on each item M 110
bits of this code M 108
birth to six boys M 108
birth in any case M 108
bird in our hand M 108
bird in any other M 108
bird at that great M 108
bind up his hair M 108
bind to and react M 108
bits so that there M 106
birth we are able M 106
birth to this time M 106
birth to that time M 106
birth to new songs M 106
birth is not meant M 106
bird is not rare M 106
bird in his mind M 106
bird in his coat M 106
bird in its range M 105
bird by its tail M 105
bits of our past M 104
birth to our three M 104
bird we had eaten M 104
bird is not eaten M 104
bird he has just M 104
bird by its note M 104
bind us and make M 104
bind to one site M 104
bids us not mind M 104
bits it can send M 102
birth of this same M 102
birth of one such M 102
birth do not make M 102
bird to his home M 102
bird to get into M 102
bird in her hair M 102
bird in this nest M 100
bird at any rate M 100
bide to put away M 100
bits of this life M 99
bits in this book M 98
bits as they pass M 98
birth to lay their M 98
birth of each other M 98
birth of all other M 98
birth at any rate M 98
bird of war their M 98
bird in its home M 98
bins do not have M 98
birth to two live M 96
birth to ten boys M 96
birth to our only M 96
birth to his work M 96
birth to death have M 96
birth or death have M 96
birth or being from M 96
birth of each male M 96
birth it may have M 96
birth is not what M 96
bird if you want M 96
bird he has left M 96
bins of this type M 96
bits of old time M 94
bits of old ones M 94
bits if you like M 94
birth to our great M 94
birth to one last M 94
birth of this most M 94
birth of our young M 94
birth is that there M 94
bird to her hand M 94
bird by any other M 94
bind is not only M 94
bids in real time M 94
birth of his tenth M 93
bids on that item M 93
bits of this port M 92
bits of dead bone M 92
bits in our case M 92
bits do not need M 92
birth to this most M 92
birth to that hour M 92
birth to our ideas M 92
birth to its name M 92
birth to his body M 92
birth to all four M 92
birth of his said M 92
birth if you have M 92
bird of each pair M 92
bird in his room M 92
bind on earth what M 92
bird to its young M 91
bids us put away M 91
bits of her face M 90
birth of this ninth M 90
birth he was laid M 90
bird to fly back M 90
bins on one side M 90
bids if they have M 90
bids do not meet M 90
bids as they come M 90
birth it was only M 89
bits in this code M 88
birth we had been M 88
birth to them from M 88
birth to one such M 88
birth to her when M 88
birth of this hero M 88
birth of not only M 88
birth is not from M 88
birth he was sent M 88
birth as has been M 88
bird so far into M 88
bird of her young M 88
bird of her size M 88
bird it had been M 88
bind the sin upon M 88
bind at any time M 88
birth to his theory M 86
birth to her single M 86
birth to death into M 86
birth or had been M 86
birth of his five M 86
bind to all four M 86
bits of lead were M 84
bits of all those M 84
birth to this other M 84
birth to our sixth M 84
birth to its full M 84
birth to death these M 84
birth to bring forth M 84
bird of long life M 84
bird of all time M 84
bird it has some M 84
bird in its turn M 84
bird in her room M 84
bind me with such M 84
bids of all other M 84
bits of his early M 82
birth to his young M 82
birth to his fifth M 82
bird we now call M 82
bird in his list M 82
bird by its name M 82
bind us with their M 82
bind to and coat M 82
bind me and leave M 82
bits as you need M 80
birth to her other M 80
birth to death their M 80
birth of this city M 80
birth is set down M 80
bird to fly free M 80
bird is now rare M 80
bird he has been M 80
bird as far north M 80
bind up with bits M 80
bind me for life M 80
bird to bring down M 68
bird to fly down M 57
birth to yet more M 52
bits of his cast M 49
birth in his pure M 48
bind to and form M 48
bids us sit down M 48
birth to that very M 47
birth to her self M 46
birth he was half M 45
bind us any more M 45
birth of any more M 43
birth at this very M 42
bids us bow down M 42
bits of its food M 41
birth to and feed M 41
bill of this kind D 9118
bill in his hand D 7274
bill in this case D 5154
bill is not paid D 4738
bill in new york D 3284
bill of this sort D 2651
bill at that time D 2425
bill at this time D 2412
bill in her hand D 2329
bill or any other D 2270
bits of old iron D 1976
bird in his mouth D 1816
bill is then sent D 1756
bite of ice cream D 1736
bill at any time D 1652
biting at each other D 1539
bill of this bird D 1420
bits of each byte D 1399
bird in its mouth D 1350
birth in new york D 1342
bill in this form D 1320
bill do now pass D 1314
bile in his mouth D 1310
bill is not only D 1285
bike up and down D 1217
bite of mad dogs D 1195
bill of that kind D 1042
bill to put down D 1014
bite of his food D 951
bill of this type D 949
bill is too high D 948
bits in each byte D 916
bill he had been D 886
bite in his mouth D 860
birth of her twin D 851
bill of any kind D 784
bill in any other D 772
bite of her food D 751
bike to and from D 740
bite in her mouth D 736
bill it has been D 722
bill be not paid D 720
bill on its third D 707
birth to one calf D 702
bill or any part D 700
bill in one hand D 662
bill in this suit D 656
bird he had shot D 649
bird in her mouth D 646
bile in her mouth D 640
birth of his wife D 632
birth to two cubs D 630
bill on his desk D 624
bike on its side D 615
bite at each other D 605
bill in that form D 588
bill in that case D 586
birth to her cubs D 580
birth of his twin D 570
bill in any form D 562
bite of his steak D 554
bill it had been D 542
bits of dead skin D 534
biting of mad dogs D 520
bite it with their D 516
bill on new york D 512
bill is not very D 512
birth to her calf D 504
bite on his neck D 499
bill do not pass D 490
bill as one very D 488
bite or two from D 486
birth of her babe D 484
bill or any bill D 476
bill or any item D 472
bits of new york D 469
bird as she flew D 469
bill by one vote D 460
bill at one time D 456
bill is that there D 442
bite on her neck D 439
bill in any case D 430
bill if they were D 426
bite at any time D 424
bits of dry bread D 420
bite of his teeth D 418
bill is not here D 418
bill is put into D 416
bite of his bread D 412
birth of eve from D 406
bits in his mouth D 402
bite in his tone D 401
bite of her bread D 392
bill is not made D 392
bill as had been D 390
birth to and rearing D 388
bill of that sort D 386
bill on one side D 384
bill he had just D 384
bits of raw beef D 382
birth of his soul D 382
bill in its main D 382
birth to her twin D 381
bill is not worth D 368
bill is not what D 368
bill on its face D 363
bill up and down D 362
bill of that date D 356
bits or one byte D 354
bill to see what D 354
bill in his life D 353
biting me all over D 352
bill of two years D 352
bits of old rope D 350
bite of meat loaf D 348
bite of her steak D 344
bits of hay were D 342
bill of its kind D 342
bits of hay from D 328
bill is far from D 328
birth to her pups D 326
bite of her roll D 325
bill in his face D 324
bits of this byte D 322
birth to and bringing D 320
bill to new york D 320
bill do not have D 320
bite of her cake D 318
bite of each main D 318
birth to two eggs D 318
bird to his tame D 316
bill of this date D 316
bill as they were D 316
birth of her calf D 314
bill of his hand D 314
bier is not worth D 312
bill to her lips D 310
bill is not just D 310
bird on his fist D 304
bill is not even D 304
bits of tin foil D 300
bill on each side D 300
bill to his bank D 296
bill it was said D 294
bird by its legs D 293
bird on her finger D 292
bits of bad news D 290
bite in her tone D 290
bite of his roll D 287
bite of this tick D 286
bite to his mouth D 285
bird in new york D 284
bill if you have D 280
bier is set down D 280
bill in this here D 278
bill at this late D 278
bite of his cake D 276
bill in that body D 276
bite of his eggs D 272
bill is not clear D 268
bite of her eggs D 266
bill is being paid D 264
bill in new south D 264
bits of fur from D 262
bite on his left D 258
bite of his finger D 258
bite on his hand D 257
bits of fat pork D 256
bill to its third D 256
bill is now ready D 256
bits of raw fish D 254
bits of ice from D 252
bird in this bush D 250
bits of raw data D 246
biting at her lips D 246
bill is not ready D 246
bite of her tuna D 242
bits of fat from D 240
bird of his soul D 236
bill is not sent D 232
birth to his wife D 230
bike if you want D 230
bill in his name D 229
bits of ice into D 228
bill in each case D 228
biting at his face D 226
biting at his lips D 224
birth in his soul D 224
bill to two years D 224
birth to his sect D 223
bite or run away D 221
bill so that there D 220
bill in this same D 220
bill is far less D 219
bite to her mouth D 218
bile is not only D 218
bill is not much D 215
birth of son john D 214
bill is then said D 214
bill as they have D 214
bill to his wife D 212
bill do not know D 212
bier to pay their D 212
bill is put upon D 209
bird on his finger D 207
bill in its most D 207
bite of her teeth D 206
bill in ten days D 206
bite is not very D 204
bite of pie into D 202
bits of old lace D 200
bite on his line D 196
bill of any sort D 196
biting at her neck D 193
bill at any rate D 193
bill is not duly D 192
bits in this byte D 190
bite is not felt D 190
bird in its jaws D 190
bill of his ball D 190
biting of his lips D 188
bite of his fish D 188
birth of gay reading D 188
bits of ice were D 186
bite of any other D 186
bill if you want D 186
bits in her mouth D 184
bill in due time D 184
bill of that bird D 182
bill at one month D 180
bill as has been D 180
bird by its neck D 179
birth of our race D 178
bill of new york D 178
bill is set forth D 178
bile to and from D 178
birth to her foal D 177
birth of sir john D 176
bike to one side D 176
bits in one byte D 175
birth the sex ratio D 174
bill is far more D 174
bill be read three D 174
biting on his pipe D 172
bite is not only D 172
bill to set forth D 172
bill in his palm D 172
bike he was riding D 172
bite my lip hard D 171
biting it with their D 170
bite on one side D 169
bill to pay when D 168
bird of her eggs D 166
bill is not such D 166
bits of old wall D 165
birth of her cubs D 164
bill is not used D 164
bids the earth roll D 163
bite at any bait D 162
birth of new york D 162
bier of her only D 162
bits of red tape D 160
bits of rag tied D 160
bite if they feel D 160
birth to its fungi D 160
bill to any other D 160
bill is then ready D 160
bill in her life D 160
bite on her left D 158
bill is one inch D 158
bill is not sure D 158
bill at six days D 158
bits in his teeth D 156
bite of any kind D 156
bill at new york D 156
bile to his mouth D 156
bike to get there D 156
birth of this babe D 154
bite to his tone D 153
bite of her fish D 152
bill if you will D 152
bits in each slot D 150
bill on any other D 150
bill in his left D 150
bill if that were D 150
bits of his skin D 148
bits of hay clinging D 148
biting at his neck D 148
biting at his legs D 148
bill of earl grey D 148
biasing the sex ratio D 148
biting at its tail D 146
bite to her tone D 146
birth to her babe D 146
bill at his bank D 146
bill if you like D 145
bite of his tuna D 144
bite is then more D 142
bill in his fist D 142
bill in due form D 142
bill he had ever D 141
bill to his feet D 140
bill in his mouth D 138
bill at his home D 138
birth of art must D 136
bill to bring back D 136
bill if you look D 136
birth to six pups D 134
bits of mud from D 132
birth to his soul D 132
bird in its bill D 132
bits of dry clay D 130
bite my lip when D 130
bird or she took D 130
bill at its base D 130
bits of red wool D 129
bite on his thumb D 129
bite on her hand D 129
bits of red yarn D 128
bits of old string D 128
bits of dry moss D 128
birth to new laws D 128
bird on its prey D 128
bill in its early D 128
bill he had sent D 128
bill he had left D 128
bill at any length D 128
bier at his feet D 128
bits of dry cork D 126
birth or death took D 126
bill is not meant D 126
bill by its full D 126
bits of wax into D 124
bird on her eggs D 124
bind the new york D 124
bill to sit down D 124
bill on due date D 124
bill of this size D 124
bill it was made D 124
bill is read three D 124
bill he had paid D 124
biting the end from D 122
birth to any star D 122
birth of her soul D 122
bird or its eggs D 122
bill on his neck D 122
bill of any other D 122
bill in this bird D 122
bill in her face D 122
bits of leaf from D 120
bite on his foot D 120
bite if you want D 120
birth to two pups D 120
birth in her womb D 120
bill on his health D 120
bill of that size D 120
bill is not there D 119
bits of lath were D 118
bits in that byte D 118
biting at her feet D 118
bind via this bond D 118
bill is not coming D 118
bill in his room D 118
bill as set forth D 118
bier is put down D 118
bits of old rags D 116
biting at his breath D 116
bite of meat from D 116
bite in this case D 116
birth of her foal D 116
bird in his jaws D 116
bird in his claw D 116
bind it with tape D 116
bill to cut down D 116
bill on her desk D 116
bike up and over D 116
bill or that bill D 114
bits of egg yolk D 113
bite on her thigh D 113
bill do not like D 113
bits of wax from D 112
bits of old wire D 112
bite on his face D 112
bite of his last D 112
bill be put upon D 112
biff is two years D 112
bier of one whom D 112
bite on each side D 111
bite of rat fleas D 110
bite me all over D 110
bill on this side D 110
bill in his desk D 110
bite of that cake D 109
biting the long ends D 108
bite to her lips D 108
bird he has shot D 108
bill if you were D 108
bill if and when D 108
bier of his wife D 108
bill is not more D 107
bird to his wife D 106
bill of his ship D 106
bike if you have D 106
bill to his liking D 105
biting of her lips D 104
biting at his heel D 104
bite me with your D 104
bill is six feet D 104
bill is not good D 104
bill at its third D 104
bill in his vest D 103
bits of dry skin D 102
bite it but take D 102
bite at this bait D 102
bird in his palm D 102
bill me for your D 102
bill he has just D 102
bill at any cost D 101
bite of his cone D 100
bite of her taco D 100
birth to one lamb D 100
birth to her lamb D 100
birth as new york D 100
bill to put into D 100
bite of each food D 99
biking to and from D 99
bits of red silk D 98
bits of her skin D 98
biting at his heart D 98
bite is far more D 98
birth of both john D 98
bill to get into D 98
bill do not want D 98
bill do not seem D 98
bill at his door D 98
bite the bee gave D 97
bill to get back D 97
bill is one hour D 97
bits of ore from D 96
bits of ice cream D 96
biting on her lips D 96
bill to that body D 96
bill of not less D 96
bill of all those D 96
bike to see what D 96
bits of red string D 94
bits of old bread D 94
bind to and fuse D 94
bill or his wife D 94
bill is being sent D 94
bill at her door D 94
bier of his great D 94
bite or sting from D 93
bite on his finger D 93
bite me any more D 92
birth of this spot D 92
bill by this time D 92
bill at ten days D 92
bile to her mouth D 91
bind the top soil D 90
bill we are giving D 90
bill of new south D 90
bill it was held D 90
bill at his best D 90
bile is not very D 90
bits of red clay D 88
biting at his bread D 88
bite of that food D 88
bite of his stew D 88
birth in his diary D 88
bill on his back D 88
bill in two ways D 88
bill he had made D 88
bile or any other D 88
bike in one hand D 88
bits of old junk D 86
bits of his beard D 86
biting as they were D 86
bite the top well D 86
bite of rye bread D 86
bite of all these D 86
bite it with your D 86
bite it and throw D 86
birth of our twin D 86
bind it with wire D 86
bill of his blue D 86
bill of any bird D 86
bill in each hand D 86
bill at our great D 86
bile in his body D 86
bite in his thigh D 85
bill he had only D 85
bits of her soul D 84
bite on his fork D 84
birth to yon fair D 84
birth at new york D 84
bird to her mouth D 84
bind it with string D 84
bill to bar from D 84
bill of that week D 84
bill in one form D 84
bits of his soul D 82
bits of egg from D 82
biting at its neck D 82
biting at his feet D 82
biting at her face D 82
bite of meat into D 82
bite of its teeth D 82
bite me for taking D 82
bite is not deep D 82
bite at any hour D 82
birth as his wife D 82
bill on two other D 82
bill me for just D 82
bill at its face D 82
bits of old pots D 80
biting at her legs D 80
birth by his wife D 80
bill on all three D 80
bill he may veto D 80
bill by that body D 80
bill at this rate D 80
bill as any other D 80
bier by its only D 80
bite at this time D 70
bill is not like D 56
bite up and down D 53
bite or sting site D 52
bite at his neck D 51
bite on his back D 50
biting me for many D 49
bits of red sealing D 48
bite or any other D 47
bite or sup till D 46
biking up and down D 45
bite of her tart D 44
bill in his wild D 44
biting at her finger D 42
bite or sting when D 42
bite at one time D 42
bite in his hand D 41
birth of this giant D 41
bill at her side D 41
