had to go to M 863971
had to do it M 326761
had to be the M 321710
had to be in M 261802
has to do is M 234582
has to be the M 218864
had to go on M 196756
had to be at M 134383
has to be in M 132800
has to go to M 127334
had to do to M 125700
had to do the M 125098
had to be on M 124363
has to be an M 111886
had to be an M 109292
hang on to the M 93744
had to do in M 77473
had to do so M 70020
had to go in M 64348
had it in my M 62815
has in it the M 60408
had to be so M 60208
has to do it M 55924
has to be on M 54312
had to be of M 53182
had it to do M 51067
has to be at M 50919
had to go up M 49333
has to go on M 43919
had to be as M 41470
has to do the M 39654
has the ring of M 38710
has to be so M 38110
has to do to M 37826
had it in the M 37014
hang on to it M 35644
has to do in M 33825
had to be to M 32540
had to go by M 31141
has to be of M 30198
had in it the M 30164
had to be up M 27644
had the ring of M 26936
hang it on the M 25610
has to be as M 25496
has to be to M 24494
had to do as M 21326
has it to do M 20785
had it on the M 20354
had it up to M 17776
has up to the M 17550
has he to do M 17176
has to do so M 15222
had to do my M 14642
had he to do M 14048
had to do at M 13957
hang it in the M 13763
had me by the M 13724
had to be it M 13542
had to be by M 13406
has it in the M 13334
has in it an M 12852
has to go in M 12485
hang it up in M 11968
had as to the M 11248
has in it no M 11177
had to go the M 11130
had to do on M 11092
had to eat the M 10916
had up to the M 10908
had it in me M 10718
had to be my M 10705
had the king of M 10632
had to do is M 9888
hang on to my M 9473
hang up on me M 9399
had to go as M 9334
had tea in the M 9220
had me on the M 9204
had to go at M 8738
had in it an M 8504
had it at the M 8314
had it on my M 8210
had to eat it M 8072
has to go up M 7878
hang up in the M 7785
has on it the M 7746
had to do an M 7736
hang it up to M 7382
had to eat in M 7350
had to do if M 6908
has to be by M 6828
had to be no M 6803
had in it no M 6763
hang on to me M 6707
had to go so M 6277
has to be up M 6218
had me in the M 6178
has to be it M 6012
had he to be M 5982
has to do as M 5738
had tea at the M 5724
has to be no M 5614
has to be my M 5534
had to go it M 5450
had on it the M 5394
had to ring the M 5316
has to go by M 5259
has it on the M 5206
had to be me M 5194
had to be if M 4988
hang up on the M 4969
had he in the M 4276
hath in it the M 4246
hang on in the M 4242
has the king of M 4144
had to sing the M 4002
had on at the M 3990
hang it up on M 3941
had to eat at M 3828
has he to be M 3756
has to do at M 3726
hang it up by M 3691
had to do or M 3638
had it by the M 3514
had to in the M 3494
has in it so M 3447
has to be me M 3362
has me by the M 3259
has it to be M 3234
had to do by M 3216
had tea on the M 3184
hang of the thing M 3048
has to do or M 2996
has to be if M 2956
had the king in M 2956
hath in it no M 2908
had to sing in M 2735
had in it so M 2733
has to do on M 2695
had to go or M 2624
has to go the M 2510
had it to be M 2496
has it to the M 2448
had to sing it M 2418
had of it in M 2398
had to be or M 2393
hang on to an M 2365
had us on the M 2338
had to do no M 2318
had to the king M 2310
had of the king M 2256
has to be or M 2209
had of it at M 2134
had me on my M 2066
had in the king M 2066
has to be is M 2062
had to eat my M 2052
had to go if M 2040
has he in the M 2018
had to me the M 1996
had to on the M 1938
has to do if M 1936
had to go via M 1936
had to do he M 1932
hang it in my M 1928
had we to do M 1908
had me at the M 1850
had to eat to M 1848
hang on by the M 1833
has us by the M 1822
had it to the M 1810
had us in the M 1792
had he at the M 1764
has in it to M 1746
had to eat or M 1708
has it at the M 1690
has an id of M 1670
had to ring up M 1656
had to eat on M 1635
hang on to as M 1631
has to go as M 1629
had in me to M 1628
hang it by the M 1597
hang it on my M 1594
had the thing in M 1574
has to go at M 1566
had he to go M 1560
has is in the M 1550
has to eat the M 1532
hang on to in M 1532
has me on the M 1508
had on in the M 1458
had in it as M 1458
had in me the M 1444
has is to be M 1436
hang of it in M 1394
has to do an M 1388
has in it as M 1348
had me go to M 1346
had we in the M 1340
had to go do M 1320
had on me the M 1314
had to sing to M 1290
has on it an M 1286
has it by the M 1266
had it in an M 1264
had it on me M 1256
has as to the M 1254
had as in the M 1254
had he of the M 1222
had it as an M 1218
had us by the M 1214
has in it at M 1208
had to if he M 1184
had in it at M 1184
had up in the M 1164
had to go no M 1140
has to me the M 1138
had by the king M 1130
had the king to M 1120
has to do no M 1106
hang on at the M 1092
had the ring on M 1089
had it by me M 1086
had it of the M 1080
hang me up by M 1058
had to sing at M 1038
hang up at the M 1023
had the ring in M 1010
had of me in M 1009
has to go it M 998
has to eat it M 986
had me up to M 984
hang up in my M 974
had to wing it M 960
had to go an M 958
had on it an M 940
has to do by M 930
had he to the M 924
hang it up as M 916
hang on as the M 904
had the king at M 902
had up on the M 892
has if it is M 882
hang me on the M 876
had to be he M 876
has it as an M 872
hang it up at M 868
hang me by the M 862
had it in us M 862
had on the king M 860
hang it at the M 856
has to go so M 847
had it if he M 828
had me do it M 824
had to it in M 810
hath the king of M 806
hang me if it M 798
had to be be M 791
has it as the M 776
hang it to the M 772
had to eat as M 772
has us on the M 764
had to go he M 758
has to eat in M 752
had or to be M 744
had to to be M 742
had it as the M 734
has he of the M 728
had to at the M 724
had on me as M 723
has me in the M 718
had in it to M 716
has is of the M 712
has he to the M 712
had me up in M 710
had me in to M 710
had to do up M 705
had it at my M 702
had it up on M 698
had no king to M 688
has to to be M 682
had to up the M 678
has it in an M 674
had is in the M 662
had up at the M 660
has us in the M 658
has to eat to M 656
had to go my M 656
had to eat so M 654
has it or he M 650
had me do the M 650
has is on the M 648
had he on the M 646
hang me to the M 638
had the king on M 636
has to go is M 626
had to it by M 624
had on me in M 624
had it up in M 620
has of it in M 616
hang me up on M 616
hang of it at M 615
had to eat by M 614
has to sing the M 612
hang me if he M 610
had me up on M 600
hang me up in M 598
has of it is M 596
has it in it M 590
had we of the M 590
had on me at M 590
hang on to is M 588
had so as to M 588
had to be king M 578
had to me an M 574
had by me the M 574
hang on to at M 572
has to go if M 570
hath he to do M 569
has to in the M 566
has on me is M 558
has to go or M 556
has or is to M 552
had to do of M 548
hang up by the M 545
had an or of M 540
had of it the M 538
has to be us M 526
has to be be M 526
had on me is M 526
hang on to us M 522
had to eat of M 522
hang up on an M 520
had to eat up M 518
has or is in M 512
has he to go M 512
had me in an M 512
hath it in the M 511
had on it in M 506
had to eat an M 504
had of it to M 504
had it on in M 500
had to the so M 499
had it to an M 494
has to go via M 490
has to eat at M 486
had if it is M 484
has of it the M 480
has it of the M 476
hath in it an M 474
hang of it by M 474
had it if it M 474
had at the king M 474
hath to do in M 473
has on us is M 472
has to sing in M 468
had me to the M 468
has to ring the M 464
had the thing to M 462
had no king or M 462
had we to be M 460
hath in it so M 458
has it is the M 458
has or is at M 457
hang on to or M 454
had me to do M 450
had tea in my M 442
had to sing or M 440
had to be via M 440
had to he on M 436
had of the thing M 436
had me up at M 428
had it on at M 428
has the king to M 426
hang it up so M 426
had so to do M 420
had of us in M 416
had is to be M 416
had it to go M 414
had the thing on M 412
hang me up at M 410
has in the thing M 408
hang it up or M 408
had tea in an M 408
hang it on me M 404
has it he is M 402
had us go to M 402
had it if the M 402
has to go no M 400
hang on to if M 400
had to or he M 400
had no king of M 398
has as it is M 396
had to if the M 394
had if he or M 394
has the thing in M 392
had as of the M 392
had of it as M 391
has to if he M 390
had no king in M 390
had to be us M 388
had on me to M 388
had it or no M 388
hang me by my M 386
hang it on to M 386
has on it no M 380
has in it is M 380
had or is to M 378
had no tea or M 378
hang it in an M 376
has if he is M 374
had to if it M 374
had to he in M 374
has in it of M 370
had to it at M 370
had it in no M 368
had of me as M 367
had it in so M 367
has the king in M 366
had me in my M 356
had no king at M 352
had me by my M 352
has the id of M 350
has to sing it M 346
had it in it M 346
had as if the M 340
has to be via M 338
has of the thing M 338
had to sing as M 338
has to me no M 336
had to ring it M 336
had to sing on M 328
has to us the M 324
had in it is M 324
hang up on my M 323
had tea at an M 318
had no ring of M 316
had in the ring M 316
had in me no M 315
has to do he M 314
hang so as to M 314
has or is the M 312
hang up if he M 312
had it to my M 312
hang me in the M 310
had the king as M 308
had of it by M 308
has it up to M 306
has he of an M 306
had to sing an M 306
has to the thing M 304
had in the thing M 304
hang us if we M 302
had in the the M 302
hang us on the M 298
hang on as he M 298
had to be is M 298
has so as to M 296
had me to tea M 294
had in it of M 290
has on it in M 288
has is at the M 288
had tea by the M 288
had my tea at M 288
has on us as M 286
has is to the M 286
hang in the king M 284
hang up to the M 282
hang on the wing M 282
had the wing of M 282
has an up to M 280
hang on to so M 280
had to sing of M 280
had to do me M 280
had us at the M 278
has to do my M 276
had no id on M 276
hang up if the M 274
had me in it M 274
had in the so M 274
had in or to M 274
hang it on an M 272
had it up the M 272
had so to be M 270
had of it on M 270
has on me the M 268
had up to an M 268
had up by the M 268
had as to my M 268
had to ring in M 265
had to be en M 264
had the king so M 263
has to eat or M 262
has it to an M 262
hang of it as M 262
hang me at the M 262
had we to go M 262
had to go be M 262
has it or it M 260
had to if we M 260
had it as he M 260
had he or the M 260
had as it is M 260
has on it at M 258
has in it in M 258
had to to the M 258
had of it is M 250
had it on an M 250
had we at the M 248
had to do we M 248
had no ring on M 248
hang on by my M 246
had us up to M 246
had the ring he M 246
had the king or M 246
has to be he M 244
had us do the M 244
has the king no M 243
has to do of M 240
hath to us the M 239
has eat up the M 238
had to ring at M 236
had it on us M 236
has the thing he M 234
had me to go M 234
has to he the M 232
has as of the M 232
has as in the M 232
had to ring to M 232
had to do us M 232
had the ring to M 232
has to go an M 230
has to eat is M 230
had it or he M 230
has me in it M 228
hang me if the M 228
has in it or M 226
had on to the M 226
had me as the M 226
has to me an M 224
has no go in M 224
had me go up M 224
hang me up as M 222
had in us the M 222
hang on it the M 220
had to go eat M 220
had to eat if M 220
had in it in M 220
has tea in the M 218
had tea in it M 218
had go to the M 218
had as if it M 218
hath so in me M 216
has to sing to M 216
had by me in M 216
had eat of the M 214
has as he or M 210
had on it no M 210
had no tea at M 210
had no ring to M 210
had in me is M 210
has or by the M 208
has no king or M 208
had no thing to M 208
had in the via M 208
had us up at M 206
had to it the M 206
had it as it M 206
had by me of M 204
has it or is M 202
had of me at M 202
had by me at M 202
had us do it M 200
had to eat is M 200
had or by the M 200
had on us as M 200
has he to me M 198
had me as an M 198
had it of me M 198
hath to be in M 197
hath in me so M 197
hath on it the M 195
hang of it the M 195
has he on the M 194
has no ring of M 192
has it is in M 192
has he it in M 192
had to in my M 192
has it is no M 190
had to sing my M 190
had in it by M 190
has it or by M 188
hang me up to M 188
had in me an M 188
has to the king M 186
has it is to M 186
hang on as we M 184
has or in the M 182
has on in the M 182
hang up on us M 182
had to ring me M 182
had it by my M 182
had as if he M 182
had us up in M 180
had to or the M 180
had us to tea M 178
had me on an M 178
had as if by M 178
hang on to to M 176
had to ring my M 176
had to go we M 176
had on me an M 176
had it to eat M 176
had he of it M 176
has to us no M 174
has on us in M 174
has no on the M 174
had to to do M 174
had me at an M 174
had in me as M 174
has he in it M 172
hang on as it M 172
had on us in M 172
had of us to M 172
had eat up the M 172
hath to do to M 171
hath the thing it M 170
has to sing of M 170
hang of it so M 170
had to sing by M 170
has is of no M 168
had it up at M 168
has to it the M 166
hang of it if M 166
had to of the M 166
had to it as M 165
has up to an M 164
has the ring in M 164
had to go of M 164
had the tea on M 164
had on it at M 164
had it on he M 164
had it at an M 164
has to eat of M 162
has the ring on M 162
had or in the M 162
had me at my M 162
had it so in M 162
had it of an M 162
has to eat so M 161
has to eat on M 161
has to go do M 160
hang up the king M 160
had on the ring M 160
had it as we M 160
has to sing or M 158
has to eat as M 158
had the thing he M 158
hath us in the M 156
has to to do M 156
has is to go M 156
hang up if it M 156
hang of it is M 156
had us to do M 156
had the thing at M 156
had in me of M 156
had of me the M 154
has to do me M 152
has is to do M 152
had to he the M 152
had on the go M 152
had is on the M 152
had he to it M 152
has to go he M 150
has it in no M 150
has he to it M 150
had to go is M 150
had no tea to M 150
had me to be M 150
had an id on M 150
has it if he M 148
had me if he M 148
has so to be M 146
hang up on it M 146
hang of it he M 146
hang me in my M 146
had no of the M 146
had he by the M 146
hath in it as M 145
has to it is M 144
has no up or M 144
has he to sing M 144
had us to the M 144
has to if it M 142
has or is it M 142
had the go in M 142
hath of it is M 140
has the thing to M 140
has no thing to M 140
has it is so M 140
has it in so M 140
hang up in an M 139
has on it is M 138
has if he or M 138
has he at the M 138
hang up as the M 138
hang as if it M 138
had the thing we M 138
had it as my M 138
had an in at M 138
had an id of M 138
hath in it to M 137
has to or is M 136
hang us in the M 136
had to the thing M 136
had is at the M 136
had it in as M 135
hath to me is M 134
has to be we M 134
has in or on M 134
hang us up on M 134
hang the thing up M 134
hang on or to M 134
had us up on M 134
had he it in M 134
has to us an M 132
has in or to M 132
hang on if he M 132
had no foe to M 132
had my tea in M 132
had it on to M 132
has it as it M 130
hang on as if M 130
had to so he M 130
hang or go to M 129
had me go on M 129
hath it on the M 128
has us at an M 128
has to sing at M 128
has to me so M 128
has as if it M 128
hang on the tea M 128
hang on is the M 128
hang it up if M 128
had the ring by M 128
has to he in M 126
has to do up M 126
has the ring to M 126
has no foe to M 126
has he in my M 126
hang up or to M 126
had we on the M 126
had to he to M 126
had of me to M 126
had me do so M 126
has it in my M 124
hang me if we M 124
had no tea on M 124
had in me at M 124
had to do do M 123
has to if the M 122
has to be king M 122
has an in the M 122
had us at an M 122
had to or it M 122
had to by the M 122
had no we to M 122
had by it in M 122
hath to go to M 121
hath he to be M 121
hath he in the M 121
has to be do M 121
has to at the M 120
has me on my M 120
has in the so M 120
has as he is M 120
had to as the M 120
had on us at M 120
had an up to M 120
hath it to do M 118
hath it to be M 118
hang it up the M 118
had or to the M 118
had in us to M 118
had to me as M 117
has us at the M 116
has to on the M 116
has in it by M 116
had to it to M 116
had the of the M 116
had tea at my M 116
had it or if M 116
had it if we M 116
had it by an M 116
had it so as M 115
has no ring on M 114
had he up to M 114
had by us in M 114
had as if no M 114
has the wing of M 112
has the king or M 112
has it is an M 112
has it as he M 112
has is of an M 112
has an if of M 112
hang up so he M 112
had me sing the M 112
had it or it M 112
hath of the king M 110
has to us in M 110
has the in the M 110
had to to go M 110
had or if he M 110
had on us is M 110
had no in the M 110
had me do to M 110
had at it in M 110
has no or at M 108
has an on the M 108
had to or if M 108
had in it my M 108
had he to eat M 108
hath to do is M 106
has to ring up M 106
has no ring to M 106
has it on us M 106
has go to be M 106
has be to be M 106
hang us to the M 106
had to me in M 106
had so on the M 106
had in it or M 106
has it to go M 104
hang the thing on M 104
had on us the M 104
had me go in M 104
has the king as M 102
has the is the M 102
hang of it or M 102
hang it so it M 102
had to in an M 102
had me do in M 102
had an on the M 102
hang to it an M 100
had no on the M 100
had my ring on M 100
had it is the M 100
had in me in M 100
has of the so M 99
has to me in M 98
has to eat up M 98
has of it at M 98
hang on me as M 98
had to as he M 98
had of me is M 98
had it or the M 98
had eat of my M 98
hang it as an M 97
has to me is M 96
has to he an M 96
has of us is M 96
has me at the M 96
hang us up by M 96
hang of it on M 96
had we of it M 96
had us in to M 96
had us do in M 96
had to or go M 96
had of me by M 96
had it so at M 96
hang in on the M 94
had on me on M 94
had on me if M 94
had no go in M 94
had me in on M 94
had it on so M 94
had it is an M 94
had in it on M 94
had by me to M 94
has the it is M 92
has or is an M 92
has on it or M 92
has me as an M 92
has it or the M 92
hang us by the M 92
hang on to by M 92
had to he at M 92
had to be tea M 92
had so in the M 92
had no tea in M 92
had as at the M 92
has of it as M 91
has to do us M 90
has it it is M 90
had to it on M 90
had on me my M 90
had me up the M 90
had eat at my M 90
had by it to M 90
had on the so M 89
had in to the M 89
hath he to the M 88
has up on the M 88
has the thing on M 88
has or he is M 88
has of the king M 88
has is as an M 88
had to me so M 88
had no ring in M 88
had it so we M 88
had he in it M 88
has or it is M 86
has in me an M 86
had to or we M 86
had to or be M 86
had to me no M 86
had the foe in M 86
had or of the M 86
had me on it M 86
had he if he M 86
hath to be of M 85
has of me as M 85
had on on the M 85
has to wing it M 84
has to sing is M 84
has the thing it M 84
has on or in M 84
has it to me M 84
has it on an M 84
has is up to M 84
has in the king M 84
has an up or M 84
hang up so we M 84
had us in it M 84
had us in an M 84
had to it if M 84
had the by no M 84
had on me by M 84
had no or at M 84
had it is to M 84
had he so to M 84
had as by an M 84
had it as no M 83
has to sing an M 82
has the of the M 82
has of me is M 82
has of it to M 82
has me to do M 82
had us sing the M 82
had thing to do M 82
had me sing it M 82
had it of my M 82
has on us by M 80
has he to my M 80
hang on it in M 80
hang on if the M 80
had up in my M 80
had on in my M 80
had it on it M 80
had it is in M 80
had in at the M 58
had to so as M 51
hang as in the M 50
hath to do so M 47
had on it as M 45
had it on as M 44
hang on so as M 43
hang of it we M 43
has to be en M 41
had to be do M 41
had the thing so M 40
had to be re D 49316
had the ear of D 44624
has to be re D 23198
hat in the ring D 11500
has the ear of D 11036
hat is in the D 3813
had to toe the D 3790
has an ma in D 3702
had an ax to D 3502
hat on in the D 3124
hath an ear to D 2614
has an ax to D 2458
hat is on the D 2306
hay is to be D 2292
hath is in thy D 2056
had no ax to D 1942
hat on to the D 1886
hat is to be D 1750
hat as if to D 1734
had an ear to D 1650
hat as if he D 1594
has an ear to D 1480
hat up in the D 1402
has no ax to D 1396
hat as if it D 1220
hat to go to D 1178
hat so as to D 1114
hay up to the D 1026
had the sea in D 932
hay is in the D 900
had an ad in D 868
had the sea on D 814
had the sea to D 782
hat up to the D 778
had of the sea D 778
had ye in the D 774
has the sea on D 742
had an ear of D 642
hat to the king D 614
has to toe the D 612
hat is of the D 598
had no ear to D 580
had my ear to D 562
hay on to the D 544
had an ax in D 544
has an ms in D 542
had on the sea D 522
hat it is the D 514
hat on at the D 494
has an ion in D 494
has an ma of D 482
had to be ex D 470
has no ear to D 466
hay as it is D 462
hat to me as D 456
ham it up in D 456
hat on as he D 452
hat up on the D 446
hay so as to D 422
had in the sea D 416
hat to me in D 412
hat as if in D 376
hay up in the D 372
has an ear of D 368
has the sea in D 366
has the sea to D 358
had an ma in D 356
had no ear at D 344
hat if it is D 334
hap to be of D 333
has to my ear D 320
hat in the king D 304
ham is to be D 304
had to hoe the D 304
had to be ad D 304
had an ear in D 296
hat is on my D 290
hat or on the D 272
had the sea at D 272
hay if it is D 268
hat of the king D 258
has an roe of D 258
had the ear to D 258
hath the ear of D 249
has on the ear D 244
ham it up as D 239
has to the ear D 238
has the ear or D 234
has of the sea D 230
hang in the ear D 227
hat or in the D 224
hat as it is D 218
has an ad of D 212
had to doe in D 210
has an es of D 206
has to be ad D 203
had the sea as D 202
hat is to the D 200
hat to be the D 196
has to be ex D 195
had to the sea D 193
had it in ya D 190
had an ear or D 190
hay up on the D 186
hat it is to D 184
hat as if the D 184
ham it up so D 184
had the sea of D 184
had the ax in D 184
hat up at the D 182
has on the sea D 179
hat to it as D 178
had an ox or D 178
had an mi or D 176
has to the sea D 171
hay is on the D 170
hay or on the D 168
hay or in the D 168
hat on to go D 166
had no ear or D 166
has the sea as D 165
hat as in the D 162
hang ye up by D 158
hat to me at D 156
hat is at the D 156
hat it is in D 154
has an eh of D 154
has an ad in D 152
had to be sea D 152
hat do we do D 148
had by the sea D 148
hay is of the D 146
hat or of the D 142
has no ion in D 140
had to my ear D 140
hat to go on D 139
hay as to the D 136
had an mi at D 130
hay of in the D 128
hat to us as D 128
ham it up on D 128
ham it up at D 127
had the toe of D 126
had an ad on D 126
has an ox on D 124
hap to be so D 121
hat on at an D 120
hat is of no D 120
had an ax of D 118
hap to be in D 117
hat on to my D 116
has the sea of D 116
has the ear to D 116
had at the sea D 115
hay as if he D 114
hat it is an D 114
hat is in my D 114
had an ear on D 114
has an ear on D 112
hat or by the D 110
has in my ear D 108
ham to be the D 108
had he to doe D 108
hat in the sea D 106
hag on me or D 105
hat if he is D 104
has an ear in D 104
had to go toe D 104
had an mi in D 104
ham is in the D 102
had to doe to D 102
had no ox to D 102
had an ox to D 102
has an ear so D 101
hat to us in D 100
has no ear at D 100
had at sea in D 100
had an ma of D 100
has in the sea D 99
hat to do so D 98
has the sea at D 98
has an ear as D 98
ham it up to D 98
hat to it in D 96
has is in thy D 96
has an ax in D 96
had the hoe in D 96
hay is to the D 94
hat to the toe D 94
hat is it to D 94
has to be bi D 93
hat he is in D 92
had of ye the D 92
hay to be the D 90
has no ear or D 90
hay as if it D 88
hat on in my D 88
hat on in an D 88
hat on as if D 88
had an ear so D 88
hat he is the D 86
hay on an ox D 84
had an ax or D 84
hat to be an D 80
hat or to the D 80
hat is the thing D 80
hang in my ear D 80
had an ear at D 80
hap it is to D 55
had an ear as D 51
had to be bi D 44
hat on so as D 42
