has suggested , " M 18470
has commented , " M 17594
has explained , " M 12396
had exclaimed , " M 11416
has commented : " M 10580
has concluded , " M 8558
had forgotten , " M 7416
had explained , " M 6876
had concluded , " M 6640
had exclaimed : " M 6142
had responded , " M 5428
has concluded : " M 4672
had commented , " M 4478
has explained : " M 4434
had continued , " M 4162
had announced , " M 3970
had predicted , " M 3726
had suggested , " M 3288
has suggested : " M 3232
had concluded : " M 2828
had commented : " M 2746
had announced : " M 2396
had protested , " M 2102
had succeeded , " M 1592
has described , " M 1520
had predicted : " M 1500
had continued : " M 1466
had explained : " M 1462
has confessed , " M 1408
had responded : " M 1340
had commanded , " M 1300
has testified , " M 1238
had confessed , " M 1150
had suggested : " M 1122
has succeeded , " M 1118
has forgotten , " M 1084
has described : " M 1078
has exclaimed , " M 1040
has developed , " M 1026
has commanded , " M 1012
has testified : " M 939
had committed , " M 876
has prevailed , " M 796
had yesterday , " M 788
has collapsed , " M 746
had assembled , " M 738
had witnessed , " M 726
has published : " M 702
had developed , " M 686
had witnessed : " M 676
had recovered , " M 648
had testified , " M 626
has triumphed , " M 624
had requested , " M 592
has announced , " M 584
had forgotten : " M 556
has expressed , " M 554
has consented , " M 546
had protested : " M 540
has recovered , " M 514
had commanded : " M 510
had confessed : " M 494
has commanded : " M 492
has character , " M 492
has published , " M 472
had undergone , " M 468
had developed : " M 460
had described , " M 452
had abandoned , " M 448
has responded , " M 442
has committed , " M 442
had published , " M 442
has expressed : " M 440
had testified : " M 440
has predicted , " M 438
had requested : " M 430
has conquered , " M 426
had collected , " M 424
hang themselves , " M 422
has preserved : " M 412
had collapsed , " M 408
had described : " M 406
had succeeded : " M 404
has confessed : " M 402
had expressed , " M 396
had prevailed , " M 382
had conceived , " M 368
has exclaimed : " M 366
had persisted , " M 350
hath commanded , " M 346
had sustained , " M 322
has certainly , " M 312
had purchased , " M 308
has announced : " M 286
has developed : " M 284
had expressed : " M 282
had undergone : " M 278
has undergone , " M 274
has witnessed , " M 268
had knowledge , " M 266
has sustained , " M 250
has responded : " M 246
had performed , " M 246
had questioned , " M 242
has appointed , " M 240
had descended , " M 236
had triumphed , " M 232
had proceeded , " M 232
has presented , " M 228
has descended , " M 226
had conquered , " M 224
has witnessed : " M 220
had previously , " M 220
has discussed , " M 218
had specified , " M 216
had appointed , " M 214
had submitted , " M 206
hath appointed , " M 204
has daughters , " M 204
has conceived , " M 204
had separated , " M 204
had professed , " M 204
hath prevailed , " M 202
has destroyed , " M 202
had consented , " M 202
has continued , " M 194
had recovered : " M 192
has knowledge , " M 190
has clarified , " M 190
has undergone : " M 188
had envisioned , " M 188
had inherited , " M 186
has preserved , " M 182
has confirmed , " M 182
hath committed , " M 180
has influence , " M 180
had displayed , " M 178
had addressed , " M 176
has perceived , " M 174
had destroyed , " M 174
has predicted : " M 170
has protested , " M 166
had published : " M 164
had collapsed : " M 164
had sustained : " M 162
has prospered , " M 154
had challenged , " M 154
has delivered , " M 150
has estimated , " M 148
had prospered , " M 148
has abdicated , " M 146
had delivered , " M 146
had abandoned : " M 144
has travelled , " M 142
had permission , " M 142
had travelled , " M 140
has purchased , " M 138
had specified : " M 138
had submitted : " M 136
had hesitated , " M 136
had collected : " M 136
has attempted , " M 134
had triumphed : " M 134
had possessed , " M 134
has collected , " M 132
had presented , " M 130
had envisioned : " M 130
had compassion , " M 130
had companions , " M 130
has confirmed : " M 126
had committed : " M 126
had character , " M 126
had attempted , " M 124
has proceeded , " M 122
had discussed , " M 122
had available , " M 122
had assembled : " M 122
has committed : " M 120
had travelled : " M 120
had performed : " M 120
has prevailed : " M 118
had neglected , " M 116
had advocated , " M 116
had daughters , " M 114
has requested , " M 112
has protested : " M 112
had conquered : " M 110
has sometimes , " M 108
had consulted , " M 108
has permitted , " M 106
has generated , " M 106
has exhibited , " M 106
has continued : " M 106
had exhibited , " M 106
has compassion , " M 104
had signalled : " M 104
had persisted : " M 104
had associated , " M 102
has succeeded : " M 100
has forbidden , " M 100
had continued ; " M 100
had challenged : " M 100
has questioned , " M 98
had prevailed : " M 98
has performed , " M 96
had ourselves , " M 96
has disclosed , " M 94
has discerned , " M 94
has advocated , " M 94
had purchased : " M 94
had inflicted , " M 94
has inherited , " M 92
had questioned : " M 92
had objections , " M 92
had advocated : " M 92
has submitted , " M 90
has disturbed , " M 90
had proceeded : " M 90
had influence , " M 88
had confirmed , " M 88
hang ourselves , " M 86
had preserved , " M 86
has substance , " M 84
has integrity , " M 84
has forgotten : " M 84
has displayed , " M 84
had disagreed , " M 84
had delivered : " M 84
had completed , " M 84
had abdicated , " M 84
has persisted : " M 83
had appointed : " M 82
has relevance : " M 80
had naturally , " M 80
