have i to do M 88786
have a go at M 83118
have a thing to M 28762
having a go at M 15464
have a ring of M 14784
have i to be M 7454
have a thing in M 4782
hard a thing it M 4720
have i in the M 4457
have a thing or M 4102
have a king of M 3826
have i in my M 3264
hard a thing to M 3132
have a king to M 3104
have a thing on M 2350
have a go on M 2274
have a ring on M 2080
have i to go M 1838
have a king or M 1762
having a ring of M 1726
have i of the M 1534
have a ring to M 1428
have a king in M 1421
have a go in M 1162
have a ring in M 1088
have a in the M 1086
have a thing of M 982
hard a thing is M 904
have a king at M 868
have a ring or M 758
have i in me M 746
have a wing of M 714
having a king of M 698
having a thing to M 618
have a go if M 604
having a ring at M 586
have a go of M 584
having a king to M 570
have a king as M 568
hard a thing of M 546
have a as the M 524
hard a thing as M 509
have i or my M 482
have i of my M 466
have a ring at M 444
have a on the M 440
have i to the M 428
have a king on M 404
hand i am at M 404
have a go as M 374
having a ring on M 342
have a pi of M 340
have i on my M 334
hard i am to M 308
having a thing in M 306
have a it is M 298
hand a ring of M 298
have a is the M 288
have i of an M 286
hand i am in M 276
have a by no M 272
have a go to M 271
having a go on M 266
have a of the M 264
have i by the M 260
have i it in M 250
have a thing at M 250
having a ring in M 246
having a king or M 242
have i at the M 230
have i to sing M 224
have i on the M 218
have a thing as M 215
hand i am the M 215
have i to my M 212
hate a thing as M 210
having a king at M 198
having a king as M 198
having a go in M 196
hand i do so M 196
having a ring or M 186
having a king in M 186
have i as the M 176
have a thing so M 173
having a wing of M 172
have a tea or M 172
hand i am to M 172
hand a thing of M 170
hand i am of M 164
have a thing he M 158
half t of the M 157
have a foe in M 156
half a ring of M 156
have i in it M 152
having a thing on M 150
half a of the M 150
having a in the M 146
have a thing is M 146
harm i do to M 145
hand i am so M 135
have a king so M 133
have a tea in M 132
have i at my M 128
have a wing to M 128
have a to be M 128
have a at the M 128
have i of it M 126
have a thing it M 126
have i go to M 124
have a wing or M 124
have a tea at M 122
hand d in the M 121
have a thing by M 118
having a pi of M 114
have a we to M 112
have a thing we M 110
have a thing if M 110
have a go or M 110
hard i am on M 110
have i as an M 108
have t in the M 104
hand i am an M 104
have a wing on M 102
have a tea to M 102
have a go by M 102
having a as the M 100
have i do to M 100
have a king if M 98
half i of the M 97
having s as the M 96
having a ring to M 96
have i up to M 96
have d as the M 96
having a wing at M 94
hate a thing or M 94
having a thing is M 92
have i by my M 92
have d in the M 92
have a thing the M 92
having a wing on M 90
have a king is M 90
hand i am no M 90
have a king do M 88
have a if the M 88
having a go of M 86
have i to eat M 86
hand i by no M 86
half a wing of M 82
have s as the M 80
have i by me M 80
have i am the M 80
have a to the M 80
harm a foe so M 80
have a ring as M 46
hand i am as M 41
have a sea of D 914
have i to doe D 238
have i in thy D 200
have a toe in D 176
have i of thy D 122
have a sea in D 116
hare i to do D 90
have a hoe in D 86
