hardly be said to M 290866
handed it over to M 92665
handed it back to M 87390
hardly be able to M 73324
harder to come by M 36660
happen to have the M 30580
happen to know the M 25754
happen to live in M 23053
harder it will be M 21834
habits as well as M 19694
hasten the coming of M 18991
hardly be said of M 17596
hardly the kind of M 17122
hardly the sort of M 16378
handed me over to M 14210
happen to have an M 13632
hardly be seen as M 12496
happen to know of M 12046
happen to think of M 11786
handed it down to M 10800
happen to come to M 10528
hardly so much as M 10433
habits of life of M 9926
handed the note to M 9728
happen to fall in M 9713
happen if there is M 9542
hardly the time to M 9440
handed the book to M 8768
hardly be made to M 8522
happen to have in M 8293
handed the baby to M 8236
happen as soon as M 8127
happen to come in M 7352
hardly be fair to M 7194
handling the word of M 7184
happen to know if M 7171
habits of mind of M 6894
hardly the same as M 6745
habits of some of M 6672
handed the keys to M 6572
harder to make the M 6174
harder to keep the M 6100
harder to find the M 6044
happen to like the M 5990
happen to know it M 5976
harder to find in M 5921
hardly be used as M 5699
harder to keep up M 5519
handed us over to M 5386
handed me back the M 5324
habits of life in M 5323
hardly the same thing M 5284
happen to think it M 5234
happen to know he M 5170
hardly be used to M 5160
happen to have it M 5138
handling as well as M 5091
hardly be held to M 5034
hardly be worth the M 5020
handle the rest of M 4994
happen in case of M 4922
habits of many of M 4836
hardly be wrong in M 4808
hatred as well as M 4751
happen to want to M 4738
handle the case of M 4618
handle as many as M 4569
happen to fall on M 4472
hardly the type of M 4368
handle the flow of M 4256
handle the word of M 4174
happen to like it M 4112
hardly the case in M 3878
happen to have no M 3869
hasten the fall of M 3852
happen to pass by M 3842
hardly as much as M 3832
hasten at once to M 3829
handed me back my M 3810
happen to have on M 3686
handle by means of M 3672
handle the work of M 3641
harder to think of M 3599
happen to find it M 3564
handle as well as M 3533
happen to make the M 3508
habits of mind in M 3438
hardly be seen in M 3392
hardly be used in M 3384
happen to have at M 3372
happen to make it M 3248
happen to meet the M 3228
happen to look at M 3218
handle is made of M 3112
happen to meet in M 3070
habits of life to M 3066
harder to make up M 3060
happen to some of M 3012
habits of life as M 2978
hardly in need of M 2956
habits of mind to M 2946
hasten the time of M 2932
halted as soon as M 2929
happen to pick up M 2923
habits of most of M 2880
hardly the type to M 2856
happen to turn up M 2826
habits to those of M 2806
happen to come up M 2784
hardly be safe to M 2746
harder to make it M 2718
handle the kind of M 2711
handling of some of M 2684
halted the flow of M 2618
hardly the time or M 2602
happen to work in M 2601
hasten the work of M 2554
hasten the hour of M 2535
habits of mind as M 2500
handed on from the M 2496
hardly the word to M 2474
happen to find the M 2420
hasten the rate of M 2415
happen as well as M 2393
handle is used to M 2393
hardly the work of M 2332
handle to copy the M 2310
handle the case in M 2302
hardly be said in M 2290
harder to give up M 2257
happen to live on M 2224
handle the type of M 2218
handle as much as M 2163
handed the list to M 2152
handle or work on M 2101
happen in time to M 2086
hatred of what is M 2084
happen by means of M 2074
handed it over the M 2047
handle to open the M 2046
happen if some of M 2002
harder to come up M 1981
hasten as much as M 1980
happen to think the M 1978
hardly be wise to M 1956
happen to drop in M 1923
harder to meet the M 1922
harder to come to M 1921
happen to take the M 1910
happen as early as M 1906
happen as part of M 1902
handed the other to M 1884
handle on what is M 1827
happen to want it M 1826
hasten the healing of M 1824
handling the work of M 1812
happen to show up M 1805
handed the keys of M 1800
hatred of what he M 1796
habits of life or M 1796
handle on what the M 1790
harder to keep in M 1776
hasten to join the M 1745
happen to take up M 1740
hardly go wrong in M 1734
happen to speak of M 1734
hardly be true of M 1728
happen to most of M 1726
hardly be seen at M 1720
happen to hold the M 1716
hardly as good as M 1712
habits of mind or M 1694
harder to pick up M 1683
hardly the size of M 1660
hardly be done in M 1613
handed the case to M 1582
handle to make the M 1564
hardly go back to M 1548
happen to meet on M 1542
harder to stay in M 1539
hardly so great as M 1534
handle it when it M 1532
happen to make me M 1518
harder to tell the M 1514
hasten the ruin of M 1496
happen to meet at M 1496
hardly an hour of M 1494
harder to reach the M 1469
hasten to make the M 1466
happen to have my M 1460
handling the flow of M 1452
handed the rest to M 1450
hardly be open to M 1436
handed it over in M 1436
harder to keep it M 1425
happen in such an M 1413
handle is held in M 1405
hardly the sort to M 1404
harder to hold on M 1391
harder to talk to M 1390
happen to come by M 1390
habits of living in M 1385
happen to know my M 1382
hardly be just to M 1370
hardly be left to M 1368
happen to look up M 1364
habits as much as M 1360
handle the load of M 1358
hardly be kept in M 1355
hardly be seen to M 1350
handle the loss of M 1338
habits by means of M 1338
handle the range of M 1328
handed me into the M 1326
happen to break the M 1322
happen as much as M 1320
happen to know so M 1314
happen to have by M 1314
harder to learn to M 1311
happen in time of M 1308
handle of wood or M 1308
happen to know is M 1306
handling the case of M 1304
hardly be laid at M 1302
hatred of many of M 1282
happen to have to M 1282
harder to find an M 1268
habits as soon as M 1264
handle the mass of M 1260
hardly the best of M 1258
harder it gets to M 1244
hardly be made the M 1226
hardly be true to M 1224
hatred of some of M 1220
hardly be done by M 1206
happen to many of M 1206
handle on what it M 1206
hasten the flow of M 1196
happen to think he M 1176
happen to like my M 1176
happen in case the M 1170
hardly be made in M 1167
happen to reach the M 1164
hardly be sure of M 1158
happen to find in M 1145
happen to live at M 1144
handle the work in M 1128
handed the file to M 1128
hasten to come to M 1126
hardly be seen by M 1110
happen to know an M 1100
harder to find as M 1097
handling as much as M 1094
habits or ways of M 1092
happen to even the M 1090
habits of life at M 1086
handle to make it M 1076
happen to need it M 1068
habits of work in M 1068
handle to move the M 1066
handed it over as M 1066
harder to live up M 1063
handle on some of M 1060
handling as many as M 1059
hasten the birth of M 1058
handling of many of M 1055
hasten the loss of M 1048
handed the rest of M 1046
happen to pass the M 1044
happen it will be M 1044
handle the data in M 1044
hardly the heart to M 1040
hasten to meet the M 1039
hasten to make it M 1039
hasten the dawn of M 1038
handling of time in M 1036
harder to take the M 1034
harder to break the M 1026
happen to wake up M 1026
handle it when the M 1026
hardly be felt by M 1022
halted to look at M 1008
happen as fast as M 1004
handed the deed to M 996
handle the pain of M 988
happen to come on M 986
handling of data in M 985
happen to want the M 970
happen in some of M 970
hardly the mark of M 966
hardly so good as M 963
habits of life is M 956
harder to look at M 946
happen to love the M 946
happen to form the M 940
hasten to take the M 938
happen to think is M 924
happen to such an M 924
happen to know in M 922
harder to hold the M 921
harder to push the M 918
harder it must be M 918
habits of mind is M 918
hasten to speak of M 917
harder to sell to M 914
halves by means of M 914
handed as well as M 906
hardly be held in M 894
habits or mode of M 894
halted to rest the M 890
habits as part of M 886
hardly be used by M 884
handle to turn the M 871
handling the type of M 870
handle to hold the M 869
handed up from the M 866
hasten the date of M 864
hardly go into the M 864
hardly be ready to M 862
handling of what is M 860
halved the cost of M 860
happen to give the M 858
happen if nothing is M 858
hardly be heard in M 854
halted to give the M 854
hardly as great as M 852
hardly be made by M 850
happen to take it M 846
habits to meet the M 844
happen to look in M 842
handle to keep the M 840
handling is done by M 837
harder to live in M 836
happen to think so M 834
harder to stay on M 832
hardly be said as M 830
happen to miss the M 828
happen to like to M 828
hardly be lost on M 826
handle the case as M 824
happen to fail in M 823
happen to such as M 821
handed it down as M 820
hardly be laid to M 816
happen to talk to M 812
happen to lose the M 806
handling the case in M 806
handle the size of M 802
hardly an hour in M 800
habits of life he M 800
happen to wish to M 798
handling the kind of M 798
handle on what we M 798
happen in view of M 796
habits in risk of M 794
hardly be felt in M 786
happen to come at M 784
handle the role of M 784
hatred by means of M 782
happen to those of M 782
hatred of evil is M 780
happen to leave the M 778
harder to move the M 776
harmed by such an M 774
hardly be wrong to M 772
handle as much of M 769
hatred or love of M 766
handed the form to M 762
hardly go wrong if M 760
happen or come to M 760
hasten as fast as M 758
happen to speak the M 754
happen to land in M 751
happen to call on M 749
hardly to have the M 746
handle it when he M 746
hardly be heard to M 744
harder to make an M 744
harder to sell the M 743
hardly be said at M 740
hasten to help me M 732
harder to make in M 732
happen to walk by M 732
handling or dealing in M 731
habits of those in M 731
handle to hold it M 727
handling the mass of M 724
handling of such an M 722
handed the same to M 722
hasten to give the M 721
hasten to obey the M 718
hardly be made of M 718
happen to fill the M 714
handling by means of M 710
handed the page to M 710
handed the girl the M 708
harder to keep my M 707
happen we need to M 706
happen to fall to M 704
hardly the means of M 698
hardly be laid on M 696
handle the cost of M 692
habits of mind by M 692
harder to draw the M 691
happen to make up M 690
happen to know or M 688
happen if such an M 688
handle the sort of M 688
hardly be seen on M 686
handed in from the M 686
hardly be part of M 682
habits as those of M 682
happen to know by M 680
handling of time is M 680
halted at last in M 680
handle the case on M 676
handed the flag to M 676
hardly be used at M 674
habits of living of M 674
hasten to give it M 672
happen to grow in M 670
happen to find an M 670
hatred of most of M 668
happen to hold in M 668
hardly be time to M 666
harder to stop the M 664
happen to love it M 662
hardly be held up M 660
handed me over the M 660
handle to open it M 656
handed it back in M 656
happen to meet up M 654
happen to speak to M 652
happen to like or M 646
handed in turn to M 646
hardly the face of M 644
harder to turn the M 637
hasten my word to M 636
happen to feel the M 636
habits of life so M 635
hardly as high as M 634
handed the copy to M 634
happen to think we M 632
hatred of those in M 628
hardly be heard at M 628
habits of life the M 626
happen in just the M 624
habits of mind we M 624
hardly be more so M 622
handling the rest of M 622
happen to take in M 621
halved the size of M 620
happen to make us M 618
handle on what to M 617
hardly be true in M 616
halted by lack of M 616
handle the threat of M 615
handed it into the M 613
happen to drop by M 612
handle the lack of M 612
hardly be such as M 608
handling of most of M 606
harder to come at M 604
habits of living on M 603
handle on what he M 598
harder to face the M 597
happen to step on M 597
handling an item is M 596
handed the text of M 596
harder to learn the M 595
happen to land on M 595
handling of food in M 593
hasten the cure of M 590
harder to find on M 589
happen to work at M 588
happen to stop by M 588
happen in even the M 588
habits of acting in M 588
hasten to open the M 587
happen to have so M 586
habits or lack of M 586
habits of even the M 586
happen to grow up M 585
harder to take in M 584
handling of food or M 584
hardly the case at M 582
handed it over at M 582
harder to clean up M 580
happen we have to M 580
habits of life by M 580
hardly the kind to M 578
happen to fall at M 574
handed in during the M 574
halted to pass the M 574
happen to make an M 570
happen to walk in M 569
hardly be made up M 567
happen to move in M 563
hardly the sign of M 560
habits of mind it M 560
handle the rush of M 558
hardly he said to M 556
harder to gain the M 556
hardly be done to M 554
handling of food by M 551
handle is made to M 550
hasten the rise of M 548
happen to love my M 548
handling of data is M 547
handle as soon as M 546
handle the same as M 544
harder as well as M 542
happen to call in M 541
handle the body of M 541
hardly be kept up M 539
harder to leave the M 539
hardly at home in M 538
harder to pull the M 538
habits of living to M 538
harder to work in M 536
happen to need the M 536
happen to feel at M 536
hardly be heard by M 532
happen to want at M 532
habits of mind he M 532
halved the rate of M 530
happen to open the M 528
happen to find me M 526
habits of work of M 526
happen to feel in M 520
happen to also be M 518
happen or what is M 518
handed the list of M 518
hardly be safe in M 514
harder to deny the M 513
handle to lift the M 513
happen to feel it M 512
handed the book of M 512
happen to take an M 508
hardly be said he M 506
hardly be made on M 504
harder to find it M 503
habits of work or M 502
hasten to leave the M 501
hardly be meant to M 500
happen to turn to M 500
handling the work in M 500
harmed the health of M 498
happen to work on M 497
handed it down in M 494
handle to pull the M 492
hardly the part of M 488
happen it must be M 488
handle the data of M 488
habits of those to M 488
hardly be said the M 486
hasten to take up M 484
happen to lose it M 484
handed or sent to M 484
habits of fish in M 484
happen to tread on M 483
happen to know me M 482
happen to know at M 482
harder to break up M 481
hardly as wide as M 480
happen to call it M 480
handed me from the M 480
harder to work on M 476
harder to tell if M 476
harder to speak of M 474
happen to draw the M 472
habits of those of M 470
halted to speak to M 468
hatred as much as M 466
hardly be wrong if M 466
hardly an echo of M 466
happen to stop the M 466
handle it just as M 466
harder to find at M 465
harder to sell in M 464
happen to give me M 462
hardly be held by M 460
handle the ship in M 460
halted to rest in M 460
habits of mind the M 460
hasten as soon as M 455
happen to line up M 455
hardly be felt at M 454
handed the bird to M 454
handed me back to M 454
hardly be much of M 452
handling the case is M 452
handed the food to M 452
handle the work at M 451
hardly the loss of M 450
happen to have or M 450
halves the risk of M 450
happen to keep me M 448
habits of living or M 448
handle in form of M 447
halves as well as M 447
happen to meet an M 446
hasten to save the M 444
happen to have of M 444
happen if only the M 444
hardly be worth it M 442
happen to those in M 442
handle is used in M 440
harder to help the M 439
hasten to reach the M 436
hardly be made at M 436
happen to know to M 436
handling the data in M 436
hardly go back on M 434
hardly be told in M 434
habits of reading in M 434
hardly be less so M 433
harder to give it M 432
harder to keep on M 429
hardly do much to M 428
happen to have as M 428
happen is when the M 428
habits as early as M 428
handle as many of M 427
happen to save the M 426
happen to keep the M 426
handling is done in M 426
halves the size of M 426
halted the work of M 426
hardly be held as M 425
hatred or anger in M 424
hasten the hand of M 424
happen to live or M 424
handle the risk of M 424
handling of data by M 423
hardly be left in M 422
happen or fail to M 422
hardly as many as M 420
happen to turn the M 420
harmed as well as M 419
hasten to send it M 418
hasten the union of M 417
handle to turn it M 417
handle to keep it M 417
hasten the doom of M 416
handling the data of M 416
hasten the exit of M 414
harder to play the M 414
happen to pass in M 414
happen in most of M 414
handed the gift to M 412
harder to reach an M 411
harder to have the M 409
handling of even the M 409
happen to join the M 408
happen as late as M 407
happen to stay in M 404
happen at once in M 404
hardly the name of M 402
harder to give the M 402
happen or what the M 402
hardly the ones to M 400
harder the work the M 400
happen to stop at M 400
happen to know as M 400
handling it will be M 400
habits of living as M 400
habits of life on M 400
harder to pass the M 399
handling the case to M 398
handle the fact of M 398
habits of mind on M 398
hardly be felt as M 397
hardly the term to M 396
harder to give an M 396
happen to play the M 394
happen the rest of M 394
harder to fill the M 393
handed the coat to M 392
halted in line of M 392
harder to hold in M 390
harder to have to M 390
handling the body of M 390
handed the cloth to M 390
handle it will be M 389
harder we have to M 388
handling as part of M 387
hasten the deaths of M 386
hardly be what it M 386
hardly the same in M 384
halted to rest at M 384
happen to pick the M 382
handle as part of M 382
harder to wake up M 380
happen on such an M 380
handed at once to M 380
harder to find or M 379
harder to find if M 379
handle to pull it M 379
hardly in time to M 378
harder to save the M 377
hatred of evil in M 376
halted to view the M 376
halted an hour or M 376
habits or acts of M 376
habits of those he M 376
handed up into the M 375
harder to keep to M 374
happen in fact to M 374
handle as hard as M 374
hatred of what the M 372
happen to meet me M 372
happen to love me M 372
handle it from the M 372
hardly the view of M 370
hardly so much to M 370
harder to know the M 370
happen to view the M 370
harder to reach by M 368
halted at last at M 368
hatred of life is M 366
hasten the work on M 366
hardly to move at M 366
harder to hide the M 366
happen to join or M 366
harmed by having to M 364
handle is made in M 364
habits of mind so M 364
handle the work on M 363
hardly to look at M 362
habits to such an M 362
handle to lift it M 360
harder to keep an M 359
hasten to tell the M 358
happen to wake at M 358
happen so much in M 358
handling the loss of M 358
handed the lady to M 358
hatred of those he M 354
hardly so wide as M 354
hardly be done at M 354
happen to have is M 354
happen to give it M 354
hatred of vice is M 352
happen to learn of M 352
happen to kill the M 352
handling of food is M 352
halves the length of M 352
hasten the rate at M 350
hasten the fate of M 350
happen at such an M 350
halted in view of M 350
hasten to break the M 349
harder to live the M 349
happen to tell the M 348
handed me some of M 348
harder we work to M 346
happen at home or M 346
handed to face the M 346
handed the copy of M 346
hatred is part of M 344
hasten to send the M 344
handling of what he M 344
harder to find is M 343
harder at trying to M 342
hatred or anger is M 340
hardly be among the M 340
happen to break it M 340
handed the will to M 340
handed me what he M 340
handed it over he M 340
hardly be used of M 338
handle to push the M 338
handed it back as M 338
harder to walk on M 336
happen so soon as M 336
handling the range of M 336
habits of life do M 336
hardly be sent to M 334
handling it must be M 334
handed the fish to M 334
happen to wind up M 332
happen to need at M 332
happen to give us M 332
hasten to make my M 330
hardly do wrong in M 330
hardly an item in M 330
harder to open the M 328
habits of reading the M 328
habits of mind at M 328
hasten to fill the M 327
harder to treat of M 326
hasten the making of M 324
happen to meet it M 324
handed us into the M 324
hardly be heard as M 322
happen to want me M 322
handle the case if M 322
habits we need to M 322
hasten to make an M 320
hardly an hour to M 320
happen by such an M 320
halves is made by M 320
handle is used as M 319
handling it when it M 318
hatred of even the M 316
hasten to make up M 316
handling the case on M 316
handle it only by M 316
halted to take in M 316
happen to break up M 315
hatred of those of M 314
happen in days to M 314
hardly be done if M 312
harder to lose the M 312
happen to need to M 312
happen to lots of M 312
handle it when we M 311
hardly the norm in M 310
hardly an item of M 310
hasten to send to M 308
hardly the only thing M 308
hardly be used on M 307
handle to hold on M 307
handle the part of M 307
hardly go wrong by M 306
hardly be true if M 306
happen in many of M 306
happen at just the M 306
habits of vice or M 306
habits of trying to M 306
hatred of vice in M 304
hardly the length of M 304
happen to talk of M 304
handle is made by M 304
handed the mail to M 304
halted the rise in M 304
happen to stop in M 303
hardly the time of M 302
happen in years to M 302
handle the case at M 302
harder we work the M 300
happen to stop it M 300
happen to rise at M 300
habits of work as M 299
hasten to give an M 298
hardly so much in M 298
happen or what we M 298
happen in five or M 298
handed it over on M 298
habits of body or M 298
hardly the width of M 296
hardly be rash to M 296
harder to live by M 296
happen so fast in M 296
handle the case by M 296
handle so much of M 296
hardly be what is M 294
happen to know on M 294
handling the data is M 294
handle to size the M 294
handle is used by M 294
handle is held by M 293
harmed as much as M 292
hardly the means to M 292
happen to think or M 292
habits to make the M 292
harder to have an M 291
harmed by lack of M 290
hardly be eager to M 290
hardly an echo in M 290
happen to meet my M 290
harder to live on M 288
harder to hold it M 288
harder to make my M 287
hardly be seen or M 284
happen to help us M 284
handling the cost of M 284
hasten to join us M 283
handle to fill the M 283
happen to vary in M 282
happen in life as M 282
happen at once to M 282
halted an hour to M 282
hardly the only or M 280
handed me half of M 280
hardly so many as M 278
harder to draw in M 278
happen in case he M 278
hasten to open it M 276
hardly the road to M 276
hardly be what he M 276
happen to spring up M 276
happen to call at M 276
handling of mail in M 276
handed the work of M 276
handed the line to M 276
hatred or envy of M 274
hardly the goal of M 274
harder to know if M 274
happen to show the M 274
happen or when it M 274
happen in half an M 274
handle the length of M 274
hasten to meet it M 272
hardly be from the M 272
halves to form the M 272
happen to live so M 270
happen in three or M 270
handed the last of M 270
hasten to tell me M 269
hardly the form of M 268
hardly as clear as M 268
habits of reading or M 268
hardly to feel the M 266
hardly be said by M 266
hardly be back in M 266
harder to treat the M 266
happen so early in M 266
habits of life we M 266
harder to teach the M 265
harder to reach in M 265
hardly be made so M 264
happen by fire to M 264
halted the rest of M 264
hardly to need the M 262
harder to lift the M 262
happen is hard to M 262
handle is part of M 262
habits to take the M 262
hardly be said is M 260
handed the text to M 260
halves the rate of M 260
habits of living is M 260
hardly the case of M 258
happen to think at M 258
happen to open it M 258
habits of mind do M 258
hatred of life in M 256
hardly so much of M 256
hardly be what the M 256
happen if none of M 256
handle of bone or M 256
halved to give the M 256
halted to rest on M 256
harder to feel the M 255
halved the risk of M 255
hardly to bend the M 254
handling the role of M 254
hardly so much the M 252
hardly be felt to M 252
happen to like me M 252
halves the cost of M 251
hardly be kept on M 250
hardly be early in M 250
happen to hold at M 250
happen to give to M 250
handle it well in M 250
handle as high as M 250
harder to rely on M 249
hardly be just on M 248
happen to rise in M 248
happen to need me M 248
happen to fail of M 248
happen in areas of M 248
handle the reading of M 248
handle the care of M 248
handle or dream of M 248
hatred or anger or M 246
hatred as soon as M 246
hardly be fair in M 246
happen to move to M 246
happen to move the M 246
happen to life on M 246
handling of much of M 246
habits of what is M 246
hasten to help the M 245
hardly be more of M 244
handle in case of M 244
harder to move to M 242
happen to turn on M 242
happen if most of M 242
habits we wish to M 242
handle to drag the M 241
hardly be done on M 240
happen to take no M 240
handle the work or M 240
handle the rate of M 240
hasten to have the M 238
hardly the half of M 238
happen to call the M 238
happen in what we M 238
handling the text of M 238
hardly so much so M 237
harder to break in M 237
handling of form in M 237
handling is used to M 237
happen to those we M 236
happen to take on M 236
handling the case at M 236
handling of data on M 236
harder to learn in M 235
harmed by loss of M 234
hardly the ideal of M 234
harder to show the M 234
happen as well in M 234
handle the work as M 234
hasten to join in M 233
harder to stay at M 233
happen to pass on M 233
handling or coming in M 233
happen to save us M 232
happen to know we M 232
happen to face the M 232
habits to make it M 232
habits so much as M 232
habits of years of M 232
hatred of those at M 230
hatred is said to M 230
hasten to warn the M 230
hasten to give my M 230
hasten to give me M 230
hardly be told of M 230
happen to form an M 230
happen to come so M 230
hatred or envy or M 228
harder to take up M 228
handle as fast as M 228
harmed as much by M 227
handle the case or M 227
handed in over the M 227
hasten to sell the M 226
harmed the most by M 226
happen to think my M 226
happen to keep us M 226
handle the data on M 226
hardly be more in M 224
harder we look at M 224
harder we find it M 224
happen to pass it M 224
happen so much as M 224
handling the same or M 224
handed it back he M 224
handle it like the M 223
hatred to such an M 222
hasten to fill up M 222
harmed so much as M 222
harder to pull up M 222
happen in much the M 222
hardly as well as M 221
handle to load the M 221
hardly be made if M 220
happen is part of M 220
handle to lock the M 219
happen to hold it M 218
happen to drop it M 218
handle it during the M 218
hasten the cure by M 216
happen to tell me M 216
happen if part of M 216
happen at home if M 216
handed on into the M 216
handed on down the M 216
halted an hour at M 216
hardly to know the M 214
hardly the meaning of M 214
harder the wood the M 214
harder if there is M 214
handle the load at M 214
handle or even to M 213
hardly be eaten on M 212
harder to hold to M 212
happen to turn my M 212
handling to make it M 212
handling of work in M 212
handle it well at M 212
habits of life it M 212
hatred of such an M 210
hardly the life of M 210
hardly be left as M 210
happen to mark the M 210
happen to live to M 210
handling the case as M 210
handed the girl to M 210
hatred is born of M 209
harder to move in M 209
harder to make me M 209
handling in case of M 209
harder to speak to M 208
happen to meet or M 208
happen to make my M 208
happen to lack the M 208
happen to help the M 208
handle the wealth of M 208
handed my note to M 208
halved the length of M 208
habits of work to M 208
hasten to pass on M 207
hasten to call in M 207
happen to think as M 207
hasten to take it M 206
hardly be said we M 206
hardly be said on M 206
harder we work at M 206
harder to take it M 206
happen at once or M 206
happen at home in M 206
handed the work to M 206
handed the role of M 206
halted us when we M 206
harder to stop it M 205
handle the need to M 205
halted to pick up M 205
hasten to tell us M 204
hardly be kept at M 204
hardly be free to M 204
happen to those on M 204
happen to like at M 204
handle to give the M 204
handle it over the M 204
handle an army in M 204
hasten or slow the M 202
hardly be made an M 202
happen to make of M 202
handed the other the M 202
handle to move it M 201
hasten to meet me M 200
hasten to help us M 200
harder to think in M 200
happen to cast an M 200
handling it from the M 200
handed if need be M 200
halted to take up M 200
harder to make as M 199
hatred of such as M 198
hatred at poor me M 198
hasten the ending of M 198
happen to what is M 198
handle the data as M 198
handle an army of M 198
habits is just as M 198
hasten to quit the M 197
handed on down to M 197
hardly to take in M 196
hardly the duty of M 196
hardly so soon as M 196
harder to work up M 196
happen to harm an M 196
happen to gain the M 196
handling the sort of M 196
handle to break the M 196
handle the truth of M 196
handle the life of M 196
halted by means of M 196
hasten to fill it M 194
harder to meet in M 194
happen to view it M 194
happen to show in M 194
happen to find my M 194
hasten to gain the M 193
hardly to think of M 192
hardly do more to M 192
hardly be fair or M 192
harder to move up M 192
happen to leave it M 192
happen to dream of M 192
handling the threat of M 192
handed the pass to M 192
handed me down to M 192
habits is seen in M 191
hasten to take my M 190
hardly be free of M 190
happen to take of M 190
happen to call me M 190
handling of food at M 190
handed me down the M 190
halves to make the M 190
habits of work is M 190
harder to kill the M 189
hatred of those we M 188
hatred of much of M 188
harder to walk in M 188
harder to line up M 188
happen to stay at M 188
handling to keep the M 188
handed on some of M 188
halted to feed the M 188
hardly be those of M 186
hardly be more at M 186
happen to rule at M 186
handling the wealth of M 186
happen to find on M 185
hasten to keep up M 184
hasten to give up M 184
hardly be just if M 184
happen in what is M 184
harder to form the M 183
happen to teach in M 183
happen to drop on M 183
handling of what we M 183
hatred of what it M 182
hardly so high as M 182
hardly so good at M 182
happen to note the M 182
handed the care of M 182
handed in when the M 182
harder to pass on M 181
hatred of having to M 180
hasten to drop the M 180
hardly be less in M 180
handle the tens of M 180
handle it like an M 180
habits it will be M 180
habits in some of M 180
hatred of those by M 178
hardly to feel it M 178
handling the risk of M 178
handle the body in M 178
handle so many of M 178
halved the time of M 178
handed to some of M 177
hatred so much as M 176
hatred of work is M 176
hardly to have an M 176
harder to clear up M 176
happen to miss it M 176
happen to come my M 176
handling the gift of M 176
handle to give it M 176
handed to meet the M 176
handed the mask to M 176
halves of some of M 176
halted at last by M 176
habits or rate of M 176
hasten the trial of M 174
hardly to think it M 174
harder in trying to M 174
happen to live is M 174
happen or what to M 174
happen by luck or M 174
handling the ship in M 174
handle the baby as M 174
habits we have to M 174
hardly be worth my M 172
happen to make in M 172
happen in life to M 172
handed up over the M 172
halted to take the M 172
halted to make the M 172
habits of work at M 172
harder to take on M 171
hatred or lack of M 170
haters as well as M 170
hasten to look at M 170
hardly be such an M 170
harder to make if M 170
harder to hide in M 170
happen to want or M 170
happen to help me M 170
happen to grow on M 170
happen as well to M 170
happen as much in M 170
handling the work is M 170
handling so much of M 170
handle we have on M 170
handle the work to M 170
handed the cake to M 170
handed it down the M 170
hatred to many of M 168
hatred in many of M 168
hardly be room to M 168
happen to trip us M 168
happen by fire or M 168
handling is part of M 168
handle the call in M 168
handed the cage to M 168
habits of living by M 168
harder to feed the M 167
habits of reading as M 167
hardly the case as M 166
happen to gain an M 166
happen to fall by M 166
handling of form is M 166
handle is said to M 166
halted to take on M 166
halted at last on M 166
habits we form in M 166
habits of much of M 166
habits is hard to M 166
habits go hand in M 166
harder to kill in M 165
handle in view of M 165
happen to pick me M 164
happen to look the M 164
happen if there be M 164
happen at last to M 164
handle is held at M 164
halved the duty on M 164
hardly so well as M 163
handling or moving of M 163
hatred as part of M 162
handle the theory of M 162
handle is bent at M 162
handed the pile of M 162
halves of what is M 162
habits is part of M 162
handed the baby up M 161
hatred as deep as M 160
harder to miss the M 160
harder to keep at M 160
harder to gain an M 160
harder to cure in M 160
happen to think up M 160
happen to pick it M 160
happen to pass my M 160
happen in life is M 160
handling an army of M 160
handling or lack of M 159
hatred of those to M 158
hardly the line of M 158
hardly be sure it M 158
hardly be heard or M 158
harder to lose it M 158
happen to what we M 158
happen to save me M 158
happen to blow the M 158
handling of data to M 158
halved the time it M 158
halted to learn the M 158
habits of those we M 158
hatred or love or M 156
harder to learn or M 156
harder to hold up M 156
harder to grow in M 156
handle the data is M 156
handed my keys to M 156
handed it back at M 156
hatred of evil as M 155
handling of these is M 155
hatred to spring up M 154
hatred of what we M 154
hardly the heart or M 154
harder we make it M 154
harder to treat in M 154
harder to think up M 154
harder to test the M 154
harder to break it M 154
happen we must be M 154
happen to meet by M 154
happen to drop the M 154
happen or what he M 154
happen in turn to M 154
handle the buying of M 153
hardly the role of M 152
hardly the acts of M 152
harder to open up M 152
harder to know in M 152
harder to find by M 152
happen to lose my M 152
happen to find us M 152
happen to find to M 152
handling of ideas in M 152
handed the name of M 152
handed my coat to M 152
handle to work the M 151
hasten to leave it M 150
hasten to join it M 150
hasten to call on M 150
hasten the move to M 150
hardly so fine as M 150
hardly be heard of M 150
harder the work is M 150
happen to think in M 150
happen to take to M 150
happen to fail to M 150
happen or what it M 150
happen if ever the M 150
handling the case or M 150
handle to stop the M 150
handle the meaning of M 150
handle so much at M 150
handed the item to M 150
habits we want to M 150
handle to form the M 149
harmed by what is M 148
hardly the look of M 148
hardly be heard on M 148
harder to obey the M 148
happen to want is M 148
happen to speak in M 148
happen to rest on M 148
happen to keep it M 148
happen is what is M 148
happen is open to M 148
handling the body in M 148
handle if there is M 148
handed on like the M 148
harder by trying to M 147
handle to find the M 147
habits of acting as M 147
hasten to call the M 146
hasten the taking of M 146
hardly the best thing M 146
hardly do even in M 146
hardly be room in M 146
happen to ruin the M 146
happen or will be M 146
habits or even the M 146
habits of life be M 146
harder to play in M 145
harder to grow up M 145
happen to pick on M 145
handling is kept to M 145
hardly go down to M 144
harder to move on M 144
harder on some of M 144
happen to want an M 144
happen to think on M 144
happen to like is M 144
happen to hold an M 144
happen as sure as M 144
handle the same or M 144
handle the means of M 144
handle the call to M 144
halted the rush of M 144
handed in will be M 143
hardly go hand in M 142
hardly be come to M 142
hardly be come at M 142
harder the work of M 142
happen to need an M 142
happen to live by M 142
happen to give an M 142
handed me into my M 142
habits of reading is M 142
hatred in some of M 140
hasten the time to M 140
hardly be here if M 140
hardly be aiming at M 140
harder to work the M 140
happen so fast it M 140
handle the keys of M 140
handed the ends to M 140
halted on hearing the M 140
habits to fill the M 140
habits of reading to M 140
handle the same in M 139
handed in acts of M 139
hardly so full of M 138
hardly be able in M 138
harder to fill in M 138
happen to play in M 138
happen is what we M 138
happen if word of M 138
happen if those in M 138
happen if care is M 138
handling the lack of M 138
handling of ideas is M 138
handling of food to M 138
handling it during the M 138
handle of wood is M 138
handed it down by M 138
handling is used in M 137
handle the text in M 137
handle it must be M 137
hatred of evil to M 136
hatred in case of M 136
hasten to kiss the M 136
hasten to join me M 136
hasten the days of M 136
hardly to leave the M 136
hardly to know of M 136
hardly no time at M 136
hardly do less in M 136
harder to pick the M 136
happen if more of M 136
handed on what he M 136
handed it over by M 136
halves to show the M 136
halted the rise of M 136
habits or those of M 136
harder to reach it M 135
happen to hold as M 135
hardly be fair if M 134
hardly as much of M 134
harder to form an M 134
harder to fool the M 134
harder at making the M 134
happen to teach us M 134
happen to take my M 134
happen to learn the M 134
happen or even if M 134
happen on some thing M 134
happen if only he M 134
happen by want of M 134
handling the load of M 134
handle the work by M 134
handle or come in M 134
handle on most of M 134
halted to fire at M 134
harder to warm up M 133
harder to love the M 133
happen to look on M 133
hatred of half the M 132
harder to kill by M 132
happen to tell us M 132
happen to meet as M 132
happen to draw up M 132
handling the pain of M 132
handling as soon as M 132
handle on many of M 132
habits of those by M 132
harder to reach on M 131
hatred by taking the M 130
hasten the time at M 130
hardly to deny the M 130
hardly the case if M 130
hardly so much an M 130
hardly be told to M 130
hardly be till we M 130
hardly be hurt by M 130
happen to think to M 130
happen to name the M 130
happen in four or M 130
handling so much as M 130
handling of fish in M 130
handle the making of M 130
handle it even if M 130
habits to keep up M 130
habits to keep the M 130
habits of more or M 130
habits of care of M 130
habits as good as M 130
hasten to seek the M 129
hasten to learn the M 129
harder the more he M 129
handle as best he M 129
hatred he gave me M 128
hasten the work by M 128
hasten it best by M 128
hardly be what we M 128
hardly as dark as M 128
harder to take if M 128
harder to draw up M 128
harder as soon as M 128
happen to test the M 128
happen to seem to M 128
happen to come of M 128
happen if during the M 128
handle the jobs of M 128
handle or look at M 128
handed me half the M 128
handed it along to M 128
habits of what we M 128
happen at once as M 127
hasten to tell my M 126
hasten to find the M 126
harmed the work of M 126
harmed by what he M 126
hardly to reach the M 126
hardly be meant as M 126
harder to leave my M 126
happen to work as M 126
happen to stop us M 126
happen to look to M 126
happen to live as M 126
happen to like in M 126
handling the trial of M 126
handle to take the M 126
handle the load on M 126
handle the case to M 126
handle it gave to M 126
handed the fare to M 126
habits of such as M 126
habits of coming to M 126
handle to draw the M 125
handle the mail of M 125
hatred or love to M 124
hasten the rule of M 124
hasten so much the M 124
hardly the need to M 124
hardly the home of M 124
hardly in want of M 124
harder to pull it M 124
happen to take us M 124
happen to form in M 124
happen to break in M 124
happen so fast we M 124
handling the data to M 124
handling of time as M 124
handling of love in M 124
habits of tens of M 124
habits of living so M 124
harder to undo the M 123
harder to keep us M 123
harder to drag the M 123
happen to blow in M 123
handle to call the M 123
hatred to those of M 122
harmed by what we M 122
hardly to rest on M 122
hardly the will to M 122
hardly the heart of M 122
hardly be told by M 122
hardly as late as M 122
hardly an army at M 122
harder to work at M 122
harder to tell in M 122
harder to rule in M 122
happen to take me M 122
happen to open up M 122
happen to hold to M 122
happen by trying to M 122
handling the data on M 122
handle the trial of M 122
handle the baby in M 122
habits of youth as M 122
habits in much the M 122
hatred is just as M 121
harder to sell on M 121
harder to clean the M 121
handed to stem the M 121
hatred of those on M 120
hatred is only the M 120
hasten to give to M 120
hardly to give the M 120
hardly the land of M 120
hardly the hour to M 120
hardly be trying to M 120
hardly be said it M 120
hardly be other to M 120
hardly as fast as M 120
harder to find my M 120
happen to hurt me M 120
happen on some of M 120
happen as many as M 120
handle the text of M 120
handle the rest on M 120
handle it once it M 120
habits of what he M 120
habits of those on M 120
habits is said to M 120
harder to sell or M 119
harder to make us M 119
handed on only by M 119
hasten to send my M 118
hardly to meet the M 118
hardly to keep the M 118
hardly go down in M 118
hardly be angry at M 118
harder to live as M 118
harder to face up M 118
happen to call to M 118
happen in case we M 118
happen if left to M 118
handle to reach the M 118
handed the gift of M 118
halted to rest by M 118
habits we have an M 118
habits so well as M 118
habits of work on M 118
harder the blow the M 117
halves as soon as M 117
hasten to have it M 116
hardly the case on M 116
harder to clear the M 116
happen to come or M 116
happen at work or M 116
handling of what the M 116
handle the load in M 116
handle the kids in M 116
handed the city to M 116
halved by means of M 116
halted to take an M 116
halted the line of M 116
halted on seeing the M 116
harder to link to M 115
hatred to grow in M 114
hatred of self is M 114
hatred of cant as M 114
hasten to clear up M 114
hardly to such an M 114
hardly to dare to M 114
hardly the hope of M 114
hardly so soft as M 114
hardly be true as M 114
hardly be tied to M 114
hardly be there in M 114
hardly be done so M 114
hardly as much so M 114
harder to view the M 114
harder to sell an M 114
harder to name the M 114
harder to keep me M 114
happen to sell the M 114
happen to fall or M 114
happen on land or M 114
handle to pick up M 114
handle so well as M 114
handle is left in M 114
halted in face of M 114
habits to speak of M 114
habits of many or M 114
habits of making the M 114
habits of fish is M 114
habits by making it M 114
hasten up from the M 113
harder to turn on M 113
handling in view of M 113
handle is seen in M 113
hatred of life as M 112
hardly to like to M 112
hardly go over it M 112
hardly be held at M 112
hardly at length he M 112
harder to treat as M 112
happen he will be M 112
handling the mail in M 112
handle to lock it M 112
handle the data by M 112
handle the data at M 112
handle is kept in M 112
handed us from the M 112
handed the lady the M 112
handed on much of M 112
halves of those of M 112
halted to wait the M 112
habits the same as M 112
habits of such an M 112
habits is more or M 112
harder to stay up M 111
handle the same thing M 111
handle the line of M 111
handle or react to M 111
handed to make up M 111
hasten to turn the M 110
hasten to cast the M 110
hasten in time to M 110
harmed by some of M 110
hardly is able to M 110
hardly be like the M 110
happen to show me M 110
happen to meet is M 110
happen to feel on M 110
happen in time if M 110
handling to keep it M 110
handling the work on M 110
handle to push it M 110
handle the rise in M 110
handle the load or M 110
handle is from the M 110
halted the left wing M 110
habits we take on M 110
habits to give up M 110
habits of seeing the M 110
handle the form of M 109
handed to those of M 109
handed to keep the M 109
handed it over so M 109
hatred so deep as M 108
hasten the work in M 108
hardly be used if M 108
hardly be need of M 108
hardly be clear to M 108
harder to push it M 108
harder to make at M 108
harder to cheat in M 108
happen to love to M 108
happen to give up M 108
happen to find at M 108
happen as mark the M 108
handling is done at M 108
handle the load if M 108
handle is used on M 108
handle in much the M 108
handed or sent by M 108
handed me just as M 108
handed in prior to M 108
halted to face the M 108
habits or ideas in M 108
habits at home to M 108
hardly be made as M 107
hatred to what is M 106
hasten to pass the M 106
hasten as well as M 106
harmed the rest of M 106
harmed if there is M 106
hardly the rule in M 106
hardly the girl to M 106
hardly the done thing M 106
hardly on many of M 106
hardly he able to M 106
hardly be eaten by M 106
hardly be eased by M 106
harder to meet as M 106
harder to join the M 106
happen to ruin it M 106
happen to play an M 106
happen to meet us M 106
happen to feel or M 106
happen in time is M 106
happen in much of M 106
happen as when the M 106
handling the work to M 106
handle to clear the M 106
handle the birth of M 106
handle is cast in M 106
handed the play to M 106
handed the bone to M 106
handed me from my M 106
halted an hour in M 106
habits to what the M 106
habits to live in M 106
habits of those at M 106
handle to such as M 105
hatred to some of M 104
hardly so much by M 104
hardly be ready by M 104
hardly be fair on M 104
harder to test in M 104
happen to work the M 104
happen to stop me M 104
happen to reach it M 104
happen to much of M 104
happen to kids in M 104
happen if only we M 104
handling the ideas of M 104
handling so many of M 104
handling or moving the M 104
handling it only by M 104
handling an army in M 104
handle the work he M 104
handed us down the M 104
handed the post of M 104
handed the pair of M 104
handed the game to M 104
handed the body to M 104
handed it also to M 104
habits we have no M 104
habits of youth in M 104
habits at home or M 104
hasten to deny the M 103
harder to work as M 103
handed as soon as M 103
hatred or even of M 102
hatred at once of M 102
hasten to view the M 102
hardly to speak of M 102
hardly the fair thing M 102
hardly be more to M 102
hardly be less of M 102
hardly be here in M 102
happen up there in M 102
happen to wake in M 102
happen to know no M 102
happen is seen in M 102
happen in three to M 102
happen by having the M 102
handling the case by M 102
handling or care of M 102
handle to fill in M 102
handle the truth in M 102
handle the threat to M 102
handle the data to M 102
handle in case the M 102
halves of most of M 102
halted at length in M 102
habits to help the M 102
habits he must be M 102
harder to send the M 101
handle to wind the M 101
hatred to grow up M 100
hasten to pick up M 100
hasten to meet us M 100
harmed or hurt in M 100
harmed by having the M 100
harmed by acts of M 100
hardly to know or M 100
hardly the talk of M 100
hardly the core of M 100
harder to stay the M 100
harder to bind up M 100
happen to those he M 100
happen to speak it M 100
happen to pull the M 100
happen to pass me M 100
happen the same as M 100
happen in lots of M 100
happen by taking the M 100
handling of data as M 100
handle the pain in M 100
handle the list of M 100
handle the ideas of M 100
handle the food of M 100
handed to make the M 100
handed the vest to M 100
handed me part of M 100
halted the loss of M 100
habits or puts an M 100
habits of reading at M 100
harder to find us M 99
handling of logs in M 99
handling of heavy or M 99
handle is made up M 99
hatred the size of M 98
hatred is sure to M 98
hatred as great as M 98
hasten to draw the M 98
hasten to bury it M 98
hasten the work to M 98
harmed by what the M 98
hardly the love of M 98
hardly go down the M 98
hardly be living in M 98
hardly be cast as M 98
hardly as rich as M 98
harder to speak in M 98
harder to make on M 98
harder to fill up M 98
harder to bend the M 98
harder on trying to M 98
happen to want in M 98
happen to none of M 98
happen to hate the M 98
happen to fire the M 98
happen to break or M 98
handling is seen in M 98
handle the depth of M 98
handle the case is M 98
handle so great an M 98
halves the time of M 98
habits to form in M 98
habits by trying to M 98
handling of these in M 97
hatred of their king M 96
hatred by trying to M 96
hasten to turn to M 96
hasten to give us M 96
hasten the fall in M 96
harmed by means of M 96
hardly if ever be M 96
hardly go wrong on M 96
hardly be shut by M 96
harder to take as M 96
harder to sell it M 96
harder to sell at M 96
harder to learn by M 96
harder to cure the M 96
happen to send us M 96
happen to save it M 96
happen to rely on M 96
happen to pass at M 96
happen to part us M 96
happen to lose in M 96
happen to lift the M 96
happen if many of M 96
handling the line of M 96
handling the item in M 96
handling of mail by M 96
handling as much of M 96
handle the mail on M 96
handle the gift of M 96
handed the pile to M 96
halved in size by M 96
halted the work on M 96
habits we find the M 96
habits of taking the M 96
hasten the rest as M 94
harmed by living in M 94
hardly up when the M 94
hardly the best in M 94
hardly go even as M 94
hardly as much to M 94
hardly as fine as M 94
harder to learn as M 94
happen to walk on M 94
happen to stop to M 94
happen to learn to M 94
happen to kill an M 94
happen so much the M 94
handling of line is M 94
handle as there is M 94
handed the stem to M 94
handed the kind of M 94
halted as early as M 94
habits to many of M 94
habits the blow is M 94
habits of living he M 94
habits by having the M 94
habits as will be M 94
hasten to give in M 93
handle to push on M 93
hasten the move of M 92
hardly so early as M 92
hardly be much to M 92
hardly be able at M 92
harder to make or M 92
happen to turn it M 92
happen to show an M 92
happen to hold on M 92
happen if what is M 92
handling the theory of M 92
handling the mail is M 92
handling the fact of M 92
handle on what my M 92
halted to bury the M 92
halted the army at M 92
halted if there is M 92
habits of body in M 92
habits as well in M 92
hasten to send in M 91
happen is just as M 91
handed on during the M 91
habits we pick up M 91
habits as fast as M 91
hatred of self or M 90
hasten to town as M 90
hasten the time by M 90
hardly to take the M 90
hardly to need an M 90
hardly the last to M 90
hardly so fast as M 90
hardly go along the M 90
harder to work by M 90
harder to speak the M 90
harder to date the M 90
happen to send me M 90
happen to rule the M 90
happen to play it M 90
happen to land at M 90
happen or else it M 90
handling the care of M 90
handling the baby or M 90
handle the ship on M 90
handle the rise of M 90
handle it only in M 90
handed us down to M 90
habits to when the M 90
habits on those of M 90
habits of fish or M 90
habits it must be M 90
habits as early in M 90
harder to give to M 89
handle the load is M 89
hasten the hearing of M 88
hasten so much to M 88
hasten on when the M 88
hardly to make it M 88
hardly the note of M 88
hardly the mode of M 88
hardly in such an M 88
hardly by trying to M 88
hardly as early as M 88
harder to want to M 88
harder to tell it M 88
harder to stop in M 88
harder or give up M 88
happen to walk the M 88
happen to turn me M 88
happen to teach at M 88
happen to meet to M 88
happen to life in M 88
happen to feel so M 88
happen to blow up M 88
happen in more or M 88
happen if lots of M 88
handling the work at M 88
handling the copy of M 88
handle it just the M 88
handle is free to M 88
handed me three or M 88
habits to grow up M 88
habits of work by M 88
habits of moving the M 88
harder to talk of M 87
harder to find me M 87
handle so much as M 87
hatred the like of M 86
hatred of many in M 86
hasten to sign the M 86
hasten to send me M 86
hasten to hail the M 86
hasten to form an M 86
hardly to think at M 86
hardly to save my M 86
hardly the last of M 86
hardly the hero of M 86
hardly do wrong as M 86
hardly be prior to M 86
hardly an ally of M 86
harder to call the M 86
happen to teach it M 86
happen to call up M 86
happen or else the M 86
handle to turn on M 86
handle the urge to M 86
handed the body of M 86
halted to rest or M 86
halted at last to M 86
habits of fish to M 86
habits in many of M 86
habits by making the M 86
hatred of years of M 84
hatred he felt in M 84
hasten to show to M 84
harmed by none of M 84
hardly go over the M 84
hardly be over to M 84
hardly an hour or M 84
harder to turn to M 84
harder to cast the M 84
happen to what he M 84
happen to omit the M 84
happen to live up M 84
happen to here an M 84
happen in life or M 84
handling the rush of M 84
handling it well at M 84
handle in trying to M 84
handed us back the M 84
handed the fate of M 84
handed on only to M 84
handed me three of M 84
halted the rate of M 84
halted as part of M 84
habits so hard to M 84
habits or even of M 84
habits as well of M 84
harder to sell as M 83
harder to pull in M 83
hasten to note the M 82
hasten the laying of M 82
hasten so fast to M 82
hardly the word we M 82
hardly the making of M 82
hardly be much in M 82
hardly be left on M 82
hardly be left at M 82
hardly be cast in M 82
harder to show in M 82
harder to move it M 82
harder to break by M 82
happen to wish it M 82
happen to send to M 82
happen to sell it M 82
happen so soon or M 82
happen on even the M 82
happen is when we M 82
handling of data at M 82
handle the mail at M 82
handle the data it M 82
handle the bits of M 82
handle it like it M 82
halted to keep the M 82
halted at once by M 82
habits to what is M 82
habits is what is M 82
habits in time of M 82
hasten to seek it M 80
hardly the dream of M 80
hardly be worth as M 80
hardly be sure he M 80
hardly be said or M 80
hardly be able or M 80
hardly as much in M 80
hardly an item on M 80
harder to teach in M 80
harder to take an M 80
happen to need or M 80
happen if half the M 80
happen by making the M 80
handling be made to M 80
handle the three of M 80
halted to make tea M 80
halted the work in M 80
halted at nine in M 80
habits the rest of M 80
habits he will be M 80
habits at work in M 80
harder the more it M 68
harder the rest of M 67
harder the more the M 59
handling is just as M 59
harder by having to M 58
handling to make the M 58
happen to step in M 56
handling of fish at M 54
handed on from an M 53
handed in case of M 53
hasten the work as M 51
harder by making the M 50
handed it back up M 50
handle or move the M 49
harder to save it M 48
happen to feel as M 47
handle the load as M 47
handed on among the M 47
handed in most of M 47
happen to stay on M 46
handling or from the M 46
handle the name of M 46
handle the book as M 46
happen to flow in M 45
handling is also an M 45
handle to make an M 44
handed in some of M 44
handed in must be M 44
harder to call up M 43
harder the more we M 43
harder to keep as M 42
handling of data of M 42
handle to pick it M 42
handle the call as M 42
hasten to show the M 41
harder to rise in M 41
harder to play on M 41
harder to break as M 41
happen to join in M 41
happen in time as M 41
happen at home as M 41
handle the work so M 41
handle in such an M 41
hasten to undo the M 40
hardly as deep as M 40
harder to reach as M 40
happen to feed on M 40
handling of time by M 40
handling of lost or M 40
handle the case so M 40
handle the bulk of D 6905
hailed by many as D 6860
hailed by some as D 6621
hazard the loss of D 6249
hauled up from the D 5604
handle the sale of D 5498
hamper the work of D 4912
handed the card to D 4908
handle the task of D 4196
hasten the pace of D 3924
harden the heart of D 3756
handed the ball to D 3468
hammer is used to D 3206
hazard the giving us D 2983
hauled in from the D 2980
hardly an inch of D 2908
handling the sale of D 2856
harbor as well as D 2792
hassle of having to D 2750
hazard as well as D 2630
handed the pipe to D 2588
hailed us from the D 2556
hauled up into the D 2494
hailed the coming of D 2246
hammer to break the D 2124
hailed the dawn of D 2062
happen to suit the D 2004
hauled the boat up D 1960
hazard of losing the D 1900
hamper the flow of D 1889
hailed me from the D 1850
handling the bulk of D 1848
hamlet as well as D 1835
hammer it into the D 1817
hatred he bore to D 1804
hallow the name of D 1796
handed the bowl to D 1740
hauled it back to D 1734
handed the task of D 1728
handed the slip of D 1676
hasten the drying of D 1643
hauled it into the D 1598
hatching of eggs of D 1572
hailed the book as D 1557
hassle of trying to D 1530
haunts the mind of D 1488
hazard the peace of D 1402
handed the slip to D 1372
hailed the birth of D 1322
hazard to life or D 1298
handed the bill to D 1282
hailed as such by D 1252
hauled up onto the D 1250
hazard of such an D 1239
hatching the eggs of D 1222
handed the rope to D 1202
hammer as well as D 1187
harbor as soon as D 1173
hazard to health or D 1156
harbor is full of D 1154
hardly an acre of D 1138
hauled me into the D 1118
harder the task of D 1094
hazard the fate of D 1078
hauled up upon the D 1066
hammer to break it D 1052
hazard the life of D 1022
hammer at five in D 1015
haunting the mind of D 979
hazard of loss of D 952
hamlet is able to D 948
hailed the news of D 940
hailed at once as D 918
handed the tray to D 900
handling of milk in D 891
hauled or used on D 876
hacker is able to D 874
handed the mike to D 844
hazard the risk of D 830
hauled up over the D 830
halted the sale of D 812
hailed by some of D 810
harder to pump the D 808
hailed the work as D 789
haunts of vice in D 776
halted to noon on D 764
hailed as among the D 760
hailed the fall of D 748
hatred he bore the D 742
hamlet is made to D 742
hauled by teams of D 734
hatred of gays in D 733
hauled me over the D 730
hauled by means of D 728
harden the mind in D 722
hazard my life in D 721
hauled it from the D 714
hamlet is full of D 708
hailed by many of D 708
hazard in life is D 706
hailed the move as D 699
hauled the logs to D 694
hazard in case of D 693
hauled me back to D 684
hauled it down to D 684
hauled by rail to D 684
handed the sack to D 676
handed the coin to D 676
hauled it over to D 674
hauled in over the D 672
habits to suit the D 666
hailed to know if D 662
harbor to meet the D 660
hailed the work of D 660
handed the tape to D 652
hauled it over the D 650
harbor to pick up D 646
hallow it from the D 646
handed the pack to D 636
hammer is made to D 632
handling the theme of D 626
hardly as tall as D 624
handling the task of D 622
harbor as many as D 612
handed my card to D 612
halted at noon on D 612
handle at least the D 609
harden my heart to D 598
hazard the ruin of D 597
hailed by most of D 596
hatching of eggs in D 594
hammer by means of D 586
hardly be news to D 584
handed the leash to D 580
haunting we will go D 575
hardly be sold at D 570
hailed the rise of D 568
harbor by means of D 566
harbor in time to D 563
harbor as part of D 561
hazard of having the D 560
hauled the rest of D 558
handed the doll to D 558
haunts in dale or D 550
hazard or risk to D 549
hasten the sale of D 548
hazard to life in D 538
hauled the boat in D 538
hammer is made of D 538
handle the ball in D 534
hailed the film as D 521
hazard of ruin to D 518
handed the whip to D 518
hauled up along the D 516
hauled the wind to D 506
hammer to break up D 504
haunts the work of D 501
handle the news of D 500
hazard of losing it D 496
handle the theme of D 496
handling of milk or D 492
hazard of life in D 488
hammer to make it D 487
hamlet of three or D 480
harbor of what is D 476
hamlet of five or D 476
handed the menu to D 474
hazard to health in D 470
hauled the canoe up D 468
hammer to make the D 466
harder the task the D 464
harbor the hope of D 454
handed the wine to D 454
hardly be paid to D 452
handed the dish to D 450
haunts to turn the D 448
haunts so much of D 441
halted to noon at D 440
hamlet is said to D 438
handed the roll to D 434
harden the heart to D 432
hacked to bits by D 431
harder to spot in D 428
harped so much on D 426
harbor is open to D 426
handed the tube to D 426
handed the bread to D 424
hailed the play as D 417
hazard of fire or D 416
handed the radio to D 416
handling or sale of D 414
hauled by oxen to D 410
hammer is used in D 410
handed the lamp to D 408
hailed the bill as D 408
handle the task at D 406
hailed by many in D 404
haunts the rest of D 402
hazard of having to D 400
hardly an inch in D 400
handle the boat in D 400
haunts as soon as D 398
hazard of loss or D 397
hauled it onto the D 396
handed the bill of D 396
harbor as early as D 391
handed the pole to D 388
handed the cash to D 388
hauled the boat to D 386
hamper the task of D 383
hamlet of four or D 382
hailed as part of D 380
hangman to give it D 378
hailed the ruling as D 375
hardly as thick as D 372
harbor in case of D 372
hatching as well as D 369
harbor or port of D 368
harbor is home to D 364
handed the memo to D 362
harbor to take on D 361
happen to crop up D 360
hazard or risk of D 356
hazard of fire is D 356
hazard of living in D 354
handed the task to D 354
hailed the plan as D 354
hazard of life to D 352
handed the bags to D 352
hauled me over to D 350
harbor to join the D 350
haunts us when we D 347
handed the sheaf of D 346
handed the bowl of D 346
hamper the sale of D 346
harrow is used to D 344
harder to spot the D 343
handle the task in D 342
hailed the news as D 340
hailed the vote as D 339
hamlet is trying to D 337
haunts the life of D 336
hazard of trying to D 334
handling of milk is D 334
harass the mind of D 332
handling the ball in D 332
harbor is said to D 329
hauled by teams to D 326
handle the ball on D 326
haunts so many of D 322
harden the skin of D 322
hauled the last of D 320
hazard of life or D 317
hauled it away to D 316
handed the beer to D 316
hassle to have to D 314
hatching of eggs by D 312
haunts the heart of D 310
hauled it back up D 308
hackle is tied in D 308
hawked up from the D 306
hauled me down to D 306
haunts as well as D 303
hazard to health is D 302
hauled the boat on D 302
hacked the body to D 302
handling of milk by D 301
halted to gaze at D 300
hazard the losing of D 297
harder the ball is D 296
halted to dine at D 296
hazard by means of D 294
hazard of what is D 292
hazard of having no D 292
hamlet the play is D 291
harden as soon as D 290
hangman to burn the D 290
handed the rose to D 290
hatching is used to D 284
harbor as fast as D 284
handling the news of D 284
hazard of loss by D 283
handling of cash is D 283
hardly to suit the D 282
harder the rock the D 282
halted at noon to D 282
harden as well as D 281
hauled up among the D 280
hacker is trying to D 280
hardly an inch to D 278
hauled as much as D 276
hamper the pace of D 276
harrow to break up D 275
hazard of making the D 274
handle the film by D 274
handed the roll of D 274
harrow he went to D 273
harrow is made of D 272
handle the cars of D 272
hauled it down the D 270
hazard so much as D 269
hazard the span or D 268
handed the belt to D 266
hammer to form the D 266
hamlet is part of D 266
harden to form the D 265
haunts of some of D 260
hammer to fall on D 258
harder it blew the D 256
handed the diary to D 256
haunts of vice to D 254
hauled the ship up D 254
hauled the line in D 254
handed the wire to D 254
handed the disk to D 254
hazard to health of D 250
hazard if there is D 250
handle the ball as D 250
hamlet is made up D 249
halted the tide of D 248
hailed the role of D 248
hauled in upon the D 246
handed the tool to D 246
handed the shoes to D 246
hazard as much as D 242
hatching the eggs in D 242
hailed the name of D 242
hailed the deck to D 242
haired as well as D 240
handling the milk or D 238
handed the club to D 238
handed the cane to D 238
hauled by oxen or D 236
hammer is able to D 236
hardly the tone of D 234
hammer is held in D 234
hazard of fire in D 232
harder to toot or D 232
handed the horn to D 232
hazard my life to D 230
hatred of sect to D 230
hailed the pact as D 230
hasten the rising of D 228
happen to spot the D 228
habits or laws of D 228
habits of deer in D 228
hammer it home to D 227
hazard is said to D 226
hamlet is sent to D 226
hammer is used on D 224
halide ion from the D 224
handle of your hoe D 223
hammer as hard as D 223
hamlet as much as D 221
haunts me most is D 220
hasten to prop the D 220
handed the deck to D 220
hammer to open the D 220
harden to such an D 218
hammer as soon as D 218
hailed the rising of D 218
happen to suit me D 216
handed the cups to D 216
halide to form the D 215
handed the drum to D 214
hamper the rise of D 214
hailed as some of D 214
handling of cash or D 213
haunts the pool or D 212
hauled me from the D 212
hardly be sold in D 212
hauled the wood to D 210
harden my heart in D 210
handling of news of D 210
handling of news in D 210
hamper the rate of D 210
haunts the tops of D 209
halted at noon at D 208
hailed as such in D 208
hazard so much on D 206
hauled the body of D 206
harbor of port of D 206
hatching of eggs is D 205
handed the string to D 204
haunts me like an D 203
hazard so bold an D 201
handling of cars in D 201
haunts the brow of D 200
hammer to test the D 200
hamlet by means of D 200
hauled as many as D 199
handling of cash by D 199
hazard to pass on D 198
hazard of leaving the D 198
harden the core of D 198
hammer to free the D 198
hauled at once to D 196
harbor to make the D 196
hauled the rope up D 194
hardly an atom of D 194
harbor to look at D 194
happen to vote in D 194
happen at least in D 194
hammer to fire the D 194
hailed the show as D 194
hazard is part of D 192
hangers as well as D 192
happen to tune in D 191
harbor the dream of D 190
hazard my soul in D 188
haunts the soul of D 188
hauled in during the D 188
hasten the drying by D 188
harder he blew the D 188
handling the tooth of D 188
hammer it down to D 188
hailed at once by D 188
handed the seals of D 186
hamlet in case he D 186
hauled the coal to D 184
harass the rest of D 184
happen to suit my D 184
handed us cups of D 184
hammer the ends of D 184
handling of milk on D 183
hauled the body to D 182
hauled me onto the D 182
harbor to find the D 182
hazard is from the D 180
hatred he bears to D 180
handed the spear to D 180
handed the skin to D 180
handed the dice to D 180
hauled it along the D 178
handling of news by D 178
handle to skew the D 178
hauled by hand to D 176
hatred of race or D 176
handed the film to D 176
hazard or risk in D 174
hauled it away in D 174
handed the hose to D 174
handed the babe to D 174
hazard or threat to D 172
hazard of losing my D 172
haunting the back of D 172
hauled us into the D 172
hardly the task of D 172
handling the ball on D 172
hauled the ship to D 170
happen to slip up D 170
hauled as well as D 168
hatred of john of D 168
harbor in laws of D 168
hammer to bend the D 168
hammer is used as D 168
hazard of some of D 166
hazard of having it D 166
handling the boat in D 166
handed the bond to D 166
hamper as well as D 165
hazard to life is D 164
hauled up upon it D 164
harrow the soul of D 164
hardly be gazing at D 164
handed the helm to D 164
hailed the mole to D 164
hazard of having my D 162
haunts the mind in D 162
hauled up when the D 162
harden the heart in D 162
handed the vase to D 162
handed the sack of D 162
handed the gown to D 162
hazard the trial of D 161
hazard in view of D 161
hazard in trying to D 160
haunts of many of D 160
hauled it home in D 160
harden the heart by D 160
harbor in city of D 160
handling in java is D 160
handle the leasing of D 160
handed the gold to D 160
hamlet is what he D 160
hamlet is also the D 160
hamlet we have the D 159
hatching the eggs is D 158
harbor to take the D 158
hammer is used by D 158
hailed the star of D 158
hauled the body up D 156
handling of race in D 156
handle the milk in D 156
hammer to pull the D 156
hazard the health of D 154
hazard of loss to D 154
haunts us from the D 154
hasten the levy of D 154
harden the will of D 154
handle the ball at D 154
handed the pope to D 154
hamper the making of D 154
hammer is heard in D 154
halted to dine on D 154
hauled up more to D 152
hatred of race to D 152
harass the army of D 152
handed the robe to D 152
hammer he used to D 152
halide to form an D 152
hazard of gain or D 150
hatching of eggs or D 150
hasten the bringing of D 150
hardly be rude to D 150
handle to crop the D 150
hammer to give the D 150
hacked to bits in D 150
habits of bees in D 150
haunts me like my D 148
handling the ball is D 148
hailed it from the D 148
hauled us back to D 146
hauled on deck by D 146
harbor is used by D 146
handle the task by D 146
hamlet is ready to D 146
hailed as having the D 146
handling of cash in D 145
hasten the task of D 144
handling the milk in D 144
hamper of food to D 144
hammer to give it D 144
hammer the nail in D 144
hammer in hand to D 144
halide as well as D 144
hangars as well as D 143
hazard to dare or D 142
hazard of making an D 142
haunts the best of D 142
haunting me from the D 142
hauled up clear of D 142
hauled my dory to D 142
hauled it down at D 142
harden the body by D 142
handle the milk of D 142
handle the crop in D 142
hammer to mark the D 142
hacked it from the D 142
hazard or loss of D 140
hauled in when the D 140
harbor or along the D 140
handling of coal is D 140
handle the task on D 140
handle the pace of D 140
handle of horn or D 140
hamlet as part of D 140
haunts us like the D 139
haunts me even in D 139
hazard of life by D 138
hardly an acre in D 138
happen to suit us D 138
hammer to break in D 138
hamlet as early as D 138
halted at noon in D 138
havens as well as D 137
hailed at home as D 137
hardly the peer of D 136
harbor he says he D 136
harbor at dawn on D 136
handling of coal at D 136
handed the writ to D 136
hazard to those in D 135
handling of coal in D 135
hazard of taking the D 134
hauled by three or D 134
handling the wheat in D 134
handle the guns in D 134
handed the fork to D 134
hammer it into my D 134
hamlet to come to D 134
hamlet is seen as D 134
halter is made of D 134
hatching by means of D 133
handling of milk at D 133
hailed in turn as D 133
haunting me like an D 132
hardly so tall as D 132
harbor or into the D 132
harbor is shut in D 132
hamper of wine to D 132
hamlet we find the D 132
hailed the ship in D 132
hazard of loss in D 130
hazard of bringing the D 130
hazard it upon the D 130
hazard it among my D 130
hauled the wheat to D 130
hatching is done in D 130
harass the army by D 130
handling the media in D 130
handle the filing of D 130
handed the pail to D 130
hailed the omen as D 130
haunts me like the D 129
hasten to make thy D 129
harrow as soon as D 129
haunting the gate of D 128
hauled to town in D 128
harped in hall or D 128
happen to hull in D 128
handed the disc to D 128
hacked the body of D 128
hazard to lift up D 127
hazard in such an D 127
hazard as soon as D 126
hardly the cream of D 126
harbor to meet us D 126
harbor to keep the D 126
handle the ball or D 126
hammer is said to D 126
halide to give the D 126
hailed the rule of D 126
haunts the mind as D 125
hatching of some of D 125
harden the heart as D 125
hauled by road to D 124
harden the tips of D 124
harbor is made by D 124
harass the line of D 124
hansom to dine on D 124
handling the crop in D 124
handling of cars by D 124
handed the rock to D 124
hamper of game to D 124
hammer to nail the D 124
hammer to make an D 124
hailed the case as D 124
hauled the wind on D 122
hatred it bears to D 122
hasten to throw it D 122
happen to throw the D 122
handling the hilt of D 122
handed the wand to D 122
handed the bulk of D 122
hamlet of huts or D 122
hamlet is seen to D 122
halide to give an D 122
hailed by those on D 122
hailed by some in D 122
haunting as well as D 121
handle at least as D 121
haunting the drear of D 120
hauled up during the D 120
hasted to speak to D 120
handling the milk of D 120
handed the sheaf to D 120
handed the pack of D 120
hamlet the rest of D 120
habits of ants in D 120
handle the crop of D 119
hamper as much as D 119
hazard to health as D 118
haunts the site of D 118
hauled the bulk of D 118
hauled as soon as D 118
hangers to hold the D 118
handling the guns of D 118
handling the crop is D 118
handling the ball or D 118
handle the tool in D 118
handle the media in D 118
handed the rein to D 118
hammer in kiss me D 118
halted the bulk of D 118
harden as much as D 117
handle the boat as D 117
hazard in taking the D 116
haunts the edge of D 116
haunts it like an D 116
handle the wave of D 116
hammer to free it D 116
halted by news of D 116
hazard my life by D 114
haunts the back of D 114
hauled the dinghy up D 114
hardly the least of D 114
harbor is also the D 114
happen to dine in D 114
handling the milk is D 114
handle the sale or D 114
handed my wife the D 114
hamper thy rise in D 114
hammer to keep the D 114
hammer of wood or D 114
hazard as early as D 113
hazard the name of D 112
hauled the rope in D 112
hauled the length of D 112
hasten to laud the D 112
harped on none of D 112
harbor in time of D 112
handle the glut of D 112
handle as thick as D 112
hammer it over the D 112
hammer is held at D 112
hailed the hero of D 112
haggling is part of D 111
hauled us over to D 110
hauled me from my D 110
handed the lute to D 110
hamlet is told by D 110
hailed me thane of D 110
hamlet to think of D 109
hazard to those he D 108
hazard so rash an D 108
hazard in many of D 108
handling the iron at D 108
handle the timing of D 108
handed the soap to D 108
handed the milk to D 108
hammer to keep it D 108
hamlet is only the D 108
hailed by those of D 108
hammer the heads of D 107
hamlet as soon as D 107
hazard of losing so D 106
haunts he left so D 106
hauled me down the D 106
hasten the pace at D 106
harbor up into the D 106
handling the task at D 106
handed the cord to D 106
hammer to reach the D 106
hammer to kill the D 106
hailed the fact of D 106
haunting the site of D 104
hauled up some of D 104
harbor is part of D 104
harbor in line of D 104
harbor as much as D 104
harass as much as D 104
happen to stir up D 104
happen at least as D 104
handling of eggs in D 104
handling at least the D 104
handle the theme in D 104
handle the task or D 104
handed the card of D 104
hazard the truth is D 103
hazard of lack of D 102
haunts so many in D 102
hauled it home on D 102
hauled in bulk to D 102
harden as hard as D 102
happen to spot it D 102
handling the guns in D 102
handle the tons of D 102
handle the hilt of D 102
handle or knob is D 102
handed the vote to D 102
handed the comb to D 102
hamper the rest of D 102
hammer on your toe D 102
hammer as much as D 102
hamlet is just as D 102
halter to hide it D 102
hailed the union of D 102
hazard as part of D 101
hauled it back on D 101
harden my heart as D 101
handling of wheat in D 101
hauled by gangs of D 100
hatching is done by D 100
harrow to break the D 100
hardly the soul of D 100
hardly be paid by D 100
hammer is held by D 100
hailed the reading of D 100
hacked the body in D 100
hazard by making the D 98
hauled it back in D 98
hatred doe what he D 98
hardly the sole or D 98
harden the heart so D 98
harden the film by D 98
harbor in what is D 98
handle the news in D 98
handed the pearl to D 98
handed the guns to D 98
hammer to cock it D 98
hammer is part of D 98
hamlet is back in D 98
halide is used as D 98
hailed the step as D 98
hailed by name by D 98
hailed as lord of D 98
hazard the loss or D 97
harbor the germ in D 97
hazard to health if D 96
hazard or risk is D 96
hazard in much of D 96
hasten on deck to D 96
harder to stir up D 96
harden to form an D 96
harden the edge of D 96
harbor is free of D 96
happen if news of D 96
handle the hiring of D 96
hamper the life of D 96
hammer to lift up D 96
hammer is seen to D 96
hamlet he shot up D 96
hatching as early as D 95
harder to rein in D 95
hazard to self or D 94
hazard of leaving it D 94
hatred is akin to D 94
hardly be flat in D 94
harbor to make it D 94
happen to ride in D 94
handling of news is D 94
hamper the birth of D 94
hailed by those in D 94
hazard the taking of D 93
harrow the heart of D 93
harlot as well as D 93
harder to spot by D 93
harbor the bulk of D 93
hazard of taking it D 92
hauled to town by D 92
hauled the cane to D 92
hauled by cart to D 92
hasten on foot to D 92
harped on what he D 92
harder to spot on D 92
harden as part of D 92
harbor or wink at D 92
handling the ball at D 92
handed the pope the D 92
hammer is free to D 92
halted to scan the D 92
haggling or even go D 92
handling of coal or D 91
hailed to come on D 91
hazard of fire to D 90
hazard is used to D 90
hazard is made by D 90
hazard in time of D 90
haunts us even in D 90
haunts the realm of D 90
harden the heart or D 90
harbor or from the D 90
happen to john if D 90
handling the coal at D 90
handed the suit to D 90
hammer to dash in D 90
hammer he held in D 90
halted to noon in D 90
halted to gaze on D 90
hailed the bird in D 90
hailed as their king D 90
habits as tend to D 90
hazard in making the D 89
hasten to throw the D 89
hazard the sale of D 88
havens of peace in D 88
haunting the heart of D 88
hauled the fish in D 88
hardly to stir the D 88
harden the body of D 88
harbor so much as D 88
happen to hook up D 88
hangman to burn it D 88
handling the crop to D 88
hamper the play of D 88
halter as soon as D 88
halted to camp at D 88
halted the pace of D 88
hailed the coup as D 88
harbor at noon on D 87
hammer to pick up D 87
hazard in areas of D 86
havens of rest in D 86
haunts of game in D 86
hauled on deck at D 86
hauled it upon the D 86
harrow is used in D 86
harder to spot as D 86
harder to drum up D 86
harbor to save the D 86
harbor is from the D 86
handle the milk or D 86
handed the loaf to D 86
hamper the goal of D 86
hammer in hand he D 86
hammer at work on D 86
hamlet is seen in D 86
hailed the peace of D 86
hailed the boat to D 86
hazard to fish or D 84
hazard the good of D 84
hauled the milk to D 84
hauled the fish to D 84
hauled the dirt to D 84
hauled the cars to D 84
hauled as hard as D 84
hasten the curing of D 84
hardly the skin of D 84
harden the skin by D 84
happen to spot an D 84
hangers by means of D 84
handle the firing of D 84
handed the cone to D 84
hamper the kind of D 84
hamlet or town of D 83
hazard to life on D 82
hazard of bringing on D 82
haunts of most of D 82
hauled it away on D 82
harlot is said to D 82
harbor to view the D 82
harbor or port in D 82
harass the city of D 82
handling the coal is D 82
handling of cars to D 82
handle the sale in D 82
handle or hilt of D 82
handed the eggs to D 82
hamper the work in D 82
hamper the will of D 82
hamper as soon as D 82
hammer to hold the D 82
habits of bees or D 82
hazard or rate of D 80
hazard of losing in D 80
haunting the edge of D 80
hauled us down to D 80
hauled the canoe to D 80
hauled me away to D 80
hauled by hand or D 80
harden the army by D 80
harbor or tied up D 80
harass the soul of D 80
handling the milk at D 80
handle to spin the D 80
handle the laws of D 80
handed to slay the D 80
handed the tray of D 80
hammer to nail up D 80
hailed the page as D 80
hailed the boat as D 80
hatching or birth of D 70
happen to mess up D 70
harbor the wish to D 65
happen to slip in D 61
harbor the kind of D 59
hauled me back up D 57
hatching to show the D 56
hauled the fish up D 55
handling the ball as D 51
hammer to rest on D 50
hazard it must be D 48
hauled the sail up D 48
hauled as taut as D 48
hatching of eggs to D 48
harbor the soul of D 48
hamlet the name of D 48
haunts of vice as D 46
hasten to bathe thy D 46
handle the task as D 46
harbor the name of D 45
harbor the germ of D 45
halter as well as D 45
haunts the tomb of D 44
haunts the text as D 44
hamlet to kill the D 44
hauled by hand up D 43
harrow as well as D 42
handle the news as D 42
harrying the land as D 41
handle the ball so D 41
hailed as full of D 41
hazard the wrath of D 40
haunts the text of D 40
harder the soil the D 40
hamlet we came to D 40
