according as it is M 113831
account of it in M 69167
account is to be M 55434
account of it is M 38877
according to the king M 31475
account of it to M 30814
account of the king M 30084
according to the so M 18391
account of in the M 16367
according to it the M 15771
according as he is M 14802
account of it as M 12280
account is in the M 10167
according to the the M 8571
account of it by M 7877
account of the so M 7652
accused is to be M 7270
according to the by M 7178
accused the king of M 6720
accepting it as the M 6666
account as of the M 6244
account so as to M 5778
account to the king M 5242
accrued up to the M 4966
account up to the M 4876
account of or in M 4705
accepting it as an M 4702
account of by the M 4443
account as to the M 4261
account of it at M 4234
achieve it in the M 4232
accepts it as the M 4140
account if it is M 3692
according to the in M 3643
account it is the M 3527
according to it is M 3470
account of the thing M 3416
acquire it in the M 3316
account as it is M 3223
according to in the M 3124
account or in the M 3020
accepts it as an M 2964
account of it the M 2953
account to be the M 2816
account of the the M 2797
accrued as of the M 2678
account is by no M 2667
account as if it M 2548
account is on the M 2519
account is of the M 2336
according to the thing M 2334
account or to the M 2332
account of us as M 2251
account of it on M 2224
accused me of the M 2222
account of it he M 2147
accepts us as we M 2138
accepting it in the M 2134
account of in my M 2002
according to is the M 1994
accrued to the king M 1962
account of the in M 1919
according to me the M 1878
accused as to the M 1860
account of it be M 1781
account as in the M 1774
according to to the M 1766
account of it we M 1754
according as the thing M 1684
accused to the king M 1638
accepting it as it M 1636
accused by the king M 1604
according to the of M 1572
accepts it in the M 1544
according to it we M 1510
acquire it by the M 1506
account it is to M 1474
achieve it by the M 1466
according to the no M 1448
achieve it is to M 1420
account or as an M 1415
according to us the M 1340
account of me as M 1328
according to it he M 1325
accrued to or in M 1298
accuses the king of M 1290
according to it in M 1287
accused if he is M 1278
account of the tea M 1267
accused or by the M 1262
account or on the M 1259
account to go to M 1242
academy is to be M 1238
account to be in M 1235
account of is the M 1228
according as in the M 1216
achieving it in the M 1198
according to of the M 1190
account it to be M 1185
accused me of it M 1168
according as we do M 1152
accused is in the M 1146
according to the on M 1137
according to me it M 1116
academy or in the M 1100
account to me of M 1073
accused or of the M 1054
acquire it at the M 1028
accepting it on the M 1016
accused of it by M 996
according as the king M 994
according to an in M 966
according to the us M 965
achieve if it is M 954
account of of the M 951
achieve it at the M 934
account of the ring M 934
accused of in the M 924
account it is of M 908
according to the up M 908
accused me to the M 890
according to me is M 888
acquiring it in the M 886
according to the is M 881
account to do so M 872
account of the of M 862
account is to the M 855
account is at the M 854
accused of by the M 848
according to if the M 848
account or as the M 842
account of it or M 836
according to the as M 832
account if he is M 814
account is by the M 780
according to the it M 773
account as at the M 765
according to the to M 764
accused to be the M 756
account of at the M 749
accepts it as it M 742
achieve is to be M 736
account of it if M 736
according to on the M 734
account as on my M 727
achieve it is the M 722
account as if he M 702
account is he to M 698
accused so as to M 684
account as if the M 679
account to be an M 677
academy is in the M 662
according to the ring M 657
accepts it on the M 656
according to or in M 648
according to the pi M 642
accrues to the king M 639
according to the me M 636
account or to an M 635
account it is an M 630
accrued to it in M 620
account of it so M 613
according as to the M 606
account or by the M 602
according to the at M 601
achieve as it is M 600
achieving it is to M 598
accused me to my M 594
account by the king M 594
accepting it at the M 594
according as is the M 588
accused of it in M 580
according to us is M 576
account is in no M 574
accused is or is M 566
account or of the M 560
accused me of an M 552
achieve up to the M 542
accused me in the M 542
account of me in M 535
according to us in M 520
accused or to the M 516
acquire it on the M 512
account of up to M 510
account it is in M 506
according to the ca M 503
achieve it is by M 502
accepting the king of M 500
achieve it on the M 498
accuses me of the M 496
accrues as of the M 484
according to us it M 484
account he is to M 481
account in it of M 476
acquire if he is M 474
account is it to M 473
account to be of M 472
according to it an M 468
account of or to M 466
account of on the M 464
acutely as in the M 462
account is of no M 458
account to go on M 445
accepting it if it M 444
acquire to us the M 443
account or if the M 438
according to the an M 437
according to the or M 433
account of to the M 432
account it is so M 432
according to if we M 430
account to me in M 426
account as on the M 426
according to it no M 424
acquire it is to M 420
account is of an M 420
academy as to the M 420
accepting it by the M 418
according to it as M 414
account of the on M 410
academy or to the M 408
acquire it as the M 406
according to the id M 404
accrued to it by M 398
achieving it is the M 396
accepting as we do M 394
account or at the M 393
achieve it if we M 392
according to the he M 392
account as to be M 391
academy or of the M 390
academy as it is M 388
account is up to M 384
according to as the M 384
achieve if he is M 382
account of or by M 380
account to be as M 371
account of the by M 366
account of if we M 362
account of the no M 358
academy to be the M 358
accepts it as he M 354
accepting it to do M 354
academy is on the M 354
according as by the M 352
according to an on M 349
account of in an M 346
acquire it if he M 342
accrued to it as M 342
account the king of M 342
according to the en M 340
accepts me he or M 340
accrued if it is M 336
acquire so as to M 334
acquire it as an M 332
account to us of M 331
account he is the M 329
accepting the king as M 328
account to be so M 327
accrues to us as M 324
accrues to it by M 323
achieve it in an M 320
according to it if M 316
account of us to M 314
account of the to M 314
account go to the M 314
account up to an M 310
account it is no M 306
accepting me as an M 306
accepting it is the M 306
accused is on the M 302
acquire if it is M 300
account or to be M 300
accrued to us in M 296
account as he is M 295
achieve it to the M 294
accused in the king M 294
accused to be in M 290
according to at the M 290
accepting it to be M 290
academy as in the M 290
acquiring it by the M 288
achieving it by the M 288
account it is by M 288
according to it to M 288
according to the wing M 281
acutely as if it M 276
account is in my M 274
according to it or M 270
accused us of the M 268
account to be at M 268
account is in an M 264
academy so as to M 264
academy or by the M 264
account or in an M 263
acquiring it at the M 262
accepting to be the M 262
accused if it is M 260
account of he is M 258
accused to be an M 256
account of the as M 256
acutely so in the M 254
accused of the king M 254
account of me to M 252
account of the my M 249
acquire by it is M 248
achieving it at the M 248
accused or on the M 248
accused by it of M 248
account is by an M 248
accrues to it in M 247
accepts it if it M 246
accused is at the M 244
account if he or M 244
accepting me as the M 244
accepting it as he M 244
account as is the M 243
account of the via M 242
account of it it M 242
according to the am M 242
according as he or M 242
account in or in M 240
account be in the M 238
accepts it as if M 238
according to the if M 237
accused as if he M 236
account of the up M 235
acquire it is by M 234
account of as the M 233
accuses me of an M 232
accused to go to M 232
accused of is the M 232
account of the wing M 232
according to the via M 230
accrued to us by M 228
account of an in M 227
acquire it in an M 226
accuser is to be M 226
accepting it as if M 226
according to the eat M 225
account in the so M 224
academy up to the M 224
academy or at the M 224
accused or by an M 220
accused as if the M 220
according to the tea M 220
according as he in M 219
achieve it is an M 218
accused to do so M 218
account if on no M 218
accused if he or M 216
account of to be M 216
account it is as M 216
according to an as M 216
accepts it at the M 214
according to an at M 213
acquire it or to M 212
achieving it is by M 212
achieve it if the M 212
accused to be of M 212
accused by me of M 212
according to the em M 212
accepts it to be M 212
acquire it if it M 210
accused is of the M 210
account of it up M 210
according as it be M 210
account to be on M 207
account of us if M 206
account of the he M 206
account of it an M 206
achieve it if he M 204
accepting us as we M 204
account on to the M 202
accepting of it as M 201
acquire as it is M 200
achieve it by an M 200
account it is at M 200
account in the king M 198
according to it by M 198
account by me of M 195
accrued to me as M 194
accused or in the M 192
accepts it to the M 192
achieve so as to M 190
accepts of it in M 190
acquire it to the M 188
accused in it of M 188
accrued to or to M 188
account of it of M 188
accepting of me as M 188
account to do it M 187
account of or on M 187
acutely as if he M 186
achieving up to the M 186
achieve it as the M 186
according as at the M 184
accepts us in the M 184
acquiring it is to M 182
accused it of the M 182
accused as it is M 182
account or by an M 182
account of the an M 181
account is it in M 180
account in on the M 180
academy be in or M 180
account of as to M 178
according to by the M 178
achieving it on the M 176
achieve it or to M 176
account is the thing M 176
acquire it is the M 174
achieve is in the M 174
according to or by M 172
acquire is to be M 171
accrues to us in M 171
acutely as we do M 170
acquire as to the M 168
accessing it in the M 168
academy is of the M 168
accessing the king in M 164
accepts of it as M 164
account or on an M 163
account he is in M 163
achieving it to the M 162
accused me of is M 162
accrued to me in M 162
account in it in M 161
acquire it if the M 160
accused of at the M 158
accused by us of M 158
accepts to be the M 158
accused up to the M 156
accrued to us as M 156
account to it of M 156
account of the is M 155
acquire it in so M 154
acquire it at an M 154
account is the so M 154
according to the be M 154
accessing it at the M 154
accepting me in the M 154
account or if it M 152
accepts us on the M 152
accepts it he is M 152
accepting it to the M 152
account of the at M 151
achieve the thing he M 150
achieve in it the M 150
accuser as to the M 150
accessing it via the M 150
accepting it or by M 150
according to the nth M 149
accepting it is to M 148
acquiring it is the M 146
accused as he is M 144
account or as to M 144
according to it at M 144
account to do the M 143
accused as in the M 142
according it to the M 142
accepting of it in M 142
accused is in no M 140
accrues to us by M 140
accrued so as to M 140
account of by an M 140
accepting me to be M 140
accused me of so M 139
acutely or in the M 138
achieve or to be M 138
accused to do the M 138
accused of it is M 138
account in it by M 138
achieve as in the M 136
account to me or M 136
account as we do M 136
accepting it if the M 136
accused in the so M 135
account to me as M 135
account if it be M 135
achieve it in my M 134
achieve it as an M 134
accused it of an M 134
account of if the M 134
according as we go M 134
accepts me as an M 134
according to an up M 133
acquire it by an M 132
accused us of an M 132
academy is by no M 130
account of or as M 129
acquire it so as M 128
acquire it if we M 128
achieve by it the M 128
accused to be at M 128
academy is to the M 128
acquire up to the M 126
according to king the M 126
acquiring it on the M 124
accuses me of it M 124
accrued by or on M 124
account to be no M 124
account is or is M 124
account if we do M 124
account as he or M 124
accused me of in M 123
account is at an M 122
according to the we M 122
account by the so M 121
accused be of the M 120
accrued is to be M 120
accepting it as my M 120
acquire it as he M 118
account of me the M 118
accepting of the king M 118
academy at sing sing M 118
account to us in M 117
account as of no M 117
achieve if he or M 116
account of we do M 116
account of me is M 116
account is to go M 116
account by us in M 116
accepting to be my M 116
accused me at the M 114
account or by me M 114
academy to be an M 114
accused of it to M 112
accused me of my M 112
account us to be M 112
accepts the id of M 112
account of the or M 111
achieve if we do M 110
accrues to it as M 110
account of as in M 110
account is to he M 110
according to is an M 110
academy to go to M 110
academy by the king M 110
accused of it as M 109
account it as an M 109
accused or as an M 108
accrued to me by M 108
acutely as it is M 106
achieve it as at M 106
accused of as the M 106
accused as if it M 106
account as we go M 106
according to as it M 106
accepting he is of M 106
acquire is in the M 105
account it to the M 105
acutely as on the M 104
acquiring it to the M 104
acquiring it is by M 104
achieve as he is M 104
account it to us M 104
account to me at M 103
account of it no M 103
account of me it M 102
account of he do M 102
according to to be M 102
accepts it as of M 102
accepting it he is M 102
account of it do M 101
accuses it of the M 100
accused or as to M 100
accrued or in the M 100
according to up to M 100
according to it be M 100
achieve is of the M 98
accused of is of M 98
accused go to the M 98
account of the us M 98
account by it in M 97
accuser or on the M 96
account of me he M 96
account of if it M 96
according to me in M 96
accepting it as is M 96
accepting it as in M 96
account up on the M 95
accused us in the M 94
accused if he be M 94
account of us at M 94
account in it at M 94
accepting of us as M 94
according to the lo M 93
accused or if the M 92
accrued as to the M 92
account of us in M 92
account of is an M 92
account of as an M 92
account is on an M 92
account is in so M 92
according to be the M 92
accepts it by the M 92
accepting it in an M 92
account to go in M 91
accuses me to the M 90
accused me to be M 90
account is to do M 90
academy is at the M 90
account is so at M 88
according it in the M 88
accessing it on the M 88
accused us of it M 86
accused is of no M 86
account to go up M 86
account so it is M 86
according the to the M 86
accepts to do so M 86
acquiring it as the M 84
acquire as we go M 84
achieve is at the M 84
accuses us of the M 84
accused me of no M 84
accused be in the M 84
accrued to it if M 84
according to me he M 84
according as he be M 84
accepting it if he M 84
according to the do M 83
accused of the so M 82
accused of by us M 82
according to it of M 82
accepts it as is M 82
account in the the M 81
account of the woe M 80
account of me or M 80
account of is in M 80
account of if he M 80
account is to us M 80
account is it the M 80
accepting us in the M 80
account be at the M 77
account of my so M 64
account of the do M 55
account to me on M 52
accused if he so M 50
account in it as M 49
account to us as M 48
account of the be M 48
account of the id M 46
account or if he M 45
account to us or M 44
account to me is M 43
account it is on M 43
account to me if M 40
acceded to by the D 20790
account of the sea D 6087
according to the ad D 3864
according to the ms D 3306
account of the re D 3140
according to the ex D 2357
according to the re D 1964
acceded to it of D 1926
according to the sea D 1630
according to the la D 1463
acceded to on the D 1444
account of the ms D 1384
according to an ex D 1290
according to the doe D 1280
acceded to in the D 1052
according to an ad D 1049
acceded to it in D 1022
account of the ex D 1014
according to the ion D 904
acceded to the king D 864
according to the ta D 779
according to the ear D 614
acetate is to be D 612
account of the la D 609
acceded to it on D 602
according to the rs D 540
account of the ear D 528
according to the dc D 490
acidity is to be D 462
accosting me in an D 456
acclaim it as the D 449
according to the pa D 428
account of the ad D 422
according to in re D 407
according to the ma D 357
acetate ion is the D 353
acceded to at the D 348
academia or in the D 348
accosts us in the D 324
acceded to it by D 324
acetone is to be D 322
actuate us in the D 312
account of an ex D 282
aconite is to be D 270
accords it to the D 270
acceded to it at D 270
acetate ion in the D 266
accosting me in the D 258
account by an ex D 249
according to my ex D 240
acetate is in the D 220
according to the bi D 211
actress in the king D 210
acquits the king of D 210
acidity is in the D 210
acceded to as the D 210
actress at the king D 208
acceded to by me D 206
acceded to it as D 202
according as the sea D 201
according to the er D 200
accords to it the D 199
accedes to it the D 198
acquits me of the D 196
accents as in the D 181
accrual is to be D 180
acetate as in the D 179
accused the pa of D 174
actress is to be D 170
account to be re D 167
acrylic is to be D 164
actuary as to the D 162
actress to be the D 156
actress as it is D 156
accosting it as if D 156
acidity of the oh D 152
acceded to by us D 152
accents so as to D 148
acetate so as to D 144
account of the ion D 143
account of the bi D 142
actress to be so D 140
acetate ion or the D 140
actress is in the D 138
acceded to on my D 138
actress of the king D 136
according to the cs D 136
acidity of the sea D 133
according to the ls D 129
acidity up to the D 126
accosts me in the D 122
according as the ion D 120
account in the ms D 116
according as the ear D 116
acceded to by an D 116
academe or in the D 116
account of an ox D 114
acetate to be the D 111
according to my ear D 110
according to the ti D 108
according to the ho D 107
accents of the king D 106
according to the ts D 103
acquits me of it D 102
acidity so as to D 102
acetone so as to D 102
acetate as it is D 102
according to the roe D 102
acceded to by at D 98
account of the ox D 92
account of my sea D 91
actuary or by the D 90
academia as it is D 90
academia as in the D 88
account in the re D 87
acetone is in the D 86
acetate or of the D 84
accents is to be D 84
acidity or to the D 82
accents to the ear D 82
acceded to if the D 82
acquits us of the D 80
according to the mi D 58
acetate ion on the D 47
