aid and advice . M 6132
air they breathed . M 5424
air has weight . M 4746
air she breathed . M 3988
aim and object . M 3466
aid one another . M 2794
air and manner . M 2024
air and ground . M 1976
aid was needed . M 1878
air can escape . M 1814
air bag system . M 1284
aid and relief . M 1204
air out slowly . M 1174
air all around . M 1161
air one breathes . M 1086
air with melody . M 984
air was cleared . M 858
aid his escape . M 858
air she breathes . M 844
air and smiled . M 844
air and liquid . M 820
aid was sought . M 792
aim and spirit . M 776
aid his memory . M 754
air and waters . M 726
aid and training . M 706
air had weight . M 636
air one breathed . M 582
air had changed . M 574
air was better . M 560
air has weight ? M 556
aim and effort . M 534
air had cleared . M 522
air you breathed . M 498
aim and effect . M 491
aim was unerring . M 482
air and clouds . M 464
aim was better . M 464
aid and blessing . M 453
aid his friend . M 445
air may escape . M 440
air has access . M 430
air and spirit . M 428
aid and grants . M 425
aim and methods . M 419
aim and desire . M 417
aid and credit . M 415
aid and safety . M 412
air was silent . M 408
aid and rescue . M 396
air was passed . M 394
aid and assist . M 387
aim and design . M 380
air was filled . M 378
air one degree . M 376
air bag module . M 366
aid this effort . M 355
aid for relief . M 345
air and aspect . M 340
aid her escape . M 334
air was clearer . M 332
air than before . M 324
aim and intent . M 316
air with curses . M 314
aid his family . M 314
air with relief . M 310
air and waited . M 310
air are needed . M 300
air each minute . M 298
air was needed . M 296
aid they needed . M 294
air and laughing . M 290
air and energy . M 288
air and safety . M 280
air and burned . M 278
aim was simple . M 274
air for relief . M 268
air has cleared . M 264
air men breathed . M 263
air and access . M 256
air and streams . M 252
aid his brother . M 250
aim and result . M 244
air and vanish . M 242
air had become . M 240
air long enough . M 237
aim was reached . M 236
air and listen . M 234
air and caught . M 228
air are bodies . M 216
air and person . M 212
aid had failed . M 202
air was played . M 200
air for effect . M 200
air are common . M 196
air and fluids . M 194
air act passed . M 194
air has changed . M 192
aim and object ? M 189
air was bright . M 178
air she needed . M 175
air are formed . M 172
air was forced . M 170
air that enters . M 164
air and fields . M 164
air was escaping . M 162
air than normal . M 160
air for awhile . M 160
aid she needed . M 159
aid him greatly . M 158
air and burden . M 156
aid him therein . M 156
aid him further . M 156
aid was denied . M 154
aim was higher . M 150
air his feelings . M 146
air and yelled . M 146
aid has failed . M 144
air can absorb . M 142
air for starting . M 140
aid and strength . M 140
air and colour . M 136
aid they sought . M 136
air being breathed . M 135
air for speech . M 134
aid and advise . M 134
aim and reward . M 132
air was breathed . M 130
air and plants . M 128
aim and waited . M 128
aid and reform . M 128
air and shadow . M 126
aid you greatly . M 126
air with fright . M 124
air and killed . M 124
aim and summit . M 124
aid her memory . M 124
air this summer . M 120
air they needed . M 120
air that summer . M 118
air and turned . M 118
aid for cities . M 118
air and nature . M 112
aim was profit . M 112
aid his master . M 112
aid its recall . M 110
aid his attack . M 110
air than common . M 106
aid was nearest . M 106
air was changed . M 104
air all summer . M 104
aid and favour . M 104
air was milder . M 102
air and heavens . M 102
aim and mission . M 102
air for safety . M 100
air too freely . M 98
aid can arrive . M 98
air for something . M 96
air any minute . M 96
air and escape . M 96
aid and supply . M 96
aid this result . M 95
air was secret . M 94
air was reached . M 94
aim for itself . M 94
aid than before . M 94
aid our escape . M 94
aid her family . M 94
aid are needed . M 94
aim and origin . M 93
air was formed . M 92
air was absent . M 92
aid our memory . M 92
aid her brother . M 92
air than adults . M 90
air has become . M 90
air and figure . M 90
aid was wanted . M 90
aid this effect . M 89
aid that effort . M 89
air long before . M 88
aid you therein . M 88
aim any higher . M 87
air each second . M 86
air and disease . M 86
aim was changed . M 84
air was created . M 82
aim now appears . M 82
aim and nature . M 82
aim was obvious . M 80
aim but itself . M 80
air her feelings . M 48
air dry weight . M 43
