aids has had a M 1152
aids was not a M 998
aids are not a M 432
aiming for was a M 368
aims and with a M 198
aide and now a M 194
aide who was a M 174
aims and for a M 148
aide who had a M 104
aids and has a M 102
aids them with a M 98
aims and not a M 94
aids and that i M 89
aims are not a M 86
aids who had a M 86
aims but with a M 80
airy and had a D 150
aiding him with a D 120
ailing man with a D 118
ailing pig and i D 100
airy and has a D 94
aiding them with a D 84
airy and with a D 82
