aims at being a M 6268
aids is not a M 5786
aiming at being a M 1058
aiming at was a M 768
aiming to get a M 744
aims to bring a M 678
aims to get a M 670
aids is now a M 580
aims to put a M 515
aims to set a M 437
aims to use a M 385
aims is not a M 378
aids is both a M 260
aims to add a M 244
airs of being a M 242
aims to lay a M 232
aiming to win a M 210
aiming to put a M 194
aiming at him a M 158
aiming to set a M 150
aims to win a M 131
aids by using a M 130
aiming to bring a M 124
aims at using a M 110
aiming to lay a M 108
aids as being a M 108
aims of being a M 106
aims at both a M 106
aids as both a M 104
aims to earn a M 96
aide is not a M 96
aide to get a M 94
aims to lead a M 92
aiming at for a M 90
aims to buy a M 89
aiming to use a M 88
aiming to run a M 86
aims of using a M 84
aims to fit a M 52
ails me that i D 360
aiming to hit a D 148
aiding me with a D 82
