ask at this point M 20747
ask if she could M 15226
ask if they could M 15020
ask if you could M 9209
ask me for anything M 8478
ask me for money M 6288
ask if she might M 4608
ask if they might M 3864
ask at this stage M 3025
ask the old woman M 2106
ask if she wants M 2011
ask if you might M 1995
ask me that again M 1834
ask me out again M 1818
ask if you really M 1248
ask me all sorts M 1182
ask us for money M 1157
ask if she knows M 1000
ask at his hands M 814
ask me all about M 800
ask if they offer M 690
ask if they really M 624
ask it you again M 622
ask if she needs M 569
ask the air force M 540
ask of his father M 529
ask an old woman M 528
ask the old people M 518
ask to see proof M 516
ask of her father M 497
ask me that every M 496
ask the head nurse M 490
ask the man about M 480
ask if you still M 478
ask the red cross M 474
ask us for anything M 468
ask if her mother M 463
ask if they agree M 438
ask to see yours M 436
ask if they still M 410
ask if she really M 410
ask to see where M 408
ask me not about M 406
ask of any woman M 390
ask is that people M 384
ask if his father M 384
ask if she thinks M 382
ask the man where M 358
ask or say anything M 358
ask me that after M 358
ask me this morning M 352
ask me for proof M 352
ask the boy about M 334
ask if she still M 326
ask me things about M 322
ask if you agree M 318
ask if this could M 314
ask of you which M 310
ask of him anything M 298
ask us our names M 296
ask if her father M 295
ask to see anything M 294
ask at our hands M 290
ask of you today M 280
ask of any human M 277
ask if she feels M 272
ask me how often M 269
ask me things which M 268
ask of you anything M 266
ask at each stage M 266
ask me for dates M 264
ask if you shall M 262
ask if one could M 248
ask if she liked M 246
ask to hear about M 240
ask the team leader M 238
ask in this world M 236
ask if his mother M 236
ask the cat about M 234
ask me that about M 234
ask if you found M 232
ask in this paper M 228
ask at one point M 228
ask at that point M 220
ask if she likes M 218
ask the man whose M 216
ask if you liked M 214
ask me this again M 213
ask of any given M 212
ask the men about M 210
ask the boy where M 210
ash is then added M 206
ask me for water M 202
ask me why people M 198
ask to hear again M 192
ask me now about M 192
ask me that today M 190
ask us all sorts M 186
ask of them anything M 186
ask the boy anything M 184
ask me for names M 182
ask the two women M 178
ask it for money M 174
ask the two girls M 170
ask as you begin M 168
ask is that equal M 166
ask in this study M 166
ask in any given M 166
ask if this might M 166
ash of any known M 166
ask or are asked M 164
ask if you slept M 164
ask of this world M 162
ask is that every M 162
ask we our hearts M 158
ask of our reader M 156
ask is not which M 156
ask if you loved M 156
ask it for anything M 154
ask if they carry M 154
ask the new owner M 150
ask at all about M 148
ask of him again M 146
ask me not where M 146
ask at any given M 146
ask of that which M 144
ask in this place M 144
ask if they liked M 144
ask if she loved M 144
ask the old nurse M 142
ask me how could M 142
ask at any point M 142
ask me for books M 140
ask the two people M 138
ask of any people M 138
ask no man whose M 138
ask of him where M 134
ask me this slave M 134
ask at all times M 134
ask of you again M 132
ask me yet again M 132
ask if she cared M 132
ask me that which M 128
ask of her mother M 127
ask on this point M 126
ask if she minds M 126
ask us all about M 124
ask it for others M 124
ask it any longer M 124
ask if you belong M 124
ask the man sitting M 122
ask of any reader M 122
ask my two gifts M 122
ask if you wrote M 122
ask if this cause M 122
ash is then mixed M 122
ask of her which M 120
ask in this essay M 120
ask of our maker M 118
ask of each poetic M 118
ask of any group M 116
ask me who wrote M 116
ask if they found M 116
ask if any vital M 116
ask to see people M 114
ask of our father M 114
ask of her anything M 114
ask if you ought M 114
ask me this evening M 112
ask of his people M 108
ask my son about M 108
ask me ten times M 108
ask in all cases M 108
ask to try again M 106
ask the real reason M 106
ask of you after M 106
ask of him under M 106
ask me that night M 106
ask if you cared M 106
ask if this really M 106
ask of his mother M 104
ask my dead father M 104
ask is one which M 104
ask if that which M 104
ask the way again M 102
ask of any white M 102
ask the god about M 100
ask of god anything M 100
ask is not about M 100
ask is how often M 100
ask to see either M 99
ask of our people M 98
ask my own mother M 98
ash of this plant M 96
ask me six times M 94
ask if you please M 94
ask if its bearer M 94
ask me out after M 92
ask of you first M 91
ask the old women M 90
ask me for change M 90
ask in one sense M 90
ask as they begin M 90
ask the dear child M 88
ask me why again M 88
ask me this vital M 88
ask me for cleaning M 88
ask if any change M 88
ask at each point M 88
ask of you under M 86
ask if they shall M 84
ask if they serve M 84
ask to see again M 82
ask to her house M 82
ask if this grand M 82
ask of god power M 80
ask me for fifty M 80
ask in this sense M 80
ash in his hands M 45
ask if they would D 14648
ask if you would D 13512
ask if she would D 10713
ash of his cigar D 2921
asp to her breast D 1054
ash on his cigar D 921
ask me all kinds D 910
asp to her bosom D 662
ass in his hands D 494
ask of this court D 454
ask of this nation D 402
ask my mom about D 400
asp at her breast D 358
ask my dad about D 356
ask if this would D 336
ask if that would D 316
ask the vet about D 314
ass if she could D 221
ass in that chair D 208
ask of him would D 196
ash in hot water D 190
ass at all times D 178
ask if god would D 146
ask the old folks D 136
ass in his place D 134
ass in both hands D 130
ask us all kinds D 130
ask of you would D 130
ask if one would D 126
ass in one piece D 124
ask me for mercy D 124
asp at her bosom D 118
ask of any social D 116
ask me who would D 116
asp in her bosom D 112
ask on his knees D 110
ask my mom first D 110
ask is why would D 108
ask the tax court D 104
ask my god mercy D 104
ask the old chief D 102
ass is not gonna D 99
ass in this house D 98
ask at this level D 98
ass in hot water D 92
ass of his pants D 88
ass of her child D 86
ass in his state D 84
ass at this point D 82
ass at his worst D 80
ask if thou hadst D 80
