asking for his " M 718
asking him for " M 538
asking that they " M 468
asking for you " M 310
asks for his " M 280
asking them for " M 250
asking for her " M 228
asks that you " M 178
asks that they " M 168
asks him for " M 162
asks that god " M 158
asks that his " M 156
asks you for " M 148
asking that she " M 146
asking god for " M 138
asking for him " M 126
asking that god " M 122
asking for was " M 120
asking that his " M 108
asks that she " M 92
asks for her " M 92
asking for them " M 90
asking for any " M 90
asks god for " M 88
asks her for " M 84
asking who was " M 80
