asleep like that . M 795
aspect ratio wings . M 562
asleep over them . M 412
asleep just now . M 376
assert their own . M 358
asleep like this . M 250
asleep over him ? M 214
assets among them . M 200
asleep very long . M 192
assets upon death . M 184
asleep like that ? M 171
assets from them . M 170
assume over them . M 168
ascent more easy . M 146
asleep among them . M 132
assume these things . M 128
assert such things . M 126
ascent next day . M 116
assets last year . M 112
assert there are . M 108
assess these things . M 106
assume just that . M 98
assert these things . M 96
assert your own . M 92
assets were few . M 90
asleep just yet . M 90
asleep just now ? M 86
assume there are . M 82
assist these men . M 80
