side walls of the M 81893
single point in the M 25552
single point on the M 20928
sixth floor of the M 18447
side views of the M 15826
single point of the M 13746
side chain of the M 12787
single women in the M 12439
sixth power of the M 12140
sixth meeting of the M 12107
side close to the M 11210
single event in the M 11160
side edges of the M 10701
single party in the M 10530
single issue of the M 10334
single judge of the M 10256
single value of the M 9470
sick feeling in the M 9440
single units in the M 8785
site close to the M 8714
site where it is M 8625
single cells in the M 8621
size based on the M 8558
single group in the M 8306
size equal to the M 8160
single phase of the M 7684
sick people in the M 7646
size seems to be M 7582
single change in the M 7440
single cause of the M 7376
single image of the M 6766
side seems to be M 6132
single parts of the M 5941
side lines of the M 5907
site needs to be M 5750
single woman in the M 5596
sits alone in the M 5564
side where it is M 5475
single piece of the M 5438
single state in the M 5396
size needs to be M 5367
sick feeling in my M 5248
side light on the M 5135
sits close to the M 5052
size tends to be M 4922
single entry in the M 4912
sixth place in the M 4880
site based on the M 4834
single place in the M 4826
side chain in the M 4668
single layer in the M 4492
single visit to the M 4486
single force in the M 4484
single trace of the M 4438
site seems to be M 4398
single layer on the M 4364
single state of the M 4272
single layer of the M 4240
sixth verse of the M 4106
single cells of the M 4028
single event of the M 4016
single point at the M 4004
side equal to the M 3928
sick child in the M 3836
sits right on the M 3776
single action of the M 3776
single night in the M 3730
site known as the M 3529
side table in the M 3298
side which is the M 3160
single voice in the M 3128
single house in the M 3066
side until it is M 3030
sign change in the M 3021
single stage of the M 2996
single model of the M 2984
side motion of the M 2962
single verse of the M 2902
single click of the M 2892
side trips to the M 2850
single vision of the M 2834
sick child to the M 2826
single people in the M 2816
single cycle of the M 2810
side aisle of the M 2798
size model of the M 2780
single study of the M 2772
single light in the M 2762
single meeting of the M 2756
side thrust on the M 2712
single touch of the M 2658
single voice of the M 2596
single image in the M 2596
single error in the M 2560
single units of the M 2546
single cloud in the M 2482
size shown in the M 2458
side chain on the M 2406
single party of the M 2398
side which is to M 2379
side trail to the M 2376
single frame of the M 2370
single agent or in M 2346
single agent in the M 2332
sixth sense of the M 2318
size appear to be M 2314
side issue in the M 2287
sign given by the M 2283
single share of the M 2280
single opening in the M 2240
site visit to the M 2236
size found in the M 2191
sits alone on the M 2190
single motion of the M 2176
single group of the M 2164
single verse in the M 2130
single period of the M 2122
side issue of the M 2120
size until it is M 2108
single power of the M 2102
side thrust of the M 2096
single issue in the M 2086
site owned by the M 2081
single women of the M 2073
sits right in the M 2064
single stage in the M 2022
sick woman in the M 2000
side chain to the M 1998
side needs to be M 1997
site value of the M 1981
side walls to the M 1966
sixth share of the M 1964
side chain at the M 1959
size drawing of the M 1952
single plant of the M 1922
single class in the M 1920
side parts of the M 1914
size image of the M 1910
single words in the M 1904
size scale of the M 1876
size limit of the M 1852
single child in the M 1850
single class of the M 1848
sign either of the M 1834
side appear to be M 1831
sits alone at the M 1826
sign change of the M 1812
size equal to or M 1803
single block of the M 1786
single action in the M 1780
single track of the M 1770
site appear to be M 1745
size close to the M 1705
side resting on the M 1685
sick units in the M 1682
side walls in the M 1678
size class in the M 1668
single power in the M 1666
single click on the M 1666
single leader of the M 1662
sixth stage of the M 1660
single plant in the M 1658
single mother in the M 1644
single value to the M 1604
side issue to the M 1594
sixth round of the M 1593
single plane of the M 1590
sign seems to be M 1588
side which is in M 1580
single value in the M 1576
single night of the M 1560
size given in the M 1559
sign given to the M 1557
side looking at the M 1549
size ranges of the M 1542
sick people to the M 1542
single phase in the M 1540
side tends to be M 1534
side lengths of the M 1533
side while on the M 1515
single table in the M 1508
sick people to be M 1488
sixth lines of the M 1472
side views of an M 1472
side ought to be M 1470
size given by the M 1465
side chain of an M 1434
sixth books of the M 1430
single period in the M 1426
single chair in the M 1420
single place on the M 1416
size class of the M 1410
size ought to be M 1402
single house on the M 1394
single share in the M 1388
single block in the M 1388
single order of the M 1376
side walls at the M 1370
side nearly to the M 1350
single items in the M 1348
single judge in the M 1324
side opening of the M 1301
single night by the M 1276
single field in the M 1276
site given by the M 1273
single opening of the M 1262
single cells or in M 1258
sixth floor of an M 1254
single point to the M 1248
sign which is the M 1240
single piece in the M 1238
side aisle to the M 1231
sick people of the M 1224
site dates to the M 1219
single field of the M 1214
single claim on the M 1214
sick people on the M 1204
single opening to the M 1200
site visit by the M 1194
single enemy in the M 1188
single woman on the M 1174
sits looking at the M 1170
side known as the M 1145
single author of the M 1144
sixth issue of the M 1134
side nearer to the M 1127
sixth state of the M 1122
sits right at the M 1110
single women to be M 1098
single fault in the M 1096
side table by the M 1084
single lines in the M 1080
side posts of the M 1079
single women on the M 1078
single point in an M 1070
single night at the M 1070
site which is the M 1064
single track in the M 1030
side holes in the M 1009
single point to be M 1008
sign stuck in the M 1004
side walls on the M 1001
single thrust of the M 988
size which is the M 986
single opening at the M 984
single night on the M 976
single focus on the M 974
single actor in the M 974
single piece of it M 968
single change to the M 962
single layer in an M 960
single block on the M 960
sick child in my M 954
single light on the M 952
single focus of the M 952
side bands of the M 949
side shall be the M 946
sixth place on the M 944
single voice on the M 944
sixth child of the M 938
side refer to the M 924
single women at the M 920
single woman to be M 920
size shown on the M 918
single words of the M 908
sign needs to be M 906
site found in the M 904
single steps of the M 902
single doubt as to M 900
single plane in the M 898
side force on the M 894
sixth class of the M 892
single story of the M 882
site tends to be M 878
single cells or as M 876
side altar in the M 863
side steps to the M 861
single women to the M 858
single story in the M 858
sixth night of the M 856
single layer at the M 854
side frame of the M 854
side trail on the M 853
sixth share in the M 852
single lines of the M 850
single house of the M 850
size field in the M 846
side bending of the M 846
side comes to the M 844
side plane of the M 842
size occur in the M 838
single topic in the M 838
size holes in the M 832
single frame in the M 828
single author in the M 828
sick feeling at the M 828
size group in the M 826
sixth period of the M 826
side steps of the M 817
single proof of the M 812
single owner of the M 810
sign value of the M 806
side bending to the M 805
side rests on the M 802
site links to the M 799
sixth floor to the M 794
single point is the M 794
single notes in the M 792
single focus in the M 792
single paper in the M 790
single steps in the M 788
single block at the M 788
single joint of the M 786
side either of the M 784
single party to the M 778
sixth state in the M 776
sixth phase of the M 776
site ought to be M 776
single track on the M 770
single people of the M 768
size limit on the M 763
single asset of the M 762
sixth point of the M 760
single opening on the M 760
single force of the M 760
single notes of the M 758
single leader in the M 758
single cause to the M 758
single books of the M 758
single sound in the M 756
single value to be M 748
single space in the M 747
sixth floor in the M 744
side altar of the M 741
single sound of the M 738
side stream of the M 735
sits still in the M 734
site belong to the M 732
single woman of the M 732
single crack in the M 732
side while it is M 728
sixth story of the M 726
side based on the M 724
single woman at the M 722
size change in the M 720
side belong to the M 720
side loads on the M 717
single phase of it M 716
single image on the M 716
site types in the M 713
size where it is M 712
size appear in the M 712
single light of the M 710
single group on the M 708
side holes of the M 707
single round of the M 706
side which in the M 703
sits alone by the M 702
sign ruled by the M 699
sixth stage in the M 698
single entry on the M 698
single point on an M 696
single vision in the M 694
size alone is no M 693
site might be the M 688
site began in the M 686
single ruler of the M 686
side right up to M 685
single state to the M 684
site dated to the M 682
sixth layer of the M 680
single units or in M 680
single season in the M 674
single point of an M 674
single voice to the M 672
size which it is M 658
side track to the M 658
single slave in the M 656
single guide to the M 656
single evening in the M 656
side taken by the M 655
single items of the M 654
single event is the M 654
sign warning of the M 653
single trace of it M 646
site shown in the M 637
side shown in the M 635
single event in my M 634
sits smiling on the M 632
sick people at the M 628
sixth parts of the M 622
single layer on an M 622
single entry of the M 620
side walls of an M 620
single child of the M 618
single action by the M 618
site known to the M 616
single study in the M 612
single sitting of the M 604
single change of the M 600
single appeal to the M 600
side wants to be M 597
sick people go to M 597
single state on the M 596
single action on the M 596
side thereof to the M 595
site since it is M 594
single piece on the M 592
single knock at the M 592
single event at the M 592
single group is the M 586
side front of the M 586
side while in the M 584
side walls to be M 583
size field of the M 580
side opening in the M 579
sixth sense as to M 574
single error of the M 574
single action to be M 574
single unity of the M 572
single press of the M 570
side began to be M 570
side might be the M 564
side chain is the M 564
sixth sense in the M 562
single study on the M 562
single night to the M 562
side since it is M 561
side piece to the M 557
size shown by the M 556
single words or in M 550
site later in the M 548
single party on the M 548
sign since it is M 548
single light at the M 546
size option in the M 543
site could be the M 542
sick child or an M 540
site until it is M 539
sixth joint of the M 538
sign where it is M 537
sixth visit to the M 532
single trunk of the M 530
sick woman on the M 530
side group of the M 528
single order in the M 526
single cells to the M 526
sixth forms of the M 524
side piece of the M 523
size since it is M 522
side looking to the M 521
sixth group of the M 520
side which is of M 520
sick mother in the M 520
sign ought to be M 518
side where he is M 517
size alone of the M 516
single input to the M 516
single store in the M 514
single force at the M 514
side bands in the M 513
site known to be M 512
single relic of an M 512
side value of the M 512
size ranges up to M 510
size group of the M 510
site which is to M 510
site study of the M 510
site known in the M 509
single chain in the M 508
sick again in the M 506
sixth order of the M 504
single girls in the M 504
side looking up at M 502
side while at the M 501
single cause in the M 500
site which is in M 499
single voice at the M 498
sign which is to M 497
site added to the M 496
sick child to be M 496
side track of the M 495
single doubt of the M 494
single joint in the M 492
site shown on the M 491
single mother of an M 490
sick child at the M 490
side shift of the M 489
single season of the M 488
sick child on the M 486
single notes on the M 484
sign found in the M 481
single sense of the M 480
size change of the M 479
single paper on the M 478
single color in the M 478
single chain of the M 476
site sides of the M 474
single topic of the M 474
size class to the M 472
sign based on the M 472
single floor of the M 470
size image on the M 468
single whole in the M 468
single image of an M 468
sixth child in the M 466
site nearer to the M 466
single method in the M 464
side chain is an M 464
side while he is M 463
single light on in M 462
single group at the M 462
sick child of the M 462
side trips in the M 461
size fixed by the M 460
side chain by the M 460
sits smiling to my M 459
sixth stage is the M 458
single party is the M 458
single buyer in the M 458
size might be the M 456
single round in the M 456
side lines in the M 456
single quote in the M 454
side track at the M 453
single state by the M 452
single notion of the M 452
side walls or the M 452
single plant of it M 450
single lines on the M 450
single kingdom of the M 446
sick looking at it M 446
site where he is M 444
site began to be M 444
sick ought to be M 444
single price in the M 442
sick child or to M 442
single whole by the M 440
single trees of the M 440
single judge or the M 436
single cells or of M 436
single cells on the M 436
side seems to me M 436
side again in the M 436
sixth ruler of the M 434
single count in the M 434
size makes it an M 432
side which it is M 432
side which is so M 431
size which is in M 430
size known as the M 430
single point of it M 430
single event on the M 430
sixth sense is the M 428
sits alone in an M 428
single house to be M 428
side until he is M 425
sits again on the M 424
single value or an M 424
sick woman to the M 424
sixth order in the M 422
single essay on the M 420
single drawing of the M 420
side gates of the M 419
single engine of the M 418
sits still on the M 416
single track to the M 416
single method is the M 416
single agent of the M 416
single words at the M 414
single route to the M 414
single people on the M 414
single cloud on the M 414
side added to the M 414
side light of the M 413
single state or of M 412
single image to the M 412
single plant on the M 410
single asset in the M 410
side track in the M 410
single right of the M 408
size exist in the M 407
sign which is in M 407
sixth season of the M 406
side where the king M 406
sits smiling at the M 405
size while at the M 404
site visit of the M 404
single words to the M 404
single stage of an M 404
single dogma of the M 404
size appear on the M 402
single entry to the M 402
sick while in the M 402
size could be the M 400
single point as the M 400
single party is in M 400
side shows of the M 400
size value in the M 398
sign given in the M 398
size added to the M 396
sign added to the M 395
size piece of the M 394
single shift in the M 394
single units or as M 392
single judge or by M 392
single works in the M 390
single vowel at the M 390
single house at the M 390
size ranges in the M 388
single cells at the M 388
side which is on M 388
sixth months of the M 386
single river in the M 386
single model in the M 386
side waiting to be M 386
side alone of the M 385
sits waiting in the M 384
single layer or in M 384
size began to be M 382
single value as the M 382
single leader at the M 382
side comes to be M 382
side chair in the M 381
sits erect in the M 380
single value on the M 380
sits close to me M 378
single vowel in the M 378
single point as in M 378
sixth floor at the M 376
side which is at M 375
single tenet of the M 374
site plans of the M 372
single point is to M 370
single knock on the M 370
site right on the M 369
single force to the M 368
sign posts on the M 368
side board of the M 368
sits today in the M 366
site given to the M 366
side right to the M 365
single essay in the M 364
single whole of the M 362
single relic of the M 362
single issue to the M 362
side chain is in M 362
site visit is to M 361
sign known as the M 361
side walks of the M 361
single stream in the M 360
single space of the M 360
single force on the M 360
side altar to the M 360
single evening at the M 358
sign close to the M 357
size limit to the M 356
size limit in the M 356
site which is on M 356
single stream of the M 356
single click in the M 356
single adult in the M 356
side reaching to the M 356
side opening to the M 356
sixth house of the M 354
single parts of it M 354
single event as the M 354
single value at the M 352
sixth point on the M 350
sixth forms in the M 350
sign shown in the M 350
side track on the M 349
size which is so M 348
single state is the M 348
single place to go M 348
single count of the M 348
side holes at the M 348
single point as to M 346
single terms of the M 344
single cycle in the M 344
single cause of an M 344
single buyer of the M 344
side trips on the M 343
sits again in the M 342
size later in the M 340
single frame on the M 340
single filling of the M 340
size while in the M 337
side taken in the M 337
size after it is M 336
single trunk in the M 336
single trace in the M 336
single terms in the M 336
single method of the M 336
single cross in the M 336
side altar on the M 336
side aisle on the M 336
single state or the M 334
single pupil in the M 334
single bones of the M 334
size error go to M 333
side force of the M 333
sixth house in the M 332
single vision is the M 332
single trees in the M 332
single block to the M 332
sign fixed to the M 331
size until in the M 330
sits naked on the M 330
single party at the M 330
single deity of the M 330
side angles of the M 330
size could be as M 329
side chain or the M 329
size found on the M 328
sits again at the M 328
side entry to the M 327
size until at the M 326
single point in it M 326
side shall do so M 326
size model of an M 324
sixth notes of the M 324
single lapse in the M 324
single image to be M 324
sits waiting to be M 322
site which is at M 322
site after it is M 322
sign error in the M 322
single agent or as M 321
sixth weeks of the M 320
single enemy of the M 320
single error on the M 318
single engine in the M 318
single check to the M 318
single cases of the M 318
single unity in the M 316
single lines at the M 316
single issue to be M 316
single feeling in the M 316
side takes up the M 316
side looking on the M 316
size while it is M 314
size either of the M 314
single group to be M 314
side opening on to M 314
size option on the M 313
single winding of the M 312
single trees on the M 312
single fault of the M 312
sick parts of the M 312
site looks at the M 310
single threads of the M 310
single scale of the M 310
single color of the M 310
single brood in the M 310
sick women in the M 310
size shall be the M 308
site value on the M 308
single winding on the M 308
side looks at the M 308
sick father to the M 308
size opening in the M 307
sign until it is M 307
single match in the M 306
side holding on to M 305
site right in the M 304
single value of an M 304
single point by the M 304
single frame of an M 304
single danger to the M 304
side walls by the M 304
side looking up the M 303
sits lower in the M 302
single mother on the M 302
single model to be M 302
single judge to the M 302
sign stuck to the M 302
side table at the M 302
side aisle in the M 302
side might be as M 301
size group on the M 300
site today is the M 300
single trend in the M 300
single point or at M 300
single action of my M 300
side could be the M 300
sick state of the M 300
size could be an M 298
single plane or in M 298
side story in the M 298
single ruler in the M 296
single party to be M 296
single actor on the M 296
size makes it the M 294
sixth terms of the M 294
single shell of the M 294
single mother at the M 294
site found on the M 293
sixth class in the M 292
single woman in my M 292
single meeting in the M 292
sick child or the M 292
side point to the M 291
single verse of it M 290
single space on the M 290
single guard at the M 290
single season by the M 288
single power on the M 288
single party as the M 288
single forms of the M 288
single event to the M 288
sign tells us the M 288
sick monks in the M 288
single people to be M 286
side chain to be M 286
sixth steps of the M 284
side table of the M 284
side stood in the M 284
sick while on the M 284
size given to the M 282
single state as the M 282
single issue of an M 282
single issue at the M 282
single author or by M 282
side which we do M 281
size might be an M 280
single words or of M 280
single value is to M 280
single front in the M 280
sign board of the M 280
sign board at the M 280
sick woman at the M 280
size order of the M 278
sits erect on the M 278
site model of the M 278
single state to be M 278
single season at the M 278
single doubt in my M 278
sign which in the M 278
side issue is the M 278
site which in the M 276
single words on the M 276
single reason to be M 276
single power is the M 276
single links of the M 276
single cells to be M 276
sign tells us to M 276
sick people in my M 276
sick people in it M 276
size class at the M 275
size class as the M 274
size alone is the M 273
side later in the M 273
size which in the M 272
site testing of the M 272
sixth period in the M 270
sits easily on the M 270
site either in the M 270
single shell in the M 270
single place at the M 270
single light to be M 270
side table to the M 269
sits loose to the M 268
site ceased to be M 268
site based on an M 268
single point of my M 268
side gives us the M 268
site given in the M 267
site appear in the M 266
single claim in the M 266
sick people by the M 266
size views of the M 265
size which is of M 264
single woman to the M 264
single visit of the M 264
single place of the M 264
single group to the M 264
single force is the M 264
side opening on the M 264
sick again on the M 264
size belong to the M 263
sixth point in the M 262
sits looking at me M 262
single ruler of us M 262
single layer to the M 262
single event to be M 262
single entry at the M 262
single drops of the M 262
side issue to be M 262
sign appear in the M 261
single writing of the M 260
single wound in the M 260
single print of the M 260
single house in it M 260
single cause is the M 260
side walls up to M 260
side group in the M 260
sixth place at the M 258
site later to be M 258
single issue is the M 258
single holding in the M 258
sign either of an M 257
sixth draft of the M 256
single lines to the M 256
single author or of M 256
side terms of the M 256
side opens to the M 256
size class by the M 255
sign alike of the M 255
sixth class at the M 254
sits where in the M 254
sits daily in the M 254
single touch on the M 254
single items in an M 254
sign either in the M 254
sign shall be so M 252
size alone is an M 250
sits where at the M 250
site visit by an M 250
single voice to be M 250
single comma in the M 250
single chair at the M 250
sick healed by the M 250
sixth entry in the M 248
single state at the M 248
single stage or in M 248
single shred of the M 248
single plane on the M 248
single image at the M 248
single finding of the M 248
side views in the M 248
side shows in the M 247
side edges to the M 247
size which is an M 246
size equal to at M 246
size based on an M 246
site which it is M 246
single check on the M 246
size which is to M 244
site while at the M 244
single morning in the M 244
single cases in the M 244
side lengths in the M 244
side story to the M 243
side light to the M 243
sits where he is M 242
sits still on it M 242
site where in the M 242
single trace of an M 242
side loading on the M 242
side close by the M 241
single woman is the M 240
single state or to M 240
single paper of the M 240
single method to be M 240
single leaves of the M 240
single grasp of the M 240
single force or to M 240
single class at the M 240
side looks as if M 240
single woman in an M 238
single visit to an M 238
single trunk on the M 238
single mother is the M 238
sick child is the M 238
site binds to the M 237
single words as the M 236
single plant at the M 236
single party or the M 236
single group is in M 236
single color on the M 236
sixth color in the M 234
sign board on the M 234
size built in the M 232
single words by the M 232
single season on the M 232
side looking at me M 232
side lines to the M 232
side either by the M 232
side chain to an M 232
sick woman of the M 232
sick child to eat M 232
size class is the M 231
side lines at the M 231
size until by the M 230
sixth power in the M 230
sixth place of the M 230
single quote at the M 230
single motion in the M 230
single judge or of M 230
single group by the M 230
single crack of the M 230
sign which is of M 230
site while it is M 229
sign stuck on the M 229
sign might be the M 229
site where he or M 228
single story on the M 228
single piece of my M 228
single defeat of the M 228
single class to be M 228
sign tends to be M 228
site built by the M 226
single woman is to M 226
single thrust in the M 226
single point on it M 226
single parts in the M 226
single motion to the M 226
single front to the M 226
single field on the M 226
single father of the M 226
side shall be at M 226
single words or as M 225
sixth sense to the M 224
site types of the M 224
site close by the M 224
single piece by the M 224
single layer of an M 224
single force is to M 224
sign found on the M 224
side opening at the M 224
side loading of the M 224
size units in the M 223
single vowel in an M 222
single phase of an M 222
single board of the M 222
single birds in the M 222
side group on the M 222
sixth group in the M 220
site known by the M 220
single women in my M 220
single trees or in M 220
single cells by the M 220
sign holds in the M 220
side which he is M 220
side walls as the M 220
side thinks it is M 219
side cover of the M 219
single women to go M 218
single shift of the M 218
single reply to the M 218
single model of an M 218
single claim of the M 218
single cause to be M 218
sign posts to the M 218
size class on the M 217
single women is the M 216
single mother of the M 216
single image is the M 216
sick woman to be M 216
size occur on the M 214
single piece or in M 214
single order on the M 214
single house by the M 214
single doubt on the M 214
site files to the M 213
side light in the M 213
site which is of M 212
site could be an M 212
single query to the M 212
single group as the M 212
single forum of the M 212
single entry in an M 212
sign which it is M 212
sign stood in the M 212
sign stood at the M 212
side stood the king M 212
side lines on the M 212
sign anything in the M 211
side walls is the M 211
size paper as the M 210
site worthy of the M 210
site shall be the M 210
single woman or the M 210
single turns of the M 210
single slash of the M 210
single house is the M 210
single holes in the M 210
single defeat in the M 210
single cause or to M 210
sign change on the M 210
sixth space in the M 208
sits waiting on the M 208
sits easily in the M 208
single stream to the M 208
single items on the M 208
side folds of the M 208
side chain as in M 208
sick child is to M 208
single event or as M 207
sign posts in the M 207
side turning to the M 207
site again in the M 206
site about to be M 206
single value in an M 206
single thrust to the M 206
single plant or in M 206
single judge on the M 206
side cover to the M 206
sick child by the M 206
size shall be as M 205
side walls is to M 205
size might be of M 204
size given on the M 204
sits naked in the M 204
site shall be so M 204
single words or to M 204
single verse to the M 204
single track at the M 204
single sites in the M 204
single parts of an M 204
single grant to the M 204
single glory of the M 204
single color or in M 204
single cause as the M 204
side story is the M 204
side either in the M 204
size value of the M 203
sits tight on the M 202
site today of the M 202
single plane at the M 202
single phase at the M 202
size study of the M 201
side table on the M 201
side after it is M 201
sixth house on the M 200
single repeat of the M 200
single point or in M 200
single order to the M 200
single night of my M 200
side walls or in M 200
side chain in an M 200
sixth child of an M 198
site named in the M 198
single mother in an M 198
single issue on the M 198
single birds on the M 198
sick right in the M 198
site moves to the M 197
sixth season in the M 196
sits looking up at M 196
single piece to the M 196
single cloud to be M 196
single child to be M 196
single chair of the M 196
single chair by the M 196
size towns in the M 194
site based in the M 194
single scale in the M 194
single pairs or in M 194
single cross at the M 194
side thereof in the M 194
sick appear to be M 194
side action of the M 193
size which is at M 192
single units at the M 192
single event of my M 192
single action of an M 192
single action is the M 192
sign shall be in M 192
sign given at the M 192
side thrust at the M 192
side thereof by the M 192
side might be in M 192
side force in the M 192
side echoes to no M 192
side chain of ring M 192
sign refer to the M 191
sits waiting at the M 190
site rests on the M 190
single usage of the M 190
single people to the M 190
single front of the M 190
single feeling of the M 190
side lived up to M 190
side bones of the M 190
side aware of the M 190
size refer to the M 188
sixth house is the M 188
single worry in the M 188
single words to be M 188
single women as the M 188
single trunk at the M 188
single table of the M 188
single point in my M 188
single judge at the M 188
single event or an M 188
single change in an M 188
sick people or to M 188
side appear on the M 187
sits apart in the M 186
single state or in M 186
single sound at the M 186
single slave to be M 186
side where is the M 186
side taken up by M 186
side holds of the M 186
site visit is the M 185
site visit in the M 184
site visit at the M 184
single women to do M 184
single place to be M 184
single input of the M 184
single floor of an M 184
single class on the M 184
single breaks in the M 184
sign stood on the M 184
sick calls in the M 184
sign shall be the M 183
single visit by the M 182
single value is the M 182
single story to be M 182
single image of it M 182
single facts of the M 182
sign could be the M 182
side views to the M 182
sick people to eat M 182
sixth verse to the M 180
sixth field is the M 180
site might be in M 180
single people at the M 180
single claim to the M 180
single change on the M 180
sign which is so M 180
side bending in the M 180
sick people to go M 180
sixth count of the M 178
single women or to M 178
single woman to go M 178
single vision of an M 178
single vision by the M 178
sign which is an M 178
sign holds if the M 178
side night in the M 178
side could do to M 178
side chair of the M 178
side chain or in M 178
size group is the M 177
side aimed at the M 177
sixth sitting of the M 176
site might be of M 176
single ships of the M 176
single plant or by M 176
single night by an M 176
single input in the M 176
single event in an M 176
single cycle of an M 176
single action in my M 176
sign given to it M 176
side lines as the M 176
size table in the M 175
side given by the M 175
size ceases to be M 174
sixth floor on the M 174
single table at the M 174
single proof of by M 174
side passing to the M 174
side boxes of the M 174
sick woman by the M 174
site close to an M 173
single track to be M 172
single threads in the M 172
single field to the M 172
single field or in M 172
single father in the M 172
single buyer of an M 172
sign posts of the M 172
side wants to do M 172
side walls it is M 172
side takes on the M 172
side running to the M 172
side chain on ring M 172
side breaks in the M 172
side altar at the M 172
sits today on the M 170
single works of the M 170
single state or by M 170
single point or to M 170
single piece is the M 170
single parts to the M 170
single kingdom in the M 170
side shall be of M 170
side right at the M 170
side moves to the M 170
side issue on the M 170
sick people do in M 170
site value in the M 169
side issue as to M 169
sixth point is the M 168
sixth floor is the M 168
site could be in M 168
single tests of the M 168
single scale on the M 168
single group or to M 168
single crack at the M 168
single cells is the M 168
sign within it of M 168
side which at the M 168
side piece in the M 168
side chain is of M 168
site value to the M 167
side holes on the M 167
size taken in the M 166
sits close by the M 166
sits apart in an M 166
single trace on the M 166
single evening of the M 166
single click on an M 166
single births in the M 166
sign ceases to be M 166
side halls of the M 166
sick twice in the M 166
site phase of the M 165
side causing it to M 165
size until he is M 164
size model in the M 164
size known to the M 164
size about as in M 164
site value at the M 164
single words or the M 164
single value as an M 164
single space at the M 164
single links in the M 164
single lines to be M 164
single event is an M 164
single cycle is the M 164
side shows to the M 164
size scale is the M 163
side walks in the M 163
side still to be M 163
size noted in the M 162
single stream on the M 162
single point if the M 162
single plant to be M 162
single piece of an M 162
single frame to be M 162
single cause is to M 162
side order of the M 162
side frame to the M 162
sick father in the M 162
side chair at the M 161
size given is the M 160
sixth sense or the M 160
sixth phase in the M 160
single vision is to M 160
single truths it is M 160
single touch in the M 160
single share of it M 160
single reader of the M 160
single period at the M 160
single pause in the M 160
single owner in the M 160
single change is the M 160
single bands of the M 160
side round to the M 160
side lived in the M 160
side chain as the M 160
size group to the M 159
side entry of the M 159
size growing in the M 158
single vision to be M 158
single place or in M 158
single merit of the M 158
single issue or to M 158
single files to the M 158
single cross on the M 158
single child to the M 158
side walls or on M 158
side track to be M 158
side sitting on the M 158
sixth field in the M 156
site shown by the M 156
site might be an M 156
single woman as the M 156
single stream at the M 156
single ships in the M 156
single running of the M 156
single reason in the M 156
single drawing in the M 156
single class or of M 156
side story is an M 156
side story at the M 156
side shows on the M 156
side appear in the M 156
sick again at the M 156
site mapping of the M 155
side loops of the M 155
size found to be M 154
sits above it on M 154
site shall be in M 154
single point it is M 154
single motion as if M 154
single event or the M 154
single event of an M 154
side limit of the M 154
side shows at the M 153
sixth cycle of the M 152
sits writing at an M 152
sits right by the M 152
sits about in the M 152
site waiting to be M 152
site visit to an M 152
site either of the M 152
single visit in the M 152
single units on the M 152
single shell on the M 152
single proof of my M 152
single prize of the M 152
single point or the M 152
single party is to M 152
single night to be M 152
single house or in M 152
single drive in the M 152
single danger in the M 152
sick minds of the M 152
sick child in an M 152
side quite to the M 151
side force at the M 151
size taken by the M 150
sixth sense to be M 150
sits proud of the M 150
single whole is the M 150
single sitting in the M 150
single price of the M 150
single owner or by M 150
single method is to M 150
single force to be M 150
single force or the M 150
single color to the M 150
sign shown on the M 150
sign right on the M 150
sign comes to be M 150
side which is an M 150
side ceased to be M 150
size units of the M 149
size thanks to the M 149
size linear in the M 149
size growth of the M 149
side thrust in the M 149
size owned by the M 148
site lives up to M 148
site could be so M 148
single woman is in M 148
single vowel in it M 148
single units to be M 148
single price on the M 148
single point or an M 148
single pages of the M 148
single option in the M 148
single model to the M 148
single leaves in the M 148
side feels it is M 148
size people up in M 147
sits smiling in the M 146
single women in an M 146
single style in the M 146
single piece to be M 146
single party or by M 146
single lapse on the M 146
single kingdom by the M 146
single group or in M 146
single error in an M 146
single cells in an M 146
single agent is the M 146
sign today of the M 146
side issue at the M 146
side fixed to the M 146
sick world in the M 146
sick women of the M 146
sign given to us M 145
sixth layer is the M 144
sits nearer to the M 144
single woman as to M 144
single shade of the M 144
single image as the M 144
single girls of the M 144
single floor in the M 144
single event or to M 144
single chair on the M 144
single black in the M 144
side could it be M 144
sick child up to M 144
size limit of an M 143
site which is an M 143
sign belong to the M 143
side roots of the M 143
side hills of the M 143
side edges in the M 143
side bands to the M 143
side bands on the M 143
sixth story in the M 142
sixth round by the M 142
single women by the M 142
single state if the M 142
single people or to M 142
single girls at the M 142
single crime in the M 142
sign shall he be M 142
sign given of the M 142
side walls or by M 142
side rises in the M 142
side leaves of the M 142
size scale in the M 141
site point to the M 141
side piece on the M 141
sixth reason is the M 140
sixth action of the M 140
site files at the M 140
single woman to do M 140
single trick in the M 140
single search of the M 140
single phone in the M 140
single morning of the M 140
single meeting at the M 140
single issue as to M 140
single image by the M 140
single group is to M 140
single chain to the M 140
single author or the M 140
single agent at the M 140
sign shown at the M 140
side wants to go M 140
side gates to the M 140
site types on the M 139
size might be in M 138
size growing on the M 138
size gives it the M 138
size either in the M 138
sixth morning of the M 138
site thereof up to M 138
single wreck in the M 138
single sitting on the M 138
single round at the M 138
single order to be M 138
single night in it M 138
single items or in M 138
single house on it M 138
single change to be M 138
single bones in the M 138
sign warns of the M 138
side model of the M 138
sick units of the M 138
sign noted by the M 137
side ceases to be M 137
sixth sense on the M 136
sixth period is the M 136
single voice of an M 136
single state as an M 136
single share to the M 136
single proof of it M 136
single night in an M 136
single frame in an M 136
single clock in the M 136
side walls at an M 136
side visit to the M 136
sick mother to the M 136
sick child is an M 136
sign right in the M 135
side light is the M 135
side edges on the M 135
size image of an M 134
sixth verse it is M 134
sits still at the M 134
site names in the M 134
site equal to the M 134
single table on the M 134
single party or to M 134
single paper is the M 134
single issue as the M 134
single guard in the M 134
single child on the M 134
side right in the M 134
side looks to the M 134
sick mother at the M 134
site ceases to be M 133
size scale as the M 132
site still to be M 132
single woman or as M 132
single woman by the M 132
single units to the M 132
single touch to the M 132
single shape in the M 132
single route in the M 132
single plane to the M 132
single notes or in M 132
single mother to be M 132
single issue or the M 132
single field to be M 132
single draft of the M 132
single doubt in the M 132
single defeat on the M 132
single class or to M 132
single bunch of the M 132
single author or to M 132
sign which is at M 132
side might be an M 132
side house to the M 132
size could be so M 131
single group or as M 131
side trips up the M 131
side thrust to the M 131
side boxes on the M 131
side alone in the M 131
sixth which is the M 130
sixth roots of the M 130
sixth issue is the M 130
sits either on the M 130
single sound to be M 130
single slave is to M 130
single phase is the M 130
single count of an M 130
single cells or to M 130
single bands in the M 130
single altar in the M 130
side moved to the M 130
site meeting of the M 129
site could be as M 129
sign comes in the M 129
side motion to the M 129
side found in the M 129
side close up to M 129
size known to be M 128
site shall be at M 128
single world of the M 128
single track it is M 128
single teaching of the M 128
single point is in M 128
single phase up to M 128
single period to the M 128
single joint at the M 128
single hands of the M 128
single cases or in M 128
sign value in the M 128
sign shall be of M 128
sign books at the M 128
side rises to the M 128
side looking at it M 128
side forms of the M 128
side comes up the M 128
size print of the M 127
site files in the M 127
size guide to the M 126
size gives to the M 126
size equal to an M 126
sixth heaven of the M 126
site found at the M 126
single words or by M 126
single storm in the M 126
single showing of the M 126
single ruler at the M 126
single period is the M 126
single party by the M 126
single party as an M 126
single finds of the M 126
single event or thing M 126
single event or of M 126
single count in an M 126
single cells as in M 126
single agent on the M 126
side table as he M 126
side cutting of the M 126
side above is the M 126
sick thinking of the M 126
size taken up by M 125
site noted in the M 125
single field or on M 125
single event or in M 125
side views on the M 125
size shown at the M 124
sixth verse as the M 124
sixth sense to do M 124
sixth group is the M 124
site taken by the M 124
single trace to be M 124
single piece at the M 124
single mother to the M 124
single finds in the M 124
single fault in it M 124
single cross to be M 124
single action or to M 124
single action at the M 124
side notes in the M 124
side cells of the M 124
side apply to the M 124
sick people or the M 124
sick child is in M 124
sixth added to the M 123
side thereof to be M 123
size might be so M 122
size found at the M 122
sixth piece of the M 122
sixth hours of the M 122
sits still by the M 122
site while in the M 122
site visit is an M 122
site aimed at the M 122
single words as to M 122
single women up to M 122
single trust to be M 122
single state as in M 122
single ships or in M 122
single right in the M 122
single prize in the M 122
single model as the M 122
single loading of the M 122
single image is to M 122
single finding in the M 122
single class to the M 122
single check in the M 122
sign tries to do M 122
sign rather of the M 122
sign change at the M 122
side walls so as M 122
side place in the M 122
side group to the M 122
side bands at the M 122
sign equal to the M 121
side stream in the M 121
side point of the M 121
side meeting in the M 121
size stood in the M 120
size paper in the M 120
sixth treats of the M 120
sixth terms in the M 120
sixth place to the M 120
site found to be M 120
site built in the M 120
single woman as an M 120
single texts in the M 120
single style of the M 120
single story at the M 120
single store of the M 120
single reason of the M 120
single print on the M 120
single power to the M 120
single plant is the M 120
single party or of M 120
single model is the M 120
single house to the M 120
single house is to M 120
single guess as to M 120
single error in it M 120
single defeat at the M 120
single cells or by M 120
side shown on the M 120
side began to sing M 120
sick feeling on the M 120
size group as the M 119
site looking at the M 119
sixth sense of an M 118
sixth season at the M 118
sixth pages of the M 118
sits today at the M 118
site close to or M 118
single works on the M 118
single words in an M 118
single voice is to M 118
single units up to M 118
single state of woe M 118
single state is in M 118
single reason as to M 118
single plane as the M 118
single people as the M 118
single paper to be M 118
single holding of the M 118
single bunch in the M 118
single action to the M 118
sign which he is M 118
sign could be an M 118
side under the wing M 118
side tends to the M 118
side stream to the M 118
side gives up the M 118
side gives to the M 118
side again on the M 118
sick units by the M 118
sick people it is M 118
size alone is of M 117
site which at the M 117
side running up to M 117
size rests on the M 116
size grows to be M 116
size grows as the M 116
size gives it an M 116
sixth woman in the M 116
site named by the M 116
site might be to M 116
single study is to M 116
single state it is M 116
single stage of it M 116
single ships to the M 116
single reason is the M 116
single lifting up of M 116
single joint is the M 116
single group in an M 116
single class is the M 116
single child is the M 116
single cause or the M 116
single burst of the M 116
single board in the M 116
single author on the M 116
side issue of no M 116
size limit is the M 115
size group up to M 115
side boxes at the M 115
sixth point to be M 114
site owned by an M 114
site first thing in M 114
single world in the M 114
single women or the M 114
single sound as in M 114
single price to be M 114
single plant or the M 114
single period or of M 114
single owner of an M 114
single model on the M 114
single label on the M 114
single crack in an M 114
side working on the M 114
side rests in the M 114
site files of the M 113
side turns to the M 113
size change on the M 112
sixth place by the M 112
sixth class to the M 112
sits sadly on the M 112
sits dreaming of the M 112
site takes on the M 112
site either on the M 112
site could be of M 112
single views of the M 112
single verse at the M 112
single value to an M 112
single sites on the M 112
single shred of it M 112
single press in the M 112
single plant or to M 112
single option on the M 112
single local of the M 112
single frame at the M 112
single engine on the M 112
single class or in M 112
single asset to the M 112
single agent as the M 112
sign anything on the M 112
sign anything of the M 112
side might be to M 112
side again to the M 112
sick people to do M 112
sick people is the M 112
size scale on the M 111
site refer to the M 111
size which at the M 110
sits writing at the M 110
sits lower on the M 110
single voice in so M 110
single train in the M 110
single playing of the M 110
single plane by the M 110
single items to be M 110
sign tells of the M 110
side table or the M 110
side lines or the M 110
side boxes in the M 110
side began at the M 110
side again at the M 110
sick while at the M 110
side trips to be M 109
size again in the M 108
sixth verse in the M 108
sits tight in the M 108
sits erect at the M 108
site where the king M 108
single voice or by M 108
single stage on the M 108
single shift to the M 108
single point to an M 108
single place or an M 108
single people by the M 108
single light in an M 108
single label of the M 108
single items to the M 108
single girls on the M 108
single fault to be M 108
single crown of the M 108
single check at the M 108
single cells up to M 108
single author to the M 108
single action is to M 108
sign sitting on the M 108
side walls as in M 108
side picks up the M 108
side holding up the M 108
side below is the M 108
side about to be M 108
sick looking at the M 108
sick lists of the M 108
sick child of an M 108
sick brain in the M 108
size today as it M 106
size allow us to M 106
sits first in the M 106
single warning of the M 106
single voice is the M 106
single track of an M 106
single table to be M 106
single round to the M 106
single plant to the M 106
single phase or of M 106
single party as in M 106
single nurse in the M 106
single morning on the M 106
single issue or on M 106
single group or the M 106
single focus at the M 106
single evening as the M 106
single casting on the M 106
single cases to the M 106
single brood is the M 106
single black on the M 106
single award in the M 106
sign given to me M 106
side which is as M 106
side stuck to the M 106
side might be at M 106
side first of the M 106
side chain is at M 106
sick world of the M 106
sick girls in the M 106
sick child is at M 106
side resting in the M 105
size field on the M 104
sixth terms on the M 104
sixth owner of the M 104
sits sadly in the M 104
site found by the M 104
single wound to the M 104
single words is the M 104
single whole to the M 104
single value or the M 104
single stage at the M 104
single print in the M 104
single piece is to M 104
single party in an M 104
single mother or the M 104
single layer or of M 104
single image or an M 104
single guest at the M 104
single group it is M 104
single field as the M 104
single child or to M 104
single author as the M 104
side stream on the M 104
side board in the M 104
sick child on my M 104
size growth in the M 103
side looking in the M 103
size scale to the M 102
size found by the M 102
sixth method is to M 102
single wound on the M 102
single topic is the M 102
single story on an M 102
single shell at the M 102
single reason to go M 102
single price to the M 102
single price at the M 102
single people or the M 102
single pairs of the M 102
single night in my M 102
single night as the M 102
single method to the M 102
single method on the M 102
single method as the M 102
single guest in the M 102
single chime of the M 102
sign appear to be M 102
side gates in the M 102
side feels as if M 102
side cross to the M 102
side bearings on the M 102
sick people in an M 102
sign seems to me M 101
side moves in the M 101
size noted on the M 100
sixth vision of the M 100
sixth running of the M 100
sixth phase is the M 100
sixth frame of the M 100
sits which is to M 100
sits right up in M 100
sits close to it M 100
sits close on the M 100
single value as in M 100
single ships on the M 100
single share at the M 100
single plane as in M 100
single option to be M 100
single mother as the M 100
single human in the M 100
single graph of the M 100
single change at the M 100
single agent to be M 100
sign right at the M 100
sign might be an M 100
side shown by the M 100
side right on the M 100
side looking on to M 100
size pages of the M 99
size model of it M 99
side thanks to the M 99
side nearly up to M 99
side gains at the M 99
size either by the M 98
sixth state to do M 98
sixth stage is to M 98
sixth paper of the M 98
sits writing in the M 98
sits dreaming on the M 98
sits alone as the M 98
sits above in the M 98
site known to us M 98
single thrust at the M 98
single study of an M 98
single stage in an M 98
single sitting at the M 98
single leader or the M 98
single layer as in M 98
single focus to the M 98
single error to be M 98
single cloud in it M 98
single burst in the M 98
single block to be M 98
sign anything at the M 98
side where in the M 98
side unite in the M 98
side table as if M 98
side stood on the M 98
side meeting at the M 98
side gives in to M 98
side could be in M 98
side chain or by M 98
side chain of at M 98
sick slept in the M 98
sick found in the M 98
sick child to go M 98
side seeming to be M 97
side either to the M 97
side altar is the M 97
side aisle at the M 97
size might be to M 96
size class to be M 96
sixth child to be M 96
sits daily at the M 96
site value is the M 96
site seems to me M 96
site right at the M 96
single woman is an M 96
single state or an M 96
single sound on the M 96
single place in it M 96
single period as the M 96
single mother is to M 96
single limit on the M 96
single image of my M 96
single fault on the M 96
single error at the M 96
single cross of the M 96
single child or the M 96
single change in my M 96
single cells or the M 96
single cells as an M 96
single action as the M 96
sign which is on M 96
sign shall be as M 96
side walls by an M 96
side table or in M 96
side table in my M 96
side notes to the M 96
side looking up to M 96
side issue or an M 96
side chain by an M 96
sick right at the M 96
sixth based on the M 95
sign about it of M 95
side equal to at M 95
sixth games of the M 94
sits looking at it M 94
site opens in the M 94
site built on the M 94
single voice if it M 94
single vision at the M 94
single verse to be M 94
single trace is to M 94
single tests in the M 94
single pairs in the M 94
single names in the M 94
single lines or in M 94
single layer it is M 94
single house or the M 94
single field of no M 94
single event is to M 94
single enemy to be M 94
single enemy on the M 94
single child at the M 94
single birds or in M 94
single author is the M 94
side space of the M 94
side shown to the M 94
side chair to the M 94
side angles to the M 94
sick women to the M 94
sick within me as M 94
sick vision of the M 94
sick sense of the M 94
sick seems to be M 94
sick child as the M 94
size ranges to be M 93
sign drawn on the M 93
side walls is an M 93
size while on the M 92
size shows it to M 92
sixth night in the M 92
sixth morning of my M 92
sixth cause of the M 92
sits quiet in the M 92
sits playing on the M 92
sits close by on M 92
site moved to the M 92
site might be at M 92
site could be at M 92
single voice in an M 92
single trace of my M 92
single state is to M 92
single smile on the M 92
single sitting to the M 92
single plant or an M 92
single label to the M 92
single image or the M 92
single event is of M 92
single class or the M 92
single block of my M 92
single block by the M 92
single author or in M 92
single aisle on the M 92
sign takes on the M 92
side which is no M 92
side turning on the M 92
side opens on to M 92
side looking as if M 92
side lines to be M 92
side could be an M 92
sick feeling as he M 92
sick child to an M 92
sick about it as M 92
site appear on the M 91
sign notes to the M 91
sign appear on the M 91
size right up to M 90
size could be of M 90
size allow it to M 90
sixth ships in the M 90
sixth essay of the M 90
sits looking in the M 90
sits close by me M 90
site comes up in M 90
single whole to be M 90
single voice as in M 90
single story is the M 90
single piece as in M 90
single phase or in M 90
single paper to the M 90
single layer is the M 90
single judge to be M 90
single image or in M 90
single field in an M 90
single entry in my M 90
single drive to the M 90
single color to be M 90
single agent it is M 90
sign stuck up on M 90
sign rather of an M 90
sign people up to M 90
sign noted in the M 90
sign about me of M 90
side tried to do M 90
side still in the M 90
side ought he to M 90
side cover on the M 90
side close to it M 90
sick first thing in M 90
sick again as he M 90
size group by the M 89
site where the so M 89
site usage in the M 89
site thanks to the M 89
side steps in the M 89
side group of an M 89
size usual in the M 88
size built on the M 88
sixth seems to be M 88
sixth months in the M 88
sixth layer in the M 88
sixth class is the M 88
sixth child at the M 88
sits dreaming in the M 88
single wound of the M 88
single women it is M 88
single turning of the M 88
single state to an M 88
single sitting by the M 88
single roots of the M 88
single plant of an M 88
single meeting to the M 88
single logic of the M 88
single lines as in M 88
single closing of the M 88
single claim to be M 88
single author is to M 88
single action by an M 88
sign appear of the M 88
side though it is M 88
side story on the M 88
side shows the king M 88
side looks on the M 88
side lined by the M 88
side hurts me so M 88
side helps us to M 88
side drift of the M 88
side acted as it M 88
site visit on the M 87
size reaching up to M 86
size occur at the M 86
size gives us the M 86
sits thinking in the M 86
sits apart on the M 86
site wants to be M 86
site shows up in M 86
single study as the M 86
single sound to the M 86
single slave on the M 86
single share of my M 86
single round of it M 86
single right by the M 86
single readings of the M 86
single reader in the M 86
single point is an M 86
single plant is to M 86
single noise in the M 86
single months of the M 86
single light is on M 86
single judge is the M 86
single issue or in M 86
single event as it M 86
single doubt of my M 86
single crown in the M 86
single crack on the M 86
single casting of the M 86
single books in the M 86
single aisle of the M 86
side story or my M 86
side chain or ring M 86
sick later in the M 86
sick cases in the M 86
size either to the M 85
site known to me M 85
side either on the M 85
sixth leader of the M 84
sixth field of the M 84
sits still to be M 84
site looks as if M 84
single women or as M 84
single woman or to M 84
single topic to the M 84
single storm on the M 84
single stage by the M 84
single space as the M 84
single point or on M 84
single plant in an M 84
single people is to M 84
single author to be M 84
single asset is the M 84
single agent to the M 84
sign found at the M 84
side where the wing M 84
side stood at the M 84
side shows us the M 84
side chain on an M 84
size stand in the M 83
side which is by M 83
side nearly in the M 83
side could be so M 83
size taken at the M 82
sixth lines in the M 82
sixth count in the M 82
site occur in the M 82
single words as in M 82
single whole at the M 82
single vowel or of M 82
single vision on the M 82
single trunk to the M 82
single table is to M 82
single study it is M 82
single state is an M 82
single share on the M 82
single price is the M 82
single point to me M 82
single piece or of M 82
single motion on the M 82
single morning of my M 82
single minds to the M 82
single local in the M 82
single leader to the M 82
single event or on M 82
single event it is M 82
single chain on the M 82
single beauty of the M 82
single bearer of the M 82
sign waiting to be M 82
sign began to be M 82
side wanting to be M 82
side trail to an M 82
side signs of the M 82
side playing in the M 82
side leaves me to M 82
side appear as if M 82
sick right on the M 82
sick feeling to the M 82
sick feeling of the M 82
sick again if he M 82
sixth place is the M 80
sixth evening of the M 80
sits light on the M 80
sits easier on the M 80
site makes it the M 80
single stems of the M 80
single shape of the M 80
single season if the M 80
single model is to M 80
single light in it M 80
single layer or the M 80
single force at an M 80
single force as the M 80
single entry is to M 80
side track by the M 80
side chain is to M 80
sick thinking of it M 80
site binding of the M 75
side shift in the M 75
size holes in it M 71
size forms of the M 71
sign again in the M 70
size plant in the M 69
side image of the M 63
side motion in the M 62
size house in the M 60
side event of the M 60
site plans to be M 59
sign later in the M 59
side terms in the M 58
side turning of the M 56
size image in the M 54
sign still on the M 54
side given to the M 54
single trunk or as M 53
size trees in the M 51
size change as the M 51
side twice in the M 51
size cells in the M 50
site plans to the M 50
site costs to the M 50
single value or as M 50
side shall be so M 50
side occur in the M 50
site meeting at the M 49
site costs in the M 49
sign given us by M 49
side study of the M 49
side motion at the M 49
side force to the M 49
single layer or as M 48
side steps on the M 48
sign posts at the M 47
size option of the M 46
size change to the M 46
site claim in the M 46
sign today is the M 46
sign board in the M 46
side front to the M 46
side event to the M 46
size might be as M 45
site plans in the M 45
side route to the M 45
size shift in the M 44
size opening of the M 44
side again by the M 44
size limit to be M 43
size class up to M 43
site testing in the M 43
site model in the M 43
sign occur in the M 43
size sitting on the M 42
sixth ought to be M 42
single space to the M 42
single group is so M 42
sign while in the M 42
sign either on the M 42
single seems to be M 41
sign gives us the M 41
side action on the M 41
side first in the M 40
side close in the M 40
sixth fleet in the D 6826
side would be the D 5686
side faces of the D 5072
single sweep of the D 4884
single region of the D 4606
side doors of the D 4484
side lobes of the D 3876
side rails of the D 3844
side panel of the D 3448
sixth canon of the D 3088
sixth grade in the D 2866
single facet of the D 2840
single index of the D 2832
sine waves of the D 2682
sign taped to the D 2636
side slope of the D 2566
sixth grade of the D 2524
single organ of the D 2476
single grain of the D 2468
sink lower in the D 2406
site would be the D 2388
single level of the D 2370
sixth canto of the D 2269
sixth grade at the D 2234
single nation in the D 2186
size would be the D 2084
single bonds in the D 2050
single setting of the D 1920
single stone of the D 1852
single doses of the D 1721
single sheet of the D 1710
sink beneath the sea D 1653
sixth corps on the D 1645
single stone in the D 1588
sixth fleet to the D 1554
side lobes in the D 1545
side rails on the D 1527
sits staring at the D 1428
single rooms in the D 1412
single scene in the D 1392
single pixel in the D 1360
side porch of the D 1360
single organ in the D 1348
single pulse of the D 1338
single penny of the D 1262
sink again to the D 1258
sixth nation of the D 1238
sixth corps of the D 1150
side rooms of the D 1149
side would be to D 1132
sine waves in the D 1105
single stone to be D 1088
side would be in D 1072
silk dress in the D 1064
sign would be the D 1062
sixth scene of the D 1048
single cones in the D 1014
single nation of the D 1010
single lesion in the D 980
single pulse in the D 960
single shock to the D 952
sill level of the D 951
single slice of the D 948
single trait of the D 944
sins ought to be D 942
site would be an D 940
single region in the D 936
single scene of the D 918
single fiber of the D 900
single level in the D 890
single spark of the D 888
site would be in D 876
side rails to the D 876
single males in the D 866
side plate of the D 851
silk trade in the D 850
silk mills in the D 848
single digit in the D 847
silk dress of the D 844
single flash of the D 828
single grain in the D 816
single penny to the D 814
single breach of the D 806
single pixel on the D 800
singer seems to be D 800
sixth grade to the D 792
single blade of the D 788
side grain of the D 784
sine curve of the D 781
size would be an D 774
sixth level of the D 774
sink roots in the D 774
single locus in the D 768
size would be of D 766
single horse in the D 766
side doors in the D 764
sits smack in the D 752
single pound of the D 752
single fiber in the D 734
size firms in the D 732
single penny of it D 732
side doors to the D 731
sink holes in the D 730
single plate of the D 730
sixth corps to the D 728
silk gland of the D 720
sign digit of the D 717
single ounce of the D 716
site region of the D 712
single doses up to D 712
single bonds of the D 712
single tribe of the D 708
size would be to D 696
side roads to the D 685
single twist of the D 684
single spine on the D 684
single atoms of the D 682
single males of the D 672
size would be in D 668
sink under the sea D 661
single curve in the D 660
single blast of the D 660
side would be an D 658
side staring at the D 658
single weapon in the D 654
single pixel of the D 654
single bound to the D 652
single genus of the D 650
site would be to D 648
sixth corps in the D 624
silk trade of the D 620
silk robes of the D 614
sine terms in the D 608
single farthing of the D 604
single feather of the D 602
single grain of it D 600
single locus on the D 594
side roads in the D 594
single atoms in the D 592
side panel to the D 585
single tribe in the D 582
sink close to the D 580
single orbit of the D 580
sink nearly to the D 578
sixth grade in an D 572
sick wards of the D 562
single negro in the D 558
size scaling of the D 552
single penny in the D 550
single plate in the D 546
side region of the D 542
silk hangings of the D 540
silk threads in the D 538
single sheet in the D 536
single pound of it D 534
single panel of the D 532
side flaps of the D 528
side roads of the D 524
silk scarf at the D 516
single curve of the D 514
single basis of the D 510
single index to the D 506
silk scarf in the D 506
silk goods in the D 506
sill plate to the D 503
single tower of the D 502
side alley on the D 498
sink terms in the D 496
single rooms on the D 492
side panel on the D 490
single breach in the D 488
single corps of the D 484
single nation on the D 472
sink again in the D 469
side rails up at D 460
sins shall ye be D 456
single flick of the D 456
single screw in the D 454
single punch in the D 450
single stars in the D 448
size grading of the D 447
site would be of D 446
sins appear to me D 446
site would be at D 444
side panel in the D 441
single title of the D 440
silk mills of the D 438
single trait in the D 434
single digit of the D 432
single cleft of the D 430
side would be of D 430
single stone of it D 428
single grave in the D 426
single genus in the D 424
sins would be to D 422
single plank in the D 422
single pulse at the D 420
single title in the D 418
side would be on D 418
sixth nation in the D 416
silk threads of the D 416
side rails in the D 416
sine waves at the D 412
site would be on D 411
sink below the sea D 408
single rooms at the D 408
side pouch of the D 407
single plank of the D 402
single bonds to the D 402
single lesion of the D 400
sixth grade on the D 398
sink right to the D 398
silk goods to the D 398
side alley to the D 398
single doses of up D 397
single spine at the D 396
single farthing in the D 396
side would be at D 396
side rails up on D 396
single stars of the D 394
sign taped to it D 392
single arrow in the D 390
sine curve in the D 390
side would do the D 390
single wheel of the D 388
single straw in the D 388
side doors on the D 388
silk route to the D 384
silk began to be D 384
single pairing of the D 382
singer known as the D 382
silk dress on the D 382
single pulse to the D 380
single spark of thy D 377
sixth chord in the D 376
single scrap of the D 376
single wheel at the D 372
single swipe of the D 372
singer loves to sing D 370
silk worms in the D 370
side railing of the D 370
sink ships in the D 368
single valve of the D 364
single spike in the D 364
size ratios of the D 361
single farthing of it D 356
site index of the D 353
sink within me at D 347
single facet on the D 346
side plating of the D 346
sine waves on the D 345
silk route in the D 344
silk gowns of the D 342
sins which it is D 340
sixth grade is the D 338
sins which he is D 338
single lesion on the D 338
single glass of the D 336
single brick in the D 336
single feather in the D 334
sink wells in the D 332
sink until it is D 332
single sheet on the D 332
single doses in the D 330
size would be at D 326
single score in the D 322
single wheel in the D 320
single score on the D 320
side where the sea D 320
side alley of the D 320
single serving of the D 318
single horse on the D 318
single glass of it D 318
sins belong to the D 314
single fruit of the D 314
side tubes of the D 313
single tower at the D 310
single hotel in the D 308
side rooms in the D 308
single stone on the D 306
silk scarf on the D 306
sink wailing to the D 304
single valve in the D 304
size would be as D 302
single tract of the D 302
singer began to sing D 302
single notch on the D 300
silt loams of the D 299
single stock in the D 298
single notch in the D 298
single genes in the D 298
single digit to the D 298
side would be so D 298
single stone to the D 296
single spore of the D 296
side above the ear D 296
single penny on the D 294
single cabin on the D 294
side plate to the D 294
sine curve to the D 289
sixth nerve in the D 288
single shake of the D 286
single panel in the D 286
single lever on the D 286
sins which do so D 284
single whiff of the D 284
single rooms of the D 284
silk flags of the D 282
size farms in the D 278
sixth tones of the D 278
single token in the D 278
silk hangings on the D 278
side ports of the D 278
size setting in the D 276
single stamp of the D 276
single shaft in the D 276
single photo of the D 276
single novel of the D 276
side rooms on the D 276
single sheet of an D 274
side hatch of the D 273
single chief of the D 272
singer ought to be D 272
sixth nerve on the D 270
silk threads to the D 270
sign would be to D 270
size photo of the D 268
sink action of the D 268
sine curve is the D 268
sixth chord on the D 266
sins which in the D 266
single chord of the D 266
silk close to the D 266
side would go to D 266
sins seems to be D 264
single patch of the D 264
single shock of the D 262
silk found in the D 262
sign taped on the D 261
side would be as D 261
sits weeping on my D 260
single farthing to the D 260
single punch to the D 258
side jambs of the D 258
sign would be an D 257
single waves in the D 256
single throne of the D 256
single taste of the D 256
side poles of the D 256
sixth nerve of the D 254
single weapon of the D 254
single shots of the D 254
single flash in the D 254
single digit on the D 254
side tones at the D 254
side rails at the D 254
sits weeping on the D 252
sink below it at D 252
single larva of the D 252
single court in the D 250
silk threads on the D 250
sits aloft in the D 248
sink point on the D 248
single stone at the D 248
side sweep of the D 247
sits bound in the D 246
silk dress to the D 246
silk scarf of the D 244
sign creaking in the D 244
single tones in the D 242
single locus of the D 242
single grain to the D 242
single flash of so D 242
sins which we do D 240
single toast in the D 240
single ounce of it D 238
side slabs of the D 238
sixth grade by the D 236
single spots on the D 236
single score of the D 236
singer needs to be D 236
silk scarf to the D 236
size would be so D 234
sixth level is the D 234
single horse or ox D 234
side spans of the D 234
side armor of the D 234
sine curve on the D 233
single spike at the D 232
single epoch in the D 232
side roads on the D 231
size falls in the D 230
sits aloft on the D 230
single token of the D 230
side spoke of the D 230
siding close to the D 228
size sorting of the D 226
single sheep in the D 226
single clerk in the D 226
single blast on the D 226
sine terms of the D 226
single speck of the D 224
single shelf in the D 224
single region on the D 224
single penny of my D 224
single nodes in the D 224
single canal in the D 224
side porch in the D 224
sixth title of the D 222
sits glued to the D 220
single voter in the D 220
single shaft of the D 218
single donor to the D 218
side lanes of the D 218
single plate at the D 216
single nation to the D 216
single hitch in the D 216
single atoms on the D 216
silk seems to be D 216
side serving as the D 216
sixth grade as the D 214
single stick in the D 214
sine waves to the D 213
sizing based on the D 212
single tower in the D 212
single curve on the D 212
side soever of the D 212
single stain on the D 210
single farthing in my D 210
single sheet at the D 208
single hairs of the D 208
single genes on the D 208
side would he be D 208
side plate on the D 208
side yards of the D 207
side faces the sea D 207
single chord in the D 206
silk cover of the D 206
sick folks in the D 206
site cleft of the D 204
single viewing of the D 204
single strip of the D 204
single rifle in the D 204
single motif in the D 204
single chord on the D 204
single caste in the D 204
sink where it is D 203
single bills of the D 203
side lobes on the D 203
single shots at the D 202
side sloping to the D 202
sits basking on the D 200
sink money in the D 200
single patch on the D 200
single chunk of the D 200
silk trade to the D 200
side shaking of the D 200
side doors at the D 200
sixth novel in the D 198
single nation to be D 198
silk looms in the D 198
side porch to the D 198
sick couch in the D 198
side slope on the D 197
side niche of the D 197
single nerve in the D 196
single batch of the D 196
side lobes at the D 195
sixth digit of the D 194
single sheet to the D 194
single screw at the D 194
single flask of it D 194
side flues to the D 194
sink ships at sea D 193
sixth corps at the D 192
sins appear to be D 192
single setup of the D 192
single rupee of the D 192
single lesion or as D 192
single axons in the D 192
sixth nerve is the D 190
single petal of the D 190
sits smoking in the D 188
site known as la D 188
single strip in the D 188
single brick of the D 188
sink marks on the D 187
side swipe at the D 187
sixth grade or the D 186
single gland on the D 186
single flame of the D 186
side faces to the D 186
sixth grade to be D 184
single brick to the D 184
site audit of the D 183
sits neatly on the D 182
single trade in the D 182
single crease on the D 182
silk would be the D 182
sick smell of the D 182
size index of the D 181
sins which is the D 180
single negro on the D 180
silk skirt of the D 180
side rooms to the D 180
side bench in the D 180
sign glowing in the D 179
sixth title in the D 178
sixth grade it is D 178
site index is the D 178
single shots in the D 178
sine equal to the D 177
sign would be in D 177
sixth grade he is D 176
single spire of the D 176
single plate on the D 176
single fruit in the D 176
single facet in the D 176
single cones of the D 176
silk shirt of the D 176
side limbs of the D 176
sizing agent in the D 175
side shoot of the D 175
side banks of the D 175
sixth grade to go D 174
single tribe on the D 174
single pitch in the D 174
sink again as the D 173
single shots to the D 172
side panel of an D 172
sink holes on the D 171
side fence of the D 171
side faces in the D 171
side curls of the D 171
sixth nerve as it D 170
site within the ion D 170
sins found in the D 170
single pixel at the D 170
single nation or of D 170
single crease in the D 170
single brand in the D 170
sick couch of the D 170
side staring up at D 169
side ports in the D 169
sixth novel of the D 168
single pound of tea D 168
single motif of the D 168
silk reaching to the D 168
silk purse of the D 168
side slope in the D 167
single stalk of the D 166
single rivet in the D 166
single ridge on the D 166
single drink in the D 166
single drain on the D 166
silt soils of the D 166
silk woven in the D 166
site index in the D 165
size would be if D 164
sins would be the D 164
sink quite to the D 164
single stars to the D 164
single spark of it D 164
silk goods of the D 164
side shock to the D 163
single valve at the D 162
single pulse on the D 162
single gland in the D 162
sill depths of the D 162
silk woven by the D 162
sign swaying in the D 162
single speck in the D 160
single digit at the D 160
sill rests on the D 160
silk walls of the D 160
silk shirt in the D 160
silk shade of the D 160
silk ought to be D 160
sick souls on the D 160
sick sheep in the D 160
site nearer the sea D 159
sixth would be the D 158
sits oddly in the D 158
single tower on the D 158
single tones of the D 158
single grain on the D 158
silk would be so D 158
silk grown in the D 158
silk dress to be D 158
side packing of the D 158
sixth plate of the D 156
single twist in the D 156
single stone in it D 156
single hairs on the D 156
single defeat at sea D 156
single clone of the D 156
single apple on the D 156
sine curve as the D 156
sign would go up D 156
side veins of the D 155
sits weeping in the D 154
single stake in the D 154
single index in the D 154
single guinea to be D 154
single grade in the D 154
singer stood in the D 154
silt found in the D 154
side nodes of the D 154
side rails up if D 153
single troop of the D 152
single stove in the D 152
single lever at the D 152
single breast of the D 152
single arrow at the D 152
silt loads in the D 152
sink needs to be D 151
single nerve of the D 150
single brick is to D 150
sigh echoed in the D 150
side framing of the D 150
side alley by the D 150
side rails up to D 149
sixth grade or so D 148
site would be as D 148
sink again on the D 148
single sprig of it D 148
single pixel in an D 148
single larva in the D 148
single cable to the D 148
single braid at the D 148
sixth chord of the D 146
sixth chord at the D 146
single stick of the D 146
single organ of an D 146
single facet of an D 146
single doses or in D 146
single chart of the D 146
single arrow on the D 146
singer takes up the D 146
silk trade by the D 146
silk shade is in D 146
side flaps to the D 146
side curve of the D 146
size chunk of the D 145
sixth fleet of the D 144
sits neatly in the D 144
single tract in the D 144
single rooms to the D 144
single listing of the D 144
single glass on the D 144
sill plate of the D 144
silk dress at the D 144
side talking to the D 144
side swaying of the D 144
side ropes of the D 144
side rolling in the D 144
sick rooms is of D 144
size curve of the D 143
side rooms at the D 143
sixth wards of the D 142
sits flush on the D 142
single organ or of D 142
single organ as the D 142
single nation as the D 142
single bonds as in D 142
single arrow to the D 142
silk which is the D 142
silk which is so D 142
side lamps of the D 142
size would be on D 140
size would be no D 140
size level of the D 140
sixth grade of an D 140
sits basking in the D 140
single stone is to D 140
single scull in the D 140
single pound to the D 140
single pixel of an D 140
single firms in the D 140
single chief or king D 140
single bound in the D 140
single blink of the D 140
sign telling of the D 140
side shake of the D 139
side glass of the D 139
single rooms or in D 138
single penny in my D 138
single fleet of the D 138
single court of the D 138
singer turns to the D 138
sine curve at the D 138
silk reeling in the D 138
side porch on the D 138
side flange of the D 138
single sheet or in D 136
single reefs in the D 136
single horse to the D 136
single burial in the D 136
sine waves or by D 136
silk trade at the D 136
silk hangings at the D 136
side lobes to the D 136
sign would be of D 135
side pairing of the D 135
sink holes of the D 134
single tumor in the D 134
single setting in the D 134
single score to the D 134
single ridge of the D 134
single panel on the D 134
single ovule in the D 134
single feather on the D 134
single sheet to be D 132
single pitch of the D 132
single guinea in the D 132
silk dress to go D 132
sick rooms of the D 132
side slope to the D 131
sixth stone in the D 130
sink waiting to be D 130
single stake at the D 130
single shoot of the D 130
single ridge in the D 130
single nation as to D 130
single listing in the D 130
single grave of the D 130
single fiber to the D 130
single chest of tea D 130
single axons of the D 130
sine waves is the D 130
silk raising in the D 130
silk folds of the D 130
silk falling to the D 130
sick horse in the D 130
site would be so D 129
sixth region of the D 128
sins known to the D 128
sins added to the D 128
single pulse to be D 128
single nation or by D 128
single grave on the D 128
single atoms to the D 128
silo where it is D 128
silk which is to D 128
side slits in the D 128
side falls on the D 128
sign would be if D 127
size would it be D 126
size plays in the D 126
sixth digit on the D 126
sits weeping at the D 126
sink within me as D 126
single skull in the D 126
single novel in the D 126
single niche in the D 126
single lever in the D 126
single lesion at the D 126
single flash at the D 126
silt layer on the D 126
silk roses on the D 126
side headings at the D 126
sick mills in the D 126
site index on the D 125
sign telling me to D 125
side rocking of the D 125
sits smoking on the D 124
sins named in the D 124
sink lower on the D 124
single scene in it D 124
single scene at the D 124
single mound in the D 124
single joist of the D 124
single doses to the D 124
single bound to be D 124
singer tells of the D 124
silk roads in the D 124
silk blown by the D 124
side glowing in the D 124
sits staring at me D 122
site falls in the D 122
single plays of the D 122
single nation by the D 122
single nation at the D 122
single limbs of the D 122
singer comes to the D 122
silk gland in the D 122
sick camel in the D 122
site alpha to the D 120
sins while he is D 120
single sweep of an D 120
single stars on the D 120
single spots in the D 120
single spark in the D 120
single donor in the D 120
single corps in the D 120
sill plate at the D 120
single yarns of the D 118
single yarns in the D 118
single slice in the D 118
single screw on the D 118
single rhyme in the D 118
single bureau of the D 118
single bases in the D 118
sine value of the D 118
sine curve if the D 118
side twist of the D 118
side spoke to the D 118
side speaks of the D 118
sill close to the D 117
side wheel of the D 117
sins based on the D 116
single sweep of my D 116
single shrub of the D 116
single fruit of my D 116
single flash on the D 116
single curve if the D 116
single cliff on the D 116
single cabin in the D 116
singer would sing the D 116
silk dress in my D 116
side headings in the D 116
silt borne by the D 115
sill resting on the D 115
side porch at the D 115
sits smack on the D 114
sins appear in the D 114
single spine in the D 114
single spike of the D 114
single level on the D 114
single farthing of my D 114
sick would be in D 114
sine waves by the D 113
site leased by the D 112
sins about to be D 112
sink again at the D 112
sink again as he D 112
single shock in the D 112
single horse at the D 112
single earner in the D 112
single chief at the D 112
single cable in the D 112
sill plate on the D 112
silk hangings in the D 112
silk dress of an D 112
side jambs to the D 112
side flues of the D 112
side canon to the D 112
sick wards in the D 112
site above the sea D 111
sink marks in the D 111
side rails to be D 111
sins fresh on me D 110
sins exist in the D 110
single sheet of it D 110
single scene is the D 110
single rhyme in my D 110
single ovary in the D 110
single nation or to D 110
single index is the D 110
single canon of the D 110
single bench in the D 110
single atoms or of D 110
silk skirt on the D 110
sign would it be D 110
siding needs to be D 110
side bench of the D 109
size region of the D 108
size ratios in the D 108
sins while in the D 108
sins began to be D 108
sink beneath us at D 108
single ulcer in the D 108
single tribe is the D 108
single stone or of D 108
single stick on the D 108
single speck of it D 108
single patch in the D 108
single orbit in the D 108
single epoch of the D 108
silk until it is D 108
silk trade on the D 108
silk fringes of the D 108
silk cords of the D 108
side staring at me D 108
side sills of the D 108
site serving as the D 107
sink under it in D 107
side would be no D 107
side slope of an D 107
side panel at the D 107
sixth tribe of the D 106
single violin of the D 106
single strip at the D 106
single stack of the D 106
single spine of the D 106
single rupee to the D 106
single ovary of the D 106
single fiber at the D 106
single drugs in the D 106
single curve to the D 106
single chink in the D 106
single canto of the D 106
side falls to the D 106
side canal of the D 106
single drove in the D 105
silk would be as D 105
sign wired to the D 105
side vents in the D 105
sixth nerve at the D 104
sixth grade in my D 104
single saint in the D 104
single pilot in the D 104
single march of the D 104
single horse or by D 104
single grade of the D 104
single craft of the D 104
single blink of an D 104
silk robes in the D 104
silk added to the D 104
side would it be D 104
side talking to me D 104
side flows to the D 104
sick seamen in the D 104
sink terms of the D 103
single stock of the D 102
single slide of the D 102
single score is to D 102
single scene on the D 102
single notch at the D 102
single level at the D 102
single horse of the D 102
single glass of tea D 102
single glass in the D 102
single flood in the D 102
single farms in the D 102
single dealer in the D 102
single datum in the D 102
sine waves to be D 102
silk spread on the D 102
silk goods by the D 102
silk clothing of the D 102
side vents of the D 102
sill plate is the D 101
side liable to be D 101
sixth level in the D 100
sits level on the D 100
sink wells to the D 100
singly wrote by me D 100
single would be the D 100
single swoop of the D 100
single spacing in the D 100
single slide or to D 100
single sight of the D 100
single region at the D 100
single oasis in the D 100
single jewel in the D 100
single atoms at the D 100
silk shirt as he D 100
silk goods to be D 100
sign bills in the D 100
side serving as an D 100
side court of the D 100
sick funds in the D 100
sixth nerve to the D 98
sixth fleet or the D 98
sits aloof on the D 98
sink wells on the D 98
single towel on the D 98
single spike on the D 98
single seamen in the D 98
single clump of the D 98
singer wants to be D 98
silk socks in the D 98
silk gauze of the D 98
sign telling us to D 98
side would eat up D 98
side under the lea D 98
side sheet of the D 98
side flows in the D 98
side ditch of the D 98
side would do so D 97
side gleaming in the D 97
sixth chord to the D 96
sink beneath me if D 96
single sweep to the D 96
single shock or by D 96
single scrap of it D 96
single prick of the D 96
single groat in the D 96
single genes or by D 96
single fleet in the D 96
single flame in the D 96
single doses on the D 96
side shaft of the D 96
side ports on the D 96
side plate in the D 96
side piers of the D 96
side abuts on the D 96
sick would be the D 96
side piazza of the D 95
sixth scene in the D 94
sixth fleet is the D 94
sixth fleet at the D 94
sixth abbot of the D 94
sits flush to the D 94
single washing of the D 94
single sheet or on D 94
single reign of the D 94
single motor of the D 94
single index on the D 94
single feather at the D 94
single coating of the D 94
single blade in the D 94
singer thinks of the D 94
sine curve as in D 94
silk shawl in the D 94
silk fiber of the D 94
silk fiber is the D 94
silk cords in the D 94
side telling me to D 94
side naves of the D 94
side fired on the D 94
site level in the D 93
sixth fleet to be D 92
sink within us at D 92
sink under it the D 92
single wheel on the D 92
single title to the D 92
single tires on the D 92
single level of an D 92
silk after it is D 92
side faced the sea D 92
side doors of my D 92
side below the ear D 92
side apses of the D 92
site medial to the D 91
sink right up to D 90
single stalk in the D 90
single spray of the D 90
single spoke of the D 90
single rupee in the D 90
single ranch in the D 90
single plait in the D 90
single organ on the D 90
single organ is to D 90
single nation is to D 90
single lever of the D 90
single guinea of the D 90
single crumb in the D 90
single cable of the D 90
singer picks up the D 90
silk floss in the D 90
sign digit in the D 90
side slats of the D 90
side panes of the D 89
sixth corps by the D 88
sins would be an D 88
single tumor of the D 88
single trade on the D 88
single stick of it D 88
single sprig of the D 88
single slope of the D 88
single shrug of the D 88
single shirt to my D 88
single shaft on the D 88
single mound on the D 88
single lesion or in D 88
single horse to be D 88
single datum of the D 88
singer seems to me D 88
singer moved to the D 88
silt which is the D 88
silk shawl on the D 88
silk dress or the D 88
silk binding of the D 88
sixth thesis on the D 86
sits pasting on the D 86
site would be no D 86
sink seems to be D 86
sink lower in my D 86
single rooms to be D 86
single ranking of the D 86
single pixel to the D 86
single nation or an D 86
single lobes of the D 86
single level in an D 86
single homes in the D 86
single drama of the D 86
single court at the D 86
single bureau in the D 86
sick would go to D 86
sick taste in my D 86
sine waves if the D 85
sixth grade up to D 84
sits staring at it D 84
sits panting on the D 84
sins stand in the D 84
single spore in the D 84
single score on an D 84
single rifle to the D 84
single metal as the D 84
single facet of it D 84
single chief in the D 84
single bench of the D 84
silk weaver in the D 84
silk tunic of the D 84
silk skirt in the D 84
silk gowns in the D 84
sign would be on D 84
side apses at the D 84
sick flesh of the D 84
sixth grade or in D 82
sixth grade is to D 82
sits rocking on the D 82
sink easily to the D 82
single tally in the D 82
single rival in the D 82
single rebel in the D 82
single curve as in D 82
single cleft in the D 82
single caste of the D 82
single atoms or in D 82
singer stood on the D 82
silk comes to the D 82
side scene to the D 82
side panel of my D 82
side fired at the D 82
siding waiting to be D 81
side tubes in the D 81
sixth fleet on the D 80
sits talking to the D 80
sits nodding in the D 80
singly fixed on the D 80
single shelf of the D 80
single organ or in D 80
single level or at D 80
single brick to be D 80
silk shops in the D 80
silk shirt to go D 80
silk purse in the D 80
silk cover on the D 80
side rails or the D 80
silt layer in the D 74
silt loams in the D 65
silt loams on the D 63
silt layer at the D 57
sins shall be as D 56
side would go on D 55
size farms as the D 54
size scaling in the D 53
sink nodes in the D 53
sine waves as the D 53
sink right in the D 51
side soever it be D 51
side panel is the D 51
size sorting in the D 49
side above the sea D 49
site sizes in the D 48
side would be up D 47
side horse of the D 47
sine waves as in D 46
silt floor of the D 45
silt banks of the D 44
silt thrown up by D 43
single pulse or as D 42
side sloping up to D 41
size stock as the D 40
size setting on the D 40
sink washing up the D 40
single spacing is the D 40
side roads to be D 40
