sickness and death . M 44642
situation for him . M 6796
situation with him . M 6022
situation for them . M 4096
situation for you . M 3962
situation for her . M 2970
situation with them . M 2716
situation was bad . M 2328
situation with you . M 2156
sickness and sin . M 1766
situation with her . M 1642
situation was this . M 1400
situation for all . M 1334
sickness and death ? M 1231
situation this way . M 1158
silenced them all . M 1098
situation that way . M 1010
situation for long . M 810
sickness and age . M 704
situation one bit . M 684
silenced them both . M 636
situation for both . M 608
situation for you ? M 596
sickness and fear . M 581
situation and why ? M 578
situation than that . M 572
situation and why . M 572
simplest way out . M 530
situation with ease . M 510
simplify its use . M 478
sickness and death ! M 458
situation this year . M 418
silently with him . M 410
situation than this . M 406
situation was new . M 400
sickness nor death . M 396
sickness and dying . M 383
situation was not . M 342
situation was real . M 328
situation did not . M 302
sickness with them . M 287
situation long ago . M 272
sickness with him . M 270
silently with her . M 254
situation you fear . M 244
sickness and war . M 241
situation for you ! M 238
situation for men . M 238
silently for him . M 226
situation this was . M 224
situation does not . M 222
silenced for long . M 218
situation one day . M 212
situation and act . M 212
situation thus far . M 210
situation and age . M 210
sickness and all . M 210
situation for now . M 202
situation that day . M 194
situation they fear . M 188
silently and long . M 184
situation than you . M 182
situation and use . M 178
situation with you ? M 166
situation and all . M 166
situation can not . M 162
sickness and die . M 161
situation with god . M 158
situation for each . M 158
situation than they . M 156
situation for man . M 156
situation than men . M 152
sickness and sin ? M 150
silenced long ago . M 148
situation too long . M 146
situation for him ? M 144
silently for her . M 142
situation each day . M 140
situation you are . M 138
situation with him ? M 134
sickness and aging . M 134
situation was now . M 130
situation his way . M 130
sickness with her . M 126
situation was then . M 124
situation each year . M 124
situation that year . M 118
situation for her ? M 118
silently with them . M 116
situation for them ? M 110
situation for her ! M 110
silenced his own . M 110
sickness than men . M 110
situation was odd . M 108
sickness this year . M 108
situation are not . M 106
situation and death . M 104
situation can get . M 102
situation was going . M 100
situation with his . M 98
situation all day . M 98
sickness with you . M 94
sickness for her . M 93
situation this way ? M 92
situation than she . M 90
situation now was . M 88
sickness with sin . M 88
situation too far . M 86
situation for that . M 86
situation and his . M 86
sickened with fear . M 86
situation than now . M 82
silently near him . M 80
sickness each year . M 45
