guess as to the M 51192
guide us in the M 42692
guide us to the M 30367
guide as to the M 30170
guide me to the M 13328
guide me in the M 11093
guard of the king M 7084
guide me in my M 7060
guide us as we M 5759
guide us as to M 5524
guide it to the M 5369
guide it in the M 5178
guest of the king M 5004
guess it is the M 4705
guide us on the M 4661
guess it to be M 4224
guilt is to be M 3987
guide is to be M 3196
guiding us to the M 3108
guard as to the M 3094
guiding me to the M 2706
guide to us in M 2705
guide me on the M 2511
guiding us in the M 2470
guide me on my M 2418
guilt of the king M 2246
guide me to my M 2196
guard is to be M 2106
guess to be the M 1966
guide me to it M 1774
guide us to an M 1750
guiding me in the M 1744
guard it in the M 1644
guiding it to the M 1634
guest is to be M 1472
guilt is in the M 1333
guide is in the M 1324
guilt or of the M 1280
guard so as to M 1251
guide us if we M 1246
guide to go by M 1226
guard to the king M 1204
guide me as to M 1177
guiding it in the M 1154
guide us to it M 1140
guard is in the M 1077
guiding me in my M 940
guess at it by M 932
guide to me in M 832
guess it is my M 824
guilt is on the M 822
guard it as the M 820
guilt on to the M 814
guilt as to the M 780
guard to go to M 778
guard is on the M 777
guide us by the M 744
guilt or is an M 704
guide is on the M 703
guilt of it is M 690
guest is in the M 678
guilt of it to M 676
guilt so as to M 656
guide as it is M 634
guard to be in M 630
guard or in the M 613
guest wing of the M 610
guide so as to M 605
guard it on the M 604
guilt as it is M 598
guide us on to M 590
guide it on the M 590
guide us to do M 586
guard up to the M 584
guard at the king M 572
guilt as if it M 570
guide me to do M 570
guard is at the M 566
guard or of the M 560
guide us in an M 558
guard us in the M 550
guess he is the M 545
guess it is to M 544
guest as if he M 534
guess if it is M 528
guide up to the M 526
guide it as it M 522
guess it by the M 517
guess it is up M 510
guess it is in M 497
guest to go to M 496
guide us up the M 492
guide it by the M 490
guide is at the M 474
guide the king in M 473
guest at the king M 458
guilt is at the M 455
guess at in the M 452
guess the thing to M 442
guide to be the M 439
guess it is an M 438
guide to go on M 431
guess if he is M 426
guide if it is M 425
guide or in the M 423
guess it in the M 420
guest to do the M 416
guide to it is M 412
guess me to be M 412
guide me by the M 404
guess it at the M 398
guess to be so M 394
guess it is no M 385
guiding it by the M 380
guest as to the M 376
guess the thing is M 372
guide to the ring M 369
guess he is in M 365
guess to be in M 363
guide us at the M 354
guard or to the M 353
guard as if he M 348
guest to do so M 346
guiding us on the M 344
guiding us to an M 338
guard it to the M 338
guest to be the M 334
guard me as the M 332
guide me up the M 331
guilt as in the M 330
guilt or in the M 326
guide us is the M 326
guide us up to M 324
guide to go to M 324
guide is by no M 320
guest as he or M 318
guide me to an M 314
guilt as if he M 312
guide us to be M 312
guilt to be the M 310
guiding me on the M 310
guiding us as we M 308
guide to us on M 308
guide to do the M 308
guide to the king M 305
guess it is so M 303
guard or by the M 301
guilt to the king M 296
guilt of it on M 296
guard to be on M 295
guilt if we do M 294
guest up to the M 288
guess is to be M 288
guess if we do M 288
guard me in the M 284
guard up in the M 281
guiding us as to M 280
guest is at the M 280
guilt as if the M 278
guiding me on my M 278
guess is he is M 278
guiding me to my M 274
guard to do the M 271
guard us to the M 270
guilt be on my M 264
guess is to the M 263
guiding me up the M 260
guess as to my M 258
guard to be the M 258
guilt if it is M 256
guide it on to M 256
guilt is by no M 254
guide it to an M 254
guess it is at M 243
guilt or to the M 240
guilt is of the M 240
guard if he is M 237
guess is in the M 233
guide us as the M 232
guard up on the M 232
guard on to the M 232
guilt up to the M 230
guest is in no M 226
guest at the tea M 226
guess it is as M 226
guide us as he M 224
guard ring is to M 224
guard it as it M 224
guest is on the M 222
guess at by the M 222
guide as in the M 221
guess we go to M 221
guide to the the M 216
guard us on the M 216
guiding me by the M 212
guide to us as M 212
guard me in my M 210
guess to be an M 209
guide us up it M 206
guide us in it M 206
guard it at the M 206
guard it by the M 202
guide or as an M 198
guide is of the M 198
guilt or by the M 196
guide us in so M 196
guess at it as M 196
guide me so to M 194
guard in the king M 192
guilt if he is M 190
guess as to an M 190
guard to do it M 189
guide it at the M 187
guard it as he M 186
guard at sing sing M 184
guard as if it M 184
guide it as to M 182
guess at it in M 182
guard is of the M 182
guard of the foe M 180
guiding us by the M 178
guide me at the M 178
guard it as if M 176
guard ring on the M 175
guide of the king M 173
guide me on to M 173
guess is it is M 172
guard to go on M 170
guide on to the M 169
guilt of it in M 168
guide to it in M 168
guard as if to M 168
guard on it to M 165
guide ring on the M 164
guilt of the thing M 162
guard of it on M 158
guard me to the M 158
guilt to be an M 154
guard it as we M 154
guide to be in M 153
guard to do so M 153
guilt of it by M 152
guilt is on my M 152
guiding me to do M 152
guide is to the M 151
guilt or go to M 150
guide if he is M 150
guard ring of the M 150
guard or on the M 150
guess is on the M 149
guard as to be M 149
guiding it as it M 148
guide to be an M 148
guard ring to the M 148
guide the king to M 146
guard me to my M 146
guard me on my M 146
guest so as to M 144
guide it up to M 142
guest if he is M 142
guard us as we M 142
guard me on the M 142
guard ring in the M 141
guiding it on the M 140
guide or on the M 140
guest or as an M 140
guard of it to M 140
guard up at the M 139
guide me to be M 138
guide it as he M 138
guess it on the M 138
guess it is if M 135
guilt is in me M 134
guide to be of M 134
guest to be an M 134
guide to me on M 133
guilt if he or M 132
guard to be as M 131
guard as it is M 131
guilt on to me M 130
guilt as to be M 130
guiding it on to M 130
guide is up to M 130
guide to do so M 128
guide it so as M 128
guide is in no M 128
guess we do it M 127
guilt is to the M 126
guilt as he is M 126
guest it to be M 126
guest as if it M 126
guess he is at M 126
guess at it or M 126
guide to us to M 125
guilt is in no M 124
guide us or to M 124
guide it up the M 122
guide it as the M 122
guest or to the M 122
guess we do at M 121
guilt is of no M 120
guide to the in M 119
guide is of no M 119
guilt as if we M 118
guest as he is M 118
guest if he or M 116
guide to me to M 112
guide me up to M 112
guard if it is M 112
guide it is to M 111
guide as up to M 110
guest is of the M 110
guard is to the M 110
guess to me it M 109
guide up in the M 108
guide or by the M 108
guard as to my M 108
guess to be at M 107
guard it as an M 107
guilt in the king M 106
guiding us to do M 104
guide me in it M 104
guard the king in M 104
guilt of it as M 103
guide us so we M 102
guide as he or M 101
guide me or to M 100
guide is to go M 100
guest to be in M 100
guess he is as M 100
guess at the king M 100
guess as if it M 100
guard as in the M 100
guiding it to an M 98
guard wing of the M 98
guide or to the M 96
guest he is to M 96
guilt to be so M 94
guiding us on to M 94
guide us it is M 94
guide as if it M 94
guard the king of M 94
guest wing to the M 93
guilt or as an M 92
guiding me to an M 92
guess if we go M 92
guard of the so M 92
guard it in my M 91
guide to go at M 90
guide is to do M 90
guess to be of M 90
guess he is up M 90
guess he is on M 90
guide us as in M 88
guide it or to M 88
guest is to the M 88
guiding it as he M 86
guest on to the M 86
guest if it is M 86
guess is if we M 86
guard on the king M 86
guilt is by the M 84
guiding us up the M 84
guest as it is M 84
guide or at the M 83
guide it to my M 82
guide it or the M 82
guard ring at the M 82
guilt to be in M 80
guide us in to M 80
guard it by an M 80
guard as if we M 80
guess as it is M 70
guess at it is M 53
guide to the do M 52
guest to go on M 51
guard to do as M 49
guard as by the M 49
guess so as to M 48
guide to go in M 47
guide or to be M 46
guess as in the M 46
guide to me as M 45
guide to go up M 45
guide it is the M 43
guess we go on M 43
guess we go in M 43
guard to go in M 42
guide to do it M 41
guard as he is M 41
gusts of up to D 1775
guide me by thy D 1675
guide us by thy D 1384
gulfs of the sea D 1313
guide to the sea D 968
guide me in thy D 878
guise of the so D 851
guide us to thy D 777
guard of the sea D 614
gutsy thing to do D 594
guinea is in the D 426
guise of the king D 422
guinea or in the D 410
guinea is to be D 390
guild is to be D 344
gushing up in the D 336
gusto as if he D 318
gusto as if it D 302
gulls on the wing D 300
guinea up to the D 272
gumming up of the D 243
guano is to be D 228
guinea is on the D 180
gully on to the D 178
guide me to thy D 177
guinea to go to D 158
guise as in the D 154
guide to the ear D 154
guinea as it is D 150
guinea to be the D 149
guinea it is the D 146
gulch is in the D 134
guise or in the D 134
guinea or to the D 133
guinea as if it D 132
guide us in thy D 132
guard on the sea D 131
guise as to be D 118
guinea as in the D 118
guard by the sea D 114
guyed at by the D 112
guild or of the D 112
guise it is the D 106
guinea or of the D 106
gulls on the sea D 105
guinea or on the D 104
guise to the king D 100
guild or by the D 98
gushing up to the D 97
guild so as to D 92
guild is in the D 92
guess my ear is D 92
guinea so as to D 91
gushing up of the D 90
guinea to be an D 90
guilt is in thy D 90
gully up to the D 88
gulping as if he D 84
guise so as to D 82
guilt of the ex D 45
guide to the re D 44
gully to the sea D 41
