job to job . M 24136
job at all . M 19290
job or not . M 9918
joy to him . M 8756
joy to read . M 6022
job of all . M 4702
joy to her . M 4420
joy in god . M 4399
joy to hear . M 4162
job of that . M 3914
joy in him . M 3322
joy to them . M 3308
joy of all . M 3206
job or not ? M 3206
joy to see . M 3186
joy in them . M 3184
joy of god . M 3120
joy of fear . M 2992
job on him . M 2962
job so far . M 2844
job it was . M 2830
job to him . M 2498
joy of him . M 2350
joy to all . M 2320
joy on earth . M 2299
joy to you . M 2278
job he did . M 2262
job of this . M 2230
joy of being . M 2134
job on you . M 1756
job on earth . M 1728
job is easy . M 1714
joy at all . M 1706
job at that . M 1686
joy to use . M 1566
job he had . M 1532
job to you . M 1492
joy in that . M 1488
joy of them . M 1470
job on them . M 1462
job is that ? M 1338
job to them . M 1262
joy of her . M 1224
job on her . M 1216
job at all ? M 1124
job he does . M 1058
joy in her . M 990
joy of earth . M 957
job is run . M 924
joy of eating . M 886
job he has . M 884
joy in this . M 878
job to her . M 870
joy in you . M 858
joy of man . M 850
joy or fear . M 836
joy of singing . M 836
job on that . M 826
job by now . M 794
joy to god . M 760
job or two . M 732
joy to joy . M 722
job on this . M 718
job of them . M 692
job is this ? M 594
job we did . M 574
job by then . M 574
job it does . M 558
job to run . M 538
job of his . M 528
job it was ! M 522
job to job ? M 520
job is not . M 520
job as this . M 516
joy of this . M 514
joy on joy . M 502
joy of doing . M 472
joy it was ! M 460
job by job . M 458
job or two ? M 456
job is going . M 456
job of both . M 438
job we can . M 436
joy it was . M 432
job to you ? M 432
job at this . M 400
joy to own . M 396
job he can . M 394
job so far ? M 392
job so far ! M 390
joy of men . M 380
joy in death . M 380
job as that . M 380
joy as this . M 378
job of things . M 378
job at all ! M 370
joy to men . M 368
joy to man . M 368
joy to both . M 368
joy of you . M 364
joy of song . M 358
joy to you ! M 352
joy in that ? M 350
joy to fly . M 348
joy of death . M 344
job or off . M 344
job as men . M 338
job or both . M 334
joy of both . M 320
joy to you ? M 314
joy at this . M 306
joy to die . M 300
job so easy . M 300
job of him . M 298
joy to read ! M 296
joy of that . M 294
job is his . M 292
job of two . M 278
job to get . M 276
job of one . M 276
joy of him ! M 268
joy in being . M 268
job as you . M 260
job as yet . M 260
joy is this ! M 250
joy by all . M 250
joy the earth ! M 248
joy of all ! M 240
joy in this ? M 238
joy in singing . M 228
joy in god ? M 216
joy of her ! M 214
joy in song . M 214
job to try . M 214
job my way . M 210
joy in doing . M 202
job is low . M 202
job so long . M 200
job in one . M 198
job as any . M 194
job at both . M 192
joy is dead . M 190
joy as now . M 190
job to ask . M 186
job so bad . M 178
job he got . M 174
job he did ! M 174
joy of death ! M 172
joy he had . M 172
job of war . M 172
joy on earth ! M 166
joy to run . M 164
job of old . M 162
job or that . M 160
joy to see ! M 158
joy of war . M 158
joy to all ! M 156
job of that ! M 154
joy in you ! M 152
job on you ? M 152
joy of things . M 150
joy is not . M 150
job it did . M 150
joy in both . M 148
joy to fear . M 144
joy in god ! M 142
job we had . M 142
joy in war . M 140
job of men . M 140
job of all ! M 140
joy is this ? M 132
job or pay . M 130
joy in that ! M 128
joy to pay . M 126
job to lead . M 126
job is you . M 126
job of eating . M 124
joy as this ? M 122
joy to death . M 120
joy on earth ? M 120
joy is real . M 120
joy in eating . M 120
job is all . M 120
joy to earth ! M 116
joy of being ? M 116
job on him ? M 114
job by day . M 112
joy or not . M 110
joy of god ! M 110
job in may . M 110
job of you . M 108
job of her . M 108
job he did ? M 108
job of each . M 106
joy in man . M 104
job is now . M 104
joy to them ? M 102
joy at that . M 102
job on you ! M 102
job of this ? M 102
job in two . M 102
job at mit . M 102
joy is god . M 100
job it can . M 100
job in them . M 100
joy of dying . M 98
job is dead . M 98
job in that . M 98
joy of his . M 96
job or not ! M 96
joy in things . M 94
job is set . M 94
job is new . M 94
job to him ? M 92
job in this . M 92
job as that ! M 92
joy of that ! M 90
job is due . M 90
job to win . M 88
job of lying . M 88
joy of being ! M 86
joy in them ? M 86
job of dying . M 86
joy to her ? M 84
job to death . M 84
job as one . M 84
joy to hear ! M 82
joy to bear . M 82
joy at all ! M 82
job to fix . M 82
job by now ? M 82
joy or fear ? M 80
job by him . M 80
