joy i felt at M 3086
job i have to M 2546
joy i felt in M 2164
joy i have in M 2141
joy i feel in M 1919
joy i feel at M 1560
job i want to M 1406
joy i find in M 1178
job i have in M 966
joy i felt on M 875
job i used to M 742
joy i used to M 656
joy i felt as M 654
job i have is M 556
joy i take in M 532
job i went to M 448
job i know of M 402
job a hell of M 400
joy i heard the M 388
joy i feel on M 352
job i need to M 326
joy i feel to M 316
job i came to M 288
job i will be M 284
joy i felt to M 274
joy i have to M 264
joy i felt the M 264
joy i feel is M 250
job i made of M 242
job i like to M 234
joy i want to M 226
joy i have is M 206
job i have on M 203
job i want is M 194
joy i think of M 190
job i must do M 170
joy i told my M 164
joy i feel as M 158
job a month or M 148
job a week or M 138
job i will do M 128
joy i have on M 126
job i held in M 126
job i have no M 126
joy i have of M 120
job i held at M 118
job i think it M 116
joy i find my M 112
job i have the M 108
job i have at M 106
job i hope to M 104
joy a knot of M 102
joy a kind of M 98
joy i hope to M 94
joy i have at M 94
job a part of M 94
job i want it M 92
job i like the M 92
joy i wish to M 90
joy i went to M 90
job i said to M 90
joy a part of M 88
job i think the M 86
joy i find it M 84
job i take on M 46
job i went on M 44
joy i took in D 676
jot a note to D 560
jot a note on D 379
job i took on D 176
jog a mile or D 174
jot a note in D 164
jog a mile in D 124
job a heck of D 122
jot a note of D 107
jot a word or D 102
jot a note or D 100
job i took in D 90
