jobs were scarce . M 4640
jobs were created . M 4366
join their forces . M 1428
join their number . M 1022
join their church . M 924
join other groups . M 754
join these groups . M 720
jobs were secure . M 590
join their circle . M 550
join your church . M 538
join such groups . M 524
join their family . M 520
join your family . M 514
jobs were filled . M 432
jobs more secure . M 342
jobs have changed . M 306
join your friend . M 300
join their groups . M 298
join your brother . M 280
join their fathers . M 264
join their bodies . M 260
join these points . M 226
jobs well enough . M 214
join your church ? M 190
join their effort . M 190
join their waters . M 188
join their guests . M 176
jobs were needed . M 174
jobs will result . M 168
join their master . M 164
join their mothers . M 162
join their voices . M 152
join your family ? M 150
join some church . M 142
jobs when needed . M 140
join your forces . M 134
join their elders . M 134
jobs vary widely . M 132
jobs will follow . M 124
join their powers . M 122
jobs upon release . M 114
join their friend . M 108
join their streams . M 106
join your guests . M 102
jobs less secure . M 102
jobs even better . M 102
join their brother . M 98
join their scheme . M 94
join your circle . M 92
join these groups ? M 92
join their orders . M 92
join their meetings . M 90
jobs were changed . M 88
join your sister . M 84
jobs here myself . M 84
join their prince . M 80
