join with him in M 54796
join with them in M 50159
join with you in M 22167
jobs that can be M 12158
join with her in M 9266
jobs can not be M 9060
join them for the M 8046
join him for the M 6418
join him with the M 5306
join him and the M 4882
join with them to M 4538
join them with the M 4328
jobs that may be M 3630
jobs may not be M 3564
jobs are going to M 3084
jobs for all the M 3080
jobs for them in M 2882
join with all the M 2880
jobs that had to M 2876
jobs and that the M 2684
join with him to M 2586
join them and the M 2310
jobs that are in M 2246
join them and to M 2214
jobs that they do M 2154
jobs are not the M 2122
join her for the M 1988
joys and woes of M 1948
jobs and for the M 1818
jobs for them to M 1812
jobs for all of M 1758
join her and the M 1732
join with all my M 1730
jobs they can do M 1708
join with men in M 1701
jobs and how to M 1674
join you for the M 1668
jobs are easy to M 1602
jobs and had to M 1582
joys are now no M 1575
join him and to M 1548
jobs you can do M 1538
jobs are not as M 1511
join him for an M 1506
join with any of M 1464
jobs that are to M 1458
join them for an M 1368
join with you to M 1334
jobs that are the M 1270
join them one to M 1254
join with him as M 1221
join with that of M 1220
join any one of M 1194
jobs they had to M 1156
jobs and with the M 1144
join with one or M 1112
jobs and all the M 1096
joys and all the M 1068
join them for tea M 1060
jobs are not so M 1042
join them and be M 1026
join him and he M 1004
jobs that lead to M 1002
join you and the M 984
join you with the M 982
jobs are not in M 962
join his son in M 896
join with them as M 846
jobs that pay the M 830
jobs that are of M 810
join with god in M 802
join him for tea M 796
join with one of M 784
jobs and not to M 774
jobs and can be M 772
jobs for fear of M 756
jobs was that of M 752
jobs and try to M 750
jobs that you do M 748
join her son in M 728
jobs for him to M 728
join them and go M 726
jobs can lead to M 724
join them and he M 706
jobs and had no M 694
jobs that are at M 692
jobs for men in M 682
jobs and out of M 676
join them all in M 664
jobs that are so M 660
jobs for each of M 656
jobs has led to M 654
join his men in M 648
jobs they had in M 640
join her for tea M 638
jobs and that it M 638
jobs and may be M 630
joys that are to M 628
join you all in M 628
jobs than did the M 620
join you and we M 616
join with them on M 610
jobs that men do M 600
jobs and going to M 594
jobs they are to M 586
join with them or M 570
join with you on M 566
jobs for both of M 566
jobs that are no M 562
join them but he M 554
jobs can then be M 552
jobs are for the M 542
join him with an M 532
join him and go M 530
jobs and set up M 521
jobs and they do M 518
join him and we M 516
join can not be M 516
join with him on M 512
jobs for you to M 504
join with her to M 500
join them and do M 498
join you for an M 496
jobs and then to M 496
jobs are set up M 495
jobs may lead to M 494
join with all of M 490
join them and we M 488
jobs was one of M 488
jobs are not to M 486
jobs that are on M 485
join them out of M 480
join him near the M 478
join with this the M 476
join with them at M 456
jobs are now in M 454
join with him or M 448
join her with the M 448
join this with the M 443
jobs they may be M 440
jobs for them or M 440
join him and be M 436
jobs than they do M 434
jobs and how it M 434
jobs can now be M 426
jobs are not at M 426
jobs for them at M 424
jobs and thus to M 424
join her for an M 422
join and lead the M 420
jobs and not the M 418
jobs that pay as M 412
jobs are out of M 406
join one end of M 405
join with them the M 404
jobs for them on M 404
join for fear of M 400
joys that can be M 396
jobs for him in M 390
jobs are apt to M 386
joys can not be M 378
jobs and lead to M 376
join him with as M 372
join them with an M 368
jobs that led to M 364
jobs than can be M 364
jobs and how the M 364
jobs that pay at M 360
jobs for one or M 360
jobs and this is M 350
jobs than for the M 348
jobs for them as M 346
jobs are not of M 344
jobs off and on M 340
joys that are in M 336
join you with my M 330
join him with my M 328
jobs for all in M 326
jobs and that he M 324
jobs but not in M 322
jobs for both the M 320
join you for tea M 318
jobs and all of M 318
jobs for all at M 316
join his men at M 314
jobs for one of M 314
jobs and thus the M 314
join with him at M 312
jobs with all the M 312
jobs and get the M 308
jobs and one of M 306
join her lot to M 304
jobs that fit the M 302
jobs and not in M 300
jobs and not be M 300
join and that the M 298
jobs with few or M 298
join with you as M 297
join her son at M 294
join with two or M 290
join with them of M 290
jobs for her to M 290
jobs and led to M 288
jobs was due to M 284
jobs that use the M 282
jobs each year in M 280
joys and all my M 278
joys that are at M 276
joys are due to M 274
join them with my M 274
join any two of M 274
jobs than are the M 274
jobs you may be M 272
join his son at M 270
jobs and not on M 270
join them and so M 268
jobs but for the M 268
jobs and see if M 268
jobs and are in M 268
jobs and way of M 266
join with them by M 264
join him and my M 264
join and use the M 264
joys that may be M 262
jobs that had no M 262
jobs than does the M 262
jobs and that is M 262
joys are not to M 258
join his team of M 256
join her and to M 256
jobs and end up M 256
join them all at M 254
jobs for any of M 254
join them but the M 252
join his team in M 252
jobs was with the M 250
jobs with one of M 246
join them both in M 242
jobs are due to M 242
join with you the M 240
jobs put them in M 240
jobs each year to M 240
joys that are the M 238
jobs than was the M 238
jobs are with the M 238
jobs and bring in M 237
join and act in M 236
jobs was not the M 236
join has got to M 234
jobs she had to M 234
jobs and let the M 234
jobs than men to M 232
join with men of M 230
join with him the M 230
jobs than men do M 230
jobs for two or M 230
jobs did you do M 226
join and aid in M 224
jobs than with the M 224
join our idea of M 220
jobs was not at M 220
jobs that may or M 218
join them and in M 216
join his men on M 216
jobs for you in M 216
joys with her in M 214
join him but he M 214
jobs but not the M 210
jobs and had the M 210
join with any in M 209
jobs are run on M 209
joys that are no M 208
join them than to M 208
jobs and that of M 208
jobs and men in M 208
join him and in M 206
jobs but not to M 206
jobs are run in M 202
jobs are one of M 200
jobs and add to M 200
join him and do M 198
jobs and are the M 198
join his team as M 197
join him out of M 196
jobs than men in M 196
jobs but not at M 194
jobs they are in M 193
join you both in M 190
join and try to M 190
joys are not the M 188
join them and it M 188
join you and go M 186
join with him by M 186
jobs for men to M 186
jobs and that in M 186
join her and we M 184
join and how to M 184
jobs they did in M 184
jobs that run on M 184
jobs that pay an M 184
jobs and that we M 184
jobs that are as M 182
jobs and with no M 178
join our team of M 176
jobs now and in M 176
jobs but that the M 176
jobs and then the M 176
jobs and are no M 176
join him and so M 175
join her and my M 174
jobs you had to M 170
jobs are and the M 170
join with them if M 168
join you and be M 166
join him that he M 166
join him off the M 166
jobs did not go M 166
jobs but they do M 166
joys are not of M 164
jobs that bring in M 164
jobs for them if M 164
joys may not be M 162
join you two in M 162
join her near the M 160
join one with the M 158
jobs may then be M 158
jobs for him at M 158
jobs and use the M 158
jobs are put in M 157
join you and to M 156
join you all at M 156
jobs and then go M 156
jobs for them is M 154
jobs and put the M 154
join with him if M 152
join him was the M 152
jobs and who do M 152
join you and me M 150
jobs than that of M 150
jobs are few in M 150
jobs for two of M 148
jobs and you do M 148
jobs and earn the M 148
join him but the M 146
join and pay the M 146
jobs was not an M 146
jobs are out in M 146
jobs are low in M 146
jobs and had an M 146
jobs and cut the M 146
join not with the M 144
join him and it M 144
jobs was that the M 144
jobs was going to M 144
jobs for all is M 144
jobs are all in M 144
join you one by M 142
join him with no M 142
jobs and how we M 142
join one that is M 141
join not with us M 140
join her and be M 140
jobs that had the M 140
jobs each year as M 140
jobs and was the M 140
jobs and that if M 140
joys was two or M 138
join with you at M 138
join him now in M 138
join her out on M 138
join and then to M 138
jobs can thus be M 138
jobs but with the M 138
jobs are put on M 138
jobs was not as M 137
join them was to M 136
join him and by M 136
join and not to M 136
jobs are not on M 136
join with his in M 134
join them and as M 134
jobs they had at M 134
jobs for use in M 134
jobs for men of M 134
jobs and put on M 133
join them with it M 132
join them all to M 132
jobs with that of M 132
jobs and thus be M 132
jobs and that no M 132
join with her as M 131
join and act as M 131
join his own to M 130
jobs than any of M 130
joys than any he M 128
joys and not the M 128
join you with me M 128
join his team at M 128
join and aid the M 128
jobs and who is M 128
joys and bear the M 126
join our team in M 126
jobs they had or M 126
jobs for men or M 126
jobs can you do M 126
join them was the M 124
join them near the M 124
join him out on M 124
jobs using one of M 124
jobs they can be M 124
joys are but the M 122
join them end to M 122
jobs you had in M 122
joys that with my M 120
join her but he M 120
jobs that fit in M 120
jobs and pay the M 120
join him out in M 118
jobs this may be M 118
jobs for her in M 118
join her and he M 116
jobs with one or M 116
join with man in M 114
join them that the M 114
join them and if M 114
join god and the M 114
joys that are so M 112
joys and all we M 112
join and that we M 112
jobs for them so M 112
joys that out of M 110
join with all in M 110
join may not be M 110
jobs that has to M 110
jobs than all the M 110
jobs put them at M 110
jobs are run by M 110
join with her on M 108
join them with as M 108
join any one in M 108
join and can be M 108
jobs for them by M 108
jobs for all or M 108
jobs but had to M 108
jobs and was an M 108
jobs and use of M 108
jobs and set the M 108
jobs with few if M 106
jobs may now be M 106
jobs for one thing M 106
jobs each year or M 106
jobs did they do M 106
jobs can use the M 106
jobs are run at M 106
jobs and are at M 106
join them but we M 104
jobs now that the M 104
jobs and get on M 104
joys and all of M 102
join with men to M 102
join one idea to M 102
join his own on M 102
join his own in M 102
join can then be M 102
jobs that pay in M 102
jobs she has to M 102
jobs but had no M 102
jobs and then we M 102
jobs and not as M 101
joys and woes to M 100
join you and my M 100
join them all as M 100
join him and me M 100
jobs may all be M 100
jobs are all the M 100
jobs and then he M 100
jobs and run the M 100
join our team as M 99
join that with the M 98
join him and an M 98
jobs than men of M 98
jobs now than in M 98
jobs and was in M 98
join with you if M 96
join them that he M 96
join them due to M 96
join them but it M 96
join them and eat M 96
join them and by M 96
join him was no M 96
join him all the M 96
jobs for men is M 96
jobs can and do M 96
jobs and has the M 96
join with two of M 94
join them with so M 94
join his son on M 94
join her and go M 94
jobs one has to M 94
jobs led him to M 94
jobs are low on M 94
jobs and pay in M 94
jobs and men to M 94
join with you or M 92
join him that the M 92
jobs now than at M 92
jobs and off the M 92
jobs and are on M 92
join them had to M 90
join them and on M 90
jobs they had no M 90
jobs that run in M 90
jobs but who do M 90
jobs and bring the M 90
joys with her to M 88
join with them so M 88
join them off the M 88
join all men in M 88
jobs that each of M 88
jobs than you do M 88
jobs but may be M 88
jobs are won or M 88
jobs and using the M 88
joys that with the M 86
joys are for the M 86
join them and sing M 86
jobs with both the M 86
jobs can all be M 86
jobs but this is M 86
jobs and that by M 86
jobs and see the M 86
jobs and put in M 86
jobs and one or M 86
joys that lie in M 84
join you and do M 84
join each set of M 84
jobs that was the M 84
jobs that all the M 84
jobs may end up M 84
jobs led them to M 84
jobs for him or M 84
jobs bring them in M 84
join his lot to M 82
join all but the M 82
jobs for men on M 82
join them using the M 80
join her man in M 80
join and that he M 80
jobs was for the M 80
jobs and ease the M 80
jobs for men as M 69
join them all up M 60
joys that end in M 51
jobs and act as M 51
join him and as M 44
jobs for him as M 44
jobs and going on M 41
john was one of D 13610
john was going to D 7306
john was not the D 5352
john can not be D 3970
joke was that the D 3050
john was put in D 3040
john was not in D 2854
john was not to D 2672
john and all the D 2596
john and that of D 2456
john did not go D 2368
john was out of D 2366
john was not at D 2108
john was not so D 2030
john law and the D 1945
jolt him out of D 1890
john saw that the D 1818
john got out of D 1572
john hay and the D 1569
john and one of D 1512
john and with the D 1368
jolt them out of D 1365
john did not do D 1348
joke was that he D 1280
john gay and the D 1242
john was not an D 1180
john had not the D 1094
john who was the D 1086
josh was going to D 1050
john jay and the D 1038
john was put to D 1030
john was that he D 1012
john saw that he D 988
john jay was the D 978
john set out to D 972
john was not as D 950
john was now in D 930
jolt her out of D 877
john did not eat D 864
john was hit by D 850
john may not be D 834
john had all the D 756
john and that he D 754
jolt you out of D 750
john had had the D 738
john had won the D 726
john had had to D 698
john does not go D 696
joke with one of D 674
joke was that it D 668
john was with the D 668
john with him to D 664
joke and that he D 654
john with that of D 632
joke was that if D 630
joke can not be D 622
john was with me D 612
john and two of D 610
john was lying on D 605
john had read the D 578
joke him out of D 536
john was led to D 534
john law was the D 532
john are going to D 526
join with thee in D 522
john had set up D 522
john was due to D 518
john saw that it D 514
jobs per year in D 514
john who was in D 504
joke and that the D 502
john set out on D 502
john had had no D 498
john was not of D 492
john ray and the D 490
john has had the D 490
john does not eat D 490
joke her out of D 486
john with all the D 484
josh was one of D 482
john day and the D 482
john saw him in D 480
john had one of D 474
joking with one of D 468
john was now the D 464
joke was not on D 462
john does not do D 462
john did was to D 446
john and for the D 440
john did not at D 438
john and that the D 432
john say that he D 420
joke with him in D 418
joke was not so D 414
john and son of D 408
john was that of D 406
john and then to D 406
joke that one of D 402
john was using the D 402
john and all of D 402
joke did not go D 398
john jay for the D 398
john can not do D 398
john had put the D 394
john who was to D 378
john hay was the D 364
john has had to D 364
john can not go D 364
john jay was in D 360
john had had an D 356
john ran out of D 354
john ray was the D 352
joke that can be D 350
john hay that he D 350
john and then at D 344
joke being that the D 342
john saw fit to D 342
john hay that the D 342
john was for the D 340
john and how he D 340
john got off the D 334
joking with them in D 327
john met with the D 326
john has all the D 326
john then goes on D 325
john who did it D 324
john was out in D 320
john was not on D 320
john was doing the D 318
joke was that we D 316
john did all the D 316
john has read the D 314
john dean and the D 314
john and this is D 314
john was then in D 306
john had met the D 300
joke was going to D 296
josh was not the D 292
joking with them as D 290
joke with him as D 289
john was son of D 286
joke was one of D 284
joke with all the D 283
john who had the D 282
john has not the D 282
joke with them in D 280
john for one of D 280
joke may not be D 278
john had got the D 274
john can see the D 274
john and not the D 274
john was met by D 272
john led her to D 272
john hay was to D 268
john had yet to D 266
john had put up D 266
josh was out of D 262
john say that the D 262
josh got out of D 260
john goes out of D 258
john and one or D 258
joke for him to D 248
john was that the D 248
john was lying in D 248
john was off to D 246
john nor any of D 246
john and not to D 246
joke and that it D 245
john was with us D 242
jobs per year to D 242
john saw one of D 236
john was put on D 234
john hay for the D 234
john for all the D 234
john saw was the D 232
john did not so D 232
john was now at D 230
john that god is D 230
joke and not to D 227
john jay that the D 226
joke with him to D 225
john ran for the D 224
john was off on D 222
john and then the D 222
john are not the D 220
john met her at D 218
john had now no D 218
john day dam on D 218
john had set the D 216
joke that has to D 214
john who had to D 214
john does not in D 214
john dean was the D 214
john being one of D 214
john was out on D 210
john was going on D 210
john get out of D 210
joke was that in D 208
john that she is D 208
john met them at D 208
joke with her as D 206
joke all out of D 206
john led them to D 206
joking and that he D 205
join with all thy D 201
john and that it D 200
john was set at D 198
john does all he D 198
joke that was to D 196
joke for you to D 196
joke for them to D 196
john had led the D 196
john was head of D 194
joke was all the D 192
john who saw the D 190
john had put on D 190
john for him to D 190
john did not in D 190
john had put in D 189
john that one of D 188
john got out the D 188
john did all he D 188
jock was one of D 188
joke with them as D 186
john being out of D 186
joking with him as D 185
john did for the D 182
john and then he D 182
jowl with that of D 180
john set off to D 180
john met him at D 180
join with thee to D 178
john set out in D 178
john has won the D 178
john has had an D 178
john had met in D 178
john and try to D 178
jowl with one of D 177
joke that this is D 176
john has had no D 176
joke with him on D 174
john who was at D 174
john was doing in D 174
john jay that he D 174
joke was not the D 172
john saw him as D 172
john had now to D 172
john and saw the D 172
josh saw that the D 170
joking with all the D 170
john set off on D 170
john hay was in D 170
john hay put it D 170
john are not to D 170
john and then by D 170
john and see if D 170
john that all the D 168
joke that all the D 167
jowl with all the D 166
josh was not so D 166
john was easy to D 166
john and not of D 166
joke and one of D 164
john who was an D 164
john was and is D 162
john saw all the D 162
john sat with the D 162
john jay put it D 162
john does not at D 162
joking way that he D 161
joke and try to D 161
john was then at D 158
john had put it D 158
john goes off to D 156
john can use the D 156
join his gang of D 154
john put them in D 154
john let him go D 154
john had met at D 154
john led him to D 152
john has yet to D 152
joking with him in D 150
joke does not go D 150
joke being that it D 150
john was set to D 150
john now had to D 150
joke that was so D 148
joke for each of D 148
john was read to D 148
jolt and jar of D 146
joking with her in D 146
joke was now on D 146
john who was so D 146
john let him in D 146
john lee and the D 146
josh was not in D 144
joke was not at D 144
joke them out of D 144
john with one of D 144
john was set up D 144
john now sat by D 144
john and was the D 144
john and one to D 144
joke that was on D 142
john let her go D 142
john jay and to D 142
john has got the D 142
john hay was as D 140
john had run up D 140
joke with all of D 139
john with him as D 137
john saw this as D 137
joke that was in D 136
joke and that we D 136
joke and all the D 136
john was hit in D 136
john was but an D 136
john but not in D 136
joke too far to D 134
joke that has no D 134
john had got up D 134
john fox and the D 134
john for going so D 134
john set off in D 132
john law for the D 132
john had got to D 132
john day for the D 132
joke that had the D 131
jobs but not ex D 131
joke that she is D 130
joke and not the D 130
joke and hung up D 130
john who has the D 130
john was near the D 130
josh him out of D 128
joke was not to D 128
joke and for the D 128
john was now on D 128
john was doing it D 128
john that was the D 128
john that this is D 128
john has got to D 128
john had her on D 128
john got out at D 128
john has put the D 126
john had got an D 126
joking and that the D 125
joke that you do D 125
josh them out of D 124
joke got out of D 124
john had with the D 124
john did with the D 124
john and him in D 124
joke with her in D 123
joke for her to D 122
joke being that he D 122
john than with the D 122
john saw them in D 122
john met him in D 122
john law was in D 122
john had for the D 122
joke was out of D 120
john has put it D 120
joking with him or D 118
joking with her or D 118
joke with them to D 118
joke and not an D 118
john was now an D 118
john for that of D 118
joking with her as D 117
joke and has an D 117
joke with them or D 116
john with her to D 116
john was dead by D 116
john was apt to D 116
john than any of D 116
john lee was the D 116
john hay was an D 116
john deal with the D 116
john day was the D 116
joke that was the D 115
john had not as D 115
jolt one out of D 114
joke was that at D 114
john was off the D 114
john saw him on D 114
john now had the D 114
john was that it D 112
john had this to D 112
john goes out the D 112
john does not so D 112
john was led by D 110
john saw her in D 110
john has one of D 110
john had hit the D 110
john for fear of D 110
john but not the D 110
john are not in D 110
john and set up D 110
john and one by D 110
john and all my D 110
jock was out of D 110
john and that is D 108
john and him to D 108
john all that he D 108
jock was going to D 108
joke and you do D 106
john who had no D 106
john day dam in D 106
john was but the D 104
john than that of D 104
john set out at D 104
john hay with the D 104
john cut off the D 104
joking and singing as D 102
joke but not the D 102
john with him on D 102
john who had so D 102
john ran out to D 102
john and that in D 102
john and put it D 102
john and had to D 102
jogs with you at D 102
joke and then he D 100
join his dad in D 100
john with all my D 100
john this was the D 100
john had now the D 100
joke and see the D 99
john for being so D 99
joke that had to D 98
joke for all it D 98
john was now to D 98
john was doing at D 98
john put out the D 98
john jay and of D 98
john had had it D 98
john for them to D 98
john does all the D 98
josh was not at D 96
joke than with the D 96
joke goes that the D 96
john who lay on D 96
john who did the D 96
john jay with the D 96
john jay was at D 96
josh and all the D 94
joking with them or D 94
joking way that the D 94
joke was that no D 94
joke was all on D 94
john who was on D 94
john who does the D 94
john was ill at D 94
john was all the D 94
john saw him he D 94
john saw for the D 94
john sang out to D 94
john with him up D 93
jolt and then the D 92
joke that has the D 92
john was then the D 92
john was mad at D 92
john than for the D 92
john got rid of D 92
john dean was in D 92
john was fed up D 91
josh did not do D 90
joke than any thing D 90
john that can be D 90
john had read it D 90
john goes out to D 90
john but not of D 90
jowl with them in D 89
joke that may be D 89
joke for all the D 88
john set off at D 88
john pay for the D 88
john met her in D 88
john mean but to D 88
john let out an D 88
john got him to D 88
john and six of D 88
josh was not as D 87
joke was that my D 86
joke for all of D 86
john was out to D 86
john say that it D 86
john saw him go D 86
john nor any king D 86
john may now be D 86
john jay was an D 86
john hay that it D 86
john had put to D 86
john and tom to D 86
joking was going on D 85
joke was not as D 85
joking with her on D 84
joke and not as D 84
john with him in D 84
john was not my D 84
john was all of D 84
john ran off to D 84
john put him on D 84
john one day to D 84
john met them in D 84
john hay had the D 84
josh was lying on D 83
jogs you out of D 83
josh was not to D 82
joke her off the D 82
john was put up D 82
john was out the D 82
john put them on D 82
john had led to D 82
john did try to D 82
john and read the D 82
joys for thee my D 80
josh are going to D 80
john had sat in D 80
john fox was the D 80
joking that goes on D 67
joke with him or D 62
joke with any of D 53
joke with him at D 51
joke that they do D 49
joke with them at D 48
joke with you in D 46
joke with her or D 46
joke and say it D 46
john was not up D 45
john had hung on D 44
joke and cut up D 41
joke with her on D 40
joke was not in D 40
