fear i can not M 23751
fear i did not M 5428
fear i may not M 3135
fear i was not M 2200
fear i had was M 980
fear i was too M 790
fear i had not M 783
few i did not M 778
fear a man who M 635
fear a war with M 559
fear i had that M 516
fear i was going M 484
fear i may say M 477
few i can not M 394
fear i was out M 385
fear i may add M 354
few i had not M 306
fear i had had M 265
fear i had for M 247
fear i can say M 240
fear a god who M 220
fear a new idea M 215
fear i owe you M 180
fear a man can M 161
fear i may die M 152
fear i may see M 149
fear i was got M 136
fear a dying man M 136
fear a dead man M 130
fear i read with M 124
fear a new war M 115
fear a man has M 114
fear i may bring M 111
fear i bring you M 110
fear a man with M 109
few i can but M 108
fear a bad one M 108
fear i god nor M 102
few a long way M 96
fear d than they M 89
fear a long and M 87
fear i can add M 86
fear i may get M 45
fear a new and M 45
fear i was far M 44
fear i was doing M 42
fear i may yet M 40
fear a death that M 40
fed a low fat D 454
fed a dog with D 370
fed a dog for D 286
few i had met D 262
fed a cat with D 236
fed a hot meal D 234
fer i can not D 202
fer i did not D 173
feat i did not D 164
fee a fee that D 152
feat i can not D 136
feat i had not D 134
fee a man who D 126
few i met with D 116
fee a man that D 96
fer a man who D 94
fee i got for D 92
