fell between us . M 2972
feel ashamed of . M 1810
feet between us . M 1154
fell against it . M 1081
feel superior to . M 1038
fell against me . M 875
felt closest to . M 868
feel closest to ? M 782
feel closest to . M 731
feet against it . M 592
felt towards me . M 574
feel towards me . M 568
feet towards it . M 510
felt towards it . M 420
felt ashamed of . M 414
feel towards it . M 401
feel towards us . M 245
fell outside it . M 236
felt against it . M 234
felt between us . M 218
feel towards me ? M 206
felt capable of . M 188
fears blinded me . M 188
feel towards us ? M 186
feel capable of . M 184
feel superior to ? M 168
feel inferior to . M 168
fell towards me . M 166
feet touched it . M 162
feel against me . M 159
felt against me . M 158
felt towards us . M 146
feel certain of . M 134
felt superior to . M 126
felt certain of . M 122
feet towards me . M 112
felt outside it . M 106
feet outside it . M 104
feet stepped on . M 102
feel against it . M 96
felt against us . M 86
feel towards it ? M 84
