on one occasion a M 149635
on one occasion i M 116915
on this occasion i M 91080
on this subject i M 68795
on this occasion a M 49064
on this account i M 33406
on that occasion i M 26504
on this subject a M 17600
on that account i M 17318
on this account a M 15868
on that occasion a M 13374
on that account a M 12976
on its surface a M 10036
on that subject i M 8010
on this question i M 7550
on each occasion i M 7008
on each occasion a M 6570
on this journey i M 4960
on his arrival a M 2922
on this because i M 2856
on this question a M 2834
on war against a M 2446
on being offered a M 2390
on too limited a M 2264
on you because i M 1916
on any subject i M 1894
on our arrival i M 1794
on that because i M 1737
on this project i M 1726
on his account i M 1624
on that question i M 1580
on him because i M 1580
on this passage i M 1524
on them because i M 1314
on two hundred a M 1300
on her account i M 1230
on his arrival i M 1206
on for perhaps a M 1154
on its website a M 1096
on our arrival a M 1093
on that subject a M 1060
on how quickly a M 1038
on being refused a M 1024
on his receiving a M 1014
on his birthday a M 966
on its reverse a M 956
on his journey a M 940
on her because i M 934
on that journey i M 878
on its members a M 850
on and develop a M 840
on any occasion a M 794
on this problem i M 744
on his travels a M 739
on ten thousand a M 707
on our journey i M 706
on this journey a M 700
on his accepting a M 694
on any occasion i M 680
on this article i M 672
on this surface a M 668
on this problem a M 652
on being allowed a M 621
on and provide a M 599
on any subject a M 564
on his country a M 556
on this follows a M 554
on this project a M 552
on how closely a M 546
on any article a M 544
on things because i M 524
on this chapter i M 516
on two thousand a M 512
on his account a M 510
on and becomes a M 495
on how quickly i M 494
on end against a M 474
on earth becomes a M 472
on one subject i M 470
on one account i M 466
on all parties a M 464
on his producing a M 462
on its outside a M 456
on and produce a M 442
on its borders a M 412
on being granted a M 402
on earth because i M 398
on her arrival a M 392
on her birthday a M 374
on all grounds a M 374
on his attaining a M 368
on her birthday i M 364
on and entered a M 362
on this country a M 348
on any account a M 342
on how complex a M 340
on her arrival i M 338
on six hundred a M 336
on his birthday i M 322
on one surface a M 314
on our journey a M 306
on this passage a M 302
on being awarded a M 300
on her marriage a M 296
on our accepting a M 288
on this picture i M 284
on his demanding a M 278
on they crossed a M 274
on and started a M 268
on and grabbed a M 258
on her journey a M 250
on and finally i M 247
on that surface a M 246
on that country a M 246
on doing everything i M 246
on and crossed a M 244
on its records a M 240
on its removal a M 238
on this picture a M 236
on its arrival a M 236
on and carried a M 236
on this concept a M 224
on who becomes a M 213
on one project i M 212
on and perform a M 212
on this position i M 210
on and suggest a M 209
on this machine a M 208
on its grounds a M 208
on him because a M 206
on this depends a M 204
on them against a M 204
on and conduct a M 204
on top because i M 200
on his achieving a M 200
on his request i M 198
on his acquiring a M 198
on any question i M 196
on too general a M 194
on this subject t M 194
on and explore a M 192
on that element a M 190
on its receiving a M 190
on this process a M 184
on his subject a M 184
on both parties a M 184
on and providing a M 179
on this material i M 174
on them becomes a M 174
on how strongly a M 174
on his remaining a M 172
on that project i M 170
on not receiving a M 169
on and support a M 169
on this promise i M 168
on that question a M 166
on its members i M 166
on its journey a M 166
on her receiving a M 166
on her accepting a M 166
on its remaining a M 162
on our country a M 160
on its surface i M 160
on this program a M 158
on end because i M 158
on any account i M 158
on this service a M 156
on and prepare a M 153
on six thousand a M 152
on too literal a M 149
on him finally a M 148
on and present a M 148
on this because a M 146
on that instant i M 146
on and against a M 145
on and dropped a M 144
on them because a M 142
on his marriage a M 142
on her account a M 142
on going because i M 142
on and destroy a M 141
on lead against a M 140
on they entered a M 138
on its account i M 138
on earth against a M 138
on and brought a M 138
on and discuss a M 136
on with everything i M 134
on she married a M 134
on its program a M 134
on this material a M 132
on any highway a M 130
on and receive a M 130
on all matters a M 130
on and extends a M 129
on was because i M 128
on his patient a M 128
on her remaining a M 126
on and secured a M 125
on and deliver a M 125
on how exactly a M 124
on and watched a M 123
on earth laughed a M 122
on one subject a M 118
on his declining a M 118
on his attending a M 118
on and enforce a M 118
on all matters i M 118
on and execute a M 117
on this research i M 116
on that depends a M 116
on our account a M 116
on his providing a M 116
on and operate a M 116
on too uniform a M 114
on too massive a M 114
on one journey i M 114
on his program a M 114
on being assured i M 114
on and perhaps a M 114
on this program i M 112
on this occasion t M 112
on our borders a M 112
on how thorough a M 110
on his material a M 110
on and married a M 110
on and achieve a M 110
on she fetched a M 108
on its providing a M 108
on its borders i M 108
on his counter a M 108
on and offered a M 108
on and defeated a M 108
on this decision a M 106
on now because i M 105
on and although i M 105
on she becomes a M 102
on each surface a M 102
on and revealed a M 102
on for example a M 101
on them provide a M 100
on going forward i M 100
on and pretend i M 100
on that capital i M 98
on his following a M 98
on earth remains a M 98
on earth demands a M 98
on and because i M 98
on too regular a M 96
on this article a M 96
on that passage i M 96
on that instant a M 96
on net balance a M 96
on how limited a M 96
on each subject a M 96
on any project i M 96
on and sustain a M 96
on and climbed a M 96
on that article i M 94
on its minutes a M 94
on and operating a M 94
on and following a M 94
on our travels i M 92
on its passage i M 92
on his surviving a M 92
on his passage a M 90
on that problem i M 88
on that justice i M 88
on its producing a M 88
on his enemies a M 88
on her marriage i M 88
on any question a M 88
on and stopped a M 88
on and between a M 88
on too familiar a M 87
on with success a M 86
on its passage a M 86
on its descent a M 86
on his visitor a M 86
on her borders a M 86
on being pressed a M 86
on all grounds i M 86
on his friends a M 84
on each element a M 84
on both grounds a M 84
on and propose a M 84
on this decision i M 82
on that journey a M 82
on his grounds a M 82
on any journey i M 82
on and reflect a M 82
on one machine a M 80
on its arrival i M 80
on his fellows a M 80
on earth possess a M 80
on for roughly a M 49
on too fragile a M 46
on can provide a M 45
on for producing a M 43
on and require a M 41
on not because i M 40
on and removed a M 40
on and ordered a M 40
on his forehead a D 2980
on ten dollars a D 1744
on her forehead a D 1722
on his executing a D 1706
on ten shillings a D 1378
on two dollars a D 1078
on his obtaining a D 1008
on being elected a D 964
on how slender a D 796
on its obverse a D 748
on six dollars a D 659
on too slender a D 658
on his stomach a D 534
on its forehead a D 492
on his shelves a D 462
on its shelves a D 420
on six shillings a D 407
on her husband a D 406
on its payroll a D 374
on too liberal a D 352
on his forehead i D 348
on how rapidly a D 342
on each segment a D 342
on its faculty a D 334
on her husband s D 264
on its exterior a D 254
on his payroll a D 244
on his estates a D 230
on this circuit i D 216
on two shillings a D 211
on her forehead i D 202
on her stomach a D 200
on his features a D 188
on his palette a D 186
on his bicycle a D 168
on his procuring a D 164
on does express a D 156
on him stirred a D 144
on too shallow a D 142
on her features a D 138
on too unsound a D 135
on its stomach a D 134
on its interior a D 134
on and supposing a D 134
on any reckoning a D 132
on and express a D 129
on and promote a D 128
on this premise i D 124
on how broadly a D 124
on her obtaining a D 114
on this hillock i D 110
on its perusal a D 102
on his election a D 102
on our obtaining a D 98
on our horizon a D 98
on this memorial a D 90
on this premise a D 88
on its receipt i D 88
on this however i D 84
on our shelves a D 84
on this holiday i D 82
on too radical a D 48
