one will ever know M 81694
one must take into M 68861
one time there were M 50606
one need only look M 36679
one step away from M 36360
one must have been M 31226
one time have been M 28111
one need only think M 26266
one must take care M 21005
one must have some M 20580
one must also take M 19087
one must know what M 18721
one hand there were M 15146
one will ever find M 9421
one must also have M 9221
one must also know M 8679
one else will ever M 8518
one must make sure M 7888
one side there were M 7783
one must have seen M 7734
one ever knew what M 7664
one will know what M 7514
one among many other M 7511
one must also note M 7235
one side were those M 6164
one need ever know M 5786
one time must have M 5666
one need only turn M 5395
one must have faith M 5363
one must also keep M 5355
one else will have M 5272
one will ever have M 5010
one very much like M 4920
one need only note M 4782
one will ever love M 4437
one gets away from M 4274
one must also look M 4116
one need think only M 4009
one will also find M 3816
one mile away from M 3712
one must rely upon M 3709
one case there were M 3566
one must take note M 3491
one will ever take M 3464
one half mile from M 3448
one gets from reading M 3434
one knew just what M 3384
one need only cite M 3337
one must ever know M 3310
one must look into M 3202
one must make some M 3182
one among many such M 3170
one need only take M 3145
one else will take M 3134
one step down from M 3080
one last look back M 3054
one else will know M 3038
one must look back M 2994
one hand were those M 2860
one must have felt M 2855
one must fall back M 2742
one step back from M 2696
one more word from M 2626
one must have heard M 2595
one side have been M 2572
one will have been M 2562
one must work hard M 2557
one will find many M 2553
one will take your M 2517
one must know when M 2419
one last look over M 2348
one must have more M 2344
one else knew what M 2338
one need only know M 2297
one more time when M 2288
one will ever make M 2277
one must have good M 2275
one last deep breath M 2252
one will ever want M 2244
one must also make M 2240
one hour away from M 2210
one else must know M 2200
one among many ways M 2193
one will also have M 2187
one will even know M 2162
one soon gets used M 2148
one more deep breath M 2116
one will ever come M 2114
one need only have M 2111
one case among many M 2090
one must learn from M 2024
one must take great M 2023
one ever will know M 1988
one must look upon M 1975
one must also learn M 1964
one whom some were M 1947
one will come along M 1936
one ever heard from M 1916
one mile from town M 1909
one other time when M 1892
one bone fits into M 1886
one else must have M 1860
one came down from M 1838
one will take care M 1829
one will find some M 1781
one time these were M 1781
one month from date M 1764
one sees nothing else M 1753
one must have made M 1712
one more step along M 1710
one time there must M 1700
one time when there M 1672
one last time into M 1662
one time very much M 1660
one gets from these M 1616
one side away from M 1612
one must have gone M 1603
one will ever think M 1592
one coming down from M 1590
one must also think M 1571
one must find some M 1564
one need look only M 1559
one will have more M 1554
one must turn back M 1539
one half feet high M 1532
one hand away from M 1528
one time much used M 1520
one side will have M 1520
one else will come M 1518
one must know their M 1511
one more step away M 1506
one need only make M 1500
one time much more M 1498
one means among many M 1493
one must give some M 1480
one knew very much M 1476
one sign among many M 1469
one will take away M 1464
one need only open M 1461
one more time just M 1460
one week away from M 1448
one must have done M 1447
one single word from M 1440
one must have come M 1440
one half mile south M 1418
one hand there will M 1388
one need only call M 1382
one ever came back M 1378
one only need look M 1376
one will ever tell M 1370
one must take what M 1368
one month away from M 1364
one last look into M 1364
one must draw from M 1345
one must move from M 1343
one must look more M 1340
one else need know M 1339
one even knew what M 1325
one hand there have M 1314
one will fall into M 1310
one from some other M 1306
one must also show M 1296
one time there will M 1282
one must have great M 1274
one kind word from M 1274
one more time what M 1268
one must know more M 1267
one time been used M 1258
one must also give M 1258
one half mile north M 1253
one will ever hurt M 1252
one left over from M 1244
one ever died from M 1238
one must have time M 1236
one look into those M 1232
one must turn from M 1228
one more step into M 1228
one room there were M 1210
one word from your M 1206
one must have told M 1205
one more time from M 1202
one half mile west M 1196
one else will want M 1196
one game away from M 1181
one will have some M 1180
one need only show M 1177
one word more upon M 1170
one more time into M 1162
one ever knew when M 1158
one must take some M 1156
one time been very M 1148
one last time when M 1136
one must note here M 1135
one last time from M 1134
one half feet wide M 1118
one from among those M 1106
one more time will M 1094
one knew what kind M 1093
one mile west from M 1088
one side there will M 1086
one time were very M 1083
one away from home M 1078
one will ever look M 1077
one else will think M 1072
one need only walk M 1069
one else ever knew M 1069
one will come back M 1061
one will find there M 1050
one need only pick M 1028
one must have very M 1013
one ever went there M 1005
one last look down M 984
one must take these M 981
one else ever will M 980
one need only find M 974
one side must have M 972
one time there used M 964
one more step down M 955
one hears from time M 954
one runs away from M 949
one knew very well M 949
one item among many M 949
one hand over your M 948
one mile from their M 944
one came back from M 941
one will find more M 936
one time during their M 936
one must learn what M 929
one will ever learn M 928
one said there were M 925
one will ever call M 922
one else will help M 922
one week there were M 920
one side will make M 916
one must come down M 916
one must turn away M 912
one must have lost M 906
one last time over M 906
one else will give M 902
one will ever care M 901
one must wait till M 900
one form among many M 898
one more look into M 894
one sees very well M 890
one will come here M 883
one from among their M 873
one such case came M 864
one look from those M 864
one from among many M 858
one else from whom M 856
one ever know what M 838
one must step back M 832
one will know your M 829
one must hold fast M 829
one more step back M 821
one will come into M 813
one will come from M 813
one must take time M 811
one among many means M 810
one knew just when M 808
one case from what M 806
one time been part M 804
one must come back M 795
one among many gods M 790
one mile back from M 784
one felt much like M 784
one knew what else M 783
one knew what sort M 777
one time from what M 776
one will have seen M 773
one will have much M 771
one having been made M 771
one ever went into M 768
one will rise from M 767
one door away from M 766
one must know these M 763
one else need ever M 762
one other fact must M 760
one breath away from M 758
one will know when M 756
one will ever dare M 752
one only knew what M 748
one mile north from M 748
one must make clear M 747
one hand there must M 742
one came away from M 740
one ever came here M 736
one mile from here M 734
one must also find M 733
one more time during M 730
one last longing look M 729
one will find here M 725
one month from such M 722
one will ever speak M 720
one third will have M 720
one mile south from M 720
one will soon find M 717
one will have time M 717
one will take from M 714
one will also need M 712
one time there came M 712
one must find ways M 705
one must come from M 702
one unit away from M 698
one time were used M 696
one come back from M 696
one else will tell M 694
one body acts upon M 694
one will ever give M 691
one sees only what M 691
one must come into M 690
one move away from M 690
one else will make M 688
one must have such M 686
one among very many M 686
one will find very M 684
one having been there M 684
one said very much M 683
one ever knew just M 681
one will have made M 680
one will find much M 679
one more free from M 678
one else upon whom M 678
one only need think M 677
one must look very M 675
one else were there M 674
one half mile wide M 673
one else ever came M 672
one will come upon M 670
one have been made M 669
one ever having been M 668
one side were three M 665
one must pass from M 662
one from among your M 662
one will work best M 661
one turn away from M 658
one more among many M 658
one will also note M 655
one ever came there M 654
one hand from those M 652
one third came from M 650
one must look ahead M 649
one must fall into M 649
one need have been M 646
one mile from home M 640
one such case from M 638
one must live among M 638
one such form only M 636
one other time during M 636
one half mile away M 636
one from seeing what M 636
one came into view M 636
one only last week M 635
one item from your M 634
one week from date M 631
one must pass over M 627
one other third part M 626
one else ever heard M 624
one need know only M 621
one more unit will M 618
one ever came into M 618
one third have been M 614
one having been seen M 612
one ever said life M 612
one time many years M 608
one full third part M 606
one will find only M 604
one need only give M 602
one month there were M 602
one hand have been M 602
one fact among many M 600
one from whom much M 599
one will find nothing M 597
one half their length M 597
one half have been M 596
one else even knew M 594
one will only have M 590
one sees from these M 590
one more step from M 590
one half feet deep M 589
one will ever live M 588
one made even more M 586
one else will find M 584
one door down from M 584
one will find such M 582
one knew what their M 581
one went away from M 580
one half feet from M 580
one more good look M 578
one time when some M 574
one need only keep M 574
one must work from M 574
one time having been M 572
one hears much talk M 572
one knew what these M 570
one must also speak M 567
one having been lost M 567
one will dare even M 564
one else will care M 564
one need know nothing M 563
one view among many M 561
one ever felt more M 561
one more look back M 560
one have been used M 557
one young lady said M 552
one side only will M 552
one need only cast M 552
one case have been M 550
one time been much M 546
one will think less M 545
one hand held high M 544
one hand over their M 543
one will care what M 542
one must keep these M 542
one hour such great M 542
one knew what went M 541
one having been held M 540
one from whom there M 540
one ever asks what M 540
one will only take M 538
one when there were M 538
one young girl said M 532
one must also seek M 531
one word more from M 530
one case there will M 530
one will ever need M 528
one part will have M 528
one must have many M 527
one time will have M 524
one from other know M 524
one week from next M 522
one will find these M 521
one last time just M 520
one half came from M 520
one from among these M 520
one must note also M 519
one must have wealth M 516
one else came into M 516
one else will dare M 515
one very much more M 513
one hand held over M 512
one half hour from M 512
one time when your M 511
one word more will M 509
one single word more M 505
one else must ever M 504
one will look like M 503
one side having been M 502
one will live there M 500
one must know from M 500
one must come here M 500
one more will make M 500
one will learn from M 495
one reads from left M 494
one must take part M 494
one more last word M 494
one must work very M 491
one side were some M 490
one more time over M 490
one data type into M 490
one young girl whom M 485
one just come from M 481
one last word from M 478
one very young girl M 476
one side left open M 476
one time gave rise M 474
one such case will M 474
one other name must M 472
one will ever reach M 471
one door leading into M 471
one last time more M 469
one went down into M 468
one hand know what M 468
one road leading from M 466
one knew there were M 466
one need only view M 465
one ever gets over M 464
one will give four M 463
one third part more M 462
one must have much M 462
one look into your M 462
one must call upon M 461
one else gets hurt M 460
one from your list M 458
one must know just M 457
one must know also M 457
one else came along M 457
one more step will M 456
one must look hard M 455
one when seen from M 454
one more look over M 454
one best fits your M 454
one will have many M 452
one will feel more M 451
one must also face M 450
one more item from M 450
one many were made M 448
one will have nothing M 447
one knew from what M 446
one good among many M 446
one gets from such M 446
one cell type from M 446
one must feel some M 444
one drop fell from M 444
one gets when reading M 443
one coming back from M 443
one must break down M 441
one time very great M 440
one side from those M 440
one must draw upon M 440
one draw from these M 440
one will even think M 439
one young lady from M 438
one half hour prior M 436
one must move away M 435
one from whom nothing M 435
one wrong word from M 434
one will find among M 434
one else will look M 434
one must also hold M 433
one great land mass M 430
one case having been M 430
one will have only M 428
one step from here M 428
one size fits most M 428
one side must lose M 428
one must have died M 427
one need only draw M 425
one having been born M 423
one else ever used M 421
one word from those M 420
one there knew what M 420
one other such case M 418
one here will ever M 416
one must take heed M 414
one must keep moving M 414
one moving away from M 414
one huge land mass M 414
one will look into M 413
one soon gets into M 412
one must have lain M 412
one will ever like M 411
one case from those M 410
one type among many M 408
one word from their M 406
one must take such M 406
one more word like M 406
one leading away from M 404
one cell type into M 404
one case only have M 404
one will trip over M 402
one stop away from M 402
one side only were M 402
one last time upon M 402
one hand down over M 402
one goal among many M 401
one room away from M 400
one also must take M 400
one more trip back M 398
one sees from time M 396
one else ever sees M 396
one hears these days M 395
one will look back M 393
one time during these M 392
one more step must M 392
one word having been M 390
one must know some M 389
one must have what M 389
one most free from M 388
one kind among many M 388
one must have said M 387
one third their length M 386
one theory among many M 386
one must have used M 386
one from over there M 386
one ever went away M 386
one else came down M 386
one sees much more M 385
one single fact will M 384
one side there must M 384
one more good deed M 384
one hair from your M 384
one need only talk M 383
one must flee from M 383
one just like mine M 383
one name among many M 382
one among other good M 382
one need ever have M 381
one else ever went M 381
one will know just M 380
one more fact must M 380
one ever said what M 380
one last time what M 379
one last look from M 378
one fact will show M 378
one must view these M 377
one well worth taking M 376
one must look also M 376
one only sees what M 375
one must have data M 374
one more good time M 374
one gets from seeing M 374
one wish come true M 372
one will deny their M 371
one else will even M 370
one will have heard M 369
one only among many M 369
one must also come M 369
one will look upon M 368
one time were part M 368
one time were more M 368
one must treat these M 368
one came forth from M 367
one will take time M 366
one side will give M 366
one need know what M 366
one name kept coming M 366
one line runs from M 366
one last good look M 366
one having come from M 366
one book among many M 366
one will have done M 365
one must also feel M 365
one need only step M 364
one among other means M 364
one such case there M 363
one gets much more M 363
one last look upon M 362
one last hard look M 362
one having been sent M 360
one hand hanging down M 360
one will even look M 358
one will come down M 356
one must make good M 356
one will ever dream M 355
one need only name M 354
one line from your M 354
one will have less M 352
one there were many M 352
one step from their M 352
one last drag from M 352
one need only wait M 351
one only having been M 349
one will ever miss M 348
one single hint from M 346
one part away from M 346
one link away from M 346
one will ever feel M 344
one step among many M 344
one more step ahead M 344
one will just have M 343
one must only take M 343
one time very well M 342
one side when there M 342
one line item also M 340
one kiss from those M 340
one have also been M 340
one hand from their M 340
one time were much M 338
one step back into M 338
one else ever made M 338
one come forth unto M 338
one away from their M 338
one there were three M 337
one young girl told M 336
one truth must grow M 336
one sort knew what M 336
one must think like M 336
one more good push M 336
one time will vary M 335
one hand laid upon M 335
one will take into M 334
one will soon have M 334
one very good book M 334
one need have only M 334
one must live like M 334
one truth among many M 332
one there have been M 332
one ever made such M 332
one will ever meet M 331
one time very high M 330
one time those whom M 330
one must have also M 330
one month have been M 330
one much more like M 329
one word came from M 328
one will find what M 328
one third were from M 328
one more trip into M 328
one half years from M 328
one form having some M 328
one body acting upon M 328
one must feel when M 327
one such time when M 326
one side will show M 326
one knew what were M 326
one will also want M 325
one must have full M 325
one will also know M 324
one other fifth part M 324
one must take good M 324
one more case will M 324
one need only hold M 323
one must make room M 323
one third part only M 322
one will soon learn M 321
one ever said such M 321
one years have been M 320
one step more into M 320
one must live there M 320
one must have hope M 320
one else will speak M 320
one among those whom M 320
one ever gets hurt M 319
one also must know M 319
one wrong move from M 318
one will have good M 318
one time been made M 318
one there were some M 318
one ever need know M 317
one come down from M 317
one will give rise M 316
one must take life M 315
one young girl from M 314
one will only find M 314
one road leading into M 314
one fell back into M 314
one must also view M 313
one more good turn M 313
one time fell into M 312
one single step from M 312
one more call from M 312
one time came very M 310
one hour have been M 310
one ever went back M 309
one will take such M 308
one time been more M 308
one time been held M 308
one among their many M 308
one also must have M 308
one will very soon M 306
one will feel like M 306
one such case when M 306
one month from their M 306
one will learn more M 305
one side were their M 304
one more look from M 304
one call came from M 304
one among those many M 304
one among these four M 304
one must think very M 303
one must take from M 303
one just last week M 303
one site among many M 302
one half will have M 302
one from whom such M 302
one must have left M 301
one have been more M 301
one sort grow into M 300
one single line from M 300
one must think back M 299
one will look down M 298
one good word from M 298
one case will have M 298
one must have love M 296
one jump away from M 296
one hour were like M 296
one must only look M 295
one else ever said M 295
one young lady came M 294
one body part into M 294
one body must move M 294
one must have food M 293
one will ever deny M 292
one such call came M 292
one single deed from M 290
one from whom your M 290
one from coming into M 290
one ever knew from M 289
one word away from M 288
one will turn into M 288
one must ever find M 288
one more time like M 288
one coming over from M 288
one else have been M 287
one time were held M 286
one time only three M 286
one time have made M 286
one step from there M 286
one single gale such M 286
one need only list M 286
one need only learn M 286
one must show some M 286
one must have eyes M 286
one mode among many M 286
one line from their M 286
one half hour more M 286
one from last week M 286
one will only look M 285
one brings away from M 285
one will think their M 284
one text among many M 284
one must have held M 284
one more word must M 284
one dawn grew fair M 284
one will come forth M 283
one third down from M 283
one must seek other M 283
one will have their M 282
one must give full M 282
one hears much more M 282
one hears from many M 282
one hand down into M 282
one ever gets used M 282
one time were made M 280
one role among many M 280
one hand must have M 280
one hand free from M 280
one need cite only M 279
one more look down M 279
one having been able M 279
one well worth making M 278
one line from left M 278
one among many more M 278
one will soon come M 277
one side only when M 276
one more pass over M 276
one more look upon M 276
one hour your doom M 276
one hand deep into M 276
one ever been able M 276
one need ever feel M 275
one also sees many M 275
one step ahead when M 274
one must make when M 274
one time when their M 272
one single time when M 272
one more last look M 272
one case must also M 272
one among these many M 272
one must know much M 271
one will give more M 270
one must live here M 270
one more kiss from M 270
one kiss from your M 270
one half hour late M 270
one ever hears from M 270
one town there were M 268
one must take full M 268
one must hire more M 268
one kind look from M 268
one kind have been M 268
one gets from some M 268
one dream come true M 268
one cell type only M 268
one among many good M 268
one must rely more M 267
one feel even more M 267
one will ever talk M 266
one unit among many M 266
one side were used M 266
one hand upon their M 266
one find rest ever M 266
one will take some M 265
one must make such M 265
one part among many M 264
one more week left M 264
one case will also M 264
one very soon gets M 262
one must keep away M 262
one look into their M 262
one last time during M 262
one will ever stop M 261
one will ever break M 260
one must plan ahead M 259
one must make many M 259
one must have only M 259
one pass away from M 258
one brings into play M 258
one will come away M 257
one must think well M 257
one sure band ties M 256
one such came from M 256
one must also live M 256
one hears nothing else M 256
one hears much less M 256
one hand into those M 256
one else know what M 256
one asks what kind M 256
one will find most M 255
one must only know M 255
one must have their M 255
one step just from M 254
one great free port M 254
one ever went down M 254
one city among many M 254
one time were said M 252
one side only from M 252
one must look past M 252
one last trip into M 252
one side much more M 251
one must seek some M 251
one must look down M 251
one ever heard what M 251
one else will talk M 251
one time step ahead M 250
one time have nothing M 250
one side when reading M 250
one five zero feet M 250
one will make your M 249
one reads from time M 249
one must have three M 249
one time been able M 248
one such case among M 248
one must have nothing M 248
one knew from whom M 248
one kind will have M 248
one having been used M 248
one gets from other M 247
one need only speak M 246
one have been able M 246
one among these three M 246
one must find other M 245
one will think more M 244
one upon whom their M 244
one time during those M 244
one must turn over M 244
one must have these M 244
one more item must M 244
one mile from your M 244
one item from their M 244
one here will know M 244
one having been left M 244
one must give more M 243
one last time down M 243
one dies only once M 243
one away from what M 243
one side like those M 242
one ever says what M 242
one down into hell M 242
one will take their M 241
one will dare deny M 241
one must break away M 241
one must also work M 241
one gets into such M 241
one else will love M 241
one side were only M 240
one shop there were M 240
one over their heads M 240
one hour free from M 240
one ever came from M 240
one sent away from M 239
one must take more M 239
one must know well M 239
one more trip down M 239
one will need more M 238
one will make such M 238
one type have been M 238
one more text from M 238
one well worth trying M 236
one time also been M 236
one step will have M 236
one side from what M 236
one over there will M 236
one must move into M 236
one hand beats cold M 236
one must take their M 235
one gets from those M 235
one word from home M 234
one must only have M 234
one among many great M 234
one need note only M 233
one more gift from M 232
one look back over M 231
one knew what those M 231
one hears from some M 231
one taking over from M 230
one step even from M 230
one rich many must M 230
one from your side M 230
one else must take M 230
one will wish there M 229
one must just take M 229
one time have held M 228
one must speak only M 228
one must some time M 228
one felt safe from M 228
one ever made more M 228
one cell away from M 228
one case there must M 228
one must take away M 227
one living next door M 227
one will know from M 226
one time came from M 226
one there were only M 226
one side must also M 226
one must also draw M 226
one hour from here M 226
one half their time M 226
one else will hire M 226
one door left open M 226
one look back upon M 225
one knew what time M 225
one will know their M 224
one town over from M 224
one must have clear M 224
one into your home M 224
one gets very much M 224
one name left over M 223
one must take hold M 223
one must reach back M 223
one time been some M 222
one sees many such M 222
one more week here M 222
one meaning when used M 222
one ever felt like M 222
one else even came M 222
one data item from M 222
one will ever play M 221
one will ever hire M 221
one kept away from M 221
one here will have M 221
one else will move M 221
one word more must M 220
one week from earning M 220
one such cell line M 220
one some other time M 220
one soft hand over M 220
one more name must M 220
one month last past M 220
one hair fall from M 220
one will take over M 219
one will find those M 219
one will feel left M 219
one must slow down M 219
one must rely only M 219
one must have high M 219
one just back from M 219
one time will show M 218
one time last week M 218
one third more work M 218
one must also love M 218
one ever seen such M 218
one city there were M 218
one brings back from M 217
one will have gone M 216
one trip away from M 216
one sort have been M 216
one part much more M 216
one month will have M 216
one case have hurt M 216
one will ever harm M 215
one well away from M 215
one there will know M 215
one will lose their M 214
one well worth seeing M 214
one there will ever M 214
one side were ready M 214
one says those sort M 214
one must think only M 214
one must have other M 214
one fair form among M 214
one case these were M 214
one more longing look M 213
one mile from north M 213
one feel more like M 213
one time were only M 212
one good lady whom M 212
one from their hiding M 212
one cell will have M 212
one time come into M 210
one more case must M 210
one mind acting upon M 210
one hears nothing more M 210
one hand high over M 210
one good deed done M 210
one very good rule M 209
one here will think M 209
one hears from those M 209
one came home from M 209
one step from what M 208
one side were seen M 208
one side were four M 208
one more time here M 208
one more case from M 208
one mile wide from M 208
one will steal your M 207
one time even more M 207
one must have prior M 207
one part fits into M 206
one must take upon M 206
one gets from their M 206
one ever laid eyes M 206
one else sees what M 206
one will find other M 205
one more half hour M 205
one will pass away M 204
one went very fast M 204
one very clear case M 204
one time made from M 204
one soon gets over M 204
one among many sets M 204
one among many areas M 204
one must also treat M 203
one must also cite M 203
one gets back from M 203
one else knew much M 203
one word will make M 202
one went back into M 202
one very deep breath M 202
one other name from M 202
one more step when M 202
one mind acts upon M 202
one item from among M 202
one gate there only M 202
one young lady only M 200
one week have been M 200
one soon runs into M 200
one side like some M 200
one last kiss upon M 200
one knew what made M 200
one from your home M 200
one from making such M 200
one third coming from M 199
one must look from M 199
one must look away M 199
one also sees here M 199
one word when used M 198
one will look there M 198
one will know till M 198
one time made their M 198
one time have felt M 198
one time have come M 198
one must show what M 198
one must give back M 198
one more note from M 198
one made many years M 198
one last kiss from M 198
one hand from other M 198
one will take pity M 197
one talk show host M 197
one must know many M 197
one ever gets angry M 197
one time some years M 196
one time acts only M 196
one there were four M 196
one must take leave M 196
one must have ideas M 196
one more fire from M 196
one hour from their M 196
one gets from living M 196
one from their hand M 196
one during these years M 196
one must stay away M 195
one else ever gave M 195
one were born into M 194
one time were able M 194
one time very rich M 194
one side must give M 194
one only when there M 194
one last week from M 194
one code among many M 194
one will take what M 193
one sees even more M 193
one must take many M 192
one more great work M 192
one mile wide along M 192
one made just like M 192
one last good time M 192
one good deed leads M 192
one fact very clear M 192
one ever came down M 192
one else felt like M 192
one will have just M 191
one must only think M 191
one mile from such M 191
one will take more M 190
one third less time M 190
one part there were M 190
one need only move M 190
one must step into M 190
one must learn these M 190
one must call into M 190
one full fifth part M 190
one felt like saying M 190
one else from making M 190
one will vary from M 189
one must make these M 189
one gets down into M 189
one type will have M 188
one time when miss M 188
one step down into M 188
one side will also M 188
one other were left M 188
one more line from M 188
one half step from M 188
one from whom none M 188
one ever dies from M 188
one coming home from M 188
one case were there M 188
one case only were M 188
one bearing your name M 188
one young lady told M 186
one time been their M 186
one other girl were M 186
one must love life M 186
one must look well M 186
one must learn much M 186
one knew much more M 186
one hair will fall M 186
one during those years M 186
one will only make M 185
one time were also M 185
one third part less M 185
one knew what form M 185
one tree will last M 184
one side were made M 184
one runs from tree M 184
one look down into M 184
one jump from home M 184
one among many from M 184
one will ever walk M 183
one side only there M 183
one must also turn M 183
one ward there were M 182
one time over half M 182
one must wait upon M 182
one more sent away M 182
one main road from M 182
one good deed into M 182
one coming from such M 182
one wrong step leads M 181
one will look over M 181
one need take only M 181
one thread among many M 180
one over many years M 180
one must leave home M 180
one mile from lake M 180
one knew what food M 180
one have been held M 180
one among other ways M 180
one well worth reading M 179
one time many more M 179
one have been lost M 179
one years have gone M 178
one will note from M 178
one week from such M 178
one step from such M 178
one side were wealth M 178
one only fits into M 178
one must have just M 178
one more kind look M 178
one sent down from M 177
one must take very M 177
one must look like M 177
one half mile down M 177
one gets from most M 177
one word from these M 176
one there must have M 176
one side there have M 176
one side meet once M 176
one sees from here M 176
one gets from here M 176
one fact worth noting M 176
one else just like M 176
one code word into M 176
one cell pass into M 176
one body runs away M 176
one will move from M 175
one will know there M 175
one will have ever M 175
one need even more M 175
one must have pity M 175
one hand hanging over M 175
one from your past M 175
one unit will have M 174
one other young lady M 174
one other case like M 174
one more such word M 174
one knew what part M 174
one hand very much M 174
one fell away from M 174
one faith among many M 174
one ever been lost M 174
one clue came from M 174
one years from lady M 173
one take away from M 173
one must have self M 173
one body cast upon M 173
one time been well M 172
one must look only M 172
one sent over from M 171
one must step over M 171
one from whom life M 171
one ever gets away M 171
one even came from M 171
one will call such M 170
one there will have M 170
one such case during M 170
one side only like M 170
one ship went down M 170
one part leads into M 170
one other girl from M 170
one more hard look M 170
one last trip back M 170
one from among three M 170
one will ever fill M 169
one just coming into M 169
one half hour early M 169
one will need some M 168
one will even miss M 168
one very well worth M 168
one time step into M 168
one pair having been M 168
one other even more M 168
one must take when M 168
one made some years M 168
one just waking from M 168
one into your life M 168
one else ever felt M 168
one coming forth from M 168
one cell type will M 168
one will have come M 167
one went there were M 167
one time were there M 167
one sees many more M 167
one word among many M 166
one time held high M 166
one time from their M 166
one runs into when M 166
one must have peace M 166
one more move like M 166
one hour there will M 166
one face among many M 166
one ever sits down M 166
one will ever show M 165
one will ever even M 165
one must leave room M 165
one must face when M 165
one more time only M 165
one live back into M 165
one else heard what M 165
one will ever help M 164
one time over three M 164
one time only those M 164
one single drop only M 164
one sees these days M 164
one more stop along M 164
one know what will M 164
one have come into M 164
one hand down upon M 164
one half years during M 164
one half having been M 164
one full tenth part M 164
one body those whom M 164
one will have such M 163
one time from those M 163
one must leave open M 163
one must have when M 163
one must have from M 163
one will ever rule M 162
one till half past M 162
one term among many M 162
one sees nothing more M 162
one room will have M 162
one road left open M 162
one over five years M 162
one only last month M 162
one more time even M 162
one look down upon M 162
one look back into M 162
one line will have M 162
one hour from your M 162
one have been very M 162
one half into hell M 162
one great mass into M 162
one cell type over M 162
one will think much M 161
one will grow into M 161
one hears good talk M 161
one will make some M 160
one were only able M 160
one site have been M 160
one side were many M 160
one must gain some M 160
one more word upon M 160
one good will have M 160
one from next door M 160
one years there were M 159
one will have lost M 159
one will fall down M 159
one must move along M 159
one kept coming back M 159
one ever came away M 159
one will even find M 158
one time only when M 158
one time laid down M 158
one reads your book M 158
one must learn more M 158
one must keep some M 158
one mile from there M 158
one loss away from M 158
one last trip down M 158
one hand will feel M 158
one hand from time M 158
one else will work M 158
one else will live M 158
one book have been M 158
one bank will have M 158
one acts from duty M 158
one must just make M 157
one will ever turn M 156
one well worth your M 156
one single tree only M 156
one single case only M 156
one other great work M 156
one nest there were M 156
one must move back M 156
one must give away M 156
one mind must have M 156
one last word must M 156
one health care plan M 156
one having ever been M 156
one free from such M 156
one ever tell what M 156
one will ever wish M 155
one brings home from M 155
one will take much M 154
one time have done M 154
one time came into M 154
one side have their M 154
one other have been M 154
one month there will M 154
one mile from said M 154
one line move down M 154
one hand into your M 154
one also sees from M 154
one years from date M 153
one time when even M 153
one tenth part more M 153
one must ever keep M 153
one knew your name M 153
one back home will M 153
one word more only M 152
one will find from M 152
one will ever leave M 152
one there were five M 152
one single word upon M 152
one side were high M 152
one more last time M 152
one more blow from M 152
one made from wood M 152
one leading down into M 152
one hand give rise M 152
one half years prior M 152
one half were from M 152
one from whom fate M 152
one else down there M 152
one case three years M 152
one very much less M 151
one copy sent down M 151
one time will give M 150
one time when such M 150
one time have gone M 150
one there were more M 150
one must make very M 150
one have come from M 150
one else ever gets M 150
one cell there were M 150
one will have great M 149
one side just like M 149
one must also deny M 149
one here will harm M 149
one hand taking hold M 149
one felt very much M 149
one town away from M 148
one time were even M 148
one time went into M 148
one must once more M 148
one must note what M 148
one must learn their M 148
one must have means M 148
one line down from M 148
one last call from M 148
one hour there were M 148
one will steal from M 147
one will ever steal M 147
one must make love M 147
one must keep clear M 147
one here ever heard M 147
one felt more like M 147
one feel very safe M 147
one also came from M 147
one walk away from M 146
one heard from time M 146
one hand down from M 146
one ever sees those M 146
one break away from M 146
one among many early M 146
one will find when M 145
one will feel pain M 145
one knew what fate M 145
one here will hurt M 145
one having done more M 145
one will drop from M 144
one will best meet M 144
one very heavy body M 144
one time also used M 144
one such case seen M 144
one step more away M 144
one more step left M 144
one last pass over M 144
one form into many M 144
one ever knew their M 144
one door were young M 144
one away from life M 144
one among many young M 144
one must have luck M 143
one knew nothing more M 143
one among many whom M 143
one will find their M 142
one will fall over M 142
one third more time M 142
one third come from M 142
one such time came M 142
one single saving vice M 142
one sees there over M 142
one sees here what M 142
one other very good M 142
one need make only M 142
one must draw back M 142
one more great step M 142
one month must have M 142
one hour will have M 142
one here last week M 142
one hand these were M 142
one hand from what M 142
one half away from M 142
one from whom some M 142
one else knew their M 142
one cast down into M 142
one will turn away M 141
one will find also M 141
one will deny what M 141
one must look among M 141
one more time down M 141
one ever said there M 141
one else down here M 141
one away over there M 141
one word will have M 140
one will find good M 140
one week more time M 140
one side were very M 140
one other sixth part M 140
one must feel like M 140
one main road leading M 140
one last time like M 140
one knew were there M 140
one from your hand M 140
one from back home M 140
one else will feel M 140
one word fell from M 139
one will pass from M 139
one will have none M 139
one will find great M 139
one will deny these M 139
one must live from M 139
one gets lost among M 139
one will come soon M 138
one will care much M 138
one used here must M 138
one time fears were M 138
one step more will M 138
one step from these M 138
one side will help M 138
one reads your work M 138
one must come upon M 138
one more young lady M 138
one more fact will M 138
one last time along M 138
one last angry look M 138
one ever gets from M 138
one case give rise M 138
one must have deep M 137
one learn from these M 137
one here knew what M 137
one have ever been M 137
one born there ever M 137
one away from your M 137
one will ever pass M 136
one very good plan M 136
one time over four M 136
one time held their M 136
one time five years M 136
one test will give M 136
one step more from M 136
one side only have M 136
one sees only their M 136
one need even know M 136
one must know three M 136
one must ever give M 136
one last walk along M 136
one here very sick M 136
one having been torn M 136
one gets into when M 136
one full month from M 136
one ever said much M 136
one else there knew M 136
one drop more from M 136
one will ever fall M 135
one must make peace M 135
one more time back M 135
one hand over mine M 135
one ever need wish M 135
one will only come M 134
one time step from M 134
one time made some M 134
one third were born M 134
one single good deed M 134
one side will take M 134
one side were more M 134
one said much during M 134
one part having been M 134
one must speak from M 134
one must have those M 134
one more glad hour M 134
one mile from city M 134
one line into three M 134
one last good deed M 134
one else will need M 134
one cell line from M 134
one sees only once M 133
one must pass into M 133
one means having less M 133
one from seeing more M 133
one days from date M 133
one will gain more M 132
one time even went M 132
one threat came from M 132
one single cell type M 132
one play away from M 132
one other case there M 132
one must risk life M 132
one line have been M 132
one leading down from M 132
one last time even M 132
one last time back M 132
one half years when M 132
one great good gift M 132
one from whom even M 132
one four feet wide M 132
one form into some M 132
one coming from their M 132
one away from other M 132
one asks just what M 132
one army sent word M 132
one time were most M 131
one must once have M 131
one must have health M 131
one must have four M 131
one else ever told M 131
one time were seen M 130
one time only half M 130
one side from their M 130
one rule laid down M 130
one room leading into M 130
one rash youth from M 130
one puts back into M 130
one other item from M 130
one must make more M 130
one must hold back M 130
one more time upon M 130
one having been kept M 130
one girl were born M 130
one gets free from M 130
one form having been M 130
one face among those M 130
one will take these M 129
one must live life M 129
one must feel free M 129
one will fall back M 128
one will ever draw M 128
one type from those M 128
one time will also M 128
one time been among M 128
one three feet wide M 128
one stay away from M 128
one side gets what M 128
one reads these poems M 128
one must speak here M 128
one must know such M 128
one mile from land M 128
one line among many M 128
one half hour only M 128
one from taking cold M 128
one fact must have M 128
one asks what sort M 128
one will feel safe M 127
one will also come M 127
one were free from M 127
one must ever have M 127
one must also rely M 127
one must also pass M 127
one knew nothing else M 127
one hand much more M 127
one also must look M 127
one will make much M 126
one uses data from M 126
one there ever heard M 126
one single time during M 126
one single step into M 126
one single great work M 126
one part gain more M 126
one only have health M 126
one only four years M 126
one name from among M 126
one must walk over M 126
one must know very M 126
one mind upon some M 126
one look will tell M 126
one living away from M 126
one leading back into M 126
one hour walk from M 126
one here till last M 126
one hand some have M 126
one hand held fast M 126
one hand back over M 126
one form come from M 126
one ever know when M 126
one else will play M 126
one drop fall from M 126
one cell into many M 126
one case among those M 126
one among many fine M 126
one will find your M 125
one must from time M 125
one must clear away M 125
one ever gets sick M 125
one asks what these M 125
one wind blow true M 124
one upon whom many M 124
one time well over M 124
one time uses their M 124
one time made love M 124
one site will have M 124
one single hair from M 124
one side will find M 124
one side were open M 124
one other case will M 124
one need turn only M 124
one must love what M 124
one more page from M 124
one life among many M 124
one hears much these M 124
one form have been M 124
one else will step M 124
one else ever hears M 124
one among other such M 124
one among many like M 124
one word only more M 123
one will have faith M 123
one will ever hold M 123
one will even care M 123
one must tread very M 123
one must take other M 123
one hears only from M 123
one else said much M 123
one young lady whom M 122
one word runs into M 122
one will take hold M 122
one will even give M 122
one were taking part M 122
one well worth noting M 122
one upon whom some M 122
one step only from M 122
one side great hanging M 122
one note from leading M 122
one must speak more M 122
one more good line M 122
one mile only from M 122
one last look along M 122
one hour three days M 122
one here will take M 122
one having held over M 122
one great arch over M 122
one good book well M 122
one born into life M 122
one body among many M 122
one also hears many M 122
one will dare call M 121
one side were most M 121
one must work just M 121
one must speak truth M 121
one must rise from M 121
one must keep trying M 121
one must jump into M 121
one must break free M 121
one must also call M 121
one hears said during M 121
one will have even M 120
one will dare come M 120
one will also work M 120
one time over five M 120
one time nothing more M 120
one such trip when M 120
one rule runs into M 120
one must stay there M 120
one more time unit M 120
one life having been M 120
one hour when there M 120
one hour have made M 120
one hour five days M 120
one having rich dark M 120
one hand will have M 120
one half shut from M 120
one half have died M 120
one great tomb more M 120
one good look into M 120
one edge away from M 120
one door leading from M 120
one cell will give M 120
one asks what will M 120
one will take upon M 119
one upon whom such M 119
one must also want M 119
one young lady here M 118
one will turn from M 118
one week there will M 118
one week from their M 118
one unit down from M 118
one time were well M 118
one time were among M 118
one time some sort M 118
one time have meant M 118
one test case from M 118
one step from your M 118
one single word said M 118
one single hour from M 118
one side will lose M 118
one side will come M 118
one side were such M 118
one side went down M 118
one side must make M 118
one must turn when M 118
one must like what M 118
one must hope will M 118
one must hide from M 118
one moving mass like M 118
one more good blow M 118
one lord among many M 118
one having only three M 118
one having been here M 118
one hand were such M 118
one great evil hanging M 118
one gift among many M 118
one feel like crying M 118
one case when there M 118
one away from these M 118
one will grow more M 117
one time from over M 117
one there even knew M 117
one here will give M 117
one here will deny M 117
one half years were M 117
one from taking part M 117
one else will like M 117
one else will lend M 117
one will take part M 116
one week will have M 116
one very much worth M 116
one time unit from M 116
one time been seen M 116
one tenth came from M 116
one size fits none M 116
one side were great M 116
one side there runs M 116
one side pass over M 116
one sees what kind M 116
one sees from such M 116
one need only stop M 116
one more step leading M 116
one more heavy blow M 116
one more hard push M 116
one look upon these M 116
one look from your M 116
one item over time M 116
one half hour when M 116
one half coming from M 116
one good deep breath M 116
one from their home M 116
one from last time M 116
one form gave rise M 116
one fact bearing upon M 116
one ever heard tell M 116
one else ever reads M 116
one duty laid upon M 116
one drop will kill M 116
one cool hand along M 116
one case much more M 116
one away from such M 116
one must give heed M 115
one must feel very M 115
one here laid down M 115
one work among many M 114
one will have three M 114
one will even have M 114
one were only sure M 114
one were much more M 114
one well worth having M 114
one week there died M 114
one week last month M 114
one time some hope M 114
one time only during M 114
one page away from M 114
one must keep faith M 114
one must feel what M 114
one must bend over M 114
one more very good M 114
one more such case M 114
one more name from M 114
one more good work M 114
one line three deep M 114
one knew when there M 114
one just down from M 114
one hour flying time M 114
one having died during M 114
one hand only when M 114
one great truth their M 114
one data type from M 114
one hanging down from M 113
one else from their M 113
one word were used M 112
one word have been M 112
one week when there M 112
one user must have M 112
one trip into town M 112
one time when these M 112
one time these three M 112
one three feet high M 112
one such case here M 112
one step been made M 112
one sees only there M 112
one sees from afar M 112
one part held fast M 112
one more blow upon M 112
one kind from those M 112
one having come into M 112
one blow from their M 112
one will note here M 111
one will gain some M 111
one only three years M 111
one only among living M 111
one must also test M 111
one must also talk M 111
one have laid down M 111
one feel like taking M 111
one else must stay M 111
one young girl came M 110
one will make peace M 110
one will lose nothing M 110
one will dare look M 110
one wild yell from M 110
one vast high hill M 110
one time upon some M 110
one time during your M 110
one third from other M 110
one theory will ever M 110
one such having been M 110
one single vast plan M 110
one single drop from M 110
one side will turn M 110
one side were these M 110
one must treat such M 110
one must make what M 110
one month into their M 110
one life form into M 110
one hour over many M 110
one hour fire rating M 110
one half their cost M 110
one half step away M 110
one good look from M 110
one gets hurt when M 110
one gets from rich M 110
one gets back into M 110
one city have been M 110
one came along from M 110
one body part from M 110
one back into their M 110
one will walk into M 109
one must walk down M 109
one must have less M 109
one feel very much M 109
one else will call M 109
one will only keep M 108
one time when three M 108
one time three years M 108
one test among many M 108
one such rare case M 108
one step from down M 108
one spring flow many M 108
one single item from M 108
one side very great M 108
one side having their M 108
one side from time M 108
one room were three M 108
one part from what M 108
one other having been M 108
one other great line M 108
one only will have M 108
one need only pose M 108
one must move very M 108
one must know whom M 108
one more drop from M 108
one month only from M 108
one hour less time M 108
one having gone away M 108
one hand back into M 108
one full half part M 108
one fair good wise M 108
one ever sees what M 108
one even when there M 108
one else here knew M 108
one during these three M 108
one dull page from M 108
one cell pass over M 108
one brings from home M 108
one will wish their M 107
one will leave here M 107
one left from those M 107
one huge hand over M 107
one heard were true M 107
one will gain from M 106
one will break down M 106
one very many were M 106
one very fine went M 106
one upon whom there M 106
one time coming into M 106
one third less sent M 106
one third have some M 106
one site there were M 106
one single truth from M 106
one single time step M 106
one side only must M 106
one side even when M 106
one other time have M 106
one other fact only M 106
one more word will M 106
one month from when M 106
one left over when M 106
one last time prior M 106
one last seen must M 106
one half hour three M 106
one hail will soon M 106
one from whom help M 106
one ever will have M 106
one else from coming M 106
one case some years M 106
one base into three M 106
one away from here M 106
one will shed tears M 105
one will know whom M 105
one will hold true M 105
one will hold good M 105
one side were five M 105
one sees here also M 105
one must think also M 105
one must know life M 105
one hold back from M 105
one gets from having M 105
one else will pick M 105
one else must learn M 105
one word only from M 104
one will deny here M 104
one time some kind M 104
one time many were M 104
one time gave their M 104
one such there were M 104
one some time during M 104
one single word will M 104
one single good word M 104
one part must have M 104
one other cell type M 104
one need ever tell M 104
one more book from M 104
one mile deep over M 104
one hole there were M 104
one here must know M 104
one heavy blow upon M 104
one have been seen M 104
one girl crying will M 104
one gave heed when M 104
one game among many M 104
one free from those M 104
one feel free from M 104
one ever went from M 104
one else into great M 104
one else away from M 104
one died five days M 104
one among living beings M 104
one also sees some M 104
one will have very M 103
one will fall upon M 103
one runs less risk M 103
one must hide nothing M 103
one gets only what M 103
one back home knew M 103
one unit have been M 102
one trip back from M 102
one time some talk M 102
one time only from M 102
one third were over M 102
one third were able M 102
one test will show M 102
one test will also M 102
one step ahead from M 102
one single case have M 102
one side only into M 102
one self among many M 102
one only gets from M 102
one need only seek M 102
one must kill time M 102
one more good book M 102
one last week when M 102
one knew their fate M 102
one hour will give M 102
one hour from other M 102
one hand into cold M 102
one hand hanging onto M 102
one great mass upon M 102
one free from pain M 102
one faith there must M 102
one copy having been M 102
one clear nice cool M 102
one case done well M 102
one brings down their M 102
one base pair from M 102
one away from those M 102
one also will have M 102
one word from such M 101
one were only rich M 101
one time used only M 101
one time hold more M 101
one time away from M 101
one shop were half M 101
one says from bearing M 101
one must walk from M 101
one must ever think M 101
one must also teach M 101
one made some time M 101
one felt sure must M 101
one will ever thank M 100
one will even want M 100
one vast land mass M 100
one used here will M 100
one third will leave M 100
one tenth part only M 100
one side only acting M 100
one side gets ahead M 100
one poor young girl M 100
one need take into M 100
one must seek these M 100
one must also leave M 100
one more trip will M 100
one more game left M 100
one into your heart M 100
one home health care M 100
one hand down hard M 100
one half years have M 100
one half mile along M 100
one form into other M 100
one five feet high M 100
one ever went home M 100
one else will join M 100
one else went away M 100
one else ever uses M 100
one city flee into M 100
one case will make M 100
one years have come M 99
one will hold fast M 99
one will even talk M 99
one went down there M 99
one single word only M 99
one must view such M 99
one must keep well M 99
one heard nothing more M 99
one having just been M 99
one else made such M 99
one duty among many M 99
one will have pity M 98
one will find three M 98
one will ever work M 98
one vast single text M 98
one time there have M 98
one time been such M 98
one time among many M 98
one time also have M 98
one there will take M 98
one single copy only M 98
one single clear meaning M 98
one sign over those M 98
one next door were M 98
one need only shut M 98
one must wish well M 98
one must speak like M 98
one must find what M 98
one more note must M 98
one more bold push M 98
one look deep into M 98
one kind into those M 98
one hand upon your M 98
one great gray bird M 98
one full turn from M 98
one from some dark M 98
one fire coming into M 98
one felt like making M 98
one even more great M 98
one door leads into M 98
one back many years M 98
one among your many M 98
one will hold your M 97
one will find none M 97
one will find even M 97
one will deny there M 97
one must think ahead M 97
one must seek their M 97
one last gift from M 97
one coming away from M 97
one case only three M 97
one will keep faith M 96
one will ever gain M 96
one were made from M 96
one week last spring M 96
one unit into three M 96
one time come from M 96
one time among those M 96
one thread away from M 96
one single half hour M 96
one side when making M 96
one side only during M 96
one side come into M 96
one need only lift M 96
one must feel sure M 96
one moving body over M 96
one more unit just M 96
one more time trying M 96
one more gray hair M 96
one look like nothing M 96
one line must have M 96
one life worth living M 96
one life form among M 96
one half days from M 96
one gain from seeing M 96
one beast went away M 96
one bearing down upon M 96
one among many when M 96
one will only give M 95
one will kick over M 95
one were sent from M 95
one sees nothing there M 95
one need work more M 95
one must play fair M 95
one even much more M 95
one else living there M 95
one word from among M 94
one word coming from M 94
one will rush away M 94
one were only keen M 94
one went forth from M 94
one user will have M 94
one true living faith M 94
one time were their M 94
one these said sums M 94
one these have been M 94
one their heads were M 94
one tale more true M 94
one such young lady M 94
one such union will M 94
one step back when M 94
one side during their M 94
one ship having been M 94
one reading among many M 94
one poor half hour M 94
one only dies once M 94
one need tread upon M 94
one need only pass M 94
one must take those M 94
one must learn some M 94
one must feel pity M 94
one must also rule M 94
one left upon whom M 94
one hour come back M 94
one here will speak M 94
one hand having been M 94
one hand gave rise M 94
one half were born M 94
one half their size M 94
one half their depth M 94
one half more years M 94
one half back into M 94
one girl came from M 94
one full stop from M 94
one from among other M 94
one drop will make M 94
one dare take upon M 94
one case will show M 94
one case will fail M 94
one case five years M 94
one will find just M 93
one will even take M 93
one whom other care M 93
one such case having M 93
one need only fill M 93
one must think what M 93
one must here take M 93
one must grow into M 93
one word will help M 92
one will give away M 92
one will even come M 92
one type must have M 92
one time were like M 92
one time were just M 92
one time some very M 92
one time only some M 92
one time been ready M 92
one stop down from M 92
one single line having M 92
one side must stop M 92
one part coming from M 92
one only gets what M 92
one need only reach M 92
one must make great M 92
one must keep such M 92
one mile from port M 92
one kind wish from M 92
one kind must have M 92
one heart must hold M 92
one hand were seen M 92
one hand went into M 92
one half hour ahead M 92
one great good true M 92
one good road leading M 92
one from having been M 92
one feet from south M 92
one ever heard such M 92
one even more able M 92
one during those days M 92
one coming along over M 92
one cast into hell M 92
one book will give M 92
one among other gods M 92
one among many beings M 92
one need ever find M 91
one must take nothing M 91
one must note their M 91
one must ever learn M 91
one knew life once M 91
one hand from side M 91
one from whom many M 91
one else will soon M 91
one case even three M 91
one blow from such M 91
one wrong move away M 90
one will dare take M 90
one will dare harm M 90
one will come there M 90
one will care very M 90
one time very poor M 90
one time last spring M 90
one third from their M 90
one single drop into M 90
one single book from M 90
one side have good M 90
one side gave rise M 90
one runs into some M 90
one part will give M 90
one part bearing great M 90
one other dull book M 90
one other door leading M 90
one other case from M 90
one note left upon M 90
one need only come M 90
one name among those M 90
one must speak also M 90
one must note some M 90
one must live well M 90
one must keep very M 90
one must hope there M 90
one moving from left M 90
one more unit were M 90
one more time step M 90
one more term only M 90
one more month left M 90
one more hour left M 90
one more hard blow M 90
one main road runs M 90
one line like these M 90
one life must have M 90
one last time their M 90
one last deep drag M 90
one into some kind M 90
one hour will burn M 90
one home health aide M 90
one having gone over M 90
one having been having M 90
one hand were their M 90
one half must have M 90
one great body like M 90
one girl among many M 90
one from among four M 90
one else have done M 90
one during your stay M 90
one during their stay M 90
one dare kill here M 90
one case been held M 90
one asks what were M 90
one aged three years M 90
one will walk away M 89
one time when those M 89
one ever fell into M 89
one even knew there M 89
one word from whom M 88
one will pass over M 88
one week will show M 88
one very nice lady M 88
one very fine young M 88
one very early case M 88
one turn from trying M 88
one there came into M 88
one sort among many M 88
one some time back M 88
one single word during M 88
one single kiss from M 88
one side leading into M 88
one over four feet M 88
one other body part M 88
one must soon learn M 88
one must meet those M 88
one must jump from M 88
one most worth having M 88
one more trip from M 88
one more great name M 88
one line coming from M 88
one ideal among many M 88
one heard nothing from M 88
one have been also M 88
one hand laying hold M 88
one hand have their M 88
one hand gave birth M 88
one coming from some M 88
one body have been M 88
one must make note M 87
one must just wait M 87
one knew when these M 87
one felt sure what M 87
one ever free from M 87
one years must have M 86
one word when three M 86
one will ever move M 86
one well worth paying M 86
one unit cell along M 86
one time unit will M 86
one time step will M 86
one time some were M 86
one time held some M 86
one taking over when M 86
one such data base M 86
one stop among many M 86
one sees also from M 86
one room leads into M 86
one road into town M 86
one part from those M 86
one must only make M 86
one more wrong move M 86
one more great blow M 86
one month from time M 86
one look more will M 86
one just past will M 86
one hour from home M 86
one host during their M 86
one here even knew M 86
one hand these have M 86
one hand laid hold M 86
one great fact upon M 86
one great fact must M 86
one from whom those M 86
one from whom great M 86
one fact will give M 86
one even more bold M 86
one else kept nothing M 86
one echo from your M 86
one case even when M 86
one well worth bearing M 85
one very clear fact M 85
one time step only M 85
one must learn when M 85
one must keep ever M 85
one must keep asking M 85
one case only there M 85
one word upon what M 84
one will learn much M 84
one will know more M 84
one were cast into M 84
one very sore hurt M 84
one vast dark arch M 84
one vast book like M 84
one time were those M 84
one time only five M 84
one time even been M 84
one third were single M 84
one tale among many M 84
one some years back M 84
one single land mass M 84
one single case were M 84
one side will look M 84
one side will feel M 84
one side were able M 84
one pair will last M 84
one over there only M 84
one other such work M 84
one must reach into M 84
one must only hope M 84
one more walk along M 84
one month when there M 84
one leads back home M 84
one knew what turn M 84
one item will have M 84
one hand were some M 84
one hand held open M 84
one half waking from M 84
one half paying heed M 84
one half mile back M 84
one hair more free M 84
one great moving mass M 84
one great gift from M 84
one from whom these M 84
one from five years M 84
one free from care M 84
one fears very much M 84
one ever told these M 84
one even knew their M 84
one even gets used M 84
one else will blow M 84
one else come from M 84
one duty more holy M 84
one body must have M 84
one must also hope M 83
one have done more M 83
one ever sees your M 83
one wrong move will M 82
one will note also M 82
one will deny your M 82
one week what very M 82
one upon whom your M 82
one time when living M 82
one time were worth M 82
one time many such M 82
one time coming home M 82
one there acts from M 82
one such test uses M 82
one single step over M 82
one single note from M 82
one side over those M 82
one road back from M 82
one part there will M 82
one once gets into M 82
one need only live M 82
one need ever hope M 82
one must also plan M 82
one more time onto M 82
one more tale from M 82
one more month till M 82
one made from some M 82
one look from whom M 82
one life will soon M 82
one last time will M 82
one last item from M 82
one know from whom M 82
one just word from M 82
one just gone from M 82
one hour will kill M 82
one home there were M 82
one hand take into M 82
one hand held forth M 82
one half hour into M 82
one great gain from M 82
one from seeing into M 82
one from many other M 82
one food item from M 82
one fifth came from M 82
one fall away from M 82
one else must lend M 82
one else just what M 82
one else came from M 82
one coming from those M 82
one also will find M 82
one were dealing only M 81
one side when only M 81
one only five years M 81
one must only wait M 81
one knew when their M 81
one good deed will M 81
one days have been M 81
one worth coming even M 80
one week from last M 80
one time only what M 80
one time lost heavy M 80
one time coming back M 80
one time been kept M 80
one three feet from M 80
one such call from M 80
one single walk over M 80
one side will grow M 80
one side when great M 80
one room have been M 80
one road leads from M 80
one road away from M 80
one other flaw upon M 80
one only need note M 80
one need look back M 80
one life ever moving M 80
one kind drop unto M 80
one into your room M 80
one into some sort M 80
one hand hard upon M 80
one great step will M 80
one great fact will M 80
one copy fell into M 80
one away from pure M 80
one will work well M 79
one came over from M 79
one came from there M 79
one else will save M 78
one gets from many M 77
one will make more M 75
one draw from such M 75
one knew what such M 73
one held their breath M 73
one felt like taking M 73
one ever will find M 73
one ever gave more M 73
one will come over M 72
one were very much M 72
one sees once more M 72
one must think over M 71
one learn from such M 71
one sees some very M 70
one sent forth from M 69
one came back into M 69
one must have well M 68
one fell into their M 68
one must have your M 67
one will find upon M 66
one must seek more M 66
one must look over M 66
one must have sent M 66
one came into your M 66
one will slow down M 65
one side very much M 65
one must think more M 65
one must have cost M 65
one else take care M 65
one will need only M 64
one will lose face M 64
one will have left M 63
one will give birth M 63
one sees only three M 63
one here will tell M 63
one ever came along M 63
one else know your M 62
one will cost more M 61
one sees there only M 61
one will make good M 60
one will draw from M 60
one went into their M 60
one sees much less M 60
one else having been M 60
one will pass into M 59
one will come home M 59
one will also take M 59
one must take only M 59
one gets these days M 59
one gets into more M 59
one case very much M 59
one will come true M 58
one will also look M 58
one lies down upon M 58
one ever come back M 58
one sees only those M 57
one must walk along M 57
one must make three M 57
one ever gets into M 57
one else went into M 57
one else from your M 57
one came from south M 57
one wish there were M 56
one will move into M 56
one will feel less M 56
one must step down M 56
one must look deep M 56
one must also move M 56
one ever says such M 56
one ever gave such M 56
one will have when M 55
one will even dare M 55
one must have eaten M 55
one hand from such M 55
one fifth part more M 55
one else very much M 55
one coming from afar M 55
one will have your M 54
one will have four M 54
one sees nothing when M 54
one must take over M 54
one gets very good M 54
one else must come M 54
one will work more M 53
one will take only M 53
one will learn what M 53
one must find their M 53
one must ever feel M 53
one gets from your M 53
one gets from much M 53
one ever reads these M 53
one else been able M 53
one came down here M 53
one will have what M 52
one will give your M 52
one will ever pick M 52
one will ever open M 52
one sees here only M 52
one must look much M 52
one laid down their M 52
one just over there M 52
one held back from M 52
one hears coming from M 52
one half were well M 52
one died very young M 52
one will take less M 51
one will feel free M 51
one will call into M 51
one says only what M 51
one must stay here M 51
one must give much M 51
one more time there M 51
one knew their name M 51
one hand even more M 51
one gets from life M 51
one from whom most M 51
one from whom love M 51
one must come face M 50
one know what kind M 50
one here must have M 50
one fell back upon M 50
one ever knew more M 50
one else wore such M 50
one else living here M 50
one will fall from M 49
one runs some risk M 49
one runs great risk M 49
one must make full M 49
one know just what M 49
one knew what name M 49
one knew full well M 49
one here will help M 49
one gets down here M 49
one felt like asking M 49
one else been here M 49
one years away from M 48
one will work hard M 48
one will step into M 48
one must have five M 48
one must also will M 48
one means nothing more M 48
one half were over M 48
one ever having seen M 48
one else will show M 48
one else knew just M 48
one else among those M 48
one came into their M 48
one came down into M 48
one will wait till M 47
one will make only M 47
one will live here M 47
one will also help M 47
one side hanging down M 47
one must pass away M 47
one must look along M 47
one must keep their M 47
one must bend down M 47
one must also help M 47
one gets well into M 47
one gets only from M 47
one gets from what M 47
one gets from home M 47
one felt much more M 47
one ever made love M 47
one else knew more M 47
one clear days from M 47
one will work only M 46
one will dare speak M 46
one will also pass M 46
one sees only half M 46
one must pass along M 46
one must know only M 46
one must give great M 46
one know what these M 46
one hand take hold M 46
one gets along well M 46
one felt there must M 46
one ever went over M 46
one else will meet M 46
one will turn back M 45
one will think there M 45
one will help your M 45
one must have once M 45
one must feel more M 45
one must fall down M 45
one must ever take M 45
one knew their meaning M 45
one just like those M 45
one else take your M 45
one died three days M 45
one will work fine M 44
one will take note M 44
one will stay here M 44
one will live more M 44
one will ever more M 44
one will come when M 44
one will also meet M 44
one went into town M 44
one uses some other M 44
one time when most M 44
one time have more M 44
one sees very much M 44
one sees just what M 44
one must rise early M 44
one must break into M 44
one keep away from M 44
one just three days M 44
one just like ours M 44
one just laid down M 44
one hears only what M 44
one hears from these M 44
one hears from most M 44
one have been born M 44
one hand moving down M 44
one gets from work M 44
one ever lost their M 44
one ever have such M 44
one will work just M 43
one will stay there M 43
one will meet your M 43
one will give good M 43
one will find life M 43
one will break into M 43
one time three well M 43
one single time more M 43
one side face down M 43
one need only work M 43
one must think here M 43
one must live only M 43
one look more like M 43
one knew what type M 43
one knew what other M 43
one have been sent M 43
one hand laid over M 43
one gets into these M 43
one else will hold M 43
one else much more M 43
one among many there M 43
one among many less M 43
one will turn down M 42
one will rule over M 42
one will only need M 42
one will look more M 42
one will leave their M 42
one will help keep M 42
one will have said M 42
one will grow back M 42
one will find four M 42
one will ever kill M 42
one will come till M 42
one were living there M 42
one went down from M 42
one time over there M 42
one sixth part only M 42
one puts forth more M 42
one need only type M 42
one must seek help M 42
one must look there M 42
one must keep from M 42
one must give what M 42
one must find means M 42
one must also meet M 42
one lost their life M 42
one felt even more M 42
one feel there must M 42
one ever know such M 42
one else have what M 42
one came upon some M 42
one also take into M 42
one also sees what M 42
one will tell what M 41
one will soon lose M 41
one will much care M 41
one will give some M 41
one will feel much M 41
one will ever grow M 41
one will cost from M 41
one will blow over M 41
one time meant only M 41
one side leading down M 41
one sees these great M 41
one sees hanging from M 41
one runs into many M 41
one reads these days M 41
one must seek truth M 41
one must make their M 41
one must live what M 41
one must have ready M 41
one must find those M 41
one look very much M 41
one knew must soon M 41
one just sits there M 41
one gets from hearing M 41
one ever gets there M 41
one else will open M 41
one else gets hold M 41
one else been there M 41
one came down upon M 41
one acts from will M 41
one will turn over M 40
one will soon know M 40
one will some time M 40
one will make sure M 40
one will know much M 40
one will hurt most M 40
one will ever rise M 40
one will dare move M 40
one will break your M 40
one time only four M 40
one time held more M 40
one there from whom M 40
one must wait three M 40
one must turn left M 40
one must take along M 40
one must lose what M 40
one must have work M 40
one must have help M 40
one must give these M 40
one must find time M 40
one must break from M 40
one knew what there M 40
one knew what land M 40
one gets into their M 40
one feet from north M 40
one ever heard much M 40
one ever gets rich M 40
one else will sell M 40
one else uses your M 40
one else over there M 40
one else here will M 40
one else among their M 40
one come forth from M 40
one foot away from D 4628
one inch away from D 2836
one tool among many D 2184
one half inch thick D 1977
one card face down D 1543
one half inch from D 1412
one mile from camp D 1149
one half inch wide D 1100
one need only scan D 1034
one more nail into D 774
one inch down from D 764
one last fond look D 734
one half wave length D 730
one inch from their D 708
one wall there were D 664
one lost soul more D 662
one hand slid down D 661
one time bade fair D 658
one hand over hers D 652
one paid much heed D 647
one dark brow rose D 644
one will prey upon D 616
one having been shot D 514
one rock type into D 508
one sect among many D 499
one tears hers down D 493
one half inch deep D 488
one half feet tall D 480
one inch from your D 468
one firm will have D 464
one unit cell thick D 461
one yard away from D 438
one paid very much D 435
one half feet thick D 434
one star among many D 425
one theme among many D 418
one vote away from D 412
one foot back from D 412
one inch back from D 406
one mile from fort D 400
one more giant step D 359
one bare foot over D 352
one side will mock D 350
one ever paid much D 349
one great blot upon D 344
one inch thick will D 338
one spot there were D 326
one foot having been D 326
one skin test dose D 324
one card from your D 324
one facing away from D 319
one into your mouth D 312
one foot from your D 310
one other pond just D 308
one more last ride D 304
one test tube into D 302
one else paid much D 302
one must have bread D 297
one more shot from D 296
one hand waving free D 292
one hand palm down D 292
one ever took more D 290
one must keep pace D 289
one other living soul D 288
one time held sway D 287
one wave length only D 277
one took much note D 270
one must have paid D 259
one inch from edge D 258
one salt lake city D 257
one task among many D 256
one last loving look D 256
one whit less heavy D 250
one foot hanging over D 242
one from cape town D 237
one such trip took D 236
one part fine sand D 232
one pace away from D 232
one mite wrung from D 232
one hour past noon D 232
one living room wall D 226
one inch deep into D 226
one such case took D 224
one took very much D 220
one took away from D 215
one inch from what D 214
one bare bulb hanging D 212
one veil hangs over D 210
one more shot into D 210
one must hark back D 208
one whit from their D 206
one wall were three D 206
one time when john D 206
one must throw away D 206
one good puff more D 206
one wave length from D 203
one single cent from D 202
one firm over time D 202
one tier just like D 200
one slip away from D 200
one fine young colt D 200
one inch thick over D 199
one part rest firm D 198
one giant land mass D 198
one need only thumb D 196
one ever took such D 196
one rail bent awry D 194
one knew what took D 193
one rosy drop from D 192
one camp there were D 192
one true soul mate D 191
one sect will ever D 190
one will best suit D 189
one time threw away D 189
one firm from those D 188
one riding away over D 186
one giant step ahead D 182
one also took into D 182
one such live coal D 180
one part clean sand D 180
one from salt lake D 180
one dart from your D 180
one radio talk show D 179
one hand your bowl D 178
one foot deep over D 178
one bringing good news D 178
one time bore away D 176
one having least worth D 176
one sees rising upon D 175
one else took much D 175
one vote among many D 174
one card away from D 173
one warm morn when D 172
one single shot from D 172
one club length from D 172
one hand flat upon D 170
one foot down from D 170
one loving heart sets D 169
one side were rows D 168
one sees riding their D 168
one were gazing upon D 166
one shot came from D 166
one single living soul D 164
one rock type from D 164
one door swinging open D 164
one part wheat bran D 162
one hand flat over D 162
one need only skim D 160
one more card from D 160
one inch from knot D 160
one gold coin from D 160
one camp were those D 160
one side will tend D 158
one part baking soda D 158
one lane dirt road D 158
one giant step back D 158
one thick earthy mass D 156
one giant step from D 156
one from lord john D 156
one half inch high D 155
one time their tent D 154
one shot away from D 152
one huge fist into D 152
one pale baby blue D 150
one time zone into D 148
one inch thick from D 148
one foot high from D 148
one bare foot into D 148
one sets sail like D 146
one must break eggs D 146
one foot from their D 146
one canoe kept hanging D 146
one whit less true D 144
one wears shoes here D 144
one single peep into D 144
one were gazing into D 142
one single sous left D 142
one salt drop from D 140
one foot deep into D 140
one atom will have D 140
one spot away from D 139
one whit from what D 138
one wall away from D 138
one took much heed D 138
one pays back evil D 138
one other menu item D 138
one hand took hold D 138
one full wave length D 138
one wire leading from D 136
one wave length will D 136
one ship flung five D 134
one inch mesh wire D 134
one main dining room D 132
one inch thick when D 132
one flat pale tint D 132
one time zone west D 131
one just like hers D 131
one more lost soul D 129
one foot hanging down D 129
one tall pine tree D 128
one more tiny step D 128
one more shot left D 128
one inch thick were D 128
one firm among many D 128
one took good care D 127
one else ever took D 127
one hour must rend D 126
one finger deep into D 126
one card left over D 125
one wall were some D 124
one single oral dose D 124
one roll call vote D 124
one pays back wrong D 124
one more good shot D 124
one having been sold D 124
one hand flung over D 124
one will have paid D 123
one young wife said D 122
one pays very heavy D 122
one lost soul among D 122
one foul blot upon D 122
one dark blot upon D 122
one bolt went back D 122
one wave went over D 121
one time very fond D 120
one shot from cars D 120
one great wave over D 120
one foot down into D 120
one took their eyes D 119
one pole were those D 118
one pays very much D 118
one living soul from D 118
one hand leaning upon D 118
one digs down into D 117
one will throw away D 116
one will soon sink D 116
one whit less clear D 114
one poor soul from D 114
one deck down from D 114
one card from their D 114
one among many media D 114
one time when jack D 112
one must fain call D 112
one last swig from D 112
one ever sets foot D 112
one more damn time D 111
one from your wife D 111
one ever took care D 111
one last puff from D 110
one inch deep over D 110
one great iron band D 110
one ball whiz along D 110
one much more akin D 107
one else took such D 107
one dyne acting over D 107
one time will tend D 106
one race over other D 106
one pays much heed D 106
one hour from noon D 106
one foot went into D 106
one dark spot upon D 106
one baby mite there D 106
one very much akin D 104
one node will have D 104
one must have firm D 104
one must give alms D 104
one from their seats D 104
one ever took less D 104
one ever rose from D 104
one task very well D 102
one soul from hell D 102
one paid much mind D 102
one giant step away D 102
one foot back into D 102
one canoe only having D 102
one ever drew such D 101
one bears some mark D 101
one tuning fork will D 100
one time been fond D 100
one tell wife what D 100
one pace back from D 100
one last shot from D 100
one dark brow shot D 100
one bite among more D 100
one main cash crop D 99
one took pity upon D 98
one time zone away D 98
one time when bill D 98
one time took some D 98
one sowing will last D 98
one more loving look D 98
one look from thine D 98
one kind like silk D 98
one hero into fame D 98
one hard word bringing D 98
one great fact rose D 98
one digs deep into D 98
one shot went wild D 96
one more warp thread D 96
one knee into your D 96
one john ball also D 96
one acre will feed D 96
one slot away from D 95
one else took part D 95
one part rock salt D 94
one foot high will D 94
one whit more base D 92
one when gazing upon D 92
one wall were rows D 92
one upon your nose D 92
one single ruby made D 92
one pays some such D 92
one part more akin D 92
one inch wide will D 92
one hand from mere D 92
one call from wife D 92
one will suit your D 91
one were shot down D 90
one wall were four D 90
one such great soul D 90
one single wave length D 90
one race from those D 90
one much spit upon D 90
one more tool used D 90
one more tiny fact D 90
one more having hove D 90
one foot thick over D 90
one dark brow rising D 90
one bite away from D 90
one atom away from D 90
one must have pack D 89
one time took part D 88
one spot free from D 88
one shot down over D 88
one rank away from D 88
one more ride over D 88
one mood among many D 88
one main rail line D 88
one inch wide from D 88
one foot swinging free D 88
one finger beating time D 88
one volt will send D 86
one type will tend D 86
one single soul from D 86
one part will tend D 86
one pale face from D 86
one more peep into D 86
one loving heart such D 86
one half inch into D 86
one crop among many D 86
one made much fuss D 85
one spot some pine D 84
one single poor soul D 84
one single inch from D 84
one shot over their D 84
one other feast such D 84
one node away from D 84
one knew what tone D 84
one inch wide along D 84
one hand laid flat D 84
one finger into your D 84
one limb dips more D 83
one very rude name D 82
one vast wave upon D 82
one took their gift D 82
one such raid took D 82
one spot when left D 82
one soul from taking D 82
one snip will make D 82
one side were john D 82
one news item from D 82
one loving word from D 82
one half inch away D 82
one foot deep from D 82
one dyne when their D 82
one vote having been D 80
one time rising into D 80
one pale look into D 80
one atom must have D 80
one took their turn D 62
one took some time D 58
one took more time D 56
one here wears shoes D 52
one half sine wave D 52
one must dive into D 51
one will sink into D 50
one will bump into D 48
one boat went down D 46
one inch from left D 45
one foot came down D 45
one time took over D 43
one foot went down D 43
one else took over D 43
one shot last week D 42
one must have sunk D 42
one lots were sold D 42
one inch from mine D 42
one drew back from D 41
one drew away from D 41
one left their seats D 40
one firm taking over D 40
one ever paid more D 40
