em to come back M 612
em to keep their M 410
em to have been M 334
em to come down M 298
em to make sure M 296
em to come here M 268
em on their feet M 252
em to know what M 232
em to come over M 224
em to take their M 214
em to take care M 195
em up down south M 185
em the next time M 182
em to keep away M 180
em on their heads M 166
em to mind their M 160
em in your hand M 158
em to stay away M 152
em to make their M 152
em in those days M 150
em to look like M 131
em to come along M 130
em on your side M 110
em of their good M 110
em the last time M 106
em to hold their M 100
em to wait till M 98
em the glad hand M 96
em as will keep M 94
em to make deep M 84
em to take hold M 42
em in your mouth D 266
em by their bringing D 104
em at four legs D 94
