either as a whole M 20516
either in a state M 11910
either by a change M 5316
either as a group M 5066
either as a cause M 4021
either in a small M 3544
either by a small M 3366
either as a first M 3062
either in a civil M 2993
eighth of a point M 2879
either as a child M 2693
either in a large M 2623
either at a fixed M 2554
either in a group M 2449
either as a solid M 2292
either as a party M 2285
either as a stand M 2257
either on a large M 2136
either as a class M 2086
either to a change M 2056
either by a large M 1913
either by a state M 1897
either of a white M 1818
either as a small M 1806
either as a state M 1777
either in a solid M 1767
either on a small M 1764
either on a daily M 1729
eighth of a period M 1653
either as a place M 1605
either as a fixed M 1580
either by a local M 1564
either to a small M 1549
either on a local M 1540
either of a civil M 1523
either as a model M 1430
either as a guide M 1345
either as a human M 1339
either as a major M 1318
either to a group M 1314
either as a method M 1314
either of a state M 1285
either at a point M 1280
either on a short M 1260
either as a local M 1257
either to a state M 1206
either on a fixed M 1203
either to a local M 1180
either in a fixed M 1173
either as a total M 1139
either as a woman M 1113
either at a given M 1102
either in a local M 1095
either in a moral M 1088
either by a fixed M 1069
either to a large M 1068
either at a meeting M 1057
either as a short M 1037
either of a large M 1032
either as a point M 1028
either as a legal M 1025
either by a group M 989
either in a sitting M 979
either by a strong M 979
either in a chair M 955
either as a final M 955
eighth in a class M 944
either in a given M 932
either as a moral M 922
either by a sense M 921
either in a house M 916
either as a large M 903
eighth of a cycle M 902
either as a buyer M 898
either by a human M 895
either by a motion M 890
either at a local M 879
either as a right M 843
either as a piece M 833
either by a short M 831
either as a leader M 831
either as a judge M 820
either by a party M 819
either as a change M 817
either as a warning M 795
either of a small M 793
either as a proof M 791
either to a fixed M 789
either of a whole M 781
either to a place M 780
either in a legal M 771
either as a white M 760
either as a basic M 748
either in a short M 745
either as a joint M 734
either in a gross M 697
either by a judge M 687
either by a grant M 660
either on a piece M 659
either as a check M 657
either of a local M 652
either of a woman M 640
either on a table M 639
either as a slave M 639
either by a woman M 625
either as a linear M 622
either in a linear M 619
either of a waste M 606
either in a water M 591
eighth to a fourth M 588
either in a loose M 577
either as a guest M 574
either as a mother M 561
either by a water M 558
either to a point M 557
either to a lower M 555
either as a power M 555
either in a place M 545
either by a joint M 545
either in a change M 544
either as a force M 542
either in a class M 532
either on a stand M 529
either in a hurry M 517
either at a lower M 512
either of a fixed M 506
either be a world M 506
either of a solid M 503
either at a price M 500
either at a place M 498
either in a fluid M 497
either in a strong M 485
either on a chair M 484
either as a black M 480
either of a light M 476
either as a study M 470
either to a whole M 467
either in a plane M 467
either in a joint M 465
either as a table M 462
either of a human M 459
either of a moral M 454
either on a group M 451
either be a fixed M 449
either of a child M 436
either on a motion M 434
either by a power M 433
either by a point M 432
either as a father M 431
eight in a group M 430
either as a civil M 420
either on a first M 419
either to a class M 416
eighth in a field M 415
either in a right M 414
either in a frame M 414
either of a legal M 411
either in a table M 409
either by a solid M 404
either to a given M 403
eight on a scale M 402
either to a sense M 401
either on a state M 394
either on a given M 390
either of a party M 390
either by a total M 390
either in a field M 385
either in a close M 385
either by a linear M 383
either be a small M 374
either of a group M 373
either in a stream M 372
either in a green M 370
either by a legal M 370
either to a total M 365
either by a chain M 362
either of a change M 359
either to a child M 358
either of a right M 357
either as a value M 357
either by a happy M 355
either as a grant M 354
either as a pupil M 352
either of a short M 351
either by a shift M 349
either by a civil M 349
either in a human M 346
either in a world M 340
eight to a table M 340
either in a point M 338
either by a stream M 333
either by a light M 331
eight of a total M 331
either by a cross M 330
either at a right M 328
either as a water M 327
either to a strong M 324
either in a meeting M 324
either be a large M 321
either as a field M 321
either on a plane M 319
either in a whole M 318
either as a strong M 318
either by a board M 317
either as a reason M 315
either in a plain M 313
either on a visit M 312
either of a black M 312
either as a light M 312
either as a fully M 312
either as a cover M 312
either in a total M 310
either to a human M 308
either in a healthy M 308
either in a nursing M 307
either as a crime M 307
either be a short M 306
either as a stream M 305
either in a lower M 304
either as a plain M 302
either of a class M 299
either in a first M 299
either in a fully M 297
either as a stage M 297
either be a local M 295
either in a major M 294
either in a light M 294
either at a later M 293
either of a house M 292
either to a short M 291
either in a steady M 291
either by a force M 289
either on a point M 286
either as a story M 286
eight in a house M 286
either by a lower M 284
either in a fight M 282
either as a block M 282
either by a brief M 280
either of a strong M 278
either at a small M 278
either as a reader M 278
either in a stand M 277
either in a river M 277
either in a period M 275
either to a woman M 273
either of a given M 272
either by a piece M 271
either as a claim M 270
either on a scale M 265
either on a board M 263
either be a slave M 263
either as a period M 261
either in a vowel M 258
either in a vision M 257
either as a prime M 256
either by a plain M 255
either as a share M 254
either by a method M 253
either of a total M 248
either of a steady M 248
either at a party M 248
either by a comma M 246
either in a party M 245
either at a table M 244
either as a given M 244
either as a people M 242
either on a paper M 239
either in a store M 237
either by a close M 237
either as a loose M 236
eighth of a share M 236
either by a false M 234
either on a total M 233
either in a white M 233
either as a favor M 232
either in a running M 230
either as a working M 229
either of a lower M 228
either in a sense M 227
either to a false M 226
either in a block M 226
either as a false M 226
either on a world M 225
either on a linear M 225
either in a paper M 225
either to a denial M 224
either if i could M 224
either by a study M 224
either as a board M 224
either as a cross M 223
either as a steady M 220
either to a feeling M 219
either as a bribe M 219
either on a plain M 218
either by a gross M 216
eight in a morning M 216
either in a child M 215
either on a whole M 214
either on a water M 214
either by a first M 214
either as a phase M 214
either as a daily M 214
either by a black M 212
either at a stand M 212
either as a topic M 211
either be a queen M 209
eight in a small M 208
either by a check M 207
either be a solid M 206
either in a mixed M 205
either by a nurse M 205
either at a large M 205
either as a valid M 205
either of a round M 204
either by a feeling M 203
either to a final M 202
either in a blind M 202
either of a piece M 201
either to a major M 200
either as a tutor M 200
either in a nearby M 199
either by a child M 199
either be a whole M 199
either be a change M 199
either by a final M 198
either to a party M 197
either by a quick M 196
either as a label M 196
either by a white M 195
either by a visit M 194
either as a search M 194
either in a wider M 192
either in a storm M 192
either by a blind M 192
either as a trust M 191
either on a solid M 190
either of a place M 190
either as a teaching M 190
either as a nurse M 190
either by a table M 188
either be a cause M 188
either as a paper M 187
either be a total M 186
either to a white M 183
either to a trust M 182
either by a whole M 181
eighth as a check M 180
either in a press M 179
either on a floor M 178
either be a state M 178
either as a graph M 178
either in a final M 177
either in a brief M 177
either on a white M 176
either of a vowel M 175
either by a fault M 175
either as a unity M 175
either as a store M 173
either as a quick M 173
either on a frame M 172
either by a steady M 171
either as a feeling M 171
either as a fluid M 170
either to a legal M 169
either by a period M 168
either in a chain M 167
either as a mixed M 167
either of a major M 166
either in a woman M 166
either by a train M 166
either to a named M 164
either to a civil M 164
either in a false M 164
either be a right M 164
either in a hasty M 162
either of a final M 161
either in a motion M 160
either as a gross M 160
eight at a table M 160
either in a round M 159
either in a later M 159
either by a writing M 159
either by a grand M 158
either in a quiet M 157
either by a river M 157
either on a joint M 156
either in a space M 156
either by a rough M 156
either be a party M 156
eighth as a cause M 156
either as a brief M 155
either on a grand M 153
either on a block M 153
either in a worse M 153
either in a rather M 153
either to a period M 152
either in a train M 152
either in a search M 152
either be a piece M 152
either be a major M 152
either as a vague M 152
either in a sound M 151
either as a waste M 151
either as a queen M 151
either in a story M 150
either by a virus M 150
either by a right M 150
either by a falling M 150
either as a space M 150
either as a green M 150
eighth or a fourth M 150
either of a slave M 149
either in a plant M 148
either in a cross M 148
either by a voice M 148
either as a sense M 148
either as a maker M 148
eight in a class M 148
either in a sunny M 147
either in a model M 147
either by a major M 147
either as a limit M 147
either by a later M 145
either be a stand M 144
either to a world M 143
either of a sense M 143
either as a ruler M 143
either to a piece M 142
either to a later M 142
either by a moral M 142
either as a rough M 142
either to a nearby M 141
either of a river M 140
either in a drawing M 140
either by a royal M 140
eighth of a whole M 140
either to a people M 139
either is a prime M 139
either by a hasty M 138
either as a fault M 138
eight to a block M 138
either to a judge M 137
either as a layer M 136
either to a known M 135
either in a heaven M 135
either as a round M 135
either by a class M 134
eight to a group M 134
either by a search M 132
either as a passing M 132
either to a happy M 130
either in a vague M 130
either by a denial M 130
either as a denial M 130
eight in a large M 130
either on a yearly M 129
either of a people M 129
either in a black M 129
either be a false M 129
either is a cause M 128
either in a mould M 128
either by a slave M 128
either by a running M 128
either on a human M 127
either be a group M 127
either be a force M 127
either as a morning M 127
either by a blood M 126
either be a legal M 126
either as a rather M 126
either to a solid M 125
either on a label M 125
either of a world M 125
either in a stage M 125
eighth of a block M 125
either in a bunch M 124
either by a model M 124
either as a sound M 124
eight to a house M 124
either to a fault M 123
either of a father M 123
either at a nearby M 123
either as a vital M 123
either to a shift M 122
either on a grant M 122
either in a shape M 122
either be a mother M 122
either by a wound M 121
either by a clock M 121
either at a period M 121
either as a labor M 121
either as a front M 121
either as a blind M 121
either to a blind M 120
either of a plain M 120
either of a false M 120
either in a resting M 119
either in a daily M 119
either be a human M 119
either as a deity M 119
either in a rough M 118
either by a tight M 118
either by a share M 118
either by a known M 118
either on a field M 117
either of a first M 117
either as a world M 117
either as a named M 117
either as a print M 116
either by a meeting M 115
either as a plant M 115
either as a close M 115
either of a vague M 114
either be a strong M 114
either as a noble M 114
either by a growth M 113
either be a first M 113
either as a habit M 113
either in a piece M 112
eight of a morning M 112
either on a share M 111
either of a close M 111
either as a fraud M 111
either on a party M 110
either of a joint M 110
either in a winding M 110
either in a grand M 110
either by a given M 110
either as a growth M 110
either as a fight M 110
eight is a lucky M 110
either as a trace M 109
either of a mixed M 108
either of a green M 108
either by a cause M 108
either as a learning M 108
either via a local M 107
either by a sound M 107
either by a scale M 106
either as a fourth M 106
either to a board M 105
either of a later M 105
either of a cruel M 105
either of a basic M 105
either by a trust M 105
either by a timer M 105
either be a point M 105
either be a place M 105
either as a curse M 105
eighth of a ration M 105
either of a crime M 104
either as a chain M 104
either by a plane M 103
either in a basic M 102
either be a joint M 102
either to a black M 101
either in a front M 101
either in a crowd M 101
either as a known M 101
either as a frame M 101
either of a gross M 100
either of a blind M 100
either be a fully M 100
either as a focus M 100
either as a color M 100
eight is a power M 100
either to a first M 98
either of a power M 98
either in a happy M 98
either as a price M 98
either at a short M 97
either as a house M 97
either as a built M 97
either in a style M 96
either in a cloud M 96
either in a cause M 96
either as a later M 96
either as a dogma M 96
either be a leader M 95
either as a newly M 95
either as a giver M 95
either on a worry M 94
either of a brown M 94
either is a valid M 94
either by a vague M 94
either be a unity M 94
either as a happy M 93
either as a binding M 93
either of a rather M 92
either in a laugh M 92
either as a holding M 92
either of a board M 91
either be a woman M 91
either of a grand M 90
either in a burst M 89
either of a table M 88
either as a plane M 88
either in a nearly M 87
either in a trust M 86
either be a plain M 86
either as a guard M 86
either in a tight M 85
either to a water M 84
either to a right M 84
either of a fight M 84
either in a denial M 84
either be a power M 84
eight of a group M 84
either in a slave M 83
either in a growing M 83
either in a waste M 82
either in a shift M 82
eight in a night M 82
either on a price M 77
either to a cause M 70
either by a layer M 69
either to a study M 68
either on a river M 66
either by a round M 66
either as a voice M 66
either in a working M 65
either at a state M 65
either as a hunting M 65
either to a field M 64
either at a joint M 64
either by a winding M 63
eighth of a right M 63
either to a moral M 62
either on a stage M 61
either on a meter M 61
either on a cross M 61
either of a cross M 61
either by a burning M 61
either as a forum M 61
either to a growth M 60
either is a party M 60
either by a cutting M 60
either as a relic M 60
either to a wider M 59
either on a change M 59
either as a still M 59
either to a light M 58
either at a first M 58
either by a steep M 57
either by a longer M 57
either by a leader M 57
either to a house M 56
either as a drawing M 56
either to a mixed M 54
either as a money M 54
either to a model M 53
either to a joint M 53
either to a deity M 53
either of a grant M 53
either by a vision M 53
either by a money M 53
either as a junior M 53
either to a power M 52
either on a major M 52
either by a space M 52
either as a proxy M 52
either to a block M 51
either on a gross M 51
either by a pause M 51
either by a field M 51
either to a value M 50
either to a super M 50
either on a lower M 50
either on a class M 50
either by a stray M 50
either as a shift M 50
either as a filling M 50
either to a motion M 49
either of a healthy M 49
either of a fluid M 49
either by a paper M 49
either by a father M 49
either as a notion M 49
either on a civil M 48
either on a chain M 48
either by a vowel M 48
either by a showing M 48
either by a built M 48
either as a vision M 48
either as a royal M 48
either as a prize M 48
either as a draft M 48
either to a river M 47
either to a father M 47
either by a gauge M 47
either as a watch M 47
either as a naive M 47
either to a plane M 46
either to a basic M 46
either on a light M 46
either in a still M 46
either in a share M 46
either as a viable M 46
either as a motion M 46
either as a floor M 46
either as a danger M 46
eight in a total M 46
either on a legal M 45
either in a prone M 45
either by a storm M 45
either by a mother M 45
either by a growing M 45
either by a daily M 45
either as a start M 45
either to a share M 44
either to a claim M 44
either in a newly M 44
either by a rather M 44
either by a label M 44
either at a gross M 44
either as a cloak M 44
either to a search M 43
either to a delay M 43
either on a false M 43
either by a loose M 43
either by a drawing M 43
either by a delay M 43
either be a light M 43
either as a resting M 43
either on a loose M 42
either by a people M 42
either be a final M 42
either be a child M 42
either as a reply M 42
eighth in a group M 42
either to a growing M 41
either to a brave M 41
either by a claim M 41
either as a willing M 41
either to a longer M 40
either on a track M 40
either on a right M 40
either by a meter M 40
either by a lengthy M 40
either by a color M 40
either be a loser M 40
either as a testing M 40
either as a style M 40
eighth of a fluid M 40
eighth of a grain D 10756
eight to a dozen D 3281
eighth of a pound D 3056
eight or a dozen D 2732
either in a court D 2519
eighth of a penny D 2333
eighth of a league D 2134
either as a basis D 2104
either as a social D 1367
either by a court D 1357
either as a spray D 1280
either on a level D 1262
either as a nation D 957
either as a weapon D 872
either on a basis D 868
either as a motor D 829
either as a hobby D 768
either in a batch D 706
either as a bolus D 706
either by a screw D 688
eight on a bight D 656
either in a social D 602
either as a court D 601
either as a stock D 594
either as a lover D 563
eighth of a cubic D 546
either in a broad D 539
either on a stock D 529
either as a token D 513
either in a fresh D 511
either by a rapid D 486
either of a social D 484
either to a court D 465
eighth of a rupee D 465
either in a glass D 430
either as a trade D 421
either as a batch D 421
either by a treaty D 387
either in a hotel D 383
either by a sharp D 377
either as a drink D 375
either as a saint D 366
either on a broad D 358
either of a fatal D 358
either in a crude D 358
either by a lever D 354
either by a canal D 346
either as a minor D 345
either as a hedge D 340
either by a rigid D 338
either of a nation D 333
either as a lotion D 327
either in a studio D 323
either by a stone D 318
either on a horse D 316
either as a coating D 316
eighth of a horse D 314
either by a broad D 312
either in a fleet D 308
either in a trade D 305
either as a vapor D 304
either as a chief D 304
either as a paste D 295
either as a metal D 288
either to a social D 284
eighth of a roman D 282
either be a saint D 278
either as a salad D 267
either as a novel D 256
either as a clerk D 250
either as a donor D 249
either at a level D 240
either as a shrub D 240
either as a staff D 238
either on a stone D 236
either by a motor D 229
eighth of a carat D 229
either on a sheet D 228
either to a rapid D 227
either as a bonus D 227
either by a glass D 225
either on a shelf D 216
either as a sport D 216
either of a minor D 215
either of a court D 215
either in a nation D 215
either as a pilot D 215
either on a plate D 214
either by a metal D 213
either as a breach D 213
either on a glass D 212
either in a flood D 210
either on a bench D 208
either in a rapid D 205
either by a fresh D 205
either as a title D 203
either by a sliding D 202
either by a tumor D 201
eighth of a sheet D 199
either on a metal D 197
either in a rural D 197
either by a social D 195
either in a stove D 194
either as a voter D 194
either as a crude D 194
either in a moist D 193
either in a region D 192
either in a blast D 191
either as a fresh D 190
eighth of a liter D 188
either to a lesion D 183
either as a broad D 183
eight in a whorl D 178
either as a rigid D 177
either in a sealed D 176
either as a roman D 176
either as a curve D 175
either in a motor D 174
either as a tonic D 174
either as a snack D 170
either by a crank D 169
either on a batch D 167
eighth of a cubit D 166
either at a hotel D 164
either as a rival D 164
either by a cable D 163
either of a breach D 161
either on a slide D 160
either as a stack D 160
either as a pulse D 160
either by a curve D 159
either in a metal D 158
either by a staff D 158
either by a spray D 158
either in a theater D 155
either as a trading D 155
either to a nation D 150
either by a valve D 150
eighth of a farthing D 150
either by a trade D 149
either on a throne D 148
either by a wheel D 148
either as a region D 147
either by a prism D 146
either by a fusion D 146
either as a debit D 146
either of a solar D 144
either by a shock D 144
eight to a cabin D 144
either of a metal D 143
either in a treaty D 143
either as a rapid D 143
either in a bound D 138
either as a focal D 138
either as a dusting D 137
either to a brand D 136
either as a trait D 136
either as a paint D 136
either in a heated D 135
either as a bully D 135
either in a salad D 134
either in a niche D 134
either in a faint D 134
either as a level D 134
either as a fishing D 134
either as a lever D 132
either of a treaty D 131
either in a stone D 131
either in a savings D 131
either as a loyal D 131
either in a flame D 130
either as a sheet D 130
either as a coach D 130
either on a social D 129
either in a ditch D 129
either by a knife D 129
either as a smooth D 129
either in a staff D 128
either by a flame D 128
either as a larva D 128
either by a spark D 127
either as a stern D 127
either in a naval D 126
either by a steel D 126
either as a cation D 125
either in a rigid D 124
either by a brush D 124
either by a tribe D 123
either by a slide D 123
either as a brake D 123
either by a flank D 122
either as a plate D 122
either as a fruit D 122
either as a badge D 122
either as a sales D 121
either as a syrup D 120
either in a wagon D 119
either by a nation D 119
either as a serial D 119
either as a dunce D 119
eight to a pound D 118
either of a trade D 117
either by a brute D 117
either of a fresh D 116
either as a naval D 116
either as a menial D 116
either of a broad D 115
either as a genus D 114
either in a torch D 113
either in a curve D 113
either as a dealer D 112
either in a scene D 110
either in a dense D 110
either by a blast D 109
either as a patch D 109
either to a stone D 108
either in a movie D 108
either to a broad D 107
either in a truck D 107
either as a scene D 107
either by a blank D 106
either as a widow D 106
either as a comic D 106
either of a roman D 105
either as a mulch D 105
either by a crazy D 104
either by a clamp D 104
either in a dress D 102
either be a dunce D 102
either is a chief D 101
either as a senior D 101
either in a novel D 100
either as a gloss D 99
either as a bound D 99
either in a steel D 98
either in a shady D 98
either in a chuck D 98
either be a social D 97
either as a nasal D 97
either by a league D 96
either by a flash D 96
either as a tribe D 95
either in a fiery D 94
either in a minor D 93
either of a spell D 92
either as a sword D 92
either in a clamp D 91
either by a wedge D 91
either by a syringe D 91
either as a shunt D 91
either of a lofty D 90
either in a siege D 90
either as a dense D 90
either in a sharp D 86
either in a drill D 84
either of a grave D 83
either in a spray D 83
either by a horse D 82
either to a minor D 81
either in a vault D 80
either on a staff D 76
either by a lesion D 76
either on a chart D 74
either on a couch D 72
either in a radial D 72
either by a split D 72
either by a breach D 72
either as a split D 69
either by a laser D 67
either in a serial D 66
either on a truck D 65
either in a dried D 65
either by a plate D 64
either by a senior D 63
either by a rival D 62
either by a sword D 61
either by a nerve D 61
either to a rigid D 60
either on a macro D 60
either as a grave D 60
either to a fresh D 59
either to a dealer D 59
either by a chief D 59
either as a seaman D 59
either as a beacon D 58
either on a strip D 57
either by a batch D 57
either as a dwarf D 57
either as a quasi D 56
either as a canon D 56
either to a metal D 55
either by a level D 55
either as a sharp D 55
either to a trade D 54
either on a fresh D 53
either as a shock D 52
either of a lover D 51
either by a panel D 51
either to a level D 50
either by a coating D 50
either as a setting D 50
either as a ghost D 50
either as a knave D 49
either as a blend D 48
either on a march D 47
either of a tonic D 47
either by a plumb D 47
either by a heated D 47
either to a glass D 46
either in a grave D 46
either by a dense D 46
either as a thesis D 46
either on a smooth D 45
either as a rebel D 45
either as a dowry D 45
either to a region D 44
either to a fatal D 44
either in a setting D 44
either by a title D 44
either by a shaft D 44
either as a knife D 44
either as a grain D 44
either as a feint D 44
either on a wheel D 43
either of a saint D 43
either in a singlet D 43
either in a dungeon D 43
either in a coach D 43
either by a strap D 43
either by a shunt D 43
either as a tumor D 43
either on a lotus D 42
either in a strip D 42
either by a spasm D 42
either by a sinking D 42
either as a deacon D 42
either as a creed D 42
either as a clown D 42
either to a senior D 41
either on a panel D 41
either of a motor D 41
either of a glass D 41
either in a stock D 41
either by a median D 41
either at a macro D 41
either as a modal D 41
either as a charm D 41
either on a quasi D 40
either by a slope D 40
either by a blunt D 40
either be a metal D 40
