with a kiss . M 77190
with a will . M 74976
with a rush . M 49426
with a cloth . M 46132
with a girl . M 42706
with a book . M 41694
with a plan . M 41420
with a look . M 30550
with a cold . M 26786
with a word . M 25708
with a baby . M 24306
with a name . M 23786
with a view . M 20923
with a file . M 20112
with a note . M 16752
with a line . M 15712
with a copy . M 14922
with a hand . M 14010
with a lady . M 12404
with a bank . M 11608
with a gift . M 11258
with a body . M 10096
with a third . M 10088
with a blow . M 9840
with a kiss ? M 9626
with a dream . M 9552
with a heart . M 9534
with a past . M 8818
with a fine . M 8368
with a bone . M 8346
with a date . M 8140
with a band . M 8044
with a kick . M 7948
with a male . M 7910
with a yell . M 7782
with a spring . M 7442
with a moan . M 7362
with a tail . M 7258
with a text . M 6934
with a tree . M 6824
with a base . M 6476
with a union . M 6414
with a case . M 6376
with a jump . M 6084
with a girl ? M 6072
with a rule . M 6042
win a game . M 6022
with a mask . M 5946
with a hole . M 5872
with a pick . M 5820
with a verb . M 5792
with a loss . M 5786
with a door . M 5782
with a flag . M 5778
with a maid . M 5737
with a call . M 5708
with a lock . M 5528
with a home . M 5352
with a sign . M 5200
with a knot . M 5166
with a fool . M 4962
with a list . M 4958
with a fury . M 4908
with a meaning . M 4890
with a twig . M 4836
with a threat . M 4812
with a fish . M 4804
with a baby ? M 4762
with a theory . M 4686
with a bell . M 4532
with a zero . M 4388
with a mate . M 4380
with a dash . M 4334
with a bird . M 4334
with a thread . M 4326
with a fire . M 4304
with a load . M 4286
with a noun . M 4186
with a face . M 3916
with a breath . M 3900
with a living . M 3868
with a single . M 3850
with a ship . M 3558
with a mind . M 3416
with a loop . M 3352
with a form . M 3332
with a cost . M 3276
with a user . M 3220
with a gate . M 3078
with a will ! M 3054
with a pass . M 3042
with a play . M 2972
with a fact . M 2922
with a mark . M 2866
with a goal . M 2858
with a rash . M 2796
with a kiss ! M 2704
with a beating . M 2704
with a thorn . M 2600
with a part . M 2570
with a worm . M 2488
with a treat . M 2480
win a case . M 2414
with a fall . M 2402
with a clue . M 2372
with a city . M 2302
with a test . M 2290
with a coat . M 2202
with a life . M 2196
with a trial . M 2186
with a game . M 2116
with a heading . M 2070
with a code . M 2002
with a pair . M 1984
with a walk . M 1882
with a break . M 1864
with a well . M 1858
with a lake . M 1858
with a cure . M 1796
with a rest . M 1748
with a wash . M 1718
with a book ? M 1716
with a cast . M 1702
with a push . M 1688
with a cake . M 1666
with a trap . M 1654
with a host . M 1644
with a room . M 1588
with a wish . M 1578
with a role . M 1574
with a show . M 1572
with a hair . M 1552
with a cold ? M 1504
with a need . M 1496
with a hero . M 1486
with a beast . M 1472
with a mass . M 1448
with a girl ! M 1446
with a stem . M 1440
with a bird ? M 1390
with a lady ? M 1304
with a unit . M 1294
with a lift . M 1294
with a lord . M 1286
with a type . M 1282
with a monk . M 1266
with a back . M 1266
with a tale . M 1262
with a site . M 1190
with a word ? M 1152
with a link . M 1146
with a duty . M 1138
with a baby ! M 1130
with a draw . M 1126
with a step . M 1114
with a bark . M 1096
with a name ? M 1076
with a page . M 1046
with a turn . M 1028
with a mist . M 1028
with a hearing . M 1016
with a norm . M 1008
with a vest . M 1006
with a thorn ? M 1006
with a void . M 1004
with a cell . M 986
with a hope . M 968
with a town . M 946
with a road . M 942
with a port . M 934
with a cult . M 920
with a view ? M 912
with a hint . M 904
with a mine . M 902
with a stop . M 882
with a word ! M 874
with a post . M 852
with a swim . M 842
win a hearing . M 838
with a gain . M 834
with a debt . M 834
with a plus . M 828
with a work . M 802
with a plan ? M 802
with a youth . M 794
with a seed . M 792
with a video . M 766
with a tour . M 752
with a beach . M 750
with a wind . M 744
with a self . M 742
with a core . M 738
with a term . M 734
with a moon . M 724
with a wood . M 708
with a fifth . M 704
with a left . M 690
with a risk . M 664
with a rush ! M 660
with a truth . M 656
with a fool ? M 656
with a kill . M 654
with a pull . M 652
with a birth . M 652
with a flaw . M 638
with a good . M 636
with a deed . M 632
with a look ? M 630
with a tomb . M 626
with a move . M 624
with a bait . M 610
with a date ? M 608
with a body ? M 608
with a root . M 606
with a book ! M 600
with a tail ? M 598
with a what ? M 590
with a gift ? M 576
with a fake . M 576
with a will ? M 572
with a heart ? M 562
with a view ! M 556
with a note ? M 556
with a rise . M 550
with a dream ? M 550
with a lady ! M 540
with a bend . M 540
with a range . M 530
with a drop . M 530
with a reading . M 524
with a tree ? M 520
with a union ? M 512
with a time . M 506
with a shop . M 500
with a breath ! M 498
with a heart ! M 492
with a cage . M 490
with a vice . M 484
with a fast . M 482
with a burn . M 478
with a great . M 470
with a faith . M 468
with a span . M 464
with a pain . M 464
with a drag . M 464
with a bank ? M 462
win a game ? M 458
with a band ? M 454
win a hand . M 444
with a text ? M 432
with a copy ? M 430
with a blow ? M 422
with a five . M 420
with a high . M 418
with a fish ? M 414
with a span ? M 412
with a fair . M 408
with a blue . M 406
with a sixth . M 394
with a line ? M 394
with a theft . M 392
win a mate . M 388
with a peace . M 384
with a tail ! M 380
with a plan ! M 368
with a fact ? M 354
with a very . M 350
with a case ? M 350
with a pile . M 348
win a name . M 348
with a three . M 342
with a crib . M 340
with a nest . M 336
with a rush ? M 334
with a flow . M 334
with a rating . M 332
with a breath ? M 330
with a cold ! M 328
with a ratio . M 326
with a look ! M 326
with a gale . M 324
with a curl . M 324
with a chop . M 324
with a wrong . M 320
with a lord ! M 316
with s maps . M 315
with a skip . M 314
with a cave . M 314
with a file ? M 312
with a talk . M 308
with a four . M 306
with a clean . M 306
with a past ? M 298
with a maps . M 298
with a date ! M 294
with a hide . M 292
with a hunt . M 290
with a tenth . M 286
with a theory ? M 282
with a wrap . M 280
with a trip . M 280
with a male ? M 280
with a name ! M 276
with a jail . M 276
with a mile . M 272
with a less . M 272
with a ship ? M 270
with a safe . M 270
with a prior . M 268
with a cheat . M 268
with a rule ? M 266
with a fold . M 266
with a flip . M 266
with a cloth ? M 264
with i maps . M 262
with a maid ? M 262
with a kick ! M 262
with a sage . M 258
with a half . M 258
with a hall . M 256
with a week . M 254
with a shed . M 254
with a rage . M 250
with a food . M 250
with a fire ? M 250
with a land . M 248
with a third ? M 246
with a hill . M 242
with a face ? M 242
win a girl . M 240
with a side . M 238
with a dare . M 236
with a maid ! M 232
with i seek . M 226
with a hanging . M 226
with a mind ? M 224
with a loss ? M 224
with a font . M 222
with a month . M 218
with a mail . M 218
with a beast ? M 216
with a size . M 214
with a longing . M 214
with a room ? M 212
with a form ? M 212
with a nine . M 210
with a worm ? M 208
with a stay . M 208
with a fare . M 206
with a fade . M 202
with a coat ? M 200
with a bearing . M 200
with a past ! M 198
with a grab . M 196
with a mask ? M 194
with a home ? M 194
with a mate ? M 192
win a peace . M 192
with a full . M 188
with a fish ! M 188
with a calm . M 186
with a gift ! M 184
with a verb ? M 182
with a base ? M 182
with a trial ? M 180
with a fool ! M 180
with a game ? M 178
with a kick ? M 176
with a feed . M 176
with a worm ! M 174
with a bone ? M 174
with a bell ? M 174
win a case ? M 172
with a hold . M 168
with a soft . M 166
with a play ? M 166
with a line ! M 166
with a swap . M 164
with a mode . M 164
with a life ? M 164
with a dash ! M 164
with a list ? M 162
with a city ? M 162
with a blow ! M 162
with a pose . M 156
with a meaning ? M 156
with a join . M 156
with a note ! M 154
with a halt . M 154
with a fill . M 154
with a ward . M 152
with a sign ? M 152
with a call ? M 152
with a length . M 150
with a bone ! M 150
with a ruin . M 148
with a more . M 148
with a flag ? M 148
with a care . M 146
with a hand ? M 144
with a door ? M 144
with a noun ? M 142
with a trim . M 140
with a rate . M 140
with a hell . M 138
win a heart . M 138
with a show ? M 136
with a koan . M 136
with a wipe . M 134
with a kind . M 134
with a call ! M 134
win a third . M 134
win a living . M 134
with a pick ? M 132
win a trial . M 132
with a want . M 130
with a tree ! M 130
with a loud . M 130
with a heavy . M 130
with a dread . M 130
with a sort . M 126
with a save . M 126
with a miss . M 126
with a living ? M 126
with a lack . M 126
with a wide . M 124
with a dream ! M 124
with a clear . M 124
with i think . M 122
with a fine ? M 122
with a down . M 122
with a young . M 120
with a steal . M 118
with a rain . M 118
with a pair ? M 118
with a hero ? M 118
with a hole ? M 116
with a deep . M 116
win a hole . M 116
with a lock ? M 114
with a file ! M 114
with a band ! M 114
with a threat ? M 112
with a sore . M 112
with a rich . M 110
with a nothing . M 110
with a load ? M 110
with a grey . M 108
with i said . M 106
with a part ? M 106
with a hurt . M 106
with a find . M 106
with a face ! M 106
with a cure ? M 104
with a body ! M 104
with a tomb ? M 102
with a toll . M 102
with a third ! M 102
with a healing . M 102
with a thread ? M 100
with a deed ? M 100
with a wish ! M 98
win a cake . M 98
with a yell ! M 96
with a wake . M 96
with a twig ? M 96
with a saying . M 96
with a dash ? M 96
with a tour ? M 94
with a saving . M 94
with a here . M 94
with a spring ! M 92
with a loop ? M 92
with a hash . M 92
with a hard . M 92
with a beating ? M 92
with a last . M 90
with a dark . M 90
with a clue ? M 90
win a game ! M 90
with a test ? M 88
with a meaning ! M 88
with a jump ! M 88
with a cast ? M 88
with a walk ? M 86
with a push ! M 86
with a love . M 86
win a main ? M 86
win a lady . M 86
with a taking . M 84
with a norm ? M 84
with a hearing ? M 84
with a hiding . M 82
wings a beast . M 82
with a tomb ! M 80
with a lord ? M 80
with a living ! M 80
with a bird ! M 80
