with but a single M 46644
with not a single M 28309
with him a great M 20956
with them a great M 15988
with him a copy M 14038
with him a young M 11628
with him a good M 10574
with all i have M 10092
with you i have M 9408
with him a very M 9027
with being a good M 8548
with him i have M 8066
with not a word M 7802
with you i will M 7588
with but a very M 7387
with them i have M 7086
with that i have M 6419
with this i have M 6250
with them a very M 5829
with them a good M 5764
with her a great M 4395
with this i will M 4076
with him a body M 3886
with them a more M 3756
with him a book M 3643
with you i feel M 3638
with yet a third M 3612
with him a week M 3561
with them i will M 3518
with them a young M 3500
with her a good M 3372
with this i send M 3314
with for a time M 3314
with not a care M 3302
with him i will M 3296
with him a plan M 3288
with them a host M 3230
with that i left M 3103
with not a tree M 3070
with not a drop M 3066
with him a list M 3066
with her a young M 3016
with him i felt M 3010
with him a pair M 2958
with not a hint M 2862
with that i went M 2852
with not a sign M 2796
with how i feel M 2792
with them a part M 2684
with not a breath M 2674
with them a kind M 2656
with both a high M 2647
with him a single M 2627
with him a part M 2557
with that i will M 2518
wings and a tail M 2494
with him i went M 2450
with being a great M 2448
with him a month M 2445
with her i have M 2444
with him a fine M 2423
with him a band M 2388
with him a full M 2384
with them a rich M 2370
with them a copy M 2288
with you i think M 2226
with him a huge M 2222
with all i know M 2210
with you a heart M 2200
with her a very M 2200
with them a high M 2145
with them a vast M 2136
with them a single M 2088
with them a wide M 2004
with him a most M 1974
with them a deep M 1968
with him i must M 1964
with him a vast M 1964
with being a part M 1884
with them a week M 1879
with them a sort M 1824
with her a week M 1820
with them a wealth M 1818
with you i know M 1788
with how i felt M 1784
with not a hair M 1720
with this i must M 1700
with you i want M 1690
with them a heavy M 1683
with him a more M 1674
with you a good M 1630
with one i love M 1630
with him i feel M 1584
with this a copy M 1564
with him a sort M 1560
with you a great M 1548
with him a note M 1508
with her i will M 1496
with her i felt M 1482
with him i think M 1468
with them a huge M 1466
with not a great M 1458
with and a part M 1456
with them a body M 1455
with him a kind M 1445
with you a week M 1441
with you i must M 1434
with but a poor M 1434
with being a single M 1430
with him i speak M 1408
with him a host M 1396
wit and a great M 1396
with him a mile M 1393
with and i have M 1378
wit and a good M 1367
with him a well M 1358
with him a heavy M 1344
with them i went M 1340
with them a fine M 1286
with him a gift M 1268
with her a copy M 1266
with them a month M 1265
with them a love M 1260
with them a full M 1260
with for a very M 1259
with them a most M 1253
with him a half M 1249
with but a part M 1249
with them i felt M 1236
with them a range M 1236
with that i gave M 1228
with him a high M 1223
with him a rich M 1218
with for a week M 1215
with but a word M 1208
with not a very M 1202
with doing a good M 1200
with him a life M 1198
with them a plan M 1190
with you a very M 1163
with all i said M 1160
with him i made M 1156
with him i know M 1154
with him i said M 1138
with them i must M 1136
with them a list M 1130
with him i knew M 1128
with them a third M 1110
with using a single M 1104
with them i know M 1096
with him a love M 1080
with this i went M 1076
with him a girl M 1072
with this i left M 1028
with him a deep M 1028
with and i think M 1026
with them a much M 1016
with that i think M 1014
with that a great M 1012
with him a lady M 1006
with being a girl M 1004
with him a wealth M 998
with him a case M 994
with all a young M 988
with this i think M 980
with you i told M 976
with that i felt M 976
wit and a ready M 974
with him a third M 964
with how i look M 961
with that i made M 948
with one i have M 948
wit and a keen M 946
wit and a fine M 934
with not a living M 933
with them i think M 932
with him i sent M 930
with him a load M 926
with them i feel M 920
with and i will M 920
with but a half M 917
with her i feel M 906
with being a very M 897
with you a copy M 882
with them a pair M 880
with any i have M 878
with him a breath M 868
with them a fair M 863
with that i must M 858
with them a clear M 850
with was a very M 833
with her i went M 830
with them a well M 821
with him a time M 820
with her a month M 816
with him a fair M 801
with being a male M 792
with her a pair M 790
with you i hope M 786
with her a part M 784
with him i came M 776
with but a cold M 776
with him i love M 768
with him i told M 766
with him a much M 766
with her a book M 758
wings and a pair M 754
with them a book M 741
with them a breath M 726
with you a list M 712
with him a mass M 711
with you a part M 710
with and a good M 710
win and a loss M 702
with for a good M 700
with things i have M 694
with him a clear M 678
with this i take M 674
with them a mass M 673
with this i made M 670
with being a young M 668
with this i want M 666
with them a mile M 662
with you i felt M 658
with this i come M 654
with not a tenth M 654
with this a very M 653
with than i have M 646
with not a mark M 646
with all i need M 644
with you i seek M 628
with this a great M 626
with you a more M 622
with all i love M 622
with that i came M 618
with both a male M 612
with for a month M 607
with that i told M 604
with being a fool M 604
with them a form M 596
with them a note M 594
with them a load M 594
with him a heart M 589
with both a single M 589
wings with a very M 580
with them i made M 576
with that i knew M 576
with out a word M 573
with all a girl M 568
with them a need M 566
with but a bare M 562
with that i heard M 561
with men i have M 560
with both a good M 560
with this i hope M 558
with being a full M 558
with that i want M 552
with and a great M 552
with her a full M 548
with him a sure M 542
with her i think M 542
with that i leave M 536
with them a life M 534
with her a half M 532
with you a month M 531
with that i said M 526
with him a mind M 525
with them i live M 520
with him i find M 520
with god i have M 516
with them i sent M 514
wit and a gift M 514
wings and a body M 512
with him i also M 510
with you i wish M 508
with this i leave M 508
with this i very M 504
with being a true M 502
with that i fell M 500
with him a sign M 494
with her a single M 494
with all i knew M 494
with this i wish M 490
wit than i have M 490
with being a lady M 488
with not a note M 486
with being a self M 484
with not a good M 482
with not a clue M 482
with who i want M 480
with them a band M 476
with him i left M 476
with her i love M 476
with not a line M 474
with him a peace M 474
with them i take M 472
with this i gave M 468
with him a true M 468
with him a living M 467
with and i know M 466
with them a time M 465
with was a young M 464
with them a gift M 464
with her a maid M 464
with her i know M 462
with her a huge M 462
with being a hero M 462
with and a very M 462
with and a more M 459
with how i have M 458
wings and a very M 458
with being a poor M 452
with them a show M 449
with this a more M 446
with him a keen M 446
wit that i will M 446
with this i give M 444
with her i must M 444
with him a warm M 438
with this i make M 434
with him a dark M 434
with her a most M 429
with them a loss M 426
with them a half M 426
with her a lady M 424
with this i told M 422
wit that i have M 422
with them i came M 418
with being a high M 415
with you i need M 414
win for a time M 414
with that i know M 412
with him i used M 412
with but i have M 412
with them a living M 408
with him a youth M 408
with them a risk M 407
with her i knew M 406
wings with a dark M 406
with was a good M 404
with them a true M 400
with men i find M 400
with for a single M 399
with her a kind M 396
with you a ways M 392
wings with a single M 392
with her a girl M 390
with both a more M 390
wit and a very M 390
with him a wide M 388
with but a pair M 388
with this a good M 384
with her a rich M 382
with him a rare M 380
with her a fine M 380
with and i hope M 378
with her a breath M 376
with you i find M 370
with him a poor M 368
with you i used M 364
with him a blue M 364
with them i find M 360
with him a pile M 360
with them a code M 358
with her a sort M 355
with you a life M 353
with them a keen M 350
with her a list M 350
with both a wide M 350
with them a peace M 348
with both a great M 346
with all i want M 346
with age i have M 345
with this i feel M 344
with any i ever M 344
with them i kept M 342
with but a hint M 342
with her i said M 340
with her a life M 340
with them a free M 338
with him i leave M 338
win and i lose M 338
with him a code M 336
wings for a time M 336
wings and a great M 336
with that i shut M 334
with him a hand M 334
with him a word M 330
with both a very M 330
with them a case M 328
with how i think M 328
with but i think M 328
with and i felt M 328
with him a form M 326
with her a gift M 324
with them i also M 322
with him a work M 322
with and i knew M 322
with them a wild M 318
with using a word M 317
with this i also M 314
with her a love M 314
with you i knew M 312
with them a ready M 312
with her i made M 312
with joy i will M 311
with being a free M 311
with them a self M 308
with but a cool M 308
with all i meet M 306
wit and a kind M 306
with you i leave M 304
with him i hope M 300
with him i gave M 300
with him a last M 300
with but a step M 299
with him a nice M 298
with him a name M 298
with death i have M 298
wings are a dark M 298
with them a dark M 296
with being a kind M 296
with them a line M 295
with them a threat M 294
with and i want M 294
with him a ready M 292
with both a past M 291
with you a single M 290
with him a wild M 290
with them a mark M 288
with her a baby M 288
with them a type M 286
with him a game M 286
with them a girl M 284
with him a ship M 283
with joy i have M 282
with that i come M 280
with him i call M 280
with them a view M 278
with them a sign M 278
with him i want M 278
with him a cold M 278
with her a time M 276
with each a pair M 274
wings and a huge M 272
with her i came M 270
with both a full M 268
with you i just M 266
with that i woke M 266
with not a hill M 266
with him i wish M 266
with this i felt M 264
with how i live M 264
with him a holy M 264
with both a clear M 264
with and i told M 264
with you i make M 262
with you i love M 262
with them a word M 262
with that i laid M 262
wings with a span M 260
with all i heard M 258
wings and a single M 258
with you i said M 254
with was a pair M 254
with him a means M 254
with him a line M 253
with with a view M 252
with them a hope M 252
with that i lost M 252
with and i just M 252
wings and a dark M 252
with them i need M 248
with them a name M 248
with how i came M 248
with her a deep M 248
with him i heard M 246
with all i wish M 246
with things i want M 244
with them a faith M 242
with him i soon M 242
with being a sort M 242
with her a more M 241
with them i want M 240
with that i just M 240
with him i just M 240
with him a safe M 240
with her a third M 240
with one i know M 238
with not a third M 238
with him a live M 238
with are a part M 238
with and a single M 238
with them i knew M 236
with them a three M 236
with them a duty M 236
with not a hope M 236
with him a file M 236
with them i heard M 234
with her a vast M 234
with but a main M 234
with being a nice M 234
with being a baby M 234
with her a body M 233
with you i take M 232
with you a true M 232
with men i knew M 232
with not a hand M 231
with being a more M 229
with this a high M 228
win you a great M 228
with was a kind M 226
with him a free M 226
with each a single M 226
with and a deep M 226
win and i will M 226
with both a body M 225
with this a note M 224
with them i hope M 224
with you i went M 222
with him a look M 222
with him a flag M 222
wings with a loud M 222
win him a high M 222
with you a time M 221
with them a means M 221
with them a lady M 220
with them a meaning M 219
with you a most M 218
with him a coat M 218
wit and a warm M 218
with you i seem M 216
with you a plan M 216
with things i know M 216
with him a five M 216
with her a true M 216
with and i feel M 214
wings does a bird M 214
with them a youth M 212
with that i turn M 212
with that i feel M 212
wings are a rich M 212
with this a list M 210
with her i left M 210
with being a hard M 210
with and i said M 210
wings and a bird M 209
with how a text M 208
with had a very M 208
wit goes a great M 208
with them a poor M 206
with both a fine M 206
with this i find M 204
with them a male M 204
with her i used M 204
with both a deep M 204
wings and a loud M 204
with who i have M 202
with was a great M 202
with them a game M 202
with him a monk M 202
with all a true M 202
wit and a bold M 202
wings had a span M 202
wings and a more M 202
with him a step M 201
with things i knew M 200
with them a like M 200
with her i just M 198
wit and a true M 198
wings that i have M 198
with this i pass M 196
with not a dull M 196
with but a look M 196
wit and a love M 196
wings with a great M 196
with all i ever M 194
wit and a most M 194
with that a very M 193
with not a break M 193
with being a well M 193
with them a holy M 192
with than a hard M 192
with him a leading M 192
with all i hold M 192
with not a wish M 190
with her a heavy M 190
with each a good M 190
with but i will M 190
with but a rare M 190
with them a bone M 188
with out a single M 188
with men i know M 188
with being a most M 188
with them a hint M 186
with for a great M 186
wings are a deep M 186
win him a great M 186
with that i used M 184
with not a ship M 184
with her i told M 184
with but a third M 184
with being a rich M 184
wings with a more M 184
wings and i will M 184
with her a well M 183
wings and a third M 183
with this i knew M 182
with her a band M 182
wit and a more M 182
with this a full M 180
with them i lost M 180
with them a warm M 180
with than a high M 180
with not a twig M 180
with how i want M 180
with him a view M 180
with you a pair M 178
with them i said M 178
with joy i told M 178
with him a deed M 178
with him a bone M 178
with her a much M 178
with both a name M 178
with and i were M 178
wings and a high M 178
with you a young M 176
with them a lack M 176
with him a three M 176
wings and a blue M 176
with using a more M 175
with them i used M 174
with him i ever M 174
with him a page M 174
with her a note M 174
with them a longing M 173
with them a cold M 173
with them a ship M 172
with them a rare M 172
with and a love M 172
win and i were M 171
with you i lose M 170
with you a full M 170
with them i wish M 170
with that i wish M 170
with doing a great M 170
with than a good M 168
with them i told M 166
with them a less M 166
with that i ever M 166
with him a dream M 166
with her i want M 166
with this a deep M 164
with not a gray M 164
with her a plan M 164
with but i must M 164
with both a free M 164
with and i wish M 164
with and a third M 164
with you a mind M 162
with them i make M 160
with them a truth M 160
wings and a wide M 160
win with a good M 159
with him a ways M 158
with but a breath M 158
with both a home M 158
with all a heart M 158
with how a work M 157
with and i like M 157
win and i want M 157
with them a tale M 156
with them a four M 156
with not a thread M 156
with has a very M 156
with but a mild M 156
wings and a back M 156
win him a hearing M 156
with but a tenth M 155
with this i hand M 154
with this i came M 154
with this a fall M 154
with not a bone M 154
with him i once M 154
with him a miss M 154
wings with a high M 153
with you a third M 152
with you a deep M 152
with you a book M 152
with this a case M 152
with that i find M 152
with him a play M 152
with her a wealth M 152
with god s help M 152
with god i will M 152
with being a fine M 152
wit and a deep M 152
with and a high M 151
with them a union M 150
with them a theory M 150
with that i love M 150
with her a game M 150
with but a date M 150
with both a left M 150
with all i think M 150
wings with a view M 150
with why i have M 148
with was a single M 148
with them a work M 148
with joy i heard M 148
with her a look M 148
with had a great M 148
with being a threat M 148
with being a leading M 148
wings with a pair M 148
with using a term M 147
with both a land M 147
with him a rule M 146
wit that i ever M 146
wings with a band M 146
with her a fair M 145
with you i live M 144
with was a girl M 144
with them i leave M 144
with them a miss M 144
with has a good M 144
wit and a full M 144
with why i came M 142
with that i take M 142
with him i kept M 142
with him a mild M 142
with her i find M 142
with both a theory M 142
with both a north M 142
with you a note M 141
with him a clean M 141
with ease a much M 141
with was a sort M 140
with them i left M 140
with him a hard M 140
with but a week M 140
with both a lack M 140
with being a pure M 140
with you a laying M 138
with with a very M 138
with them a baby M 138
with not a dark M 138
with him a pass M 138
with for a full M 138
with ease a great M 138
with and i went M 138
wit has a great M 138
with them i give M 136
with them a hard M 136
with him a self M 136
with her a live M 136
win with a single M 136
with using a high M 135
with each a hand M 135
with him a baby M 134
with her a host M 134
with both a need M 134
with and a clear M 134
with all a good M 134
with who i think M 132
with who i like M 132
with them i soon M 132
with them a just M 132
with that i hope M 132
with that a good M 132
with not a bird M 132
with him i need M 132
with him i laid M 132
with her a load M 132
with and i must M 132
with than a more M 131
with him a just M 131
with you i pray M 130
with was a more M 130
with them a term M 130
with them a soft M 130
with how a word M 130
with him a four M 130
with both a main M 130
with being a wise M 130
wings for a rest M 130
win and i think M 129
win and a draw M 129
with you i came M 128
with things i like M 128
with that i need M 128
with that i held M 128
with him a male M 128
with but i know M 128
with both a well M 128
with both a time M 128
with and i need M 128
with them a home M 127
with them i just M 126
with them i gave M 126
with them a rise M 126
with them a live M 126
with him i lost M 126
with him a type M 126
with being a role M 126
wit and a heart M 126
wings and i have M 126
win and i know M 126
with him a cast M 125
with had a good M 125
with both a heart M 125
with you a body M 124
with was a list M 124
with this i lost M 124
with than a single M 124
with not a face M 124
with him i hate M 124
with her a dark M 124
with both a rise M 124
win him a good M 124
with them a pure M 122
with them a fast M 122
with how a single M 122
with him i tell M 122
with him a theory M 122
with her i hope M 122
with being a stay M 122
wit and a wealth M 122
wit and a turn M 122
wings and a heavy M 122
with him a fire M 121
with you i tell M 120
with you a half M 120
with this i used M 120
with him a cloth M 120
with her a pile M 120
wit and a dash M 120
wings and a face M 120
win him a wide M 120
with you a word M 119
with being a third M 119
with this i kiss M 118
with them a liking M 118
with that i also M 118
with not a look M 118
with him a mark M 118
with him a less M 118
with her a heart M 118
with both a means M 118
with both a love M 118
with both a bell M 118
with and i thank M 118
with and i made M 118
wit and a rare M 118
with this i know M 116
with things i need M 116
with them a slow M 116
with that i kept M 116
with one a week M 116
with how a good M 116
with both a keen M 116
win you a trip M 116
with him a home M 115
wings and a heart M 115
with was a dream M 114
with how i view M 114
with him a rush M 114
with him a faith M 114
win him a single M 114
win and a save M 113
with you i dare M 112
with was a plan M 112
with was a huge M 112
with not a grey M 112
with him a grey M 112
with her a poor M 112
with her a mile M 112
with both a threat M 112
with both a rich M 112
with them a lock M 111
with death a great M 111
with being a heavy M 111
with and a much M 111
with this i wore M 110
with him a wise M 110
with him a length M 110
with being a sign M 110
with being a monk M 110
with all a great M 110
wit and a mind M 110
wings with a fine M 109
with this a kind M 108
with them a rush M 108
with them a heart M 108
with them a dream M 108
with one i knew M 108
with him a text M 108
with him a pure M 108
with both a hard M 108
with being a maid M 108
with being a form M 108
with all i told M 108
wit and a high M 108
win and i have M 108
with you a mile M 106
with you a clear M 106
with them i like M 106
with them a test M 106
with them a sure M 106
with not a door M 106
with him a hint M 106
with him a bare M 106
with and a list M 106
with all i feel M 106
wit has a more M 106
wings and a mild M 106
with both a loss M 105
with you a sort M 104
with you a case M 104
with with a good M 104
with this i turn M 104
with that i sent M 104
with him i like M 104
with him a like M 104
with god a pure M 104
with for a more M 104
with ease a load M 104
with both a copy M 104
with all a youth M 104
wings with a wide M 104
with them a calm M 103
with them a flag M 102
with not a flaw M 102
with not a case M 102
with him a land M 102
with her a clean M 102
wings are a dull M 102
win not a single M 102
with using a wide M 100
with him i dare M 100
with him a sick M 100
with her a rare M 100
wit and a clear M 100
wings and a grey M 100
with with a single M 99
with them i only M 99
with that a more M 99
with him a lock M 99
with why i think M 98
with them i send M 98
with them a unit M 98
with them a sick M 98
with not a spring M 98
with how i used M 98
with her i lose M 98
with her a dream M 98
with has a great M 98
with both a range M 98
with and i tell M 98
with and a full M 98
wings with a slow M 98
wings and a soft M 98
win nor a loss M 98
with you i made M 96
with you a dream M 96
with them i move M 96
with joy i hail M 96
with him a term M 96
with her i says M 96
with ease a vast M 96
with each i other M 96
with but a line M 96
with both a book M 96
with being a cheat M 96
with him a bird M 95
with being a cold M 95
with was a copy M 94
with using a very M 94
with that a cold M 94
with him a duty M 94
with each a young M 94
with but a slow M 94
with but a show M 94
with and a lack M 94
wit than a fool M 94
wit and a will M 94
win you a good M 94
with you i only M 92
with you i lost M 92
with you i like M 92
with you a love M 92
with using a range M 92
with them a look M 92
with them a fish M 92
with how a young M 92
with him a calm M 92
with her i grew M 92
with are a good M 92
with and i love M 92
wit but i have M 92
win was a great M 92
with you a well M 91
with using a cell M 91
with you i look M 90
with you i gave M 90
with was a fine M 90
with things i call M 90
with them a maid M 90
with them a cost M 90
with than i ever M 90
with not a hole M 90
with him a slow M 90
with her i live M 90
with her a free M 90
with but a drop M 90
with both a data M 90
with being a lone M 90
with being a fish M 90
with and i find M 90
with and a copy M 90
wit and a wide M 90
wit and a rich M 90
win her i must M 90
with them a rule M 89
with them a bird M 89
with her a word M 89
with her a high M 89
with who i know M 88
with this i just M 88
with them i grew M 88
with that a sort M 88
with out a good M 88
with him a mate M 88
with him a hope M 88
with her i wish M 88
with her a nice M 88
with both a list M 88
win them a good M 88
win that i want M 88
with you i ever M 86
with using a third M 86
with this i feed M 86
with this a fire M 86
with them a core M 86
with how i will M 86
with him a will M 86
with her a three M 86
with going a step M 86
with both a bank M 86
with are a great M 86
with all a city M 86
wit with a great M 86
wit was a kind M 86
wit and a nice M 86
wit and a fool M 86
wings with a sort M 86
wings and i think M 86
wings and a fine M 86
wings and a deep M 86
with with a high M 84
with why i went M 84
with was a poor M 84
with this i sent M 84
with this a part M 84
with him a beast M 84
with her a mass M 84
wit and i have M 84
win him a host M 84
with men i like M 83
with both a heavy M 83
with with a great M 82
with why i want M 82
with why i felt M 82
with things i love M 82
with them i join M 82
with them a bell M 82
with out a name M 82
with not a book M 82
with how i love M 82
with how i grew M 82
with him a talk M 82
with him a maid M 82
with him a liking M 82
with him a late M 82
with him a cool M 82
with him a bold M 82
with her i kept M 82
with fear i have M 82
with each a book M 82
with but a free M 82
with both i have M 82
with being a body M 82
wit than a good M 82
wings for a more M 82
win them a hearing M 82
with was a case M 80
with him i only M 80
with him i grew M 80
with him a cake M 80
with her i lost M 80
with her i gave M 80
with her a sign M 80
with her a nest M 80
with being a union M 80
win with a very M 80
with them a hand M 70
with them a fire M 70
with them a five M 60
with them a past M 55
with him a past M 55
with being a living M 54
with and a half M 54
with being a means M 50
win and a great M 50
with yet a more M 49
with each a half M 49
with being a home M 49
wit and a well M 47
with her a five M 45
win with a pair M 45
with them a land M 44
with her a male M 44
with both a three M 43
with both a living M 43
with both a hand M 43
with both a fast M 43
with using a less M 42
with them a mind M 42
with him a moving M 42
with was a well M 41
with using a test M 41
with her a hand M 41
wit and a self M 41
with this a third M 40
with her a home M 40
with being a city M 40
with not a soul D 6074
with him a wife D 3032
with being a mere D 2858
with that i took D 1732
with being a wife D 1688
wings and a halo D 1648
with thee i will D 1518
with him a mere D 1468
with him a tall D 1240
with not a whit D 1162
with not a tithe D 1068
with being a thief D 1060
wig and a pair D 991
with not a cent D 979
with this i took D 972
with them a mere D 930
with with a firm D 904
with him a sack D 774
with him i took D 752
with thee i wish D 730
with him a rope D 642
with him a roll D 599
with him a tiny D 582
with him a crew D 576
with but a mere D 576
with him a sheaf D 564
with not a mast D 562
with being a tool D 562
with not a star D 518
with them a mule D 504
with him a thick D 498
with but a tiny D 490
with thee i have D 488
with him a gold D 483
with him a tame D 466
with him a string D 454
with him a tent D 450
with being a star D 450
with dew a living D 441
with him a pack D 440
with him a suit D 436
with him i flew D 432
with not a foot D 418
with him a goat D 416
with singing a hymn D 400
with him a firm D 386
with but a tithe D 380
with being a snob D 372
with him a card D 363
with not a shot D 357
with that i rose D 354
with not a spot D 352
with them a firm D 344
wig and a mask D 342
with them a tall D 338
with him a bull D 334
with that i drew D 332
with thee i send D 326
with her a tall D 316
with them a herd D 312
with them a boat D 312
with not a bush D 312
with him a fund D 312
with thee i hail D 308
with them i took D 306
with them a rope D 300
with them a gold D 299
with them a tent D 294
with him a loaf D 292
with them a pack D 286
with not a gleam D 284
with him a film D 280
wig and a beard D 280
wings and a harp D 275
with them a rude D 272
with them a wave D 271
with them a goat D 270
with them a fund D 266
with ice a foot D 266
with him i rode D 266
with him a dish D 266
with but a hazy D 264
with her i took D 258
wig and a suit D 257
with him a mule D 254
with him a tape D 252
with him a bond D 250
with them a string D 246
with him a herd D 246
with him a gust D 246
with him a tray D 240
with him a rout D 236
with him a bowl D 236
with her a tiny D 236
with them a cart D 234
with that i threw D 234
with not a sail D 234
with him a boat D 226
with him a pipe D 220
with him a cook D 218
with him a bill D 216
with him a yard D 215
with you a card D 212
with her a tray D 212
wig and a gown D 212
with each a mouth D 208
with them a sack D 206
with not a weed D 204
with not a dime D 204
with how a firm D 204
with him a spear D 202
with her a waft D 200
with him a bevy D 198
with and a thick D 198
with not a rock D 196
with mud a foot D 196
with him a hive D 196
with them a tiny D 194
wig and a gold D 192
with him a cock D 190
wig and a blue D 190
with both a wife D 188
with both a mouth D 186
with this i bade D 182
with earth a foot D 182
wig and a fake D 180
with not a bite D 178
with her a bowl D 178
with them a ruling D 176
with not a yard D 176
with being a drug D 176
wings and a wand D 174
with not a wisp D 172
with him a lamp D 172
win him a wife D 172
wings are a pale D 171
with being a dupe D 170
with them a shew D 169
wig and a great D 168
wig and a very D 167
wings and a tiny D 166
with not a tooth D 164
with him a phial D 164
wig was a good D 164
with not a boat D 162
with joy i took D 162
wig and a three D 162
with all a wife D 160
with was a tall D 158
with them a bull D 158
with him a ball D 158
wings with a spot D 158
with each a foot D 155
with them a bond D 154
with him a lump D 152
with them a thick D 148
with thee a poor D 148
with him a rising D 148
with them a card D 146
with him a tone D 146
with him a deer D 146
with but a wall D 146
wit and a seer D 146
with was a mere D 145
with her a tart D 145
with them a sheath D 142
with each a rope D 142
with him a radio D 140
with him a cord D 140
with both a rising D 140
with being a twin D 139
with him a jury D 138
with her a crew D 138
with them a skin D 137
with its s pole D 137
with them a bill D 136
wit and a fund D 134
with them a rising D 133
with them a tone D 132
with him a writ D 132
with her a cane D 132
win you a star D 131
with thee i here D 130
with than a mere D 130
with not a roof D 130
with each a spear D 128
with them a slip D 126
with them a film D 126
with you i took D 124
with using a drug D 124
with him a robe D 124
with him a hare D 124
with being a boss D 124
with being a paid D 122
with him a camp D 121
with this i drew D 120
with them a race D 120
with not a peep D 120
with him a slip D 120
with them a pint D 118
with that i sail D 118
with him a steam D 118
with her a vase D 118
wings with a pale D 118
with them a deer D 116
with him a flat D 114
with him a club D 114
with for a mere D 114
wig and a full D 114
with them a canoe D 112
with him a ruling D 112
with him a feast D 112
with him a cash D 112
with her a bevy D 112
with being a rock D 112
with all a fond D 112
wit and a biting D 112
with him a pint D 111
wig and a dark D 111
with not a wink D 110
with con a were D 110
with both a flat D 110
win him a spot D 110
with them a wife D 108
with them a mess D 108
with thee i make D 108
with her a sheaf D 108
with her a roll D 108
with being a teen D 108
wings and a gold D 108
with them a spear D 106
with him a cask D 106
with her a string D 106
with being a pack D 106
with him a lamb D 104
with ears a yard D 104
wig and a face D 104
with them a radio D 102
with them a drum D 102
with thee i join D 102
with not a finger D 102
with using a tape D 101
with you a firm D 100
with them a loaf D 100
with him a skin D 100
with her a sack D 100
with them a raft D 99
with this a belt D 98
with them a pale D 98
with thee i look D 98
with not a lick D 98
with being a wimp D 98
wings and a pale D 98
wig with a tail D 98
with you a soul D 96
with ice a mile D 96
with him a slim D 96
with him a cart D 96
wig and a wide D 96
win for a wife D 94
wig with a great D 94
with thee i lost D 92
with not a tent D 92
with not a damn D 92
with him a memo D 92
with but a wife D 92
with but a wave D 92
with them a bevy D 90
with him a pious D 90
with him a pail D 90
with him a canoe D 90
with her a goat D 90
with her a card D 90
with oil a lamp D 88
with him a rude D 88
with him a belt D 88
wings and i flew D 88
wig and a pink D 88
with but a foot D 87
with but a finger D 87
with them a dish D 86
with how a film D 86
with him a yoke D 86
with being a wine D 86
wit than a mere D 86
wings and a wreath D 86
with her a gold D 85
with them a cook D 84
with him a silk D 84
with him a mare D 84
with her a pale D 84
with her a loaf D 84
with being a film D 84
wit than a mole D 84
wig had a hole D 84
wig and a huge D 84
with them a wreath D 82
with them a roll D 82
with him a wreath D 82
with him a wave D 82
with being a gringo D 82
with them a task D 80
with them a suit D 80
with them a pail D 80
with them a lump D 80
with not a twinge D 80
with him a sine D 74
with him a giant D 70
with being a loving D 48
with both a firm D 46
with them a palm D 44
with and a firm D 43
wig and a coat D 42
wings and a keel D 41
