away from school . M 24242
away from reality . M 11762
away from something . M 8490
away from myself . M 6884
away from itself . M 4438
away from church . M 4338
away fast enough . M 4146
away from another . M 4058
away from nature . M 3930
away from family . M 2114
away from anyone . M 2044
away from cities . M 1770
away from school ? M 1764
away their brains ! M 1689
away their rights . M 1563
away from battle . M 1558
away very slowly . M 1468
away from someone . M 1424
away from center . M 1302
away from something ? M 1286
away from crowds . M 1266
away soon enough . M 1244
away from flames . M 1122
away from camera . M 1122
away from humans . M 1074
away their clothes . M 802
away from adults . M 788
away from safety . M 784
away years before . M 782
away well pleased . M 766
away their brains . M 711
away from virtue . M 660
away from normal . M 646
away their strength . M 635
away like clouds . M 630
away from prison . M 618
away from memory . M 590
away more slowly . M 580
away from labour . M 574
away from meetings . M 542
away into safety . M 520
away last summer . M 499
away from reform . M 484
away from combat . M 480
away your rights . M 462
away these rights . M 454
away life itself . M 454
away from streams . M 450
away from fights . M 434
away their secret . M 430
away their bodies . M 426
away from plants . M 412
away even further . M 410
away from prayer . M 390
away from stress . M 382
away from matter . M 382
away into another . M 372
away those rights . M 366
away from reality ? M 362
away from murder . M 358
away into shadow . M 350
away very little . M 346
away your blessing . M 340
away from fighting . M 338
away once before . M 326
away your secret . M 324
away from studying . M 322
away last winter . M 320
away from myself ? M 318
away their chains . M 314
away from school ! M 314
away from someone ? M 312
away your clothes . M 311
away from sorrow . M 306
away from desire . M 306
away like murder . M 290
away till monday . M 288
away from victor . M 270
away your future . M 264
away their wastes . M 262
away from wisdom . M 262
away evil forces . M 262
away your energy . M 250
away from feelings . M 250
away their future . M 246
away from fiction . M 246
away from disease . M 242
away from misery . M 240
away their energy . M 239
away their senses . M 236
away from training . M 236
away from church ? M 236
away their tracks . M 234
away from thought . M 234
away from building . M 234
away from ground . M 230
away your strength . M 225
away their powers . M 224
away from babies . M 224
away from fright . M 222
away into memory . M 218
away from source . M 214
away from winter . M 210
away from sanity . M 208
away from emotion . M 204
away your senses . M 202
away from release . M 200
away years earlier . M 199
away your future ? M 198
away from window . M 198
away their sorrow . M 194
away from inside . M 188
away your sorrow . M 178
away from viewer . M 178
away only slowly . M 176
away your doubts . M 174
away from passion . M 174
away from myself ! M 172
away from before . M 170
away when needed . M 168
away from impact . M 168
away from mothers . M 160
away from dangers . M 160
away much earlier . M 158
away their doubts . M 155
away very nicely . M 154
away some papers . M 154
away much pleased . M 152
away from market . M 150
away from speech . M 148
away fast enough ! M 148
away these feelings . M 142
away their voices . M 141
away till wanted . M 140
away much sooner . M 140
away from stores . M 138
away from bodies . M 138
away your memory . M 136
away such rights . M 136
away from itself ? M 134
away from design . M 134
away from walker . M 132
away even harder . M 132
away from issues . M 128
away very gently . M 126
away from spirit . M 126
away from custom . M 126
away from hatred . M 124
away from groups . M 124
away more freely . M 120
away from horror . M 120
away from wisdom ? M 118
away from states . M 118
away from another ? M 118
away such writings ? M 116
away from starting . M 116
away from origin . M 116
away from preaching . M 114
away very pleased . M 112
away their feelings . M 112
away rich spoils . M 112
away from touching . M 112
away from object . M 112
away from nature ? M 112
away deep inside . M 112
away your secret ? M 110
away your brains . M 110
away from energy . M 110
away from belief . M 110
away from behind . M 110
away their papers . M 109
away their credit . M 108
away their chance . M 108
away from family ? M 108
away from creation . M 106
away from coasts . M 106
away from judges . M 104
away from excess . M 104
away your sister . M 102
away those papers . M 102
away their riches . M 100
away from notice . M 98
away their assets . M 96
away more gently . M 96
away from planning . M 96
away from chance . M 96
away your friend . M 94
away their babies . M 94
away from trails . M 94
away from drowning . M 94
away your feelings . M 93
away your stress . M 92
away their faults . M 92
away like before . M 92
away last autumn . M 92
away from attack . M 92
away your clothes ? M 90
away from injury . M 90
away from trains . M 88
away from fields . M 88
away from detail . M 88
away from crisis . M 88
away from beaches . M 88
away your chance . M 87
away their refuse . M 86
away their honour . M 86
away from lights . M 86
away even earlier . M 86
away your assets . M 85
away your spirit . M 84
away their memory . M 82
away from guests . M 82
away from events . M 82
away their waters . M 80
away from clothes . M 80
away their sister . M 49
away their spoils . M 40
