awake until dawn . M 1514
awake right early . M 804
award honor book . M 535
aware human beings . M 238
awake since dawn . M 177
award hands down . M 146
award really work ? M 95
awful drawn look . M 88
awake every time . M 50
