ours were not . M 511
ours will not . M 369
ours among them . M 266
ours have not . M 226
ours upon them ? M 160
ours just now . M 156
ours some day . M 150
ours will ten . M 140
ours upon them . M 134
