outer end of a M 5036
ought not be a M 2259
outer end by a M 950
outer one is a M 639
outer air by a M 572
outer end is a M 552
outer end to a M 550
ought not as a M 538
outer rings of a M 410
outer one by a M 379
outer end in a M 364
outer area of a M 364
outer one of a M 326
ought not in a M 296
outer man is a M 262
ought and as i M 258
outer arc of a M 238
ought not to i M 186
outer air at a M 166
outer wings of a M 146
ought not to a M 130
ought not by a M 128
outer end on a M 98
outer man of a M 92
outer one as a M 88
outer one in a M 82
outer rim of a D 2494
outer leaf of a D 408
outer lip of a D 306
ounce out of a D 298
outer rim is a D 186
outdo him as a D 148
outer tip of a D 138
outer lip is a D 136
ounce can of a D 131
outdo him in a D 110
outer row of a D 102
