ought not to be M 2238281
ought not to do M 104633
outer end of the M 99902
ought not to go M 46286
ought now to be M 37720
ought all to be M 22340
ought they to be M 20163
ought then to be M 13806
ought not so to M 11566
ought you to be M 6810
outer head of the M 6733
ought not to he M 5672
ought not to eat M 5112
outer area of the M 5086
ought this to be M 4481
outer web of the M 4194
ought you to do M 3603
outer rings of the M 3494
ought thus to be M 3234
ought not in the M 3030
ought both to be M 2862
ought she to do M 2646
ought all of us M 2616
ought not we to M 2332
ought one to do M 2291
ought they to do M 2033
ought not be the M 1912
ought she to be M 1876
ought not be so M 1861
ought one to be M 1790
outer one of the M 1591
outer arc of the M 1566
outer arm of the M 1498
outer one is the M 1415
outer wings of the M 1326
ought that to be M 1205
ought yet to be M 1150
ought now to do M 1150
outer than on the M 1100
outer end to the M 1038
ought not he to M 1038
ought all to go M 1024
ought now to go M 892
outer end of it M 836
ought not be in M 822
ought not to sing M 818
ought and the is M 816
ought not in my M 716
outer end of an M 704
outer than in the M 662
outer leg of the M 658
outer air to the M 642
outer and of the M 593
ought each to be M 582
ought not go to M 576
ought all to do M 570
ought not at the M 568
ought not do so M 561
ought both of us M 552
ought not by the M 550
ought she to go M 543
ought not do it M 536
ought not be an M 536
ought you to go M 528
ought not be to M 504
outer one in the M 466
outer bar of the M 466
outer and in the M 466
ought any to be M 446
outer one on the M 443
ought each of us M 414
ought they to go M 408
ought men to be M 404
outer end by the M 400
ought for to be M 388
ought net to be M 386
outer air by the M 384
outer man at the M 380
ought not on the M 374
ought then to go M 372
ought not if we M 370
ought not do in M 362
outer air at the M 360
ought not to of M 339
outer two of the M 332
outer one to the M 321
ought not to the M 318
ought not be be M 308
outer one is of M 300
ought not to so M 292
ought man to be M 292
outer and on the M 288
outer one at the M 286
ought not to to M 272
outer end is the M 268
ought men so to M 264
outer man is the M 262
ought not to in M 258
ought and as the M 258
ought then to do M 248
ought not lo be M 246
ought both to go M 246
outer than at the M 242
outer eye of the M 240
outer air in the M 240
ought any thing to M 230
outer rings in the M 226
outer air of the M 226
outer one by the M 220
outer man of the M 212
outer than to the M 208
ought not if it M 208
ought men to do M 208
outer man to the M 206
ought and as he M 202
outer path of the M 198
ought one to go M 198
ought not or as M 192
outer box of the M 188
ought long to be M 184
outer end it is M 178
ought god to be M 176
ought man to do M 172
outer things of the M 170
outer one to be M 170
outer end on the M 170
outer bow of the M 166
outer end in the M 158
outer things to the M 156
outer air on the M 156
outer things to be M 154
ought too to be M 154
ought for to do M 154
ought not to is M 152
ought with us to M 142
ought they so to M 142
ought not do to M 142
outer and at the M 140
outer air or to M 140
ought both to do M 140
outer area to the M 138
outer one is in M 136
outer end by an M 136
outer set of the M 132
outer one as the M 132
outer end at the M 132
ought not by it M 132
outer rings to the M 130
outer and to the M 130
outer rings on the M 128
outer air or the M 128
ought not to or M 126
ought not to at M 125
outer man by the M 124
outer box is the M 122
outer end so as M 120
outer air as it M 120
outer one is at M 118
outer man to be M 118
ought not to if M 118
ought not be at M 118
ought nor to be M 118
ought dot to be M 116
ought not be on M 114
outer but of the M 112
outer being to the M 112
ought not the king M 112
outer leg to the M 110
ought and as we M 110
ought not do is M 108
outer top of the M 106
outer man in the M 104
outer arm to the M 104
ought things to be M 104
ought now to he M 104
ought not be as M 103
ought yet to do M 102
ought who is the M 102
ought any of us M 100
ought and is to M 100
outer that of the M 98
outer fix or an M 98
outer bar at the M 98
outer area is the M 98
ought rot to be M 98
outer but in the M 96
ought out of the M 96
ought not do the M 96
ought not be of M 96
outer bar in the M 92
outer man is so M 90
outer box is to M 90
outer area in the M 90
outer things in the M 88
outer run of the M 88
outer being of the M 86
ought that of the M 86
ought not if he M 84
ought but as we M 82
ought not we do M 80
ought not to ring M 65
ought not go in M 41
outer rim of the D 37344
outer lip of the D 9188
outer tip of the D 2258
outer leaf of the D 1584
outer row of the D 1458
ounce out of the D 924
outdo him in the D 587
outer seam of the D 556
outdo them in the D 516
outer row on the D 456
ounce each of the D 420
outer rim to the D 412
ought hot to be D 412
outer toes of the D 398
outer rim is the D 366
ought not to re D 312
ounce can do at D 304
ought riot to be D 284
outer rim of an D 266
outdo that of the D 233
ought not to doe D 232
ounce out of it D 230
outer bay of the D 218
outer lid of the D 216
outdo her in the D 206
outings and so on D 203
outer hem of the D 192
ought not to ha D 186
ought nut to be D 184
outer lip at the D 182
ounce can of the D 175
ounce cup of tea D 172
outer rim at the D 170
outer lip to the D 170
outer row in the D 168
outings had to be D 162
outdo any of the D 158
outer rim in the D 152
outer lip in the D 144
outer rim on the D 142
outer pan of the D 140
outer bay to the D 140
outdo one of the D 140
outer sac of the D 138
outer rim of it D 136
outer ply of the D 134
outer bead of the D 128
outer jaw of the D 122
outer ray of the D 118
ounce had to be D 118
outer cap of the D 116
outer rib of the D 114
ought pot to be D 114
outer row to the D 112
outer leaf to the D 112
ounce was to be D 112
outer beam of the D 110
outer peak of the D 108
ousting one of the D 104
outdo all of the D 102
outer rim of my D 100
outdo you in the D 94
ounce but by the D 92
outings was to the D 90
outer ears of the D 86
ounce has to be D 86
ought not to ho D 85
