output due to the M 10862
output end of the M 9444
output has to be M 6882
output goes to the M 6214
output and in the M 5300
output was to be M 4370
output had to be M 3750
output and of the M 3504
output was in the M 2852
output and on the M 2530
output going to the M 2090
output and to the M 2084
output that is the M 2018
output are to be M 1972
output than in the M 1970
output and at the M 1880
output may be the M 1562
output can be in M 1554
output may be in M 1507
output gap in the M 1498
output and it is M 1324
output one of the M 1292
output and by the M 1216
output due to an M 1014
output and so on M 996
output may be as M 980
output that is of M 964
output and is the M 892
outcry led to the M 844
output mix of the M 840
output all of the M 826
output owing to the M 822
output that is to M 792
output may be an M 712
output may be of M 710
output area of the M 700
output than it is M 678
output that is in M 670
output was at the M 648
output was of the M 644
output that it is M 636
output was up to M 590
output bit of the M 578
output than is the M 572
output out of the M 536
output can be as M 526
output can be the M 524
output are in the M 522
output goes up by M 516
output lead of the M 508
output this is the M 484
output may go to M 476
output both in the M 472
output them to the M 432
output was up by M 416
output and if the M 416
output path of the M 412
output may be so M 410
output gap is the M 410
output set by the M 394
output was on the M 388
output map of the M 386
output but it is M 386
output and so the M 382
output led to the M 378
output but in the M 376
output net of the M 372
output that is an M 360
output but at the M 336
output can be an M 332
output than on the M 326
output are of the M 320
output may be at M 316
output than if the M 302
output arm of the M 294
output than at the M 288
output mix in the M 284
output set of the M 280
output being in the M 262
output end of an M 260
output can be no M 258
output than do the M 256
output can go to M 252
output but on the M 252
output can be of M 248
output that is at M 240
output can be at M 240
output each of the M 238
output and so to M 234
output and to be M 232
output was by no M 230
output has on the M 230
output can be to M 230
output are at the M 230
output goes to an M 228
output than to the M 224
output gap of the M 218
output that is as M 214
output but to the M 210
output but by the M 198
output and as the M 198
output and up to M 194
outcry led by the M 194
output may be on M 191
output gap to the M 190
output for up to M 184
output gap or the M 182
output lead to the M 174
output area in the M 170
output than if it M 162
output can be so M 158
output arc of the M 158
output goes up to M 150
output are on the M 150
output and is an M 148
output was at an M 146
output bit is the M 146
output may be to M 144
output gap on the M 144
output them in the M 142
output any of the M 142
output path to the M 140
output can be on M 140
output gap as the M 138
output and to an M 138
outcry that it is M 134
output set up as M 131
output gap at the M 130
output led to an M 128
output was to go M 124
output that he or M 122
output and if it M 120
outcry led to an M 120
output then it is M 118
output and so is M 116
output and to do M 114
output and go to M 114
output goes up or M 112
output not to be M 110
output has to go M 110
output was to the M 108
output may go up M 108
output area to be M 108
output goes up in M 106
output and is of M 106
output and as an M 106
output both to the M 104
output that is on M 102
output set in the M 100
output end to the M 100
output that is no M 98
output both of the M 98
output and so in M 98
output and is in M 97
output mix to the M 96
output may be up M 96
output east of the M 96
output being of the M 96
output than of the M 92
output and as to M 92
output not in the M 90
output and so it M 90
output mix on the M 88
output and in so M 88
output that is so M 86
output bit in the M 86
output has to do M 84
output and by an M 84
outcry that the king M 84
output owing to an M 82
outcry was to be M 82
output goes up as M 80
outset that it is D 9518
outlet end of the D 8730
outset that he is D 2790
outset that in the D 2084
output pin of the D 1534
outset that we do D 1476
outset one of the D 1420
outlying area of the D 1257
outset and at the D 1174
output beam of the D 1136
outset let it be D 974
outset that if the D 954
outlaw war as an D 933
outlet had to be D 930
outlet for it in D 926
outfit had to be D 900
outset and in the D 850
output tax on the D 752
output swing of the D 734
outlay was to be D 708
outran that of the D 700
outgoing head of the D 684
outfit was to be D 652
outfit out of the D 638
outlet was in the D 637
outlet area of the D 602
outlet and at the D 597
outgoing end of the D 596
outlet and in the D 594
outlay has to be D 590
outlet has to be D 587
outfit was on the D 512
outdid him in the D 500
outbid him in the D 488
outfit was in the D 484
output pin to the D 476
outdid that of the D 450
outlay had to be D 428
outlet than at the D 420
output pin on the D 416
ounces out of the D 414
outlet box to the D 405
output tab of the D 402
ousted out of the D 396
outlay and in the D 380
outlet was to the D 378
outlet was to be D 370
outlet due to the D 365
outset and it is D 356
outdoes that of the D 356
outbid them in the D 356
outset due to the D 350
outlet and to the D 350
outrun any of the D 349
outdid them in the D 338
outrun that of the D 335
outlet box in the D 329
ounces each of the D 326
outset was to be D 324
ounces are to be D 318
outset owing to the D 306
outset not to be D 292
outset that in my D 286
outset that if we D 284
outset that he or D 284
outrun them in the D 268
outfit was of the D 268
outrun him in the D 261
outset that at the D 260
outlet and of the D 260
outfit has to be D 260
outlet and on the D 253
output fed to the D 246
outlet than in the D 244
outfit and go to D 242
outset and to the D 236
outlet for me to D 236
outset that by the D 232
outlet was on the D 230
outwit them in the D 225
output per ha of D 218
outlet being at the D 215
outset that if he D 208
ounces cling to the D 208
ounces are in the D 208
outlet was at the D 206
outdoes him in it D 202
outset was in the D 200
outlet and it is D 200
outset let us be D 196
output tax in the D 188
outset and by the D 186
outfit run by the D 186
outlay was of the D 180
outdid any of the D 180
outrun them to the D 179
outlaw use of the D 179
outwit him in the D 178
outlet out of the D 177
outlay was in the D 176
outlet leg of the D 175
output bus of the D 174
outlaw war in the D 173
outset and as the D 170
outlet but by the D 170
outlet for it to D 168
outrun them on the D 167
outfit for me to D 166
outfit and in the D 166
outset had to be D 164
outlet box on the D 164
ounces and up to D 164
outset that on the D 162
outlay out of the D 162
outlet are at the D 161
outset and on the D 160
outrun him to the D 160
outlet for it is D 160
ousted that of the D 158
outage due to the D 156
outdoes any of the D 154
outset that the thing D 152
outset that in it D 148
outlet may be the D 148
outlet for it at D 148
outset all of the D 146
outset that of the D 142
outset each of the D 142
output pin in the D 142
outdoing him in the D 142
output beam at the D 138
outset that as the D 136
outlet was by the D 136
outlet arm of the D 136
outfit and on the D 136
outdoes him in the D 136
outlet box at the D 132
outlet are to be D 132
outlet owing to the D 131
outset and if the D 130
outlet tip of the D 130
outfit and to be D 129
outset and as it D 128
outfit one of the D 126
ousted them in the D 126
outlet box is to D 124
ousted one of the D 124
outlying peak of the D 122
outdoing them in the D 122
ousted him in the D 122
outset may be the D 120
output beam in the D 120
outlet for it of D 120
outlay and it is D 120
outfit was at the D 120
outfit set up by D 120
outset that in no D 118
outrun him if he D 118
outlay than in the D 118
outlying area to the D 116
outlet are on the D 116
ounces and in the D 116
output tab in the D 114
outlying area in the D 114
outlet tap of the D 114
outlet being in the D 113
output fed to an D 112
outran him in the D 111
outset but in the D 110
outset and to be D 110
outrun all of the D 110
outfit and to the D 110
outfit and of the D 110
outset than in the D 108
output beam is the D 106
outlay and of the D 105
outlet cut in the D 104
outset and on an D 102
outset that if it D 100
outrun one of the D 99
outlaw out of the D 99
outlying wings of the D 98
outlaw was in the D 98
outfit that it is D 98
outset that the so D 97
outset that to the D 96
outlaw was to be D 96
outlaw gang in the D 96
outset that in an D 94
output beam to the D 94
outset was on the D 92
outrun her in the D 92
outfit that is in D 92
outfit set up to D 92
ounces and is the D 92
outdoes them in the D 90
ounces and it is D 90
outset that in so D 88
outset and is of D 88
outlet may be so D 88
outlet may be in D 88
outlet being to the D 88
outgoing leg of the D 88
outdid him at an D 88
outran him to the D 86
outlay are to be D 86
outlay and on the D 86
outset than at the D 84
outset and is the D 84
outlet box to be D 84
outlet and up the D 84
outrun them if we D 82
outlet for it by D 82
outlet and is the D 82
outlet and by the D 82
outfit that he is D 82
outfit out on the D 82
outfit for me on D 82
outfit and by the D 82
outfit not to be D 81
outlying area at the D 80
outlet may be of D 80
outlay due to the D 59
outlet gas of the D 52
outlaw one of the D 45
ousted head of the D 45
outbid him at the D 44
outlet both to the D 43
ounces and so on D 41
