tip there is a D 1795
tin roof of a D 1140
tin cans in a D 728
tin cans on a D 668
tip acts as a D 504
tie vote on a D 452
tip over in a D 408
tin roof in a D 356
tie tied in a D 317
tin roof is a D 316
tin foil in a D 310
tin roof on a D 298
tin used as a D 286
tin cans to a D 286
tin drum is a D 274
tip lies in a D 258
tin acts as a D 248
til give it a D 236
tip leads to a D 224
tie down to a D 217
tip ending in a D 213
tie ends in a D 213
tin there is a D 192
tip ends in a D 184
tin foil as a D 180
tie line is a D 179
tip cell of a D 178
tie vote in a D 178
tin foil or a D 166
tip bent at a D 164
tin foil on a D 160
tip made of a D 159
tie held by a D 158
tip over on a D 148
tie back to a D 148
tie made of a D 144
tin horn if i D 142
tip pens in a D 136
tip acting as a D 134
til only be a D 134
til just be a D 133
tip held at a D 132
tin cups on a D 132
tin cans at a D 122
tip such as a D 116
tin duck in a D 116
tie these to a D 115
tin roof or a D 112
tin cans as a D 106
tie form of a D 106
tip here is a D 105
tin drum as a D 104
tie case of a D 104
tie acts as a D 104
tip over as a D 102
tie rods in a D 102
tip will be a D 100
tin drum on a D 100
tin dish on a D 100
tie there is a D 100
tip leading to a D 96
tin pail or a D 96
tin shed in a D 94
tin horn or a D 94
tie will be a D 93
tie down in a D 92
tie these by a D 90
tie line in a D 89
tip used as a D 88
tin cage of a D 88
tin foil to a D 84
tie over it a D 65
tip down in a D 46
tip back to a D 40
tip back in a D 40
tie used as a D 40
