tie him down to D 4141
tie them down to D 3144
tin can tied to D 2410
tin cup full of D 2064
tie them into the D 2048
tie you down to D 1912
tin and bake in D 1804
tin can full of D 1778
tip and along the D 1696
tip and base of D 1608
tin box full of D 1552
til you make it D 1089
tie her down to D 1080
tip our hats to D 1049
tie them back to D 977
tip was used to D 950
tie both ends of D 945
tin may also be D 937
tin ore from the D 880
tip can also be D 800
tin cup from the D 792
tie rod from the D 730
tip him over the D 700
tin are used in D 700
tie him down in D 696
tip and down the D 676
tie and went to D 655
tip them into the D 617
tie each other up D 606
tin and zinc in D 598
tie him into the D 590
tin was used in D 582
tin cup into the D 580
tin box from the D 556
tin can from the D 550
tie them onto the D 548
tin and iron in D 544
tie her hair up D 541
tie his shoes or D 526
tip his hand to D 525
tie that held the D 517
tip may also be D 512
tin and bake at D 506
tie them down in D 500
tip and into the D 489
tie them over the D 474
tip and from the D 461
til you come to D 459
tin man from the D 454
tie and threw it D 453
tip and side of D 443
tie tin cans to D 437
tin was used to D 430
tin and line the D 424
tin can also be D 422
tip our hand to D 417
til get back to D 412
tin can into the D 408
tie him fast to D 398
tip and tail of D 392
tin can over the D 390
tip and edge of D 384
tip them over the D 366
tip and part of D 356
tip you gave me D 352
tin pan full of D 352
tin pot full of D 348
tip her over the D 347
tie with string or D 338
tip you need to D 330
tin cup tied to D 328
tin mug full of D 320
tip her face up D 314
tie you down in D 300
tie this into the D 299
tip and back of D 298
tie with string to D 291
tie rod ends to D 283
tin was used as D 277
tip her chin up D 276
tin and pour in D 272
tip and tilt of D 269
tie one down to D 266
til they came to D 263
tin and leave to D 260
tip you over the D 259
tin bath full of D 258
tie each pair of D 248
tip was used as D 247
tip him into the D 245
til she came to D 244
tin and some of D 242
tie his boat to D 242
tie him down by D 240
tie them down by D 239
tip his hand in D 237
tin and hurt the D 234
tie and bond of D 234
tie its fate to D 232
tin they used to D 228
til you tell me D 228
tie her down in D 228
tin can will do D 226
tie his feet to D 224
tin are used to D 222
tie two ends of D 219
tip his hand by D 218
tip and body of D 218
tie him down on D 217
tie can only be D 216
tin are used as D 215
tie was held in D 211
tip and there is D 208
tie her hair in D 206
tip was made of D 204
tip and root of D 204
tin and zinc is D 202
tie them into an D 202
tie may also be D 202
tie and gave the D 200
tin and gold in D 198
tin and cook in D 198
tie this back to D 198
tie his fate to D 198
tie you have on D 197
tip are used to D 196
tin tub full of D 194
tie that will be D 193
tie them fast to D 192
tie her life to D 192
tin has been the D 190
tie them down on D 190
tin cup into my D 188
tin box into the D 188
tie his body to D 185
tie hung down the D 182
tie and keep us D 180
til they come to D 179
tip for those of D 178
tie you into the D 178
tie her into the D 178
tin was full of D 176
tin box such as D 176
tie them down so D 176
tip than those of D 175
tie going into the D 174
tie you down or D 173
tie men down to D 173
tin and iron is D 172
tie this rope to D 172
tip was used in D 170
tie his legs to D 170
tin and cool on D 166
tie and gave it D 166
tie and flung it D 166
til you reach the D 165
tip and pipe the D 164
tin cup hanging on D 164
tie god down to D 164
tip his hand on D 162
tin can along the D 162
tie you down on D 162
tie her feet to D 160
tin mug from the D 158
tin and held it D 158
tin pan from the D 156
tie our shoes or D 156
tie his shoes in D 156
tie with string at D 155
tie has been the D 154
tip you want to D 151
tip may need to D 150
tin and line it D 150
tie and left the D 149
tin than those of D 148
tin are among the D 148
til you give it D 148
tie for third in D 148
tie and roll up D 148
tip and pipe it D 146
tin pan upon it D 146
tin cup over the D 146
tie his hair in D 146
tie him down or D 146
tip dug into the D 144
tip and butt of D 144
tie was made of D 144
tin cap upon the D 142
tin box must be D 142
tie that kept the D 142
tie our boat to D 142
tip that leads to D 140
tie and trying to D 139
tin and cream of D 138
tip may have to D 136
tie her shoes or D 136
tie rod must be D 134
tip and held it D 132
tie his rope to D 132
tip and left the D 131
tip can only be D 130
tip and back to D 130
tin can only be D 130
tin and bake it D 130
tie that must be D 130
tie him down if D 129
tip pen from the D 128
tip and fill the D 128
tin was made in D 128
tin and pour the D 128
tie them down or D 128
tie his ship to D 128
tip and most of D 127
tip that some of D 126
tin and zinc to D 126
tie this knot in D 126
tie and spur of D 126
tip his mind to D 124
tip and also the D 124
tin and went to D 124
tie and took the D 124
tie and give the D 124
tip his hand as D 123
tie him down as D 123
tip and took the D 122
tie was held to D 120
tie his life to D 120
tip off from the D 118
tin that held the D 118
tin can down the D 118
tie rod will be D 118
tip her into the D 116
tie each other to D 116
tip and over the D 114
tie her fate to D 114
tie and held it D 114
tie can also be D 113
tip and hold the D 112
tinging with gold the D 112
tin this case the D 112
tin and must be D 112
tin and iron to D 112
tie him down so D 112
tip for making the D 110
tin and wool of D 110
tin and make it D 110
tie that into the D 110
tie his work to D 110
til you give me D 109
tip and pull it D 108
tip and more or D 108
tip and down in D 108
tip our hats in D 106
tip and pull the D 106
tin was said to D 106
tin and fill it D 106
til you have to D 106
tie this type of D 106
tie his name to D 106
tie and laid it D 106
tip and went to D 105
tie his shoes by D 105
tin and iron of D 104
tin and gave it D 104
tip that will be D 102
tin hat from the D 102
tin can such as D 102
til that lust be D 102
tie that held me D 102
tip for what it D 100
tip and angle of D 100
tin and from the D 100
tin all over the D 100
tie them back in D 100
tie his wife to D 100
tie and took it D 100
tie and open the D 100
tip far from the D 99
tie one rope to D 99
tin tub from the D 98
tie that rope to D 98
tie that held it D 98
tie and pull it D 98
tip that came to D 96
tip and paid the D 94
tin and most of D 94
tie that were the D 94
tie her down if D 94
tie had been the D 94
tie and three to D 94
tip and ending in D 93
tie and when he D 93
tip you into the D 92
tip his hand at D 92
tinge than those of D 92
tin pan into the D 92
tie and coat on D 92
tinge too much of D 91
tip him when he D 90
tip and those of D 90
tip and onto the D 90
tin and sold it D 90
tie may well be D 90
tie and shoes to D 89
tip was left in D 88
tip hung heavy in D 88
tip and move the D 88
tie this kind of D 88
tie his arms to D 88
tip its hand to D 87
tip and must be D 86
tin was used by D 86
tin and also of D 86
tie this down to D 86
tie them upon the D 86
tie and left it D 86
tie not only to D 85
tie and pair of D 85
tip can reach the D 84
tip and also to D 84
tin are said to D 84
tie his self to D 84
tie him back to D 84
tie has been as D 84
tin pan tied to D 82
tin and zinc or D 82
tin and gold is D 82
tie hung over the D 82
tie was used to D 81
tie its mouth up D 81
tip our hand as D 80
tin this book is D 80
tin can will be D 80
tie them down as D 69
tie you down so D 59
tip that pops up D 53
tip toed down the D 52
tip this dish is D 52
tip had come in D 51
tin and zinc as D 51
til you drop in D 51
tie you gave me D 51
til she went to D 50
tip toed into the D 49
tin and iron as D 48
tie one part of D 48
tie her down so D 48
tie and bind the D 47
tie his feet up D 45
tip and when the D 44
til get over it D 42
tie each other in D 42
til you drop at D 40
til they rest in D 40
