time i went to M 105884
till i came to M 56922
time i came to M 49221
time i want to M 31220
time i have to M 30972
time i think of M 30238
time i look at M 29272
time i heard the M 28847
time a part of M 22342
time i left the M 21504
time i used to M 20490
time i speak of M 19790
till i come to M 18621
time a kind of M 15790
time i heard it M 14378
time a sort of M 14307
time i come to M 13696
time i hope to M 12130
time i will be M 12045
time i heard of M 11249
time i made the M 10511
time i felt the M 10505
time i think it M 10032
time i made it M 9623
time i woke up M 9386
time i came in M 9286
time t will be M 9273
till i went to M 9265
till i have the M 9174
time i have no M 8750
time i went up M 7563
time i have the M 7447
tied a knot in M 7440
time i made my M 7332
time a body of M 7109
time i went on M 7027
time i went in M 6990
time i need to M 6912
time i talk to M 6622
time i wish to M 6479
time i came up M 6286
till i heard the M 6248
time a copy of M 5973
till i give the M 5476
time a pair of M 5371
time i reach the M 5359
time i knew it M 5324
time i open my M 5308
time i said to M 5237
time i think we M 4924
time a form of M 4689
time i felt as M 4638
time i feel the M 4603
time i knew the M 4600
time t from the M 4504
time i felt it M 4399
time i left my M 4380
time i used the M 4310
time a means of M 4257
time i think he M 4204
time i pick up M 4051
time a list of M 4002
time i lost my M 3968
time i gave up M 3901
time i used it M 3900
time t when the M 3783
till i know the M 3772
time i come in M 3621
till i reach the M 3607
time i think the M 3593
time a file is M 3446
time i know of M 3357
time a band of M 3317
time i kept my M 3270
time i leave the M 3242
time i fell in M 3227
time i said it M 3172
time a baby is M 3170
time i speak to M 2905
time i heard my M 2892
till i came up M 2876
till i find the M 2870
time i seem to M 2869
time i must be M 2782
time i felt my M 2670
till i felt the M 2649
time a work of M 2646
time i look up M 2633
time a word is M 2607
time a page is M 2588
time i look in M 2583
time i gave the M 2538
time i knew he M 2534
time i made an M 2526
time i have an M 2526
time i will go M 2524
time i grew up M 2524
time i will do M 2518
time i like to M 2515
time i told the M 2514
time a mass of M 2508
time t must be M 2475
time a book is M 2452
time i wake up M 2435
time i take the M 2424
time i came on M 2400
time a line of M 2338
time i made up M 2314
time i come up M 2313
time a city of M 2309
time i held the M 2244
time a more or M 2222
till i find it M 2221
time a theory of M 2176
time i open the M 2146
till i tell the M 2124
till i have my M 2101
time a host of M 2085
till i have an M 2072
till i have no M 2066
time a note of M 2043
time i felt so M 2011
till i have to M 2002
ties a knot in M 1988
time i find it M 1965
time i made no M 1934
time i held my M 1928
time a lack of M 1924
time a case is M 1914
time i told my M 1911
till i find my M 1895
time i left it M 1893
till i tell my M 1888
time i wore it M 1858
till i left the M 1832
time a test is M 1826
time t during the M 1824
time i gave it M 1814
time a call is M 1810
tied a length of M 1798
time i feel it M 1792
time i have in M 1777
time i turn my M 1750
time a drop of M 1742
time a girl is M 1736
time a life of M 1730
time i know it M 1717
time a sign of M 1703
time i went by M 1698
time a youth of M 1688
time i feel as M 1679
time i have my M 1673
time i find the M 1673
time i turn on M 1657
time i gave my M 1654
time a unit is M 1618
time i take my M 1609
till i have it M 1599
time i want it M 1576
time a town of M 1560
time i make it M 1551
time a unit of M 1548
time i knew of M 1546
till i woke up M 1536
time i sent the M 1533
time a play is M 1528
time i felt no M 1522
time a look of M 1522
till i felt my M 1519
till i knew the M 1514
time i pass the M 1502
time i meant to M 1494
time a case of M 1482
time i hope we M 1460
time i heard an M 1410
time i felt an M 1410
time a range of M 1396
till i came in M 1387
time i hope the M 1382
till i want no M 1380
time a type of M 1376
till i heard of M 1366
time i walk in M 1362
time i used my M 1360
time i knew my M 1356
till a week or M 1313
time a hint of M 1310
time i make the M 1308
till a sort of M 1300
till i heard it M 1292
time a line is M 1290
time a fine of M 1284
time a threat to M 1276
time i hope it M 1270
time i have at M 1266
time i take it M 1247
till i come up M 1210
time i pass by M 1194
time a view of M 1187
time i left in M 1178
time i gave to M 1178
time a third of M 1176
time a loss of M 1174
till i felt as M 1162
time a girl of M 1152
time a rule is M 1142
time i shut my M 1136
till i lost my M 1132
time i sent my M 1126
time i want the M 1120
till a drop of M 1110
till i think of M 1099
time a book of M 1092
till i know it M 1092
time a part is M 1072
tied a line to M 1064
time i grew to M 1055
till a month or M 1054
time i lost the M 1035
time i told it M 1028
till i knew it M 1021
time a work is M 1018
time i plan to M 1012
time a rise in M 998
till i speak to M 996
time t there is M 994
time a plan of M 982
time i laid my M 978
time a call to M 970
till i talk to M 968
till a body of M 956
time i kept the M 955
time a word of M 952
time i need it M 950
time a user is M 940
time a cell is M 936
till a part of M 934
time i know the M 928
time i leave my M 926
till i make my M 920
tied a pair of M 910
time i meant it M 908
time i walk by M 906
time i heard no M 903
time a note is M 898
time i take up M 891
time i turn to M 890
time i knew no M 889
time i said no M 886
time i make my M 882
till i grow up M 880
time i must do M 877
time i live in M 872
time i must go M 868
time a mode of M 866
time a name is M 858
time i said the M 856
time a test of M 854
time i make an M 852
time i know he M 850
time i take to M 847
time a land of M 844
time i pass it M 842
time a mark of M 830
time i give to M 824
time i kept on M 818
time i have it M 814
time i left to M 802
time i wore the M 796
till i made it M 792
till i come in M 791
time a plan is M 784
till i made the M 784
till i look at M 784
till i fell in M 778
time a lady of M 774
time i think my M 764
till a turn in M 762
time a wealth of M 757
time i tell it M 746
tied a thread to M 742
time i fall in M 741
time i kill my M 738
time i think to M 734
time i reach my M 724
till i lost it M 718
till i grew up M 716
till i take my M 711
till i want to M 703
time i came by M 700
time a rule of M 698
time a breath of M 692
time i play it M 690
time i sent to M 688
time i wore my M 676
time i have on M 674
till i come on M 673
time i find my M 671
till a time of M 668
time a week or M 666
time i open it M 660
time i felt he M 660
till i came on M 660
time i hope my M 656
time i have is M 655
time i have so M 650
time a means to M 650
time a gift of M 650
till i reach my M 650
time i tell the M 648
time a step is M 644
time i turn the M 642
time i felt at M 636
till i have in M 635
time i hope he M 632
till i heard my M 630
time a reading is M 618
time a goal is M 616
time a move is M 612
till a turn of M 610
time a term of M 604
time a book on M 600
till i give up M 598
time a lord of M 596
till i went up M 596
till a depth of M 594
till i left it M 592
time i fail to M 591
till i were in M 591
till i know my M 588
time t into the M 586
till i feel as M 586
time i come by M 583
time i sort of M 582
tied a loop in M 582
time a need to M 580
time t only if M 579
time i felt in M 577
tied a knot at M 572
time i knew we M 568
till a cure is M 568
time a duty of M 566
time i show up M 563
till a kind of M 562
time i work on M 560
time i lift my M 560
time i held it M 560
time i step on M 552
time i give the M 548
time a form is M 546
time i kept up M 544
till i gave the M 540
till i cease to M 540
time i lose my M 536
time a hole is M 534
till i think it M 534
time i call on M 531
time i stay in M 528
time a link is M 528
time i felt we M 520
time i feel my M 520
till i shut the M 518
time a ship is M 511
time i meet the M 510
till i made my M 510
time i came of M 506
time a copy is M 502
time i heard he M 500
time a word or M 500
time a door is M 500
time i wish it M 498
time a plan to M 498
time i pick it M 496
time i cast my M 496
time a flow of M 492
time a bone of M 491
time i heard in M 486
time a want of M 486
time a trip to M 485
time a time of M 485
time i just do M 483
time i stop to M 482
time i kind of M 482
time a wish to M 482
till i came of M 480
time i went it M 474
time i went as M 472
time i call the M 472
time t along the M 469
time i leave it M 466
time i feel so M 466
till i gave up M 465
time a fire is M 464
till i give it M 462
till i know he M 458
time a tree is M 456
time i give my M 454
till i make the M 454
time i play the M 452
time a monk of M 452
time a pile of M 451
time i tell my M 450
time a site is M 448
time i teach the M 446
time a page of M 446
time a code of M 446
till i feel the M 444
time i went the M 439
time i give it M 436
time a load of M 436
time i move my M 435
tied a knot of M 434
time i gave in M 432
till i make it M 432
time i date my M 430
till a line of M 430
time i call to M 424
tied a knot on M 422
time i make no M 421
time i seen the M 418
time a love of M 418
time a rate of M 417
time a text is M 416
time i sent it M 414
time a fall in M 414
till i call the M 414
time i come on M 411
time i work in M 408
time i think in M 408
time a nest of M 408
time t over the M 405
time i laid on M 405
time a body is M 403
time i wash my M 400
till i gave it M 398
till i find an M 396
till a bend in M 394
time t when it M 392
till i learn the M 392
time i kept in M 390
till i felt it M 390
time i lost in M 388
time i kept it M 388
time i gave an M 388
time i quit the M 386
time i dream of M 386
time a month or M 383
time a depth of M 382
till i open the M 378
time a ship of M 372
time a loop is M 372
till i wake up M 369
time i seen it M 368
time i knew in M 366
till i leave the M 366
till i know if M 366
tied a bell to M 366
time i give up M 365
time t just in M 364
time i look on M 361
time t plus the M 360
time i went he M 360
time i held on M 360
time i turn it M 358
time i like it M 358
time i want my M 356
till i take it M 355
time i keep my M 354
time a term is M 354
time a rise of M 354
till i break my M 348
till i make up M 347
time a game is M 346
till a third of M 346
time a union of M 344
time i laid the M 342
time a thorn in M 342
time i make up M 340
time a trial of M 340
till i send the M 338
till i learn to M 338
tied a band of M 332
time t prior to M 328
time i knew to M 328
time a bird is M 328
till i went on M 324
time i walk on M 321
till i rest in M 321
till a code of M 320
time i heard or M 318
time i look to M 316
time i pull the M 314
time a break in M 314
time i stop by M 312
time i lost it M 312
time a will is M 312
time a note to M 312
time a knot of M 312
time i think is M 311
time a monk at M 310
time a length of M 310
till i came at M 310
time i walk up M 309
time a debt is M 308
time i left at M 306
time i have of M 306
time a work by M 306
time a week to M 304
time a thread is M 304
time a pass is M 302
till i lose my M 302
till i made up M 301
time i grow up M 298
till i tell it M 298
till a band of M 298
time i done it M 296
time i hold it M 294
time a load is M 294
time i hold the M 292
till a mass of M 292
time a game of M 291
time a gift is M 290
time a flag of M 290
time a cult of M 290
time i woke in M 289
time i sent an M 288
time a port of M 288
time a drop in M 288
till i draw my M 288
time i need the M 286
time i deem it M 286
time a show of M 286
time a loss is M 286
time i think on M 285
time i give an M 284
time a duty to M 284
time i sent in M 282
time i call it M 282
till i said to M 282
time i left he M 280
time i ever do M 280
till a pair of M 278
time i meet an M 276
time i reach it M 274
time i give in M 274
time i wish the M 272
time i left on M 272
time i hurt my M 272
time i ever go M 272
time i rest in M 270
time i love to M 270
time a lull in M 270
till i have at M 270
time i says to M 268
time a step in M 268
till i want it M 268
time i walk to M 267
time i fell on M 267
time i find an M 266
time a week in M 265
till i give my M 265
time a fish is M 264
till i take the M 264
time i feel no M 262
time a monk in M 260
time a dream of M 260
till i left my M 260
till i call it M 260
time a post of M 258
time a breath is M 258
till i heard he M 258
time a rush of M 257
time i move to M 256
time i gave no M 256
time i find no M 256
time a view is M 256
time a tale of M 256
time a living thing M 256
time a book or M 256
time i take an M 255
till i pull it M 254
time i swung the M 252
time i like the M 252
time i laid it M 252
time i call my M 252
till i lose the M 252
time i work at M 250
time i take on M 250
time i seek to M 248
time a move to M 248
time i walk the M 246
time i move it M 246
till i grew to M 246
time i pull up M 245
time i fell to M 244
time a reading of M 244
time i shut the M 242
time i said my M 242
time a trip is M 242
time a good or M 242
time i learn to M 240
time i know my M 240
time i feel in M 240
time a part in M 240
till i were as M 240
tied a loop of M 240
time i speak on M 238
time i show my M 238
time i lose in M 238
time a well is M 238
time a play of M 238
time i speak in M 236
time i hope is M 236
time a home is M 236
time a youth is M 234
time a tenth of M 234
time a site of M 234
time a bell is M 232
till a copy of M 232
time t from an M 231
time t leads to M 230
time a girl in M 230
tied a note to M 230
tied a knot to M 230
time i swear to M 228
time i knew so M 228
time i come it M 228
till i knew my M 228
time i move on M 227
time i know we M 226
time a home of M 225
ties a knot at M 225
time i left we M 224
time a longing to M 224
time a fact of M 224
time i feel an M 223
time a means by M 222
time a hero of M 222
till i knew he M 222
time i were to M 220
time a tree of M 220
time a threat of M 220
till i turn the M 220
time i take in M 218
time i face the M 218
time a bank of M 218
till i wore my M 218
time i stay at M 217
time i open up M 217
time i know no M 216
time a list is M 216
time a hearing is M 216
till i call on M 216
time i treat of M 214
time a book by M 214
time i want an M 212
time a pain in M 212
time a hand is M 212
till i will be M 212
time i dare to M 211
time i more or M 210
time i blow my M 210
time i been in M 210
time a user or M 210
time a food is M 210
till i knew if M 210
till a bend of M 210
time a theory is M 209
till i think he M 209
time i woke the M 208
till i told the M 208
till i feel it M 208
time i woke it M 206
time i said in M 206
time i went my M 204
time i pray to M 204
till i meet the M 204
till i came the M 204
time i came he M 202
time a great king M 202
time a fall of M 202
till i drop in M 202
time i woke to M 200
time i view the M 200
time i teach it M 200
time i cast an M 200
till i come of M 200
till a case of M 200
ties a knot on M 200
time i send the M 198
time i care to M 198
time a file of M 198
till i treat of M 198
time i will no M 197
time i wish we M 196
time i held up M 196
time a need is M 196
time a mind to M 196
time a lock is M 196
time i used an M 194
time i kept an M 194
time i find in M 194
time a blow at M 194
till a spring is M 194
time i speak the M 192
time i hold my M 192
till i gave my M 192
time i will eat M 190
till i wish to M 190
till i reach it M 190
till a hole is M 190
time i knew by M 188
time i hate to M 188
time a lady in M 188
till i told my M 188
till i send to M 188
time i feel we M 186
time i clear an M 186
time a pair is M 186
till i know of M 186
till i hurt my M 186
time i treat my M 184
till i turn my M 184
till i need it M 184
time i knew as M 183
time i held in M 182
time a trial is M 182
time a debt of M 182
time a date is M 182
till a break in M 182
till i went in M 181
time t rate of M 180
time a word in M 180
time a name of M 180
till i speak of M 180
till i call my M 180
tied a kind of M 180
time i seed the M 178
till i meet my M 178
till i fell to M 178
time i leave to M 176
time i keep the M 176
time a drop is M 176
till i used to M 176
time i pass in M 175
time i take no M 174
time a face of M 174
till i seem to M 174
till i leave it M 174
till i laid my M 174
time i feel at M 172
time a fifth of M 172
time a core of M 172
till i wash my M 172
till i pick up M 172
till a wind or M 172
time i step up M 170
time a saving of M 170
till i said it M 170
till a pile of M 170
time i push the M 168
time i meet up M 168
time i learn of M 168
time i held to M 168
time a talk of M 168
time i came as M 167
time i bent my M 166
till i fell on M 166
till a form of M 166
time i rise in M 164
time i move the M 164
till i sort the M 164
till i quit the M 164
till i pass the M 164
till i hope it M 164
time i stop at M 162
time i break the M 162
time a post in M 162
time t will the M 160
time i were at M 160
time i talk of M 160
time i rely on M 160
time i know to M 160
time a room is M 160
time i said he M 158
time a work on M 158
time a rain of M 158
time i step in M 157
time i send my M 156
time i rise to M 156
time i love it M 156
time a room in M 156
time a clue to M 156
time a book in M 156
ties a length of M 156
time i went at M 155
time i tell of M 154
time a realm of M 154
time a deed is M 154
till i turn to M 154
time i wish he M 152
time i love the M 152
time i came at M 152
till i heard in M 152
till a length of M 152
time i were in M 150
time a mile of M 150
time a hope of M 150
time a faith in M 150
time a cast is M 150
till i think the M 150
till i feel my M 150
time i show the M 148
time a part or M 148
time a mark is M 148
till i open my M 148
time a line or M 147
time i date the M 146
till i lost the M 146
time a week do M 145
time t have the M 144
time i speak or M 144
time i shut up M 144
time i said we M 144
time i know is M 144
time a work in M 144
time a rash of M 144
time a name to M 144
time a cost is M 144
till i blow the M 144
time i lose the M 142
time i lift up M 142
time i have as M 142
time i felt to M 142
time a hole in M 142
time a deed of M 142
till i find to M 142
time i play in M 141
time i seen my M 140
time i came the M 140
time i came it M 140
time a sign to M 140
time a mass is M 140
time a city is M 140
time i love my M 138
time a span of M 138
time a rate is M 138
time a male is M 138
time a gain of M 138
time i used in M 137
time i think if M 137
time i call in M 137
time i grew so M 136
time a stop is M 136
time a fact is M 136
time a blow is M 136
till i made an M 136
till i hate the M 136
time i call up M 135
time i turn in M 134
time i miss the M 134
time a town in M 134
time a road is M 134
till i take up M 134
till a more or M 134
time a fire of M 133
time i went we M 132
time i like my M 132
time i lift the M 132
time a will to M 132
time a turn is M 132
time a turn in M 132
time a seed of M 132
time a hail of M 132
time a door of M 132
till i show it M 132
till i fill the M 131
time i work my M 130
time i wake in M 130
time i turn up M 130
time i trod the M 130
time i think or M 130
time i stop in M 130
time i meet my M 130
time a note or M 130
time a maid of M 130
till i woke to M 130
till i wind up M 130
ties a thread to M 129
time i play my M 128
time i knew at M 128
till a find it M 128
time i need my M 126
time i feel to M 126
time a seed is M 126
time a risk of M 126
time a good is M 126
till a peace is M 126
ties i have in M 126
time i kept to M 124
time i held no M 124
time i hate it M 124
time a youth in M 124
time a girl or M 124
till i pull up M 124
till a host of M 124
time i drop in M 123
time a coat of M 123
till i show up M 123
time i speak at M 122
time i sign my M 122
time i pull it M 122
time i cease to M 122
time a show is M 122
time a noun is M 122
time a gate is M 122
time a dread of M 122
till i open it M 122
till i fall in M 122
time i went no M 120
time i tied the M 120
time i said so M 120
time i form the M 120
time a flag is M 120
till i think my M 120
till i join the M 120
till i have as M 120
till i clear the M 120
time t when at M 118
time i drop the M 118
time a will be M 118
time a text of M 118
time a page in M 118
time a file or M 118
till i seen the M 118
time a fire in M 117
time i teach my M 116
time i swung my M 116
time i need an M 116
time i knew if M 116
time i drop by M 116
time i draw the M 116
time a gain in M 116
time a blow to M 116
till i send it M 116
till i hold the M 116
ties a name to M 116
time a good thing M 115
time i quit my M 114
till i look in M 114
till i fall to M 114
till i come at M 114
time i weave the M 112
time i think so M 112
time i swear it M 112
time i pass my M 112
time i held an M 112
time a road to M 112
time a ratio of M 112
till i gets my M 112
time i will so M 111
time i just go M 111
time i miss my M 110
time i fill up M 110
time a week is M 110
time a month to M 110
till i like to M 110
till a breath of M 110
tied a cloth on M 110
time i wish my M 108
time i know in M 108
time a side of M 108
time a role in M 108
time a month is M 108
time a dream is M 108
time a case in M 108
till i left in M 108
till a ship is M 108
tied a lock of M 108
time i fill the M 107
time t upon the M 106
time i want us M 106
time i lost an M 106
time i draw my M 106
time i break my M 106
time a third or M 106
time a root is M 106
time a city in M 106
time a cell in M 106
till i lose it M 106
till a third is M 106
till a sign of M 106
till a beast of M 106
time a look at M 105
ties i have to M 105
time i wind up M 104
time i when the M 104
time i pick the M 104
time i live on M 104
time i land in M 104
time i come we M 104
time a user of M 104
time a sign is M 104
time a cell of M 104
till i woke in M 104
till i gets to M 104
till i face the M 104
till i turn up M 103
time t when we M 102
time i come he M 102
time a step of M 102
time a lake of M 102
time a door or M 102
time a call on M 102
till i make an M 102
till a name is M 102
till a line is M 102
time i pull my M 100
time i lost to M 100
time i hurt the M 100
time i cast the M 100
time i blow the M 100
time a mile or M 100
time a loss in M 100
time a link to M 100
time a fine is M 100
time a duty on M 100
time a call of M 100
till i send my M 100
till i grew so M 100
till i find me M 100
till i call up M 100
till a mile or M 100
time i felt on M 99
time t when an M 98
time i quit it M 98
time i must in M 98
time i left an M 98
time i feel he M 98
time a hand of M 98
till i died of M 98
till a blow is M 98
time a tour of M 97
time i yell at M 96
time a threat is M 96
time a halt is M 96
time a good of M 96
time a door to M 96
time a copy to M 96
time a beast of M 96
till i sees if M 96
time i been up M 95
till i feel in M 95
time i thank the M 94
time i send to M 94
time i move in M 94
time i learn the M 94
time i draw on M 94
time a need of M 94
time a land in M 94
time a host is M 94
time a drop or M 94
time a code is M 94
time a bank is M 94
till i think we M 94
tied a sort of M 94
time i went so M 93
time i find to M 93
time t lies in M 92
time i speak it M 92
time i plan on M 92
time i meant the M 92
time i have by M 92
time i face my M 92
time a thread of M 92
time a life is M 92
time a hold on M 92
till i sell my M 92
till a saving is M 92
time i wash the M 90
time i save by M 90
time i meet it M 90
time i find he M 90
time i break up M 90
time a time to M 90
time a port is M 90
time a plan or M 90
time a goal of M 90
time a fire at M 90
time a door in M 90
time a dash of M 90
till i told it M 90
till i show the M 90
till i know by M 90
till i felt so M 90
tied a line of M 90
till i gave in M 89
time t among the M 88
time i talk on M 88
time i lost at M 88
time i join the M 88
time i dream it M 88
time a note in M 88
time a hint to M 88
time a base of M 88
till i sent my M 88
till i knew of M 88
till i have by M 88
till i give an M 88
till i find no M 88
till i draw the M 88
till i come or M 88
till i call or M 88
tied a thread of M 88
time i drop my M 86
time a town or M 86
time a rule in M 86
time a mask is M 86
time a bird of M 86
time a bank or M 86
till i find or M 86
till i fill my M 86
ties a band as M 86
tied a loop at M 86
tied a flag to M 86
time i will sing M 84
time i made to M 84
till i know in M 84
time t used in M 82
time i stop the M 82
time i speak my M 82
time i land at M 82
time i keep it M 82
time i clean my M 82
time i bent to M 82
time a week on M 82
time a user on M 82
time a unit in M 82
time a play on M 82
time a line in M 82
till i risk my M 82
till i ready the M 82
tied a line on M 82
time i send an M 80
time a loop of M 80
time a hell of M 80
till i love it M 80
till i heard an M 80
tied a bone to M 80
till i clean up M 59
tied a knot so M 58
time i pass on M 57
till i look up M 52
time i clean up M 48
time i must as M 46
till i come by M 46
time i come as M 42
time i came so M 42
time i took the D 11292
tied a rope to D 8788
time i took my D 8006
tied a string to D 5340
time i took it D 4788
time a wave of D 3102
time a sale is D 2668
time i took up D 2348
time i took to D 2181
time a loan is D 1826
time a drug is D 1488
time a prey to D 1438
time a node is D 1362
time a card is D 1320
time a task is D 1280
time i took an D 1188
time i paid my D 1141
time a bill is D 1130
tied a cord to D 1108
till i took the D 1064
time i rode in D 1041
time a gust of D 1035
time i rose to D 956
till i tell ye D 912
time a gleam of D 890
time a ball is D 864
time i took no D 825
tied a string of D 790
time a race of D 756
ties a rope to D 749
time a film is D 730
till i make thy D 726
time i took in D 719
time a bond is D 714
time a dose of D 682
time i flew to D 672
time a herd of D 671
time i paid no D 668
time i rode the D 662
time i threw the D 656
till i took it D 639
time a string of D 630
time a filing is D 622
time i paid the D 620
till i took my D 614
time a bill to D 590
time i kiss thy D 578
time i took on D 571
time a vote is D 566
time i clung to D 558
time a shot is D 554
time i rode on D 541
tied a rock to D 536
time a crop of D 522
tied a rope on D 486
time a bill of D 476
time a byte is D 470
time i threw my D 456
time a coin is D 442
time i drew the D 439
till i took up D 434
time a string is D 414
ties a string to D 409
time i flew in D 406
time a vote of D 406
time i drew up D 401
time i sold my D 400
time a suit is D 396
time i threw up D 391
time a crop is D 390
time i tend to D 378
time i drew my D 376
time i sold the D 372
time a tape is D 372
time a duck or D 368
time i lied to D 366
time a lease of D 364
time a dose is D 362
time a loan of D 357
time a bond of D 356
time i rode my D 352
time a tool is D 350
time i blew my D 348
time a tooth is D 346
time a tone of D 344
tied a string on D 340
time a lease is D 334
till i took to D 334
time i shot the D 331
time a pool of D 328
time a writ of D 319
time a fund of D 319
time a twinge of D 308
till a race of D 308
till i sink to D 302
time a tone is D 298
time a pack of D 298
till i show ye D 298
till a plot of D 292
time a dearth of D 282
time a plot of D 280
time a disk is D 280
time a firm is D 278
ties a string of D 276
time a film of D 272
time i rode up D 269
time a wall of D 268
time a bowl of D 264
till a gust of D 264
time a puff of D 262
tied a cord of D 258
time i threw it D 256
time a soul is D 254
time a lump of D 250
time a mood of D 248
time i gaze at D 246
till a soul it D 244
till i rose to D 236
time a zone of D 234
time a sale of D 232
till a great sea D 232
time a crew of D 229
time a roll of D 228
time i sold it D 226
till i shot the D 226
time i shot at D 218
time a bolt of D 218
tied a rope of D 218
time a throng of D 212
time a spot of D 212
time a boat is D 210
till a lass of D 208
time i rode to D 206
time a jury of D 206
time a heavy sea D 206
time a feast is D 205
tied a belt of D 204
time a star of D 203
time a tool of D 202
tied a wisp of D 202
tied a veil of D 198
time i drew in D 197
time a dish of D 197
till i have thy D 196
time i ride in D 194
time a vein of D 192
tied a sack of D 190
time a fief of D 182
time i swam in D 180
time i lent an D 180
time a clap of D 180
time i shot my D 176
time a calf is D 176
time a firm of D 172
tiny a part of D 170
time a lamp is D 170
time i flew the D 168
time a gush of D 166
time i shot it D 164
time a sale or D 164
till a wave of D 164
time a plot to D 162
till i give ye D 162
time a vote in D 160
time a veil of D 158
time a ball of D 158
time a star is D 156
till i tidy up D 153
till a dose of D 152
tied a bolt of D 152
tithe a tenth of D 150
time i dine at D 150
time a scan is D 150
till a string of D 150
till a puff of D 148
tied a goat to D 148
tick i want my D 147
time i rode it D 146
time a lens is D 146
tiara i knew we D 146
time a pump is D 144
time i throw the D 142
time a glow of D 142
time i flew on D 141
ties a cord to D 139
time a tooth of D 138
tied a lump of D 138
time a tide of D 136
time a suit of D 136
time a loan or D 136
time i shot an D 134
time a loaf of D 134
time a foot is D 134
time a bevy of D 134
till a wall of D 134
time a slip of D 132
time a pole of D 132
time i drew it D 130
time a sigh of D 130
time a byte of D 130
till i sail to D 130
time a gulf of D 128
till a spot of D 126
time a peer of D 124
time i rode by D 122
time a disc is D 122
tied a wreath of D 122
tide i went at D 122
time i shot up D 121
time i rose in D 120
time a scion of D 120
till a jury of D 120
time a coil is D 118
till i tell ya D 118
time a theme is D 116
time a kiln is D 116
till a gleam of D 116
time i blew up D 115
time a babe is D 114
time a tube is D 112
time a task of D 112
time a skin is D 112
time a roar of D 112
time a camp of D 112
time a bomb is D 112
till i wire my D 112
time a singer in D 110
time a jury is D 110
time a duke of D 110
till i threw in D 110
time a theme of D 108
time a pint or D 108
time a menu is D 108
till a shot or D 108
tied a wire to D 108
time i ride my D 106
time i mess up D 106
time i avow my D 106
time a rite of D 106
time a pint of D 106
till i have re D 106
time i swam to D 104
time a soup is D 104
till a film of D 104
time i throw my D 102
time a feast of D 102
till i took an D 102
time i ride on D 100
time a hymn to D 100
time a glut of D 100
till i writ it D 100
till a lump of D 100
time i ride the D 98
time a gene is D 98
time a fund is D 98
tied a tuft of D 98
time a tube of D 96
time a tray of D 96
time a spur to D 96
till i paid it D 96
till a bill of D 96
time a rock is D 95
time i flew it D 94
time a hymn of D 94
time a club of D 94
time i writ to D 92
time i tore my D 92
time i paid it D 92
time a tray is D 92
time a stab of D 92
time a mold is D 92
time a cone is D 92
tied a ball of D 92
time i have re D 90
time a tool in D 90
time a boon to D 90
till i slip on D 90
ties a string on D 90
time i blew it D 88
time a race is D 88
time a bust of D 88
time a bout of D 88
till i took by D 88
tied a slip of D 88
tied a sheaf of D 88
time a spot is D 86
time a sold the D 86
time a soil is D 86
time a slot is D 86
time i ride by D 84
time i blew the D 84
time a sect of D 84
till a tuft of D 84
time i poke my D 82
time i lent it D 82
time i gaze on D 82
time i bore the D 82
time a wire is D 82
time a vast sea D 82
time a plug is D 82
till a dish of D 82
time i threw in D 81
time i slid the D 80
time a tire is D 80
time a tank is D 80
till i sold it D 80
time i rose up D 72
time i flew up D 53
