rye bread in the D 676
rye bread is the D 405
rye bread on the D 370
rye bread of the D 263
rye reach to the D 262
rye sown in the D 201
rye crop of the D 164
rye bread to eat D 157
rye sown on it D 146
rye crop in the D 138
rye bread to the D 134
rye when it is D 123
rye bread at the D 106
rye were to be D 92
rye used to be D 47
