sure that you are M 178082
sure that they are M 177800
such that they can M 93788
such that they are M 88600
such that for all M 78163
sure that she was M 75218
sure you are not M 67139
sure you did not M 63419
sure that you can M 62530
sure she did not M 56784
sure that this was M 47072
sure that she had M 45326
sure they did not M 44668
such things are not M 42750
sure that they had M 39185
such that for any M 37790
sure she was not M 37443
sure they are not M 36812
sure you can not M 34961
such that for each M 31690
sure she does not M 27369
such that one can M 26667
sure that you get M 25551
sure she had not M 22036
such things can not M 20008
sure that they did M 19644
sure that they can M 18884
such that you can M 18380
such men are not M 18078
sure that you and M 17486
such that they may M 17226
sure that she did M 16818
sure that you use M 16594
sure she was going M 13582
sure that she has M 13230
such things did not M 12510
sure you can see M 12362
sure that all was M 12190
sure you can get M 12073
sure they had not M 11042
sure you are using M 10312
sure she was all M 10028
sure that you did M 9976
sure they can not M 9968
sure was not going M 9300
sure they are all M 9141
such that she was M 8326
such was not his M 8138
sure that his own M 8024
such men can not M 7976
such they are not M 7724
sure this was not M 7704
such that they had M 7674
sure that was not M 7136
sure you are all M 7096
sure that you had M 7006
sure that that was M 6842
sure that she does M 6656
such use does not M 6622
sure she has not M 6540
sure that they get M 6320
sure you are going M 6300
sure this does not M 6124
sure why she was M 6086
sure that does not M 6042
sure how long she M 6010
sure that they all M 5972
sure you are doing M 5708
such they can not M 5604
sure that one day M 5578
such that any two M 5553
such that you are M 5168
sure you get all M 5102
sure that all his M 5060
such that she can M 5034
such are they who M 4960
sure that each one M 4924
sure she can not M 4714
such was his own M 4649
such that one may M 4626
sure that all this M 4612
sure are you that M 4549
sure that any one M 4530
sure that she and M 4524
sure now that she M 4521
sure that not one M 4509
such that they did M 4500
such men did not M 4476
sure that things are M 4454
sure that one has M 4438
sure that she can M 4434
sure that you read M 4200
sure that you see M 4090
sure that did not M 4027
such that any one M 4007
sure that god has M 3958
sure why she had M 3916
sure that this does M 3912
sure she was dead M 3842
sure that god was M 3740
such that she had M 3734
sure that all who M 3696
sure you are too M 3651
sure that god had M 3644
sure that you put M 3626
sure that his son M 3468
such that not all M 3426
such that each one M 3407
such that one has M 3398
sure she had her M 3360
such that and for M 3360
sure that all our M 3342
sure that this man M 3293
sure that you set M 3280
sure you had not M 3278
sure how long they M 3234
sure who she was M 3153
sure that they got M 3060
sure how she was M 3020
sure you can use M 3017
sure you ask for M 2880
sure they are going M 2838
sure she was doing M 2830
sure that all are M 2812
sure that both you M 2708
sure that our own M 2696
sure they are doing M 2654
sure that you ask M 2626
such that all its M 2624
such way that they M 2576
sure that she got M 2528
such that they all M 2508
sure that this has M 2502
sure who they are M 2453
sure that this new M 2450
sure that all that M 2446
such sum and with M 2442
sure you get one M 2438
sure that one can M 2402
such that this can M 2380
such things that are M 2326
such things had not M 2254
sure that you buy M 2210
sure you get them M 2208
sure did not get M 2134
sure that you all M 2085
sure that they fit M 2081
such things and that M 2050
sure now that they M 2006
such that you may M 2004
sure how far they M 1960
sure that she saw M 1948
sure both you and M 1946
sure who you are M 1918
sure that her son M 1911
such that she did M 1886
sure they had all M 1840
sure that you both M 1824
sure they are being M 1808
sure was that she M 1806
such that she has M 1806
sure that all her M 1804
such that both are M 1800
sure that each and M 1788
sure now that you M 1782
such things may not M 1780
sure that you got M 1766
such that each has M 1764
sure did not see M 1763
sure that not all M 1760
sure you are both M 1756
sure that they and M 1740
sure that you pay M 1738
such aid does not M 1738
sure that both are M 1734
such men who are M 1732
sure how long this M 1730
sure you can read M 1728
such use was not M 1728
sure that any new M 1720
such that and let M 1708
sure that her own M 1698
sure did not mean M 1696
sure that this one M 1690
sure she was out M 1689
such they did not M 1680
such act does not M 1676
sure that his men M 1664
sure this did not M 1662
such things are all M 1662
sure that you add M 1650
such was not its M 1642
sure you are being M 1628
such that one does M 1616
sure how far this M 1610
sure she was being M 1608
such that and then M 1592
such that its use M 1586
such has not yet M 1576
sure that was all M 1575
sure that you may M 1568
sure that this can M 1562
sure they can get M 1560
such are they that M 1547
sure you get that M 1538
sure that you bring M 1538
such things are too M 1524
such that does not M 1520
such that then for M 1502
sure you get this M 1489
sure that you let M 1480
sure for how long M 1471
such that can not M 1462
sure you are that M 1450
sure that one was M 1446
such that this was M 1436
sure you are one M 1431
such things does not M 1428
such that and that M 1428
sure why she did M 1426
such and does not M 1426
sure that any man M 1424
sure that all things M 1420
sure that one does M 1408
sure things are going M 1402
such things that they M 1402
sure that this did M 1400
such that each can M 1400
such fear that they M 1398
sure you see that M 1390
such things are for M 1387
sure now that this M 1382
sure that all its M 1376
sure but that they M 1370
sure this can not M 1368
sure that its own M 1368
sure that his new M 1338
sure they are both M 1336
such law does not M 1330
sure that with his M 1318
sure she was that M 1316
such things are going M 1316
sure that this had M 1312
such fear and awe M 1310
such was not her M 1309
sure you can hear M 1302
sure that each new M 1302
such was this man M 1297
sure how far she M 1296
sure why this was M 1292
sure that they saw M 1286
sure that they both M 1284
such who are not M 1284
sure and did not M 1278
such men that they M 1276
such men are few M 1274
such things and not M 1272
such things are being M 1264
sure they are using M 1262
sure you are eating M 1260
such men are apt M 1256
such that any man M 1254
sure how she had M 1248
sure that god does M 1246
such things are now M 1240
sure you get out M 1238
such things was not M 1238
such and are not M 1238
such was his fear M 1224
sure that all men M 1220
such men are too M 1204
sure that each man M 1198
sure she was with M 1195
such that for this M 1184
such aid was not M 1182
sure and easy way M 1180
sure was she that M 1177
such that they now M 1166
sure are not going M 1164
sure why they are M 1156
sure they all had M 1150
sure that they use M 1150
such was his real M 1150
such things and they M 1150
such that his own M 1150
sure that they see M 1142
sure how long that M 1141
sure that you saw M 1140
sure that you mean M 1140
such that each set M 1136
such that all who M 1136
sure that they may M 1126
such was not our M 1124
sure she had all M 1110
such that one and M 1110
sure you can say M 1101
such was his way M 1101
sure but that this M 1092
sure did not act M 1089
sure you use them M 1084
such that they not M 1084
sure she was real M 1083
sure you can put M 1080
sure you are fit M 1078
such that each new M 1078
sure but that she M 1076
sure was not any M 1064
such was his idea M 1061
sure that you say M 1054
such men may not M 1048
sure how long you M 1044
such that all men M 1044
such that they fit M 1026
sure that god can M 1018
sure she has her M 1010
such that but for M 1002
such that not one M 1001
such has its own M 994
such for one year M 994
such that all are M 992
sure you put them M 984
such that one end M 984
such things and had M 980
sure you read all M 972
sure she got her M 972
sure you read and M 970
sure that for each M 970
such things with his M 970
sure that with all M 967
such use did not M 966
such that its own M 964
such things for him M 962
such that men are M 962
such was not yet M 960
sure now that his M 958
such that men and M 956
sure this was going M 945
such does not mean M 944
sure you let them M 934
sure you can pay M 934
such that they act M 934
such that they both M 932
sure you can add M 930
such things are apt M 928
such that all that M 924
such and can not M 920
such that man can M 918
such and did not M 916
such things and yet M 912
sure and see that M 911
such that one who M 908
sure but that you M 906
such things for them M 906
sure why they had M 902
sure that they too M 896
sure that this idea M 890
sure that you try M 888
sure she had his M 884
sure how she got M 884
sure she and her M 880
sure she can get M 870
such men who had M 866
sure that you too M 862
sure she saw him M 862
such that are not M 862
such that and this M 860
sure that his was M 852
sure she was lying M 852
sure and ask for M 852
sure that all air M 851
such use can not M 850
such that god can M 848
sure that you hear M 846
sure how they are M 846
sure was that they M 843
sure why that was M 838
such that each man M 837
such that they lead M 834
such things are with M 832
sure that each has M 826
such things are but M 826
such awe that they M 826
sure how they got M 822
sure this man was M 819
such that all but M 818
sure that his head M 816
such that one man M 814
sure that was his M 813
sure they can see M 812
sure that his old M 808
sure that all you M 808
such things with her M 808
such was her own M 805
such that they lie M 804
such had not yet M 800
sure that each team M 792
sure you deal with M 790
such can not but M 790
sure why you are M 788
such that one set M 786
sure how far his M 784
sure they are dry M 782
sure can not get M 781
sure that can not M 778
sums due and owing M 776
such that she may M 776
sure you two are M 770
such things for his M 770
such that with this M 770
sure that was why M 769
such men was not M 768
sure one does not M 766
sure that you run M 764
sure that for all M 762
such was now his M 762
such men had not M 760
such law can not M 758
sure that each day M 754
sure that each was M 752
sure that all new M 752
sure that not too M 750
such was his joy M 748
such things with you M 748
sure that you cut M 746
such things for her M 746
such things are far M 744
such things and was M 744
such things that you M 742
such men are now M 742
sure that death was M 736
such that for two M 736
sure that they who M 728
sure that had she M 728
such that this may M 722
sure god does not M 720
sure why they did M 716
sure that with this M 714
such that one was M 712
such things and then M 710
such that men can M 710
sure that was how M 708
such that and thus M 708
sure that men are M 706
sure you are now M 704
sure that but for M 704
such that she does M 704
such are his own M 702
sure that god did M 696
such that for and M 696
such joy that she M 696
such day not being M 696
such you can not M 694
such that but this M 694
sure you see how M 692
sure that all had M 692
such that each and M 692
sure bet that you M 690
such things for you M 688
such who can not M 686
such things with him M 686
sure his son was M 682
sure this one was M 681
sure she was too M 680
such things and who M 680
sure that this year M 679
sure that man was M 679
such that for one M 678
sure this was one M 675
sure they are set M 674
sure that you end M 674
such things they are M 674
sure that this may M 672
sure how you can M 672
such that both can M 672
sure you saw him M 670
sure she has had M 670
such act was not M 670
such use may not M 668
sure that our new M 664
such that they add M 664
sure you got that M 663
such men are all M 662
sure she was dying M 660
sure you mean that M 657
sure this was his M 656
sure than day and M 656
such that one had M 656
sure you can all M 651
sure then that you M 650
sure they are dead M 648
sure how this was M 646
sure that one had M 644
sure now that her M 644
sure they all get M 643
sure that his death M 641
sure who was going M 640
sure they are out M 632
such way that each M 632
such ease that they M 632
such they are both M 630
sure who was who M 628
sure can not see M 624
sure that you not M 620
such things than you M 618
such that all things M 618
sure that you two M 616
such that one day M 616
such that all can M 616
sure they all got M 614
sure that men and M 614
sure that war was M 612
sure that they mean M 612
sure you are far M 611
sure that was her M 610
sure that all team M 610
such they may not M 610
such that all and M 610
sure you can bring M 606
sure things are not M 606
such that its area M 606
such that and all M 604
such things are out M 601
such are all they M 598
such aid can not M 598
sure how old she M 596
such things that can M 596
such they are all M 596
sure how long his M 594
sure you get off M 592
sure that was one M 591
sure and let him M 590
such that its being M 590
sure you can win M 588
such who had not M 588
such hue and cry M 586
sure she had one M 585
sure that that man M 582
sure you are who M 578
sure that one who M 578
such was his aim M 577
sure you say that M 576
sure you got all M 572
sure was not easy M 571
sure you can buy M 570
such easy way out M 569
sure you see why M 568
sure you let him M 568
sure you get him M 568
such they are now M 566
sure that they put M 564
sure how you got M 564
sure one can not M 562
such way that all M 562
such act can not M 562
sure you read this M 558
such things and did M 558
sums that are not M 557
sure they are too M 554
sure but that his M 554
sure you are with M 552
sure this was all M 552
such that they too M 550
such was not for M 548
sure you are ill M 544
such that they get M 540
sure things did not M 538
such does not yet M 536
such was then his M 535
sure she was his M 534
sure she had any M 534
such that with each M 534
sure how far you M 532
sure how she did M 530
sure how all this M 530
sure that for him M 526
sure that with her M 524
sure she had got M 524
such things and can M 524
such that each may M 524
sure you get rid M 520
sure you did all M 520
sure they can hear M 520
such and that they M 520
sure you two can M 519
sure can not say M 518
sure then that she M 516
such was not new M 516
sure she had had M 514
sure and not let M 514
sure you buy one M 512
sure she had put M 512
such one can not M 512
such does not lead M 512
such things now and M 508
such that you had M 508
such that all his M 508
sums that they had M 507
sure they can use M 506
sure that she too M 504
sure that you deal M 502
sure they get all M 500
sure are they that M 499
such did not yet M 498
sure that now that M 496
such things and are M 496
sure you use this M 494
sure you got this M 494
sure you ask them M 494
such that they and M 494
sure you put that M 492
sure they see you M 492
such that each was M 492
such way that one M 491
sure that any two M 490
sure god did not M 490
such ease that she M 490
sure you can bear M 488
sure how things are M 488
such who did not M 488
such things not being M 488
sure that one man M 486
such things say that M 482
such are not yet M 481
such things are bad M 480
such men are far M 480
sure that all goes M 478
sure she has got M 478
sure you pay for M 476
sure how that was M 476
sure how they had M 474
sure and let you M 474
such things can and M 474
sure was not his M 472
such use has not M 472
sure that had they M 470
sure they had him M 468
sure she had read M 468
such that you get M 468
such she did not M 468
such and for its M 468
sure she can see M 466
sure her son was M 464
such way that its M 464
sure yet that she M 462
such things with them M 462
such sum for his M 462
sure you use all M 460
sure who had won M 459
such are all that M 459
sure that god and M 458
sure how far that M 458
sure that you was M 456
such that they see M 456
such fear that she M 456
such fear does not M 454
sure you see them M 452
sure that things get M 452
sure she was one M 451
sure that men who M 450
sure bet that they M 450
sure how you are M 448
sure that his two M 445
sure you are out M 444
sure that each bag M 444
such that any new M 444
sure was not for M 443
sure you get her M 442
such that you and M 442
such things was that M 441
sure and that was M 440
such that they each M 440
sure did not hear M 438
sure was not one M 437
sure she has all M 436
such things and you M 436
such and not with M 436
sure you was not M 432
sure that this boy M 430
sure does not act M 429
sure how they did M 428
such was not then M 428
such that men who M 428
such that but then M 428
such and they are M 428
such things and she M 426
such that each year M 426
sure you use one M 425
sure you all are M 424
such things are easy M 424
such that they bring M 418
sure you saw that M 416
such that they sum M 416
such act for that M 416
sure they are easy M 414
sure that they read M 414
such that any set M 413
such things than any M 412
such things and how M 412
sure they are real M 410
sure that for this M 410
sure she had them M 410
sure you got them M 408
sure you can deal M 408
sure that each had M 408
such sum each year M 408
sure but they may M 400
sure but death and M 400
such things that she M 400
such that this set M 400
such that its two M 400
such was her fear M 398
such things than they M 398
sure you can run M 396
sums that are being M 396
sums are now being M 396
such that now let M 396
such things long ago M 395
sure that now they M 394
sure that god who M 392
sure you can fit M 390
sure was that his M 390
sure they are that M 390
such things one can M 390
such that both may M 390
sure that now you M 388
such that few men M 388
such that but few M 388
such that all our M 388
such act had not M 388
sure you can fix M 386
such she can not M 386
sure you put all M 384
sure that her new M 384
sure each one has M 384
such that this new M 384
sure that that day M 382
such that its mean M 382
sure was his own M 380
such was his lot M 380
such that this has M 380
sure this has not M 379
sums for his own M 379
sure you long for M 378
sure that for any M 378
such that using this M 378
such this man was M 376
sure that all can M 374
such that with one M 374
such that had they M 374
sure that you act M 370
such things are real M 370
such was all that M 369
sure that they pay M 368
sure that all they M 368
sure that air can M 364
such ease that you M 364
sure did not say M 363
sure you get his M 362
sure that she ate M 362
sure that its use M 362
sure one for all M 362
such ease that one M 362
such are not our M 362
sure she did her M 360
sure but that all M 360
sure and can not M 360
such was our own M 360
such are all who M 360
such things for our M 358
such that any and M 358
sure did not let M 357
sure that they not M 356
sure that all key M 356
such things are put M 356
such awe and fear M 356
such are few and M 356
sure you see all M 354
sure that his way M 352
such men and they M 352
such aid did not M 352
sure you had all M 350
sure too that you M 350
sure that one and M 350
sure that his team M 350
sure and not too M 350
such things are new M 350
such that for then M 350
sure that that does M 348
sure that man has M 348
sure his head was M 346
sums that are now M 344
such things than she M 344
such things but they M 344
sure does not mean M 343
sure that now she M 342
such that eye has M 342
such law did not M 342
sure they saw him M 340
sure they can read M 340
sure but they are M 340
such was her idea M 340
such that things are M 340
such but that they M 340
such are not now M 340
sure they had got M 338
sure that with you M 338
sure that this area M 338
sure than this year M 338
such sum does not M 338
sure this was her M 337
sure was not doing M 336
sure that two and M 336
such was his end M 336
such that and any M 336
sure you read them M 334
sure that with our M 334
sure that was going M 334
sure that things did M 334
sure that one did M 334
sure his son had M 334
such that for for M 334
such men for his M 334
such use and with M 332
such things all his M 332
such can not act M 332
such and was not M 332
sure that you own M 331
sure that they hear M 330
sums that are due M 330
such that are all M 330
such area who are M 330
sure that god hath M 329
sums each year for M 329
sure you both are M 328
sure that they add M 328
such that and and M 328
sure that this day M 326
sure that both his M 326
sure that any and M 326
such joy that they M 326
such fear was not M 326
such things and get M 324
such that are both M 324
such men that are M 324
sure how long ago M 323
sure that each set M 322
sure she does her M 322
sure how and why M 322
such that this does M 322
sure for all that M 321
sure they are his M 320
sure that our men M 320
sure how they can M 320
sure her head was M 320
such things with any M 320
sure you read each M 318
sure was that this M 318
sure that that did M 318
sure that all she M 318
such that then and M 318
such that his death M 318
such and not for M 318
sure that this act M 316
sure her own was M 316
such things they had M 316
such that for them M 316
such that air can M 315
sure with his own M 314
sure they are big M 314
sure that with him M 314
sure they get them M 312
sure that they run M 312
sure each one was M 312
sums than they can M 312
such was his ill M 312
such that god has M 312
sure are not any M 310
such men they are M 310
such but they are M 310
sure that this fear M 308
such things that one M 308
such men does not M 308
such are not all M 308
sure she was near M 307
sure they are far M 306
sure that this old M 306
sure that had not M 306
such things had long M 306
sure that you who M 304
sure how long her M 304
such that they use M 304
such near and dear M 304
sure they see that M 303
sure that our two M 303
such was not now M 303
sure that this and M 302
sure she saw how M 302
such men are but M 302
sure they are long M 301
sure now that that M 301
sure was his aim M 300
sure that you sit M 300
sure that his idea M 300
sure she had him M 300
sure now that all M 300
such things you can M 300
such things that may M 300
such that both men M 300
sure that you now M 298
sums than she was M 298
such things and has M 298
sure they all are M 296
sure that this law M 296
such that you did M 296
such that they end M 296
such for his own M 296
such area and any M 296
sure you saw them M 294
sure you can act M 294
sure they got all M 294
sure that they each M 294
sure that she may M 294
sure that had you M 294
sure and let her M 294
such with all its M 294
such that its top M 294
such law was not M 294
such law had not M 294
such things but that M 293
sure all was going M 292
such things with all M 292
such things and for M 292
sure they are put M 290
such then was its M 290
sure who that was M 289
sure you bring them M 288
sure you are old M 288
sure who was doing M 288
sure that she put M 288
sure that one way M 288
such things you may M 288
such that our own M 288
such that and with M 288
sure you saw her M 286
sure they both had M 286
sure she was far M 286
sure that all but M 282
such that she and M 282
such law and may M 282
sure was that her M 280
sure that one end M 280
sure that any idea M 280
such that each arc M 280
sure you had one M 278
sure yet that you M 278
sure that was him M 277
sure did not fit M 277
sums they pay for M 277
sure you use that M 276
sure you see this M 276
sure you can beat M 276
sure that this way M 276
sure that they say M 276
sure that law and M 276
sure that both men M 276
such things are doing M 276
sure she was using M 274
sure you had them M 272
sure you can ask M 272
sure that our way M 272
sure that his real M 272
sure all this was M 272
such then was his M 272
such that one did M 272
such men may get M 272
such idea was that M 272
sure that this war M 270
such that for him M 270
such ease and with M 270
sure you see him M 268
such was not god M 268
such that things can M 268
such that each had M 268
sure was not that M 267
sure that things had M 266
sure how you did M 266
sure how this can M 266
sure death for him M 266
such that each path M 266
such men for its M 266
sure that her head M 264
sure that any real M 264
such aid has not M 264
sure you get both M 262
sure that she now M 262
sure that her death M 262
sure that both she M 262
such that they bear M 262
such that her own M 262
such fear did his M 262
such awe did they M 262
such men are out M 261
sure they are with M 260
sure that each year M 260
such things that had M 260
such that any path M 260
such men who can M 260
such can not and M 260
sure and ask him M 258
such men and that M 258
such are all things M 258
sure how that had M 256
sure and bring him M 256
sums than they had M 256
such that its end M 256
such had this man M 256
sure that our dear M 255
such that one eye M 254
such that and are M 254
such does not and M 254
sure you can too M 252
sure you and she M 252
sure was not her M 252
sure they are for M 252
sure that you lay M 252
sure that they arc M 252
sure she had that M 252
such that they cut M 252
such old and new M 252
such and for all M 252
such that each two M 251
sure you ask him M 250
sure why you did M 250
sure that his end M 250
sure she saw her M 250
such things are and M 250
such that both its M 250
such are not new M 250
sure they pay you M 248
sure any one who M 248
sure and cut him M 248
such things who can M 248
sure that that has M 246
sure did not ask M 246
sums are not set M 246
such that man has M 246
sure that any who M 244
sure that all six M 244
sure how far one M 244
sure but you are M 244
such men are for M 244
sure did not put M 243
sure things are all M 242
sure that for them M 242
sure that death has M 242
such that his head M 242
such that did not M 242
sure that ere long M 241
sure you put this M 240
sure you dry them M 240
sure you can and M 240
sure who was dead M 240
sure they had won M 240
sure that man can M 240
sure that has not M 240
sure how this had M 240
sure they all fit M 239
such things now that M 239
sure that they act M 238
sure does not get M 238
such that and each M 238
sure you all get M 237
sure you and all M 236
sure they are eating M 236
sure that you each M 236
sure that they ate M 236
such use and that M 236
sure way you can M 234
sure that things run M 234
sure she got out M 234
such things than men M 234
such men are our M 234
such but with its M 234
such act did not M 234
sure you bring him M 232
sure you bring all M 232
sure they had one M 232
sure that she goes M 232
sure that each job M 232
sure his death was M 232
sure but that our M 232
sure but that her M 232
such that they put M 232
sure they had them M 230
sure they can win M 230
sure then that they M 230
sure that that one M 230
sure how old they M 230
sure how long our M 230
sure and let them M 230
such that its long M 230
such that all may M 230
such that all her M 230
such men and things M 230
such area that has M 230
sure can not beat M 228
sure and you can M 228
such that you see M 228
sure that you don M 226
sure she can hear M 226
such that for both M 226
sure you let her M 224
sure that for his M 224
sure she was who M 224
sure that you fit M 223
such that all non M 223
sure way for you M 222
sure this was how M 222
sure they can all M 222
sure they are now M 222
sure she was now M 222
sure and does not M 222
such things than all M 222
such men and for M 222
sure you can set M 220
sure you ask all M 220
sure that his eye M 220
sure one was not M 220
sure but she had M 220
such that both and M 220
such men are doing M 220
sure you can cut M 218
sure why this has M 218
sure that for you M 218
sure that all old M 218
sure that all has M 218
such that but one M 218
such men are being M 218
such joy that all M 218
sure you can now M 216
sure that his act M 216
sure she has one M 216
sure how you get M 216
such our death may M 216
sure you read that M 214
sure that that had M 214
sure that his job M 214
sure that each area M 214
sure but this was M 214
such that each team M 214
such that each bit M 214
such men and not M 214
such things for all M 213
sure who this man M 212
sure that her two M 212
such that all this M 212
such men that our M 212
sure that was you M 211
such are not fit M 211
sure you may not M 210
sure she was eating M 210
sure all his men M 210
sums that they are M 210
sure you bring her M 208
sure you all can M 208
sure that death had M 208
such way that his M 208
such that with all M 208
such that they led M 208
such that men had M 208
such that each area M 208
sure they get out M 207
sure this was real M 206
sure they are who M 206
sure she got all M 206
sure one did not M 206
such you are not M 206
such things all her M 206
such that then this M 206
such that its net M 206
such that god may M 206
such that each job M 206
such does not add M 206
sure they got out M 204
sure that with them M 204
sure that they lie M 204
sure that she who M 204
sure act that way M 204
such that then all M 204
such that all new M 204
such and for any M 204
sure that she eats M 202
sure how you mean M 202
sure how they fit M 202
sure and all that M 202
such was her joy M 202
such joy that you M 202
such age that they M 202
sure they was not M 200
sure her son had M 200
such that this man M 200
such that its real M 200
such law has yet M 200
such law has not M 200
such and that this M 200
such act has not M 200
sure this was due M 198
sure that not for M 198
sure one day you M 198
sums then due and M 198
such that they run M 198
such she does not M 198
sure who was being M 196
sure that with god M 196
sure now that our M 196
such use are not M 196
such things for long M 196
such things and all M 196
such that each day M 196
such bias does not M 196
such and with its M 196
sure but that one M 195
such low and mean M 195
sure that with one M 194
sure that this box M 194
sure that any day M 194
sure but she was M 194
such way that you M 194
such way that any M 194
such use and act M 194
such things out for M 194
such that all six M 194
such are they now M 194
sure they got off M 193
such that for that M 193
such out and out M 193
sure you can with M 192
sure that with each M 192
sure that his man M 192
sure now she was M 192
such that this did M 192
such that new and M 192
such she was not M 192
sure you are set M 190
sure why she has M 190
sure that things got M 190
sure that things can M 190
sure that his long M 190
sure that for one M 190
sure that air and M 190
sure and get all M 190
such use that they M 190
such fear that his M 190
such are our own M 190
such and may not M 190
sure they get that M 189
sure they had both M 188
sure each team has M 188
sure and get them M 188
such things but had M 188
such that two are M 188
such that they then M 188
such man who had M 188
such are not for M 188
such aid for that M 188
such that its non M 187
sure you that you M 186
sure you see with M 186
sure you can fly M 186
sure you both get M 186
sure they are cut M 186
sure that new and M 186
sure that men can M 186
sure that each end M 186
sure that both our M 186
sure one has not M 186
sure and she did M 186
such things out and M 186
sure you did that M 185
sure you get any M 184
sure you can both M 184
sure that you win M 184
sure that you log M 184
sure now she had M 184
such was her real M 184
such things with our M 184
such things his own M 184
such that men may M 184
such sum was due M 184
such law nor any M 184
sure they are fit M 183
sure that things that M 183
sure you did too M 182
sure they had had M 182
sure they had any M 182
sure that for her M 182
sure that few men M 182
sums did not add M 182
such way with any M 182
such things for any M 182
such then was this M 182
such that thus for M 182
such that they saw M 182
such that one out M 182
such aid with his M 182
such they are far M 181
such that then one M 181
sure they pay for M 180
sure they let you M 180
sure they got him M 180
sure they fit and M 180
sure that they bring M 180
sure bet that this M 180
sums that she had M 180
such who does not M 180
such things you are M 180
such things and his M 180
such they are one M 180
such can not see M 180
sure you try out M 178
sure yet how she M 178
sure that you mix M 178
sure that each idea M 178
sure she saw his M 178
sure and bring her M 178
such things they may M 178
such that with any M 178
such that this area M 178
such men for her M 178
such mean and low M 178
such man who was M 178
sums due him for M 177
sure they are her M 176
sure that with that M 176
sure that its new M 176
sure his men had M 176
sure and ask you M 176
such things she was M 176
such things for one M 176
such that for its M 176
sure you pay them M 174
sure you are dead M 174
sure who you mean M 174
sure then that this M 174
sure that now and M 174
such was her end M 174
such things one has M 174
such things had any M 174
such men with him M 174
such god who now M 174
sure that old man M 173
sure that you hang M 172
sure that but few M 172
sure god was not M 172
sure and bring his M 172
sums that can not M 172
such things they did M 172
such things but not M 172
such law may not M 172
sure you can sit M 170
sure you are and M 170
sure was not this M 170
sure that they set M 170
sure she had won M 170
sure for one man M 170
sure death for any M 170
such was not easy M 170
such things they can M 170
such sum for each M 170
such for its own M 170
such bad things are M 170
sure you bring that M 169
sure you are real M 169
sure you put out M 168
sure you put him M 168
sure they hear you M 168
sure she has any M 168
such was its real M 168
such things and does M 168
such that had not M 168
such day being not M 168
such can not lead M 168
such that each eye M 167
sure you get things M 166
sure you are near M 166
sure that you arc M 166
sure now that god M 166
such things for two M 166
such things are due M 166
such things and say M 166
such that its new M 166
such heat that they M 166
such fear for her M 166
such was now for M 165
such that his son M 165
sure they may not M 164
sure that this long M 164
sure that man had M 164
such things and this M 164
such that for his M 164
such men than they M 164
such death was not M 164
such but does not M 164
such area for any M 164
sure was not far M 163
sure that goes for M 163
sure how one can M 163
such that few can M 163
sure you cut off M 162
sure this man had M 162
sure that both her M 162
sure now that was M 162
sure how they get M 162
sure and she was M 162
sure and not get M 162
sure all this has M 162
sums for each day M 162
such year and for M 162
such was all his M 162
such use may lead M 162
such things are read M 162
such that its head M 162
such that heat can M 162
sure you see her M 160
sure this had not M 160
sure they got one M 160
sure that this job M 160
sure that one may M 160
sure she saw you M 160
such that with its M 160
such that all they M 160
such does not bring M 160
such can not yet M 160
such are not its M 160
sure and get that M 159
sure was that one M 158
sure things are being M 158
sure that things ran M 158
sure that that can M 158
such use they are M 158
such that men with M 158
such men was that M 158
such men that this M 158
such may one day M 158
such are not real M 158
such are men and M 158
sure you got out M 156
sure you ask how M 156
sure way for them M 156
sure they can pay M 156
sure that you aim M 156
sure she saw them M 156
sure how this new M 156
sure but one that M 156
sure and say that M 156
such things are his M 156
such that has not M 156
such that god does M 156
such men that his M 156
such fear for his M 156
such can not bring M 156
sure you got him M 154
sure who this was M 154
sure way for him M 154
sure they all did M 154
sure that you bear M 154
sure that this too M 154
sure that his poem M 154
sure now that any M 154
sure death for all M 154
sure bet that she M 154
sums that her old M 154
such they had not M 154
such that two men M 154
such that any real M 154
such act may not M 154
sure how this one M 153
sure and put that M 153
sure that they ask M 152
sure that she sat M 152
sure that his god M 152
sure his son did M 152
sure but she may M 152
sure and bring you M 152
such use and not M 152
such things than for M 152
such sum can not M 152
such old and dear M 152
such man who has M 152
such ease that his M 152
such does not act M 152
such are not easy M 152
sure that this god M 151
sure that his dog M 151
sure that his dear M 151
sure you set this M 150
sure you are lying M 150
sure this was god M 150
sure this man does M 150
sure that max was M 150
sure that each boy M 150
sure she can use M 150
sure now and then M 150
sure his fly was M 150
sure for his own M 150
sure and why not M 150
sure all who are M 150
such way that both M 150
such things that was M 150
such things one does M 150
such sum and for M 150
such are our two M 150
such this does not M 149
such things for fear M 149
such does not fit M 149
sure you buy them M 148
sure yet that they M 148
sure way for one M 148
sure this one does M 148
sure that his aim M 148
sure that each can M 148
such things can lead M 148
such that they who M 148
such that she not M 148
such that death was M 148
such area does not M 148
such area and has M 148
such area and for M 148
sure you saw this M 146
sure you are dying M 146
sure you all had M 146
sure his leg was M 146
sure but did not M 146
such things and see M 146
such things and let M 146
such that this sum M 146
such that they try M 146
such that each non M 146
such real and new M 146
such now and then M 146
such men that you M 146
such death does not M 146
such age with its M 146
sure this was for M 145
sure this man has M 145
sure that you dry M 145
sure can not use M 145
such that man may M 145
sure why but she M 144
sure that war with M 144
sure that old age M 144
sure that his and M 144
sure that had this M 144
sure she has them M 144
sure she did this M 144
sure now that one M 144
sure how one goes M 144
sure each day that M 144
sure does not fit M 144
sure but all that M 144
such things that our M 144
such then was our M 144
such that they set M 144
such that she now M 144
such that and using M 144
such old men are M 144
such did not mean M 144
such area and who M 144
such are all our M 144
sure you get two M 143
sure you set them M 142
sure you ask her M 142
sure that his being M 142
sure how she does M 142
sure god has not M 142
such way that this M 142
such way that she M 142
such they too are M 142
such that its path M 142
such area can not M 142
sums that they may M 141
such was her age M 141
such and for that M 141
sure you see both M 140
sure that this all M 140
sure that they owe M 140
sure that they now M 140
sure that they end M 140
sure that our old M 140
sure she got them M 140
sure each man had M 140
sure death for them M 140
sure and put them M 140
such things are our M 140
such sum was not M 140
such men has not M 140
sure can not run M 139
sure can not let M 139
sure you got one M 138
sure they did all M 138
sure that they buy M 138
sure that its head M 138
sure that her boy M 138
sure can not read M 138
such too was its M 138
such does not say M 138
sure they get off M 137
sure you read any M 136
sure they saw her M 136
sure they get you M 136
sure that she not M 136
sure that her old M 136
sure his aim was M 136
sure did not pay M 136
sure both she and M 136
sure are not doing M 136
sure and was not M 136
sure and bring them M 136
sums that did not M 136
such things has not M 136
such things are non M 136
such they all may M 136
such that this act M 136
such that not too M 136
such that and its M 136
such and has not M 136
sure did not try M 135
such meat and meat M 135
sure you say you M 134
sure you had that M 134
sure they say that M 134
sure they fit with M 134
sure that two things M 134
sure that they sit M 134
sure that they bear M 134
sure that her dear M 134
sure she can read M 134
sure but you may M 134
such things she had M 134
such things and put M 134
such they are too M 134
such that any act M 134
such men who may M 134
such men and then M 134
such man for this M 134
such does not get M 134
sure you hear that M 133
sure how this all M 133
sure you was all M 132
sure you mean this M 132
sure that man did M 132
sure she did too M 132
such was not and M 132
such things are dead M 132
such that for low M 132
such that for long M 132
such that death can M 132
such that any non M 132
such men and with M 132
such aid may not M 132
sure that our son M 131
such that each end M 131
sure you try them M 130
sure they are but M 130
sure that one set M 130
sure each one had M 130
sure does not say M 130
sure did not use M 130
sure all was not M 130
sums may not add M 130
such that they say M 130
such that they arc M 130
such that and set M 130
such rings are not M 130
such death had not M 130
such are now being M 130
sure that his pet M 129
such things with one M 129
sure yet how long M 128
sure why she does M 128
sure they got them M 128
sure that now was M 128
sure that his use M 128
sure that for that M 128
sure she was cut M 128
sure and they are M 128
sure all that was M 128
sums they had had M 128
sums are then due M 128
sums and did not M 128
such was his old M 128
such things and why M 128
such things and thus M 128
such that they read M 128
such men and all M 128
such did not lead M 128
sure that his top M 127
such that this one M 127
such that air and M 127
such low pay that M 127
sure why you had M 126
sure they are our M 126
sure they are old M 126
sure that she read M 126
sure she was mad M 126
sure god was going M 126
sure god can not M 126
sure and get him M 126
such was his bad M 126
such things that this M 126
such things that his M 126
such that now they M 126
such men and had M 126
such area was that M 126
such area for one M 126
such are not men M 126
sure yet how far M 125
sure was not being M 125
sums that they can M 125
sure they each had M 124
sure that you then M 124
sure she got off M 124
sure and that you M 124
sure and get his M 124
such things than her M 124
such things hear his M 124
such things for each M 124
such things are both M 124
such they had now M 124
such plea was bad M 124
such one does not M 124
such being his own M 124
such air does not M 124
sure they did that M 123
sure you cut out M 122
sure too that she M 122
sure they can say M 122
sure that two men M 122
sure that all one M 122
sure than you are M 122
sure she saw that M 122
sure she had our M 122
sure she got his M 122
sure how she and M 122
sure can use you M 122
sure and see you M 122
sure and get this M 122
sure all things are M 122
such with his own M 122
such use and has M 122
such use and for M 122
such things that men M 122
such things all day M 122
such men that act M 122
such and who are M 122
sure you see and M 120
sure you did this M 120
sure yet how this M 120
sure who they all M 120
sure way for her M 120
sure this one did M 120
sure things are set M 120
sure how she can M 120
sure his end was M 120
sure did not aim M 120
sure and get her M 120
such you may hear M 120
such things but she M 120
such that war was M 120
such men for our M 120
such can not owe M 120
sure was not all M 119
sure this has all M 119
sure that you lead M 119
such that this end M 119
sure you had any M 118
sure they can put M 118
sure they are and M 118
sure they all saw M 118
sure that you fix M 118
sure that his leg M 118
sure that had his M 118
sure she did all M 118
sure how far off M 118
sure had not had M 118
sums are won and M 118
such way that for M 118
such things she did M 118
such things may and M 118
such they are being M 118
such then are our M 118
such that they got M 118
such men may bear M 118
such joy can not M 118
such foes are not M 118
sums set for him M 117
sure you try all M 116
sure this was why M 116
sure that this sum M 116
sure that one eye M 116
sure that her man M 116
sure that each meal M 116
sure one day they M 116
sure her death was M 116
sure and bring that M 116
sums are due and M 116
such too was his M 116
such then being our M 116
such singing men and M 116
such joy that his M 116
such idea was for M 116
such does not bear M 116
such are they not M 116
sure you cut them M 114
sure things are death M 114
sure they had her M 114
sure she had for M 114
sure she got that M 114
sure how they all M 114
sure how far our M 114
sure but that that M 114
sure and that they M 114
sure all that you M 114
such year does not M 114
such things with this M 114
such things that all M 114
such things for they M 114
such things and with M 114
such they are our M 114
such that they lay M 114
such that any day M 114
such sum not being M 114
such idea was now M 114
such had its own M 114
such bad things that M 114
sure they got that M 113
sure she did that M 113
sure did not bring M 113
sure can not but M 113
such law and that M 113
sure you use each M 112
sure you run and M 112
sure you hear them M 112
sure you get and M 112
sure this can all M 112
sure they are non M 112
sure that you die M 112
sure that our team M 112
sure that men did M 112
sure that his boy M 112
sure that both they M 112
sure that both had M 112
sure that being with M 112
sure than that they M 112
sure than she had M 112
sure his team was M 112
sure all you say M 112
such year and any M 112
such year and all M 112
such way and with M 112
such things was one M 112
such things are set M 112
such things and may M 112
such they are that M 112
such that few are M 112
such that are two M 112
such set for each M 112
such men you may M 112
such for they are M 112
such does not lie M 112
such but are not M 112
sure that his age M 111
sure and one that M 111
such are not far M 111
sure you can earn M 110
sure you all did M 110
sure you add this M 110
sure they had his M 110
sure they can and M 110
sure that this path M 110
sure that man does M 110
sure that each box M 110
sure how our earth M 110
sure and see him M 110
such year and its M 110
such way did they M 110
such was his air M 110
such things than our M 110
such that she saw M 110
such that but not M 110
such that all you M 110
such son and his M 110
such new things and M 110
such bid and ask M 110
such are fit for M 110
such and not its M 110
such and are thus M 110
sure and get one M 109
such that and one M 109
such and all that M 109
sure you get top M 108
sure who did this M 108
sure was her own M 108
sure they got his M 108
sure they are low M 108
sure that this goes M 108
sure that they deal M 108
sure that day that M 108
sure that all non M 108
sure that all get M 108
sure than this one M 108
sure she had both M 108
sure let not his M 108
sure his men are M 108
sure god had not M 108
sure and ask her M 108
such was his death M 108
such was his cry M 108
such things but are M 108
such things and try M 108
such things and now M 108
such that for are M 108
such that each bin M 108
such that and use M 108
such bias can not M 108
such are her own M 108
such are but too M 108
such and that its M 108
sure you got off M 107
such can not err M 107
sure you use both M 106
sure you pay off M 106
sure you get our M 106
sure you can let M 106
sure why this had M 106
sure they are apt M 106
sure that they won M 106
sure that that old M 106
sure that old men M 106
sure she was ill M 106
sure she goes with M 106
sure now you are M 106
sure how far out M 106
sure his way was M 106
sure and see her M 106
sure and ask them M 106
such things can now M 106
such that this law M 106
such that one way M 106
such that not both M 106
such that god was M 106
such that and has M 106
such men one can M 106
such men had had M 106
such men are men M 106
such men are mad M 106
such law and had M 106
such has not had M 106
such are all men M 106
such and that all M 106
such aid was that M 105
such aid and that M 105
sure why all this M 104
sure they are one M 104
sure they are bad M 104
sure that they was M 104
sure that death can M 104
sure than she was M 104
sure death for her M 104
such who may not M 104
such was his long M 104
such things with man M 104
such that you end M 104
such that now for M 104
such that each key M 104
such that any use M 104
such that and now M 104
such son may not M 104
such plea can not M 104
such fear can not M 104
such can not now M 104
such but did not M 104
such being does not M 104
such are all its M 104
such are all his M 104
sure that this set M 103
sure has not had M 103
sure any man that M 103
sure you all saw M 102
sure you all read M 102
sure was not due M 102
sure they had put M 102
sure they can fix M 102
sure they are lying M 102
sure she ate and M 102
sure men use not M 102
sure how things had M 102
sure his men got M 102
sure can not put M 102
sure but that god M 102
such year and not M 102
such was not one M 102
such things than are M 102
such things for its M 102
such they are and M 102
such that they fear M 102
such that both they M 102
such that all was M 102
such men did die M 102
such joy was not M 102
such being now our M 102
such are that god M 102
such are not being M 102
sure she was fit M 101
sure you was dead M 100
sure you two had M 100
sure you two did M 100
sure you are you M 100
sure you add them M 100
sure why you may M 100
sure was not with M 100
sure they are men M 100
sure that was who M 100
sure that this end M 100
sure that our use M 100
sure that any but M 100
sure she had set M 100
sure now that with M 100
such was his new M 100
such things with each M 100
such things may lead M 100
such things for this M 100
such that had she M 100
such sum has not M 100
such men with them M 100
such for man and M 100
such did not fit M 100
such can not bear M 100
such and deal with M 100
such and ask you M 100
sure you and they M 98
sure was not too M 98
sure that his day M 98
sure that any act M 98
sure how far her M 98
sure but that was M 98
sure but that its M 98
sure bet that any M 98
such was this new M 98
such things had all M 98
such that they pay M 98
such that and not M 98
such men and was M 98
such may read this M 98
such and they had M 98
such aid was being M 98
such that this year M 97
sure you too are M 96
sure you saw all M 96
sure you had this M 96
sure you both can M 96
sure you are for M 96
sure they deal with M 96
sure that they dry M 96
sure that any law M 96
sure that all ten M 96
sure she was off M 96
sure she has too M 96
sure his man was M 96
sure and she had M 96
sums now due and M 96
such was this war M 96
such use had not M 96
such things can get M 96
such things and doing M 96
such that that they M 96
such that that can M 96
such old men and M 96
such men than any M 96
such had they not M 96
such god can not M 96
such does not now M 96
such but for being M 96
such and all its M 96
such act was one M 96
sure you end with M 94
sure you bring this M 94
sure you bring out M 94
sure you are but M 94
sure yet that this M 94
sure this was our M 94
sure they put you M 94
sure that you owe M 94
sure that our real M 94
sure that his going M 94
sure than his own M 94
sure did not buy M 94
sums with ease and M 94
sums she had now M 94
such you are and M 94
such with its own M 94
such way can god M 94
such was she who M 94
such was now her M 94
such things who did M 94
such things they say M 94
such things than his M 94
such things not for M 94
such they can and M 94
such that with them M 94
such that war and M 94
such that too few M 94
such that this path M 94
such that then any M 94
such that his men M 94
such men are fit M 94
such does not pay M 94
such dear and near M 94
such and not any M 94
sure that our god M 93
sure for her that M 93
sure too that they M 92
sure they see how M 92
sure they had run M 92
sure they did things M 92
sure that they let M 92
sure that our war M 92
sure that his path M 92
sure that each does M 92
sure that but one M 92
sure that any use M 92
sure she was old M 92
sure see why you M 92
sure how old you M 92
sure death for you M 92
sums not yet due M 92
sums due them for M 92
such with our own M 92
such things she and M 92
such things but you M 92
such things both may M 92
such that that for M 92
such that god and M 92
such that for her M 92
such myth was that M 92
such man for you M 92
such law may lay M 92
such head that they M 92
such did not then M 92
such can not say M 92
such and that was M 92
such aid had not M 92
sums now and then M 91
sure you hear this M 90
sure too that all M 90
sure they had read M 90
sure that with any M 90
sure that this poem M 90
sure that his one M 90
sure that his big M 90
sure she eats and M 90
sure now why she M 90
sure how you and M 90
sure how that can M 90
sure his job was M 90
sure can see why M 90
sure both that they M 90
sure any and all M 90
sure and bring our M 90
such who was not M 90
such way can not M 90
such was but one M 90
such use can lead M 90
such things and one M 90
such that two and M 90
such that one not M 90
such that and can M 90
such that all air M 90
such men with all M 90
such men who see M 90
such men say that M 90
such men can bring M 90
such men and how M 90
such law for any M 90
such does not die M 90
such and bring them M 90
sure you can lay M 88
sure you bring with M 88
sure they did this M 88
sure they did and M 88
sure then that her M 88
sure that her real M 88
sure she was any M 88
such use was for M 88
such things who has M 88
such things was now M 88
such things that day M 88
such things that bring M 88
such things and our M 88
such that you not M 88
such that one year M 88
such that one idea M 88
such that his old M 88
such she was her M 88
such men can and M 88
such low pay and M 88
such long and far M 88
such heat that she M 88
such can not get M 88
such bad men may M 88
such awe did his M 88
such are not too M 88
such and thus are M 88
such and how far M 88
such was her death M 87
sure you use two M 86
sure you see things M 86
sure you lay out M 86
sure they put them M 86
sure they can beat M 86
sure that with its M 86
sure that then all M 86
sure that that they M 86
sure that meat and M 86
sure that his wit M 86
sure that her long M 86
sure that any old M 86
sure that all and M 86
sure one and all M 86
sure now they are M 86
sure max did not M 86
sure how big this M 86
sure his arm was M 86
sure for him who M 86
sure are not you M 86
sure and put out M 86
sure and get you M 86
sums than they are M 86
such was her way M 86
such use and are M 86
such they are real M 86
such men had any M 86
such joy that her M 86
such idea has not M 86
such but with that M 86
such but they did M 86
such being his way M 86
such are not bad M 86
such and who has M 86
such and that his M 86
such and for this M 86
sure this one has M 85
sure that all real M 85
sure now but that M 85
such things for that M 85
sure you say this M 84
sure you had him M 84
sure you all got M 84
sure then that his M 84
sure then that all M 84
sure that this kid M 84
sure that this deal M 84
sure that then they M 84
sure that our aid M 84
sure that men with M 84
sure that men had M 84
sure that his seat M 84
sure that bad man M 84
sure she may not M 84
sure his son got M 84
sure and had not M 84
such year did not M 84
such was his pet M 84
such things than with M 84
such that two things M 84
such that his use M 84
such that had any M 84
such that and they M 84
such men are both M 84
such man has yet M 84
such being can not M 84
such bad aim that M 84
such awe that his M 84
such are not his M 84
sure that our end M 83
such that man and M 83
such men with one M 83
sure you beat him M 82
sure you all see M 82
sure you all pay M 82
sure who she had M 82
sure they use them M 82
sure they fit you M 82
sure that you ate M 82
sure that was for M 82
sure that they cut M 82
sure that our man M 82
sure that his dead M 82
sure that bad things M 82
sure she had two M 82
sure she does deal M 82
sure how far all M 82
such you can add M 82
such year can not M 82
such was then and M 82
such things are god M 82
such they are but M 82
such that two new M 82
such that two can M 82
such that they ran M 82
such that they deal M 82
such than with its M 82
such rings can not M 82
such men for any M 82
such men for all M 82
such men and put M 82
such for him was M 82
such can not then M 82
such big things and M 82
sure you had got M 80
sure you got his M 80
sure you cut all M 80
sure you aim for M 80
sure why you got M 80
sure things can not M 80
sure that this big M 80
sure that they lead M 80
sure that our idea M 80
sure she was for M 80
sure one day she M 80
sure her arm was M 80
sure and that she M 80
such way that our M 80
such was our sad M 80
such was one day M 80
such was her air M 80
such things may mean M 80
such things and ask M 80
such men may say M 80
such men and his M 80
such men and get M 80
such may not bear M 80
such may for our M 80
such has all but M 80
such end they are M 80
such did not get M 80
such and that she M 80
such that all one M 71
sure does not pay M 68
sure did not die M 62
sure they had that M 60
sure how all that M 60
such was not going M 59
sure you add that M 57
such things are fit M 57
sure that had that M 55
such was not that M 55
sure did not set M 53
such was our law M 53
sure did not win M 51
such men than that M 51
such and that one M 50
sure they are off M 49
sure got that one M 49
sure that its top M 48
such was not being M 47
such that this being M 47
sure has not got M 46
sure does not now M 46
sure you are off M 45
sure with all that M 45
sure was not him M 45
sure and get out M 45
such this can not M 45
such that its set M 45
sure was too bad M 44
sure that each key M 43
sure how long one M 43
sure did not read M 43
sure did not end M 43
such that man was M 43
such things with that M 42
such that its heat M 42
such that fear and M 42
sure she did cry M 41
sure did not hang M 41
sure bet that one M 41
such was his and M 41
such that say that M 41
such law was that M 41
such can not long M 41
sure does not let M 40
sure does beat all M 40
sure did not sit M 40
sure did not fly M 40
sure can not ask M 40
sums that you may M 40
such men but that M 40
suit and tie and D 10192
sure that thou art D 4740
such was his zeal D 3372
suit and bow tie D 2849
suit and tie for D 2308
suit and red tie D 2295
such oil and gas D 2128
such wear and tear D 2019
suit that did not D 1924
suit and top hat D 1650
suit that was too D 1552
suit and tie with D 1424
suit its being that D 1420
suit that she had D 1395
suit and with his D 1268
suit and hat and D 1242
sunk sit sat sat D 1206
suit and did not D 1197
such that each row D 1172
suit that was not D 1105
sure that you wear D 1016
suit that does not D 984
suit did not fit D 948
suit with its own D 906
suit and tie that D 852
sunk with all his D 744
sure mom and dad D 722
suit him and his D 671
suit does not fit D 652
such art does not D 652
such zeal that they D 648
sunk and that due D 606
suit with his own D 595
sure thou art not D 553
suit and tie who D 548
sure that you hit D 532
suit and tie was D 522
sunk too low for D 520
suit for his own D 520
suit and does not D 519
suit has not yet D 516
suit that fit him D 506
such art can not D 504
suit was not one D 500
such may sue and D 494
sure that they met D 488
such low ebb that D 486
such tax can not D 478
suit that set off D 468
sued for does not D 462
suit and can not D 459
sure his gun was D 446
suit for him and D 444
suit you and you D 443
suit them and they D 431
sure this guy was D 430
suns may set and D 428
suit was not for D 414
sure that this guy D 410
suit and tie but D 410
such tax has not D 408
suit and was not D 407
sued for and won D 402
suit her and she D 398
sued him and won D 386
sunk with all her D 384
suit and cap and D 380
sure they are met D 376
sure you can hit D 374
sued him for his D 374
sure that his ears D 366
suit was one for D 366
sued for his own D 366
suit that was led D 364
suit and tie are D 354
suit but did not D 352
suit was too big D 350
such fun that they D 350
sure that tom was D 348
suit and she was D 346
suit and red bow D 346
suit that had not D 342
such that its tip D 342
suit does not mean D 340
suit and had his D 340
suit that she was D 336
suit that you can D 334
such are met with D 332
sure that bob was D 330
such tax does not D 314
such tax was not D 312
suit for that deal D 310
suit that fit her D 306
sunk with all its D 304
suit too big for D 303
sure his car was D 284
suit that fit his D 280
suit does not lie D 280
such that each sub D 277
suit got out and D 276
sunk and can not D 274
suit had not yet D 274
sued for his fee D 274
suit with all his D 270
such art was not D 270
suck you dry and D 268
such that any ray D 267
sure that each row D 258
suit and she had D 258
sure you hit him D 256
suit and his tie D 256
suit and hat with D 256
suit him and that D 254
sure that his gun D 251
suit and his new D 250
such ads are not D 250
such that art can D 249
sunk and one was D 248
suit and set off D 248
sure they are fed D 246
suns that set may D 246
suit and set out D 246
such art that they D 244
suit and all that D 240
suit his age and D 236
sure they had met D 234
suit with his tie D 234
sure dad did not D 232
sued him for its D 232
sued him and his D 232
such was his art D 232
suit for this sum D 230
sued for any act D 230
suit and you can D 228
sued for use and D 228
suit and with her D 226
suit and had her D 226
sure she had met D 224
suit and had not D 224
suit she had not D 222
suit was old and D 212
such zeal that his D 212
suit his own idea D 208
sure that you tie D 206
suit that they had D 206
sued for was not D 206
sure that all gas D 205
sure her car was D 204
suit now and then D 204
such fun with him D 204
suit for men and D 203
sure that his car D 202
such tax that was D 202
suit and rep tie D 199
sure that dad was D 198
sure his tie was D 198
sunk all his own D 198
suit and that was D 198
suit them but that D 197
suit and that she D 197
such tax was due D 196
suit that has not D 194
suit does not bar D 194
sued for did not D 192
suit and you are D 190
sure that tom had D 188
suns can set and D 186
sued for not doing D 186
such art did this D 186
sure that all oil D 185
suit who did not D 185
sure his hat was D 184
such fun with them D 184
suit that was now D 182
suit him for his D 181
such that all ions D 180
suit both you and D 179
sued them and won D 176
suit her and her D 175
surf with his men D 172
suit was new and D 172
suit was not that D 170
suit his own and D 170
sued him for two D 170
sure that mom and D 168
suit that was all D 168
sure his dad was D 164
suit with hat and D 164
suit did not get D 164
suit and that his D 164
sure that mom was D 162
suit was not yet D 162
suit has its own D 162
sure that she met D 160
sure that lee was D 160
sure that his dad D 160
suit was neat and D 160
suit ask for any D 160
sued and won his D 160
sure she was fed D 158
suit was far too D 158
suit with red and D 157
suit with tie and D 156
suit for his fee D 156
suit for her son D 156
sure that tom and D 154
sunk that low yet D 154
suit but does not D 154
such ions are not D 154
suit that you are D 152
such tax and for D 152
such fun for you D 152
sure her hat was D 150
suit you can not D 150
such zeal that she D 150
sues for his own D 148
sued him for non D 148
such art thou now D 148
suit may not win D 146
suit and head for D 146
sued for and was D 146
such tax may not D 146
sure tom did not D 144
suit did not lie D 144
suit and tie had D 144
suit and put them D 144
suit and his old D 144
sued for its own D 144
suit that was far D 143
sure you hit all D 142
suns had set and D 142
suit you and that D 142
suit with red tie D 142
suit and that they D 141
suck them dry and D 140
such that its peak D 140
such fun that she D 140
suit and get out D 139
sure she had hit D 138
suit him but that D 138
such zeal for his D 138
such long ears that D 138
suit with him and D 136
suit for his son D 135
suit but ill with D 135
suit and put him D 134
sued him for this D 134
such that each leaf D 133
suit was set for D 132
suit that was being D 132
suit she did not D 132
suit any and all D 132
suit and put his D 132
suit that was cut D 131
suit with bow tie D 130
suit them and that D 130
sued him for not D 130
suit for her own D 129
such things that art D 129
sure they had hit D 128
sure that her art D 128
sure mom was not D 128
surd that can not D 128
suit set off his D 128
suck him off and D 128
suck him dry and D 128
sure they are neat D 126
suit was set off D 126
suit that can not D 126
sued who has not D 126
suit them for this D 124
suit that was his D 124
suit and tie this D 124
such tax year and D 124
such tax for each D 124
sure that they hit D 122
sure that guy was D 122
sure mom did not D 122
sunk his head and D 122
suit you that far D 122
suit with his hat D 122
suit and was now D 122
suit and his head D 122
such fun with you D 122
sure that any tax D 121
suit and hat that D 121
sure that her ears D 120
suit with all its D 120
suit that are not D 120
suit for each day D 120
suit and tie all D 120
suit and that this D 120
suit and his red D 120
suit and hat for D 120
sued for was due D 120
such was her zeal D 120
such that ions are D 120
sums for each row D 118
suit that was two D 118
suit that was then D 118
suit for that sum D 118
suit did not for D 118
suck that one dry D 118
such that they met D 118
such fun that you D 118
surf was not too D 116
suit and low hat D 116
sued him for her D 116
suit for use and D 115
sure was hot for D 114
suit and who had D 114
sued for his pay D 114
sued for and that D 113
sure you met him D 112
suit and ask for D 112
such fun being with D 112
sure that this art D 110
sure that they wear D 110
sure that ted was D 110
sure that bob had D 110
sure how they met D 110
suit with our own D 110
suit for one year D 110
suit and then our D 110
suit and sat with D 110
suit them for use D 109
sued him for one D 109
suit was not going D 108
suit and red and D 108
suit and put her D 108
such tax for any D 108
such fun for them D 108
sure that eve had D 106
sure that art and D 106
sure mom does not D 106
sure dad was not D 106
suit her but that D 106
suit and tie than D 106
suit and all his D 106
such art and its D 106
suit and has not D 105
sure that lee had D 104
sure that his mom D 104
sure that her dad D 104
sure her mom was D 104
suit and his hat D 104
sues him for his D 104
sued him for that D 104
suck out all its D 104
such art has its D 104
sure that his bed D 103
suit set off her D 103
suit and set his D 102
suit and one for D 102
suit and his own D 102
suit and her own D 102
such art that one D 102
sunk with each day D 101
suit with her own D 101
suit and they can D 101
suit and may not D 101
suit and are not D 101
such that each ray D 101
sure thou art all D 100
sure his mom was D 100
suns than our own D 100
sunk too low and D 100
suit his own way D 100
suit did not bar D 100
suit and hat was D 100
sued for that sum D 100
suck now and then D 100
sure that his tie D 98
sure that her mom D 98
suit you can wear D 98
suit was wet and D 98
suit was not his D 98
suit she had had D 98
such things for fun D 98
such art that his D 98
sure this guy does D 97
sure you hit them D 96
sure that his hat D 96
sure that her car D 96
sure that bob and D 96
suit set off with D 96
suit but was not D 96
suit and cap with D 96
sues you and you D 96
sued and won her D 96
such hot and dry D 96
suit for its own D 95
sure she doth not D 94
sure his ears had D 94
sure his art may D 94
sunk and they had D 94
suit was wet with D 94
suit and this was D 94
suit all day and D 94
sued does not mean D 94
such that each beam D 94
sure you can swing D 92
sure that jean was D 92
sure dad does not D 92
suit for any act D 92
suit and had put D 92
such zeal and with D 92
sure you can wear D 90
sure they get fed D 90
suit with top hat D 90
suit off him and D 90
suit her age and D 90
suit and tie each D 90
suit and for his D 90
such was his hap D 90
such sum per day D 90
suit had run out D 89
sure that van den D 88
suit with cap and D 88
suit him for this D 88
suck out his own D 88
such zeal for god D 88
such that tan and D 88
suit them they can D 87
sure was fun and D 86
sure they met with D 86
sure that dad had D 86
suit was not too D 86
suit both him and D 86
suit and red fez D 86
suit and pay for D 86
suit and her long D 86
sued for this sum D 86
such fun with her D 86
sure this guy had D 84
sure that each car D 84
suit was not new D 84
suit off and put D 84
suit her that day D 84
suit had met with D 84
suit did not mean D 84
suit and his long D 84
sued for her own D 84
such fee for his D 84
suit him for long D 83
sure you tie them D 82
sure they had fun D 82
sure dad had not D 82
suit she had put D 82
suit and tie got D 82
suit and they are D 82
surf and did not D 81
sure bob did not D 80
suit was not being D 80
suit she was now D 80
suit its own bias D 80
sued him and got D 80
sued and can not D 80
sure that each sub D 61
suit all day long D 55
suit you are going D 54
suit her and that D 53
such zeal that one D 49
such wear and use D 49
suit them and are D 48
sure that all tax D 47
suit them they are D 47
suit them and not D 45
sulk and did not D 44
suit and cap that D 44
surf all day and D 43
sure had fun with D 43
suck out all that D 42
suit her but she D 41
suit for fear that D 41
sure this guy did D 40
