eat before them . M 2320
eat without him . M 776
eat something now . M 652
eat another one . M 550
eat something now ? M 358
eat without them . M 335
eat without her . M 326
eat without you . M 322
eat little meat . M 306
eat another meal . M 286
eat something too . M 262
eat before long . M 218
eat another day . M 194
eat without fear . M 186
eat before him . M 161
eat mostly meat . M 126
eat something bad ? M 116
eat around them . M 116
eat around six . M 108
eat rotten meat . M 102
eat before men . M 102
eat strange things . M 98
eat before then . M 86
eat through them . M 84
eat behind him . M 84
eat beside him . M 82
