eaten a thing all M 1202
eaten a thing for M 616
early i do not M 330
eager i am for M 262
eaten i do not M 148
eaten a thing and M 128
early i am going M 120
earning i do not M 98
early i am off M 85
