easier for you . M 31842
easier for him . M 21280
easier for them . M 17534
easier that way . M 15276
easier for her . M 14424
easily put off . M 6522
easier for you ? M 4278
easier this way . M 3992
easier than that . M 3286
easier than this . M 2802
easily than men . M 1824
easily see them . M 1796
easier way out . M 1660
earned for him . M 1638
easily see why . M 1632
easily for him . M 1608
easily with them . M 1482
easily put out . M 1320
easier for all . M 1222
easily with him . M 1162
earned for them . M 1160
easily cut off . M 1156
earned each year . M 1150
easily for you . M 982
easily that way . M 932
easier than that ? M 928
easier for him ? M 886
easier for her ? M 868
easily this way . M 840
earned his pay . M 838
easier for them ? M 826
easily for her . M 820
easily read off . M 770
easily with her . M 702
easier for men . M 690
easier for both . M 658
earned that day . M 628
easily get out . M 620
easily read them . M 602
easily for them . M 582
easier than that ! M 562
easily deal with . M 558
easier with you . M 546
earned that year . M 534
easily see that . M 522
easier than now . M 510
easily than you . M 488
easier with him . M 480
easier for you ! M 472
earned each day . M 467
easier than this ! M 466
earned this year . M 426
easier for that . M 418
earned his wings . M 416
easily get them . M 404
earned for her . M 388
easily see him . M 382
earned his death . M 378
easily than that . M 352
easier with them . M 348
easier than you . M 346
easier than men . M 338
earned for you . M 316
easier with two . M 312
easier than his . M 300
easier than this ? M 298
easily die out . M 294
easily let off . M 284
easily beat them . M 270
easily with you . M 264
easily cut out . M 262
easily than one . M 256
easily run off . M 256
easily than this . M 254
easily for you ? M 238
easily than she . M 232
easily use them . M 226
easily than they . M 226
easier each year . M 220
easier each day . M 218
easily beat him . M 214
easily hear him . M 212
easier this year . M 210
easily see her . M 208
easily dry out . M 206
easily than him . M 202
easily see this . M 202
easier with age . M 200
earned and won . M 198
earned his way . M 196
easier than one . M 194
easier that way ! M 190
easily set out . M 184
easily set off . M 180
easier for him ! M 180
easily hear them . M 178
easily get one . M 172
easier for who ? M 171
easily let die . M 170
earned them all . M 170
earned that way . M 170
easier that way ? M 168
easier than not . M 164
easier for man . M 158
easier for them ! M 154
easier way out ? M 150
easily got out . M 144
easily see you . M 142
easily beat you . M 142
easily bear them . M 142
earned this one . M 140
easily that day . M 138
easily than now . M 138
easier than doing . M 138
earthly use for . M 138
easily mean death . M 136
easily fix that . M 136
easily with this . M 134
easier with her . M 134
easily see now ! M 132
easily got off . M 130
easier than dying . M 128
easily run out . M 126
easier than two . M 126
easily with men . M 122
easily say that . M 122
earned this way . M 120
easily than men ? M 118
easily for that . M 112
easily beat that . M 112
earned with them . M 112
earned her pay . M 112
easily each day . M 108
earned thus far . M 108
earned and due . M 108
earned our pay . M 104
earned long ago . M 104
easier than lying . M 102
easier with one . M 100
earned her wings . M 100
earned and got . M 100
earned day off . M 99
easily get off . M 98
easily too long . M 96
easily hear you . M 96
easily won out . M 94
easily lead him . M 94
easily than man . M 90
earned her way . M 90
easily this year . M 88
easier this way ? M 88
easier for her ! M 88
earned this job . M 84
easily see how . M 80
easily does this . M 80
earned that one . M 80
