me and wanted to M 23404
me and helped me M 20336
me with regard to M 20202
me and called me M 17658
me and showed me M 14276
me and pulled me M 13154
me she wanted to M 11870
me long enough to M 11542
me with copies of M 10956
me and looked at M 9770
me you wanted to M 9738
me and seemed to M 9191
me and through me M 8987
me all through the M 8986
me and wanted me M 8710
me and taught me M 8428
me and handed me M 8422
me and around me M 7956
me that instead of M 7808
me and begged me M 7234
me and pushed me M 6782
me all manner of M 6594
me get through the M 6224
me and treated me M 5896
me and listen to M 5639
me that before the M 5576
me far beyond the M 5510
me and thanked me M 5426
me and turned to M 5356
me now return to M 5070
me all through my M 4762
me that wanted to M 4648
me and wished me M 4384
me and forced me M 4380
me they wanted to M 4328
me for advice on M 4252
me out through the M 4234
me with access to M 4190
me and filled me M 4054
me that something is M 4016
me with something of M 3858
me his version of M 3694
me with feelings of M 3558
me not forget to M 3536
me and opened the M 3420
me and caused me M 3398
me and lifted me M 3286
me that neither of M 3254
me that before he M 3196
me and turned me M 3018
me and behind me M 2996
me with plenty of M 2990
me going through the M 2942
me all around the M 2872
me that neither the M 2836
me and looked up M 2777
me and caught me M 2732
me and picked up M 2722
me and looked me M 2632
me any closer to M 2616
me you should be M 2590
me not forget the M 2528
me two copies of M 2516
me and kicked me M 2460
me and guided me M 2458
me far beyond my M 2376
me for something to M 2318
me was enough to M 2304
me and kisses me M 2248
me she wanted me M 2224
me and smiled as M 2180
me and warned me M 2134
me two pieces of M 2044
me and return to M 2038
me and pulled my M 2034
me that before we M 2020
me and wished to M 1982
me get through it M 1950
me that unless the M 1938
me and answer me M 1936
me any number of M 1932
me that without the M 1910
me how pleased he M 1882
me and follow me M 1868
me who should be M 1862
me for better or M 1850
me and begins to M 1848
me and pulled the M 1840
me who wanted to M 1820
me and closed the M 1814
me this chance to M 1808
me and accept me M 1806
me hath lifted up M 1802
me she thought it M 1798
me and follow my M 1781
me they seemed to M 1768
me and before me M 1760
me and placed me M 1758
me say something to M 1738
me that through the M 1718
me and raised me M 1716
me all worked up M 1714
me you wanted me M 1686
me and agreed to M 1676
me and remind me M 1672
me that something of M 1666
me long before the M 1664
me that seemed to M 1662
me and invite me M 1646
me with strength in M 1636
me she seemed to M 1632
me and changed my M 1628
me mad enough to M 1618
me and answer my M 1592
me and causes me M 1578
me that sooner or M 1562
me his letter to M 1558
me that neither he M 1538
me that unless we M 1536
me and turned my M 1528
me and picked me M 1520
me and accept my M 1519
me his desire to M 1518
me and allowing me M 1496
me and became my M 1492
me they should be M 1486
me see myself as M 1472
me with something to M 1458
me and through the M 1452
me and become my M 1452
me and helped to M 1440
me and walked to M 1430
me and expect me M 1430
me they wanted me M 1394
me for advice in M 1392
me for dwelling on M 1376
me and refuse to M 1368
me and accuse me M 1342
me with orders to M 1336
me that someone is M 1336
me and filled my M 1336
me and locked me M 1332
me and advise me M 1312
me and chased me M 1264
me and smiled at M 1258
me and called to M 1256
me say something of M 1248
me and walked me M 1246
me get through my M 1232
me and passed on M 1228
me and instead of M 1218
me her version of M 1214
me and punish me M 1198
me and beyond me M 1198
me you wished to M 1194
me and placed it M 1174
me for advice as M 1157
me and turned the M 1156
me and called my M 1156
me that should be M 1154
me and opened my M 1150
me and watching me M 1146
me and enable me M 1144
me and assist me M 1144
me and pointing to M 1140
me with offers of M 1128
me out before the M 1128
me any chance to M 1128
me you intend to M 1122
me and starts to M 1116
me see something of M 1106
me for something in M 1104
me old before my M 1090
me and called the M 1082
me and cleanse me M 1076
me that something in M 1070
me and inform me M 1064
me that someone in M 1060
me but little to M 1058
me they thought it M 1048
me with strength to M 1044
me easy access to M 1030
me for reasons of M 1016
me and opened it M 1006
me and should be M 1004
me she thought the M 1002
me and toward the M 1002
me and bought me M 1002
me than anyone in M 1000
me and turned on M 996
me with something in M 990
me any amount of M 990
me for laughing at M 984
me and rescue me M 974
me and seized me M 970
me not merely to M 960
me and seized my M 957
me get something to M 952
me for something or M 948
me you behold the M 942
me she needed to M 936
me was always the M 932
me and passed me M 928
me run through the M 926
me too someone is M 922
me and showed it M 922
me and caught my M 912
me and without me M 910
me and another to M 908
me and across the M 908
me that needed to M 906
me old enough to M 896
me and touching me M 894
me with another of M 890
me saw indeed the M 890
me she looked at M 886
me she wished to M 884
me and handed it M 882
me with images of M 880
me how strange it M 866
me for copies of M 856
me get closer to M 852
me long before he M 850
me and thought it M 850
me this letter to M 848
me and scared me M 846
me with visions of M 838
me and nursed me M 830
me that nobody in M 828
me and assure me M 828
me and changed the M 825
me one moment of M 822
me near enough to M 812
me and raised an M 812
me for standing up M 808
me and inside me M 804
me and offers me M 802
me and walked on M 799
me and pardon me M 798
me two guides to M 796
me that behind the M 794
me and abused me M 794
me out behind the M 792
me for advice or M 792
me and smiled in M 792
me and placed the M 790
me and pushed the M 784
me and sought to M 778
me any desire to M 774
me and washed me M 772
me and joined the M 772
me had something to M 766
me how little the M 764
me and shared my M 764
me and defend me M 764
me and threaten me M 760
me but through my M 756
me and direct me M 750
me and attack me M 750
me that unless he M 748
me and thought of M 744
me she thought he M 742
me and lifted my M 740
me for choosing so M 738
me that beyond the M 726
me and yelled at M 722
me and drives me M 722
me and desire to M 720
me ask myself if M 716
me and permit me M 716
me and cursed me M 712
me that caused me M 704
me and needed me M 704
me off before the M 700
me and guides me M 700
me get cleaned up M 698
me and forget me M 696
me and opened up M 693
me and turned it M 688
me and wishes to M 680
me that almost the M 672
me for something of M 672
me and allows me M 672
me than without me M 670
me that nature is M 668
me and placed in M 666
me and changed me M 662
me and missed me M 660
me and escort me M 660
me with proofs of M 658
me and served me M 658
me far better to M 656
me with hatred in M 650
me and killed me M 650
me and pulled up M 648
me how little we M 646
me put something on M 640
me and without my M 638
me and laughing at M 638
me and wanted my M 632
me with murder in M 630
me has helped me M 626
me she should be M 618
me and pleased me M 618
me see myself in M 614
me and looked as M 614
me and locked it M 612
me they thought the M 608
me and insist on M 605
me and carrying me M 604
me has fallen the M 602
me and beside me M 602
me and lifted the M 600
me how deeply he M 596
me hear something of M 592
me and appears to M 592
me and formed me M 590
me and offering me M 588
me and pushed my M 584
me who seemed to M 582
me and reform of M 582
me was whether the M 580
me that whether or M 580
me and points to M 580
me not merely an M 578
me for alluding to M 578
me and signed by M 574
me out across the M 572
me one minute to M 572
me and through my M 572
me and looked in M 569
me put myself in M 568
me not wander in M 566
me and showed the M 566
me any answer to M 564
me and kisses my M 562
me one moment to M 560
me and raised the M 560
me out beyond the M 556
me with intent to M 554
me that belongs to M 554
me and closed my M 554
me and pushes me M 552
me and betray me M 550
me not forget my M 546
me and walked up M 546
me his letter of M 544
me and threaten to M 542
me now instead of M 540
me and accept the M 538
me that should the M 536
me and joined me M 536
me and before the M 536
me his answer to M 534
me get through to M 534
me and trusts me M 534
me and raised my M 534
me with desire to M 532
me that before my M 530
me any chance of M 530
me out toward the M 526
me for dwelling so M 526
me and calmed me M 523
me was engaged in M 522
me bad enough to M 522
me any notice of M 522
me and failed to M 522
me was whether or M 518
me that earlier in M 518
me and wasted my M 516
me this appears to M 514
me off through the M 514
me that helped me M 512
me and accusing me M 512
me with horror to M 510
me and pointing at M 510
me this before we M 506
me that virtue is M 506
me and sought my M 506
me and rushed me M 506
me and wanted the M 502
me that prayer is M 500
me you needed to M 498
me was starting to M 498
me are likely to M 498
me that letter of M 496
me and killed my M 496
me and forget the M 496
me all summer to M 496
me with almost the M 490
me that another of M 490
me see through the M 490
me and release me M 490
me and around the M 490
me how little he M 486
me ask whether the M 486
me not merely as M 485
me for repeating it M 482
me and became the M 482
me too little to M 480
me and wishes me M 480
me and landed on M 480
me they wished to M 478
me and engaged me M 478
me his copies of M 476
me can hardly be M 476
me and attend to M 476
me with enough to M 474
me out before he M 474
me but seemed to M 474
me and served as M 474
me and begged to M 474
me for building up M 472
me and arrest me M 472
me with little to M 470
me and proved to M 470
me and guided my M 468
me you missed me M 462
me far enough to M 462
me that nobody is M 460
me off toward the M 460
me six copies of M 456
me for almost an M 456
me and touching my M 456
me and admire me M 456
me and wonder if M 454
me and become the M 454
me you thought it M 450
me not merely the M 448
me and ruined my M 448
me long before we M 446
me his advice as M 444
me how greatly he M 442
me but little in M 442
me any advice on M 442
me and reject me M 442
me and charge me M 442
me with advice on M 440
me you forgot the M 438
me that belief in M 438
me and report to M 438
me this letter of M 436
me and pulled at M 436
me they thought he M 432
me say something in M 430
me and forget it M 430
me that whether the M 428
me that amongst the M 428
me rid myself of M 426
me now through the M 426
me ask whether it M 426
me and through it M 426
me use myself as M 424
me that neither in M 424
me now before the M 424
me for allowing the M 424
me for allowing my M 424
me and thought he M 424
me and ordering me M 424
me and caught the M 424
me his blessing to M 422
me for violating the M 422
me that changed my M 420
me and spoken to M 420
me and shared the M 420
me and thought me M 418
me and praise me M 418
me his answer in M 416
me and regard me M 416
me was almost as M 415
me how lonely he M 414
me but through me M 414
me and teaches me M 414
me and compel me M 414
me all across the M 414
me with little or M 412
me was caused by M 412
me how simple it M 412
me and placed my M 412
me and follow the M 412
me and blamed me M 412
me you refuse to M 410
me was turned to M 410
me was something of M 410
me say another thing M 410
me weak enough to M 408
me out instead of M 406
me not injure the M 406
me add something to M 406
me with almost as M 405
me she wanted the M 402
me get someone to M 402
me was likely to M 400
me his regret at M 400
me has become the M 400
me with something as M 399
me was called the M 398
me sin awards me M 398
me had better be M 398
me and washed my M 398
me and neither of M 396
me and looked to M 396
me and locked the M 396
me long before my M 394
me this seemed to M 392
me with pieces of M 388
me this should be M 388
me that whilst the M 388
me and depart on M 388
me you thought of M 386
me that toward the M 386
me with wonder in M 384
me was afraid to M 382
me that whereas the M 380
me see beyond the M 380
me for myself or M 380
me for breeding up M 380
me and forces me M 380
me with horror in M 378
me was simply to M 378
me she thought of M 378
me how anxious he M 378
me ask myself the M 378
me and spared my M 378
me and begged my M 378
me say something on M 376
me one chance to M 376
me for pointing it M 374
me and rushed to M 374
me and passed the M 374
me with wonder at M 372
me that drives me M 372
me that neither my M 370
me that appears to M 370
me how little it M 370
me and decide to M 370
me and called on M 370
me and return me M 368
me that anyone in M 366
me they needed to M 364
me but wanted to M 364
me too deeply to M 362
me that through my M 362
me any advice or M 362
me and filled the M 362
me she looked up M 360
me for repeating the M 360
me ask pardon the M 360
me with smiles of M 358
me that plenty of M 358
me that letter to M 358
me and watching the M 358
me with kisses of M 356
me was beyond my M 356
me that whether we M 356
me that someone at M 354
me and anxious to M 354
me you wanted it M 352
me was simply the M 352
me was afraid of M 352
me you wanted the M 348
me long before it M 348
me and waited to M 348
me and pulled it M 348
me and buried me M 348
me too sacred to M 346
me she turned to M 346
me not unlike the M 346
me for yielding to M 346
me and lifted up M 344
me and wanted us M 342
me and reached the M 342
me and handed the M 342
me that amount of M 340
me and finish the M 340
me and devour me M 340
me for something he M 338
me cut through the M 338
me and helped in M 338
me then return to M 336
me has something to M 336
me and stayed in M 336
me and seized the M 336
me and played the M 336
me and called it M 336
me for allowing it M 334
me and watching my M 334
me and inside of M 334
me and expect to M 334
me then devoid of M 332
me that summer in M 332
me but little of M 332
me and orders me M 332
me you thought he M 330
me with notice of M 330
me for ignoring the M 330
me and needed to M 330
me she worked in M 328
me mean enough to M 328
me any better if M 328
me and seemed so M 326
me was unable to M 324
me that spirit of M 324
me was something to M 322
me this summer to M 322
me they intend to M 322
me had wanted to M 322
me for carrying on M 322
me and without the M 322
me and starting to M 320
me you called me M 318
me off across the M 318
me has caused me M 318
me going through my M 318
me and enjoying the M 318
me and before he M 318
me too stupid to M 316
me his design of M 316
me had turned to M 316
me any further in M 316
me and unable to M 316
me was whether it M 314
me any weight in M 314
me and offering to M 314
me was watching the M 312
me that filled my M 312
me his report on M 312
me who killed my M 310
me this amount of M 310
me die before my M 310
me and killed the M 310
me see something to M 308
me new strength to M 308
me his advice on M 308
me but instead of M 308
me but failed to M 308
me that already the M 306
me and caused my M 306
me for appearing in M 305
me for carrying the M 304
me and shaped my M 304
me and plenty of M 304
me and another of M 304
me was forced to M 302
me and whether or M 302
me new proofs of M 300
me her desire to M 300
me for doubting the M 300
me for adhering to M 300
me that causes me M 298
me out around the M 298
me get access to M 298
me any degree of M 298
me and greets me M 298
me with something so M 297
me and assist in M 297
me read something to M 296
me not guilty of M 296
me for opposing the M 296
me and reward me M 296
me and called in M 296
me and worked on M 295
me and points at M 294
me this summer in M 292
me man enough to M 292
me and praise my M 292
me and excuse me M 292
me they pleased of M 290
me for standing by M 290
me any manner of M 290
me and reduce me M 290
me and pushed it M 290
me and backed me M 290
me and turned in M 289
me that little is M 288
me out sooner or M 288
me not suffer the M 288
me his spirit to M 288
me his edition of M 288
me has taught me M 288
me for behaving so M 288
me and showed no M 288
me and pleases me M 288
me how serious it M 286
me how scared he M 286
me his manner of M 286
me his blessing on M 286
me and smiled the M 286
me and return the M 286
me this moment to M 284
me that degree of M 284
me big enough to M 284
me off before we M 282
me his blessing in M 282
me are enough to M 282
me and remove the M 282
me and grabbing my M 282
me see whether the M 280
me pay through the M 280
me one little thing M 280
me get caught up M 280
me and whether he M 280
me and filled it M 280
me all through in M 280
me was through the M 278
me was anxious to M 278
me how little my M 278
me and spared me M 278
me you should do M 276
me who needed to M 276
me this chance of M 276
me that without my M 276
me and pointing me M 276
me and another in M 276
me for desiring to M 274
me for carrying it M 274
me and depend on M 273
me she wished me M 272
me she missed me M 272
me for exposing the M 272
me who killed the M 270
me that someone as M 270
me with strength of M 268
me that copies of M 268
me how little of M 268
me that whoever is M 266
me one minute of M 266
me off without my M 266
me and forced my M 266
me and joined in M 265
me try harder to M 264
me six pieces of M 264
me not forget it M 264
me his desire of M 264
me and thought the M 264
me and closed it M 264
me and burned me M 264
me you needed me M 262
me try whether the M 262
me that without an M 262
me she seemed the M 262
me his verses on M 262
me his number in M 262
me for someone to M 262
me and direct my M 262
me that whilst he M 260
me run around the M 260
me for offering to M 260
me and thought to M 260
me and demand my M 260
me with horror as M 259
me with something or M 258
me with enough of M 258
me and expose me M 258
me any advice as M 257
me that something so M 256
me his letter on M 256
me two tables of M 254
me off before he M 254
me let myself go M 254
me had become so M 254
me for sounding so M 254
me due notice of M 254
me that someone so M 253
me you forgot to M 252
me you expect to M 252
me with sorrow to M 252
me this version of M 252
me that without it M 252
me now almost as M 252
me this letter at M 250
me how serious the M 250
me can afford to M 250
me any thought of M 250
me and higher in M 250
me that before it M 248
me now whether the M 248
me fit enough to M 248
me and uphold me M 248
me and murder me M 248
me and kicked my M 248
me and beyond the M 248
me all desire to M 248
me for bursting in M 247
me and caught up M 247
me see clearly the M 246
me and turned up M 246
me and praising me M 246
me and pitied me M 246
me and answer the M 246
me all through it M 246
me too obvious to M 244
me for choosing to M 244
me and worked me M 244
me and demand to M 244
me and advising me M 244
me that something as M 243
me they wanted the M 242
me that around the M 242
me run through it M 242
me had become the M 242
me and tested me M 242
me and submit to M 242
me and shaped me M 242
me she thought my M 240
me see whether he M 240
me off before my M 240
me not always to M 240
me being afraid of M 240
me and landed in M 240
me and angered me M 240
me and reached up M 239
me was indeed the M 238
me one writer on M 238
me and pulled on M 238
me and passed by M 237
me this moment of M 236
me one second to M 236
me one minute as M 236
me but unable to M 236
me but instead he M 236
me apt enough to M 236
me any answer at M 236
me and report the M 236
me and finish it M 236
me that summer to M 234
me that memory is M 234
me for imposing on M 234
me being unable to M 234
me and warmed me M 234
me and buried my M 234
me this minute to M 232
me that changes in M 232
me long enough so M 232
me her letter to M 232
me with methods of M 230
me can happen to M 230
me and stayed at M 230
me and placed on M 230
me and desire my M 230
me with horror of M 228
me that reality is M 228
me that readers of M 228
me that family is M 228
me out amongst the M 228
me his friend in M 228
me hang around the M 228
me get across the M 228
me easy enough to M 228
me and something of M 228
me and return it M 227
me with something he M 226
me with matter of M 226
me out before we M 226
me for noticing it M 226
me for almost the M 226
me and upheld me M 226
me and looked so M 226
me and forgot to M 226
me and burned my M 226
me and before my M 226
me and attain the M 226
me this follow me M 224
me this church is M 224
me that indeed the M 224
me get behind the M 224
me for standing in M 224
me and amused me M 224
me with offers to M 222
me see whether my M 222
me cry myself to M 222
me any record of M 222
me and purify me M 222
me you thought the M 220
me was already in M 220
me this little thing M 220
me that unless my M 220
me his reaction to M 220
me going through it M 220
me for choosing the M 220
me are locked up M 220
me and behind the M 220
me and accept it M 220
me they seemed the M 218
me she wanted it M 218
me she called me M 218
me any favors by M 218
me and stated the M 218
me and something in M 218
me and passed it M 218
me was pleased to M 216
me was merely the M 216
me was always so M 216
me and grabbing me M 216
me and across me M 216
me that number of M 214
me that merely to M 214
me that measure of M 214
me had reached the M 214
me and trusting me M 214
me and looked the M 214
me and smiled so M 213
me that little or M 212
me she thought we M 212
me not likely to M 212
me and enabling me M 212
me and blessing me M 212
me and beyond my M 212
me that winter is M 210
me his orders to M 210
me for doubting of M 210
me and cheated me M 210
me you worked in M 208
me with powers to M 208
me was before me M 208
me this matter is M 208
me that filled me M 208
me one moment in M 208
me one chance of M 208
me going around in M 208
me for preaching the M 208
me and warmed my M 208
me and prayed to M 208
me and afraid of M 208
me this winter in M 206
me that unlike the M 206
me that unless it M 206
me that chance to M 206
me for drives in M 206
me far across the M 206
me and offers to M 206
me with wonder as M 205
me they needed me M 204
me that should he M 204
me run across the M 204
me how highly he M 204
me for advice to M 204
me and smiles at M 204
me who helped the M 202
me they expect to M 202
me they called it M 202
me that caused the M 202
me not simply to M 202
me not simply as M 202
me how deeply the M 202
me has turned to M 202
me for touching on M 202
me and signed the M 202
me and myself to M 202
me add another thing M 202
me with praise of M 200
me with advice or M 200
me out without my M 200
me not enough to M 200
me and fallen in M 200
me and caused the M 200
me and begged of M 200
me you played the M 198
me that summer of M 198
me not before the M 198
me get inside the M 198
me for stepping on M 198
me being locked up M 198
me any further on M 198
me and return my M 198
me and finish me M 198
me and behold the M 198
me with wisdom to M 196
me this letter in M 196
me not return to M 196
me going around the M 196
me for assuming the M 196
me die instead of M 196
me and caught at M 196
me you picked up M 194
me too highly to M 194
me too absurd to M 194
me that indeed he M 194
me that allows me M 194
me its weight in M 194
me had upheld me M 194
me for appealing to M 194
me and signed in M 194
me and belongs to M 194
me off around the M 192
me how amazed he M 192
me far afield to M 192
me and whether it M 192
me and ruined me M 192
me and poured the M 192
me all winter to M 192
me all through by M 192
me you should go M 190
me with regret to M 190
me not afraid of M 190
me how afraid he M 190
me his answer the M 190
me die before the M 190
me and kicked the M 190
me and another thing M 190
me who looked at M 188
me that across the M 188
me had become an M 188
me for appearing to M 188
me and standing by M 188
me and signed me M 188
me you agreed to M 186
me was whether to M 186
me was scared to M 186
me was almost the M 186
me this before he M 186
me ten pieces of M 186
me she needed me M 186
me one across the M 186
me now seemed to M 186
me how stupid it M 186
me and ignore me M 186
me and gained the M 186
me yet another of M 184
me with models of M 184
me they prefer to M 184
me that inside the M 184
me ten copies of M 184
me for almost as M 184
me any better or M 184
me and picked it M 184
me and judged me M 184
me and injure me M 184
me and closes the M 184
me this aspect of M 182
me that little by M 182
me than anyone on M 182
me out before my M 182
me how lovely it M 182
me has changed my M 182
me and summon me M 182
me and report me M 182
me and poured me M 182
me and learned to M 182
me and cleaned me M 182
me and became an M 182
me and afford me M 181
me with smiles on M 180
me who bought it M 180
me was neither the M 180
me this secret of M 180
me that indeed it M 180
me her advice in M 180
me for dropping in M 180
me far behind in M 180
me and signed to M 180
me and pardon my M 180
me all thought of M 180
me was whether we M 178
me this letter on M 178
me this letter is M 178
me then turned to M 178
me one aspect of M 178
me now across the M 178
me her number in M 178
me and joined my M 178
me and broken my M 178
me and broken me M 178
me and bought the M 178
me and before we M 177
me you seemed to M 176
me they thought of M 176
me off behind the M 176
me new reasons to M 176
me had failed to M 176
me far afield in M 176
me and supply me M 176
me and helped my M 176
me with almost no M 174
me that wishes to M 174
me that amount in M 174
me one glance of M 174
me his thought in M 174
me for applying to M 174
me die without the M 174
me any verses of M 174
me and walked in M 174
me and scared the M 174
me and engaged in M 174
me why should it M 172
me that anyone of M 172
me long enough in M 172
me his report of M 172
me for delaying the M 172
me for deciding to M 172
me and honour me M 172
me and forced the M 172
me you prefer to M 170
me you desire to M 170
me who belongs to M 170
me they worked in M 170
me they called me M 170
me that someone of M 170
me that already in M 170
me that almost no M 170
me she worked at M 170
me one should be M 170
me off without the M 170
me ill spoken of M 170
me how little is M 170
me for pursuing my M 170
me for crossing the M 170
me any choice in M 170
me and waited in M 170
me and sought the M 170
me and sought me M 170
me and laughs at M 170
me and almost as M 170
me you worked at M 168
me with sorrow in M 168
me with regret at M 168
me that person is M 168
me that behind my M 168
me than anyone or M 168
me now glance at M 168
me her strength of M 168
me but through the M 168
me and waited my M 168
me and pursue me M 168
me and played me M 168
me and lodged in M 168
me and arrange to M 168
me and always be M 168
me and yelled in M 167
me and report on M 167
me with advice in M 166
me was broken by M 166
me that whoever it M 166
me than before the M 166
me run something by M 166
me one letter of M 166
me now answer the M 166
me for enjoying the M 166
me any secret of M 166
me and misses me M 166
me and neither do M 165
me and looked on M 165
me with plenty to M 164
me this seemed the M 164
me things beyond my M 164
me that moment in M 164
me sit behind the M 164
me run through my M 164
me how useful it M 164
me for becoming so M 164
me but looked at M 164
me and walked by M 164
me and forget my M 164
me and changed it M 164
me for laughing so M 163
me and relied on M 163
me with something on M 162
me that should we M 162
me that nobody at M 162
me that except in M 162
me his secret of M 162
me and worked in M 162
me and waited on M 162
me and toward my M 162
me and raised up M 162
me and grasping my M 162
me with violating the M 160
me who bought the M 160
me this instead of M 160
me that someone on M 160
me off instead of M 160
me now mention the M 160
me has seemed to M 160
me has become an M 160
me had seemed to M 160
me had better go M 160
me fly through the M 160
me but simply to M 160
me any copies of M 160
me and whether the M 160
me and secure my M 160
me and remain in M 160
me and relate to M 160
me and quoted the M 160
me and decide if M 160
me thus before the M 158
me that whether it M 158
me that almost as M 158
me not devoid of M 158
me had little to M 158
me for starting the M 158
me for delaying so M 158
me for awhile to M 158
me and valued my M 158
me and shared in M 158
me and reached to M 158
me and covering my M 158
me and bothering me M 158
me and standing in M 157
me was killed in M 156
me that issues of M 156
me read through the M 156
me out before it M 156
me one volume of M 156
me his secret in M 156
me for revealing the M 156
me for anyone to M 156
me being forced to M 156
me and smiles as M 156
me and little by M 156
me and forbid me M 156
me and divert my M 156
me and catching my M 156
me and stayed on M 155
me who wished to M 154
me too severe on M 154
me too scared to M 154
me that whereas in M 154
me that access to M 154
me one summer to M 154
me his verses to M 154
me his system of M 154
me her copies of M 154
me has lifted up M 154
me for offering it M 154
me cling closer to M 154
me but before he M 154
me any ground to M 154
me and suffer me M 154
me and secure the M 154
me and remove my M 154
me and occupy my M 154
me and becoming my M 154
me and another on M 154
me was always on M 152
me that through it M 152
me that seemed the M 152
me that prince of M 152
me his doubts as M 152
me for studying the M 152
me and threaten my M 152
me and greeting me M 152
me and desire me M 152
me and closer to M 152
me they looked as M 151
me with reasons to M 150
me was shared by M 150
me was always in M 150
me this lesson in M 150
me now except the M 150
me for training in M 150
me and proved me M 150
me and handed to M 150
me and formed the M 150
me with guides to M 148
me who taught me M 148
me was always to M 148
me this pledge of M 148
me this number to M 148
me that moment of M 148
me see beyond my M 148
me old copies of M 148
me not matter to M 148
me how highly the M 148
me his escort to M 148
me get something on M 148
me get around the M 148
me for handling the M 148
me any little thing M 148
me and stolen my M 148
me and notice the M 148
me and around my M 148
me with doubts of M 146
me with anguish in M 146
me was whether he M 146
me this seemed an M 146
me this minute or M 146
me that whether he M 146
me that strength of M 146
me that letter at M 146
me run around in M 146
me out something to M 146
me his number at M 146
me has helped to M 146
me and thought my M 146
me and suffer the M 146
me and folded it M 146
me and called an M 146
me you expect me M 144
me with wonder to M 144
me was signed by M 144
me this winter to M 144
me that summer at M 144
me that matter is M 144
me say something as M 144
me now hasten to M 144
me how unfair it M 144
me any excuse to M 144
me and cleared my M 144
me all chance of M 144
me for something so M 143
me and carrying on M 143
me you choose to M 142
me way beyond my M 142
me was something he M 142
me two pieces to M 142
me too keenly to M 142
me this lesson of M 142
me than whether or M 142
me his volume of M 142
me his feelings on M 142
me his feelings of M 142
me her feelings of M 142
me has failed to M 142
me get better at M 142
me for another of M 142
me are always in M 142
me any advice in M 142
me and yelled to M 142
me and wished he M 142
me and waited at M 142
me and kicked at M 142
me and ignore the M 142
me and called up M 142
me and admire the M 142
me you bought it M 140
me with horror at M 140
me with honour to M 140
me was standing in M 140
me was placed in M 140
me was marked by M 140
me that whereas he M 140
me she seemed so M 140
me she learned to M 140
me not wonder at M 140
me not before my M 140
me not afraid to M 140
me how absurd it M 140
me his sister in M 140
me for praising it M 140
me for belonging to M 140
me but without the M 140
me are opened at M 140
me and signed it M 140
me and showed us M 140
me and denied me M 140
me and cleanse my M 140
me and laughing as M 139
me was simply an M 138
me was caught in M 138
me that events in M 138
me see whether it M 138
me see something in M 138
me one person in M 138
me his belief in M 138
me each moment of M 138
me dead prefer to M 138
me are starting to M 138
me are listed in M 138
me and valued me M 138
me and served to M 138
me and poured it M 138
me and picked at M 138
me and obtain the M 138
me and marvel at M 138
me and loaded me M 138
me now expand on M 137
me and rushed up M 137
me they seemed as M 136
me she wishes to M 136
me she dreamed of M 136
me how slight my M 136
me his report to M 136
me get beyond the M 136
me did little to M 136
me and wished us M 136
me and myself in M 136
me and covering me M 136
me and combed my M 136
me she looked as M 135
me yet closer to M 134
me with lodgings in M 134
me was killed by M 134
me was another of M 134
me that school is M 134
me pay homage to M 134
me off enough to M 134
me now before it M 134
me nor looked at M 134
me how useful the M 134
me how crucial it M 134
me hear sounds in M 134
me for profit or M 134
me for preaching to M 134
me for dropping the M 134
me for access to M 134
me and showed up M 134
me and indeed to M 134
me and helped us M 134
me and hasten to M 134
me with almost an M 132
me this summer at M 132
me that wonder is M 132
me that wisdom is M 132
me that something on M 132
me that groups of M 132
me not through my M 132
me not pleased by M 132
me her number at M 132
me her answer to M 132
me has little to M 132
me has become so M 132
me going toward the M 132
me ask whether in M 132
me and supply the M 132
me and intend to M 132
me and helped the M 132
me and became so M 132
me and backed up M 131
me who helped me M 130
me that thought of M 130
me she wanted us M 130
me may happen to M 130
me had caused me M 130
me for removing my M 130
me for awhile in M 130
me but attain my M 130
me and wounding me M 130
me and values me M 130
me and sooner or M 130
me and induce me M 130
me and honors me M 130
me and guards me M 130
me for standing on M 129
me way beyond the M 128
me then whether he M 128
me that twenty or M 128
me that summer is M 128
me that caused my M 128
me she picked up M 128
me she appears to M 128
me put myself on M 128
me his clothes to M 128
me for someone he M 128
me for quitting the M 128
me for periods of M 128
me but neither of M 128
me any wishes of M 128
me and shares my M 128
me and redeem me M 128
me and likely to M 128
me and granting me M 128
me not perish in M 127
me you bought the M 126
me with report of M 126
me with little of M 126
me was hidden in M 126
me this moment is M 126
me that winter to M 126
me that someone or M 126
me that matter of M 126
me that appeals to M 126
me see another thing M 126
me her blessing to M 126
me for orders to M 126
me for offering my M 126
me for desiring it M 126
me dead before he M 126
me and remove me M 126
me and raises an M 126
me and missed the M 126
me and govern me M 126
me and changes the M 126
me and calmed my M 126
me and behind my M 126
me you missed the M 124
me was always of M 124
me this riddle if M 124
me this matter of M 124
me that wanted the M 124
me that thought is M 124
me put something to M 124
me out without the M 124
me now before we M 124
me her verses to M 124
me her advice on M 124
me for something as M 124
me for myself as M 124
me for murder or M 124
me for delaying my M 124
me for advice if M 124
me and stated he M 124
me and rested my M 124
me and injure my M 124
me and attend the M 124
me and attack the M 124
me and appeals to M 124
me you learned to M 122
me with energy to M 122
me with chains of M 122
me they learned to M 122
me that unlike us M 122
me that should it M 122
me that caused it M 122
me now whether or M 122
me now allude to M 122
me not through the M 122
me not regret the M 122
me may modify the M 122
me for twenty or M 122
me and wonder at M 122
me and walked the M 122
me and smiled to M 122
me and prefer to M 122
me and landed me M 122
me and beckon me M 122
me and afraid to M 122
me and admire my M 122
me you worked on M 121
me for sleeping in M 121
me you called the M 120
me with prints of M 120
me with praising of M 120
me who opened the M 120
me was buried in M 120
me they forgot to M 120
me that autumn is M 120
me that anyone as M 120
me put before the M 120
me how lovely the M 120
me how lonely it M 120
me has filled my M 120
me for fighting the M 120
me but instead it M 120
me any feelings of M 120
me and obtain my M 120
me and bothers me M 120
me was merely an M 118
me two periods of M 118
me this moment in M 118
me this before the M 118
me they called the M 118
me then hasten to M 118
me that volume of M 118
me that murder is M 118
me see whether or M 118
me how pretty my M 118
me get myself in M 118
me for replying to M 118
me bring another to M 118
me and worked it M 118
me and studying my M 118
me and pities me M 118
me and inside my M 118
me and anoint me M 118
me all through as M 117
me with wonder is M 116
me was through my M 116
me too narrow in M 116
me this burden of M 116
me then instead of M 116
me that winter in M 116
me that forces me M 116
me she called to M 116
me see inside the M 116
me not number the M 116
me not listen to M 116
me his visits of M 116
me has opened my M 116
me had spoken of M 116
me going awhile at M 116
me for preaching at M 116
me for building the M 116
me any credit at M 116
me and useful to M 116
me and pushes the M 116
me and picked the M 116
me and passes on M 116
me and demand an M 116
me and amazed me M 116
me and seemed as M 115
me you wanted my M 114
me you object to M 114
me you joined at M 114
me with carrying my M 114
me too minute in M 114
me this summer by M 114
me this lesson by M 114
me that purity of M 114
me that neither is M 114
me that anyone is M 114
me she showed me M 114
me not follow the M 114
me his blessing as M 114
me are afraid of M 114
me any chance at M 114
me any better to M 114
me any advice at M 114
me and wanted an M 114
me and prayed me M 114
me and obeyed me M 114
me and lights up M 114
me and grabbing the M 114
me and fought me M 114
me and damage the M 114
me and choosing me M 114
me all around in M 114
me and behave as M 113
me you wished me M 112
me with powers of M 112
me with hatred of M 112
me with appeals to M 112
me was watching my M 112
me was curious to M 112
me too slight to M 112
me this person is M 112
me they amount to M 112
me then resign my M 112
me that showed me M 112
me that shadow of M 112
me that seemed an M 112
me than listen to M 112
me she needed my M 112
me out through my M 112
me now resume the M 112
me now resume my M 112
me not beyond the M 112
me his papers of M 112
me any injury in M 112
me and standing up M 112
me and release the M 112
me and proved it M 112
me and motions me M 112
me and humble me M 112
me and enjoying my M 112
me and doctor me M 112
me and cheated on M 112
me and catching me M 112
me and adhere to M 112
me was becoming so M 110
me two nights in M 110
me then advise my M 110
me that wished to M 110
me she agreed to M 110
me out enough to M 110
me not behold the M 110
me his methods of M 110
me had changed to M 110
me for removing the M 110
me dead before the M 110
me are sleeping by M 110
me any answer or M 110
me and seemed in M 110
me and secure me M 110
me and obeyed my M 110
me and happen to M 110
me and covers me M 110
me and attend me M 110
me and affect my M 110
me all around my M 110
me with kisses as M 108
me with grants to M 108
me with favoring the M 108
me was placed on M 108
me was enjoying the M 108
me this decade of M 108
me say whether he M 108
me now relate the M 108
me not object to M 108
me how likely it M 108
me has filled me M 108
me had something in M 108
me but toward the M 108
me but thought it M 108
me are planning to M 108
me any measure of M 108
me and worked the M 108
me and treated my M 108
me and stayed to M 108
me and stated to M 108
me and raised it M 108
me and placed an M 108
me and nobody is M 108
me and hunted me M 108
me and folded me M 108
me and belonging to M 108
me and begged the M 108
me and become an M 108
me she worked as M 107
me who showed me M 106
me who called the M 106
me was killed at M 106
me two fathers to M 106
me this strange thing M 106
me then whether the M 106
me then seemed to M 106
me that simply to M 106
me that forced me M 106
me that feelings of M 106
me that crossing the M 106
me that changed the M 106
me that became the M 106
me see copies of M 106
me one corner of M 106
me now define the M 106
me his wishes to M 106
me had thought of M 106
me and rushed at M 106
me and repent of M 106
me and pulled us M 106
me and marked me M 106
me and extend to M 106
me and curses me M 106
me and breathed in M 106
me and belief in M 106
me and another at M 106
me all seemed to M 106
me his reasons as M 105
me you remain the M 104
me with horror if M 104
me who wishes to M 104
me try something on M 104
me too feeble to M 104
me this spirit of M 104
me that dwells in M 104
me that amidst the M 104
me she should go M 104
me seat myself in M 104
me one second of M 104
me not merely of M 104
me long before by M 104
me how greatly the M 104
me how better to M 104
me his papers on M 104
me had taught me M 104
me but little if M 104
me are guilty of M 104
me and rested on M 104
me and guides my M 104
me and divide the M 104
me and arrange my M 104
me and myself as M 103
me who needed the M 102
me who hardly am M 102
me who created the M 102
me who caused the M 102
me too anxious to M 102
me this desire to M 102
me they sought to M 102
me she handed me M 102
me she called the M 102
me she became the M 102
me set myself to M 102
me put something in M 102
me one effect of M 102
me not unlike to M 102
me lay before the M 102
me ill enough to M 102
me how deeply my M 102
me has learned to M 102
me had taught to M 102
me for visiting the M 102
me for something on M 102
me for arriving at M 102
me but wanted me M 102
me ask whether we M 102
me and placed at M 102
me and paused to M 102
me and forget to M 102
me and choose to M 102
me and always to M 102
me this moment as M 101
me you wanted an M 100
me with someone in M 100
me with advice as M 100
me who thought of M 100
me who happen to M 100
me was thought to M 100
me was beyond the M 100
me this appears the M 100
me that turned my M 100
me that surely the M 100
me that remark of M 100
me that legend of M 100
me she looked so M 100
me she bought it M 100
me she belongs to M 100
me put myself to M 100
me one strange thing M 100
me now something of M 100
me not fairly to M 100
me how guilty he M 100
me his record of M 100
me for training as M 100
me for relief of M 100
me for marrying the M 100
me for doubting it M 100
me but turned to M 100
me being afraid to M 100
me are proofs of M 100
me are forced to M 100
me and wronged me M 100
me and unfair to M 100
me and stated in M 100
me and stands at M 100
me and reject my M 100
me and learned the M 100
me and guided the M 100
me and created me M 100
me and arrange the M 100
me with passion in M 98
me with energy if M 98
me with desire in M 98
me why should we M 98
me who refuse to M 98
me was something in M 98
me was rooted in M 98
me was guilty of M 98
me was called to M 98
me this moment an M 98
me this favour of M 98
me they thought my M 98
me they seemed so M 98
me they missed me M 98
me that spirit is M 98
me that something or M 98
me that little of M 98
me that except my M 98
me than behind me M 98
me say before we M 98
me how widely the M 98
me how special it M 98
me his regard by M 98
me his number to M 98
me his memory is M 98
me his brother is M 98
me had something of M 98
me for something the M 98
me for proofs of M 98
me for laughing if M 98
me for enjoying my M 98
me doing something to M 98
me but helped me M 98
me any better in M 98
me and wounds me M 98
me and thought we M 98
me and subdue me M 98
me and played it M 98
me and needed my M 98
me and looked it M 98
me and indeed it M 98
me and folded my M 98
me and exempt my M 98
me all except the M 98
me who pulled the M 96
me was kneeling on M 96
me they wanted my M 96
me that scared me M 96
me than whether the M 96
me ran through my M 96
me off almost as M 96
me not remain in M 96
me lying across the M 96
me how stupid the M 96
me had called up M 96
me get around to M 96
me for becoming an M 96
me but enough of M 96
me but behind me M 96
me but applying to M 96
me are beyond the M 96
me and washed the M 96
me and thereby to M 96
me and summed up M 96
me and fitted me M 96
me and enjoying it M 96
me and demand the M 96
me and buried it M 96
me all broken up M 96
me all around to M 96
me this winter as M 95
me you thought we M 94
me you thought my M 94
me was whether my M 94
me was mainly to M 94
me two nights to M 94
me too severe in M 94
me this number in M 94
me they looked at M 94
me that watching the M 94
me that already he M 94
me ten pieces to M 94
me seat myself at M 94
me one summer in M 94
me one source of M 94
me not conceal it M 94
me his friend by M 94
me his doubts of M 94
me his brother to M 94
me his advice in M 94
me her blessing as M 94
me had helped to M 94
me had fitted me M 94
me had become my M 94
me but potent in M 94
me and worked at M 94
me and wanted it M 94
me and spoken of M 94
me and sought an M 94
me and something to M 94
me and sensed my M 94
me and opened me M 94
me and judges me M 94
me and grabbing at M 94
me and forced to M 94
me and follow it M 94
me and exposing me M 94
me and direct to M 94
me and define me M 94
me and carrying my M 94
me and played on M 93
me you listen to M 92
me you failed to M 92
me was taught by M 92
me two issues of M 92
me they turned my M 92
me they should go M 92
me that yearned to M 92
me that wanted it M 92
me that thought it M 92
me that seemed so M 92
me that genius is M 92
me that blessing in M 92
me she learned it M 92
me she begins to M 92
me see whether we M 92
me see through it M 92
me long before to M 92
me led through the M 92
me how school is M 92
me his papers to M 92
me has placed me M 92
me for enough to M 92
me for building it M 92
me being jealous of M 92
me and stayed the M 92
me and signed my M 92
me and gotten me M 92
me and expose my M 92
me and divert the M 92
me with points of M 90
me with nobody to M 90
me who desire to M 90
me way through the M 90
me this manner of M 90
me this favour to M 90
me this advice in M 90
me that something he M 90
me that helped to M 90
me that disease is M 90
me she played the M 90
me she passed so M 90
me see enough of M 90
me out beyond to M 90
me not awaken it M 90
me new energy to M 90
me how serious he M 90
me how pleased the M 90
me how futile it M 90
me how curious it M 90
me his orders in M 90
me had warned me M 90
me had seized the M 90
me for trusting the M 90
me for becoming the M 90
me but missed me M 90
me but enough to M 90
me being chased by M 90
me are beyond my M 90
me and writes to M 90
me and toward me M 90
me and thanked the M 90
me and chosen me M 90
me and always me M 90
me and affect me M 90
me and accept of M 90
me you missed it M 88
me with sounds so M 88
me with someone to M 88
me with anguish to M 88
me why should he M 88
me two blocks to M 88
me thus refuse the M 88
me this summer is M 88
me this desire of M 88
me they seemed no M 88
me they picked up M 88
me then looked at M 88
me that stands in M 88
me that letter in M 88
me that fiction is M 88
me that desire to M 88
me she wanted an M 88
me set myself up M 88
me sad enough to M 88
me one better by M 88
me not become the M 88
me how surely the M 88
me how something so M 88
me his object in M 88
me his master is M 88
me his hatred of M 88
me her number so M 88
me has wanted to M 88
me has become my M 88
me had helped me M 88
me going across the M 88
me for touching the M 88
me for enjoying it M 88
me for dropping by M 88
me for desiring the M 88
me for advice at M 88
me for admiring the M 88
me dry myself at M 88
me but before the M 88
me being scared of M 88
me ask whether he M 88
me any damage or M 88
me any access to M 88
me and worked my M 88
me and wished my M 88
me and tested my M 88
me and supply my M 88
me and stands in M 88
me and ruined the M 88
me and refuse me M 88
me and measuring my M 88
me and kisses the M 88
me and hidden it M 88
me and handle me M 88
me and broken the M 88
me and bought my M 88
me and annoys me M 88
me and altering it M 88
me all rights to M 88
me all favour if M 88
me you called to M 86
me you called on M 86
me with states of M 86
me with masses of M 86
me with caution to M 86
me who suffer it M 86
me was watching me M 86
me this letter he M 86
me this letter as M 86
me this favour in M 86
me this branch of M 86
me this appears an M 86
me they needed the M 86
me they missed my M 86
me then showed me M 86
me that raises me M 86
me that pieces of M 86
me that enough is M 86
me ten shares of M 86
me not simply an M 86
me not merely in M 86
me nor listen to M 86
me how should an M 86
me his speech to M 86
me had changed in M 86
me for violating my M 86
me for repeating to M 86
me for repeating my M 86
me for murder in M 86
me but beyond me M 86
me being locked in M 86
me and wasted no M 86
me and serves me M 86
me and pulled to M 86
me and laughing in M 86
me all through to M 86
me doing something so M 85
me you needed the M 84
me with kisses on M 84
me with desire of M 84
me with arrest if M 84
me was vested the M 84
me was valued by M 84
me that through an M 84
me that someone he M 84
me that anyone at M 84
me singing through the M 84
me seat myself on M 84
me out behind my M 84
me how pretty it M 84
me his design to M 84
me his advice to M 84
me had seemed so M 84
me for preaching in M 84
me are unable to M 84
me any report of M 84
me and waited as M 84
me and taught my M 84
me and oppose me M 84
me and misled me M 84
me and lodged me M 84
me and ignoring the M 84
me and ignoring my M 84
me and ignoring me M 84
me and handle the M 84
me and dwells in M 84
me and blocks my M 84
me and begged us M 84
me and became at M 84
me and assume the M 84
me all desire of M 84
me with another in M 83
me with notice as M 82
me with bursts of M 82
me was merely to M 82
me thus freely to M 82
me thus beyond the M 82
me they should do M 82
me they prefer the M 82
me that orders to M 82
me that energy of M 82
me that belief is M 82
me that albeit the M 82
me that adhering to M 82
me sit before the M 82
me she needed the M 82
me see pieces of M 82
me run toward the M 82
me out merely to M 82
me one chance in M 82
me one better in M 82
me not repent of M 82
me how pretty the M 82
me how pretty he M 82
me has passed the M 82
me had learned to M 82
me had fallen the M 82
me get beyond my M 82
me fix myself up M 82
me bring myself to M 82
me and traced the M 82
me and served the M 82
me and report my M 82
me and release my M 82
me and realize the M 82
me and prayed in M 82
me and noticing my M 82
me and laughs to M 82
me and issued the M 82
me and hasten my M 82
me and cursed at M 82
me and credit me M 82
me and cheated the M 82
me you wanted us M 80
me with someone or M 80
me with safety to M 80
me with safety in M 80
me with belief in M 80
me who picked up M 80
me two orders of M 80
me too highly by M 80
me this letter by M 80
me they thought we M 80
me they reject the M 80
me that letter or M 80
me sit through the M 80
me she wanted my M 80
me she opened the M 80
me now through my M 80
me now recall the M 80
me how serious my M 80
me how eagerly he M 80
me his feelings at M 80
me has reached me M 80
me far behind the M 80
me but showed no M 80
me any letter or M 80
me any favour in M 80
me and submit the M 80
me and stolen the M 80
me and revive me M 80
me and reached it M 80
me and pardon the M 80
me and locked up M 80
me and locked my M 80
me and joined us M 80
me and grasps my M 80
me and demand of M 80
me and defend my M 80
me and copies of M 80
me and choose the M 80
me and caught it M 80
me and called us M 80
me and betray my M 80
me and become me M 80
me and appealing to M 80
me and adored me M 80
me all warmed up M 80
me and pulled in M 60
me and stands up M 54
me she seemed as M 50
me all cleaned up M 50
me that favour as M 49
me for stepping in M 49
me and pushed up M 47
me with smiles as M 45
me and rushed on M 45
me with hatred as M 44
me was clearly no M 43
me all turned on M 43
me and stayed as M 42
me and became as M 41
me and kissed me D 26746
me and hugged me D 11148
me and kissed my D 4838
me and talked to D 4454
me for refusing to D 3394
me his opinion of D 3342
me for dinner at D 2850
me and stared at D 2628
me and patted my D 2362
me and struck me D 2024
me and patted me D 1928
me and shoved me D 1606
me his opinion on D 1602
me with shouts of D 1252
me and rubbed my D 1180
me that bottle of D 1126
me and hauled me D 1122
me and licked my D 1084
me and rocked me D 1080
me out rivers of D 1002
me and kissed the D 984
me and tapped me D 920
me and robbed me D 880
me for dinner in D 868
me and insult me D 812
me and pinned me D 800
me and talked of D 788
me her opinion of D 776
me two pounds of D 758
me and clothed me D 758
me and tossed me D 756
me and soothed me D 714
me with terror in D 704
me and hammer me D 692
me and jumped up D 679
me and driven me D 658
me and inviting me D 654
me and caress me D 609
me that portion of D 608
me two sheets of D 594
me and dragging me D 586
me and rolled me D 580
me for spending so D 562
me and tugged at D 558
me and stroke my D 556
me his opinion in D 548
me for agreeing to D 534
me for dinner on D 516
me and mouthed the D 508
me that dinner is D 506
me and strike me D 494
me and knocking me D 490
me and mocked me D 488
me and yanked me D 484
me and stroking my D 484
me and nodded in D 476
me you talked to D 468
me and choked me D 464
me with dozens of D 454
me ten pounds to D 446
me and slapping me D 444
me now revert to D 436
me than spurring to D 432
me and render me D 432
me and curled up D 415
me any tokens of D 412
me for coffee at D 406
me with tokens of D 400
me and talked in D 398
me for dinner to D 396
me this flower of D 388
me his opinion as D 383
me and sticks to D 380
me and jerked me D 372
me and refusing to D 366
me and cheering me D 364
me and struck up D 362
me and struck the D 362
me and petted me D 362
me and hurled me D 360
me and dumped me D 358
me and pinned my D 356
me she talked to D 352
me and nodded to D 348
me ten pounds of D 346
me for pressing the D 346
me and shakes my D 344
me and settle in D 344
me this damsel to D 340
me and assuring me D 340
me for dinner the D 334
me and stared me D 334
me and shouting at D 332
me for coffee in D 330
me for stooping to D 326
me and peered at D 326
me and revile me D 324
me and hugged my D 322
me how exciting it D 320
me and glared at D 320
me and rubbed the D 318
me now review the D 316
me and tapped my D 316
me two slices of D 314
me and patted the D 314
me and nudged me D 314
me and talked me D 310
me and shamed me D 310
me and nodded as D 305
me and partly to D 298
me who soothed me D 296
me not debtor to D 296
me and nodded at D 296
me now advert to D 294
me and shakes me D 294
me that lumber of D 292
me and tucked me D 290
me two ounces of D 288
me for supper at D 286
me and jumped to D 286
me and knocks me D 284
me for meddling in D 282
me and shewed me D 282
me and rubbed me D 280
me and loaned me D 280
me for sticking to D 278
me for drinks at D 276
me and pressing me D 274
me and hailed me D 274
me and tossed it D 272
me and stares at D 272
me all pocket the D 272
me any portion of D 270
me and jumped on D 270
me and cupped my D 270
me all messed up D 267
me and fondle me D 266
me with drawings of D 264
me and molest me D 264
me and tapped the D 262
me and shoved the D 262
me and shield me D 262
me for refuge to D 260
me and coaxed me D 258
me for spending my D 254
me with scraps of D 252
me two loaves of D 248
me and plunged me D 246
me ten sheets of D 244
me and oblige me D 244
me for screwing up D 243
me all balled up D 243
me and dozens of D 242
me that madame la D 240
me and struck my D 240
me for refusing the D 238
me and tucked it D 236
me and crushing me D 236
me for omitting the D 234
me and punching me D 234
me and winked at D 232
me one noggin of D 228
me and soothed my D 224
me that basket of D 222
me and tended to D 222
me all tangled up D 221
me and talked so D 216
me all choked up D 215
me that repose of D 214
me that pretty sea D 214
me and stared in D 213
me and screaming at D 212
me and licked me D 212
me with horses to D 208
me how clever he D 208
me for painting the D 208
me and ripped my D 208
me for rambling on D 207
me and thrills me D 206
me and winked as D 205
me his portion of D 204
me and strove to D 204
me her opinion on D 202
me and pumped my D 202
me that dozens of D 200
me for stirring up D 200
me two guineas if D 198
me this rabble to D 198
me and pained me D 198
me with photos of D 194
me and tugged on D 194
me and housed me D 194
me and harass me D 194
me and tickle me D 192
me for stopping by D 188
me and employ me D 188
me for sticking my D 186
me for spoiling the D 186
me and seduce me D 186
me and excite me D 186
me for omitting to D 184
me and taunting me D 184
me and sweeps me D 184
me and caress my D 184
me and shower me D 182
me with terror as D 181
me two quarts of D 180
me that bundle of D 180
me for stopping the D 180
me and stroke me D 180
me and scolding me D 180
me and ripped the D 180
me and squash me D 178
me and cuddle me D 178
me and amuses me D 178
me this bottle of D 176
me and cuffed me D 176
me with claiming my D 172
me see whether ye D 172
me for dinner or D 172
me and sucked me D 172
me that lately he D 170
me one bottle of D 170
me that traces of D 168
me for entering the D 168
me and smother me D 168
me and chided me D 168
me ten francs to D 166
me for snapping at D 166
me and shoves me D 166
me and plague me D 166
me and cheers me D 166
me this nugget of D 164
me and stared up D 163
me for review in D 162
me and thrusting of D 162
me and arouse my D 162
me that bucket of D 160
me his bottle of D 160
me all steamed up D 160
me his review of D 158
me for spending the D 158
me and mashed me D 158
me with places to D 156
me and yanked the D 156
me and tossed the D 156
me with knives in D 154
me and strive to D 154
me and jumped in D 153
me for coffee or D 152
me with terror of D 150
me and tended me D 150
me and roused me D 150
me that stanza by D 148
me that scores of D 148
me and molded me D 148
me and hissed in D 148
me this office of D 146
me that painting is D 146
me than esteem me D 146
me for shouting at D 146
me and popped me D 146
me and hearken to D 146
me and haunts me D 146
me was struck by D 144
me she jumped up D 144
me now sketch the D 144
me has driven me D 144
me and beheld the D 144
me this flower as D 140
me than esteem in D 140
me get dinner on D 140
me and thumped me D 140
me and kinder of D 140
me and booked me D 140
me and tugged me D 138
me and stopping me D 138
me and scolds me D 138
me and scares me D 138
me and saluting me D 138
me and pressing my D 138
me that focusing on D 136
me for spilling the D 136
me and bugged me D 136
me and bidden me D 136
me with screams of D 134
me was hushed in D 134
me one dollar in D 134
me for arranging the D 134
me dig through the D 134
me and whirls me D 134
me and scores of D 134
me and repels me D 134
me and licked the D 134
me two sticks of D 132
me for supper in D 132
me and detain me D 132
me this flower is D 130
me his jacket to D 130
me and shoved it D 130
me and ravish me D 130
me and bawled me D 130
me that racism is D 128
me off bodily to D 128
me and tipped me D 128
me and settle the D 128
me any opinion on D 126
me and tempts me D 126
me and places me D 126
me and nudged my D 126
me that sneers at D 124
me one dollar to D 124
me his drawings of D 124
me for terror of D 124
me that snapping is D 122
me that notions of D 122
me she kissed me D 122
me for spoiling so D 122
me and gagged me D 122
me and rolled on D 121
me with terror or D 120
me has struck me D 120
me for reviving the D 120
me dye before my D 120
me and yanked my D 120
me and stroking me D 120
me with scores of D 118
me was screaming to D 118
me this portion of D 118
me and prodding me D 118
me and popped the D 118
me and pester me D 118
me and partly by D 118
me and bestow on D 118
me with drafts on D 116
me this packet to D 116
me this diamond ring D 116
me his signet ring D 116
me and sipped it D 116
me and insult my D 116
me and enfold me D 116
me and convoy me D 116
me and blocking my D 116
me and barred my D 116
me that cancer is D 114
me and roused my D 114
me she talked it D 112
me his horses to D 112
me and pinching me D 112
me and kissed it D 112
me with relish of D 110
me they talked of D 110
me and starve me D 110
me and smelling the D 110
me and rubbed it D 110
me and rolled up D 110
me and hinder me D 110
me and bolted it D 110
me that refusing to D 108
me not murmur at D 108
me can attest to D 108
me any opinion of D 108
me and talked as D 108
me and jeered at D 108
me and danced me D 108
me and chides me D 108
me that supper is D 106
me his opinion is D 106
me for sticking up D 106
me and shouting in D 106
me and places the D 106
me and places it D 106
me and mocked my D 106
me and jabbed me D 106
me and gripping my D 106
me and driven my D 106
me with assuring me D 104
me than silver or D 104
me for acceding to D 104
me and tilted my D 104
me and survey the D 104
me and smites my D 104
me and reveals to D 104
me and agreeing to D 104
me that parcel of D 102
me her opinion in D 102
me for shooting the D 102
me and strike the D 102
me and pecked at D 102
me and goaded me D 102
me and fingered the D 102
me and cussed me D 102
me one barrel of D 100
me not employ my D 100
me and snatch the D 100
me and nerved me D 100
me and fanned me D 100
me and blames me D 100
me with terror at D 98
me with storms in D 98
me with stacks of D 98
me with meddling in D 98
me new vistas of D 98
me hot enough to D 98
me and sucked my D 98
me and slapping my D 98
me two horses to D 96
me this sketch of D 96
me that divers of D 96
me for revising the D 96
me and salute me D 96
me and robbed my D 96
me and rebuke me D 96
me and places on D 96
me and pinching my D 96
me and pamper me D 96
me and packed me D 96
me and impels me D 96
me and hinder my D 96
me for dinner so D 95
me two sheets in D 94
me two pounds to D 94
me his debtor by D 94
me any farther in D 94
me and tossed my D 94
me and snatch me D 94
me and pleaded in D 94
me and jerked the D 94
me and badger me D 94
me with refusing to D 92
me too sleepy to D 92
me that struck me D 92
me than grains of D 92
me six horses to D 92
me how struck he D 92
me for misusing the D 92
me and untied my D 92
me and talked the D 92
me and sucked in D 92
me and shoved my D 92
me and screaming in D 92
me and pleaded to D 92
me and pelted me D 92
me and lulled me D 92
me and lashed me D 92
me with sheets of D 90
me ten guineas to D 90
me his parole of D 90
me and struck at D 90
me and sapped the D 90
me and sapped my D 90
me and fondle my D 90
me and desert me D 90
me and dashed me D 90
me was driven by D 88
me that therapy is D 88
me six pounds of D 88
me for coffee the D 88
me and tempting me D 88
me and talked at D 88
me and spending the D 88
me and shield my D 88
me and shames me D 88
me and shaken me D 88
me and pinned it D 88
me and pecked me D 88
me and motioning me D 88
me and jerked my D 88
me and exited the D 88
me with floods of D 86
me too readily to D 86
me they talked to D 86
me ten pounds in D 86
me his deputy in D 86
me for wrecking the D 86
me die drinking in D 86
me and stared as D 86
me and recite the D 86
me and hugged it D 86
me this island is D 84
me that tended to D 84
me how tempting it D 84
me her gloves to D 84
me her bottle of D 84
me for stopping at D 84
me for stamping on D 84
me for poaching on D 84
me for coffee on D 84
me but flight or D 84
me are slaves to D 84
me and unfits me D 84
me and tucked the D 84
me and render my D 84
me and regale me D 84
me with terror to D 82
me with brandy in D 82
me that packet of D 82
me that gambling is D 82
me has robbed me D 82
me for brunch at D 82
me and twisting my D 82
me and pumped me D 82
me and pierce me D 82
me and mailed it D 82
me and impede my D 82
me and cooled my D 82
me and clasping my D 82
me all traces of D 82
me that hamlet is D 80
me ten pounds on D 80
me she coiled up D 80
me lie fronting my D 80
me lean toward the D 80
me his findings in D 80
me for review by D 80
me any viscus of D 80
me and swarming up D 80
me and nailed me D 80
me and nagged me D 80
me and entreat me D 80
me and dumped the D 80
me all dolled up D 50
me with sticks as D 46
me for dinner as D 44
me for stopping in D 40
