means a thing of M 3444
meant a thing to M 2938
means a thing to M 1278
means i am to M 871
means i am the M 751
means i am in M 716
means i am an M 451
means i am no M 370
means i am at M 338
means i go to M 304
means a is the M 295
means a thing or M 241
meet a foe on M 188
means a thing in M 172
means i am on M 170
meet a foe in M 166
meant a thing in M 132
means a king or M 130
means a thing is M 118
means a thing the M 116
meet a king of M 110
means i am so M 102
meet a king or M 98
meaning a thing is M 94
meet a foe of M 92
meant a thing of M 88
means a thing if M 86
meaning i am the M 48
means a thing as M 40
mess i am in D 441
meet a sea of D 86
means a sea of D 85
