meddle with them . M 10580
mention them all . M 5692
meetings with him . M 4978
meetings with them . M 4660
methods they use . M 4120
meddle with him . M 3877
memory and aging . M 3051
meetings each year . M 2956
medium and low . M 2243
meetings with her . M 2122
meetings all day . M 1744
mention but two . M 1600
merged with them . M 1583
memory for him . M 1538
memory for them . M 1468
meddle with you . M 1316
melody and song . M 1310
methods you use . M 1218
memory for you . M 1218
methods are not . M 1210
measure you get . M 1210
meetings this year . M 1114
medium for them . M 1062
meetings with you . M 1022
memory for her . M 978
methods can not . M 962
meddle with her . M 953
mention them now . M 951
merely his own . M 934
mention but one . M 894
medium low heat . M 811
meetings for them . M 798
methods for them . M 776
methods with them . M 756
methods for this . M 684
measure his own . M 678
meddle with that . M 626
memory with them . M 622
measure for them . M 618
methods for each . M 614
medium for this . M 614
merely not dying . M 612
memory with him . M 606
mention two things . M 593
meddle with them ? M 569
mention his own . M 564
member each year . M 562
medium than air . M 546
medium for him . M 510
memory with age . M 500
medium and long . M 482
measure for this . M 469
meetings for him . M 466
measure them all . M 458
memory for that . M 450
memory does not . M 450
measure nor end . M 440
memory and myth . M 438
merged with him . M 435
merged with his . M 416
methods with him . M 414
meetings that day . M 404
merged with god . M 396
memory long ago . M 384
merely for that . M 382
methods for you . M 378
meetings that year . M 378
meetings each day . M 378
measure our own . M 366
measure with them . M 338
measure for him . M 338
measure each one . M 334
mention this one . M 332
memory for use . M 330
mention that now . M 329
mention his death . M 323
measure cut off . M 322
memory was bad . M 318
memory using pet . M 318
measure with him . M 309
memory and run . M 306
memory can not . M 302
memory that way . M 298
meetings and things . M 298
measure this year . M 293
merely our own . M 288
meetings with men . M 286
merged with her . M 284
meetings with god . M 284
measure all things . M 284
mentor for you . M 282
memory was going . M 282
measure for all . M 282
mention but few . M 280
mention her own . M 278
methods did not . M 276
member this year . M 276
measure does not . M 276
methods and men . M 274
member for them . M 274
medium for you . M 272
methods and gear . M 266
member with them . M 262
member does not . M 262
medium you use . M 262
medium and air . M 262
mentor for him . M 258
medium they use . M 258
mention all this . M 256
memory was long . M 256
measure for each . M 256
meetings with him ? M 254
memory with you . M 252
memory for long . M 252
memory with her . M 248
methods are new . M 244
merely for pay . M 240
mention that too . M 240
memory than you . M 240
measure and why . M 240
meetings for you . M 238
merely for them . M 228
merely for him . M 228
mention her age . M 228
meters each day . M 222
memory for you ! M 218
meetings are run . M 218
meddle with you ? M 218
memory was weak . M 214
mention our own . M 210
merges with them . M 208
methods are bad . M 206
meters each year . M 206
memory and fear . M 204
member with you . M 204
measure for you . M 198
merely read them . M 196
measure its area . M 196
measure and how . M 194
merges with god . M 193
methods for men . M 192
memory and death . M 192
meddle not with . M 187
measure with you . M 187
merely does not . M 182
memory than that . M 182
memory for you ? M 182
merely his due . M 180
mention his son . M 180
medium and big . M 176
mention this now . M 175
memory this way . M 174
meddle any way . M 172
meddle with his . M 170
merely see them . M 168
mention that one . M 168
memory and age . M 168
meetings with you ? M 168
mention all this ? M 166
methods with you . M 162
meetings are for . M 160
member did not . M 158
melody for him . M 158
medium for that . M 158
medium for her . M 158
memory was real . M 156
memory they use . M 156
measure you use . M 155
measure and cut . M 155
mention her son . M 154
memory did not . M 154
measure but one . M 154
memory she had . M 152
measure than this . M 152
mentor for her . M 150
member was ill . M 150
memory with aging . M 148
member are you ? M 148
measure with man . M 148
measure its age . M 148
measure but that . M 148
methods may not . M 144
methods for that . M 144
mention and use . M 144
meddle with him ! M 143
merely use them . M 142
memory and all . M 140
medium for use . M 140
meddle with him ? M 138
measure them both . M 138
memory was not . M 136
memory for things . M 136
melody you hear . M 136
meetings are not . M 136
methods you use ? M 134
methods are easy . M 134
memory was dim . M 134
member with him . M 134
meetings and all . M 134
medium with them . M 134
meddle with this . M 133
merges with him . M 132
mention this now ? M 132
medium and weak . M 132
merely one way . M 130
mention its use . M 130
member can not . M 128
medium being air . M 128
measure and law . M 127
merely her own . M 124
memory for this . M 124
member was doing . M 124
member for long . M 122
measure did not . M 122
mentor for you ? M 120
memory for bad . M 120
memory and use . M 120
measure and mean . M 120
methods and use . M 118
measure with her . M 117
measure and use . M 117
mental age six . M 116
memory each day . M 116
member who does . M 116
member for him . M 116
measure and see . M 116
methods they use ? M 114
methods for all . M 114
merely say this . M 114
memory that day . M 114
member that day . M 114
meetings was low . M 114
meddle with them ! M 113
mention him now . M 112
meetings for her . M 112
measure for both . M 112
merely using them . M 110
merely for this . M 110
mentor for them . M 110
member has one . M 110
measuring its area . M 110
member that year . M 109
memory and song . M 108
member but one . M 108
measure for that . M 108
methods each year . M 106
merely with that . M 106
measure all men . M 106
merits for them . M 104
mental than real . M 104
meetings too long . M 104
meters that way . M 102
merits with god . M 102
merely its own ? M 102
memory for that ? M 102
memory for all . M 102
methods for use . M 100
mention his age . M 100
member was dead . M 100
measuring each one . M 100
mention all that . M 99
memory than this . M 98
member has put . M 98
melody for them . M 98
melody and beat . M 98
measure our path . M 98
methods you can . M 96
merely using him . M 96
member each day . M 96
meetings for men . M 96
measuring them all . M 96
measure this area . M 95
methods are weak . M 94
merely with him . M 94
member who did . M 94
measure was not . M 94
measure them with . M 94
methods with her . M 92
methods for him . M 92
methods for both . M 92
merely with them . M 92
merely put off . M 92
meetings with them ? M 92
merely use her . M 90
merely one man . M 90
merely her due . M 90
memory for hue . M 90
memory are not . M 90
meetings they had . M 90
medium and mix . M 90
measure they are . M 90
measure his head . M 90
methods than this . M 88
merely for use . M 88
memory for each . M 88
memory for both . M 88
medium does not . M 88
measure and beat . M 88
methods than that . M 86
merely old age . M 86
measuring and why . M 86
mention each one . M 85
measure long ago . M 85
methods are few . M 84
member may own . M 84
member cut off . M 84
medium for both . M 84
merits and death . M 82
memory and god . M 82
medium was low . M 82
measure this end . M 82
methods and why . M 80
mention him not . M 80
memory than men . M 80
melody was sad . M 80
measure for her . M 48
measure and why ? M 47
measure her own . M 46
measure and mix . M 46
mention that now ? M 43
merges with her . M 41
merged with you . M 41
mention this idea . M 41
measure they did . M 41
