gin and one of D 428
git him out of D 288
git you out of D 210
git hit all the D 198
gig was going to D 191
gin was one of D 176
gig for you to D 162
gin act and the D 148
gig that was to D 147
git her out of D 138
gin and let the D 138
gig was out of D 130
gin and going on D 126
gig was one of D 126
gin and all the D 112
gin was not the D 108
gin and put it D 106
gig let out to D 106
gin and rum to D 94
gin and rum in D 94
gin can not be D 92
