gin and oil mill D 566
git him for your D 528
git man off your D 274
gin and one part D 272
gin that had been D 236
gin and rum were D 198
git out and rest D 180
gin had not been D 180
git too fur gone D 146
git out and walk D 128
git out and buck D 108
gin and sat down D 107
gig had got into D 94
gin she had been D 92
gin and hot baths D 92
gig with his band D 92
gig that had been D 82
gig does not work D 53
gig with his wife D 49
gig did not last D 40
