era was a time M 4900
ere long i will M 640
ere long i hope M 472
ere now i have M 407
era was a very M 352
ere thus i will M 323
era was a great M 322
ere long a great M 246
era that i have M 226
era with a more M 220
ere long i must M 190
era saw a great M 190
ere yet a fool M 180
era and a more M 173
era was a more M 163
era with a great M 136
era had a more M 135
ere thus i have M 134
ere long a very M 134
era was a kind M 134
era and a vast M 134
era and a great M 134
era with a view M 128
era was a good M 128
era with a clean M 126
era with a very M 124
ere was a good M 119
ere long i heard M 102
era and a time M 100
ere this i heard M 98
era had a great M 98
ere long i know M 90
ere are a good M 88
ere that a hint M 86
era saw a rise M 86
ere this i have M 62
ere long a more M 50
ere yet i knew M 47
ere this i hope M 44
ere long i fell M 40
