error can not be M 28682
error that can be M 10786
error may not be M 7586
error and that the M 7304
error that may be M 5546
error was due to M 5538
error for each of M 3146
error and bias in M 3022
error can lead to M 2928
error was that he M 2918
error was one of M 2628
error was not in M 2322
error than that of M 2236
error was that the M 1952
error was that of M 1938
error and can be M 1934
error that led to M 1818
error may lead to M 1800
error can then be M 1668
erect and set up M 1497
error and that it M 1486
error has led to M 1352
error and may be M 1276
error was not so M 1260
error was not the M 1144
error and that he M 1130
error for all the M 1104
error and for the M 1104
error and how to M 1014
error was not to M 966
error and not the M 914
error lay not in M 882
error and not to M 834
error may lie in M 802
erect for one of M 782
error being due to M 734
error for him to M 662
error and with the M 654
erect one for the M 644
error can now be M 632
erect and with the M 611
error may then be M 598
error that was to M 596
error and how it M 578
error for both the M 574
error can thus be M 568
error and that of M 568
error and sin in M 564
error and all the M 552
error was not of M 548
error than for the M 548
error was that it M 546
error and try to M 542
error and thus the M 530
error was not an M 496
error are due to M 494
error and then to M 468
error with all the M 466
erect than that of M 456
error and this is M 434
error and sin of M 434
error than does the M 426
error for any of M 402
error and fix it M 402
error that has to M 394
error for all of M 388
error and not by M 382
error bar for the M 376
error and that we M 372
erase all but the M 369
error may thus be M 350
error led him to M 342
error and had to M 338
error than are the M 334
error that had to M 332
error but that it M 330
error with that of M 328
error for you to M 328
error but that the M 326
error was set at M 325
error has not the M 320
error than with the M 316
error does not in M 316
error for them to M 314
error and one of M 314
error and not an M 310
error log and the M 306
error one way or M 304
error was not as M 302
error that all the M 300
error had led to M 300
error was owing to M 298
error and that is M 296
error for one of M 290
error but not the M 288
error and sin is M 286
error with one of M 278
error and that in M 270
error and set the M 268
error and thus to M 264
error was that we M 260
error was that in M 260
error may now be M 260
error and then the M 256
error and that no M 256
error log can be M 246
error and sin by M 246
error and lead to M 242
error they may be M 240
error than any of M 240
error and not on M 240
error and use the M 236
error and not of M 234
error for that of M 232
error than did the M 226
error than out of M 218
erect for him in M 218
error that one is M 216
error that was the M 214
error does not go M 214
error did not go M 214
error and that if M 214
error and let the M 214
erase head and the M 213
error and out of M 212
error and has no M 210
error and how the M 208
erect and with an M 208
error are not the M 206
error and not in M 204
error and are in M 186
error lay with the M 184
error and put the M 184
erect and not in M 184
error was for the M 182
error for one to M 180
erase all that is M 180
error was all the M 176
error that god is M 176
error for use in M 174
error than can be M 172
error hath led us M 172
error and has to M 172
error was easy to M 170
error that this is M 170
error being one of M 164
error than not to M 162
error are that the M 162
error and has the M 162
error that has the M 160
error and not as M 160
error that man is M 158
error being that the M 156
error was put in M 155
error that led the M 154
error was set to M 150
error that was in M 150
error than that in M 150
error lay not so M 150
erasing all but the M 150
erect and may be M 147
error than was the M 146
error than that the M 146
error but this is M 146
error are not to M 146
error and sin to M 146
error and heal the M 146
error they can be M 144
error one has to M 144
erase them with the M 144
error and bias as M 143
error that they do M 142
error are not so M 140
error that has no M 138
error log for the M 138
error and use it M 138
error was due in M 136
error can not in M 136
error but can be M 136
error and using the M 136
error and run the M 136
error was one in M 134
error but for the M 134
error and all of M 134
erase them all at M 134
error that you do M 132
error being that of M 132
error and put it M 132
error are not as M 131
error may lead us M 130
erect and easy in M 130
error and bring the M 128
error for one or M 126
error and that an M 124
error and led to M 124
erect with all the M 124
error and not be M 122
error and bias of M 122
error may yet be M 120
error has had the M 120
error has all the M 120
error for fear of M 120
error and death of M 120
error and see the M 118
erect and can be M 117
error that goes to M 116
error they are in M 112
error that lay at M 112
error box for the M 112
erect and that the M 111
error led them to M 110
error but not of M 110
erect head and the M 110
error but may be M 108
error and had the M 108
error and had no M 108
erect but with the M 108
error was not on M 106
error that lead to M 106
error that all of M 106
error can not do M 106
error and bias is M 106
error but with the M 104
erect and put in M 104
erect and let the M 104
error has led us M 102
error but not to M 100
error and let it M 100
erect and then to M 99
error was and is M 98
error that men of M 98
error has had in M 98
erect and out of M 98
error and why it M 96
error and ask the M 96
error that was so M 94
error that one of M 94
error and thus of M 94
erect old man in M 94
erect for him as M 93
error than all the M 92
error and why the M 92
error and thus is M 92
erase them out of M 92
error for her to M 90
erect and try to M 89
error that has an M 88
error now than to M 88
error lay with me M 88
error has yet to M 88
erect for him the M 87
error you may be M 86
error was apt to M 86
error are not in M 86
error are apt to M 86
error and with it M 86
error and use of M 86
error and due to M 86
erasing all that is M 86
error that may or M 84
error had not the M 84
error but not in M 84
error are for the M 84
error and how he M 84
error was going to M 82
error that has so M 82
error than this in M 82
error than that it M 82
error and one or M 82
error was that as M 80
error was out of M 80
error was not at M 80
error say that the M 80
error due both to M 80
error and that at M 80
error and add the M 80
erect and put up M 56
erect and use the M 50
erect with head up M 48
erect and fit up M 45
erect them with the M 40
erect and all the M 40
erred and that the D 601
erred too far in D 242
erred and that he D 178
erase all ink on D 169
erred too far on D 168
eroding and that the D 148
erred was not in D 136
erupt with all the D 120
erupt and lead to D 104
error met with in D 104
error was met by D 100
