erect for a few M 662
error and a new M 378
error that i had M 376
error that a man M 364
error and a lie M 350
erect for a long M 300
error for a man M 284
error that i was M 266
erect for a head M 261
error for a long M 260
error and a lot M 250
error and a sin M 232
error that i can M 226
error for a set M 221
error for a two M 185
error with a mean M 183
error for a new M 182
error and i was M 178
error and a few M 170
error with a new M 152
error that i did M 146
error has a mean M 145
error for a one M 144
error for a few M 144
error than a man M 130
error for a mean M 124
error that i may M 120
error and a low M 116
error for a map M 106
error than a new M 104
erect than i had M 102
erect for a man M 96
error has a long M 94
error and i see M 90
eroding for a long D 100
