error as well as M 14442
error is made in M 10834
error of trying to M 7198
error of plus or M 5473
error in reading the M 4791
error to think of M 4774
error is made by M 4538
erase the name of M 4423
error of fact or M 4420
error by means of M 4274
error as soon as M 3919
erase it from the M 3508
error as much as M 3325
error is used to M 3272
error to speak of M 2936
error to find the M 2566
error is plus or M 2558
error in making the M 2526
error in trying to M 2392
error is said to M 2363
error in some of M 2328
error if there is M 2240
error of making the M 2210
error to fail to M 2112
error of such an M 1960
error of taking the M 1784
error in view of M 1686
error in taking the M 1658
error of fact in M 1576
error or lack of M 1574
error in such an M 1562
error as great as M 1452
erasing the name of M 1440
error to make the M 1432
erase it from my M 1396
error in giving the M 1394
error is made if M 1356
error to give the M 1304
erase the pain of M 1208
error in fact or M 1198
error to take the M 1182
erect it into an M 1148
error is seen to M 1106
error in name or M 1073
error is when the M 1070
error to deny the M 1056
error is made on M 998
error in case of M 970
error is used in M 956
error is part of M 956
error is used as M 937
error of some of M 894
error of reading the M 870
error by trying to M 858
error it will be M 852
error is just as M 848
error to treat the M 816
error of many of M 814
error is seen in M 756
erasing it from the M 739
error as part of M 732
error to call the M 728
error in time to M 720
error by making the M 708
error in what he M 702
error of fact is M 698
erect by means of M 694
error in most of M 680
error the giving or M 674
error as high as M 670
error in length of M 669
error is made of M 668
error is just the M 652
error in many of M 648
error to give an M 630
error we make in M 624
erase the fact of M 614
error by taking the M 602
error he made in M 600
error of giving the M 598
error to view the M 592
error to deny it M 570
error to leave the M 558
erase the mark of M 558
error is sure to M 542
erect as well as M 542
error of seeing the M 526
error to rely on M 519
error of most of M 512
error is hard to M 512
error in reading is M 504
error it must be M 500
error is made to M 500
error we have to M 490
error is zero at M 484
error to omit the M 478
error in reading or M 478
error be made in M 478
error is only in M 462
error of making an M 458
error is sent to M 458
error to have the M 456
error is also the M 456
error or loss of M 448
erect as soon as M 444
error is made at M 440
error is from the M 436
error the same as M 434
error to make it M 430
erase the data in M 422
error is made or M 420
error to call it M 416
error is there in M 416
error is only the M 416
error is made the M 416
erase the data on M 416
error in what is M 414
error by giving the M 412
error so much as M 406
error is made it M 404
erase me from the M 394
error in coming to M 392
error in what we M 380
error to seek to M 378
error in adding the M 374
error to tell the M 372
error is trying to M 372
error in naming the M 372
error in time of M 366
error is made up M 362
error we made in M 359
error is seen as M 359
erect the mind by M 358
error of making it M 356
error in making an M 346
error of fact as M 344
error in what it M 340
error we need to M 336
error on part of M 336
error is only an M 336
error in case the M 336
error the case is M 332
erase as much as M 330
erase the line of M 324
error is more or M 322
erase the years of M 322
error is only of M 320
error by moving the M 318
error as there is M 316
erect it into the M 316
erase the part of M 313
error of half an M 312
error in making up M 312
erase the look of M 312
error is such as M 310
error is half the M 310
error in fact is M 300
erase us from the M 298
erase the rest of M 298
erect the same in M 296
erase the feel of M 294
error to look at M 292
error of faith in M 292
error to test the M 288
error of even the M 288
error by adding the M 288
error we make is M 286
error to think the M 286
error of date in M 286
error is less in M 284
error is held to M 284
error in reading of M 284
error as such is M 284
erase as well as M 284
error is lack of M 282
error in adding up M 282
error in date of M 278
error to base the M 276
error in much of M 272
error of adding the M 270
erect the kind of M 270
error or from the M 264
error of what is M 260
error of taking it M 260
error or want of M 258
error of mixing up M 258
error to hold the M 256
error in angle of M 256
error so great as M 255
error is made as M 253
error in making it M 248
error in giving an M 248
error by reading the M 248
error of giving to M 246
erase the role of M 246
error in time is M 242
error to find an M 240
error in form or M 238
error is what is M 236
error or when the M 232
error of much of M 232
error of fact to M 230
error in fact in M 230
error to give it M 226
error is only to M 226
error of having the M 224
error by having the M 224
error we want to M 222
error of three or M 220
error to wish to M 218
error on face of M 218
error in even the M 216
error to zero in M 214
error by making an M 212
erase the need to M 210
error to deny to M 208
error in saying the M 208
error the name of M 204
error of means of M 204
error of such as M 203
error to make an M 202
error the ratio of M 202
error or there is M 200
error of mine in M 200
error of reading is M 198
error or even of M 196
error in taking up M 196
error by making it M 196
error of seeing in M 195
error to truth is M 194
error or flaw in M 192
error of what he M 192
erase the work of M 192
error to talk of M 190
error of clinging to M 190
erase the threat of M 190
error is zero if M 188
erase the pain in M 188
error to look on M 186
error of form in M 186
erect the hair on M 186
error to seek the M 184
error in noting the M 184
erect the city of M 184
error to such an M 182
error of giving up M 182
error of form or M 182
error he will be M 182
erasing the mark of M 182
error of asking the M 180
error in much the M 178
error or give the M 176
error is kept to M 176
error we wish to M 174
error to think so M 172
error is what we M 172
error as early as M 172
erect it upon the M 171
error to think it M 170
error in coding the M 170
erect as many as M 170
erect as those of M 169
erase as much of M 168
error to leave it M 166
error of taking an M 166
error is also to M 166
error is also in M 166
error of four or M 164
error in range of M 164
error in faith or M 164
erect the tomb of M 164
erase the pain he M 164
erect to look at M 163
error we speak of M 162
error to zero at M 162
error to those of M 162
error to half the M 160
error to come up M 160
error as will be M 160
error of giving it M 158
error is also an M 158
error in angle is M 158
error in range is M 156
error as fast as M 156
erect or more or M 156
erect an idol in M 156
erase the meaning of M 156
error the giving of M 154
error so dark as M 154
error is when we M 154
error is used by M 154
error on some of M 152
error of five or M 152
error is zero in M 152
error in what the M 152
error as seen in M 152
erasing the last of M 152
erect the type of M 149
error of reading of M 148
error of fact on M 148
error of acting as M 148
error in form of M 148
error to send the M 146
error to keep the M 146
error is left to M 146
error in having so M 146
erect the town of M 144
error to draw the M 142
error in length is M 142
error of those is M 140
erect the same at M 139
erase the past or M 138
error to make in M 137
error is meant the M 136
error is made is M 136
error by adding to M 136
erasing the line of M 136
error to take it M 134
error is zero or M 134
error in giving it M 134
error to zero is M 132
error to learn the M 132
error to reach the M 130
error is upon the M 130
error is high in M 130
error to jump to M 128
error is among the M 128
error in saying it M 128
error if none of M 128
error we make by M 126
error by adding an M 126
error of half the M 124
error if used in M 124
erase the loss of M 124
erase my name or M 124
error of those of M 122
error of many in M 122
error is full of M 122
error in data or M 122
error in coding or M 122
error to want to M 120
error to show the M 120
error of sign in M 120
error is great in M 120
error in sign in M 120
error as when he M 120
erase the face of M 120
erect to show the M 119
error in word or M 118
error by asking the M 118
erect to meet the M 117
erect as when he M 117
error we must be M 116
error of those in M 116
error my mind is M 116
error in faith is M 116
error at time of M 116
erect the theory of M 116
erect it over the M 116
erase the past in M 116
error to think we M 114
error to leave to M 114
error the size of M 114
error is like the M 114
error is half of M 114
error we find in M 112
error to seek in M 112
error the mark of M 112
error of three to M 112
error of mind or M 112
error in name of M 112
error or even to M 110
error is none the M 110
error is making the M 110
error by what is M 110
error as those of M 110
erase the mark in M 110
erasing the rest of M 108
erase the past by M 108
error to truth in M 106
error of youth is M 106
error of naming the M 106
error of giving an M 106
error in taking it M 106
erect the will of M 106
erase the last of M 106
error to rate the M 104
error to look to M 104
error the rate of M 104
error so full of M 104
error of five to M 104
error is open to M 104
error is none of M 104
error is less to M 104
error is less the M 104
error is less of M 104
error in asking the M 104
error we have in M 102
error to fill the M 102
error is most to M 102
error in reading an M 102
erect the form of M 101
error to make is M 100
error of making no M 100
error is also of M 100
error in need of M 100
error at work in M 100
error as some of M 100
error we have no M 98
error we find the M 98
error to come to M 98
error is much the M 98
error is less if M 98
error is able to M 98
error by plus or M 98
erase the pain or M 98
error be seen as M 97
error to zero by M 96
error to treat it M 96
error or need to M 96
error of acting on M 96
erase the truth of M 96
erase the text in M 96
erase the past of M 96
error to meet the M 94
error or truth of M 94
error or fail to M 94
error of leading the M 94
error is more to M 94
error in rating is M 94
error in giving to M 94
erasing the fact of M 94
error of lack of M 92
error in saying he M 92
error in reading it M 92
erect the arms of M 92
erect an arch of M 92
error to speak as M 90
error or evil is M 90
error in will be M 90
error in taking an M 90
error in having the M 90
error by coming to M 90
erect the rest of M 89
error we have the M 88
error of having no M 88
error it made in M 88
error is seen by M 88
error is more of M 88
error in seeing the M 88
error in mixing the M 88
error in life is M 88
erect as ever in M 88
erasing the pain of M 88
error of zero is M 86
error of some to M 86
error of even so M 86
error of coming to M 86
error in reading to M 86
error by taking it M 86
erect the idol of M 86
error to think in M 84
error to make of M 84
error to give to M 84
error of youth to M 84
error of more or M 84
error is when it M 84
error is when an M 84
error is less at M 84
error by seeing the M 84
erase as many of M 84
error is less as M 83
error we have so M 82
error to give up M 82
error the time is M 82
error of what we M 82
error of losing the M 82
error is what he M 82
error is tied to M 82
error in laying the M 82
error in just the M 82
error as used in M 82
erect the face of M 82
erect it hard by M 82
erase the hurt of M 82
error or even the M 80
error of taking up M 80
error in work of M 80
error as many of M 80
erect an idol of M 80
error of taking as M 56
erect to face the M 49
erect in some of M 47
error to take as M 43
erect to keep the M 41
erect as high as M 40
erred in trying to D 1818
erred in making the D 1660
erred in giving the D 1555
erode the base of D 1114
erred in some of D 900
erred in taking the D 856
error in fixing the D 850
eroding the base of D 668
error in leaving the D 588
erred in giving to D 568
error of leaving the D 556
erred as much in D 532
erode the role of D 488
error in dating the D 458
erred in fixing the D 456
error in diet or D 428
erode the wall of D 392
erred in ruling on D 382
erred in giving an D 368
erred by trying to D 340
erred in seeing the D 332
erupt as soon as D 324
erase the sins of D 316
erect the fort of D 314
eroding the role of D 306
error is akin to D 294
erred as much on D 294
erode the will to D 290
erode the lining of D 286
error in bringing the D 272
error in timing the D 266
error in diet is D 266
erred in leaving the D 256
erred in coming to D 252
error in typing the D 250
erred in what he D 250
erode the faith of D 246
erred in many of D 238
erred so much in D 234
erred in nothing so D 231
erode the will of D 230
error at least as D 226
erred in reading the D 222
erode the meaning of D 208
erase the blot of D 208
error in ruling on D 204
erode the rule of D 202
error in timing of D 200
erred in ruling as D 200
erode the hold of D 198
erred in making an D 190
erred as much as D 190
erode as much as D 190
erred in making it D 188
erred in adding the D 186
erode the bone of D 184
error of diet or D 182
erred by making the D 182
erred so much as D 180
error or slip of D 174
erred as well in D 174
erase the blot on D 172
erupt as early as D 170
eroding the rule of D 170
eroding the wall of D 168
error in citing the D 158
erred in giving it D 158
error in timing is D 154
erode as soon as D 154
erred in dating the D 152
eroding the will of D 146
error of fixing the D 136
error in bringing up D 136
erode as early as D 136
erect the tent in D 134
erect the fort at D 134
error the ruling of D 130
error in typing or D 126
error by bringing the D 126
erect the wall of D 126
erupt in acts of D 122
eroding the faith of D 122
error of dating the D 120
error at least in D 120
erred by giving the D 120
erupt in anger at D 118
erode the health of D 118
error in filing or D 116
erred in ruling to D 116
erred in laying it D 116
erupt in fits of D 114
error in timing or D 114
erred in naming the D 114
erode the core of D 114
ergot as soon as D 113
erred in taxing the D 112
eroding the core of D 110
error in typing in D 106
erred in ruling the D 106
erred in basing the D 106
error of bringing the D 102
erect in soul he D 102
erupt in anger or D 100
erred in saying the D 98
erred as well as D 98
error of basing the D 96
erred in fixing on D 96
erode the rate of D 96
error by leaving the D 94
ergot is said to D 86
erect the tent on D 86
erred in taking up D 84
eroding the health of D 84
eroding the will to D 82
eroding the meaning of D 80
erode the face of D 80
erect the dome of D 55
