erect a set of M 681
error i can go M 356
erase a lot of M 338
error i mean is M 312
erect a new wing M 170
erect a heap of M 146
error a and the M 128
error i see in M 122
error i was in M 104
error i had to M 94
error a set of M 84
error t for ho D 680
erect a dam on D 384
erect a row of D 340
erect a dam in D 256
erect a dam or D 206
erect a hut on D 192
erect a hut of D 170
erect a dam at D 158
erect a dam to D 152
erect a hut at D 138
erect a hut in D 122
erect a dam of D 98
