night is dark and M 7930
night he went out M 6397
night we were all M 6178
night we went out M 5498
night the city was M 4513
night on their way M 4430
night to look for M 4278
night to find out M 4260
night the moon was M 3616
night in their own M 3552
night to tell him M 3416
night he made his M 3228
night the town was M 3209
night to tell you M 3004
night to find her M 2932
night of wind and M 2916
night to keep them M 2875
night to tell her M 2869
night to find that M 2779
night the young man M 2640
night the wind was M 2601
night to find his M 2576
night of love with M 2420
night the wind had M 2378
night is from day M 2330
night in jail and M 2330
night or early this M 2198
night is cold and M 2182
night in jail for M 2176
night to come and M 2159
night of rain and M 2102
night of their own M 2073
night at home with M 1996
night is clear and M 1992
night he told her M 1972
night he told his M 1820
night of love and M 1806
night to keep out M 1802
night he left his M 1786
night we were going M 1778
night we have had M 1752
night so dark that M 1733
night in their new M 1732
night is over and M 1692
night to find him M 1677
night to hunt for M 1656
night we were out M 1640
night to give him M 1574
night to care for M 1507
night the ship was M 1502
night to give them M 1497
night to keep him M 1479
night at home and M 1454
night he sent for M 1446
night to those who M 1433
night we made our M 1422
night he came out M 1402
night as best they M 1399
night we were not M 1390
night to keep her M 1372
night of pain and M 1350
night to wait for M 1326
night he left for M 1298
night to meet her M 1284
night the baby was M 1280
night he came and M 1266
night the next day M 1250
night to make her M 1242
night to make his M 1241
night to ward off M 1234
night we heard that M 1212
night or what you M 1210
night to help him M 1193
night is more than M 1190
night to give her M 1179
night to pray for M 1178
night in early may M 1175
night if there was M 1166
night in town and M 1156
night in time for M 1154
night in your own M 1142
night to kill him M 1128
night the moon had M 1122
night the body was M 1120
night is young and M 1118
night of fire and M 1094
night to help her M 1072
night to show him M 1050
night to take her M 1049
night to talk with M 1037
night is warm and M 1036
night to meet with M 1018
night to make them M 1004
night is calm and M 994
night he lost his M 990
night is soft and M 980
night to give you M 972
night to feed and M 972
night or when you M 967
night we were both M 960
night to take his M 960
night to keep his M 959
night of rest and M 958
night of last year M 940
night to make him M 939
night to take him M 934
night to tell them M 929
night to meet him M 899
night he said that M 898
night or next day M 892
night on their own M 892
night the moon and M 878
night the room was M 872
night of snow and M 872
night my mind was M 870
night is past and M 868
night in tears and M 862
night the cold was M 860
night the young men M 858
night of time far M 857
night by those who M 848
night to their own M 837
night to stay with M 828
night to seek for M 827
night he went with M 822
night is cool and M 820
night of cold and M 816
night to help you M 788
night no less than M 778
night we left for M 772
night to help with M 772
night to make you M 755
night as there was M 751
night he will not M 750
night he felt that M 743
night to help them M 742
night or when they M 734
night he knew that M 732
night of more than M 724
night he heard his M 724
night the hall was M 722
night to keep off M 719
night in reading and M 710
night the rain had M 708
night in what was M 702
night the wind and M 696
night in peace and M 694
night to take them M 685
night the door was M 681
night he sent his M 670
night of peace and M 664
night to meet his M 657
night he came with M 650
night he heard her M 648
night he gave his M 640
night the fire was M 638
night in late may M 631
night the work was M 628
night the play was M 626
night to play with M 621
night on your own M 618
night by some one M 614
night of what was M 612
night he left her M 610
night we heard them M 602
night the three men M 596
night is coming and M 590
night is good for M 586
night in town with M 584
night is gone and M 582
night we went with M 576
night to pray and M 574
night he kept his M 574
night to show that M 573
night to warn you M 564
night of love that M 563
night he held her M 562
night he gave her M 558
night he went for M 552
night the same way M 550
night as there are M 546
night in jail with M 542
night we went for M 538
night is less than M 534
night he went off M 533
night the pain was M 532
night the girl was M 531
night to show you M 528
night to work out M 526
night the snow was M 515
night we held our M 512
night be dark and M 512
night to save her M 509
night as ever was M 506
night we were off M 505
night to have his M 502
night of tears and M 502
night in case she M 502
night we play our M 500
night of time and M 496
night in case they M 496
night to open and M 492
night we were put M 490
night to find them M 488
night he died and M 488
night to make our M 485
night we were lying M 484
night to rest and M 483
night to save his M 482
night at their own M 476
night to tell his M 475
night so dark and M 469
night to feed her M 468
night to turn out M 467
night to know that M 466
night to come out M 465
night on your way M 462
night in your new M 458
night he went and M 454
night we heard him M 452
night the ship had M 452
night my heart was M 452
night to keep you M 451
night at home for M 450
night to take off M 449
night the snow had M 447
night to find you M 442
night he told them M 442
night the same man M 440
night he woke with M 440
night to make one M 438
night of moon and M 438
night is made for M 438
night to look out M 437
night so cold that M 436
night to warn him M 435
night it went off M 430
night is young yet M 427
night we lost our M 420
night we have not M 420
night it will not M 420
night in jail was M 420
night or during bad M 416
night to meet them M 414
night to speak with M 413
night we will not M 410
night of love was M 408
night the girl had M 407
night of toil and M 406
night the road was M 398
night or more than M 398
night to make this M 393
night to fall and M 390
night of early may M 389
night he woke and M 388
night to save him M 386
night at home was M 386
night he heard that M 380
nicer to work with M 380
night the fire had M 372
night the army was M 372
night he sent out M 372
night by saying that M 372
night to give his M 370
night it came out M 370
night of nothing but M 368
night to thank him M 366
night he gave them M 366
night at length put M 364
night we left our M 362
night to join his M 362
night by seeing its M 362
night so there was M 360
night by their own M 360
night to meet you M 358
night to help his M 358
night is wild and M 358
night in less than M 357
night we were too M 356
night to join you M 354
night the rain was M 353
night in more than M 352
night to feed him M 348
night at what was M 348
night to learn that M 346
night we came out M 345
night the show was M 344
night as well and M 342
night to show her M 340
night so fast that M 340
night is nothing but M 340
night the poor man M 339
night is fine and M 338
night to think that M 336
night to more than M 334
night the sick man M 332
night in case you M 332
night to steal his M 330
night to cool off M 330
night we have our M 326
night to meet this M 326
night to feed them M 324
night to reach his M 322
night the boys had M 322
night of trial and M 322
night to seek out M 319
night the boys and M 319
night to play for M 315
night he fell out M 315
night to show them M 311
night to talk and M 310
night is deep and M 310
night he felt his M 310
night we gave our M 308
night to show his M 308
nicer to live with M 308
night to make any M 307
night is very long M 305
night he made her M 304
night to join her M 302
night in cold and M 302
night to make out M 300
night he left them M 300
night we heard her M 298
night or when lying M 298
night in making his M 298
night the wind has M 292
night we were doing M 290
night or even for M 290
night in great fear M 290
night in rain and M 288
night to have her M 287
night is over you M 286
night we knew that M 285
night the same old M 284
night is done and M 284
night the dream was M 277
night to think things M 276
night of what had M 276
night is when you M 276
night in their wet M 276
night to find one M 275
night to save them M 274
night to kill her M 274
night no more than M 272
night the wind got M 270
night of rain all M 270
night he heard them M 270
night at home she M 270
night we were wed M 268
night the same day M 268
night to work with M 267
night or when she M 266
night in what had M 266
night he fell ill M 266
night to make that M 265
night we went and M 264
night the other two M 264
night of hope and M 264
night be dark for M 264
night the line was M 262
night of work and M 262
night so much that M 258
night to find our M 257
night to teach him M 256
night is their day M 256
night in spring and M 256
night is ending and M 254
night is best for M 254
night in their old M 254
night he held his M 254
night to take out M 253
night it kept with M 252
nicer to have you M 250
night to find and M 247
night in pain and M 246
night of those who M 244
night in songs and M 244
night to reach her M 242
night on land and M 242
night to pour out M 240
night we sent out M 239
night to play and M 239
night to learn how M 239
night to come that M 238
night to seek his M 236
night on what was M 236
night if there had M 236
night he came for M 236
night we ever had M 234
night to keep our M 234
night to help out M 234
night the bell was M 234
night on more than M 234
night of life and M 234
night is gone that M 233
night to call for M 232
night to show off M 230
night he used his M 230
night the talk was M 227
night to seek its M 226
night of what they M 226
night is meant for M 226
night he said his M 226
night to hide his M 224
night or when not M 224
night of talk and M 224
night by four men M 222
night to join him M 220
night the cold air M 220
night in what they M 220
night to pass and M 216
night if there are M 215
night we were due M 214
night to take you M 214
night of lady day M 214
night by more than M 214
night at their new M 214
night we come and M 212
night the town had M 212
night of deep and M 212
night is heavy with M 212
night we were eating M 210
night of love had M 210
night to leave this M 209
night we were with M 208
night so warm that M 208
night of less than M 208
night the lake was M 206
night the word was M 205
nicer to have them M 205
night to have you M 203
night of what you M 200
night the four men M 198
night of arms and M 198
night he laid his M 198
night the band was M 197
night in wait for M 196
night we must get M 194
night to wash his M 194
night to warn them M 192
night to sort out M 192
night to meet and M 192
night the city had M 192
night in case any M 192
night to work for M 191
night to wash and M 190
night to kill them M 190
night to join them M 190
night the mate and M 190
night of rest for M 190
night is dark with M 190
night we make our M 188
night to call him M 188
night on duty and M 188
night in jail had M 188
night he will die M 188
night or even two M 187
night to have them M 186
night the plan was M 186
night the game was M 186
night of calm and M 186
night of aeons she M 186
night he died was M 184
night at peace with M 184
night the poor boy M 182
night in what she M 182
night to come with M 181
night we will all M 180
night we leave for M 180
night to call her M 180
night to have him M 178
night the fact that M 178
night of dread and M 178
night he sent off M 178
night at nine and M 176
night the rain beat M 175
night we laid our M 174
night to reach our M 174
night to pray that M 174
night to kiss her M 174
night to kill and M 174
night of their long M 174
night he sees her M 174
night at home but M 174
night as flying low M 174
nicer to think that M 174
night we went off M 173
night to hold her M 172
night to feed his M 172
night we heard his M 170
night is over all M 170
night in vain for M 170
night at work and M 170
night to work and M 169
night so dark but M 168
night so cold and M 168
night is used for M 168
night by young men M 168
night the land was M 166
night is vast and M 166
night to teach them M 164
night to rest his M 164
night to hunt and M 164
night to find this M 164
night to drop off M 164
night or what was M 164
night of love for M 164
night it went out M 164
night he left with M 164
night to help and M 163
night to shut out M 162
night to pray with M 162
night to pick them M 162
night the part that M 162
night the good man M 162
night the baby had M 162
night he kept them M 162
night the eyes are M 161
night we must all M 160
night to save you M 160
night to plead for M 160
night the gale had M 160
night of what she M 160
night of such and M 160
night of food and M 160
night in town was M 160
night to take our M 159
night the lord was M 159
night to play his M 158
night the lord had M 158
night the jail was M 158
night in peace with M 158
night to speak for M 157
night of rest was M 156
night of mist and M 156
night he laid him M 156
night we made this M 154
night to leave her M 154
night the cold had M 154
night or early that M 154
night in fits and M 154
night he wore his M 154
night he woke her M 154
night to find all M 153
night the dull sky M 152
night is when they M 152
night is like any M 152
night is dark but M 152
night in town for M 152
night in some one M 152
night to wake him M 150
night to pick him M 150
night to less than M 150
night to calm her M 150
night the wind being M 150
night of time all M 150
night is what you M 150
night in reading them M 150
night to talk things M 149
night to kill you M 149
night it went too M 149
night up there and M 148
night to clear out M 148
night of birth and M 148
night in some way M 148
night as loud and M 148
night as best she M 148
night we have all M 147
night to reach him M 147
night the time for M 147
night we were being M 146
night to thank god M 146
night to send him M 146
night the dogs had M 146
night of their being M 146
night is very far M 146
night is only one M 146
night he sent her M 146
night to walk with M 145
night to make all M 145
night the book was M 145
night to warn her M 144
night to plead with M 144
night to know how M 144
night to call his M 144
night the same men M 144
night the peace was M 144
night the flag was M 144
night of their new M 144
night is like day M 144
night at their ease M 144
night to wash out M 142
night the deed was M 142
night of time has M 142
night of some new M 142
night is upon him M 142
night in calm and M 142
nicer in your own M 142
night we will try M 140
night he told him M 140
nicer to think dear M 140
night to thank you M 138
night the body had M 138
night of your own M 138
night is unto them M 138
night is come and M 138
night in nothing but M 138
night he made out M 138
night at odds with M 138
night at more than M 138
night to feel that M 137
night my room was M 137
night to turn off M 136
night the mail was M 136
night the food was M 136
night the best way M 136
night of your death M 136
night of dark and M 136
night at your old M 136
night as their own M 135
nicer to know that M 135
night we will see M 134
night we know that M 134
night to help pay M 134
night to have our M 134
night to fill her M 134
night of wild and M 134
night of wars and M 134
night in snow and M 134
night in open air M 134
night he wept and M 134
night he heard one M 134
nicer to have had M 134
night we have one M 133
night we said our M 132
night to reach this M 132
night so clear that M 132
night of rain had M 132
night of great joy M 132
night he will see M 132
night he heard him M 132
night to take one M 131
night the boys are M 131
night to pick her M 130
night the rich man M 130
night the ones that M 130
night of reading and M 130
night is mild and M 130
night he wore this M 130
night he ever had M 130
night to think how M 129
night we sent off M 128
night we pray for M 128
night the view was M 128
night so clear and M 128
night of hanging out M 128
night in there with M 128
night he kept her M 128
night to think and M 126
night to keep things M 126
night the pain had M 126
night the only way M 126
night the moon has M 126
night on some old M 126
night my life was M 126
night my eyes are M 126
night is late and M 126
night at last put M 126
night the tree was M 125
night it means that M 125
night we kept our M 124
night we have got M 124
night we gave them M 124
night to turn and M 124
night to fish for M 124
night the poor old M 124
night the pair had M 124
night or wait for M 124
night on what they M 124
night of evil and M 124
night he gave him M 124
night to send out M 123
night to their old M 122
night to send them M 122
night to seek her M 122
night to call you M 122
night the rain and M 122
night the moon did M 122
night the gate was M 122
night is very bad M 122
night is upon you M 122
night in your old M 122
night in caring for M 122
night he will get M 122
night by fits and M 122
night to clean out M 121
night to what they M 120
night to stop her M 120
night to save our M 120
night to keep this M 120
night so calm that M 120
night of lust and M 120
night is left and M 120
night in here with M 120
night as dark and M 120
night to take this M 118
night the work goes M 118
night the ship ran M 118
night or during off M 118
night of their death M 118
night is past all M 118
night is fair with M 118
night in some old M 118
night in some new M 118
night he left and M 118
nicer to work for M 118
night to their new M 117
night the town and M 117
night we told him M 116
night we sent for M 116
night to keep any M 116
night to fill his M 116
night to ever end M 116
night is asking for M 116
night he fled with M 116
night by what they M 116
night or even one M 115
night we learn that M 114
night to walk out M 114
night to rain and M 114
night to make things M 114
night to live with M 114
night to burn and M 114
night the ship lay M 114
night the cool air M 114
night so calm and M 114
night on what had M 114
night is over they M 114
night at your own M 114
night as cold and M 114
night to test his M 112
night to reach its M 112
night to pull out M 112
night to make its M 112
night the shop was M 112
night the bank was M 112
night or even that M 112
night in these two M 112
night in talk with M 112
night he made this M 112
night he came not M 112
night be heard for M 112
night to pick out M 111
night to these two M 110
night to call out M 110
night the girl and M 110
night or from one M 110
night of love has M 110
night is loud with M 110
night in love and M 110
night he went too M 110
night to join our M 109
night to have one M 109
night so very long M 109
night we will get M 108
night we were set M 108
night we sent him M 108
night we heard its M 108
night to what was M 108
night to make new M 108
night to give our M 108
night to find two M 108
night to cool and M 108
night the room had M 108
night the lady was M 108
night the hate you M 108
night the beach was M 108
night on their long M 108
night of faith and M 108
night is like this M 108
night in deep and M 108
night he just did M 108
night to take any M 107
night to leave his M 107
night my heart has M 107
night we just sat M 106
night we held each M 106
night to urge him M 106
night to pass his M 106
night to bathe and M 106
night the teams and M 106
night the moon hung M 106
night the last two M 106
night the girl lay M 106
night of love she M 106
night is cold but M 106
night in jail but M 106
night he felt her M 106
night be said that M 106
night we gave him M 104
night to teach her M 104
night to steal her M 104
night to leave them M 104
night to draw off M 104
night the ocean was M 104
night or even all M 104
night on bare earth M 104
night my rest was M 104
night my lord and M 104
night is fair and M 104
night in their big M 104
night in jail did M 104
night he will hear M 104
night he tied her M 104
night he sent one M 104
night he fell off M 104
night he ever saw M 104
night by three men M 104
night at some one M 103
night we left new M 102
night we heard our M 102
night we find him M 102
night we felt that M 102
night up there with M 102
night to your own M 102
night to weep for M 102
night to wake you M 102
night to make way M 102
night the port was M 102
night the pair was M 102
night so wild with M 102
night of wide and M 102
night in your box M 102
night he tied his M 102
night he sent him M 102
night he lost all M 102
night we were near M 101
night the pain and M 100
night the last one M 100
night the land and M 100
night the fact was M 100
night of gale and M 100
night is just not M 100
night in their long M 100
night he will lie M 100
night he sent two M 100
night at dark and M 100
night to stay for M 99
night we sent our M 98
night we came with M 98
night to those two M 98
night to come was M 98
night to clean and M 98
night the hole was M 98
night of what are M 98
night it will all M 98
night he told you M 98
night he made him M 98
night or when one M 97
nicer in fact than M 97
night we left and M 96
night we know not M 96
night we heard this M 96
night to stop them M 96
night to steal and M 96
night to stay and M 96
night to send for M 96
night to kill his M 96
night to keep its M 96
night the hill was M 96
night is here and M 96
night he made them M 96
nicer to have him M 96
night to have this M 95
night to cool his M 95
night we take our M 94
night to wipe out M 94
night to send his M 94
night to pass with M 94
night to help get M 94
night the safe was M 94
night the holy man M 94
night the dark and M 94
night of crying and M 94
night is over for M 94
night in rest and M 94
night in port was M 94
night he will sit M 94
night he must not M 94
night he felt ill M 94
night to turn them M 92
night to steal our M 92
night to rise and M 92
night to meet our M 92
night to linger for M 92
night to hide them M 92
night to feel her M 92
night to come for M 92
night to bury his M 92
night to break his M 92
night the weary men M 92
night the same things M 92
night the case was M 92
night so early and M 92
night of said day M 92
night of ages and M 92
night is just too M 92
night is just one M 92
night is heavy and M 92
night in dark and M 92
night he made two M 92
night be clear and M 92
night at many men M 92
night an hour ago M 92
nicer to play with M 92
night my life had M 91
night we were far M 90
night to stop him M 90
night to good use M 90
night the boys got M 90
night or what they M 90
night is blue and M 90
night he made all M 90
night to leave for M 89
night we even had M 88
night to warn his M 88
night to think this M 88
night the same year M 88
night it came and M 88
night is here but M 88
night he will let M 88
night he knew she M 88
night at once and M 88
night the dogs did M 87
night we went all M 86
night we also had M 86
night to send her M 86
night to plan for M 86
night to feel his M 86
night to burn them M 86
night the same two M 86
night the dream had M 86
night so dark you M 86
night or more for M 86
night of those two M 86
night of such long M 86
night of loss and M 86
night my face was M 86
night is upon them M 86
night in trying for M 86
night in some bar M 86
night he made one M 86
night he knew not M 86
night he asks her M 86
night we were each M 84
night to think out M 84
night to steal them M 84
night to open his M 84
night to keep that M 84
night to hold them M 84
night to hide her M 84
night the songs are M 84
night the soft dip M 84
night the lady and M 84
night the five men M 84
night is wild with M 84
night in what may M 84
night in turn with M 84
night in town they M 84
night in there and M 84
night in hope that M 84
night in giving them M 84
night he sets out M 84
night he heard all M 84
night by your own M 84
night by some men M 84
night in making out M 83
night we kept them M 82
night we felt our M 82
night to work off M 82
night to seek god M 82
night to leave him M 82
night to know why M 82
night to help bring M 82
night to cool them M 82
night my good east M 82
night is only for M 82
night in case one M 82
night in anger with M 82
night he woke his M 82
night he more than M 82
night he gave you M 82
night he came near M 82
night we were led M 80
night we must not M 80
night we left was M 80
night we heard one M 80
night to steal all M 80
night to plan and M 80
night to make for M 80
night to hold his M 80
night to clear his M 80
night to calm him M 80
night of your fear M 80
night of love they M 80
night of hell and M 80
night no more was M 80
night my lord read M 80
night my door was M 80
night is like that M 80
night in wind and M 80
night in town she M 80
night in port things M 80
night he puts his M 80
night he gets his M 80
night by taking off M 80
night at hand and M 80
night to stay out M 68
night at home that M 67
night to some one M 63
night the great bear M 62
night the fair and M 52
night to break out M 50
nicer to have one M 50
night to send you M 49
night it made him M 48
night to join with M 46
night it will mean M 44
night to look her M 43
night it fell out M 43
night in ways that M 43
night in some out M 43
night he gets out M 43
night to wish her M 42
night to show how M 42
night to last for M 40
night in their two M 40
night in jail that M 40
night he made that M 40
night he left that M 40
night my wife and D 2583
night he took her D 2464
night he took his D 2456
night thy hand was D 2388
night the camp was D 2043
niche of their own D 1370
night in your bed D 1144
night the thief was D 1002
night the boat was D 884
niche in life and D 806
night to dine with D 742
night my wife was D 638
night he took off D 629
night we took our D 602
night the news was D 560
night in camp was D 526
night in their bed D 524
niche in time and D 476
night he took them D 456
night of wine and D 444
night thy soul may D 432
night is damp and D 422
night at least one D 422
night the fort was D 416
night to cope with D 415
night in mirth and D 404
niece to live with D 396
night he took out D 391
night to have sex D 390
night he rose and D 388
night in camp and D 386
night the news had D 384
night of great sex D 374
night my soul was D 356
night we took off D 335
niece or aunt and D 330
night we took her D 326
night the tent was D 310
night in camp with D 304
night of wild sex D 296
night is thick with D 294
night we dine with D 292
niece of mine who D 288
niece to come and D 279
night at least she D 278
niece to whom she D 278
night the club was D 276
night in your car D 274
night we took him D 268
night on deck with D 268
night of dining and D 264
night to dine and D 261
night the duke was D 248
night of romeo and D 246
night the bill was D 244
niece to shut her D 244
night the firing was D 240
night of boxing day D 240
night the bell rang D 226
night he threw his D 222
night of beer and D 220
night at dusk and D 218
night on foot and D 216
night at least two D 211
night my wife had D 210
night we took them D 206
night he took him D 206
night in their car D 204
niece of hers who D 200
niece of hers was D 198
niche in their own D 192
night of rioting and D 190
night he rode out D 186
niece to take things D 186
niece as their old D 182
night the park was D 180
night he rode and D 180
night in bars and D 178
niche in life for D 176
night to cook and D 172
night is thick and D 172
niece to stay with D 170
niece of hers had D 170
night to have fun D 167
night the wall was D 166
niece of mine was D 166
niche of your own D 166
night to mingle with D 164
night to fend off D 164
night to cram for D 164
night in their hut D 164
night we were hit D 162
night we ever met D 162
night to chat with D 162
night at least was D 162
night on your bed D 160
night he took all D 160
night it blew and D 159
nines as there are D 158
night in bringing out D 158
night the pope had D 156
night he took one D 152
night at least they D 152
night to cook for D 150
night the film was D 150
niche is ready and D 150
night on cape cod D 149
night in pacing his D 148
niece to take her D 148
night the crew was D 146
night to stir him D 144
night to howl and D 144
night the lamp was D 144
night to milk his D 142
niece of mine has D 142
night on deck and D 140
niece to make her D 138
night to vote for D 134
night to throw out D 134
niece is young and D 134
night it took him D 132
night the roof was D 131
night the news that D 131
night at mess was D 130
niece the next day D 129
night the vote was D 128
niece of john and D 128
niece of whom she D 126
night the lions and D 125
niche in life that D 124
night or much ado D 123
night the herd was D 122
night he took you D 122
night at some inn D 121
night or during fog D 120
night in heavy seas D 120
night he drew his D 120
night we have fed D 118
night in wrath and D 118
night as grim and D 118
niece of mine and D 118
night my tent was D 116
night at least for D 116
night an angry mob D 116
night we rode out D 114
night of rape and D 114
night he rode his D 114
night the ball was D 112
niece to join her D 112
night to tuck them D 110
night he took that D 110
night of thick fog D 108
night in your ears D 108
night he paid his D 108
night he took two D 106
night he blew his D 106
night he bade his D 106
night to blot out D 104
night the tide had D 104
night the feast was D 104
night the duke and D 104
night is ripe for D 104
niece to care for D 104
nicking the skin with D 104
night the rats ran D 102
night eat dish and D 102
night an inch and D 102
night we were met D 100
night to john and D 100
night the wife was D 100
night of heavy seas D 100
night of heavy fog D 100
night in twos and D 100
night at dusk they D 100
night the gulf war D 98
night of orgy and D 98
night in camp they D 98
night the club met D 96
night at least with D 96
night the bond that D 94
night the bomb was D 94
night it blew with D 94
night in rioting and D 94
night at least and D 94
niece to tell her D 94
night by owls and D 92
night of heavy dew D 91
night the raid was D 90
night of good sex D 90
night in some inn D 90
night in salt and D 90
night he lays his D 90
night of wining and D 88
night he took long D 88
night at their inn D 88
night the guns and D 87
night we rose and D 86
night the yard was D 86
night at least you D 86
niece to help her D 86
night the string was D 84
night the mill was D 84
night of mirth and D 84
night he shot his D 84
night he shot and D 84
night the plot was D 82
night the barn was D 82
night he took ill D 82
night he threw her D 82
night by bugs and D 82
night we cart off D 80
night the wife and D 80
night the deck was D 80
night is waning and D 80
night in sobs and D 80
niece to make with D 80
night my soul may D 47
night he rode off D 44
niece of mine that D 42
night to slip out D 40
niece to come out D 40
