night in prayer . M 9438
night of horror . M 2950
night of nights . M 2844
night of passion . M 2790
night in winter . M 2678
night it rained . M 2358
night in prison . M 2050
night in summer . M 1894
night of sorrow . M 1542
night in safety . M 1426
night of winter . M 1380
night by myself . M 1076
night or something . M 1046
night of prayer . M 1040
night of misery . M 1020
night as before . M 966
night at school . M 926
night is through . M 908
night at eleven . M 852
night of watching . M 850
night of errors . M 794
night of anguish . M 634
night at sunset . M 634
night to another . M 600
night the better . M 535
night or something ? M 492
night of summer . M 474
night in autumn . M 466
night of course . M 454
night at twelve . M 450
night of travel . M 428
night of nights ! M 426
night to myself . M 424
night to follow . M 423
night of mourning . M 392
night of battle . M 370
night to anyone . M 361
night of autumn . M 354
night of wonder . M 344
night to listen . M 335
night at church . M 330
night to finish . M 325
night in public . M 318
night of fighting . M 316
night if needed . M 308
night is passed . M 302
night is enough . M 300
night to escape . M 294
night at latest . M 278
night of murder . M 274
night of spirit . M 270
night is silent . M 268
night in secret . M 268
night of passion ? M 266
night of horror ! M 258
night in church . M 254
night on monday . M 240
night to prayer . M 238
night to arrive . M 229
night of nights ? M 226
night in another . M 220
night by chance . M 216
night in prayer ? M 214
night as needed . M 210
night is common . M 208
night he called . M 206
night my friend . M 199
night to decide . M 198
night we worked . M 196
night or another . M 196
night to return . M 194
night we parted . M 192
night to forget . M 186
night it opened . M 186
night he dreamed . M 184
night or monday . M 182
night he worked . M 180
night in watching . M 176
night or winter . M 172
night it seemed . M 172
night to happen . M 160
night of sorrow ! M 158
night is another . M 158
night it poured . M 154
night he prayed . M 154
night we passed . M 152
night of studying . M 152
night we opened . M 150
night is lovely . M 150
night of creation . M 146
night in shifts . M 146
night in detail . M 140
night of crisis . M 138
night to travel . M 136
night so clearly . M 132
night in return . M 130
night to retire . M 128
night he thought . M 128
night to attack . M 126
night is special . M 126
night is ruined . M 126
night is better . M 126
night in misery . M 126
night to attend . M 125
night of devils . M 124
night as always . M 124
night of fright . M 122
night we landed . M 120
night he waited . M 118
night or nights . M 116
night of excess . M 114
night he played . M 114
night it burned . M 112
night to safety . M 110
night on record . M 110
night we played . M 108
night of clouds . M 108
night of desire . M 106
night of escape . M 104
night to prison . M 102
night to pieces . M 102
night of school . M 102
night to twelve . M 100
night of nature . M 100
night in thought . M 100
night of training . M 98
night in anguish . M 98
night to report . M 97
night of thought . M 96
night of reaction . M 96
night in prayer ! M 96
night in combat . M 94
night of monday . M 88
night in future . M 88
night in prison ? M 86
night by myself ? M 86
night of horror ? M 84
night to monday . M 82
night of sleeping . M 82
night of memory . M 82
night it cleared . M 82
night is broken . M 82
night we passed ! M 80
night of winter ! M 80
night at another . M 80
