she called " her M 1424
she called " that M 925
she called " this M 732
she called " our M 730
she called " his M 534
she thought " that M 515
she called " one M 515
she should " not M 412
she should " get M 348
she called " all M 278
she called " real M 274
she became " one M 230
she called " old M 225
she argues " that M 221
she called " god M 218
she learned " that M 209
she thought " they M 194
she called " being M 178
she called " bad M 176
she writes " that M 165
she should " try M 164
she learned " how M 146
she thought " she M 136
she stated " that M 133
she wanted " and M 132
she called " not M 130
she should " put M 127
she should " let M 122
she should " die M 120
she should " see M 114
she called " going M 114
she became " too M 112
she thought " her M 110
she thought " and M 106
she prayed " that M 102
she thought " this M 98
she writes " with M 96
she thought " how M 92
she looked " too M 90
she should " pay M 89
she worked " with M 88
she worked " for M 88
she thought " not M 88
she played " with M 88
she thought " all M 84
she writes " and M 82
she called " new M 52
she argued " that M 46
she wished " that M 45
she states " that M 44
she called " big M 42
