she is indeed a M 12048
she is carrying a M 10276
she is called a M 9449
she is merely a M 8600
she is simply a M 7974
she is always a M 6146
she is already a M 6126
she is neither a M 5383
she is without a M 4504
she is almost a M 4418
she is becoming a M 3906
she is clearly a M 3514
she is pursuing a M 2504
she is building a M 2132
she is planning a M 2050
she is hardly a M 1776
she is afraid i M 1392
she is become a M 1372
she is watching a M 1346
she is marrying a M 1286
she is fighting a M 1030
she is offering a M 1028
she is starting a M 914
she is enjoying a M 898
she is someone i M 858
she to become a M 816
she is surely a M 804
she be called a M 744
she is handed a M 716
she is denied a M 690
she is choosing a M 644
she is deemed a M 554
she is visiting a M 542
she is instead a M 498
she is behind a M 392
she be indeed a M 368
she is studying a M 346
she is assuming a M 336
she is inside a M 326
she is silent a M 318
she is crossing a M 318
shy of becoming a M 314
she do without a M 306
she is issued a M 264
she is purely a M 246
she is repeating a M 236
she is awaiting a M 236
she is rarely a M 234
she is managing a M 232
she is asleep i M 224
she is taught a M 208
she is adopting a M 204
she is wholly a M 190
she is handling a M 188
she is standing a M 186
she go through a M 186
she is revealing a M 170
she is enacting a M 170
she is mainly a M 166
she is violating a M 160
she is applying a M 160
she go without a M 154
she is likely a M 138
she so wanted a M 136
she is beyond a M 132
she is thought a M 130
she is pleased a M 130
she is exerting a M 128
she is served a M 122
she is mostly a M 122
she to accept a M 118
she is touching a M 118
she is before i M 116
she is ordering a M 114
she is barely a M 114
she be without a M 114
she is afraid a M 110
she be merely a M 110
she be denied a M 108
she is better i M 104
she is lighting a M 102
she is catching a M 102
she in almost a M 99
she to remain a M 98
she is covering a M 98
she be carrying a M 90
she is training a M 88
she is before a M 88
she is spared a M 82
she is climbing a M 82
she is around a M 82
she is seldom a M 80
she is relating a M 80
she is entering a D 1316
she is spending a D 726
she is painting a D 524
she is drinking a D 476
she is knitting a D 456
she is termed a D 300
she is suckling a D 262
she is arranging a D 202
she is claiming a D 190
shy of entering a D 162
she is uttering a D 156
she is reciting a D 124
she is stalking a D 122
she is sporting a D 122
she is partly a D 114
she is striking a D 112
shoe is called a D 96
she is planting a D 96
she is invoking a D 96
she is styled a D 88
