show me how you M 22723
shut up and let M 15271
show me that you M 14174
shut up and get M 12717
shop of his own M 12316
ship of his own M 10328
show he was not M 10132
show us that this M 9528
show us that they M 9120
shut up and sit M 5576
show up for his M 5574
show of his own M 5542
show the way for M 5490
show us how you M 5322
show he did not M 5320
show it was not M 5304
ship of war was M 5057
shut up with his M 4705
show the way and M 4661
shut up with him M 4656
show us that our M 4654
shut it off and M 4616
show the way out M 4467
ship on its way M 4430
show us how they M 4422
show us that you M 3818
show me that she M 3782
ship of war and M 3584
show me that they M 3554
show us that god M 3505
show us how far M 3437
show us how this M 3253
shut up with her M 3250
shut up all day M 3235
show us that all M 3031
show up one day M 2876
show up for her M 2843
show me how they M 2840
show the way that M 2546
show in any way M 2498
show in his own M 2427
shut it for you M 2424
show the old man M 2391
show in this way M 2353
shut up and not M 2324
show is that this M 2266
ship at his own M 2197
ship on her way M 2178
show to you that M 2166
shop of her own M 2140
show me how this M 2061
shop on his own M 2040
shut it all out M 2023
ship on his way M 2012
show us that his M 2007
shut up with them M 1982
show the ease with M 1972
show the things that M 1971
ship of war that M 1944
shut up and put M 1913
shut up for two M 1872
show up for our M 1860
ship of war with M 1826
show us that she M 1803
show us all that M 1794
show me how she M 1794
show to them that M 1792
ship as she was M 1782
show up for this M 1777
show he had not M 1776
show to any one M 1758
show up with his M 1716
ship of war for M 1662
show us our own M 1618
show us how our M 1602
show of her own M 1568
show me you can M 1550
shop on his way M 1547
show us our way M 1524
ship as she lay M 1520
show me that this M 1518
show up and say M 1509
shut up with that M 1469
show me one who M 1452
show in how far M 1451
show if they are M 1416
show to all that M 1412
show us how she M 1410
show up and they M 1406
ship of war had M 1362
show to all men M 1328
show to this day M 1283
show the men that M 1279
show we are not M 1267
show the mean and M 1264
show the men how M 1260
show up for that M 1247
show to him that M 1208
show the way they M 1200
show by his own M 1194
show it does not M 1182
show me you are M 1160
ship of war has M 1148
ship on his own M 1144
ship so that they M 1132
ship of her own M 1130
show us how and M 1128
show me all that M 1128
shut of its own M 1124
ship of her day M 1107
show up and you M 1105
shop to ask for M 1104
show up that day M 1100
ship so that she M 1092
show it did not M 1090
show is that they M 1074
shop of war hath M 1070
shut up for six M 1067
show of its own M 1054
ship of war may M 1052
show he does not M 1048
ship is not going M 1038
show up and then M 1035
show us all how M 1030
show me that his M 1028
show up and ask M 1008
show in this and M 1007
show me his new M 1004
show up and try M 1003
shut it out and M 996
show up now and M 991
show me how far M 990
ship in any way M 986
shed in this war M 982
shut up now and M 980
show up and get M 979
show us that not M 978
show is not that M 970
shop to see how M 969
show us how his M 966
shop on her way M 963
ship to his own M 952
show us men and M 936
show if you are M 936
show us how things M 932
show it off and M 927
shop the old man M 922
shut up and deal M 918
show up for two M 916
show to his own M 914
ship to see that M 913
show the use and M 910
show the real and M 905
show me any one M 900
shed at one end M 894
show on his own M 888
ship of our own M 888
ship of war lying M 884
shut up for one M 882
shut up and pay M 877
ship to let them M 876
show us that for M 874
show is that for M 866
show us how god M 864
show us that one M 859
show up for one M 849
show us that man M 844
shut the box and M 839
shut in with her M 838
show of that year M 836
shut at one end M 826
shop to get his M 822
ship in his own M 820
show me one that M 816
show the man that M 815
show us how that M 813
show us all things M 810
show me who you M 806
shop on her own M 806
show the man who M 804
show to all who M 791
show me how and M 786
show the boy how M 784
show in all its M 784
show the way with M 782
ship of war can M 776
shop in his own M 771
ship in and out M 770
show is that you M 766
show me how that M 759
show the way you M 750
show the head and M 750
show me who was M 750
show on earth and M 748
show up for any M 746
show the path that M 739
shut up all things M 738
show in its own M 738
show up with her M 729
shut in with his M 716
shut up for ten M 708
show up each day M 705
show of our own M 702
shut in with god M 701
ship to bring him M 700
show the age and M 697
show the old and M 696
ship of its own M 694
shut up and then M 692
show us that each M 688
ship he did not M 686
shut up and that M 685
ship is not yet M 682
show the top and M 680
show up any day M 674
show me that one M 666
show me his own M 666
shut up and you M 665
show us how easy M 664
shut up all his M 662
show it was all M 661
show us things that M 658
show me she was M 658
show me all his M 654
show up and that M 651
shut up and all M 650
show us for doing M 650
shut it off for M 648
show by this that M 648
shut it out with M 642
show up for all M 638
show me how big M 638
show me her new M 638
show the man how M 636
show to you how M 634
show up for you M 628
show is that all M 622
show in her own M 622
shed on this earth M 617
shut me out and M 616
ship in this way M 616
shop to pay for M 612
show us how all M 608
shut up too long M 606
shop at one end M 599
shop to buy her M 598
show me that all M 594
shed on that day M 593
shut up all with M 591
show up with this M 586
show on earth was M 586
shut up and did M 584
show he has not M 583
show up and see M 581
shut it off with M 580
show the boy that M 579
show it for fear M 570
ship to get out M 570
show in one way M 566
show the fear that M 565
shut on its own M 564
show is not going M 562
show of them all M 561
show up for them M 551
show to you and M 550
ship to bring them M 548
show us that that M 546
shut the sun out M 544
show as they are M 544
ship of war being M 542
show up with all M 541
show us why this M 536
shut up for long M 534
show the way how M 533
show us that its M 532
show we did not M 530
ship to see how M 530
show the two men M 526
shut up and lie M 524
show up and are M 524
show me all this M 520
shut up and they M 518
show us that any M 518
show us that men M 516
show so that they M 514
shut up and say M 512
shop of our own M 512
ship is not fit M 512
show us that both M 510
ship of war then M 510
shut up with all M 509
show it was dead M 507
show it can not M 507
show up with that M 501
show us you can M 500
show is that one M 500
show he was doing M 498
show the area and M 497
ship of war does M 496
shut up his own M 492
shut in with him M 492
shop of its own M 492
ship at all but M 490
show up and pay M 487
shut in all day M 486
shut to all but M 484
show if you can M 484
shut in his own M 483
shop so that they M 483
show to him and M 482
show if and how M 480
ship or for any M 478
show we can not M 476
shut up one eye M 472
shut so that she M 472
show me why you M 472
shut up and sat M 466
shut it for him M 466
show me how his M 466
shut it out for M 462
shut up with you M 460
show up and she M 459
show at all that M 459
show the use that M 458
show so that you M 456
ship to see them M 456
show if they had M 454
show of not being M 453
show on its own M 452
show no fear and M 450
shed by his own M 448
show the day and M 446
show us our sin M 444
shop so you can M 441
show us his own M 440
ship if they had M 439
shut up and run M 437
show up with one M 437
shut up day and M 436
shut up all men M 436
show the way but M 435
shut up with two M 434
ship to bring her M 434
show to him who M 432
show me one man M 432
shut in with them M 430
shop on that day M 430
show in all his M 428
shop in this area M 428
shut in its own M 426
show us you are M 426
show me all you M 426
ship in her day M 426
show is that our M 423
show us how one M 420
ship is one that M 420
show us two things M 416
show an old man M 415
show to her that M 414
show the way things M 411
show the man and M 411
shut up you old M 406
ship to see him M 406
show in his new M 403
ship if she had M 402
show up for each M 400
show me that our M 400
shop so that you M 400
shop on our way M 398
show up and not M 397
show it that way M 394
show up and sit M 393
show me how easy M 392
ship of death and M 392
show to see how M 391
shut the set off M 390
shed on his own M 390
ship by his own M 389
show up with you M 386
show me things that M 386
shut up with this M 384
shut up with one M 384
shut so that they M 384
show us his new M 384
show me that things M 384
show us that her M 382
shut up and she M 378
ship is fit for M 378
show to any man M 377
show us who was M 376
show us that things M 376
shop to see that M 376
show the men who M 374
show the men and M 374
show of joy and M 374
show he can not M 374
show me that her M 372
ship it was that M 372
show he was one M 371
shop by day and M 368
show up with any M 364
show me that age M 364
show is that any M 362
show in our own M 362
ship to say that M 362
ship to get rid M 362
show up and put M 361
show us how long M 360
show at one and M 360
show up that way M 359
ship it was not M 359
shut on him and M 356
show the boy its M 356
show he was going M 356
show at any one M 356
shop if you are M 356
shop to get her M 352
show to them and M 351
shop or two and M 350
ship to see her M 350
ship in tow and M 350
show the path and M 349
show it off with M 348
show us how men M 347
show me that man M 344
show at all and M 342
ship he and his M 342
show it has not M 341
show is that both M 341
show us they are M 338
ship we had not M 338
ship of war are M 338
ship is not for M 338
ship as they had M 338
shut up for fear M 336
show the ease and M 336
ship to pay for M 336
show the way his M 335
show so you can M 331
shut up and die M 330
shut up and can M 330
shut the old man M 330
show us why they M 330
show up each year M 328
show me that god M 328
show the way this M 327
shut up and got M 326
shut me out for M 326
show us how each M 326
ship of its day M 326
ship of air that M 326
shut up and try M 325
shut up all this M 324
show of fear and M 324
show to our own M 323
show of things and M 320
shop to buy his M 320
shut up you two M 319
show the dead man M 319
show is not for M 319
show us his way M 318
show up with two M 318
show the new man M 318
ship to try and M 316
shed in this way M 316
show us who they M 314
shop so that she M 314
ship on that day M 313
show if they can M 312
ship to deal with M 312
shut it all off M 311
ship in her own M 310
shut up and read M 309
shut up all our M 308
show us that with M 308
ship to get her M 308
ship on our way M 308
show up this year M 307
show up and let M 306
show to his son M 306
show the boy his M 306
show me how things M 306
ship of that day M 306
show on this map M 305
shut by its own M 304
show us how not M 304
show me but one M 304
show us that two M 303
show the new and M 302
shop to buy one M 302
shop at any one M 302
ship of his had M 302
show us one way M 300
show the dog that M 300
show is that his M 300
show to them how M 299
show me this man M 299
ship on its own M 298
show me that that M 297
ship of war who M 296
show up and how M 294
shop to get them M 294
shop on its own M 294
shut up and his M 292
show is that each M 292
ship is now lying M 292
shut up all that M 291
shop he did not M 290
shed on our own M 290
show to one who M 288
show of law and M 288
show up this way M 287
show in all things M 285
shut me out now M 284
show of his old M 284
ship at any one M 284
shut up then and M 282
show me she had M 282
show me any man M 282
shop to see him M 282
show to end all M 280
show the long and M 280
show me who has M 280
shop to buy them M 279
ship if you can M 279
show us all his M 278
shed the idea that M 278
show in that year M 277
show it that you M 276
ship he can not M 276
show it all off M 275
show is how this M 275
ship so that its M 275
shop to his son M 273
show the red and M 271
show on her own M 271
show up with our M 270
show up with him M 268
show up his own M 268
show it had not M 268
shop to buy six M 268
ship he was not M 268
ship in all its M 267
ship if they did M 267
show in that way M 264
show to all his M 262
ship or two and M 262
show to him how M 261
show is one that M 261
show the sun with M 260
shut up all her M 258
show me his arm M 258
shop to buy two M 258
ship is too big M 258
shut us all out M 256
shut up for all M 256
shut up and was M 256
shut me off with M 256
show up and did M 256
shed at his death M 256
shut up him that M 255
show the area that M 255
show on new year M 254
ship of them all M 254
show the path for M 253
show it who was M 253
show by our own M 253
shop if you can M 253
ship he was going M 253
shut up and had M 252
shun the man who M 252
show me how one M 252
show it this way M 252
ship we did not M 252
ship to head for M 252
ship in all her M 252
shut me out with M 250
show us both how M 250
show at his own M 250
ship to pay his M 250
shop is one that M 249
ship as you did M 249
show the real ill M 248
ship he does not M 248
show me they are M 246
show in this area M 246
ship of war than M 246
ship of our foes M 246
ship is that you M 246
show the joy that M 245
show of man was M 244
show me off and M 244
show it off for M 244
show up and can M 243
show of wit and M 243
show me all her M 242
shop is not far M 242
ship as his own M 242
shut it and put M 240
show the joy and M 240
show me that any M 240
show me any way M 240
show if this was M 240
ship is got off M 240
shut up with our M 238
ship it for you M 237
ship if they are M 237
show of all his M 235
shop to deal with M 234
shop to say that M 232
ship of war nor M 232
ship is now being M 232
ship is not then M 232
shut up for his M 230
show the team that M 230
shop to buy things M 230
show as they saw M 229
show us they can M 228
shop in this way M 228
ship is this that M 228
ship he had not M 228
shut on and off M 227
shut up and act M 226
show or two and M 226
show at all for M 226
ship so they can M 226
shed to see how M 226
ship if they can M 225
show to his eye M 224
show me that its M 224
ship as she had M 224
shop in her own M 223
show us that death M 222
show at one end M 222
shop to buy him M 222
shed to get his M 222
shun the things that M 221
shut up and lay M 220
shut in with its M 220
show up all day M 219
show he was all M 219
shut up his son M 218
show the why and M 218
shop as they are M 218
ship to try for M 218
ship of his was M 218
ship in for him M 218
show so far that M 217
show up with them M 216
show the real you M 216
show he had put M 216
ship in two and M 216
show is that not M 215
shut on them and M 214
ship of all that M 214
shut us out and M 212
shut up his eye M 212
show it and say M 212
ship to bear that M 212
ship is not one M 212
shed of its own M 212
show us why our M 211
ship to ask for M 211
show us any way M 210
show the real man M 210
show no end but M 210
ship or with any M 210
show to men that M 209
show the top ten M 209
ship by day and M 209
shut the heat off M 208
show an eye for M 208
shop to try and M 208
ship it does not M 208
shut up for now M 206
show us new things M 206
show the sun and M 206
show the man his M 206
show an easy way M 206
show the god with M 205
show it was his M 205
shut up him and M 204
shut to with his M 204
show us our path M 204
show us how her M 204
show the things you M 204
show me how bad M 204
show it and they M 204
show it and then M 204
ship of war goes M 204
ship it was and M 204
show he was being M 203
ship in this area M 203
shut up and bring M 202
shut to him who M 202
shut in her own M 202
show the team how M 202
show at this day M 202
ship to get them M 202
show the way she M 201
show up and buy M 200
show on and off M 200
ship on her own M 200
ship of all its M 200
ship as you can M 200
shed so that they M 200
show up and was M 199
shut up that way M 198
shut it for her M 198
show of all was M 198
shop to see her M 198
ship if that act M 198
show us how man M 197
show to say that M 197
shut it and then M 196
show up for him M 195
ship so that you M 195
ship in its own M 195
shut an eye and M 194
shun the one and M 194
show me how long M 194
ship to set out M 194
show to him his M 193
show as you can M 193
shut up with god M 192
shut so that you M 192
shut in and cut M 192
show of ease and M 192
shop is that you M 192
ship so that his M 192
ship is too far M 192
shut in with one M 191
shed by any one M 191
shut the bag and M 190
show we are all M 190
show us who you M 190
show the man with M 190
show of red and M 190
show me this one M 190
show me her own M 190
ship we can not M 190
ship so long that M 190
show of things that M 189
ship so that her M 189
shut on her and M 188
show of his new M 188
ship is old and M 188
shed in his own M 188
show up and bring M 187
show the low and M 187
show is that with M 187
show by its own M 187
show up and all M 186
show of doing this M 186
shop to get him M 186
shop is that they M 186
shop in that area M 186
shed by him but M 186
shop if they are M 184
ship is not too M 184
ship he was then M 183
show us how bad M 182
show the things they M 182
show me things and M 182
show me his old M 182
shed on this day M 182
show we did was M 181
show us that way M 180
show the aim and M 180
shop is not doing M 180
ship up with her M 180
ship to get his M 180
ship or two with M 180
show to all and M 179
ship in one day M 179
shut an eye all M 178
show us its real M 178
show the way our M 178
show me with how M 178
show me one day M 178
show it and you M 178
ship to bear this M 178
ship of war off M 178
ship if you are M 178
shed the old and M 178
ship as they are M 177
shut up long ago M 176
shun the day and M 176
show me why they M 176
ship to bring his M 176
ship is that she M 176
shed the fear that M 175
shut it off but M 174
shut in with that M 174
show us she was M 174
show it its own M 174
shop is not going M 174
ship we saw was M 174
ship on her new M 174
show up and one M 173
shop or you can M 173
shut up for any M 172
show up and act M 172
show it you this M 172
show is not all M 172
ship or two was M 172
shed on his way M 172
show us how big M 171
show if she was M 171
shop an old man M 171
shut up and ate M 170
show to them all M 170
show me this and M 170
ship or two for M 170
ship if she was M 170
ship at one end M 170
shut up and with M 169
show the one you M 169
show to him any M 168
show on his map M 168
show it was for M 168
show as they had M 168
show the fear and M 167
ship in that way M 167
shut the eye and M 166
show me who can M 166
show me any two M 166
ship to him and M 166
ship as they did M 166
shed by men who M 166
show me now that M 165
shut to this man M 164
shut in with all M 164
show the end and M 164
ship to put out M 164
shed in that war M 164
shut the box with M 162
show up and had M 162
show to you this M 162
shop is not too M 162
shop in his way M 162
shut up any man M 160
shut up and her M 160
shut the air off M 160
show of war was M 160
show me that way M 160
show me out and M 160
show me how not M 160
show me how her M 160
ship to bring out M 160
ship or who are M 160
ship is not due M 160
show the gap that M 159
show or say that M 159
show in any one M 159
shut up but she M 158
show of her old M 158
show of doing him M 158
show is being put M 158
show he had got M 158
ship of war they M 158
ship is let for M 158
ship is going and M 158
shut on his way M 156
show up all that M 156
show on earth had M 156
ship so that all M 156
show the one that M 155
show as for use M 155
shut up this way M 154
shut up now for M 154
shut at each end M 154
show me and then M 154
show he was now M 154
shop to let him M 154
shop so they can M 154
shop at this day M 154
shed as they are M 154
show as they did M 153
shut the bag with M 152
shun the idea that M 152
show us who and M 152
show it you now M 152
show at each end M 152
shut up and for M 151
shut up for god M 150
shut so you can M 150
shut as they are M 150
show us all its M 150
show the one for M 150
show he and his M 150
shop to ask him M 150
ship in that area M 150
shut in too long M 149
ship we can get M 149
shut up one end M 148
show up and this M 148
show up and run M 148
show the bias and M 148
show me then how M 148
show if she had M 148
shop to get one M 148
ship as big and M 148
shed of his own M 148
shed in one day M 148
shop to get out M 147
shop in all its M 147
show the mean for M 146
show me why this M 146
ship we can see M 146
ship so you can M 146
ship as she goes M 146
show the man was M 145
ship of death that M 145
shut up that old M 144
show the man out M 144
show on that day M 144
show in may and M 144
shop as she had M 144
ship to see you M 144
ship to get him M 144
ship to bear him M 144
show to deal with M 143
shut the sky and M 142
shut no one out M 142
show us both that M 142
show us all this M 142
show to man that M 142
show me that new M 142
show me that law M 142
show it now and M 142
shop he had not M 142
ship of that era M 142
ship go out with M 141
shut up with its M 140
shun the doing any M 140
show us our real M 140
show us but how M 140
show the how and M 140
show of sky and M 140
show in one day M 140
shop he was not M 140
ship we are all M 140
ship of all her M 140
show the idea that M 139
show so that she M 139
show my son that M 139
show as you are M 139
shut up and cut M 138
shut on her way M 138
show us how its M 138
show us her new M 138
show to his new M 138
show the east and M 138
show of one man M 138
show of doing his M 138
show no poet who M 138
show is not yet M 138
shop so that his M 138
ship he had had M 138
shed it for her M 138
show up all too M 137
ship in her death M 137
show us how weak M 136
show to see him M 136
show to her how M 136
show me and all M 136
show it can bear M 136
shop to see who M 136
ship to see his M 136
ship so near that M 136
ship of war going M 136
shed in our own M 136
show up for ten M 135
show to see that M 135
shut up thus with M 134
shut up and him M 134
show us why and M 134
show us how new M 134
show us how few M 134
show me that not M 134
shop to pay his M 134
ship to her own M 134
ship of war any M 134
ship of god and M 134
ship is too weak M 134
ship as near her M 134
show to try and M 133
show to one and M 133
show the act was M 133
shop as she was M 133
shut up for that M 132
shut so they can M 132
shut it with his M 132
shut in with this M 132
show us any new M 132
show up for six M 132
show on our map M 132
show of song and M 132
show me who they M 132
show me that old M 132
show me his way M 132
show if not that M 132
shop to let them M 132
ship in that year M 132
show up that are M 131
show up and lead M 131
shut on that day M 130
show the poet not M 130
show the death and M 130
show me now how M 130
show it and let M 130
shop to see you M 130
shop to buy meat M 130
ship at all and M 130
show up and hang M 129
shop my eye was M 129
show we are going M 128
show so they can M 128
show on this one M 128
show on earth for M 128
show my son how M 128
show me his pet M 128
show it but she M 128
show if they did M 128
ship to pay that M 128
ship to fly its M 128
ship is not far M 128
shed on our path M 128
shut up for near M 127
shut up and one M 127
show us how two M 127
shop it was not M 127
ship to its own M 127
shut up with old M 126
shut up ten year M 126
shut up all but M 126
shut in that you M 126
show to man his M 126
show the way was M 126
show the one who M 126
show my old head M 126
show is for you M 126
show in his head M 126
shop of his old M 126
show up for its M 125
show the path you M 125
show in this that M 125
show in all our M 125
shut up that they M 124
show to get out M 124
show of men and M 124
shop to see his M 124
shop to see and M 124
shop at six and M 124
ship sing out for M 124
show up that you M 123
show to her own M 123
show of that era M 123
show is not being M 123
ship to get off M 123
shut up and see M 122
show us who god M 122
show us men who M 122
show to him her M 122
show of war and M 122
show me that men M 122
shop is not yet M 122
shop he had set M 122
shop as they had M 122
ship as fit for M 122
shed on all men M 122
shed by one who M 122
shed by her and M 122
shut in with you M 120
shut in for two M 120
show us its own M 120
show us all her M 120
show the weak and M 120
show me with his M 120
show me this new M 120
show he had had M 120
show as she was M 120
shop so she can M 120
shed by this man M 120
show is being run M 119
show at this age M 119
ship is going out M 119
shut my bag and M 118
show us how old M 118
show the wit and M 118
show the sun his M 118
show of all that M 118
show me that both M 118
show he had any M 118
show by them that M 118
ship in any one M 118
show us how near M 117
show on its way M 117
ship as you are M 117
shut up any day M 116
shut as with them M 116
show to them who M 116
show of her for M 116
show if you had M 116
ship of his that M 116
shed to pay for M 116
show up and for M 115
show to all how M 115
show is that two M 115
shut us out for M 114
shut up her own M 114
shut up and set M 114
shut in our own M 114
shut in and each M 114
shut as they had M 114
show us who our M 114
show the new way M 114
show the law and M 114
show the heat and M 114
show me you mean M 114
show me that for M 114
show me how old M 114
show it with his M 114
show it was going M 114
show it that they M 114
shop to lay out M 114
shop he and his M 114
ship so big that M 114
ship on his head M 114
ship is being set M 114
show up they are M 113
show to her and M 113
show to any who M 113
show the new one M 113
show of going out M 113
show is not too M 113
shut to cut off M 112
shut it and sat M 112
show us this was M 112
show us how real M 112
show the men they M 112
show my own ill M 112
show me one and M 112
show me how any M 112
show me how all M 112
shop is not his M 112
ship to pay off M 112
ship of war lay M 112
shed on our way M 112
show the man you M 111
show the earth and M 111
show me was that M 111
shop at his own M 111
show us that sin M 110
show us that and M 110
show us all they M 110
show to get them M 110
show to each man M 110
show the way not M 110
show the rings and M 110
show the mean age M 110
show an easy and M 110
shop if they had M 110
ship to bid him M 110
ship so far out M 110
ship is not being M 110
ship as far off M 110
show by her own M 109
shop if they can M 109
shut up both his M 108
shut up any one M 108
shut in and can M 108
show us how ill M 108
show us but few M 108
show up are not M 108
show the kid how M 108
show in all this M 108
show he was with M 108
shop at all but M 108
ship to her new M 108
ship to bring you M 108
ship it did not M 108
shed in all his M 108
show to run for M 107
show is one way M 107
ship is not that M 107
shut up for you M 106
shut the idea out M 106
shut as she was M 106
show us things and M 106
show us that war M 106
show up with new M 106
show up all earth M 106
show the man she M 106
show the dear old M 106
show the area for M 106
show of fear they M 106
show of being one M 106
show my old man M 106
show me they can M 106
show me any this M 106
show is too long M 106
show by this his M 106
shop in his new M 106
ship is not easy M 106
ship in its path M 106
shut up and hear M 105
shut the eye that M 105
show in his way M 105
show as she had M 105
shut up his dying M 104
shut up are not M 104
shut so long that M 104
shut it off now M 104
show us how any M 104
show us all our M 104
show up and who M 104
show the boy and M 104
show me all things M 104
show by all this M 104
shop in one end M 104
ship of that year M 104
shed on its own M 104
shed if they are M 104
show to god and M 103
show the two new M 103
show on our own M 103
show an ease and M 103
ship to this one M 103
shut up for too M 102
shut on that one M 102
shut if you can M 102
show us any one M 102
show up for things M 102
show up but they M 102
show up and fix M 102
show the sin and M 102
show me that with M 102
show is that that M 102
shop it was with M 102
ship to see for M 102
ship to lie for M 102
ship of her age M 102
ship it off for M 102
ship in our own M 102
shut the dog out M 101
show up and read M 101
show is new and M 101
show he was his M 101
shop on any day M 101
shut up this day M 100
shut it out but M 100
shut by day and M 100
show we did with M 100
show us who are M 100
show us that being M 100
show us our new M 100
show us one man M 100
show us how both M 100
show up that they M 100
show the way each M 100
show the new men M 100
show or for fear M 100
show me how men M 100
show it and not M 100
shop to ask her M 100
ship to tow her M 100
ship of war but M 100
ship is new and M 100
shed on all things M 100
shed it for you M 100
shut up and has M 99
shut up and fly M 99
shut to all that M 99
show by him that M 99
shop to this day M 99
shop of his son M 99
shut of her and M 98
show we saw was M 98
show up you can M 98
show to them his M 98
show the way one M 98
show ring and for M 98
show me and let M 98
shop to his own M 98
shop to get rid M 98
ship of our day M 98
ship is all but M 98
shed the old one M 98
show he did with M 97
ship is all that M 97
shut up our own M 96
shut on this one M 96
shun to say that M 96
show us why you M 96
show us god and M 96
show up and use M 96
show to each one M 96
show of eating his M 96
show it and she M 96
show in this than M 96
shop on one day M 96
ship to man and M 96
ship on its long M 96
ship of his and M 96
ship it can not M 96
ship in all that M 96
shut up for him M 95
show to her son M 95
show of all this M 95
show if she did M 95
show as they can M 95
shop if they did M 95
shop if she had M 95
shut up old man M 94
shut up men and M 94
shut to try and M 94
shut of him and M 94
shut in this way M 94
show us with his M 94
show us how low M 94
show up now that M 94
show up and may M 94
show to see them M 94
show me was not M 94
show it with one M 94
show it one day M 94
show it and put M 94
show is that men M 94
show is for one M 94
shop is not for M 94
ship of his new M 94
ship is one with M 94
ship in this one M 94
ship he saw was M 94
show us why that M 93
show up but not M 93
show an area that M 93
shop or for any M 93
shop in our area M 93
shut up and buy M 92
shut me out this M 92
show us that new M 92
show us his head M 92
show up for both M 92
show the real way M 92
show the dog how M 92
show or for use M 92
show no joy for M 92
show me all its M 92
show is not doing M 92
show by any act M 92
shop to ask how M 92
ship on this day M 92
ship of war now M 92
ship of his son M 92
ship is his own M 92
ship is far out M 92
shed the old man M 92
shed he put his M 92
shed he and his M 92
show up our own M 91
show at this year M 91
shop in its own M 91
shed so long ago M 91
shut up box and M 90
shut to all our M 90
shut the dead man M 90
shut it with ease M 90
shut in for ten M 90
shut an eye for M 90
show to see her M 90
show the sum for M 90
show the dying man M 90
show me that and M 90
show it that she M 90
shop to get our M 90
shop to buy new M 90
ship to use her M 90
ship is now going M 90
ship is not big M 90
shut in and not M 89
show of its day M 89
ship the old man M 89
ship on our own M 89
shut up for her M 88
shut my eye and M 88
show us his real M 88
show up but she M 88
show up and his M 88
show up and does M 88
show to you all M 88
show of kings and M 88
show in its new M 88
shop of one who M 88
shop if you get M 88
shop as his own M 88
ship to bring off M 88
ship to ask him M 88
ship me off for M 88
ship is but one M 88
ship by her own M 88
show us now that M 87
show the man had M 87
shop he was near M 87
ship on new year M 87
ship he was now M 87
shut up for this M 86
shut in for long M 86
show on earth with M 86
show of being real M 86
show it that out M 86
show at his new M 86
shop to earn his M 86
ship to let him M 86
ship is too low M 86
ship is cut off M 86
ship he had got M 86
shed to end this M 86
shed in war and M 86
shed an old man M 86
ship so far off M 85
shut up our bad M 84
shut up for being M 84
shut on his head M 84
shut he can not M 84
show us new and M 84
show us but one M 84
show up did not M 84
show to see who M 84
show the age its M 84
show of them for M 84
show of old that M 84
show of eating and M 84
show my fear and M 84
shop to run and M 84
ship to this day M 84
ship to run for M 84
ship if you had M 84
ship as you see M 84
shut up this with M 83
shut up his box M 82
shut up but for M 82
shut if off and M 82
show up you and M 82
show up that big M 82
show to get going M 82
show to any but M 82
show the easy way M 82
show no way out M 82
show me that was M 82
show it but they M 82
show in them his M 82
shop we may see M 82
shed on this area M 82
shed on his path M 82
shut to him owing M 80
shut on his own M 80
shut of you and M 80
shut in with our M 80
shut as she ran M 80
show to end with M 80
show in doing our M 80
show at all how M 80
show as yet any M 80
shop to bring him M 80
shop is now run M 80
shop in his area M 80
shop he does not M 80
ship we can use M 80
ship to use its M 80
ship at each end M 80
shed on that sad M 80
shed by men and M 80
show in all that M 79
show the long run M 70
shop the way you M 70
shut the air out M 68
show it was that M 66
show it and that M 66
show is that she M 66
show in and out M 61
shut the saw off M 60
show is all that M 58
show on this day M 57
show my son one M 56
show to its own M 54
show is that its M 53
ship so that one M 53
ship is not near M 53
shut up and hang M 52
show is not real M 52
ship to any one M 52
shut up and hid M 51
show we had not M 50
ship to its new M 50
show we can get M 49
show in this new M 49
shop on this day M 49
shut the sky out M 48
show to man how M 48
show or did not M 48
show it was too M 48
show in her new M 48
show at all with M 48
ship to his son M 48
shed to get out M 48
show we are doing M 47
show it was doing M 47
show he has had M 47
shut up and its M 46
shop the way they M 46
shut up and out M 45
show is that man M 45
show is that god M 45
shop in our own M 45
shop in any one M 45
shut up and are M 44
show it was being M 44
show is not one M 44
show in this one M 44
show he had read M 44
ship by its own M 44
show we had put M 43
show to buy off M 43
show in how you M 43
shop on new year M 43
shop is not one M 43
ship of long ago M 43
shut the war out M 42
shut of all that M 42
show of this year M 42
show is that being M 42
show he had his M 42
ship to them and M 42
show the kid that M 41
show in one and M 41
ship in our east M 41
shut it for fear M 40
shun the path that M 40
show on him and M 40
show of its being M 40
show is going out M 40
show by that that M 40
show at this one M 40
shop in one day M 40
shot by his own D 9255
shot to death with D 8958
shot at him and D 7191
shot at him with D 6397
shot it out with D 6291
shot to death and D 4851
shot at them with D 4355
shot the man who D 2840
shot at them and D 2733
shot in his own D 2625
shot the old man D 2454
shot the man dead D 2451
shoes do not fit D 2162
shot up her arm D 2160
shot to death for D 2108
shot up his arm D 2106
shoes so that they D 2036
shot in one day D 1996
shot up and she D 1712
show of zeal for D 1596
shut the lid and D 1539
shot at him but D 1518
shot up his leg D 1516
shot on his way D 1504
shot of his own D 1483
shot on his own D 1477
shot at his own D 1417
shot in this way D 1411
shot it with his D 1396
show the wear and D 1383
shot he did not D 1372
shot up her leg D 1345
shot by our own D 1310
shot in and out D 1256
ship on her beam D 1252
shot up and his D 1242
shot to and fro D 1191
shot at her and D 1185
shot to death near D 1118
shot in his head D 1075
shot at his head D 1063
shut the car off D 1056
shot at her with D 1045
shoes he was not D 1038
shot at and hit D 1023
shot the two men D 946
shot the man with D 936
shot as they ran D 917
shot if they did D 891
shot at you and D 867
shot in his arm D 844
shot to death two D 840
shot at them for D 832
shot in his leg D 819
shot up and out D 818
shoes do you wear D 810
shoes to wear with D 790
shut my ears and D 784
shew the things that D 782
shot in his bow D 778
shot in his bed D 771
shot up and was D 728
shot to his head D 727
shoes so that you D 716
shoes of his own D 706
shot if you are D 703
sheath of its own D 702
shot of him and D 690
shoes so that she D 680
shot the man and D 668
shoes to wear and D 668
shot the head off D 665
shot is one that D 665
shot to death his D 663
shot up and her D 661
shot in his car D 661
shot the gun out D 649
shot at him was D 647
show of zeal and D 628
shut up for hay D 624
shot or two and D 623
shot the bear and D 622
shot of her and D 615
shut sing sang sung D 612
shot so that you D 603
shot so that they D 596
shot up and then D 581
ship ye can not D 552
sheath at his hip D 550
ship to and fro D 547
shot at him for D 545
shot of you and D 538
shew us that they D 532
shot to death one D 528
shot of him with D 523
show of oil and D 520
shot or two was D 508
shot at one and D 501
show the ups and D 490
shoes so you can D 484
shot in his gun D 471
shot if you can D 464
shot the man that D 457
shot at our men D 457
shot the dog and D 451
shot on its way D 451
show me how thou D 449
shoes on and off D 448
shot as she was D 445
shot of two men D 440
sheath on his hip D 440
shot an old man D 438
shot at them but D 420
shot at and had D 420
shoes to wear for D 416
shot or two with D 415
shoes on his head D 414
show my zeal for D 411
shot in this war D 406
shot on that day D 404
shot of them all D 402
shoes on his own D 402
shot of rum and D 398
shot by one man D 392
shoes is that they D 392
shut the gas off D 386
shot the one who D 382
shot up and they D 381
shot me with his D 378
sheath of key and D 368
show of oil was D 366
shot in her own D 362
shot by two men D 360
show the zeal and D 354
shot to put him D 354
shut up with ice D 352
show the zeal with D 352
shoes if they are D 350
shot if they had D 349
shew he was not D 346
shot as they lay D 344
shoes to fit them D 340
shew us that this D 340
shot up and had D 335
shot at and not D 332
shew it was not D 332
shot by her own D 331
shoes to see how D 328
shot by our men D 326
shoes on and get D 326
shoes in one day D 326
shot so you can D 323
shot to use for D 322
show the ebb and D 320
shot to death that D 319
shed no tear for D 314
shot at you with D 312
shot by his son D 308
shoes on and his D 308
shoes in his own D 308
shoes of one who D 304
shot as they are D 302
shop at his gun D 302
shot to death was D 300
shot it out and D 298
shot at her but D 298
shot or two had D 296
shot it dead with D 296
shoes as they are D 294
shot to bring them D 290
shot by his men D 288
shot at was not D 286
shoes if you are D 286
shot at but not D 285
shut the lid with D 284
shot of her with D 283
shot at any one D 283
shot as you are D 282
ship on its beam D 282
shot of her own D 280
shot to death this D 277
shoes to fit her D 276
shot at this one D 272
shoes on and was D 272
shot by any one D 270
shot at him one D 268
shot of gin and D 266
shot by him and D 266
shoes so they can D 266
shot up his top D 263
shot of them both D 259
shot to her head D 256
shot is that you D 254
shot in this area D 252
shot at them was D 252
shot at him now D 252
shot up and hit D 250
shot of his day D 250
shot at and that D 250
shod at one end D 250
shoes so thin that D 249
shot at and his D 248
shoes on and let D 248
shot of you with D 247
shut up and git D 244
shot by him with D 244
shoes if you can D 242
shot to bring him D 240
shot of rye and D 240
shot to bring her D 239
shot up his head D 238
shot at and then D 238
shew of zeal for D 238
shot is not going D 237
shot in two and D 235
shew to him that D 235
sheaf of his own D 234
shear at each end D 233
shot the boy dead D 231
shot the way you D 230
shot of all our D 229
shot in that way D 229
shot the dog dead D 226
shoes do not get D 224
shoes on for her D 222
shew me that she D 222
shot at how things D 220
shot the sun with D 218
shot if they are D 218
shot of his head D 216
shot the bear with D 215
shot the men and D 214
shot it off with D 214
show me that thou D 213
shot up that they D 212
shoes to fit him D 212
shoes on and they D 212
shoes on and then D 212
shoes at one end D 212
shoes if they had D 210
shop in red lion D 208
shoes he did not D 208
shot on her way D 206
shoes of her own D 206
shot or hung for D 205
shot ring out and D 203
shot in one long D 203
shot at all day D 201
show the art and D 200
shot the men who D 200
shot on one day D 200
shot at his old D 200
shew us that our D 200
shot at and was D 199
shot it that way D 198
shot if you had D 198
shoes to wear out D 198
shot an arm out D 196
shew us that god D 194
shew me any one D 194
shot of all that D 193
shot up real bad D 192
shot to put them D 192
shot at this and D 192
shoes on and her D 192
sheath is thin and D 192
shot in one way D 191
shot at for his D 190
shoes so that his D 188
shot at her was D 187
shew to any one D 187
shut up and fed D 186
shot to hit one D 186
shot is all you D 186
shoes as she ran D 186
shew us how this D 186
shew he did not D 186
shot we see him D 185
shot at and one D 184
shot the gun off D 182
shot an elk for D 182
shoes on for him D 182
shew us our way D 182
shot is hit with D 180
shot at this guy D 180
shot of our own D 178
shot it was not D 178
show of his zeal D 177
shot in all that D 177
show me his gun D 176
shoes in this way D 176
shoes as she did D 176
shear in any web D 176
shot at one with D 175
shot the bear dead D 174
shot he does not D 173
shot at him had D 173
show of his art D 172
shot at his men D 172
shoes he does not D 172
shew the use and D 172
shot up and ran D 171
shot is not too D 171
shot at them they D 171
shot to get out D 170
shoes to pay for D 170
shoes in her lap D 170
shoes at each end D 170
shot in his box D 169
shot at his car D 169
shot the gun and D 168
shot it and then D 168
shot in one leg D 167
shoes do you own D 166
shot the boy and D 164
shot of two and D 164
shot in its own D 163
shew to them that D 163
shoes as she sat D 162
shoes as she had D 162
shot of her eye D 161
shot at and they D 160
shear at one end D 160
shot by men who D 159
shot to death than D 158
shot the old one D 158
shot of tom and D 158
shot is all that D 158
shoes to put them D 158
shoes to fit his D 158
shoes or his hat D 158
shot at any that D 157
shot by and was D 156
shot an elk and D 156
sheaf of hay for D 156
shot up and all D 154
shot in his seat D 154
shoes we can not D 154
shoes of men and D 154
shoes he had not D 154
shoes at all and D 154
shew us our own D 154
shot or two that D 153
shot of his gun D 153
shot he was going D 153
shot at its head D 153
shot at him that D 153
shoes on too long D 151
shod in this way D 151
shot the guy who D 150
shot by bow and D 150
shoes on him and D 150
shoes on and you D 150
shoes as they had D 150
ship on our lee D 150
ship he met with D 150
shot the hat off D 149
shot the big man D 149
shot at her head D 149
shot the sun and D 148
shot if she did D 148
shot of its own D 147
shot at one end D 147
shot to death her D 146
shot the guy and D 146
shot in his eye D 146
shot at you for D 146
shoes in her bag D 146
sheath of his long D 146
shot to his and D 145
shot if you did D 145
shot as they had D 145
shut the ears and D 144
shot up now and D 144
shot the men dead D 144
shot the dead man D 144
shoes on and she D 144
shoes he had had D 144
shoes do not wear D 144
shew us that all D 144
sheaf of them for D 144
shot it with one D 142
shoes on that day D 142
shot my way out D 141
shot in her bed D 141
shot as they fly D 141
shot the dog with D 140
sheaf of red and D 140
sheath on his leg D 139
shot to hit him D 138
shot to death six D 138
shot of all this D 138
shoes to get them D 138
show of gas and D 137
shut up her fan D 136
show of gas was D 136
shot up his ears D 136
shot of this guy D 136
shot my man and D 136
shot in her arm D 136
shot to death but D 135
shot in each gun D 135
shot at him six D 135
shot at him out D 135
sham to get his D 135
shot of her lying D 134
shot me with that D 134
shot the lion dead D 132
shot of that day D 132
shot at them all D 132
shew us that she D 132
shoes of any one D 131
shot to death not D 130
shot in one year D 130
shoes on his way D 130
sheaf to all this D 130
shot of them and D 129
show me this tip D 128
shot to get his D 128
shot the bad guy D 128
shot if you try D 128
shot by all that D 128
shew me that this D 128
shot to get him D 127
shot it did not D 127
shot at that day D 127
show the row and D 126
shot it out for D 126
shoes on top and D 126
show the sex and D 125
shot the one that D 125
shot at that one D 125
shot as you can D 125
shot as they sat D 125
shut up and dig D 124
shot in her car D 124
shoes so that her D 124
shoes at him and D 124
shew me but one D 124
shot up and with D 123
shot or two for D 123
shot on this day D 123
shot on our way D 123
shot at this man D 123
shot up with his D 122
shot up his own D 122
shot to try and D 122
shew us how far D 122
shew my zeal for D 122
shot is that they D 121
shot by them and D 121
shot as any man D 121
shew in his own D 121
shot the cow and D 120
shoes to fit you D 120
shoes so long that D 120
shoes on her way D 120
shew to him who D 120
sheath at each end D 120
shah in his own D 120
shot the one with D 118
shot the fox and D 118
shoes of her dead D 118
shot to get rid D 117
shot of him lying D 116
shot he had not D 116
shot at them had D 116
sheath in this area D 116
shot of this man D 115
shot my head off D 115
shin of one leg D 115
shot the lion and D 114
shot on that one D 114
shoes we are not D 114
shoes to bed with D 114
shoes he had put D 114
shot if they can D 113
shot at did not D 113
shot at and you D 113
shut the fan with D 112
shot of this and D 112
shot at them out D 112
shoes on and got D 112
shoes of his dead D 112
shoes as they hit D 112
shew us that his D 112
shot the bear that D 111
shot or two rang D 111
shot if they try D 111
show us that art D 110
show the tax due D 110
show no wear and D 110
shot at one but D 110
shoes to dry out D 110
shoes as they did D 110
shew me that you D 110
shed in thee this D 110
shot we see her D 108
shot up his car D 108
shot the man she D 108
shew us how they D 108
shew us all that D 108
shew me how you D 108
show my dad that D 107
shot in any way D 107
shot the dying man D 106
shot in his hat D 106
shot in any one D 106
shew the zeal with D 106
sheath of each leaf D 106
shoes to see that D 105
shot the pig with D 104
ship the ore for D 104
shin of his leg D 104
shot the big one D 103
shot in his hip D 103
shah on his way D 103
show of leaf and D 102
shot the boy with D 102
shoes at his head D 102
shoes as they ran D 102
shew he had not D 102
shed on thee its D 102
sheath of his own D 102
shoes on and that D 101
shot the guy with D 100
shoes to buy for D 100
shoes so she can D 100
shoes as they can D 100
ship he had met D 100
shew us that you D 100
shew me his own D 100
shah to his own D 100
shot up with its D 99
shot of him going D 99
shot it with all D 99
shot at them one D 99
shut the tap off D 98
shot me was not D 98
shot in its head D 98
shot at that man D 98
shot at now and D 98
shoes as you can D 98
ship on her lee D 98
shot as she ran D 97
shot to get her D 96
shot of this war D 96
shot at them now D 96
shoes of him that D 96
shay do for you D 96
shah to sue for D 96
show in his art D 95
shot at her had D 95
shew the use that D 95
shew of zeal and D 95
show to thee now D 94
shot to say that D 94
shot to death out D 94
shot to death all D 94
shot the old sow D 94
shot of you two D 94
shot my son dead D 94
shot by them than D 94
shoes on now and D 94
shoes of that day D 94
shoes in one year D 94
shoes if they did D 94
shew the earl that D 94
shot by her son D 93
shot at one who D 93
shot at him than D 93
shot of them they D 92
shot it and cut D 92
shot by our new D 92
shoes the way they D 92
shoes on and with D 92
shew to this day D 92
show on mad cow D 91
shot in leg and D 91
shot in all our D 91
shut up his ears D 90
shut my ears with D 90
shot is too long D 90
shot is not easy D 90
shot is cut off D 90
shot is being set D 90
shot by his old D 90
shot at and two D 90
shew at this day D 90
shot the man out D 89
shot to death had D 88
shot of them with D 88
shot of his bow D 88
shot of him being D 88
shot of both men D 88
shot is for you D 88
shot in may and D 88
shoes on her head D 88
shoes in his car D 88
ship is all art D 88
show of art and D 87
shot to end his D 87
shot or two may D 87
sheath of ice that D 87
shot to all this D 86
shot the pig and D 86
shot or two being D 86
shot or saw one D 86
shot me and then D 86
shot at with his D 86
shot as any one D 86
shoes to try and D 86
shoes he can not D 86
shoes do not cut D 86
show my mom and D 85
shot of rum for D 84
shot at that big D 84
shot at doing this D 84
shoes on and had D 84
ship is hit and D 84
shot up with her D 83
shot at this job D 83
sham is fit for D 83
shut my ears too D 82
shot the man for D 82
ship so with cod D 82
ship in this bay D 82
shew me that they D 82
shew me she does D 82
sheath so that they D 82
sheath at her hip D 82
show the earl that D 81
shot at with real D 81
shot the dog for D 80
shot of all was D 80
shoes to her own D 80
sham of his own D 80
shot up and that D 79
shot in one arm D 74
shot to get them D 73
shot to his own D 71
shot if you get D 71
shot at them that D 71
shot up and one D 69
shot at you that D 69
shot as she lay D 68
shot he was not D 65
shut up and seal D 64
shot up and set D 64
shot to each gun D 64
shot at her own D 63
shot at him too D 62
shot at him then D 61
shot as they did D 61
shot at one that D 60
shot at all that D 59
shot so they can D 58
shot to get you D 57
shot in her head D 56
shot at with air D 56
shot it does not D 55
shot is not that D 55
shot he can not D 55
shot in that area D 53
shot to see how D 52
shot he was off D 52
shot at any man D 52
shot at all and D 52
shot or two off D 51
shot or did not D 51
shot my hat off D 51
shot in his day D 51
shot at her that D 51
shot at doing that D 51
shot so that she D 50
shot so far and D 50
shot on his head D 50
shot at they are D 50
shot at one day D 50
shot up and now D 49
shot my arm off D 49
shot in her leg D 49
shot in each arm D 49
shot at for two D 49
shew to all that D 49
shot or hit with D 48
shot at her son D 48
shod so that they D 48
shew of things that D 48
shut the fan off D 47
shot so that his D 47
ship in his gig D 47
shot to get this D 46
shot the way they D 46
shot it was that D 46
shot in our rear D 46
shot at his son D 46
shot at and all D 46
shut up and hit D 45
shot up and cut D 45
shot the top off D 45
shot so that its D 45
shot on its own D 45
shot at with bow D 45
shot at and run D 45
shew me all that D 45
shot to put her D 44
shot if she had D 44
shot up and has D 43
shot to let him D 43
shot in that war D 43
shot at him yet D 43
shot up and got D 42
shot to see that D 42
shot or one that D 42
shot of her for D 42
shot in our own D 42
shot at you this D 42
shot at them both D 42
shot up and put D 41
shot to her own D 41
shot to bring one D 41
shot the dog that D 41
shot on her own D 41
shot of him for D 41
shot of her that D 41
shot in all his D 41
shot by this man D 41
shot at two men D 41
shot the car out D 40
shot the boy who D 40
shot of you for D 40
shot he was and D 40
shot he got off D 40
shot by one who D 40
shot by him near D 40
shot at and put D 40
