ion is one of D 1743
ion is due to D 1076
ion so that the D 966
ion to that of D 889
ion in each of D 861
ion is not the D 684
ion is that of D 442
ion is that the D 387
ion is not an D 367
ion so that it D 344
ion is not in D 344
ion in one of D 340
ion the son of D 328
ion of all the D 311
ion of one of D 294
ion is not as D 289
ion to act as D 275
ion is that it D 253
ion as one of D 249
ion is not so D 244
ion to one of D 236
ion of each of D 196
ion is not at D 192
ion in air is D 178
ion is and the D 174
ion by using the D 174
ion in both the D 168
ion of any of D 165
ion as long as D 151
ion in that it D 142
ion at each of D 138
ion or one of D 130
ion in all the D 121
ion or ions of D 110
ion in any of D 107
ion to each of D 106
ion or ions in D 106
ion or ions to D 102
ion is not to D 100
ion by way of D 100
ion as far as D 99
ion by use of D 94
ion is then the D 92
ion of both the D 86
ion or for the D 84
ion is near the D 82
ion it can be D 42
ion it may be D 41
ion in that the D 41
ion by one of D 41
ion or with the D 40
ion in all of D 40
