ions as well as D 13657
ions by means of D 2913
ions to form the D 2795
iota of truth in D 2578
ions to reach the D 1160
ions to form an D 964
ions to move in D 956
ions to leave the D 897
ions to give the D 666
ions is used to D 616
iota of what he D 508
ions as fast as D 450
ions is said to D 440
ions to such an D 422
ions as part of D 387
ions to flow in D 376
ions to make the D 344
ions to move to D 334
ions as soon as D 316
ions go into the D 277
ions to bind to D 264
ions of some of D 254
iota of truth to D 248
iota of what is D 240
ions to keep the D 238
ions to take up D 226
ions by loss of D 216
ions in much the D 212
ions to give an D 204
ions to give up D 200
ions as heavy as D 183
ions in some of D 178
ions to pass in D 168
ions is able to D 164
ions is used in D 160
ions is seen to D 156
iota of faith in D 152
ions in case of D 142
ions to form ion D 139
ions is used as D 138
ions the rate of D 135
ions to have the D 134
ions or from the D 130
iota of gain in D 128
ions as much as D 128
ions to those of D 122
ions we have to D 120
ions by taking up D 118
ions of most of D 114
ions of many of D 112
ions by giving up D 108
ions is such as D 104
ions as seen in D 104
ions to exit the D 102
iota of what the D 100
ions to pass to D 98
ions to move at D 96
ions it must be D 95
ions as those of D 94
ions to make it D 91
ions it will be D 89
ions we have the D 87
iota of what we D 82
iota of good to D 82
ions is made by D 82
ions is less in D 82
ions is into the D 82
ions to form in D 80
ions is high in D 80
ions to rush in D 61
ions the ratio of D 47
ions is made up D 40
