he is dealing with M 127466
he is more than M 100673
he is told that M 93488
he is sure that M 64164
he is ready for M 54196
he is saying that M 49167
he at once set M 31530
he is also one M 30592
he in turn was M 30084
he is left with M 28876
he is nothing but M 27414
he is young and M 27170
he is only one M 23338
he is angry with M 20883
he is asking for M 20253
he is good and M 18658
he is making his M 18548
he is much too M 17723
he is very ill M 17108
he is able and M 16386
he is less than M 16242
he is only too M 15064
he is very far M 14776
he is good for M 14469
he is well and M 13722
he is losing his M 13516
he is kind and M 13136
he is very apt M 13088
he is also not M 12992
he is like one M 12981
he the only one M 12853
he is poor and M 12822
he in turn had M 12768
he is born with M 12557
he be sure that M 12252
he at once saw M 11848
he is ready and M 11790
he is very old M 11690
he is taking his M 11196
he is free and M 11078
he to know that M 10962
he is there for M 10841
he is busy with M 10812
he is rich and M 10710
he is living with M 10691
he is more apt M 10584
he is sick and M 10442
he is your son M 10292
he is paying for M 10253
he is born and M 10084
he is wise and M 10050
he is giving his M 9912
he is just and M 9706
he in love with M 9666
he in fact did M 9664
he is even now M 9506
he at once put M 9368
he is glad that M 9087
he is like his M 8866
he is there and M 8728
he is just now M 8642
he is clear that M 8300
he is more and M 8246
he is here now M 7744
he is just one M 7730
he is saying and M 7670
he is here and M 7612
he is safe and M 7470
he is acting for M 7404
he is very near M 7395
he is here for M 7294
he is done with M 7294
he is angry and M 7246
he is here with M 7170
he is gone and M 7114
he is like that M 7006
he at last got M 6814
he is sent for M 6788
he is very weak M 6772
he is just going M 6546
he is calm and M 6522
he no more than M 6472
he is coming with M 6352
he at last had M 6350
he is said not M 6164
he in fact was M 6158
he in fact had M 6156
he is making for M 6100
he is cold and M 6088
he is giving you M 6042
he is only doing M 5960
he is great and M 5814
he in some way M 5776
he is there with M 5678
he is living and M 5610
he is made for M 5600
he is wrong and M 5570
he be unto his M 5534
he is well off M 5416
he is cast out M 5387
he is worn out M 5357
he is coming out M 5330
he is also our M 5114
he is done for M 5110
he is eager for M 4892
he is just not M 4858
he is gone for M 4832
he is there now M 4768
he is what you M 4738
he to whom this M 4720
he is ready with M 4716
he is having his M 4666
he in turn has M 4636
he is gone now M 4608
he is your god M 4603
he is shut out M 4426
he at once got M 4404
he is lord and M 4384
he is acting out M 4349
he is other than M 4348
he in fact does M 4326
he is worth his M 4324
he is very bad M 4302
he is lost and M 4286
he to whom all M 4283
he is like him M 4270
he is giving them M 4210
he is your own M 4136
he is sent out M 4132
he is wise who M 4116
he is among his M 4076
he is told and M 4056
he is like all M 4001
he is dealt with M 3995
he at once had M 3986
he is making use M 3950
he is holy and M 3902
he is only going M 3886
he is also its M 3868
he is upon his M 3844
he is seen with M 3818
he is asking you M 3808
he to whom you M 3804
he is longing for M 3792
he is heading for M 3792
he is lazy and M 3782
he is sure they M 3736
he to whom they M 3700
he is from his M 3652
he is gone out M 3607
he is ever going M 3590
he at last was M 3586
he is made one M 3521
he in turn may M 3512
he to whom god M 3504
he is bold and M 3484
he is single and M 3474
he is warm and M 3466
he in fact has M 3464
he is reading and M 3408
he is made out M 3390
he is dull and M 3372
he is their god M 3362
he is also being M 3356
he is true and M 3352
he is meek and M 3352
he is clear and M 3334
he is coming for M 3320
he is just too M 3318
he is part and M 3310
he is well read M 3304
he is pure and M 3304
he is fair and M 3278
he is able with M 3270
he is also going M 3240
he at last saw M 3213
he is able not M 3210
he is late for M 3188
he is very shy M 3144
he is what they M 3142
he is told not M 3104
he is also head M 3095
he to whom she M 3062
he is hoping that M 3062
he is trying his M 3026
he is great who M 2994
he is angry that M 2989
he is coming this M 2988
he is like you M 2980
he is giving her M 2966
he is open and M 2912
he is also god M 2900
he or some one M 2897
he is slow and M 2874
he is just that M 2866
he do more than M 2866
he be angry with M 2801
he is just being M 2798
he is born for M 2784
he is only now M 2778
he go back and M 2768
he to look for M 2750
he is having with M 2704
he is like this M 2702
he is making and M 2688
he is very low M 2640
he is cool and M 2614
he is making this M 2610
he is laid off M 2608
he is hard and M 2602
he is saying this M 2574
he is like god M 2542
he in turn can M 2528
he is coming now M 2518
he is taking her M 2504
he is told how M 2492
he is sure his M 2474
he is sure she M 2472
he is very dear M 2467
he is seen and M 2464
he is hoping for M 2464
he is over all M 2452
he is very sad M 2448
he is sure not M 2400
he is among them M 2390
he is aiming for M 2384
he is clean and M 2380
he be able with M 2378
he at once did M 2370
he in whom all M 2366
he the only man M 2348
he is good with M 2340
he is only fit M 2339
he is acting with M 2332
he is back with M 2322
he to tell her M 2304
he is living for M 2304
he is weary and M 2292
he is also doing M 2290
he is sick with M 2286
he is like and M 2260
he is mine and M 2256
he is only using M 2246
he is your man M 2239
he in wait for M 2234
he is sent off M 2229
he is paying his M 2228
he is gone his M 2222
he is what his M 2218
he is mild and M 2202
he is love and M 2198
he is true god M 2192
he is hard put M 2181
he is none too M 2164
he is kept out M 2140
he is leading his M 2136
he is very god M 2123
he is left out M 2122
he is living now M 2118
he at length was M 2118
he is also too M 2114
he at once and M 2114
he is vain and M 2092
he is only two M 2092
he is leading you M 2084
he is able for M 2066
he go along with M 2060
he is making them M 2048
he be told that M 2026
he to make his M 2010
he is busy and M 2006
he do these things M 2004
he be other than M 2000
he is lost for M 1994
he is from that M 1994
he is down and M 1980
he is gone with M 1962
he is only being M 1954
he is less and M 1950
he is also that M 1939
he is also his M 1936
he is leading them M 1924
he is most apt M 1916
he is trying not M 1912
he is sure you M 1908
he of whom you M 1906
he is over six M 1906
he is hurt and M 1894
he is like any M 1892
he is also using M 1892
he is from god M 1881
he is ever with M 1860
he to learn that M 1858
he no less than M 1854
he is made low M 1852
he at length got M 1842
he is living his M 1840
he is taking them M 1836
he is ugly and M 1834
he is making out M 1829
he is like them M 1820
he is less apt M 1820
he at once led M 1812
he at once sat M 1808
he is asking them M 1788
he is taking this M 1784
he is away for M 1772
he is reading his M 1762
he is moving his M 1758
he is dealing has M 1740
he is safe for M 1726
he is just doing M 1726
he is earning his M 1722
he is asking that M 1718
he is very big M 1712
he go home and M 1710
he is just out M 1708
he is dealing not M 1700
he is taking off M 1698
he is held for M 1696
he is taking you M 1692
he is ready now M 1692
he is dark and M 1692
he is acting and M 1690
he is living out M 1689
he is caring for M 1688
he is asking his M 1688
he be angry and M 1688
he is trying for M 1652
he to find out M 1628
he is also with M 1622
he is nice and M 1610
he the same man M 1607
he is making you M 1602
he is laying out M 1602
he is crying for M 1600
he at once ran M 1580
he is moving with M 1576
he be sent for M 1576
he be clean that M 1568
he is free for M 1564
he is half dead M 1556
he is evil and M 1550
he is young yet M 1549
he is taking with M 1542
he is seeing and M 1540
he is more real M 1540
he is from new M 1538
he is ever and M 1536
he to lose his M 1522
he at length saw M 1518
he is from all M 1514
he is fine and M 1508
he be more than M 1502
he at last set M 1498
he is also far M 1491
he is reading for M 1486
he is also and M 1476
he is male and M 1470
he is making all M 1467
he is crying out M 1467
he is there all M 1465
he is only six M 1453
he is past his M 1452
he is nearing his M 1450
he is asking her M 1440
he is buying and M 1432
he is also now M 1428
he is free not M 1424
he the next day M 1419
he or will not M 1418
he by whom all M 1418
he to leave his M 1416
he go ahead and M 1414
he is ever near M 1412
he to have his M 1410
he is dealing and M 1406
he at last put M 1403
he is away and M 1402
he at length had M 1400
he is free who M 1398
he at last did M 1396
he is also apt M 1376
he is taking for M 1372
he is dealing may M 1366
he is trying out M 1357
he is nothing and M 1350
he is coming and M 1350
he is over head M 1338
he is full and M 1336
he at once goes M 1336
he of whom they M 1334
he is well out M 1312
he is safe with M 1310
he is half way M 1308
he is well now M 1303
he go away and M 1302
he is eager and M 1298
he is saving his M 1292
he is used for M 1288
he is taking and M 1286
he do nothing but M 1284
he is giving him M 1280
he is taking out M 1273
he at last has M 1266
he be dealt with M 1258
he is only ten M 1257
he is when you M 1254
he is wild and M 1252
he in whom they M 1252
he is worth all M 1242
he is idle and M 1236
he is heart and M 1236
he do when you M 1236
he is safe now M 1233
he to find his M 1232
he is high and M 1232
he is saying now M 1229
he is there not M 1224
he at length did M 1210
he is soon going M 1208
he is left for M 1208
he is some one M 1206
he is soft and M 1206
he is here not M 1206
he is such that M 1202
he is heavy and M 1190
he is very easy M 1186
he is taking all M 1186
he is also her M 1184
he is meant for M 1180
he to those who M 1172
he to have any M 1168
he is free now M 1167
he on whom you M 1166
he is gone off M 1166
he is seeing his M 1162
he is making with M 1160
he is life and M 1160
he is home and M 1160
he is what one M 1145
he is able now M 1144
he is sent with M 1138
he is reading with M 1138
he is only not M 1134
he be wise and M 1132
he is from being M 1130
he is making any M 1128
he is here using M 1124
he is there too M 1122
he in whom this M 1122
he is like our M 1116
he is over his M 1100
he is from one M 1089
he at once cut M 1084
he is crying and M 1080
he is laid out M 1072
he be less than M 1072
he is also out M 1071
he is rash and M 1064
he at length set M 1063
he is saying his M 1062
he is rich who M 1062
he is free with M 1062
he to find that M 1060
he to keep his M 1058
he is hiding his M 1058
he is wild with M 1056
he is making one M 1051
he is also for M 1040
he is able both M 1038
he is among men M 1036
he is also man M 1036
he is truth and M 1034
he is like her M 1032
he is held and M 1030
he is past all M 1021
he is down with M 1020
he is made and M 1008
he is saying but M 1006
he is such and M 996
he is keen and M 996
he is shut off M 992
he is gone who M 992
he is making that M 990
he is loud and M 990
he is born out M 984
he to live for M 976
he to think that M 974
he is just using M 954
he is also led M 946
he to take his M 944
he is moving out M 943
he to show for M 942
he is held out M 942
he is paying you M 940
he is laying his M 938
he is also all M 936
he is glad and M 932
he is worth and M 928
he be like his M 926
he so sure that M 922
he go back with M 922
he to wait for M 916
he is from this M 912
he is moving and M 908
he go ahead with M 908
he is their head M 907
he is sent and M 906
he in turn got M 906
he at once was M 904
he at once won M 902
he is very fit M 893
he is best off M 891
he is told his M 890
he is half mad M 886
he is biding his M 886
he is taking too M 884
he is there yet M 883
he is true man M 882
he is told this M 880
he is only his M 880
he is acting not M 878
he do when she M 878
he is back and M 876
he do when his M 870
he is seen not M 866
he is many things M 866
he is giving out M 866
he be poor and M 866
he do nothing for M 862
he to know how M 858
he is their own M 856
he is heard with M 856
he is glad for M 856
he to whom his M 852
he is from and M 852
he is there but M 842
he is pure act M 842
he is cast off M 839
he is more fit M 836
he is hand and M 836
he is mine now M 834
he is making her M 832
he is buying for M 832
he is weary with M 830
he is young but M 826
he to whom that M 825
he is saying with M 822
he do other than M 822
he to wait long M 821
he at last sat M 818
he is saying things M 812
he is very real M 810
he is come for M 808
he be young and M 808
he is kept for M 806
he to give his M 798
he is making things M 798
he in whom god M 794
he is told they M 790
he is their son M 790
he is even then M 790
he to meet with M 784
he is three and M 784
he is tied with M 782
he be ready for M 780
he in turn did M 774
he is beating his M 772
he is ours and M 770
he is gone but M 770
he is born not M 770
he be left with M 770
he is hearing and M 762
he is gone that M 761
he is their man M 759
he to tell them M 756
he is late and M 752
he is giving this M 744
he is their poet M 736
he is young for M 734
he is most fit M 731
he so angry with M 730
he is wrong for M 730
he be good and M 730
he is wise that M 728
he is asking him M 726
he is gone this M 722
he is well with M 720
he to tell his M 716
he is busy all M 716
he is gone she M 714
he the case with M 710
he is busy doing M 710
he go there for M 710
he is mine for M 707
he is wary and M 706
he be there for M 706
he do less than M 704
he is saying all M 700
he do such things M 700
he is come out M 698
he is here all M 694
he is worth ten M 690
he is just for M 690
he is here this M 690
he is saving for M 688
he is poor but M 686
he is laid low M 684
he is even too M 684
he to make her M 682
he is making war M 682
he do when they M 682
he so dealt with M 678
he is making are M 678
he is heard and M 678
he is away with M 674
he is when his M 672
he is paying too M 672
he is from our M 672
he on whom all M 670
he is taking that M 670
he is giving all M 667
he no other than M 666
he is fast and M 666
he at length with M 666
he is torn with M 664
he is seeing her M 664
he is much with M 664
he is home for M 664
he is from any M 662
he is away now M 662
he in turn put M 662
he the case that M 661
he the best man M 660
he is paying off M 650
he is huge and M 642
he is here too M 642
he is also both M 642
he is much out M 639
he is made that M 637
he of whom this M 634
he is making now M 634
he is held not M 634
he or those who M 632
he is best who M 632
he is deep and M 630
he is asking too M 629
he is cast for M 626
he do more for M 626
he is seeing things M 624
he is leading her M 624
he is glad she M 624
he is trying with M 622
he is sure this M 622
he be like that M 621
he is good who M 620
he is great with M 618
he to open his M 616
he to give her M 616
he is very odd M 616
he is leading and M 614
he is reading this M 612
he at once let M 610
he is wrong but M 608
he is here but M 608
he be rich and M 608
he is good but M 607
he to find her M 606
he is upon all M 606
he is eager that M 606
he is busy now M 606
he to give them M 604
he is sure and M 604
he to speak out M 602
he is losing all M 600
he is asking god M 599
he is having one M 598
he is paying them M 594
he is only man M 593
he is good man M 592
he is clean all M 591
he to live ten M 590
he is seen but M 590
he is only with M 588
he is gone too M 588
he so ably and M 586
he is just this M 586
he is home now M 586
he is hiding out M 586
he is only that M 585
he be eased with M 584
he is only for M 582
he go home with M 582
he do away with M 582
he be held for M 580
he is asking how M 578
he is back now M 576
he is only god M 575
he the same one M 573
he is also dead M 572
he is making too M 570
he is five and M 570
he is taking one M 568
he on whom they M 566
he go down and M 566
he at once read M 566
he at last won M 566
he is taking him M 564
he the fact that M 563
he is only out M 562
he is afar off M 561
he to make this M 560
he to have for M 560
he to come and M 560
he is these things M 560
he is even going M 560
he be good for M 560
he is what god M 558
he to tell you M 556
he to part with M 556
he is buying his M 554
he be kept out M 553
he is trying too M 552
he is pure air M 552
he is giving way M 552
he is having any M 548
he is asking why M 548
he is able thus M 548
he to find them M 546
he is glad you M 546
he is glad they M 544
he to meet his M 542
he is come with M 542
he is very long M 541
he to make any M 538
he is what may M 538
he is very mad M 538
he in fact saw M 536
he is reading them M 534
he is home with M 534
he is among our M 534
he be cast out M 534
he of those who M 532
he is over and M 532
he in whom you M 532
he in fact who M 532
he is seen for M 530
he is down for M 530
he is seeing them M 528
he is living yet M 528
he is just who M 526
he is making two M 525
he on more than M 524
he no more had M 524
he is only its M 524
he is angry but M 524
he in whom are M 524
he is once out M 523
he is paying out M 522
he is born that M 521
he is tied and M 520
he at peace with M 520
he is angry now M 519
he the same with M 518
he is body and M 514
he to whom our M 512
he do what you M 512
he to take him M 506
he is worth two M 506
he is even with M 506
he is best and M 506
he is sure are M 502
he is aiming his M 502
he go away for M 502
he be able and M 502
he is sick for M 500
he is gone they M 500
he is calm now M 495
he is there they M 494
he is quit for M 492
he is into his M 492
he is also put M 492
he at last goes M 492
he to whom one M 490
he is giving and M 488
he be left out M 488
he is angry for M 484
he is some old M 482
he is able but M 482
he of whom all M 480
he is upon this M 480
he is glad his M 480
he is also old M 480
he at last with M 480
he to show that M 478
he is just off M 478
he is hanging out M 478
he to take her M 476
he to sell his M 476
he is worth any M 476
he is well set M 476
he is paying her M 476
he is aged and M 476
he at last let M 476
he to know this M 474
he is taking any M 474
he of whom she M 472
he is rich but M 472
he so think fit M 470
he is told she M 470
he is some way M 470
he is saying not M 470
he is made head M 470
he go over and M 468
he the same for M 466
he by whom god M 466
he be sure she M 466
he at length put M 466
he to have one M 465
he is well but M 465
he is taking two M 465
he to show his M 464
he is trying now M 464
he is rich now M 464
he is soon out M 463
he is dealing are M 462
he is wrong not M 458
he is also set M 458
he is acting has M 458
he in turn does M 458
he is keen for M 456
he to know she M 454
he to hold his M 452
he is open for M 452
he is food for M 452
he is also near M 449
he to work for M 448
he is seen now M 448
he is pure being M 447
he is sure now M 446
he in turn set M 446
he be sent out M 446
he by whom this M 444
he at home now M 444
he to hope for M 442
he is taking aim M 442
he is seeing god M 440
he is once dead M 440
he is come and M 440
he is sick but M 438
he is gone mad M 438
he go into his M 438
he is will not M 436
he is what she M 436
he is well rid M 436
he is saying you M 434
he is said now M 434
he an only son M 433
he is just dead M 432
he is even yet M 431
he is very pro M 430
he to find this M 428
he the type who M 428
he is saying than M 428
he is daring and M 426
he by whom they M 424
he do just that M 423
he the young man M 422
he is your dog M 422
he is seeing for M 420
he is hiding and M 420
he is away all M 420
he in truth was M 420
he to save his M 418
he to make them M 418
he to have too M 418
he is taking our M 418
he is gone you M 418
he is more for M 417
he is great for M 416
he is fine now M 416
he do those things M 416
he is four and M 414
he no more can M 413
he to make use M 412
he is told for M 412
he is told are M 412
he be like this M 412
he be just and M 412
he at once has M 412
he to turn for M 410
he to meet her M 410
he so poor that M 410
he is there you M 410
he is poor who M 410
he is caring and M 410
he is seeing with M 408
he in dealing with M 408
he to some one M 407
he is their real M 406
he is nothing now M 406
he is having too M 406
he is free but M 406
he be great god M 406
he is what all M 404
he is paying and M 404
he is making new M 402
he is tied for M 398
he is base and M 398
he be dealing with M 398
he be such one M 396
he is safe who M 394
he to have all M 392
he is told why M 392
he is making him M 392
he the same year M 390
he is poor than M 390
he in turn being M 390
he to turn his M 388
he is lord for M 388
he is hurt that M 388
he go back for M 388
he is sick now M 386
he is done and M 386
he at odds with M 386
he is told off M 385
he is trying all M 384
he is only our M 384
he is bearing his M 384
he is asking this M 384
he to take this M 382
he do leave this M 382
he so much and M 380
he is wiping his M 380
he is saying they M 380
he to whom was M 378
he is just lying M 378
he is fire and M 378
he in jail for M 378
he is having them M 376
he is made all M 374
he is losing out M 374
he is also weak M 374
he be sure they M 374
he is more with M 372
he is just his M 372
he be here for M 372
he at once with M 372
he to find him M 370
he the best and M 370
he is come too M 370
he is able then M 370
he to leave her M 368
he on whom she M 368
he is seeing you M 368
he is flying with M 368
he go there and M 368
he is seeing that M 367
he is seen going M 366
he is like now M 366
he go away with M 366
he do less for M 366
he is half man M 364
he is great not M 364
he is asking and M 364
he the same day M 362
he is saying may M 362
he at last too M 362
he to tell him M 360
he is come that M 360
he to have this M 358
he go home for M 358
he at length cut M 357
he to work with M 356
he is told but M 356
he is reading that M 356
he is living off M 356
he be free and M 356
he is wise for M 354
he is very mean M 354
he is crying now M 354
he is only her M 352
he is living near M 352
he is mine own M 351
he is your boy M 350
he is sure all M 350
he is only weak M 350
he is told with M 348
he is fine with M 348
he is bent and M 348
he be well and M 348
he at home with M 348
he is what our M 346
he is saying has M 346
he be angry that M 346
he to whom her M 344
he to give way M 344
he is years old M 344
he is worth that M 344
he is wily and M 344
he is mine too M 344
he is like who M 344
he is ending his M 342
he is among you M 342
he the next year M 340
he is seen lying M 340
he in turn saw M 340
he in fact may M 340
he is when they M 338
he is what has M 338
he is upon them M 338
he is saying can M 338
he is reading out M 338
he is wrong than M 336
he is having this M 336
he to come out M 335
he to have had M 334
he is till this M 334
he is from him M 334
he is upon earth M 333
he eat nothing that M 333
he is taking things M 332
he is ever doing M 328
he is ever being M 328
he to find one M 327
he to call her M 326
he is acting this M 326
he is very man M 325
he the other day M 324
he is even led M 324
he to seek for M 322
he is kept with M 322
he is glad now M 322
he do what was M 322
he is only and M 320
he is made man M 320
he is having and M 320
he to take any M 318
he is wise too M 318
he is sure can M 318
he is only dead M 318
he is your new M 317
he is torn and M 316
he is only sad M 316
he be cold and M 316
he so eager for M 314
he is moving too M 314
he be great and M 314
he is your old M 312
he is paying now M 312
he the time and M 310
he on faith and M 310
he is losing her M 310
he is come not M 310
he in having them M 310
he be here now M 310
he is kind but M 308
he is just then M 308
he is here being M 308
he is coming too M 308
he is said then M 306
he is gone far M 306
he is asking not M 306
he is from you M 304
he is also cut M 304
he is your age M 303
he to lose all M 302
he of much use M 302
he is away she M 302
he at once lay M 302
he to give you M 298
he is wise with M 298
he is raging and M 298
he is losing and M 298
he is back for M 298
he in there with M 298
he is trim and M 296
he be told how M 296
he be kind and M 296
he is your real M 295
he is slow but M 294
he is saying one M 294
he is more his M 294
he to keep them M 292
he is just got M 292
he in fact can M 292
he no time for M 290
he is swung off M 290
he the last man M 289
he the very man M 288
he no good for M 288
he is saving her M 288
he is kept too M 288
he is keen that M 288
he go forth with M 288
he be true and M 288
he is from her M 286
he is worth for M 284
he is giving too M 284
he is even not M 284
he to know who M 282
he is wrong that M 282
he is their one M 282
he in turn with M 282
he is wrong with M 280
he is saying does M 280
he is rich with M 280
he is left too M 280
he is beating her M 280
he be late for M 280
he no more saw M 279
he is good that M 279
he to send out M 278
he is reading one M 278
he is over them M 278
he is more shy M 278
he is heading and M 278
he is gone then M 278
he is gone all M 278
he is acting his M 278
he be home for M 278
he of late had M 276
he is some day M 276
he be heard and M 276
he be shut out M 275
he at last lay M 275
he to speak with M 274
he is your one M 274
he is worn and M 274
he is just old M 274
he to live his M 272
he is some kin M 272
he is saying them M 272
he is made sin M 272
he is kept and M 272
he is heavy with M 272
he is from them M 272
he be like now M 272
he is when one M 270
he is leading him M 270
he is your near M 268
he is used and M 268
he is trying and M 268
he go back now M 268
he be living and M 268
he to know you M 266
he is made our M 266
he is made not M 266
he be gone long M 266
he is giving that M 265
he to live with M 264
he to come with M 264
he is sure has M 264
he is living that M 264
he is here one M 264
he in fact goes M 264
he be here with M 264
he to reach his M 262
he is wise not M 262
he is glad not M 262
he so held that M 261
he is angry his M 261
he to take all M 260
he the case for M 260
he so well and M 260
he be worth his M 260
he in less than M 258
he is good all M 257
he is over that M 256
he is ours for M 256
he is mind and M 256
he is just two M 256
he is along with M 256
he be fair and M 256
he of some use M 254
he is seeing all M 254
he at length sat M 254
he is saying how M 252
he is saving and M 252
he is more dead M 252
he is gray and M 252
he is from out M 252
he go into that M 252
he is making way M 251
he is giving one M 251
he to give him M 250
he is giving for M 250
he is also shy M 250
he is worth now M 248
he is sure god M 248
he in more than M 248
he is less fit M 247
he to make him M 246
he is here doing M 246
he is also thus M 246
he in fact got M 246
he an hour and M 246
he to feel that M 245
he of great use M 244
he is reading are M 242
he is felt and M 242
he is evil but M 242
he in whom she M 242
he be seen and M 242
he is just six M 241
he to whom any M 240
he is like old M 240
he at lies and M 240
he the only son M 239
he is there that M 239
he to give for M 238
he to care for M 238
he is kept off M 238
he is born but M 238
he is among that M 238
he in there now M 238
he do during his M 238
he to lift his M 236
he so very ill M 236
he so lost his M 236
he is well led M 236
he is reading don M 236
he is only led M 236
he is made new M 236
he is free that M 236
he go into any M 236
he go down with M 236
he eat more than M 236
he to keep her M 234
he is paying him M 234
he be sure his M 234
he be nothing but M 234
he be clean and M 234
he to show any M 232
he the only way M 232
he is more ill M 232
he an ugly one M 232
he to stop her M 230
he on your team M 230
he is there his M 230
he is taking are M 230
he is giving off M 230
he is flying and M 230
he is coming off M 230
he is asking all M 230
he eat nothing but M 230
he is some mad M 228
he is ready not M 228
he is late with M 228
he is also mad M 228
he at home and M 228
he is wrong now M 227
he is very set M 226
he is said with M 226
he is dealing that M 226
he is dealing for M 226
he eat upon all M 226
he no need for M 224
he is well dead M 224
he is reading now M 224
he is only then M 224
he is left all M 224
he is from now M 224
he be gone for M 224
he the kind who M 222
he is saying for M 222
he is past that M 222
he is over this M 222
he is nothing that M 222
he is hearing his M 222
he in their own M 222
he to take that M 220
he to meet all M 220
he is most dear M 220
he is mixing with M 220
he is leading with M 220
he he will not M 220
he go look for M 220
he be sent off M 220
he be like you M 220
he be saying that M 219
he to leave them M 218
he to gain his M 218
he on whom his M 218
he is hoping you M 218
he is also this M 218
he at risk for M 218
he is seeing now M 217
he is from day M 217
he the same who M 216
he so young and M 216
he is reading law M 216
he is making off M 216
he is making but M 216
he is away you M 216
he be safe and M 216
he be here this M 216
he at last going M 216
he is their all M 214
he is saying are M 214
he is held too M 214
he is fled out M 214
he be sent with M 214
he be asking for M 214
he at last does M 214
he is making real M 212
he is best with M 212
he in such mean M 212
he be like them M 212
he the true and M 210
he is there she M 210
he is safe out M 210
he is only this M 210
he is lost now M 210
he is having all M 210
he be seen with M 210
he so used his M 208
he is void and M 208
he is sick they M 208
he is moving all M 208
he is buying them M 208
he is acting thus M 208
he to treat her M 206
he to none but M 206
he is wrong who M 206
he is when she M 206
he is said thus M 206
he is over age M 206
he is other things M 206
he is once for M 206
he is half his M 206
he in here for M 206
he at length led M 206
he to know all M 204
he to deny her M 204
he is very wet M 204
he is like death M 204
he is left lying M 204
he is held with M 204
he in turn goes M 204
he to teach her M 202
he to have them M 202
he is there are M 202
he is less easy M 202
he is away then M 202
he do what she M 202
he be sick and M 202
he to have that M 200
he of whom god M 200
he do what his M 200
he be sure not M 200
he to live and M 198
he is over two M 198
he is none but M 198
he is much and M 198
he is more man M 198
he is here you M 198
he is ever new M 198
he is during his M 198
he is dealing out M 198
he is coming all M 198
he is among all M 198
he in whom that M 198
he in line with M 198
he by will has M 198
he be born with M 198
he to help her M 196
he is free both M 196
he in form and M 196
he go wrong all M 196
he at length ran M 196
he to speak and M 194
he to join them M 194
he to help him M 194
he to feel and M 194
he so great that M 194
he is seen doing M 194
he is here yet M 194
he go forth and M 194
he by whom men M 194
he be born and M 194
he at their head M 194
he to take them M 192
he or those for M 192
he is soon put M 192
he is ready then M 192
he is acting now M 192
he be back for M 192
he is worth one M 191
he is like two M 191
he is done that M 191
he to make that M 190
he no want you M 190
he is upon her M 190
he is taking now M 190
he is soon off M 190
he is much for M 190
he is adding his M 190
he be your son M 190
he be there now M 190
he to know his M 188
he to deny his M 188
he on your box M 188
he is only mad M 188
he is nearing death M 188
he at length does M 188
he to lose her M 186
he is saving them M 186
he is boring and M 186
he at home may M 186
he is some six M 185
he to stay with M 184
he to know they M 184
he the sort who M 184
he the last one M 184
he is reading not M 184
he is over you M 184
he do upon that M 184
he be living now M 184
he at last led M 184
he is worth being M 183
he is singling out M 183
he to meet them M 182
he is very dead M 182
he is adding new M 182
he go there with M 182
he be sure how M 182
he be said not M 182
he to pour his M 180
he to call for M 180
he is reading may M 180
he is more weak M 180
he is lost with M 180
he is idle who M 180
he is heir and M 180
he is born one M 180
he be when his M 180
he is away off M 179
he to think she M 178
he to leave that M 178
he is sore and M 178
he is reading off M 178
he is poor now M 178
he is once and M 178
he is made his M 178
he is born are M 178
he at length our M 178
he an able man M 178
he is more near M 177
he is even that M 177
he to know them M 176
he to deny them M 176
he so very bad M 176
he is told who M 176
he is made both M 176
he is living not M 176
he is home all M 176
he of whom his M 174
he is what man M 174
he is making not M 174
he is clinging and M 174
he is born has M 174
he do what they M 174
he by whom you M 174
he by having them M 174
he be there and M 174
he be made one M 174
he be angry for M 174
he is wiping out M 173
he is told may M 172
he is told all M 172
he is nine and M 172
he is left not M 172
he is hiding now M 172
he is having now M 172
he is able out M 172
he in vain had M 172
he to tell this M 170
he to meet him M 170
he so uses them M 170
he no room for M 170
he is wise but M 170
he is sure for M 170
he is soon led M 170
he is seeing this M 170
he is paying all M 170
he is more out M 170
he is beating you M 170
he is also ill M 170
he is aiming not M 170
he in fact not M 170
he be away for M 170
he the type that M 169
he is worth our M 168
he is seen being M 168
he is reading too M 168
he is made too M 168
he is hanging his M 168
he is eager not M 168
he is done eating M 168
he be pure and M 168
he be gone now M 168
he to thank for M 166
he no other way M 166
he is what men M 166
he is reading has M 166
he is more easy M 166
he is making law M 166
he is best read M 166
he in truth had M 166
he go from one M 166
he do there but M 166
he be good that M 166
he an evil man M 166
he an able and M 166
he to make war M 164
he to feed his M 164
he the only fit M 164
he the last who M 164
he is ugly now M 164
he is seeing are M 164
he is rash who M 164
he is here set M 164
he is even for M 164
he is earning and M 164
he is coming near M 164
he is away his M 164
he be very old M 164
he be among them M 164
he be away long M 163
he or even his M 162
he on whom god M 162
he is saying two M 162
he is more mad M 162
he is held one M 162
he is even but M 162
he is boring his M 162
he at length won M 162
he is noting that M 161
he to risk his M 160
he to keep this M 160
he of making them M 160
he is living but M 160
he is flying off M 160
he is best fit M 160
he in great fear M 160
he do also and M 160
he be such that M 160
he is more then M 159
he the same did M 158
he is young too M 158
he is wrong too M 158
he is worn with M 158
he is whom you M 158
he is sick all M 158
he is making has M 158
he is making can M 158
he is made use M 158
he is during this M 158
he is aiming and M 158
he is acting that M 158
he in fact read M 158
he go home now M 158
he be taking her M 158
he be slow and M 158
he be here and M 158
he at length has M 158
he is done out M 157
he at last cut M 157
he to talk with M 156
he to join his M 156
he the wise man M 156
he so soon was M 156
he is peace and M 156
he is having that M 156
he in pain let M 156
he be among you M 156
he is told one M 155
he to turn them M 154
he to love her M 154
he my only son M 154
he is warm with M 154
he is over one M 154
he is made fit M 154
he is ideal for M 154
he is even dead M 154
he in fact but M 154
he do during that M 154
he is hard all M 153
he to break off M 152
he the same old M 152
he on trial for M 152
he my said son M 152
he is such who M 152
he is rich for M 152
he is reading but M 152
he is nothing for M 152
he is gone ere M 152
he in love and M 152
he do find that M 152
he be your own M 152
he be when she M 152
he be living with M 152
he be done with M 152
he as young and M 152
he to reach them M 150
he to break his M 150
he me there with M 150
he is trying this M 150
he is time and M 150
he is much that M 150
he is losing them M 150
he is gone may M 150
he is fast going M 150
he is even out M 150
he be laid off M 150
he to wish for M 148
he to speak for M 148
he to send his M 148
he no debt but M 148
he is taking but M 148
he is seen thus M 148
he is seeing him M 148
he is said for M 148
he go into this M 148
he be wrong who M 148
he be only one M 148
he at last ran M 148
he to whom both M 146
he to take for M 146
he to have her M 146
he is upon you M 146
he is once set M 146
he is idle for M 146
he is holy who M 146
he is bent with M 146
he in fact set M 146
he is moving off M 145
he at last hung M 145
he to learn how M 144
he to give all M 144
he no word for M 144
he is sick than M 144
he is owed and M 144
he is losing that M 144
he is living are M 144
he is hearing for M 144
he is crying with M 144
he is buying with M 144
he is buying are M 144
he be good who M 144
he to face his M 142
he so busy with M 142
he of what was M 142
he of more than M 142
he is your all M 142
he is their long M 142
he is pure who M 142
he is held are M 142
he is even one M 142
he is beating with M 142
he in what was M 142
he be very ill M 142
he as ready with M 142
he so rich that M 141
he to kiss her M 140
he to cast off M 140
he the time for M 140
he of whom one M 140
he is wrong both M 140
he is reaping his M 140
he is ours now M 140
he is lord both M 140
he is laid with M 140
he is good now M 140
he is born his M 140
he go away now M 140
he do some things M 140
he be used for M 140
he be able not M 140
he at length may M 140
he as well off M 140
he is made ill M 139
he in fact that M 139
he to draw his M 138
he the best way M 138
he is word and M 138
he is saving you M 138
he is only thus M 138
he is living this M 138
he is heading out M 138
he is game for M 138
he is clean out M 138
he is blue and M 138
he as high and M 138
he to hold her M 136
he the great bear M 136
he is wrong his M 136
he is just dying M 136
he in mind for M 136
he in fact led M 136
he go like that M 136
he be idle who M 136
he at last not M 136
he to make for M 134
he to leave out M 134
he to help them M 134
he the same way M 134
he or other men M 134
he no more death M 134
he is weary than M 134
he is seeing one M 134
he is saying yes M 134
he is over her M 134
he is held has M 134
he is hearing them M 134
he is having for M 134
he is half one M 134
he is fair with M 134
he is born too M 134
he is bearing all M 134
he is also son M 134
he do other things M 134
he is good too M 133
he up there now M 132
he to pray for M 132
he to back out M 132
he the only poet M 132
he the lord god M 132
he is there who M 132
he is sure was M 132
he is reading her M 132
he is raging with M 132
he is over ten M 132
he is less read M 132
he is leading men M 132
he is here that M 132
he is ever lying M 132
he is earning for M 132
he in time may M 132
he in fact see M 132
he be told not M 132
he be there with M 132
he be held and M 132
he be glad that M 132
he as well was M 132
he to show them M 130
he to hold out M 130
he the true one M 130
he the same age M 130
he the other way M 130
he so angry that M 130
he is weaving his M 130
he is some god M 130
he is poor for M 130
he is past being M 130
he is like man M 130
he is just mad M 130
he is from its M 130
he is flying for M 130
he is ever too M 130
he is crying too M 130
he in fact put M 130
he be making for M 130
he be come that M 130
he be half dead M 129
he to lose that M 128
he to call them M 128
he is wrong then M 128
he is true who M 128
he is seeing not M 128
he is owed for M 128
he is moving them M 128
he is lost who M 128
he is heading nor M 128
he go live with M 128
he at once does M 128
he as well had M 128
he the kind that M 127
he the need for M 126
he is trying you M 126
he is trying our M 126
he is such for M 126
he is making our M 126
he is here led M 126
he is glad with M 126
he is full with M 126
he is away that M 126
he in turn led M 126
he go from being M 126
he by those who M 126
he be losing his M 126
he is ever one M 125
he to meet you M 124
he to find with M 124
he to face her M 124
he so cold and M 124
he so calm and M 124
he no care for M 124
he is wrong all M 124
he is sure with M 124
he is seen using M 124
he is paying with M 124
he is most easy M 124
he is losing but M 124
he is giving new M 124
he by whom kings M 124
he be upon his M 124
he be from his M 124
he is poor that M 123
he to turn out M 122
he to tell that M 122
he to leave you M 122
he to give any M 122
he is when this M 122
he is told its M 122
he is soon run M 122
he is safe but M 122
he is only ill M 122
he is giving two M 122
he in whom one M 122
he eat food with M 122
he be true dead M 122
he be made head M 122
he be hurt and M 122
he is more read M 121
he to make one M 120
he to break with M 120
he the work hath M 120
he the moon had M 120
he no more has M 120
he is till now M 120
he is part way M 120
he is losing heat M 120
he is kept thus M 120
he is here then M 120
he is flying too M 120
he is eyes for M 120
he go down for M 120
he do during this M 120
he by land and M 120
he to make out M 119
he by whom that M 119
he to turn men M 118
he the great poet M 118
he so good and M 118
he so dark and M 118
he is unto them M 118
he is making bad M 118
he is made bad M 118
he is left and M 118
he is leading now M 118
he is lazy but M 118
he is just fit M 118
he is heard singing M 118
he is good they M 118
he is good boy M 118
he is ever apt M 118
he is even being M 118
he is born six M 118
he is also long M 118
he in youth his M 118
he in turn let M 118
he go when his M 118
he be very far M 118
he be ready with M 118
he be born any M 118
he is free can M 117
he is also mean M 117
he to take with M 116
he to base his M 116
he the only boy M 116
he so uses his M 116
he is used with M 116
he is tell him M 116
he is sent are M 116
he is safe that M 116
he is only put M 116
he is made with M 116
he is living has M 116
he is left far M 116
he is just shy M 116
he is coming not M 116
he is born than M 116
he in very bad M 116
he in truth did M 116
he be sure this M 116
he be ready and M 116
he to shut his M 114
he to know her M 114
he to find any M 114
he is youth and M 114
he is young may M 114
he is taking may M 114
he is sure one M 114
he is seen both M 114
he is more poet M 114
he is losing both M 114
he is living men M 114
he is hoping and M 114
he is faking his M 114
he is evil has M 114
he is busy for M 114
he in whom and M 114
he in fact and M 114
he eat well thus M 114
he do when this M 114
he be very dry M 114
he be like with M 114
he be down and M 114
he at once not M 114
he at last can M 114
he to whom men M 112
he to seek his M 112
he to know and M 112
he to fill his M 112
he to come now M 112
he so sits and M 112
he so deals with M 112
he no very easy M 112
he is upon that M 112
he is taking has M 112
he is some man M 112
he is seen too M 112
he is open with M 112
he is many and M 112
he is hurt with M 112
he is held both M 112
he is having are M 112
he is from then M 112
he is from near M 112
he is earning now M 112
he is blue with M 112
he in life and M 112
he go away then M 112
he be coming for M 112
he at will add M 112
he as well who M 112
he is held that M 111
he to leave this M 110
he to give this M 110
he to bind him M 110
he the best you M 110
he so young had M 110
he of life and M 110
he no more was M 110
he no love for M 110
he is there can M 110
he is rich that M 110
he is more our M 110
he is making god M 110
he is losing too M 110
he is like both M 110
he is leading this M 110
he is having her M 110
he in these things M 110
he in many things M 110
he do when that M 110
he be saying this M 110
he to thank his M 108
he the poor out M 108
he of late has M 108
he is young that M 108
he is worth not M 108
he is when that M 108
he is single with M 108
he is sent has M 108
he is reading was M 108
he is reading all M 108
he is laying for M 108
he is held may M 108
he is also lying M 108
he is also big M 108
he in whom his M 108
he go along and M 108
he do when put M 108
he do well and M 108
he by what had M 108
he be clean who M 108
he is sore all M 107
he to speak his M 106
he to reach this M 106
he to keep you M 106
he to hide his M 106
he to form his M 106
he the baby who M 106
he so much had M 106
he is young has M 106
he is when not M 106
he is told has M 106
he is there dead M 106
he is seeing two M 106
he is saying too M 106
he is paying this M 106
he is made but M 106
he is left now M 106
he is grey and M 106
he is come off M 106
he is born can M 106
he go over his M 106
he do else but M 106
he be told his M 106
he be sick with M 106
he be less fit M 106
he up like one M 104
he to work out M 104
he to draw them M 104
he so great and M 104
he so acts that M 104
he so acts and M 104
he so ably led M 104
he is young with M 104
he is young than M 104
he is soon got M 104
he is heard for M 104
he is having you M 104
he is hard run M 104
he is giving any M 104
he is done using M 104
he do else that M 104
he be your god M 104
he is seen off M 103
he is more one M 103
he is even near M 103
he no dare say M 102
he is will lie M 102
he is very and M 102
he is upon any M 102
he is some two M 102
he is some deal M 102
he is reading can M 102
he is more god M 102
he is losing this M 102
he is living too M 102
he is life being M 102
he is less ill M 102
he is hiding for M 102
he do when all M 102
he do unto you M 102
he do nothing and M 102
he do look ill M 102
he do during all M 102
he be meek and M 102
he be bold and M 102
he the truth that M 101
he is sick that M 101
he is more set M 101
he to whom are M 100
he to wake her M 100
he to take one M 100
he to stop them M 100
he to seek her M 100
he to rest his M 100
he so very old M 100
he so much her M 100
he so made his M 100
he so kind and M 100
he is worth far M 100
he is winged and M 100
he is well put M 100
he is weaving for M 100
he is reading than M 100
he is other and M 100
he is only lying M 100
he is moving now M 100
he is less shy M 100
he is cold all M 100
he in making his M 100
he go back out M 100
he be able now M 100
he is most near M 99
he is more pro M 99
he to cast his M 98
he so very far M 98
he or some new M 98
he no fears for M 98
he is young his M 98
he is upon oath M 98
he is most weak M 98
he is making than M 98
he is laying off M 98
he is hearing you M 98
he is hearing this M 98
he is heading this M 98
he is busy but M 98
he is born may M 98
he is also but M 98
he is acting are M 98
he in turn then M 98
he in turn read M 98
he do well with M 98
he at best but M 98
he is also lead M 97
he be coming out M 97
he to teach them M 96
he of whom our M 96
he no more may M 96
he is worth but M 96
he is what was M 96
he is there may M 96
he is saying then M 96
he is rare and M 96
he is many men M 96
he is made god M 96
he is living two M 96
he is living them M 96
he is heard but M 96
he is giving aid M 96
he is fine but M 96
he is buying not M 96
he is angry may M 96
he in fact won M 96
he be well read M 96
he be like all M 96
he be holy and M 96
he at last see M 96
he is most out M 95
he is also fit M 95
he to treat with M 94
he to rise out M 94
he to hold any M 94
he to help his M 94
he the great man M 94
he so soon and M 94
he of love who M 94
he is well for M 94
he is their end M 94
he is sick his M 94
he is over with M 94
he is living far M 94
he is leading each M 94
he is even put M 94
he is busy this M 94
he is born our M 94
he is best out M 94
he is asking now M 94
he is adding one M 94
he in whom was M 94
he in truth has M 94
he go into our M 94
he do fall out M 94
he be kept for M 94
he be gone out M 94
he to treat them M 92
he to take off M 92
he to deem his M 92
he the poor man M 92
he so made them M 92
he of taking any M 92
he is young nor M 92
he is sent not M 92
he is seen near M 92
he is paying any M 92
he is only shy M 92
he is made thus M 92
he is just but M 92
he is home this M 92
he is giving not M 92
he is from six M 92
he is even doing M 92
he is buying this M 92
he is beating out M 92
he is angry not M 92
he in heart and M 92
he at length let M 92
he the holy one M 91
he is gone long M 91
he be here long M 91
he to stay for M 90
he so much did M 90
he so knew how M 90
he on time for M 90
he is wrong has M 90
he is saying both M 90
he is ready yet M 90
he is most his M 90
he is male but M 90
he is lost but M 90
he is just put M 90
he is into this M 90
he is dark with M 90
he is best for M 90
he is away too M 90
he is away they M 90
he is asking one M 90
he is aiming with M 90
he in turn now M 90
he in mind and M 90
he in jail now M 90
he at once lit M 90
he at last may M 90
he at last and M 90
he at home than M 90
he is paying that M 89
he is half out M 89
he up there with M 88
he to send you M 88
he to send them M 88
he to play his M 88
he to make you M 88
he to dream out M 88
he the time nor M 88
he the back one M 88
he so rich and M 88
he on whom this M 88
he of making his M 88
he of full age M 88
he is said too M 88
he is moving this M 88
he is means that M 88
he is hiding with M 88
he is held off M 88
he is gray now M 88
he is angry you M 88
he is also eating M 88
he is also any M 88
he in other things M 88
he do three things M 88
he be back this M 88
he as good with M 88
he is making far M 87
he is fading out M 87
he to play with M 86
he to call him M 86
he the wrong man M 86
he the last that M 86
he is well his M 86
he is made dead M 86
he is lord not M 86
he is like with M 86
he is left then M 86
he is leading two M 86
he is kept going M 86
he is just our M 86
he is even using M 86
he is even apt M 86
he is dealing can M 86
he is coming our M 86
he is born mit M 86
he is bold who M 86
he is angry too M 86
he is among its M 86
he is also due M 86
he in town now M 86
he in over his M 86
he do when god M 86
he be safe with M 86
he to have him M 84
he to drop his M 84
he to come for M 84
he to call his M 84
he no pity for M 84
he is your way M 84
he is wiping off M 84
he is what this M 84
he is torn two M 84
he is told can M 84
he is seeing but M 84
he is next put M 84
he is most led M 84
he is longing day M 84
he is fine for M 84
he is dealing all M 84
he is coming but M 84
he is born man M 84
he is also then M 84
he is acting all M 84
he go along this M 84
he by what was M 84
he be worn out M 84
he be sure who M 84
he at very low M 84
he as well has M 84
he to quit his M 82
he to kill him M 82
he the heart and M 82
he of peace did M 82
he is young man M 82
he is taking both M 82
he is onto his M 82
he is like for M 82
he is hearing now M 82
he is giving now M 82
he is even got M 82
he is born this M 82
he is also sad M 82
he is also read M 82
he in part was M 82
he in here with M 82
he in body and M 82
he go when you M 82
he go into one M 82
he be worth any M 82
he be told who M 82
he be there too M 82
he be open with M 82
he be eager for M 82
he be coming yet M 82
he be also his M 82
he at once hid M 82
he at once both M 82
he at length lay M 82
he to work and M 80
he to whom ten M 80
he to warm her M 80
he to their own M 80
he to seek out M 80
he to lose them M 80
he to know him M 80
he to clear his M 80
he the last year M 80
he the best for M 80
he so seek his M 80
he so early and M 80
he or those with M 80
he is your kin M 80
he is worth can M 80
he is well you M 80
he is unto god M 80
he is mixing his M 80
he is made mad M 80
he is left but M 80
he is glad this M 80
he is free then M 80
he is born you M 80
he is beating them M 80
he is among ten M 80
he is acting may M 80
he be when they M 80
he be like her M 80
he be from any M 80
he be very near M 75
he to deny that M 69
he is gone one M 69
he the best that M 64
he do good that M 61
he to those that M 58
he to hope that M 57
he the true god M 54
he is much read M 54
he at last read M 54
he the sort that M 52
he do think that M 50
he is your dear M 48
he is back out M 48
he the only being M 47
he is less real M 47
he is much put M 46
he is away out M 45
he to look out M 44
he the same that M 44
he of whom that M 44
he be past all M 44
he is just man M 43
he is coming that M 43
he is seen out M 42
he in mind that M 42
he do nothing that M 42
he sing like that M 41
he is there set M 41
he is paying one M 41
he is nothing out M 41
he is kept long M 41
he is angry all M 41
he do like that M 41
he be some one M 41
he to reach that M 40
he is ever that M 40
he is able that M 40
he is tall and D 24726
he at least had D 24494
he is paid for D 19010
he at least was D 16024
he at least has D 9202
he is wearing his D 7950
he is leaving for D 6524
he at least did D 5312
he is pale and D 4566
he is ripe for D 3744
he is well fed D 3477
he is leaving his D 3016
he is sued for D 2832
he is very thin D 2730
he is firm and D 2696
he is basing his D 2656
he at least can D 2468
he is loving and D 2362
he is making fun D 2338
he be paid for D 2284
he is bringing his D 2264
he is very fat D 2186
he at least does D 2114
he is voting for D 2026
he is shot and D 2002
he is bringing out D 1996
he is leaving her D 1724
he is shot dead D 1689
he the said sir D 1678
he is paid his D 1628
he is having fun D 1615
he is very deaf D 1592
he at least saw D 1503
he is rude and D 1502
he is dining with D 1442
he is hale and D 1406
he is waving his D 1382
he at last met D 1372
he at least got D 1370
he is coping with D 1354
he is toying with D 1304
he is sane and D 1274
he is paid and D 1206
he is paid off D 1170
he is pious and D 1168
he is leaving out D 1151
he is having sex D 1082
he is bald and D 1064
he is bringing them D 1026
he is leaving and D 1012
he to whom thou D 1010
he is very hot D 956
he is slim and D 952
he is wearing one D 934
he is leaving them D 896
he is wearing and D 892
he is lame and D 864
he is riding his D 826
he is urging his D 816
he is leaving this D 810
he is bringing you D 810
he is dumb and D 806
he is pining for D 800
he is very gay D 780
he is bringing her D 776
he at last hit D 772
he is facing his D 770
he is tall for D 766
he is poking fun D 758
he of whom thou D 733
he is waging war D 732
he the said earl D 708
he is bringing with D 708
he is facing and D 700
he is dust and D 700
he at least may D 690
he is tall with D 684
he is urging them D 672
he is riding with D 666
he at least put D 660
he to cope with D 648
he is wroth with D 636
he at once met D 628
he is leaving with D 614
he is sold for D 606
he is paid out D 599
he is facing death D 596
he be firm and D 596
he is urging that D 590
he is shod with D 588
he is girt with D 582
he be sued for D 576
he is paid one D 553
he is also dean D 525
he is paid with D 523
he at least try D 521
he is wearing them D 514
he is biting his D 510
he is pious who D 502
he is nude and D 496
he is wearing out D 488
he is siding with D 478
he is facing you D 478
he is avid for D 472
he is very neat D 468
he is mute and D 466
he at length met D 466
he be paid his D 464
he the least idea D 454
he eat bread with D 454
he is leaving that D 452
he the least bit D 451
he is shot with D 448
he is sued and D 438
he is leaving you D 432
he is lithe and D 430
he is posing for D 422
he is cute and D 422
he is hard hit D 418
he is great fun D 416
he is vile and D 410
he at least set D 410
he is tame and D 404
he is wearing are D 400
he is okay and D 374
he is sold out D 373
he is wiry and D 370
he is riding for D 358
he is opting for D 358
he is aiding and D 356
he is riding and D 342
he is dining out D 336
he is wearing red D 334
he be paid out D 334
he is stingy with D 332
he is angling for D 332
he is fond and D 328
he at least let D 326
he is paid not D 322
he is firm but D 322
he is ruling out D 318
he is clad with D 318
he is gazing out D 316
he is swinging his D 310
he is tone deaf D 308
he no bite you D 304
he is wearing that D 302
he is paid all D 300
he is wearing two D 295
he my heart doth D 294
he is sowing his D 292
he is flung out D 290
he at least won D 290
he is thine own D 288
he at once rang D 288
he at least one D 284
he so tall and D 282
he at least say D 278
he is raving mad D 274
he is pale with D 274
he is shoeing him D 272
he is wearing now D 268
he is very sly D 267
he is made fun D 264
he is fixing his D 264
he is joking with D 262
he the lamb may D 260
he is wearing long D 260
he is paid two D 260
he is awed and D 260
he to shew his D 258
he is curt and D 256
he is leaning his D 252
he is bawd and D 252
he the chap who D 250
he is firing his D 250
he is urging her D 248
he on whom thou D 246
he is such fun D 246
he is soul and D 246
he is bringing him D 246
he is grim and D 240
he is gazing with D 236
he at length hit D 236
he is urging you D 234
he is sole and D 234
he is bred out D 234
he is tiny and D 232
he is loving her D 232
he is bred and D 232
he is riding out D 223
he is bringing this D 220
he is shot for D 218
he is bringing all D 218
he be hale and D 218
he is numb with D 216
he is also gay D 212
he the sole and D 210
he so longs for D 210
he is stung with D 210
he is rearing may D 210
he is leaving all D 210
he is thick and D 208
he is opting out D 208
he is joking and D 208
he is flat and D 206
he is okay with D 204
he be well fed D 204
he at least for D 204
he at least not D 202
he is wearing all D 198
he is limp and D 198
he is paid ten D 196
he is mere man D 196
he is facing her D 196
he at least read D 195
he is wringing his D 194
he is leaving but D 194
he is leaving now D 192
he at least get D 192
he to bray this D 188
he is teasing you D 188
he at once hit D 188
he is wearing this D 186
he is stingy and D 186
he the same guy D 184
he is tiring you D 184
he is loving god D 184
he is beaming with D 184
he is duly and D 182
he is airing his D 182
he is tearing his D 178
he is hers and D 174
he is teasing her D 172
he is shot all D 172
he is sold and D 168
he do what thou D 166
he is rising and D 164
he is loving his D 164
he is ailing and D 164
he is waging with D 162
he is poking his D 162
he is making hay D 162
he is tall but D 160
he is also deaf D 160
he in whom thou D 159
he the soul and D 158
he is voting and D 158
he is baring his D 158
he at least see D 158
he is riding off D 150
he at least two D 147
he be pacing his D 146
he is tinged with D 144
he is singeing his D 144
he is hers for D 144
he is mingling with D 142
he is wooing her D 136
he is wearing was D 136
he is wearing new D 136
he at least who D 136
he be duly put D 134
he at least ask D 134
he is your dad D 132
he is plying his D 132
he is more mob D 132
he is facing with D 132
he to vote for D 130
he is leaving him D 130
he in tune with D 130
he is rowing them D 128
he is facing one D 128
he is dozing off D 127
he is leaving old D 126
he is full fed D 126
he is firm that D 125
he is spying for D 124
he is sour and D 124
he is leaning with D 124
he be shot and D 124
he is shot out D 123
he so dote and D 122
he is paid per D 122
he is numb and D 122
he is leaving off D 122
he is leaning out D 122
he is filing for D 122
he be shot for D 122
he the wife and D 120
he is wearing old D 120
he is riding that D 120
he is paying tax D 120
he is glib and D 120
he to bore his D 118
he the pope and D 118
he is wild tom D 118
he is what thou D 118
he is sawing off D 118
he is okay now D 118
he is meting out D 118
he is facing now D 118
he is doling out D 118
he is boss and D 118
he is leaving one D 117
he of soul who D 116
he in fact met D 116
he at least now D 116
he is pink and D 114
he is more gay D 114
he be wroth with D 114
he is facing this D 112
he is cheap and D 112
he be paid and D 112
he is wearing has D 110
he is raping her D 110
he is making art D 110
he is pope and D 108
he is pale but D 108
he is basing this D 108
he at least goes D 108
he is teasing his D 106
he is paid but D 106
he is bowing and D 106
he to rant and D 104
he is tearing out D 104
he is mute too D 104
he is gold and D 104
he at least led D 104
he is voting not D 102
he is snug and D 102
he is paid its D 102
he is half deaf D 102
he is banging his D 102
he in jeans and D 102
he or john has D 100
he is bred for D 100
he the hull and D 98
he be very hot D 98
he is neck and D 96
he is wearing with D 94
he is thine and D 94
he is ruling and D 94
he is loving you D 94
he is least fit D 94
he is dumb with D 94
he is also fed D 94
he to make rum D 92
he is wearing her D 92
he is next met D 92
he to throw off D 90
he is paid this D 90
he is facing them D 90
he be wearing his D 90
he on foot and D 88
he is urging him D 88
he is tuning his D 88
he is mute with D 88
he is ganging our D 88
he is facing are D 88
he be bald and D 88
he is wooing you D 86
he is firm with D 86
he is born deaf D 86
he is bald with D 86
he be ripe for D 86
he be paid one D 85
he my lips had D 84
he is teasing and D 84
he is skin and D 84
he is paid too D 84
he is pacing his D 84
he is bringing new D 84
he is sane but D 82
he is leaving new D 82
he is deft and D 82
he to dine with D 80
he is thick with D 80
he is sold with D 80
he is smug and D 80
he be tall and D 80
he be sold for D 80
he is facing east D 58
he at least pay D 57
he is paid that D 47
he is more fun D 46
he is there met D 44
he is like thee D 42
he to whom yon D 41
he is bringing that D 40
