her a hard time M 13006
hear a word from M 12044
hear a single word M 8379
her a good time M 7206
her a hard look M 6381
her a great many M 5766
her a free hand M 5446
her a very good M 4946
her a third time M 4710
hear a great many M 3946
her a good turn M 3240
her a lift home M 3142
her a dark look M 3042
her a good home M 3028
hear a baby crying M 2930
her a good many M 2342
her a note from M 2302
hear a word said M 2298
hear a word more M 2136
her a note saying M 2118
her a good beating M 1878
her a much more M 1823
her i have been M 1800
her a very nice M 1776
her a very great M 1756
hear a good word M 1628
her a clear view M 1616
her a good life M 1574
her a kiss from M 1474
her a great debt M 1470
her a cold look M 1466
hear a wide range M 1450
hear a good many M 1450
her a high five M 1378
her a wary look M 1364
her a young lady M 1348
hear a door open M 1302
her a soft kiss M 1260
her a keen look M 1242
her a young girl M 1208
her a half hour M 1190
her i must have M 1180
hear a single note M 1163
her a very fine M 1162
her a single word M 1113
her a note asking M 1112
her a look full M 1112
her a good girl M 1104
her a good view M 1100
her a break from M 1084
hear a kind word M 1065
her i will come M 1026
her a good hiding M 1020
her a lift back M 1004
her a fair trial M 998
her a heavy blow M 946
head a great many M 933
her i have lost M 928
her a last kiss M 922
her i felt like M 902
her i have seen M 882
her a good full M 858
her a kind word M 824
her a great wrong M 806
her a look like M 798
hear a very good M 780
her a warm kiss M 758
her a look from M 758
her a very high M 756
her a cool look M 750
her a good look M 744
her a gift from M 730
head i have ever M 719
her a hurt look M 712
her a call when M 708
her a full view M 698
her a last time M 688
her i knew what M 684
hear a very loud M 676
her a very kind M 674
her a mile away M 672
her a good part M 658
her i have come M 634
her a look over M 624
her a very rich M 622
hear a young lady M 622
hear a young girl M 606
her a good word M 600
her a fair hearing M 596
hear i have been M 582
hear a call from M 574
her a lift into M 568
her i feel like M 560
her a wide range M 560
her a great part M 560
her a very hard M 552
her a last look M 544
head a third time M 538
her i will take M 526
her a very warm M 526
her a good hard M 512
her a free pass M 512
hear a word like M 512
her i will give M 496
her a leading role M 492
her a home when M 490
her i knew nothing M 486
her a kiss good M 480
her a hand down M 469
her a fine lady M 462
her a deep debt M 462
her a very poor M 460
hear a band play M 458
hear a case when M 456
her a hard kiss M 452
her a full hour M 450
her a meaning look M 440
her i have gone M 434
her i have nothing M 432
her a hold over M 432
her a hard blow M 428
her i will call M 426
her i will have M 424
heat i will make M 416
heat a very great M 415
her i have heard M 414
her a weary look M 412
her i will meet M 410
her a great lady M 410
her i will kill M 406
her a great gift M 406
her a good trip M 404
her a very fair M 394
her a loud kiss M 388
hear a heart beating M 388
her a bank note M 380
her i know what M 378
her i have done M 378
her i know nothing M 374
her a safe trip M 374
her a good half M 373
her a full half M 369
her a very deep M 367
her i will send M 366
her a good hand M 363
her i have made M 356
her a bleak look M 354
her a nice pair M 350
her a love note M 350
her a warm look M 342
her a deep kiss M 342
hear a reading from M 338
her i have only M 337
her i well know M 336
her a lift from M 334
hear a single bird M 334
her a nice home M 331
her a good hour M 330
head i have been M 328
her a good kick M 326
head i have seen M 326
her a kiss when M 320
hear a very great M 318
hear a true word M 312
her a wild look M 310
hear a mile away M 309
her a line from M 308
her a book from M 308
her a hand when M 306
her a good name M 306
her i will live M 300
hear a step upon M 298
her a hand into M 296
her a nice gift M 294
hear a case from M 292
her i love best M 290
her i will tell M 286
her a good living M 285
her i will make M 284
her a name like M 284
her a very heavy M 280
her a mile from M 278
her a good send M 274
her i went into M 272
her a single line M 272
her a good kiss M 272
her a third part M 270
her a note when M 270
her a last good M 270
her i felt sure M 264
hear a word till M 264
hear a word upon M 258
hear a very high M 256
her i heard from M 254
her i came from M 252
her a nice warm M 252
her a kind look M 252
her a great love M 252
her a hard push M 250
her i just want M 248
her i felt very M 247
her a rest from M 246
her a clean pair M 246
her a full five M 245
her a very well M 244
her a single hour M 244
her i have some M 242
her a good five M 242
her a nice girl M 240
hear a talk from M 240
her i must leave M 238
her i must speak M 234
her a deep love M 232
her a great help M 228
hear a single case M 228
hear a good tale M 228
her i very much M 226
her a very clear M 226
her a single time M 226
her a great blow M 226
hear a case only M 226
her a very wise M 224
hear a word over M 224
her a hard life M 218
her a cold name M 214
head i have nothing M 214
her a good feed M 212
hear a love tale M 212
her i went back M 210
head i will have M 210
her a blow upon M 206
her a word more M 205
her a kiss upon M 202
her a push from M 200
her a good warm M 200
her a good mark M 198
her a dark blue M 197
her a slow once M 196
her a heavy list M 192
head i gave some M 192
her a very young M 190
her i said thank M 188
her i have just M 188
her a free gift M 186
her a blow from M 186
her a fine home M 183
her a nice room M 182
her a help meet M 182
her a full month M 182
her a full fair M 182
her a fine girl M 182
hear a name like M 182
her a look back M 180
her a life full M 180
her a call from M 180
head i must have M 180
head a last time M 180
her a week from M 178
her a lift when M 178
her a home here M 178
her a very wide M 176
her a time when M 176
her a page from M 176
her a look meant M 176
her a kind good M 176
her a great longing M 176
her a baby girl M 176
heat a heavy cast M 175
her i will leave M 174
her i went away M 174
her a mild look M 174
her a good push M 174
hear a live band M 174
her a soft look M 172
her a fair show M 172
hear a wrong note M 172
head a good many M 172
her i knew there M 170
her a life like M 170
her a full week M 168
her a fake name M 168
her a single great M 167
her i said good M 166
her a huge debt M 166
hear a bird call M 166
head i will give M 166
her a single kiss M 164
her a hold upon M 164
hear a door shut M 164
heal a sick body M 164
her a reading list M 162
her a kiss back M 162
her a home till M 162
hear a case none M 162
her a much less M 161
her a gift when M 158
head i love best M 158
heat a single room M 157
her i come there M 156
her a wise look M 156
her a kiss over M 156
her a good omen M 156
her a good book M 156
her a call back M 156
her a treat when M 154
her a leading part M 152
her a good three M 152
her a very full M 150
her a step away M 150
her a huge kiss M 150
her a hard kick M 150
hear a clear echo M 150
head a single time M 150
her a once over M 148
her a great kiss M 148
her a full body M 148
her a fine young M 148
hear a much more M 148
hear a crying baby M 148
her i will wait M 146
her i have sent M 146
her a good luck M 146
her a fine view M 146
head i have only M 145
her i came here M 144
her a hand over M 144
hear a very soft M 144
hear a heavy step M 142
her i feel sure M 140
her a very sick M 140
hear a loud yell M 140
hear a good band M 140
her a wide view M 138
her a room here M 138
her a good wash M 138
her a good blow M 138
hear a word such M 138
hear a word here M 138
her a lazy look M 136
her a kiss full M 136
her a good rest M 136
hear a last word M 136
her a nice time M 134
her a nice note M 134
her a full life M 134
hear a note from M 134
hear a lady speak M 134
hear a bell toll M 134
her a most kind M 132
her a great fool M 132
her a free trip M 132
hear a yell from M 132
hear a line from M 132
her i have kept M 128
her a step back M 128
her a single step M 128
her a life free M 128
her a great time M 128
hear a tale like M 128
hear a tale from M 128
head a very high M 127
her i will help M 126
hear a tale told M 126
hear a lady give M 126
hear a girl talk M 125
her i will keep M 124
her a gate into M 124
her a face full M 124
hear a very fine M 124
head a blow from M 124
head a half turn M 123
her i have left M 122
her a cold good M 122
hear a great bell M 122
head a heavy blow M 122
her a home there M 120
her i will find M 118
her i said nothing M 118
her a word from M 118
her a single kind M 118
her a gift like M 118
hear a word used M 118
her a full three M 117
her i must make M 116
her a copy from M 116
hear a wise word M 116
hear a high tale M 116
head i have said M 116
her a very cold M 114
her a push into M 114
her a half mile M 114
her a code name M 114
her i must tell M 112
her a lift down M 112
her a great push M 112
hear a very clear M 112
hear a great part M 112
her i also talk M 111
her i will speak M 110
her i will know M 110
her i have none M 110
her a very dull M 110
her a nice young M 110
her a last name M 110
her a girl from M 110
her a fair pair M 110
hear a great range M 110
hear a good play M 110
heal a single case M 110
her a gift more M 109
her a safe home M 108
her a peace sign M 108
her a clear line M 108
head a great pair M 108
her a room next M 107
hear a tree fall M 107
her i went home M 106
her i think very M 106
her i feel very M 106
her a month from M 106
her a great view M 106
her a great loss M 106
her a deep look M 106
hear i have seen M 106
head i have made M 105
her a slow look M 104
her a high rating M 104
her a good fire M 104
her a cold fish M 104
her a base from M 104
hear a case over M 104
head i must tell M 104
her i come from M 102
her i came back M 102
her a very rare M 102
her a tenth part M 102
her a good week M 102
her a face like M 102
hear a clear call M 101
her i need some M 100
her i have felt M 100
her i felt fine M 100
her a treat from M 100
her a high sign M 100
her a full time M 100
her a call just M 100
heat i ever felt M 100
hear a great work M 100
heal a sick girl M 100
her a good deed M 98
hear a high note M 98
head a heavy load M 98
her a kind note M 97
hear a twig break M 97
her i want some M 96
her a good show M 96
her a bold look M 96
her i felt more M 95
her i take note M 94
her i must think M 94
her a wild wish M 94
her a sore heart M 94
her a most trying M 94
hear a case even M 94
her a note back M 93
her a look half M 93
her i fell into M 92
her a very early M 92
her a rich young M 92
her a full term M 92
hear a word when M 92
hear a step coming M 92
her i think there M 90
her i have ever M 90
her a warm heart M 90
her a part only M 90
her a look more M 90
her a lift over M 90
her a good role M 90
her a cold kiss M 90
hear i will keep M 90
hear a term like M 90
hear a body speak M 90
head i knew what M 90
head a single wild M 90
her i felt sick M 88
her i feel great M 88
her a very slow M 88
her a very self M 88
her a slow kiss M 88
her a single look M 88
her a room full M 88
her a heart full M 88
her a great name M 88
her a cold cloth M 88
her a baby from M 88
heat i have ever M 88
hear a single line M 88
hear a moan from M 88
her i came upon M 86
her a very male M 86
her a sure sign M 86
her a life time M 86
her a home among M 86
her a great trial M 86
her a free copy M 86
her a copy when M 86
her a cheat once M 86
her a call soon M 86
hear a soft moan M 86
hear a word there M 85
her i just knew M 84
her a room there M 84
her a push along M 84
her a name among M 84
her a hand from M 84
hear a test case M 84
hear a note four M 84
hear a loud call M 84
hear a hail from M 84
head a hand like M 84
her i have said M 82
her a single wish M 82
her a single room M 82
her a mile wide M 82
her a kind kiss M 82
her a great pile M 82
her a clear look M 82
hear a line like M 82
hear a book fall M 82
her a nice life M 81
her i must take M 80
her a very keen M 80
her a pure heart M 80
her a line when M 80
her a home such M 80
her a great good M 80
her a full mile M 80
her a fine pair M 80
her a clean cloth M 80
hed a sore time M 80
hear a heavy tread M 80
her i went over M 54
her a good seeing M 46
her a good once M 45
her i went down M 42
her a push down M 42
head a great army M 42
her a full length M 40
head a wide range M 40
her a ride home D 7912
her a wide berth D 4719
her a sour look D 1866
her a clean bill D 1640
her a wide grin D 1380
her a ride back D 1316
her a good wife D 1310
hear a door slam D 1072
hear a peep from D 1052
hear a cock crow D 942
her a mink coat D 874
hear a good joke D 818
her a lazy grin D 748
her a teasing grin D 728
her a gold coin D 678
her a ride into D 584
heat a heavy frying D 559
her a teasing look D 549
her a good slap D 549
her a grim look D 534
her a roof over D 532
her a slow grin D 496
her a card from D 486
her a good dose D 472
her a hard slap D 470
her a smug look D 454
hear a single shot D 448
her a warm glow D 436
her a single rose D 428
her a loving kiss D 414
hear a wolf howl D 405
her a free ride D 388
her a huge grin D 386
her a stinging blow D 384
hear a great singer D 360
her a post card D 348
hear a twig snap D 343
her a half grin D 342
hear a foot fall D 340
her a damn good D 335
hear a pure tone D 332
her a fond look D 328
hear a single tone D 326
hear a beep when D 326
her a loving look D 321
hear a great roar D 320
hear a dull roar D 320
her a living wage D 316
hear a shot from D 312
her a bare rock D 302
her a free rein D 300
her a shot from D 292
hear a drum beating D 291
her a high rank D 290
her a stinging slap D 288
her a sexy grin D 286
her a smug grin D 280
hear a deep sigh D 276
her a raking fire D 264
hear a loud thump D 258
her a bathing suit D 256
hear a tuning fork D 249
her a good cook D 242
heat a test tube D 241
her a ride from D 240
her a searing look D 236
hear a damn word D 236
her a slow wink D 234
her a rose from D 232
her a doll from D 232
hen i look back D 230
her a swinging blow D 226
hear a single beep D 226
her a gold star D 220
her a fine gown D 220
head i rank those D 220
hear a roar from D 216
hear a horn blow D 216
her a ride down D 211
her a full dose D 210
her a flat look D 210
her a silk gown D 204
her a diet coke D 204
hear a loud roar D 202
hear a gasp from D 202
hear a tune once D 198
heat a cast iron D 196
hear a roar like D 196
her a damp cloth D 192
her i will throw D 190
her a grin over D 190
head a great tuft D 186
her a slap side D 184
her a great singer D 182
head a foot from D 177
her a pink slip D 176
hear a jazz band D 176
hear a tone when D 172
her a ride over D 170
her a curt good D 169
her a tall young D 164
her a heavy dose D 162
her a firm look D 162
her a baby doll D 160
her i took care D 158
her a cold beer D 154
her a ride when D 150
her a good shot D 150
her a dour look D 150
her a clear shot D 150
her a root beer D 146
her a loving home D 146
hear a loud tone D 146
hear a boat coming D 146
her a wire from D 144
her a fond kiss D 144
hear a sigh from D 144
hear a chap talk D 143
her a warm grin D 142
hear a loud banging D 142
hear a beep from D 140
her a solo show D 138
her a firm push D 134
hear a busy stir D 134
head a half inch D 134
her a very firm D 132
her a vile name D 130
her a pale blue D 130
her a teasing wink D 129
hen i came back D 124
hear a tone once D 123
her a pale face D 122
hear a jest come D 122
hear a high tone D 122
her a mere girl D 120
her a film star D 120
her a mere mass D 118
her a blue silk D 118
her a fine whip D 116
hear a good singer D 116
hear a boat pass D 116
her a pink silk D 114
her a fair wage D 114
hear a heavy sigh D 114
hear a drum roll D 114
her a nice card D 112
her a great tall D 112
hear a good yarn D 112
hear a frog jump D 112
hear a door creak D 112
head a north pole D 112
her a curt note D 110
her a bowl full D 110
her a very loving D 108
her a navy blue D 108
her a bran mash D 108
hear a bomb drop D 108
her a rising star D 106
her a live coal D 106
her a good berth D 106
her a card when D 106
hear a news item D 106
her a tiny kiss D 104
her a firm kiss D 104
hear a radio news D 104
her a gold mine D 103
her a fond good D 103
her a mock leer D 102
hear a loud boom D 102
her a pain pill D 100
her a last wave D 100
hen i came home D 100
hear a howl from D 100
her a foul name D 98
hear a loud hiss D 97
her a sack full D 96
her a good wage D 96
hear a loud buzz D 96
head a thick veil D 96
her a great star D 94
her a doll when D 94
hear a foot upon D 94
her a sexy look D 92
hear a wolf talk D 92
hear a deep bass D 92
hear a crow cawing D 92
her a weary grin D 90
her a lewd wink D 90
her a good offing D 90
her a card saying D 90
her i lied also D 88
her a wink over D 88
her a true wife D 88
her a single dose D 88
hear a tune from D 88
hear a rock band D 88
her a hymn book D 86
her a good ride D 86
her a fine tall D 86
her a card bearing D 86
hear a great sigh D 86
head a boat must D 86
her a loving good D 85
her a good farm D 84
her a glum look D 84
hear a soul speak D 84
head a foot deep D 83
her a heavy slap D 82
heat a fine wire D 49
her a fine gold D 48
her a home perm D 47
hear a horn honk D 40
