head of state . M 144401
her to sleep . M 33958
heap of ruins . M 33484
hear it again . M 29694
hear the words . M 21644
hear my voice . M 21252
hear the music . M 20626
her at first . M 20224
head in shame . M 19285
her at night . M 16088
her to enter . M 15618
her the money . M 14476
heap of ashes . M 14250
her up again . M 14094
her in place . M 13832
her by force . M 13342
hear the story . M 12956
her to marry . M 12922
head of water . M 12399
hear the sound . M 11626
her to write . M 9668
her no longer . M 9060
her the story . M 8888
heal the wound . M 8644
heat the water . M 7857
head of yours . M 7638
head in denial . M 7520
her so badly . M 7400
her in heaven . M 7160
her up short . M 7154
her to breathe . M 7022
her at times . M 6866
hear my words . M 6842
hear the appeal . M 6582
her to heaven . M 6424
heat of water . M 6072
her to stand . M 5988
her to action . M 5956
her so happy . M 5906
heat or light . M 5728
her on board . M 5472
hear my story . M 5431
her as usual . M 5324
hear the worst . M 5232
her to change . M 5204
hear it again ? M 5104
her the phone . M 5064
her to hurry . M 4982
her the paper . M 4936
her to begin . M 4878
hear the noise . M 4490
her so easily . M 4482
hear the voice . M 4470
her in alarm . M 4462
her or anything . M 4426
her to smile . M 4422
hear no sound . M 4142
head of yours ? M 4142
her in danger . M 3998
her go again . M 3976
head in hands . M 3880
her to appear . M 3858
head in reply . M 3820
her in action . M 3810
heat of action . M 3702
her to worry . M 3486
heal the world . M 3474
her so often . M 3426
her to reply . M 3402
heat the house . M 3315
her by others . M 3266
her to drive . M 3218
head at night . M 3213
her an offer . M 3172
her to agree . M 3152
head of state ? M 3141
heap of money . M 3134
her to visit . M 3114
head in place . M 3092
her to laugh . M 3060
head in defeat . M 3054
her he loved . M 3020
her the reason . M 3012
hear the reply . M 2998
heat is added . M 2908
her in check . M 2860
her in again . M 2842
her in months . M 2832
her to carry . M 2766
hear the music ? M 2741
head up again . M 2698
her go alone . M 2670
her as queen . M 2652
her to reason . M 2628
her to yield . M 2620
her in class . M 2612
head in space . M 2590
her in passing . M 2516
hear the story ? M 2488
her the world . M 2440
heap of bones . M 2432
her to others . M 2396
hear the phone . M 2336
her at table . M 2334
head is missing . M 2310
hear my voice ! M 2286
heat at night . M 2266
her to start . M 2264
hear the whole . M 2212
her so dearly . M 2166
her the house . M 2164
head in doubt . M 2152
hear me preach . M 2150
her of anything . M 2062
her to study . M 2060
her my story . M 2056
her in weeks . M 2032
her do anything . M 1980
her so upset . M 1917
head or hands . M 1916
hear an appeal . M 1898
her in order . M 1868
head to right . M 1860
hear the bells . M 1858
her as breathing . M 1838
her the child . M 1828
her by night . M 1814
her to watch . M 1798
her to share . M 1794
her by phone . M 1782
her to pause . M 1778
hear it first . M 1768
her up close . M 1762
hear the birds . M 1762
her on stage . M 1744
her so close . M 1740
her to fight . M 1700
hear my voice ? M 1694
head is bowed . M 1676
her in reply . M 1668
her to enjoy . M 1616
her in anything . M 1572
her to shame . M 1558
heat up again . M 1540
hear it again ! M 1518
head is black . M 1500
her to adopt . M 1498
heat or power . M 1477
hear of again . M 1462
her in dreams . M 1446
her by turns . M 1414
her in beauty . M 1400
her so badly ? M 1384
her the check . M 1366
head in warning . M 1366
her the money ? M 1360
hear the cases . M 1356
her at parting . M 1334
hear the sound ? M 1334
head is moved . M 1328
hear the alarm . M 1326
head of house . M 1317
her to grasp . M 1316
her an opening . M 1302
her in close . M 1298
her in writing . M 1294
hear me first . M 1291
heap of rocks . M 1286
hear my story ? M 1274
hear the cause . M 1266
her the while . M 1242
head is small . M 1242
head in thanks . M 1240
her by storm . M 1234
hear the facts . M 1220
hear it either . M 1208
head the party . M 1194
hear the noise ? M 1192
her of danger . M 1178
her the place . M 1154
head in again . M 1152
her to touch . M 1146
her to argue . M 1126
hear it still . M 1112
her go first . M 1106
head the group . M 1103
her in words . M 1102
her to apply . M 1092
hear it often . M 1092
her he loves . M 1080
head of power . M 1070
head of yours ! M 1062
her on guard . M 1060
her to avoid . M 1056
her to terms . M 1040
her to repeat . M 1038
hear me calling ? M 1038
head in front . M 1034
her to marry ? M 1020
her on again . M 1016
her to danger . M 1008
hear me again . M 994
her in front . M 988
her as mother . M 988
her so easily ? M 986
hear my words ! M 977
her of sleep . M 976
her the facts . M 968
head of table . M 966
her to sleep ? M 964
head in alarm . M 964
her up later . M 956
hear me preach ? M 956
her to order . M 950
her in motion . M 944
her be quiet . M 942
head or brain . M 926
her to nurse . M 924
heap of leaves . M 916
her to solve . M 912
hear the warning . M 912
her on track . M 908
hear the water . M 904
head or trunk . M 898
her to panic . M 876
head in agony . M 875
her to abort . M 868
her the worst . M 868
her to anything . M 862
her to ashes . M 858
hear the reason . M 858
heat of blood . M 852
head is empty . M 852
hear the others . M 846
her the water . M 844
head is large . M 844
hear the river . M 842
head of woman . M 842
head at times . M 842
her in sleep . M 836
head in heaven . M 832
her in style . M 826
hear the words ? M 814
head in grief . M 804
head to watch . M 802
heat to space . M 797
hear the order . M 796
hear my reply . M 796
her the price . M 794
hear of anything . M 794
hear the click . M 790
her in power . M 788
hear the claim . M 788
her at fault . M 786
head at first . M 785
head is erect . M 784
head go round . M 782
heat or water . M 779
her in print . M 776
her the change . M 768
her be happy . M 764
her by force ? M 762
hear the engine . M 756
head as shown . M 755
her to drown . M 754
her at night ? M 754
her in shape . M 752
her at seven . M 752
her the prize . M 748
hear it today . M 740
her to serve . M 738
hear the bells ? M 738
heal the child . M 736
her to guess . M 728
her by proxy . M 728
head to breathe . M 728
hear my cries . M 726
her to climb . M 724
heap of books . M 722
heap of ruins ! M 716
her an order . M 714
her the cause . M 712
her to cross . M 710
her of reason . M 710
hear it twice . M 710
head to laugh . M 710
hear the train . M 708
her to power . M 700
her in blood . M 692
her be alone . M 672
head is white . M 671
her to focus . M 668
head as usual . M 668
hear my music . M 666
hear the voice ? M 660
her to people . M 658
her in verse . M 658
her the floor . M 656
heap of ashes ! M 656
her no reply . M 652
hear the crash . M 652
her up first . M 650
head to enter . M 646
head no longer . M 645
her to class . M 638
hear the phone ? M 634
hear no reason . M 634
hear in heaven . M 632
hear it breathing . M 628
her by blood . M 622
her to catch . M 620
her so still . M 620
hear at night . M 616
her to change ? M 612
her an enemy . M 612
hear the cries . M 612
head is fixed . M 610
her up again ? M 608
her to awake . M 608
her no money . M 608
her at large . M 606
hear the action . M 606
heap of clothing . M 606
hear at first . M 604
her to utter . M 600
head the while . M 596
her in doubt . M 594
hear my words ? M 590
head in water . M 590
heat the place . M 589
her the crown . M 582
her to raise . M 580
hear so often . M 578
her to admit . M 576
head is shown . M 576
her to offer . M 574
her to judge . M 574
her to thinking . M 570
her so tight . M 568
hear the motion . M 568
hear or touch . M 568
her to kneel . M 566
her the words . M 564
her of stealing . M 560
heat the water ? M 558
her to arise . M 556
head of state ! M 552
head to heaven . M 550
her my thanks . M 548
her go alone ? M 548
heat the blood . M 547
hear the music ! M 544
hear the bells ! M 544
hear it later . M 544
her in panic . M 542
hear no words . M 542
hear it named . M 542
head to sleep . M 539
hear the crowd . M 534
hear it right . M 534
her en route . M 528
heat is motion . M 525
her to spend . M 524
her in danger ? M 522
her in others . M 520
heap of facts . M 516
her of cheating . M 514
heat it again . M 513
her so happy ? M 510
heap of words . M 510
her the queen . M 508
her in haste . M 506
her sing again . M 504
her the books . M 502
her my plans . M 502
hear the knock . M 500
hear no reply . M 500
her at eight . M 488
her be seated . M 482
her be burnt . M 482
head or anything . M 482
her to check . M 480
her or anything ? M 480
her in warmth . M 480
her as human . M 478
hear me right . M 478
her to preach . M 476
head in passing . M 476
hear in music . M 474
her in heaven ? M 472
her the works . M 468
her the light . M 466
her to exist . M 464
head is light . M 464
heap of ruins ? M 462
her on paper . M 456
her my mother . M 456
her in exile . M 456
hear the clock . M 450
her the favor . M 448
heap of paper . M 444
head or leader . M 444
her to grief . M 442
her or others . M 442
her in first . M 442
hear me either . M 440
head in shame ? M 438
heat or sound . M 435
heat is known . M 434
her up right . M 432
her tea table . M 432
her be alive . M 432
head up stream . M 432
head in pride . M 432
her in agony . M 430
her no longer ? M 428
hear the echoes . M 428
head in shame ! M 426
her so uneasy . M 424
her in focus . M 424
heat or motion . M 424
head is turning . M 424
hear the birds ? M 420
her the right . M 418
her so often ? M 418
heap of shame . M 418
her as woman . M 412
her the whole . M 410
her the watch . M 410
head to sound . M 410
heal the people . M 408
head is burning . M 406
her by right . M 404
hear in class . M 404
her the joint . M 402
her be still . M 402
hear the lines . M 402
hear no noise . M 402
hear no music . M 402
head to appear . M 400
hear the notes . M 396
head of defeat . M 396
her up front . M 394
her to fetch . M 394
her in labor . M 394
hear the alarm ? M 394
head is wanting . M 394
her up alive . M 392
her an orange . M 392
heat or burning . M 392
her of guilt . M 388
heat to water . M 388
head is brown . M 388
her to trust . M 386
her to blame . M 386
her as gifts . M 382
her up today . M 378
her so dearly ! M 378
hear the breathing . M 378
her to engage . M 376
her he could . M 376
hear the story ! M 376
her tea party . M 374
her up again ! M 372
hear the names . M 372
her to claim . M 370
her tea again . M 370
her in glory . M 370
her to cover . M 368
her in warning . M 368
heat of heaven . M 366
head or block . M 366
her to create . M 364
hear my mother . M 364
her up easily . M 362
heat in water . M 360
heat as light . M 360
hear my views . M 360
her in white . M 358
her in black . M 358
her on trips . M 356
her at first ? M 356
hear the child . M 356
head of anything . M 356
her the chair . M 354
her on anything . M 354
her as white . M 354
heat of water ? M 354
her the option . M 352
hear it click . M 352
head the board . M 352
her so strong . M 350
her no warning . M 350
her an offer ? M 350
head no again . M 350
head by turns . M 350
her in shame . M 348
hear no voice . M 348
hear the issue . M 346
hear of delay . M 346
heap of black . M 346
her in tight . M 344
her to mother . M 342
her the order . M 342
her the music . M 342
hear of others . M 342
her of words . M 340
her no doubt . M 340
hear the world . M 340
head is round . M 340
heat or acids . M 339
hear it crack . M 338
head or yours . M 336
her the opening . M 334
her by force ! M 334
hear the child ! M 333
her to board . M 332
her the power . M 330
her so quiet . M 330
her go about ! M 330
heat or warmth . M 327
head to match . M 326
heat by night . M 324
hear my breathing . M 324
hear me laugh . M 324
heap of grass . M 324
her ring again . M 322
her in books . M 322
heat is small . M 320
hear the people . M 320
heal my wound . M 320
head of leaves . M 320
head of claim . M 320
her to write ? M 318
her to doubt . M 318
her in force . M 316
her the offer . M 314
her so happy ! M 314
her in ruins . M 312
hear the storm . M 312
her to reveal . M 310
her so again . M 310
head in sleep . M 308
heal the blind . M 307
her up badly . M 306
her to table . M 306
her in trust . M 304
her by heaven . M 304
hear of yours . M 302
her up tight . M 300
heat no longer . M 300
hear the words ! M 300
her to glory . M 298
her to count . M 298
her the first . M 298
her in light . M 298
hear the terms . M 298
hear me enter . M 298
her to again . M 296
her in parting . M 296
head in labor . M 296
her is known . M 294
heap of ashes ? M 294
her the night . M 292
her no alarm . M 292
head is hurting . M 292
her to sleep ! M 288
her up alone . M 286
her in looks . M 286
her as often . M 286
head to reply . M 286
her the drawing . M 282
her in later . M 282
heat the house ? M 280
head is found . M 280
heap of stuff . M 278
hear my warning ! M 277
hear as sound . M 276
heat on water . M 274
hear of people . M 274
heat my blood . M 273
her to crack . M 272
her the notes . M 272
her so nearly . M 272
her as black . M 272
head the state . M 271
head on again . M 271
her my watch . M 270
her as amusing . M 270
hear the plane . M 270
hear it since . M 270
her in turns . M 268
hear the order ? M 268
her to close . M 266
her the names . M 266
her as missing . M 266
hear the crack . M 266
heat at first . M 265
her the lines . M 264
her my people . M 262
hear me breathing . M 262
head in falling . M 262
heal the wound ? M 261
her in peril . M 260
hear the proof . M 260
hear the event . M 260
hear no sound ! M 260
head in order . M 259
head at night ? M 259
her in yours ? M 258
her in walking . M 258
hear my music ? M 258
hear my father . M 258
head on hands . M 258
hear the piece . M 256
her so upset ? M 254
her he cared . M 254
head of fluid . M 254
head of either . M 254
her to either . M 252
her my money . M 252
her in music . M 252
heat of fires . M 252
head is known . M 252
head in panic . M 252
her to light . M 250
her so moved . M 250
head of music . M 249
her to poetry . M 248
her the point . M 248
hear me knock . M 248
hear it breathe . M 248
heap of people . M 248
her to please . M 246
her on alert . M 246
her he hates ? M 246
her or worse . M 244
hear an enemy ! M 244
heap is empty . M 244
heat the walls . M 243
her to waken . M 242
her so proud . M 242
heat is given . M 242
her to grace . M 240
her up either . M 238
heat of feeling . M 238
her at tours . M 236
her an award . M 236
hear an engine . M 236
head to write . M 236
her the cover . M 234
her is strong . M 234
her go either . M 234
hear the stream . M 234
head to spare . M 234
head of others . M 234
her go still . M 232
heat as water . M 232
hear on appeal . M 232
heat the space . M 231
her to marry ! M 230
her on board ? M 230
her as above . M 230
her to drive ? M 228
her of water . M 228
her in error . M 228
hear in words . M 228
head is thrust . M 228
head is still . M 228
her an option . M 226
hear the teaching . M 226
head to marry . M 226
her my slave . M 224
her in thanks . M 224
her as light . M 224
hear the price . M 224
head to class . M 224
head is noted . M 224
her in water . M 222
her in space . M 222
her go hungry . M 222
her the award . M 220
heat is added ? M 220
hear me calling . M 220
head in motion . M 220
her to waver . M 218
her to gather . M 218
her on dates . M 218
her no clues . M 218
heap of others . M 218
her to water . M 216
her the money ! M 216
her so truly . M 216
her an email . M 216
hear my story ! M 216
hear an alarm . M 216
heap of money ! M 216
her to grant . M 214
her the house ? M 214
her in state . M 214
her in heaven ! M 214
her go easily . M 214
her by smiling . M 214
hear the offer . M 214
her to agree ? M 212
her the steps . M 212
heal in place . M 212
her to mourn . M 210
hear the quiet . M 210
hear it alone . M 210
head to point . M 210
head of learning . M 210
head is given . M 210
her as leader . M 208
heat of chaos . M 208
heal the world ? M 208
head on right . M 208
her to favor . M 206
her in money . M 206
heat or light ? M 206
hear the speaking . M 206
hear the change . M 206
her to visit ? M 204
her the gifts . M 204
her he liked . M 204
hear me breathe . M 204
hear it first ? M 204
her to point . M 202
her to phone . M 202
her the right ? M 202
her no option . M 202
heap of birds . M 202
head the crown . M 202
head of party . M 202
head of adult . M 202
her on walks . M 200
hear the cries ? M 200
hear the count . M 200
hear it easily . M 200
her to search . M 198
head the study . M 197
her to music . M 196
her to delay . M 196
her an equal . M 196
heap of merit . M 196
her as happy . M 194
hear the sound ! M 194
hear the fight . M 194
hear the bands . M 194
hear no longer . M 194
hear me speaking ? M 194
hear it right ? M 194
heal my child . M 194
head to smile . M 194
her to crime . M 192
her so cross . M 192
her by speaking . M 192
heat in burning . M 192
hear the angels . M 192
heap of notes . M 192
her wing chair . M 190
her to defeat . M 190
her the pages . M 190
her of power . M 190
her no longer ! M 190
heat is awful . M 190
hear it running . M 190
head to floor . M 190
her in fight . M 188
hear it close . M 188
head of money . M 188
her the story ? M 186
her of fraud . M 186
her go under . M 186
her by magic . M 186
heat be spent . M 186
hear the woman . M 186
hear of later . M 186
hear me preach ! M 186
hear is sense . M 186
hear in reply . M 186
head in shape . M 186
her to build . M 184
her no thanks . M 184
her as easily . M 184
hear my knock . M 184
her to chase . M 182
her the enemy . M 182
her is right . M 182
her is false . M 182
her in hours . M 182
her in check ? M 182
heat is found . M 182
hear the enemy . M 182
heap of sense . M 182
heal up again . M 182
head on table . M 182
her to spoil . M 180
her of blood . M 180
hear the light ? M 180
hear an enemy . M 180
head of water ? M 180
hear me groan . M 178
hear at times . M 178
hear at night ? M 178
heap of money ? M 178
head is showing . M 178
head is lacking . M 178
her to yours . M 176
her the rules . M 176
her my hands . M 176
her in change . M 176
heat it gives . M 176
hear no denial . M 176
her tea leaves . M 174
her in vision . M 174
heat of party . M 174
hear my steps . M 174
hear my order ? M 174
head of light . M 174
head of fraud . M 174
her to stray . M 172
her of right . M 172
her in touch . M 172
heat the rocks . M 172
hear the tales . M 172
head the drive . M 172
her the worse . M 170
her my queen . M 170
her in appeal . M 170
heat or noise . M 170
hear of either . M 170
hear me knock ? M 170
hear it though . M 170
her to writing . M 168
her in grief . M 168
her he asked . M 168
her at times ? M 168
hear the smile . M 168
hear the calls . M 168
hear the blows . M 168
hear my plans . M 168
head of nursing . M 168
heat to enter . M 167
her to drown ? M 166
her by threats . M 166
hear the clock ? M 166
hear me speaking . M 166
head to check . M 166
head is lower . M 166
her the cross . M 164
her so dearly ? M 164
her he loves ? M 164
heat to power . M 164
hear me first ? M 164
head or ruler . M 164
head by others . M 164
head in first . M 163
her to model . M 162
her the child ! M 162
her of blame . M 162
heat of blood ! M 162
hear the laugh . M 162
hear the first . M 162
head on board . M 162
head of light ! M 162
head is burning ! M 162
head go light . M 162
heat as usual . M 161
her up quick . M 160
her to theirs . M 160
her to seize . M 160
her the stuff . M 160
her no opening . M 160
head is resting . M 160
her to crawl . M 158
her on others . M 158
her no shame . M 158
her in either . M 158
hear no breathing . M 158
hear my cries ? M 158
hear my appeal . M 158
heap of files . M 158
head of poetry . M 158
head is alive . M 158
her to knock . M 156
her to enter ? M 156
her is missing . M 156
her an offer ! M 156
heat as above . M 156
hear by touch . M 156
heap of thinking . M 156
head so easily . M 156
head or tails . M 156
her to exile . M 154
her to adapt . M 154
her the kingdom . M 154
her the honor . M 154
hear me first ! M 154
heal my mother . M 154
head up again ? M 154
head or point . M 154
her the smile . M 152
her so plain . M 152
her so badly ! M 152
heat or force . M 152
heat of morning . M 152
heat of fight . M 152
hear the steps . M 152
head to engage . M 152
her in defeat . M 150
her at first ! M 150
hear the river ? M 150
heal the hurts . M 150
head in danger . M 150
her to weaken . M 148
her to shame ? M 148
her on parting . M 148
her in color . M 148
her he loved ? M 148
her by signs . M 148
heat to occur . M 148
hear us first . M 148
hear the storm ? M 148
hear the reader . M 148
hear it sound . M 148
hear it plain . M 148
her to erase . M 146
her the album . M 146
her on trust . M 146
her my place . M 146
her by morning . M 146
her be found . M 146
head of tools . M 146
her so winning . M 144
her eat anything . M 144
her by touch . M 144
hear no abuse . M 144
heap of bones ? M 144
heal it again . M 144
head to agree . M 144
head or anything ? M 144
head on paper . M 144
head he breaks . M 144
head go round ! M 144
her to heaven ? M 142
her of anything ? M 142
heat the plant . M 142
hear the spite ! M 142
hear the crowd ? M 142
hear the crash ? M 142
hear as music . M 142
heap of water . M 142
heap of bones ! M 142
head as usual ! M 142
her to thrive . M 140
her to groan . M 140
her no place . M 140
her my house ? M 140
her at anything . M 140
her an adult . M 140
hear us preach . M 140
hear the girls . M 140
head of ethics . M 140
head is naked . M 140
head he stood . M 140
head by women . M 140
her to prove . M 138
her to exert . M 138
her my chair . M 138
her as proof . M 138
heat of shame . M 138
hear the group . M 138
heap of cells . M 138
her up whole . M 136
her to enjoy ? M 136
her to drift . M 136
her the proof . M 136
her as plain . M 136
hear the trials . M 136
hear it asked . M 136
heat in blood . M 135
her to bother . M 134
her the trick . M 134
her the plans . M 134
her the goods . M 134
her be happy ! M 134
heat the joint . M 134
hear the water ? M 134
hear the voice ! M 134
hear the howling . M 134
hear it calling . M 134
head on anything . M 134
head is yours . M 134
head is loose . M 134
her to quiet . M 132
her to others ? M 132
her the forms . M 132
her of money . M 132
her my fault . M 132
her in again ! M 132
her by train . M 132
her as nurse . M 132
heat to others . M 132
heat of writing . M 132
heat is passing . M 132
hear my father ? M 132
hear is noise . M 132
her the issue . M 130
her the event . M 130
her tea strong . M 130
her no favor . M 130
her be alive ! M 130
her as yours . M 130
heat in others . M 130
hear of today . M 130
heap of times . M 130
heap of mould . M 130
heat to motion . M 129
her to write ! M 128
her is happy . M 128
her is calling ? M 128
her in alone . M 128
her by water . M 128
hear it growing . M 128
head on floor . M 128
head is taken . M 128
head in worry . M 128
head in action . M 128
head as proof . M 128
heat the floor . M 127
her so quick . M 126
her my house . M 126
her my enemy . M 126
her at night ! M 126
heat at times . M 126
hear us calling ? M 126
hear the weather . M 126
hear the watch . M 126
hear my warning . M 126
hear it aloud . M 126
head or crown . M 126
her in bliss . M 124
her go again ? M 124
heat up water . M 124
heat is saved . M 124
hear the appeal ? M 124
hear me today . M 124
heal by touch . M 124
head is added . M 124
her we could . M 122
her to breed . M 122
her the roots . M 122
her the plant . M 122
her so easily ! M 122
her of others . M 122
her in today . M 122
heal the woman . M 122
heal my father . M 122
head up again ! M 122
her is empty . M 120
her in honor . M 120
her in anything ? M 120
heat to spare . M 120
hear the women . M 120
hear the train ? M 120
hear of defeat . M 120
head to carry . M 120
head in books . M 120
heat the fluid . M 119
her to night . M 118
her to dwell . M 118
her to belong . M 118
her so sadly . M 118
her in theirs . M 118
her an alien . M 118
hear the chime . M 118
hear on stage . M 118
head to crack . M 118
head the force . M 118
head is short . M 118
head is drawn . M 118
head is clearing . M 118
her the habit . M 116
her the brave . M 116
her the bother . M 116
her on landing . M 116
her as ruler . M 116
heat of light . M 116
hear the worst ! M 116
hear the party . M 116
hear the crack ? M 116
heap of goods . M 116
heal so easily . M 116
her to value . M 114
her the cloak . M 114
her the child ? M 114
her my books . M 114
her in teaching . M 114
her an adept . M 114
heat to serve . M 114
hear the likes ? M 114
head of women . M 114
head by night . M 114
her to start ? M 112
heat in motion . M 112
hear us either . M 112
her as cured . M 110
hear my offer . M 110
heap of worms . M 110
head so often . M 110
heat of burning . M 109
her to crack ? M 108
her of stealing ? M 108
her in running . M 108
her in grace . M 108
her he loves ! M 108
her he cried . M 108
her an asset . M 108
heat is right . M 108
hear me right ? M 108
head is working . M 108
her to share ? M 106
her the others . M 106
her the danger . M 106
her so small . M 106
her no grief . M 106
her in board . M 106
her by angels . M 106
her as author . M 106
her as alive . M 106
her an agent . M 106
heat in heaven . M 106
hear the worst ? M 106
hear the leader . M 106
hear the judge . M 106
hear my grief ! M 106
hear it still ! M 106
hear an order . M 106
her to sense . M 104
her to offer ? M 104
her to alter . M 104
her to action ? M 104
her the space . M 104
her the longer . M 104
her so often ! M 104
her in stays . M 104
her go alone ! M 104
hear us laugh . M 104
hear us again . M 104
hear the reply ? M 104
hear it speaking . M 104
hear it daily . M 104
hear in dreams . M 104
head or voice . M 104
head up river . M 103
her to place . M 102
her to begin ? M 102
her to appear ? M 102
her so close ? M 102
her in class ? M 102
her do anything ? M 102
her as prize . M 102
her as cruel . M 102
her as anything . M 102
heat is killing . M 102
hear the plane ? M 102
hear of anything ? M 102
hear me thinking . M 102
heal the others . M 102
head or worse . M 102
head of magic . M 102
head is bared . M 102
head in close . M 102
head be found ? M 102
her to wield . M 100
her to guard . M 100
her the dates . M 100
her tea aside . M 100
her so alone . M 100
her no issue . M 100
her as theirs . M 100
heat to light . M 100
heat to apply . M 100
heat is lower . M 100
hear me calling ! M 100
her to meeting . M 98
her to father . M 98
her to brood . M 98
her the match . M 98
her the alarm . M 98
her so uneasy ? M 98
her no cause . M 98
her my pupil . M 98
her in quiet . M 98
her in landing . M 98
her be taken . M 98
her at forty . M 98
heat by black . M 98
hear the poetry . M 98
hear so often ? M 98
heap of spoil . M 98
heap is built . M 98
head to paper . M 98
head on landing . M 98
head of people . M 98
head is speaking . M 98
head in query . M 98
head in class . M 98
heat is taken . M 97
her to honor . M 96
her to carry ? M 96
her to abide . M 96
her the reason ? M 96
her of sense . M 96
her in guilt . M 96
hear the father . M 96
hear the chair ! M 96
heap of boxes . M 96
head of reason . M 96
head is strong . M 96
head in walking . M 96
heat or storm . M 95
her to train . M 94
her to smile ? M 94
her to reason ! M 94
her to avoid ? M 94
her the woman . M 94
her in pride . M 94
heat the paper . M 94
heat so strong ! M 94
heat it loses . M 94
heat is large . M 94
hear the light . M 94
heap to decay . M 94
head to raise . M 94
head the field . M 94
head ring again . M 94
head of sleep . M 94
heat the water ! M 93
her to hurry ! M 92
her to abuse . M 92
her the clock . M 92
her in poetry . M 92
her in green . M 92
her in folds . M 92
her be right . M 92
heat in space . M 92
hear us calling . M 92
hear the warning ? M 92
hear the verse . M 92
hear the moaning . M 92
hear the engine ? M 92
hear it nearer . M 92
heap up money . M 92
head to doubt . M 92
head the lists . M 92
head of rules . M 92
head of labor . M 92
head of birds . M 92
head is green . M 92
heat the whole . M 91
her to plant . M 90
her the house ! M 90
her of irony . M 90
her no warmth . M 90
her my notes . M 90
her my dreams . M 90
her it seems . M 90
her in cunning . M 90
her in chase . M 90
her in alive . M 90
her in again ? M 90
her he slept . M 90
her by storm ! M 90
her at table ? M 90
hear it working . M 90
hear it fully . M 90
hear it blowing ! M 90
head of theirs . M 90
head is sound . M 90
her the warning . M 88
her the label . M 88
her so alone ? M 88
her on alone . M 88
her of error . M 88
her in loathing . M 88
her in feeling . M 88
her by words . M 88
her by staying . M 88
her by phone ? M 88
her as strong . M 88
her as small . M 88
her as naive . M 88
her as either . M 88
heat to brown . M 88
heat the world . M 88
heat of space . M 88
hear me still . M 88
hear it still ? M 88
hear it groan . M 88
hear it calling ? M 88
heap of waste . M 88
head the story . M 88
head so badly . M 88
head or shell . M 88
head as yours . M 88
head as leader . M 87
her to women . M 86
her to watch ? M 86
her to scale . M 86
her to bless . M 86
her to abhor . M 86
her the virus . M 86
her on again ? M 86
her in right . M 86
her in place ? M 86
her by calling . M 86
her be strong . M 86
her an author . M 86
heat of speaking . M 86
hear to reason . M 86
hear the facts ? M 86
hear me laugh ? M 86
hear it falling . M 86
heal the parts . M 86
heal my hurts . M 86
head to anything . M 86
head so badly ? M 86
head in guilt . M 86
her up today ? M 84
her to match . M 84
her the piece . M 84
her the mother . M 84
her the items . M 84
her so sweet . M 84
her of heaven . M 84
her no pause . M 84
her is given . M 84
her by others ? M 84
hear it alone ? M 84
heap of debts . M 84
head to carry ? M 84
head or yours ! M 84
head in others . M 84
her up close ? M 82
her to breathe ? M 82
her the tools . M 82
her the files . M 82
her the devil . M 82
her so fully . M 82
her so amusing . M 82
her is amazing . M 82
her in ashes . M 82
her he wants . M 82
her by writing . M 82
her as older . M 82
her as child . M 82
hear us enter . M 82
hear the readings . M 82
hear the award . M 82
hear my terms . M 82
heap of twigs . M 82
head of sorts . M 82
head of class . M 82
head go under . M 82
her to study ? M 80
her to incur . M 80
her to anything ? M 80
her the place ? M 80
her no worry . M 80
her is worse . M 80
her in season ! M 80
her be quiet ! M 80
her as model . M 80
hear of waiting . M 80
hear of money . M 80
hear no appeal . M 80
hear my reason . M 80
hear it crash . M 80
head is thinking . M 80
heat the engine . M 40
head the table . M 40
