heard of it . M 249288
here it is . M 230309
here we go . M 63510
here it is ! M 54264
held it up . M 47326
help to me . M 42804
heart of it . M 36682
hell of it . M 35157
here he is . M 33454
heard of it ? M 32518
here he is ! M 27386
heard of me . M 25064
here we go ! M 24486
here to do . M 23326
help to us . M 22166
here to me . M 20532
heed to it . M 14728
hell is it ? M 14034
help me up . M 13964
hell is he ? M 12352
heart in it . M 10669
heart to me . M 10386
hearing of it . M 9002
held to be . M 8305
held by it . M 8029
heard of it ! M 7834
held in it . M 7698
hell it is . M 6995
heard of me ? M 6559
held to it . M 6192
held me up . M 5856
health in us . M 5582
here to do ? M 5492
heart on it . M 5327
heard of us . M 5010
hears of it . M 4822
here by me . M 4716
hell to do . M 4351
heart to it . M 4040
heard in it . M 3920
held on to . M 3840
heavy on me . M 3782
here to eat . M 3624
heed of it . M 3336
heart to do . M 3254
held by us . M 3122
here to us . M 3086
heed to me . M 3078
here to me ! M 3038
hell to me . M 3015
hero to me . M 2874
heart of me . M 2862
hell he is . M 2852
hell it is ! M 2706
help in it . M 2696
hell of it ? M 2690
hero of it . M 2424
help the king . M 2382
here to eat ? M 2350
heavy it is . M 2242
heard by us . M 2112
help to it . M 2102
held us up . M 2047
here to me ? M 2022
heir to it . M 2014
help me up ? M 1850
help me up ! M 1840
help it on . M 1839
heart to sing . M 1762
heard by me . M 1732
heart to us . M 1624
help do it . M 1594
heard it ring . M 1560
heard of us ? M 1554
here to tea . M 1528
held by me . M 1528
help of it . M 1429
heard me sing . M 1376
held on it . M 1370
hell of it ! M 1352
health in it . M 1338
heads of it . M 1333
heed of me . M 1256
help me on . M 1250
heart of it ? M 1242
heart in me . M 1200
heavy on us . M 1189
heart to go . M 1178
heart to be . M 1119
heed to us . M 1100
heavy to me . M 1099
here to be . M 1062
heavy on it . M 1053
hell he is ! M 1014
heart of the . M 1006
heart by it . M 990
heard of me ! M 966
heavy it is ! M 964
help us on . M 940
healing to do . M 909
hears of it ! M 878
heavy is it ? M 848
heart to eat . M 842
heart to it ? M 808
health to me . M 804
heads on it . M 804
help to us ? M 783
heads at me . M 770
help on it . M 768
hearing on it . M 768
help to me ? M 748
help to me ! M 748
heard on it . M 746
health of it . M 736
hero as king . M 731
help me to . M 716
hears of it ? M 712
health in me . M 710
heart to me ? M 702
help to do . M 696
hell at me . M 688
held of it . M 686
held by the . M 672
heard to sing . M 670
held the ring . M 668
held it so . M 660
here in it . M 658
here to do ! M 656
here to us ? M 642
heads in it . M 642
heard by it . M 638
here to go . M 636
hell in it . M 624
held in the . M 616
here on me . M 600
heart of me ! M 596
help eat it . M 595
help us do . M 580
hero he is . M 574
here is me . M 572
here we be . M 566
healing in it . M 556
health of it ? M 554
hearing of it ? M 549
here is no . M 546
heads be it . M 546
help do so . M 543
here or no . M 542
heard to ring . M 542
hero to us . M 536
heart of it ! M 534
heed to it ? M 524
heavy in it . M 518
healing to me . M 510
here to sing . M 508
here by us . M 500
here is the . M 494
heading it up . M 490
heard me sing ? M 478
here is it ? M 472
heard it sing . M 470
heart of us . M 466
health by it . M 466
hearing of us . M 462
help us up . M 458
here or no ? M 450
here is it . M 438
here on in ? M 424
here at me . M 422
heads it is . M 420
heart in it ? M 416
heads of the . M 414
here in me ? M 412
hell it is ? M 412
heads at us . M 412
heart as we . M 410
here in me . M 408
held to me . M 408
help me do . M 402
held it on . M 402
heard of the . M 396
heart it is . M 386
here on it . M 384
hell to us . M 384
here is up . M 382
help of the . M 372
held to do . M 372
healing of it . M 372
held to be ? M 370
heart to do ? M 366
heard the ring . M 362
heads be it ! M 360
heads to do . M 352
hero in it . M 346
held of me . M 340
here by me ? M 336
heart in us . M 336
here as no . M 332
help us to . M 332
heavy in me . M 328
here in the . M 326
heads to it . M 325
hell we do ! M 321
here at us . M 316
here of it . M 314
heed of us . M 308
here to us ! M 304
heir he is . M 304
healing to us . M 304
heads to me . M 304
hell we do . M 302
health of the . M 300
here is he ? M 296
heard it go . M 296
here we be ! M 292
heart to me ! M 286
here do it . M 282
hell on me . M 282
held at the . M 278
heart in it ! M 276
health of it ! M 276
help me so . M 274
heavy it is ? M 274
heart to sing ? M 274
heed to me ! M 268
hell is up ? M 262
hell he is ? M 260
held on the . M 260
heed to it ! M 260
hell to be . M 254
heart or no . M 242
heard it is . M 238
here by me ! M 234
held the king . M 234
held it up ? M 232
heart of me ? M 232
hero of me . M 230
heart on it ? M 230
hell to do ? M 229
hell do it . M 228
hero to be . M 226
hearing of it ! M 226
hell to do ! M 224
heavy to us . M 224
hell to go . M 218
heard in the . M 216
help it up . M 214
health to us . M 212
heard in it ? M 208
health to it . M 208
help in me ? M 206
hearing me sing . M 206
hearing of the . M 204
here at tea . M 202
help to us ! M 201
heavy he is . M 200
heavy on me ? M 198
here on us . M 194
heart he is . M 192
hearing it sing . M 192
held to it ? M 190
heavy on me ! M 186
hell to me ? M 185
help of me . M 184
held at ca . M 184
here to eat ! M 182
here on in ! M 182
held on me . M 182
here to it . M 180
heart as he . M 180
hero of the . M 178
heart as we ? M 178
hell to it . M 176
help in us . M 174
heart on me . M 174
held the thing . M 172
hell is it ! M 170
help us do ? M 169
heard me sing ! M 168
here is tea . M 164
here at me ! M 164
here we do . M 162
help it on ! M 162
heard us sing . M 162
hero to do ? M 160
help is it ? M 160
hell on it . M 160
heard he is . M 160
heads at it . M 160
heart in me ! M 158
health in us ? M 158
health in us ! M 158
hero or king . M 154
hearing it ring . M 150
heads it is ! M 147
help me eat . M 146
hell is we ? M 146
heard to do . M 144
heart it is ! M 143
here on up . M 142
here is ca . M 142
help do it ? M 142
heir of it . M 142
hears in it . M 142
help me on ? M 140
help in me . M 140
here at no . M 138
heard of us ! M 138
help it is . M 137
hell of me . M 136
heir to the . M 136
heart on it ! M 136
here of it ? M 134
here it is ? M 134
here as pi . M 134
heart of woe . M 134
hearing of me . M 134
held in it ? M 132
held at it . M 132
hell at us . M 130
heart by us . M 130
heard it so . M 130
help us sing . M 128
heart to sing ! M 128
health to be . M 128
heads to eat . M 127
here is me ! M 126
hell to me ! M 126
help he is . M 125
heavy he is ! M 125
here to tea ? M 124
here of me . M 120
here in us . M 120
hell is he ! M 120
heard in me . M 120
health on it . M 120
heading to it . M 120
help to eat . M 117
hell at it . M 116
heads by it . M 116
healing in me . M 115
hero in me . M 114
here he be . M 114
here to be ? M 112
here we is . M 110
here in pi . M 110
here do so . M 110
help me go . M 110
hell on us . M 110
heed to me ? M 110
heart is at . M 110
heard to be . M 110
heading on it . M 110
help to do ? M 108
heard the king . M 108
held up to . M 106
hell is it . M 104
heir of the . M 104
here on the . M 102
help us eat . M 102
help on it ? M 102
heart at it . M 102
heard or no . M 102
heads it up . M 102
hero he is ! M 100
help it to . M 100
hears of me . M 100
help the king ? M 98
help me do ? M 98
help it on ? M 98
held me so . M 98
here is an . M 96
held me up ! M 96
heart in us ! M 96
here to the . M 94
hell in me . M 94
held of us . M 94
heart or no ? M 94
here it be . M 92
here in it ? M 92
help me in ? M 92
heart to us ? M 92
heads to go . M 92
healing to it . M 91
hell is me ? M 90
heir to it ? M 90
heard of em . M 90
here to sing ? M 88
heard at it . M 88
help the king ! M 86
held it to . M 86
here we is ! M 84
here by the . M 84
hell in it ! M 84
heard by us ? M 84
held me on . M 82
heard by the . M 82
heart to go ! M 80
held on to ? M 64
help in the . M 53
help to be . M 48
help at it . M 45
help or no . M 43
healing on me . M 42
