hence this is a M 6994
heaven set up a M 6559
helping him to a M 2750
headed off to a M 2172
hence lead to a M 2012
helping out in a M 1908
headed man in a M 1834
helping them to a M 1772
headed out on a M 1718
helping out at a M 1710
helping her to a M 1676
headed off in a M 1565
headed son of a M 1510
headed out to a M 1471
helps him to a M 1398
hence may be a M 1284
headed off on a M 1264
headed off by a M 1258
hearts set on a M 1040
headed off at a M 1010
heaven and in a M 998
healthy and in a M 988
helping set up a M 918
hence are in a M 904
helping them in a M 864
helping him in a M 820
heaven and of a M 810
hearts are in a M 766
helping out on a M 744
headed not by a M 730
headed out in a M 694
helping out as a M 692
heaven may be a M 672
hence act as a M 666
helps you as a M 642
hence can be a M 620
helps them to a M 608
hence was in a M 572
healthy man is a M 572
hence not in a M 570
helps set up a M 556
heaven was in a M 556
healthy and of a M 556
helps you to a M 540
helps her to a M 532
helps you in a M 528
healthy man in a M 520
hence she is a M 506
helping you to a M 494
hence led to a M 492
headed east on a M 474
heaven and to a M 458
hearts out in a M 454
healer and as a M 450
heaven out of a M 448
helps you do a M 438
heaven and as a M 434
helping him as a M 430
heaven was of a M 430
hence not as a M 428
headed boy in a M 426
helps you be a M 422
helps lead to a M 394
heaven and is a M 390
headed out at a M 380
healthy boy or a M 364
healthy eating is a M 355
helps them in a M 346
heroes out of a M 342
helping you as a M 332
hence that of a M 322
helps one to a M 320
helping her in a M 318
helps him in a M 306
helps out in a M 302
hearts and in a M 302
heaven can be a M 293
helping you in a M 282
heaven not as a M 278
hearts out of a M 272
heaven but as a M 268
heaven but in a M 266
healed him of a M 266
hence that is a M 250
heroes are in a M 240
headed east in a M 238
healthy man on a M 230
hence each is a M 228
hence out of a M 220
helping him on a M 220
hearings led to a M 220
helping them as a M 218
hearts beat in a M 218
healed her of a M 218
heroes are of a M 214
helps them do a M 214
helps out at a M 214
helping them do a M 214
heaven are in a M 212
healthy men in a M 210
heaven and on a M 208
helping them on a M 204
hence are of a M 202
helps him as a M 200
healthy act of a M 188
hefty man in a M 186
helping you if i M 184
hearings and in a M 182
headed them in a M 182
helping one to a M 180
hence set up a M 170
helping you be a M 170
healthy fear of a M 168
helping them is a M 166
healthy man to a M 166
hence not be a M 164
heaven that is a M 164
headed for is a M 164
hence are at a M 162
healthy and is a M 162
healthy and as a M 162
hence man is a M 160
helping out of a M 160
headed east on i M 156
healthy one in a M 154
healed him by a M 154
headed east at a M 152
healthy eating as a M 150
heaven are of a M 146
helping him do a M 144
hearts may be a M 144
headed and in a M 144
heirs but if a M 143
helping you do a M 142
healthy man or a M 140
headed and of a M 139
hence that in a M 136
healthy son of a M 136
headed now by a M 136
helping you on a M 134
hearts and of a M 134
healthy and at a M 132
headed each by a M 130
headed all of a M 130
hence not to a M 128
helps act as a M 128
hearings and as a M 126
heaven and be a M 124
healer may be a M 124
helping put on a M 122
helping her as a M 122
helping can be a M 122
helping you is a M 120
headed man is a M 119
headed east to a M 119
helping him be a M 118
hearings can be a M 118
healthy men on a M 118
heaven but to a M 116
hearts beat to a M 116
headed man or a M 114
hence god is a M 112
healer who is a M 112
healer but as a M 112
hence not of a M 110
hearts out to a M 110
hearts and as a M 110
hence due to a M 108
heaven than as a M 108
healthy eating in a M 106
healthy can be a M 106
healed and do a M 104
headed man on a M 104
healed and in a M 103
heaven and if i M 102
heaven all of a M 102
healthy eye of a M 102
hence being in a M 100
helping men to a M 98
heroes and as a M 96
helps out on a M 96
healthy boy in a M 96
hence that if a M 94
hearts beat at a M 94
hence that as a M 92
helps out as a M 92
helps her in a M 92
heaven than in a M 92
healthy way is a M 92
healthy man as a M 92
helps him do a M 90
helps bring to a M 90
helping him as i M 90
heirs are in a M 90
heaven has in a M 90
headed out of a M 87
heroes and in a M 86
healthy cry of a M 86
headed men do i M 85
helps them as a M 84
heaven and so i M 84
hearings may be a M 84
healthy ego is a M 84
healthy but is a M 84
heroes and of a M 82
helping him at a M 82
hearts out on a M 82
hearts are as a M 82
healthy man of a M 82
headed them by a M 82
hearts that in a M 80
hearts and is a M 80
hearings are of a M 80
healthy and on a M 80
headed boy of a M 80
headed for the a M 57
hearts this is a M 53
headed men of a M 42
heated air in a D 988
hewed out of a D 974
heated end of a D 605
heated air of a D 604
heathen man or a D 540
heated oil in a D 474
heated them in a D 457
hernia this is a D 436
heaped them in a D 408
heated air to a D 324
hearty meal in a D 313
heated hot in a D 279
herbs out of a D 278
herbs can be a D 254
heathen idea of a D 240
heated air at a D 235
hewed them as a D 214
heated them to a D 207
heels and in a D 206
heated air as a D 206
heaped them on a D 206
hernia may be a D 202
heels and on a D 196
heater may be a D 194
heated and in a D 193
headings are in a D 192
hearty meal at a D 190
herring out of a D 189
heathen than in a D 188
header row in a D 181
headings and in a D 180
heater can be a D 174
hearty meal of a D 172
hearty meal on a D 168
heated gas in a D 149
hewed out in a D 136
heater and as a D 130
header can be a D 128
hearty meal is a D 127
hernia due to a D 126
heaved out of a D 126
heathen are in a D 126
heather was in a D 125
heathen and as a D 125
heels out of a D 124
heated tip of a D 118
helping thee to a D 116
hedge and in a D 110
hedge can be a D 107
hewed off by a D 104
header row of a D 104
hedge him in a D 102
hedge and as a D 102
heated air or a D 102
heated red in a D 101
heaver and to a D 100
herds led by a D 98
header area of a D 98
herbs are of a D 96
herds and as a D 94
herbs and is a D 94
heathen and of a D 94
headings can be a D 94
herding them in a D 92
headed guy in a D 92
heated gas at a D 91
herds are in a D 90
hedge sat on a D 90
herds led to a D 88
herbs may be a D 88
herding them to a D 86
helix may be a D 84
hedge and is a D 80
healthy art is a D 80
heated tin in a D 66
heated air is a D 60
