zen is to be M 582
zen as it is M 283
zen is in the M 204
zen is by no M 96
zen it is the M 94
zen to be the M 42
zen in the an M 42
zeal of the king D 2482
zeal in the king D 1280
zeal as if it D 936
zeal to do the D 906
zeal as if he D 784
zeal is to be D 774
zeal to the king D 757
zeal to be the D 541
zeal as if the D 492
zeal to be of D 437
zeal to do so D 321
zeal as to the D 310
zeal as in the D 308
zeal to go to D 237
zeal as by the D 230
zeal up to the D 202
zeal to go on D 202
zeal to do it D 196
zeal or by the D 166
zeal as at the D 164
zeal as to be D 162
zeal to be an D 158
zeal is of so D 136
zeal so as to D 121
zeal or to the D 116
zeal is on the D 114
zeal to do me D 110
zeal to be in D 110
zeal is of the D 100
zeal is by no D 100
zeal of the so D 99
zeal to be at D 98
zeal to be up D 83
