square i saw the M 361
square a man as M 224
square a deal as M 196
squirt a jet of D 494
squirt a bit of D 271
squirm a bit in D 123
squirm a bit at D 110
square i met the D 110
squint a bit to D 92
