risk of his own M 40306
risk of not being M 21825
rise as one man M 11938
risk of death and M 11393
rise to its own M 10702
risk of its being M 10340
risk of war with M 9916
risk to his own M 9218
risk of her own M 8822
risk of death for M 7845
rise of this new M 7702
risk of being cut M 7640
rise to new and M 6618
rich in his death M 5808
rise up and say M 5788
risk of being too M 5599
rise of our east M 5474
rich as they are M 5422
risk of death was M 4496
risk of his being M 4375
risk of death due M 4142
risk of war and M 4019
rich in all that M 3832
rise to them are M 3588
rise to them and M 3556
risk of death than M 3491
rich as you are M 3357
risk of being run M 3320
risk if they are M 3192
rich in his own M 3185
rise to two new M 3174
risk of being put M 3039
rise of new and M 2862
rich in its own M 2854
rise to this new M 2796
rise to any new M 2541
rise by his own M 2537
rise in his own M 2514
risk he had run M 2427
risk is that you M 2423
rise up and hear M 2408
rich in her own M 2345
rise to his own M 2242
risk of its own M 2223
risk in this way M 2162
risk of being out M 2126
risk is that they M 2058
risk to her own M 2052
rise in this way M 2048
risk of death with M 2000
risk of not doing M 1972
rich in all things M 1962
rise to long and M 1833
rise of its own M 1822
risk of going out M 1802
risk of our being M 1712
rich as she was M 1652
risk is one that M 1628
risk of dying than M 1604
rise to this idea M 1583
rise of two new M 1575
rich to pay for M 1566
risk is low and M 1525
risk of war was M 1518
rise in his seat M 1516
rise up and fly M 1421
risk if you are M 1399
rise to all this M 1392
risk it all for M 1365
risk of our own M 1364
risk of them being M 1361
risk in this area M 1361
risk of being set M 1334
risk of being led M 1318
rise up and get M 1306
rise up and put M 1291
risk of her being M 1285
rise to fear and M 1274
rise of new men M 1274
risk in doing this M 1261
rise to all that M 1258
rise to say that M 1206
risk of any one M 1205
risk of death that M 1202
rich in lead and M 1188
risk of going too M 1176
risk of dying for M 1173
risk is not that M 1168
rise of his own M 1164
risk in men and M 1148
rise up and cry M 1146
risk of his head M 1138
rise on its own M 1120
rise in all its M 1120
rise up now and M 1086
risk to our own M 1080
risk is that this M 1080
rich in men and M 1080
rich in this way M 1072
rise to our own M 1046
risk is not too M 1038
rich in wit and M 1038
rise to but one M 952
risk in any way M 939
risk to its own M 920
rich by his own M 916
rise to any real M 902
rise at six and M 899
risk to any one M 887
rise to them has M 885
risk of war for M 862
rise in its own M 852
rise to all our M 820
rise in our own M 814
risk of dying out M 808
risk of all that M 804
risk of head and M 801
rich in all its M 798
risk of all they M 790
risk in any one M 782
rise up and let M 772
rise by its own M 770
rich in meat and M 768
risk of its not M 761
rise up and run M 761
risk so that they M 754
risk we can not M 753
risk of dying was M 749
rise up and lie M 749
rise up and try M 748
rise in its real M 746
rich to all who M 740
risk as they are M 739
rise so that they M 739
rise up and then M 733
rise on his head M 726
risk of being ill M 724
risk of dying and M 720
rise to them was M 719
rise in her own M 710
risk is that one M 705
rise up and out M 701
rise up with one M 688
rich as they had M 688
rise to that idea M 687
risk of not using M 686
risk of doing this M 686
rich in red and M 684
risk on his own M 680
rise is not due M 674
rise up and see M 665
risk to you and M 654
rich so that they M 654
rich as all that M 653
rise to one and M 648
rich do not pay M 636
risk of being read M 632
risk in that they M 630
rise in any one M 628
rise to but few M 624
rise to its being M 621
rise of any one M 617
rise up one day M 612
rich in myth and M 606
rise as one and M 605
risk if they had M 604
risk on its own M 592
rise to them may M 590
risk of death but M 589
rise of this idea M 586
rich is that they M 584
rich as this one M 583
risk is not yet M 581
risk of this being M 579
rise to them all M 579
risk of dying with M 578
risk of being one M 577
rise up and lead M 574
rise up and ask M 574
rise of any new M 572
rich as you can M 568
risk in his own M 564
rise to heat and M 564
risk of death may M 561
rise in him and M 556
rise to any one M 555
rise up and bring M 551
rise to his head M 546
rich in new and M 544
risk of old age M 542
rise of law and M 542
rise in one year M 542
risk of things going M 540
risk of death are M 539
risk of death has M 536
risk of its use M 534
risk of being thus M 530
risk in men with M 528
rich in this area M 524
risk he did not M 519
rise on his own M 517
risk of using them M 514
risk if they did M 513
rich he did not M 510
rich as our own M 510
risk of being both M 506
rise to all things M 506
rich in its use M 506
risk is real and M 500
rise to and are M 496
rich as all men M 494
risk he ran was M 493
rise to its use M 491
rise to sun set M 489
risk to them and M 487
rich in joy and M 486
rise on that day M 482
rise of our own M 482
rise in pay and M 480
rise if they are M 479
rich as you say M 478
rise to this poem M 477
risk to man and M 476
risk of doing that M 474
risk in all this M 472
rich in that way M 472
risk is not one M 471
rise in that year M 471
rise to pay for M 470
risk he was not M 468
rise as they are M 468
rise as they did M 465
risk if you can M 462
risk in using this M 461
rich if you can M 460
rise to all its M 458
rise to them had M 457
rise to them can M 456
rise to two and M 452
rise up with him M 451
rich he does not M 448
rise of his son M 445
risk of being hung M 444
rise of one man M 440
rise in this area M 440
risk of bias and M 438
rise of her own M 436
risk of war that M 432
rise up and sit M 429
risk it all and M 424
rise to red and M 424
rich as any man M 424
rich as they say M 422
rise at one end M 420
rich if they are M 420
risk of one day M 419
risk of using this M 418
risk of death can M 418
rise to her own M 418
rise of that new M 414
rise up and are M 413
risk of being not M 412
risk is low for M 410
rise at all and M 408
risk if they can M 404
rise to few new M 404
rise up and cut M 403
rise of one and M 402
rich if they had M 402
rich as any that M 400
rise up and act M 399
risk in its own M 398
rise of each new M 398
rich to all that M 396
risk at any one M 393
risk of going off M 388
risk of doing too M 384
rich do not get M 382
risk or who are M 381
rise of this man M 381
risk of him being M 380
rise in old age M 380
rise up with new M 378
rise up with all M 378
rise of new age M 378
risk do you run M 374
risk of not going M 373
risk so they can M 371
rise to any idea M 368
risk we had run M 366
rich or too weak M 358
risk is run that M 354
risk of his job M 348
rise to joy and M 348
rich in that they M 348
risk on any one M 344
rich as they can M 342
risk of going mad M 340
rise at all for M 340
risk of being all M 338
rise up with his M 338
risk of war than M 336
rise to this and M 336
rich is not going M 336
risk is and how M 334
rise up and bear M 334
risk in this age M 332
rise to god and M 332
risk is far too M 330
rise to are not M 328
rich as she had M 328
risk is not being M 327
risk to try and M 326
rise in pay for M 326
rich in song and M 326
risk at all and M 325
rise as they had M 325
risk in old age M 324
rise up with them M 324
risk of war had M 322
rise up and set M 319
rise up with wings M 314
rise to its old M 314
rise of man and M 312
rich as his own M 312
rise to its new M 311
rise up and die M 307
risk to let him M 304
risk of his not M 304
risk of his dying M 302
risk of his death M 302
rise at each end M 302
rise on any wings M 296
risk of dying due M 295
rich in red meat M 294
risk at all for M 292
rise to one set M 292
rich in ash and M 292
rise up and use M 291
risk in its use M 290
rise up and lay M 287
rich of his day M 286
rich he was and M 286
rise to this one M 285
rich on his own M 282
risk in both men M 279
rise in may and M 278
rich in men who M 278
rich in any way M 278
risk of all our M 276
risk is not easy M 275
risk to him and M 274
risk of this was M 274
risk he has run M 274
rise to war and M 274
rise to fear that M 273
rise of kings and M 270
rise in one way M 270
rise in his rear M 270
risk so that you M 269
rise up and beat M 268
risk in one way M 266
rise up with this M 265
risk of war can M 264
rise of two and M 264
risk in using them M 263
risk in not doing M 262
rise up and with M 262
risk of doing any M 260
risk of doing them M 258
rich do not own M 257
rise up for him M 256
rise of men who M 252
risk of low pay M 250
rise up and they M 249
risk of this can M 248
risk of being for M 248
rise to all his M 248
rise on bad men M 248
risk is that she M 247
risk to her and M 246
risk of war has M 244
rich as they may M 244
risk of her not M 242
rise to can not M 242
risk if you use M 241
risk in all its M 240
rise to this war M 240
rise up and win M 239
risk of his going M 238
risk in one area M 238
rise in her and M 238
risk of this and M 237
risk of this new M 236
risk of being let M 236
risk at any age M 234
rich in things that M 234
risk as they can M 233
risk of war but M 232
risk of using his M 232
risk of death does M 232
risk of any new M 232
risk is being run M 232
rise up and bow M 232
rise to this myth M 232
rise in its use M 232
rise in him who M 232
rise up off her M 231
rise in all his M 231
risk of her dying M 230
risk of going for M 230
rise to his being M 230
rich in its way M 230
rich at his death M 230
rich in one day M 229
risk it with you M 227
risk as you can M 227
rise as you get M 227
risk of bias due M 226
rise to and was M 226
risk to get them M 223
risk in doing that M 223
risk at all that M 222
rise in any way M 222
rise to any fear M 220
risk is that any M 219
rise if you are M 219
rise on her own M 218
risk of its going M 216
risk is not all M 216
risk is low but M 216
risk he can not M 216
rise to any ill M 214
risk to say that M 213
rise is not too M 213
risk of this may M 212
risk of new and M 212
rise so that you M 212
rich as they all M 212
risk in each age M 211
risk is not new M 209
rise to his new M 208
rich if you had M 208
rise if they had M 207
risk is too big M 206
rise to set him M 206
rich if you are M 206
rich as any one M 206
rich as all get M 206
risk by doing this M 204
risk to deal with M 202
risk of air being M 202
risk of air and M 202
rise in that area M 202
rich to see and M 202
risk is that all M 201
rise to real and M 201
rise to each new M 201
risk in this new M 200
rich so that you M 200
rise in that way M 198
rise at one and M 198
rich is joy that M 198
rich he was going M 198
risk to run for M 196
risk of going with M 196
risk in that way M 196
rise in all her M 196
rise to that one M 195
rise to set his M 190
rise to not one M 190
rich so they can M 190
rich in hue and M 190
risk of you being M 188
risk is that its M 188
rise to see him M 187
rise so that she M 187
risk to his men M 186
risk is not run M 186
rich in his way M 186
risk is that our M 184
rich in old age M 184
rich if they can M 184
risk of using too M 182
rise to pay her M 182
rich the easy way M 182
rich in all but M 182
rise up and not M 181
rise to that new M 181
rich in our own M 180
rich he was not M 180
risk of being far M 179
rise in mean age M 178
rich in things and M 178
rich in one way M 178
risk of dying that M 177
rise of this one M 177
rise to them with M 176
rise of them and M 176
rise of men and M 176
risk of use and M 174
risk it for that M 174
risk by not being M 174
risk by going out M 174
risk at each age M 174
rise to our aid M 174
rise or use any M 174
rich it does not M 174
rich in them and M 174
rich do not fear M 174
rise up and you M 173
rise or set with M 173
risk of death being M 172
risk of all was M 172
rise of all things M 172
rich is that you M 172
risk of being low M 171
risk is that too M 171
rise of all our M 170
rise in her seat M 170
rise to his aid M 169
rise in one day M 169
rise in his path M 169
risk to see him M 168
risk of them not M 168
risk of being long M 168
risk is real that M 168
rise up with her M 168
rise up for you M 168
rise in this year M 168
risk if they use M 167
risk of her going M 166
risk is now being M 166
risk as you are M 166
rise the two new M 166
rise to them but M 164
rise on this day M 164
rise at all but M 164
risk to act out M 163
rise so far that M 163
rise or set but M 163
risk of this war M 162
risk is too low M 162
rise up and rid M 162
rise of our new M 162
rise to deal with M 161
risk it all with M 159
risk if she has M 159
rich is not that M 159
risk of doing things M 158
risk of being dead M 158
risk it for you M 158
risk in going out M 157
risk to men and M 156
risk to all who M 156
risk of our not M 156
risk of doing him M 156
rich by doing things M 156
risk in that area M 155
rise to two things M 154
rise to see that M 154
rise to men and M 154
rich on its own M 154
risk of bias that M 153
rise to his idea M 153
risk my job for M 152
risk by his own M 152
rise to this fear M 152
rise to that long M 152
rise to this law M 151
risk to run with M 150
rise up for them M 150
rise to this was M 150
rise so far and M 150
rise is due not M 150
rich is this day M 150
risk of dying are M 148
risk of both being M 148
rise to and then M 148
rich in oak and M 148
rise up and that M 147
rise to his fly M 147
rise in one and M 147
rise to two key M 146
risk by age and M 145
rise in each year M 145
rise to both new M 144
risk if she did M 143
risk in men who M 142
rise up each day M 142
rise to one new M 142
risk he does not M 141
risk of any and M 140
risk of all this M 140
risk of all his M 140
rise up with its M 140
rise up for his M 140
rise to this way M 140
rise in air and M 140
rich in lead are M 140
risk of long and M 139
risk is but one M 139
rise to our idea M 139
rise up with you M 138
rich if she had M 138
rise to weak and M 137
rise to this long M 137
risk of eating too M 136
risk of dying too M 136
risk of being but M 136
rise to new red M 136
rise of her son M 136
rich in any one M 136
risk in being too M 135
risk of war may M 134
risk of his doing M 134
risk as they may M 134
rise up off his M 134
rise to law and M 134
rise of air and M 134
risk to him was M 133
risk he had not M 133
rise on her head M 133
risk of war are M 132
risk of all her M 132
risk is with him M 132
rise in pay was M 132
rise by things that M 132
rise by sin and M 132
risk in our own M 131
rise to ask for M 131
rise as they get M 131
risk the long and M 130
risk of using any M 130
rise to any but M 130
rise to any and M 130
rich so you can M 130
rich in both its M 130
risk is then that M 129
rise as far and M 129
risk of this with M 128
risk of dry eye M 128
risk of being old M 128
risk is that his M 128
risk in both its M 128
risk if you had M 128
rise up and all M 128
rich in that day M 128
risk of men and M 127
risk as they did M 127
rise or set and M 127
rise of all that M 127
rise by day and M 127
risk it all now M 126
risk in going with M 126
risk in each area M 126
rise as one goes M 126
rich in old and M 126
risk he may run M 125
rise to day and M 125
rise by her own M 125
risk of using our M 124
risk of this long M 124
rise to lead them M 124
rise of this and M 124
rise of one who M 124
rich as her own M 124
risk is all that M 123
risk of all for M 122
risk in that year M 122
risk in not being M 122
rise to men who M 122
rise to let him M 122
rise as one who M 122
rich to see that M 122
rich is not all M 122
rich by using his M 122
rich at one end M 122
risk of being off M 121
risk in any area M 121
rise up and arm M 121
rise in her path M 121
risk to bring him M 120
risk to ask for M 120
risk if she had M 120
risk as men who M 120
rise to them than M 120
rise of east and M 120
rise in real net M 120
rise in fear and M 120
rich in all his M 120
rise to him and M 118
rise in both real M 118
rich in this new M 118
rich in this age M 118
rich in one year M 118
risk we all run M 117
rise to ask you M 117
rise in his real M 117
risk we are going M 116
risk is that with M 116
risk if she does M 116
risk as they had M 116
rise to ease and M 116
rise on one day M 116
rise of its new M 116
rise to her head M 115
risk or that they M 114
risk of death did M 114
risk of being its M 114
risk in this for M 114
rich on her own M 114
risk to pay for M 113
rise to two long M 113
risk of men who M 112
risk of being with M 112
risk of all and M 112
risk my head for M 112
risk is low with M 112
rise to them being M 112
rise to low and M 112
rise to hear him M 112
rise in them and M 112
rich it was and M 112
rise in one long M 111
risk of death had M 110
risk is that both M 110
rise up then and M 110
rise to this are M 110
risk on her own M 109
rise in his aid M 109
risk to his job M 108
risk of that with M 108
risk of one death M 108
risk of bias may M 108
risk in her own M 108
risk if you buy M 108
rise to that old M 108
rise to one net M 108
rich in ease and M 108
rich if they did M 108
risk is all too M 107
rise to any bad M 107
risk to them was M 106
risk or not and M 106
risk of both death M 106
risk of all being M 106
rise to fear for M 106
rise of any idea M 106
rich it did not M 106
rich as that for M 106
risk we ran was M 105
risk of this has M 105
risk it does not M 105
rise to them both M 105
rise to sum and M 105
rise to myth and M 105
risk of his son M 104
risk of going far M 104
risk of all things M 104
risk is that each M 104
risk is one for M 104
risk is all his M 104
rise of that year M 104
rise in its net M 104
rise by our own M 104
rich to say his M 104
rich of his own M 104
rich in lead but M 104
rich in god and M 104
rich as sin and M 104
risk to get that M 103
risk of its dying M 103
risk in this and M 103
rise to ten and M 103
rise to hear that M 103
rise in all things M 103
risk to one who M 102
risk of using new M 102
risk of eye and M 102
risk of any real M 102
risk he ran and M 102
risk at this age M 102
rise on any man M 102
rise of his new M 102
rise in new and M 102
rich ring off his M 102
rich of our own M 102
risk of this than M 101
rise on its way M 101
rise is not yet M 101
risk to them both M 100
risk is one who M 100
risk is not due M 100
rise up with joy M 100
rise the end and M 100
rise of two men M 100
rise in one leg M 100
rich he can not M 100
rich do not buy M 100
rich as you now M 100
risk we did not M 99
risk so you can M 99
risk or does not M 99
risk it and try M 99
risk in any new M 99
rise to far too M 99
rise in meat and M 99
rise in his pay M 99
risk of his men M 98
risk of him who M 98
risk is one way M 98
risk he and his M 98
rise to him who M 98
rise to cut its M 98
rise of all this M 98
rich to let them M 98
rich of that day M 98
rich in old oak M 98
rich as are its M 98
rise to bias and M 97
risk we all ran M 96
risk of its non M 96
risk of dying but M 96
risk of being bad M 96
risk is that for M 96
rise up for her M 96
rise to with any M 96
rise of new deal M 96
rise in myth and M 96
rich to buy and M 96
rich in this one M 96
rich by singing and M 96
rich as she may M 96
rich as any now M 96
rise in that for M 95
risk of using one M 94
risk of dry rot M 94
risk of any age M 94
risk it with him M 94
risk is that not M 94
risk is one with M 94
rise to was not M 94
rise to his fear M 94
rise by one year M 94
rich or that they M 94
rich in man and M 94
rich at all and M 94
rich as you may M 94
risk so that each M 93
risk he was going M 93
risk as you get M 93
risk to try new M 92
risk of its doing M 92
risk it with any M 92
risk is not for M 92
risk is for each M 92
risk in that with M 92
risk be not run M 92
rise so they can M 92
rise on them and M 92
rise in use and M 92
rise at all with M 92
rich to see how M 92
rich to hear him M 92
rich of this earth M 92
risk in all but M 91
risk in all age M 91
risk if you get M 91
rise up and pay M 91
rise to this song M 91
rise in that leg M 91
risk to get rid M 90
risk of using that M 90
risk of too low M 90
risk of them going M 90
risk it and let M 90
risk if you did M 90
rise to new things M 90
rise of one new M 90
rise of all men M 90
rich the man who M 90
rich it was not M 90
rich as kings and M 90
rich as any yet M 90
risk of that being M 89
rise in them are M 89
risk to run than M 88
risk to run and M 88
risk it was for M 88
risk it for fear M 88
risk it can not M 88
risk as being too M 88
rise up and beg M 88
rise to this fly M 88
rise to see her M 88
rise to his poem M 88
rise so that all M 88
rich is this earth M 88
risk of dying may M 87
risk if she was M 87
rise up for our M 87
rise in man and M 87
risk of them all M 86
risk of doing one M 86
risk of death each M 86
risk as one who M 86
rise to top and M 86
rise to that fly M 86
rise to sin and M 86
rise of war and M 86
rise of any long M 86
rich on earth but M 86
rich of its own M 86
rich in things but M 86
rich as that his M 86
risk the being led M 85
risk of one being M 85
risk of being weak M 85
risk if they get M 85
rise to all her M 85
risk to get him M 84
risk of war now M 84
risk of death they M 84
risk my job and M 84
risk if you try M 84
rise up for god M 84
rise to them that M 84
rise on its wings M 84
rise of bow and M 84
rise in each eye M 84
rich to get rid M 84
rich the weak and M 84
rich in his old M 84
risk is that new M 83
rise to both its M 83
risk of her death M 82
risk of dying has M 82
rise up for this M 82
rise is not far M 82
rise in this one M 82
rise at her death M 82
rich to this day M 82
rich on this earth M 82
risk we are not M 81
risk so that she M 81
rich as you and M 80
rise in this new M 72
rise in him that M 70
risk to get out M 61
rise or set for M 61
rise on bad and M 61
rise in his head M 61
rise to yin and M 60
rise to its top M 59
rise to and that M 59
rise to each and M 58
rise if you can M 58
rise to all but M 57
rise in one area M 57
rise to his eye M 56
risk an all out M 53
rise to get out M 52
rise up and hang M 51
rise to this day M 51
rise in all our M 51
rise in all but M 51
rise to one out M 50
risk so that one M 49
rise to two non M 49
rise to this man M 49
rise to mix with M 49
rise on end and M 49
rise in her that M 49
rise up and she M 48
rise up and our M 48
rise in his new M 47
rise in and with M 47
rise at any one M 47
risk on our own M 46
rise the red and M 46
risk of this one M 45
rise so that its M 45
rise of earth and M 45
rise in all age M 45
risk it was not M 44
risk by not doing M 44
risk at that age M 44
rise up and bid M 44
rise to its pre M 44
rise to get them M 44
rise in him with M 44
rise as you age M 44
rise up and read M 43
rise to six and M 43
rise to awe and M 43
rise to and can M 43
rise or sun set M 43
rise is one that M 43
rise in this and M 43
rise in this age M 43
risk or who may M 42
rise to each one M 42
rise on one leg M 42
rise in war and M 42
rise as they may M 42
risk the old man M 41
risk the new and M 41
rise up and aid M 41
rise to see them M 41
rise to its long M 41
rise to her new M 41
rise in our day M 41
risk of both men M 40
risk it did not M 40
risk it and get M 40
rise up and his M 40
rise to this act M 40
rise to does not M 40
rise in real and M 40
rise in his old M 40
rise in heat and M 40
rise at its end M 40
rise as she had M 40
rich in his day M 40
rich in oil and D 8155
rich in fat and D 6332
riding to and fro D 6274
ride in his car D 5100
risk of being hit D 4555
rich or too thin D 4050
rising on his toes D 2715
riding in his car D 2127
rising in his seat D 2108
riots of that year D 1938
riding in and out D 1932
rising as one man D 1918
ride to and fro D 1898
rising in his own D 1882
rising on her toes D 1677
ride in and out D 1550
ride it out and D 1506
ride in his new D 1468
rising in all its D 1430
risk of hip and D 1309
ride the bus with D 1272
rich in art and D 1272
ride in that car D 1236
riding at its head D 1230
ride in his own D 1230
rich or too lean D 1182
riding in his own D 1146
rise in oil and D 1145
rise in real per D 1133
ride the bus and D 1071
ride on his own D 1060
ride in her car D 1038
rich in tin and D 954
riding on this one D 947
rise on his toes D 928
rising up and lying D 921
rising of that year D 882
ride the big red D 865
rising to its peak D 854
ride up and see D 853
ride the bus for D 849
risk of lung and D 838
riding to his death D 823
rise in bun and D 822
rising up and going D 813
rising to his head D 796
rims of his ears D 768
ride on its own D 764
ride in this car D 764
ride in with you D 706
rising on his head D 704
rising in him and D 704
ride in her own D 701
riding on his ass D 686
riding the bus with D 670
risk of death per D 669
ride it out with D 666
riding on his own D 653
rich in gas and D 638
riding the bus and D 628
ride up with you D 627
risk of cot death D 626
riding on his way D 618
rise to its peak D 603
rice in this way D 602
rise of pop art D 587
rising as they did D 575
rising in all his D 572
rising on that day D 571
ribs up and out D 571
riding in her car D 569
ride in one day D 565
rising in her own D 564
ride in our car D 564
ride up with him D 559
rise on toes and D 545
rising in his bed D 537
rising by his own D 535
rising at one end D 526
ride in this way D 524
ride on his way D 522
ride it for all D 514
rising of its own D 513
rising to his own D 510
rite of death and D 507
rising of that sun D 505
riding in that car D 502
risk of cad and D 496
riding up with his D 496
risk of being met D 486
rising of his own D 483
ride on and see D 483
ride in with him D 479
rite of his own D 478
rich in fat are D 478
rich in oil that D 456
rind of this weak D 454
riding an ass and D 452
rice on her head D 450
rise of ten per D 446
riding in this way D 446
rise of one per D 444
rising as she thus D 442
rise up and hit D 438
rise of urea and D 438
rising in her seat D 437
rise up and tear D 430
riding on her hip D 424
ripe as yet for D 422
riding in with his D 422
riding in this car D 420
ribs so that they D 418
rising in this way D 414
rising in him for D 412
rising in her and D 412
riding by day and D 409
rising up and out D 404
rising as they are D 398
rise of her hip D 398
rising to its own D 394
riding the bus for D 394
rising on its own D 392
rising at each end D 390
ride it out for D 390
rift in his own D 386
ride on with him D 386
rice in his pot D 384
ride the ups and D 380
ride on his new D 380
ride on with you D 376
rime of his death D 375
rice in this area D 374
rice is not yet D 372
rich in ore and D 364
ride the bus all D 360
ride in and see D 358
ride in one car D 356
rich in fun and D 348
rife in our own D 347
rich in fat may D 346
rice in its low D 346
rise on her toes D 344
ride by and see D 342
rite of its own D 334
ride on her own D 330
ride as far and D 327
ride up and ask D 326
ride in each car D 322
rising at six and D 320
rise of oil and D 320
rife in our day D 320
rich in fat that D 320
ride if you are D 318
rising by its own D 316
riding in our car D 315
rising in all her D 314
rise of gas and D 314
ride of his own D 314
rich in lead ore D 314
rising to her toes D 312
rising on his own D 312
riding on its own D 312
ride of two and D 312
rice is dry and D 310
rife as they are D 308
ride of ups and D 308
riding on his hip D 306
riding the bus was D 300
riding by with his D 300
rising in his gut D 299
rife in his day D 298
rice is cut with D 298
riots of may and D 290
ride in his cab D 290
rice on his head D 288
rise in his bed D 287
rising in him that D 283
rite in his own D 282
rims of her ears D 280
rising up and then D 279
rising in his path D 278
rise to any tax D 278
ride if you can D 278
rice is now being D 276
rife in his own D 274
rich in fat than D 274
rice at each meal D 274
rising as she did D 273
riots is that they D 273
ride up and say D 272
rise of gay and D 268
ride in and get D 268
rice to pay for D 268
riding on this deal D 266
rising in this area D 262
ride to see how D 262
rising in his rear D 261
rising up and dying D 258
riding on her own D 257
ride to his death D 255
ride on them and D 254
rising of hot air D 253
ride in with them D 251
rich in tin ore D 250
ride to his own D 248
ride in her new D 246
rich in oil but D 246
rising to say that D 245
rising on his wings D 244
rising in our own D 244
ride to see his D 244
ride on top with D 243
rice in his own D 240
ride to her new D 238
rims of his red D 236
ride on and get D 236
rising in its own D 234
ripe to deal with D 234
ripe in age and D 230
riding in his new D 228
rice is cut and D 228
rising to his toes D 226
ride is long and D 224
rich in urea and D 224
rich in this gas D 223
riding in her own D 222
ride to its top D 222
rind is thin and D 221
ride in that way D 221
rice so that they D 218
ride in with his D 217
ride the way you D 216
ride in them and D 216
rising up and being D 210
rising as they had D 210
rife in this area D 210
risk of wear and D 209
rising on toes and D 209
ride on that day D 208
ride in ease and D 208
ride on this one D 207
rising to get her D 206
ripe we did not D 206
ripe to ask for D 206
ride to see her D 206
ride to him and D 206
rise of art and D 204
riding in one day D 204
ride on with them D 204
ride is not for D 204
rich in both fat D 204
ride up with them D 202
rising in her bed D 201
rising in his head D 200
riding on his head D 200
ribs to get him D 200
riding on this than D 198
riding by one day D 198
rice at all but D 198
rite in all its D 196
riding the ups and D 196
riding at our head D 196
rite to this day D 195
ride he did not D 195
rice in that year D 195
rice as they can D 195
ride up with her D 194
rice in one year D 194
rising to her head D 192
rising in mid air D 190
ripe in may and D 190
ride up that way D 189
ride to war with D 188
rice is then put D 188
ripe it was cut D 186
ride the long way D 185
ride so that she D 184
ride on with his D 184
ride to his car D 183
risk of air leak D 182
ride up and get D 182
rise of hip hop D 181
rising to her own D 180
ride in our new D 180
rise up and sting D 179
riding in this area D 179
rising to ten per D 178
rice on its own D 178
ride on our way D 177
rising to his going D 176
rising on you and D 176
ride the bus that D 176
ride is that you D 175
riding in was hit D 174
ripe as they are D 172
riding it out with D 172
ride to his new D 171
rips it off and D 170
riding in one car D 170
ride it with you D 170
rich in fat but D 170
ride he had had D 168
ribs to cup her D 168
ribs at each end D 168
rise in real oil D 166
rise by ten per D 166
ride to see them D 165
rising up with his D 164
rise of hot air D 164
riding by and saw D 164
rice on his own D 164
ride is not too D 163
ride the team bus D 162
ride it all day D 162
ride in them for D 161
ride in any car D 161
risk of oil and D 160
rich in fur and D 160
rise in car use D 158
rips the lid off D 158
ride so that you D 158
rising of this new D 156
rising in him now D 156
rice in all its D 156
ribs so that she D 156
rise to this peak D 154
riots on may day D 154
riots in may and D 154
riding on this for D 154
rich in fat for D 154
rising to new and D 152
ripe so that they D 152
ride in that old D 151
rising to his ears D 150
rise of this art D 150
riding at his ease D 150
riding on that day D 149
rise to art and D 148
riding to her death D 148
ride up with his D 148
ride on this bus D 147
ride on any but D 147
ride in with her D 147
ride in his old D 147
ripe or fit for D 146
riding to his own D 146
ride so far with D 145
ride on seas that D 145
ride by with his D 145
riding so far and D 144
ride so you can D 144
rick so low that D 144
ribs as they are D 144
ride is too long D 143
rise up with thee D 142
riding up with her D 142
riding on that one D 142
riding it for all D 142
ride on him and D 142
ride in our own D 142
risk of binge eating D 141
rise by one per D 141
ride to see him D 141
ride by day and D 141
rising to see him D 140
rising of one man D 140
rise of tin pan D 140
riots in our own D 140
ride up top with D 140
rick of old hay D 140
rich in both oil D 140
rice in one day D 140
riding on his big D 139
ride or lead any D 139
rising up and our D 138
rising in and out D 138
ride in his van D 138
rice is hot and D 138
ripe to say that D 137
rising as she saw D 136
rise in urea and D 135
rising up with her D 134
ringed by its icy D 134
riding to cut off D 134
rich in peat and D 134
rich in leaf and D 134
ribs to get his D 134
rise to hot and D 133
rising of sun and D 132
riding in his old D 132
rice to each man D 132
rising in its bed D 130
riding on our own D 130
riding on his old D 130
riding on his car D 130
ride at its head D 130
ride as they are D 130
rich in oil are D 130
ribs of his that D 130
ride up and out D 129
ride at his ease D 129
rising up and his D 128
rise of pol pot D 128
riding on this and D 128
ride to our new D 128
rising to two and D 126
rising on one arm D 126
rising in one year D 126
riding on with his D 126
riding on her lion D 126
ride so near his D 126
rich in teak and D 126
rice to pan and D 126
ride of all things D 125
risk of mad cow D 124
rising of each sun D 124
rise of two per D 124
ripe to get rid D 124
riding in his cab D 124
ride in his big D 124
rising to his new D 122
rife in this our D 122
rising in her that D 121
ride to her car D 121
ride to get out D 121
ride on out and D 121
ride it all out D 121
ripe it does not D 120
ringed the area with D 120
riding up with him D 120
ride so that they D 120
ride on with all D 120
ride on that bus D 120
rich the ore may D 120
rich in sap and D 120
ride up and then D 119
ride as they did D 119
rise to ten per D 118
riots in that year D 118
ride on our own D 118
ride of them all D 118
rice is set out D 118
rise to peak and D 117
ripe we are for D 116
ride on this day D 116
ride of this day D 116
ride to his job D 115
ride as for his D 115
riding as they had D 114
ride on top and D 114
ride of one and D 114
ride he had that D 114
rice on this day D 114
ribs so that you D 114
risk of cad than D 113
rise to two ions D 113
riding the bus all D 113
ride is not long D 113
rising up with its D 112
rise on our toes D 112
riding to see her D 112
riding as one with D 112
ride he met with D 112
rich in oil than D 112
risk of one per D 110
rising to them all D 110
rising to our own D 110
rice on new year D 110
ride in and cut D 109
risk of riot and D 108
rising to its new D 108
rising so that they D 108
ripe if they are D 108
ride on his car D 108
ride at our head D 108
rice so that you D 108
riding so low that D 107
ride the bus out D 107
rising to its going D 106
rife in that age D 106
riding in that way D 106
ride in than she D 106
rice on that day D 106
rice in that area D 106
rise to ova and D 105
rims so that they D 105
ride on his bus D 105
rising to god and D 104
rising of each new D 104
rind of one and D 104
ride the bus than D 104
rising in that year D 103
ride we did not D 103
ride on and bring D 103
rising up with him D 102
rising up now and D 102
rising in him with D 102
rising in him was D 102
riding so near that D 102
riding in that old D 102
rich in ions and D 102
rice if you can D 102
ribs of death that D 102
ride in that new D 101
rising so that she D 100
rising in her head D 100
rife in and out D 100
ride so far and D 100
rich in fat with D 100
rice is being got D 100
ride to them all D 99
ride of our own D 99
rite in this way D 98
rising up with all D 98
rising up and singing D 98
rising in his pew D 98
rise in tax and D 98
rise in gas and D 98
riots of that day D 98
riding to war with D 98
riding on this bus D 98
ride the bus each D 98
rice as you can D 98
ribs of his own D 98
rising of that day D 97
rise to that peak D 97
rising in his ears D 96
ringed the old man D 96
riding the team bus D 96
riding on you and D 96
riding on top with D 96
riding on this new D 96
rich in cod and D 96
rice he did not D 96
ribs to get her D 96
risk of lip and D 94
rising as one and D 94
riding on top and D 94
ride the ebb and D 94
ride an ass that D 94
rich in tin are D 94
rice as they had D 94
ribs of its own D 94
ride in this red D 93
rising to this new D 92
rising on this day D 92
rising at one and D 92
rise to two sub D 92
riding ring rang rung D 92
riding as she had D 92
ride so far had D 92
ride it out all D 92
ride it and then D 92
ride is not going D 92
rice on top and D 92
rice is not being D 92
rising to see that D 91
rise to urea and D 91
ride in that one D 91
risk of both lung D 90
rising up off his D 90
rising to pay for D 90
rising at two and D 90
ripe to put them D 90
riots in joy and D 90
rims of two red D 90
rile the old man D 90
riding on this job D 90
rice on them and D 90
rice at them and D 90
rice as they did D 90
ribs or leap out D 90
ribs of oak and D 90
rite of eating and D 88
rising to get his D 88
rising no one had D 88
rising in his car D 88
riots of that era D 88
rift in her own D 88
riding up this way D 88
riding to see his D 88
ride it with him D 88
ride as long and D 88
rich in wax and D 88
ribs to all its D 88
rising in her now D 87
riots at his death D 87
riding in this heat D 87
ride at all and D 87
risk of ups and D 86
rising up with that D 86
rising on one leg D 86
rising in all age D 86
rise of rap and D 86
ripe to bring them D 86
rife in him now D 86
riding the hot air D 86
riding at him with D 86
riding as they did D 86
ride in and lay D 86
rich in mud and D 86
rice in its own D 86
rice as they are D 86
ribs as you are D 86
rising to her ears D 84
rising on her head D 84
rise in new car D 84
rips it out and D 84
ride to them and D 84
ride the air and D 84
ride on and try D 84
ride in them are D 84
ribs of oak did D 84
ribs is that they D 84
risk of both hip D 83
rise to new ions D 83
ride in and bring D 83
rising in her for D 82
ripe it can not D 82
ringed by his foes D 82
riding the bus are D 82
riding in with her D 82
riding in his gig D 82
ride the way they D 82
rich in ice and D 82
rice on its way D 82
ribs in this area D 82
rising on her own D 80
riots of them who D 80
ringed in red ink D 80
rife in this age D 80
riding up one day D 80
riding in all his D 80
ride an ass and D 80
rich in oil for D 80
ride in this one D 70
ride on that one D 68
ride in one and D 68
ride as she had D 68
rise in its bed D 60
ride in that big D 60
ride in this area D 58
ride at his own D 58
ride if they are D 57
riding the bus that D 56
ride on his big D 56
ride if you had D 56
rise up and swing D 55
riding is not for D 55
ride as you are D 55
ride on his old D 54
ride on any one D 53
ride in his red D 53
rind of our ham D 52
rise in her bed D 51
ride to see you D 51
rise in bed and D 50
ride to get him D 50
ride on this new D 50
ride in this heat D 50
ride in this new D 49
ride if they can D 49
ribs in and out D 49
ride to her job D 48
ride to get you D 48
ride in our old D 47
rising in its rear D 46
ride to her and D 46
ride on this car D 46
ride if you get D 46
ride as she was D 46
ride on his lap D 45
ride as they had D 45
ride on his head D 44
ride in his bus D 44
ride in any one D 44
rite is one that D 43
rise up and fling D 43
ride in one with D 43
rite of her own D 42
rising of air and D 42
rise up and lean D 42
rise to this gas D 42
rise on its toes D 42
riding as they are D 42
ride up this way D 42
ride to get her D 42
ride on that big D 42
ride in his gig D 42
rising to her cap D 41
rise to his ears D 41
rise in its per D 41
rise in his gut D 41
ride on any bus D 41
ride in this old D 41
ride in one was D 41
rising of this sun D 40
rise to one per D 40
riding on his war D 40
ride on one day D 40
ride of that day D 40
