right to use the M 282696
right on top of M 128460
river as far as M 84579
right to use it M 50248
right of way to M 45596
right as far as M 45560
right to sit in M 40170
right to act as M 38509
right to all the M 36602
right to set up M 32206
right as long as M 31499
right to try to M 28211
right of way of M 28195
right to ask the M 24742
right to see the M 23755
right thing for the M 23528
right to act in M 22771
right to say it M 21940
right of man to M 20525
right in with the M 20272
right to buy the M 20131
right of way is M 19925
right to say to M 19582
right of way in M 18823
right to bring an M 18785
river is one of M 18686
right to say no M 17360
right of all to M 17042
right so long as M 16951
right to use or M 16544
right to fix the M 16360
right in doing so M 16018
right to say so M 14797
right to bring the M 14542
right to buy or M 14412
right of men to M 14225
right of way or M 14123
right so far as M 14027
right so that the M 13833
right at all to M 13733
right to put the M 12774
right of all the M 12375
right to ask me M 12364
right to set the M 11044
right of way on M 10687
right wing and the M 10637
right to sit on M 10616
right to act on M 10356
right thing for me M 10298
river by way of M 9582
right of kings to M 9440
right of way by M 9259
right is one of M 9050
right he had to M 8882
right to get the M 8810
right to pay the M 8436
right of each to M 8377
right up out of M 8330
right to lead the M 8214
right is that of M 8210
right to read the M 8209
right to ask it M 8075
rises up out of M 8012
right of way at M 7647
right of each of M 7621
right to ask of M 7602
right of using the M 6852
right to add to M 6826
right to run the M 6800
right to bear the M 6783
right to use an M 6772
right on with the M 6703
right if you do M 6662
right to his or M 6660
right of use of M 6612
right to let the M 6392
river to see the M 6350
right to own the M 6299
right to any of M 6243
right to hear the M 6192
right to fly the M 6113
right to use of M 5998
right to bring up M 5893
right is not the M 5760
right of way as M 5738
right so that it M 5672
right is not to M 5672
river so that the M 5656
right of one of M 5616
right to try the M 5262
right to bring in M 5254
right by law to M 5100
right to all of M 4999
right to put it M 4928
right to see it M 4921
right to sit at M 4812
right to say the M 4808
right to die in M 4677
right to deal in M 4664
river to see if M 4648
right in all the M 4565
right to put on M 4561
right of any of M 4550
right it was to M 4522
right or not in M 4492
right to put up M 4484
right he has to M 4479
right to own or M 4356
right to put in M 4309
right of this is M 4119
right to cut the M 4092
right of kings is M 4001
risky to try to M 3984
right in one thing M 3961
right thing for us M 3958
right to use in M 3928
right to bring it M 3920
right to sit as M 3916
river in one of M 3912
right up with the M 3905
right as you go M 3821
right to say he M 3820
right to buy it M 3772
right we see the M 3758
right to use my M 3754
right of being the M 3713
right of kings in M 3710
right to say of M 3687
right to any thing M 3675
risen up out of M 3666
right to end the M 3655
right is that it M 3588
right to not be M 3583
right to bring to M 3502
right to them as M 3479
right is not an M 3475
right to see in M 3465
right to one of M 3401
right to that of M 3388
right to put an M 3370
right is that the M 3337
river so that it M 3308
right in law to M 3308
right to say in M 3262
right to ask to M 3256
right to lay the M 3178
right by way of M 3137
right of doing so M 3078
right thing and the M 3072
right to use as M 3053
right in that the M 3040
right to see if M 3021
right of you to M 3000
right to read it M 2998
right in one of M 2992
right to put to M 2991
right on doing it M 2947
river is not the M 2898
right as one of M 2879
river to get to M 2866
right to buy at M 2806
right in that it M 2736
right to get to M 2696
right to ask us M 2672
right of god to M 2625
right to get it M 2615
right to lie to M 2536
right to die is M 2494
right of use or M 2488
right of one to M 2484
river as long as M 2465
right to them in M 2463
river on one of M 2452
right is for the M 2434
river to that of M 2432
right to let it M 2382
right as that of M 2365
right or not is M 2351
right thing and to M 2342
right to buy in M 2328
right as men to M 2326
right it may be M 2324
right so that he M 2276
river as far up M 2262
right in him to M 2262
risks of doing so M 2239
rises to that of M 2226
right is not in M 2224
right to bid on M 2223
right on out of M 2222
right up near the M 2220
right thing was to M 2208
right wing with the M 2160
right of kings as M 2157
right to hear it M 2145
right to buy an M 2144
right of way the M 2122
right to add the M 2120
rises so that the M 2106
river is not so M 2078
right to say we M 2066
right of both the M 2038
right of kings or M 2021
right of that of M 2013
right is due to M 2009
river of god is M 1984
right up off the M 1972
right to put me M 1945
right to say or M 1944
right on one of M 1912
river we had to M 1898
right it has to M 1898
right to get up M 1890
right he was in M 1880
right thing with the M 1876
right to read or M 1869
right or who is M 1861
right to reap the M 1837
right to ask if M 1826
river to try to M 1820
right or top to M 1804
right of use is M 1802
right of one or M 1801
right to log on M 1797
right to aim at M 1797
right is not so M 1783
risks in doing so M 1776
right of him to M 1772
right of going to M 1753
right or not to M 1736
right as can be M 1714
right to fear the M 1713
right in and to M 1712
right at all in M 1695
river by one of M 1678
right to set it M 1655
right in his or M 1654
right to see my M 1653
right in going to M 1647
right to pay in M 1634
right he was to M 1624
right to get on M 1622
right to them is M 1620
river or one of M 1616
right to put my M 1616
right or not at M 1616
right to ask or M 1606
right to lie in M 1604
risen as far as M 1593
river so far as M 1576
right to get an M 1575
right of man is M 1572
risks as far as M 1546
right to cling to M 1546
right to cut it M 1531
river so that he M 1528
right wing was to M 1522
right by and by M 1510
risks of using the M 1506
right to say is M 1481
right to own it M 1465
right of all of M 1458
right of use in M 1456
right to lay it M 1444
right in and do M 1441
risks of death or M 1436
risen to one in M 1424
right in any of M 1416
right the way it M 1413
right or that it M 1410
right in them to M 1396
river to one of M 1392
right the law of M 1387
right to aid in M 1379
river or any of M 1378
right is not it M 1372
right to get in M 1369
right to let me M 1366
right to them by M 1365
risks to both the M 1345
right to see to M 1341
right to buy up M 1340
right thing for my M 1340
right in with my M 1338
right to beat the M 1324
right by one of M 1322
river to get the M 1318
right on with it M 1316
river is that of M 1314
right or that the M 1311
right on with my M 1311
right in both the M 1308
right of that is M 1294
right of way if M 1288
risen to one of M 1284
right of using it M 1281
right in you to M 1278
right to die as M 1277
right of use to M 1272
river in all the M 1266
right is with the M 1265
right in using the M 1256
right to him to M 1255
right to use is M 1252
right if they do M 1248
river is going to M 1246
right to ban the M 1243
right to bear in M 1242
right wing was in M 1241
right or with the M 1238
right we had to M 1236
right on all the M 1222
right to bring me M 1221
right thing all the M 1210
river we saw the M 1194
right to pay it M 1190
river as one of M 1188
right to try it M 1176
right in all he M 1174
right to and the M 1170
right to bear it M 1159
right to all he M 1159
right to act the M 1152
right to act or M 1151
river at one of M 1144
right to let go M 1144
right he saw the M 1143
right to ask an M 1140
right of way so M 1127
risks of war in M 1124
river is due to M 1120
risen so that the M 1118
right to earn an M 1118
right to all or M 1118
right of war is M 1113
right it can be M 1098
river is not to M 1094
river is not in M 1092
right of way be M 1089
right in each of M 1083
right to say as M 1081
river to near the M 1080
right is going to M 1080
right or for the M 1076
right on out to M 1072
right as any of M 1070
right or may be M 1067
risky to use the M 1062
right to bar the M 1057
right to lay an M 1054
rises so does the M 1051
right to see an M 1044
right to say on M 1040
right of war be M 1033
right to win the M 1026
right in doing it M 1022
right to end it M 1019
right to use so M 1017
right to use up M 1014
risks of going to M 1010
right so that we M 1008
right is not as M 1008
right wing for the M 1006
right on going to M 998
right to add or M 997
right wing led by M 996
river is now the M 990
right to one or M 984
right to ask is M 976
river of death to M 970
right in that he M 964
right wing was the M 960
risks as long as M 959
right is one thing M 959
right to ask my M 952
right by using the M 952
river or arm of M 950
right we saw the M 949
right in and of M 943
right to him as M 942
right to bid is M 937
risen to that of M 930
right he hath to M 920
right thing and be M 912
right to die by M 911
right if you go M 905
river is that it M 902
right to lead an M 902
right in all of M 894
right of each is M 891
risks of being in M 887
right to them to M 887
risks he ran in M 884
right is not of M 874
right the head of M 872
right to get as M 869
risky it was to M 864
right to buy is M 856
right to pay to M 854
right the way up M 851
right or that of M 848
river is not as M 844
rises as far as M 843
right of kings by M 843
right as you to M 838
right of war in M 836
right to act is M 834
right of doing it M 834
right thing and do M 832
right to act to M 831
right of man in M 831
rises up and is M 830
right to act by M 826
right to die or M 823
right to act at M 823
right up and go M 819
right to ask in M 816
rises up with the M 813
right at law to M 813
right of kings the M 812
risks so that the M 808
right as man to M 806
right in for the M 805
right to aid the M 804
river is for the M 798
river is not an M 796
right thing and it M 794
right to act so M 793
right thing and he M 792
right to deal as M 787
right he had in M 776
right to each of M 775
river he saw the M 774
right as head of M 772
right it was the M 771
right to earn the M 766
river on top of M 762
right or east of M 756
right to say an M 754
right to them at M 752
right of war to M 748
right at one of M 744
right of man as M 743
right to run it M 742
right of him the M 741
river to act as M 738
right wing was at M 738
rises to one in M 737
right to beat me M 735
risks of death in M 731
right to this or M 730
right to all my M 730
right to run in M 729
right of her to M 727
right to use me M 726
right in law or M 724
right to sum up M 719
right to both the M 719
right to see me M 716
right on doing the M 715
river as low as M 712
right to say at M 712
right thing may be M 712
river to set up M 710
right to see or M 709
river to cut the M 708
right of one is M 707
right in with us M 707
right is not at M 702
right to head the M 698
right to hang on M 696
right thing can be M 694
right to let my M 693
risks is one of M 688
right in with me M 688
right by all the M 687
right on one or M 684
right is set up M 684
right at him as M 683
river he had to M 682
river as may be M 682
right in with it M 679
rises in one of M 672
river so that we M 671
river as that of M 670
right to lead in M 666
right to use at M 662
right on one thing M 662
right to use on M 657
right in being so M 656
right to pay no M 654
right of doing as M 652
right wing and to M 650
right on out the M 649
right he may be M 648
right thing that he M 646
right of this the M 646
river is out of M 642
right of his is M 642
river is now in M 636
right we had the M 635
right to him in M 635
river it may be M 634
river so long as M 632
right of way it M 631
right to bring or M 628
risks is that the M 625
rises to near the M 625
rises in all the M 622
right to die to M 622
right or that he M 622
right of all is M 620
river is near the M 616
right we are in M 614
right to buy as M 613
right of them the M 612
rises to one of M 611
right to beat up M 610
right on for the M 610
right at end of M 610
river is that the M 608
risen in all the M 606
rises as long as M 603
right of them to M 603
right to you to M 599
right of his or M 598
right to sit by M 597
right on doing so M 596
right if one is M 596
right as you do M 596
right as they do M 594
river or near the M 590
right wing had to M 590
right to lay on M 586
right by that of M 586
right as yet to M 586
rises up and the M 584
right to her as M 581
right in two or M 581
risen so far in M 580
right to die on M 580
right as may be M 579
right of use by M 578
risks of each of M 577
risks of all the M 576
right as she is M 576
risks of war by M 572
right to get me M 572
right it had to M 572
right to bid at M 571
right to hang up M 569
right in rear of M 569
right in her to M 565
river of death in M 562
right to arm in M 562
right thing out of M 562
risky in that it M 560
right in one or M 558
right to die at M 553
right of any to M 552
river to bring the M 550
rises the cry of M 550
river it was the M 548
right to use to M 548
right in and be M 547
right to put us M 543
risks to get the M 542
right to both of M 534
right to die the M 530
right in this as M 530
rises in both the M 528
right to fly to M 528
right of him is M 528
risen so far as M 527
right by you in M 527
right thing and we M 526
right as not to M 525
right the way to M 521
right he has of M 521
right in this or M 520
risks to try to M 519
right to ask at M 518
right on and do M 518
right of men in M 518
right in that we M 518
right as they to M 514
risks in using the M 513
right to bring my M 513
right of way up M 510
right to run my M 509
right in off the M 503
risks as may be M 502
right to bear or M 501
right thing with it M 496
right of god is M 495
river of all the M 494
right up with it M 492
right to fly in M 489
right to buy on M 488
right to air the M 487
right of war as M 487
river in rear of M 486
rises so that it M 483
right in and we M 482
river of death is M 480
risen so that it M 480
right we are to M 479
right up and do M 478
right wing near the M 476
right to opt in M 475
right to ask as M 475
right in and the M 474
right to deal or M 471
right to own an M 470
right of doing the M 469
risks is that of M 468
right to and is M 467
river to dry up M 464
right up with me M 464
river to see it M 460
right wing that the M 460
risen up out in M 456
right thing for an M 456
right in with an M 456
risks in each of M 454
right to lead us M 454
river he was in M 450
right if not the M 449
right thing not to M 448
right the way he M 448
river so that no M 447
right if she is M 447
right thing that the M 446
river is low the M 444
risen to near the M 444
risks we run in M 441
river to that on M 440
right to try me M 440
river to hear the M 438
right to cry if M 434
right or law of M 434
right to fear it M 433
right in doing the M 432
right of them is M 431
right the end of M 430
right of war or M 429
river we see the M 428
right to pay or M 427
right up and the M 426
right in this thing M 426
right to pay by M 424
right to hang the M 424
right on and on M 423
river to get at M 422
risks so far as M 422
risks of being an M 420
right to say if M 418
right to pay my M 418
right thing than to M 418
right on earth to M 418
right in and go M 417
risen in each of M 416
right to beat or M 415
right thing and in M 414
right if that is M 414
right to him or M 413
right to hear or M 413
risks of both the M 412
right to try an M 412
right to let us M 411
right to all to M 411
risks to get it M 410
risks so long as M 410
right of men of M 410
right on going up M 408
right to run an M 407
right to read in M 407
right to cut up M 405
rises up and up M 404
right wing and in M 404
right or you do M 404
right as any to M 404
river is not at M 402
risks is not the M 400
right on using the M 400
right is not on M 400
right if one of M 400
right as old as M 400
river to aid in M 398
right up for the M 398
right on being the M 398
right is with us M 398
right is that he M 398
right is that we M 397
river to bring up M 396
right of and in M 395
risking the use of M 394
right or was it M 393
right to cut or M 392
right to lead by M 389
right it was in M 389
right in each to M 388
rises on top of M 387
right to read my M 387
right at law or M 387
right in any thing M 385
risen up with the M 384
right is now the M 384
rises on one of M 383
risks of dying in M 382
right to you as M 382
right at top of M 382
right to pay at M 381
right to bring us M 381
risks as low as M 380
risen up for the M 380
right wing and of M 380
right to ask so M 380
right to them or M 379
right to sit up M 378
right to sit or M 378
right to die of M 378
right on using it M 378
right he had the M 378
right of both to M 377
river he was to M 376
right wing was on M 376
right at her as M 374
river to bring in M 372
right at all of M 372
river if you do M 370
risks of war to M 370
right to end an M 368
risks of war or M 366
risks he had to M 366
right to buy to M 366
right or that we M 366
right if all the M 366
right on one to M 365
right to win it M 364
right to mix in M 364
right of way he M 363
right to one as M 362
right as for the M 362
right to die if M 361
rises the head of M 360
right to run as M 360
right of that the M 360
right to set my M 359
right to say by M 359
risks of using it M 358
right to her by M 358
right is one in M 358
right in him as M 358
right to her or M 357
right of using or M 357
risky in that the M 356
right of going on M 356
right or how to M 355
right as being the M 355
right or not as M 354
right to you at M 353
risen to lead the M 352
right of kings on M 352
right of and the M 352
right in doing as M 352
river to aid the M 350
rises the sun of M 350
right to get at M 350
right or was he M 350
right to her to M 347
right to that thing M 346
right to fix it M 346
right thing with my M 344
right is all the M 343
right in god to M 343
river to see us M 342
right to set an M 341
right of that in M 337
right of two or M 336
right to fix on M 333
right of each in M 332
right in this is M 332
right to you in M 331
rises as does the M 329
right is out of M 329
risks if they do M 328
right to him at M 328
right to bid me M 328
right as that by M 328
right to set in M 327
right of this or M 327
right by one or M 327
right to fit the M 326
right or that is M 326
risen to head the M 324
right of all in M 324
right to heal on M 323
right of god in M 323
right if this is M 323
river to all the M 322
risks in both the M 322
right to you or M 321
risky to let the M 320
right to you is M 320
right of all or M 320
right the way we M 319
right by act of M 318
right to get my M 316
right to beat us M 315
river we had the M 314
river as being the M 314
right by him in M 314
rises up off the M 313
right is that in M 313
river in all of M 312
right in and he M 311
risks if you do M 310
right on each of M 310
right of being an M 310
right we may be M 308
risks of death by M 306
right wing was so M 306
rises at six in M 305
right to cut in M 305
river is now so M 304
river is apt to M 304
river in tow of M 304
risks of use of M 304
right so far in M 304
right of his to M 304
risks of being the M 302
right up with us M 302
right to say my M 302
right to pay an M 300
right of use as M 300
right of being in M 300
right in all my M 299
river or that of M 298
risen at all in M 298
right in both of M 298
right as did the M 298
right to ask on M 297
rises we see the M 296
right to read is M 296
right to bid in M 296
right as with the M 296
right to her in M 295
river to get it M 294
right wing had no M 294
rises to top of M 293
risking the death of M 292
right to them on M 292
right by going to M 291
risks to get to M 290
right to try in M 290
rises to two or M 289
right up and he M 288
right to lead it M 288
right by doing it M 288
right to mix the M 287
right the use of M 287
right is yet to M 287
right to them if M 286
right on going in M 286
rises to and the M 285
right to buy of M 285
right in man to M 283
right in going on M 283
risky it can be M 282
risky if you do M 282
right of any king M 280
right he has in M 280
right up and be M 279
river to try the M 278
river to put the M 278
right wing than the M 278
right wing out of M 278
right thing and is M 278
right so you do M 278
right so far to M 277
right on any of M 277
right is one to M 277
river in may of M 276
risky to say the M 276
risking it all on M 276
right to bear my M 276
right thing but it M 276
right of them in M 276
right to see as M 275
right to fix by M 275
right by him as M 275
right thing for it M 274
right or set of M 274
risks of death to M 273
right of use on M 273
risen so that he M 272
right to run on M 272
right to add an M 272
right so that no M 272
right to him is M 270
right to hang it M 270
right thing than the M 270
right of and on M 270
right to arm the M 269
right as was the M 269
right by them in M 268
right by all of M 267
right of god the M 266
risky to use in M 265
right thing but the M 264
right as all the M 264
right to use by M 263
right thing and if M 262
right of one in M 262
risks in going to M 261
right to lead or M 261
right as does the M 261
right as are the M 261
river as big as M 260
right to bow to M 260
right on going as M 259
risks by using the M 258
risen the sun of M 258
right thing that is M 256
right to cry in M 254
right to all we M 254
right thing and go M 254
right at him in M 254
right to lie or M 253
right to earn as M 253
river as can be M 252
risks we had to M 252
right so that in M 252
right thing that we M 250
right to own as M 249
right thing but in M 248
right of him in M 248
right he was is M 248
right in using it M 247
river is all the M 246
risen so far so M 246
right wing with an M 246
right to log in M 246
right the seat of M 246
right to get so M 245
right to bring on M 245
right he was the M 245
right at each of M 245
right to hear an M 244
right to add it M 244
right on top the M 244
right of both of M 243
right is set to M 243
right do you do M 243
risks to his or M 242
rises up for the M 242
risen to put the M 242
right to lie if M 242
right in out of M 242
river to run by M 241
right of say in M 240
right it was an M 240
right of and to M 239
right by you if M 239
river as was the M 238
risks by way of M 238
right of men is M 238
right in with no M 238
right he had of M 238
right he had no M 237
risky as long as M 236
rises the idea of M 236
right is now in M 236
right in that of M 236
right in law in M 235
river is now at M 234
right we see an M 234
right to lead is M 234
right to hear my M 234
right to use us M 233
right to hear of M 233
river in that it M 232
river by and by M 232
right wing had the M 232
right is now at M 232
right is all on M 231
right in them is M 231
right to lie at M 230
right or law is M 230
right thing and so M 228
right of him as M 228
right to ban it M 227
right wing that he M 226
right wing and he M 226
right on that of M 226
river he was on M 225
right to pay me M 224
right by use of M 224
river to let the M 222
risks to bring the M 222
right wing are the M 222
right to try on M 222
right the sum of M 222
right as she to M 222
right to pay up M 221
right on and the M 221
risks he has to M 220
right we had of M 220
right to fly it M 220
right thing was the M 220
right of that we M 220
right in him is M 220
right to own is M 219
right of being so M 219
right by her in M 219
right as they go M 219
right to lie on M 218
right to err on M 218
right by him to M 218
right to bet on M 217
right of being at M 217
risky to use it M 216
risks is not to M 216
right in how he M 216
risks he may be M 215
river is easy to M 214
risen as one to M 214
right of any or M 214
right as that in M 214
rises in each of M 213
right to that as M 213
river on both the M 212
risks of using an M 212
right to run up M 212
right to get or M 212
right of kings he M 212
right of god or M 212
river it was to M 210
river is low it M 210
river in each of M 210
risks of doing the M 210
risks in all of M 210
right as that to M 210
right to this as M 209
right to rid the M 209
rises so long as M 208
right to man the M 208
right to ease the M 208
right to two or M 207
right at all the M 207
risks on both the M 206
risks of dying of M 206
rises the song of M 206
right wing and by M 206
right to you on M 206
right to don the M 206
right so that at M 206
right or can be M 206
right on his or M 206
right of her is M 206
right is easy to M 206
right by law or M 206
risks we run by M 204
rises in one to M 204
right to act if M 204
right is apt to M 204
right to run at M 203
right to her at M 203
right to get us M 203
right of man or M 203
right is that to M 203
river is low in M 202
risks of war on M 202
risen on one of M 202
right is put in M 202
right if not by M 202
right do any of M 201
risking the end of M 200
right of war the M 200
river of may to M 198
river is not of M 198
river as you go M 198
risky it may be M 198
risen by then to M 198
right to buy if M 198
right thing and my M 198
right or this is M 198
right to read an M 197
river it can be M 196
right is and the M 196
right by him on M 196
risks to you or M 195
right to fly on M 195
right of god as M 195
river or east of M 194
river is cut up M 194
risky to put the M 194
risks to win the M 194
risks in all the M 194
right wing may be M 194
right to lay my M 194
right of this we M 194
right to and do M 193
right by her as M 193
river or off the M 192
right to try or M 192
right to end in M 192
right or all the M 192
right on top in M 192
right in and up M 192
right up and we M 191
right to any or M 191
right on doing as M 191
risks in one of M 190
risen at all to M 190
right to men of M 190
rises as you go M 189
rises as heat is M 189
right to war is M 189
right or are we M 189
right on all of M 189
right is now on M 189
right is but the M 189
river or with the M 188
river or out to M 188
risky as that of M 188
risks of going it M 188
risks of any of M 188
rises it may be M 188
risen up and the M 188
right to set on M 188
right to fit in M 188
right the men of M 188
right to run to M 187
right so that an M 187
right or they do M 187
right or not it M 186
right if they go M 186
right as being in M 186
right to deal on M 185
right he has is M 185
right at all if M 185
river of god in M 184
risky thing for the M 184
risks of death at M 184
right wing and on M 184
right to let an M 184
right it has the M 184
rises in them to M 183
right we can be M 183
right to this thing M 183
right to fly as M 183
right to cut my M 183
right to and to M 183
rises so near the M 182
right to one in M 182
right to log the M 182
right to buy my M 182
right to ban or M 182
right thing but to M 182
right is not by M 182
right in all to M 182
right he can be M 182
risks as one of M 181
right to try by M 181
right to pay as M 181
right to bid by M 181
right he did so M 181
right by both the M 181
river to get my M 180
river or out of M 180
river he had so M 180
risky as far as M 180
rises by way of M 180
right to deal at M 180
right if not in M 180
river to see me M 178
river it was an M 178
right to cry to M 178
right to and in M 178
right in that thing M 178
risks we ran in M 177
right to end my M 177
river in any of M 176
rises to god in M 176
right up one of M 176
right of this thing M 176
right by them to M 176
right to hear in M 175
right to fix an M 175
right in this it M 175
river we had so M 174
risking it all to M 174
right to cut me M 174
right the top of M 174
river to bar the M 172
river as they do M 172
rises so that at M 172
right wing was no M 172
right to end at M 172
right at all is M 171
right to war in M 170
right is using the M 170
right he has the M 170
rises to ten or M 169
right up for me M 169
right to lead my M 169
right of going in M 169
right is then the M 169
risks to all of M 168
risks in being so M 168
risking it for the M 168
risen at six in M 168
right up and eat M 168
right on eating the M 168
right of kings of M 168
right at you as M 168
river it was in M 166
risks it may be M 166
risks is that it M 166
rises in him to M 166
right or one of M 166
right or law in M 166
rises to all the M 165
right to one thing M 165
right to hear as M 165
right at law is M 165
river to add to M 164
risks he ran by M 164
rises up who is M 164
rises to any thing M 164
risen to see the M 164
right to opt to M 164
right to heal the M 163
right is not he M 163
river at dead of M 162
rises so near to M 162
risen to two or M 162
right to end of M 162
right to beg in M 162
right thing but he M 162
right of use be M 162
right up and in M 161
right to try us M 161
right to beat my M 161
right in this at M 161
river to get in M 160
risks so that it M 160
risks of his or M 160
rises as that of M 160
risen to die no M 160
right to him by M 160
right to cut on M 160
right thing then is M 160
right thing and at M 160
right of this in M 160
right in that an M 160
right to her if M 159
right of his king M 159
right to fix or M 158
right to bid the M 158
right in kings is M 158
right he was at M 158
risks of war as M 157
right thing and as M 157
right he has no M 157
right by her to M 157
river by using the M 156
river at each of M 156
right to rear the M 156
risks by going to M 155
rises up near the M 155
right wing was as M 155
right to read to M 155
right to for the M 155
right to bid it M 155
right by each of M 155
risks in use of M 154
risks in that the M 154
right wing lay the M 154
right by both of M 154
right on and he M 153
right of things as M 153
rises to his or M 152
right of kings at M 152
right it was by M 152
right in war to M 152
right if they so M 152
right as one to M 152
right to mix up M 151
right to beg the M 151
right so that my M 151
right of them as M 151
risks to them of M 150
risen in both the M 150
risen as one in M 150
right to set me M 150
right so that if M 150
rises to lead the M 149
right to real or M 149
right as this is M 149
river in aid of M 148
river as near as M 148
risks of one or M 148
risks as they do M 148
right to earn my M 148
right on both the M 147
right by fear of M 147
river we had no M 146
river or near it M 146
river in two or M 146
risky in you to M 146
risks in his or M 146
risks at all in M 146
risks an act of M 146
risen up with me M 146
right wing off the M 146
right to this is M 146
right to set at M 146
right to one on M 146
right to lead on M 146
right to cut as M 146
risks in using it M 145
risks in doing it M 145
right of two of M 145
right at his or M 145
river to see my M 144
river the way it M 144
rises is that the M 144
right wing that it M 144
right thing but do M 144
right on this thing M 144
right of war of M 144
right of this wing M 144
right of law to M 144
right by any of M 144
right on this or M 143
right by them as M 143
rises the top of M 142
right he and the M 142
risks of being on M 141
right to that is M 141
right to put so M 141
right to pay on M 141
right the idea of M 141
right is that no M 141
river to run the M 140
river to bring it M 140
river on each of M 140
river of may in M 140
risks to see if M 140
risks in that it M 140
right of using my M 140
right of him on M 140
right in and it M 140
right by them of M 140
river as did the M 138
risky of all the M 138
risks is not an M 138
rises in all of M 138
right to read as M 138
right to hear is M 138
right or out of M 138
river it was as M 137
right it was at M 137
river is one in M 136
right wing and it M 136
right to fly at M 136
right to bear on M 136
right or not the M 136
right or both to M 136
right of using is M 136
right of men as M 136
right to win in M 135
right to that on M 135
right to act up M 135
right in and eat M 135
risen by way of M 134
right wing that is M 134
right wing being at M 134
right up with my M 134
right to lead to M 134
right to lay up M 134
right the way the M 134
right be set up M 134
right we get the M 133
right of them on M 133
right it was of M 133
right he has by M 133
right by him if M 133
river or that the M 132
river is set in M 132
river he had an M 132
risks in any of M 132
risks he ran of M 132
right to cry so M 132
right thing but at M 132
right or not by M 132
right or does it M 132
right on top is M 132
right of son to M 132
right of dying in M 132
right by you or M 132
river to run in M 131
right to lead as M 131
right to him of M 131
right to each to M 131
right the path of M 131
right on going on M 131
right by doing the M 131
right by doing so M 131
right be put to M 131
river we had an M 130
river to lead the M 130
river to cut it M 130
river the men of M 130
river so dear to M 130
river or for the M 130
river of death as M 130
rises to put the M 130
rises is not the M 130
risen to head of M 130
risen in one of M 130
right wing all the M 130
right to earn it M 130
right thing all of M 130
right so dear to M 130
right as you or M 130
risks of going on M 129
rises in two or M 129
right to own my M 129
right on with me M 129
right by them on M 129
risks to run in M 128
risks of bias in M 128
risks of all of M 128
risen to all the M 128
right to let or M 128
right to add in M 128
right thing but is M 128
right or did he M 128
right is using an M 128
right in going no M 128
right as being of M 128
rises to sit on M 127
right to ask by M 127
right to aid is M 127
right is thus the M 127
right in any to M 127
right by her or M 127
river is two or M 126
river is one thing M 126
river at one or M 126
river as being in M 126
risks to one of M 126
risks of one in M 126
risen as yet to M 126
right wing and an M 126
right to lie as M 126
right or any of M 126
right on with no M 126
rises to six or M 125
right to this in M 125
right on him as M 125
river is now an M 124
risky in and of M 124
risen to and the M 124
risen as one of M 124
right or not we M 124
right or all to M 124
right is for an M 124
river of may as M 123
right to aid or M 123
right of way an M 123
right in them by M 123
right in being in M 123
right by law in M 123
river is but the M 122
risks to each of M 122
risen up with so M 122
right to sit is M 122
right to fix at M 122
river at all so M 121
right to sit the M 121
right is but an M 121
risks so that we M 120
risks of death of M 120
right thing and of M 120
right the act of M 120
rises up with an M 119
right we can go M 119
right on him to M 119
river to see an M 118
river of men in M 118
river it was on M 118
risks of dying at M 118
risks is for the M 118
rises the man of M 118
right to lead me M 118
right to cry or M 118
right of kings if M 118
right is but so M 118
right in going up M 118
right in each is M 118
right as low as M 118
right to two of M 117
right of his in M 117
right in that no M 117
right by you as M 117
risks of doing it M 116
risen up and is M 116
risen to any of M 116
right wing east of M 116
right to end on M 116
right to being the M 116
right or use the M 116
right or use of M 116
right is both the M 116
right as that the M 116
right up all the M 115
right to buy by M 115
right is set at M 115
river the way we M 114
river he had no M 114
risky to bring in M 114
risks the use of M 114
risks is due to M 114
rises in being as M 114
rises at six to M 114
risen by now to M 114
right thing that it M 114
right the eye is M 114
right or doing an M 114
right of way we M 114
right of his as M 114
right in for it M 114
right at them as M 114
right as real as M 114
river to get on M 113
right in that if M 113
right by two or M 113
right by law is M 113
right at her in M 113
river to use the M 112
risky to bring the M 112
risking it all in M 112
rises it can be M 112
rises in him the M 112
right to joy is M 112
right to aid of M 112
right thing and no M 112
right or not so M 112
right on being an M 112
right is all we M 112
right if you eat M 112
right he had as M 112
river so that as M 111
right to fear me M 111
right to and he M 111
right is with me M 111
river we are in M 110
river it had to M 110
river he had the M 110
risks he may no M 110
right wing was an M 110
right to fix in M 110
right in two by M 110
right he had so M 109
river in both the M 108
risky to bring up M 108
risks of war is M 108
risks is not as M 108
risen so that we M 108
right to mean by M 108
right thing all or M 108
right on going at M 108
risks by doing so M 107
right so they do M 107
river so that if M 106
risky to use as M 106
risky thing for me M 106
risks of death on M 106
right wing and we M 106
right up off my M 106
right to see us M 106
right to her is M 106
right to act of M 106
right in that in M 106
rises to that at M 105
right to may be M 105
right of both in M 105
river the way the M 104
river on all the M 104
river is cut by M 104
risky to try the M 104
rises to get the M 104
rises in one or M 104
rises by day or M 104
right wing and so M 104
right we can do M 104
right to not to M 104
right to fly an M 104
right to buy me M 104
right to and an M 104
right or far to M 104
right of eating the M 104
right of and at M 104
right of and as M 104
right in this on M 104
right to win or M 103
right to own up M 103
right to fear an M 103
right of that by M 103
right of any thing M 103
right is now an M 103
river we saw an M 102
river to get an M 102
river on two of M 102
river by one or M 102
risks in going so M 102
rises so far as M 102
risen to top of M 102
right wing can be M 102
right to beg at M 102
right or both by M 102
right or act of M 102
right on them by M 102
right on but the M 102
right of way no M 102
right up and it M 101
right it was no M 101
right in one to M 101
right by him or M 101
river we saw no M 100
river to bring me M 100
river of all is M 100
river is low at M 100
river at all in M 100
risks of new or M 100
risen so has the M 100
right wing has the M 100
right to lie by M 100
right to him he M 100
right thing and by M 100
right or that on M 100
right on earth is M 100
right in this we M 100
right in that at M 100
right he saw an M 100
right as they be M 100
right to that in M 99
right to hear me M 99
right by going up M 99
river to bring us M 98
river at end of M 98
risks or that the M 98
rises to read the M 98
rises at all in M 98
right wing nor the M 98
right wing led the M 98
right or not do M 98
right on lying to M 98
right of kin to M 98
right in law is M 98
right if not to M 98
right do they do M 98
right by you to M 98
right by her if M 98
right be one of M 98
right as had the M 98
right he was on M 97
river in one or M 96
risks the death of M 96
rises or goes to M 96
risen on top of M 96
right or try to M 96
right or let it M 96
right on both of M 96
right of that wing M 96
right of lying in M 96
right of his wing M 96
right of her or M 96
right by law of M 96
right as each of M 96
river it was so M 95
risky to bet on M 95
rises on wings of M 95
right on and we M 95
right of being king M 95
river the day of M 94
river so that in M 94
river is low or M 94
risky to use an M 94
risky to try it M 94
rises up for me M 94
risen to being the M 94
risen so that in M 94
right to bear an M 94
right the gear of M 94
right by god in M 94
river to use as M 93
rises or that the M 93
right to lie is M 93
right the man is M 93
right is near the M 93
river to put in M 92
river to pay the M 92
river to get us M 92
river to each of M 92
river to air the M 92
river is that on M 92
river he set up M 92
risky to use on M 92
risky to set up M 92
risky to say so M 92
risky so long as M 92
rises in man to M 92
risen to ten to M 92
right to seat in M 92
right to bear me M 92
right thing with no M 92
right thing with me M 92
right thing now is M 92
right the path by M 92
right the sun is M 91
right of you is M 91
right of age to M 91
right by being the M 91
river to use in M 90
river is east of M 90
river is all of M 90
risks to bring it M 90
risks of and the M 90
risks he ran as M 90
risking the sin of M 90
rises to that in M 90
rises to one or M 90
right up and ring M 90
right to kid the M 90
right thing than it M 90
right or not on M 90
right on and be M 90
right in him so M 90
right by him at M 90
rises is one of M 89
right it goes to M 89
right he had by M 89
river to head the M 88
river the way he M 88
river is now as M 88
risky to put it M 88
risks to him or M 88
risks to all the M 88
risks he was to M 88
risen to ten or M 88
risen to and so M 88
right to win if M 88
right thing was in M 88
right on doing my M 88
right of using up M 88
right of man by M 88
right in them of M 88
right by them if M 88
rises to let the M 87
right to earn is M 87
right to beat on M 87
right by being so M 87
river to head of M 86
river to ask the M 86
river of one of M 86
river of god to M 86
river at all the M 86
risky to ask the M 86
risks to run on M 86
risks to one or M 86
risks so that he M 86
risks he ran at M 86
risks as does the M 86
rises to ask the M 86
right wing lay in M 86
right to things of M 86
right thing going to M 86
right thing but we M 86
right on and in M 86
right it has at M 86
right by her at M 86
right be now in M 86
right as men in M 86
right to all it M 85
right in them as M 85
right in law of M 85
river to bear the M 84
river on way to M 84
river is dry in M 84
river as this is M 84
river as she is M 84
river as does the M 84
rises the air is M 84
risen by two or M 84
right wing was of M 84
right to one if M 84
right to heal by M 84
right so that as M 84
right or law on M 84
right on going the M 84
right of that on M 84
right in this if M 84
right as that he M 84
right by using an M 83
right an idea of M 83
river to set the M 82
river to east of M 82
river is thus the M 82
river is that in M 82
risks to any of M 82
risks on top of M 82
risks of war if M 82
rises the air in M 82
risen to get the M 82
risen to any thing M 82
risen or that the M 82
right wing being the M 82
right to own at M 82
right thing has to M 82
right thing had to M 82
right or law to M 82
right or doing the M 82
rises to bring the M 81
right it was my M 81
right by you on M 81
river we are on M 80
river to one or M 80
river it has to M 80
river is that we M 80
river he was the M 80
river by ten or M 80
river at any of M 80
rises no era of M 80
risen to ask the M 80
risen in him to M 80
risen as far in M 80
right up out the M 80
right thing now to M 80
right thing for so M 80
right it all is M 80
right he was we M 80
right do they so M 80
right by her on M 80
right of her the M 75
right is that if M 74
right on how to M 73
right at all on M 69
right to him on M 68
right to head up M 68
right to bear as M 66
right in that as M 66
risks to you as M 64
right to pay so M 63
right of that to M 63
right he may do M 62
right to end up M 60
right in two in M 60
right at you in M 60
right at him or M 60
right to add as M 58
right do not do M 58
right to bring as M 57
right to bar an M 56
right to set to M 55
right to let in M 55
right or both of M 55
right of war he M 55
right at them in M 55
right at both the M 55
right at all or M 55
right to lay in M 54
right to him so M 54
right to try if M 53
right to hang or M 53
right to bring so M 53
right to use if M 52
right is set in M 52
right in and by M 52
right to put as M 51
right to cry as M 51
right to add on M 51
right of him at M 51
right is going on M 51
right in all we M 51
right to not do M 50
right of him or M 50
right is now so M 50
right in and is M 50
right to put at M 49
right to lay by M 49
right to death in M 49
right in them in M 49
right in law as M 49
right to get by M 48
right at any of M 48
risks of death as M 47
right to one is M 47
right to add my M 47
right of this on M 47
right in one is M 47
right in aid of M 47
right he was as M 47
river to sit on M 46
risks the end of M 46
right wing and as M 46
right up with an M 46
right to you so M 46
right to lay or M 46
right to head to M 46
right to cut us M 46
right to bid or M 46
right to all in M 46
right of them or M 46
right is not my M 46
right is for it M 46
right in this the M 46
right in being the M 46
right as near as M 46
right to man to M 45
right to cry at M 45
right to air it M 45
right on him in M 45
right on and it M 45
right on and go M 45
right of going or M 45
right in and no M 45
right at him so M 45
right at him at M 45
risks he ran to M 44
right up with no M 44
right to see at M 44
right to near the M 44
right to both by M 44
right of one be M 44
right of her in M 44
right of her as M 44
right it was on M 44
right at all by M 44
rises is due to M 43
rises as one of M 43
right to you if M 43
right to read at M 43
right to add up M 43
right on with us M 43
right on them as M 43
right of her on M 43
right in her as M 43
right at you or M 43
right as far up M 43
risks we run of M 42
risks it all on M 42
rises so that he M 42
right up for it M 42
right to with the M 42
right to try my M 42
right to than the M 42
right to lie so M 42
right to let no M 42
right to hang me M 42
right of being on M 42
right in her so M 42
right in and in M 42
right an act of M 42
rises we are in M 41
right to you by M 41
right to them the M 41
right to read by M 41
right to one to M 41
right or was the M 41
right of him he M 41
right if for the M 41
right at all it M 41
right to them so M 40
right to them of M 40
right to sin in M 40
right it had no M 40
right in two of M 40
right in real or M 40
right he did it M 40
right at all at M 40
right to tax the D 36544
right to sue the D 26145
right to sue in D 24955
right to wear the D 20403
right to sue on D 10585
right to wear it D 5901
right to sue is D 4824
rigid as that of D 4236
right to sue to D 4179
rival to that of D 3774
right ear and the D 3738
rides on top of D 3420
right to sue or D 3208
ridding the earth of D 3010
ridge as far as D 2926
river is fed by D 2666
right in his ear D 2461
right to sue at D 2450
right to tax us D 2075
right to sue as D 1887
right ear with the D 1728
rigid so that the D 1594
ridge is one of D 1546
rifle of one of D 1464
right in her ear D 1417
right to spy on D 1408
right to sue if D 1366
ridding the area of D 1310
right to tax is D 1284
ridge in rear of D 1273
right to dig the D 1264
right to sue an D 1233
right to rob the D 1232
rifle to bear on D 1128
ridge of one of D 1074
rival of that of D 1073
ridge so that the D 1008
right to sue by D 1002
ripping it out of D 993
rigid so that it D 982
right to wear an D 945
right to tax it D 929
ridge on top of D 928
rides the bus to D 920
right to tax in D 874
right to hit me D 860
right to dig up D 851
right to tie up D 831
rites of all the D 822
rival to him in D 808
rises the peak of D 776
right to hit the D 762
rival in all the D 746
rifle to one of D 720
rifle so that the D 712
rifle on top of D 702
right to tax or D 698
ridge by way of D 694
rifle so that it D 682
right on cue the D 680
rigid as not to D 670
right of suing in D 643
rifle at one of D 642
right to tear up D 624
right to tap the D 621
risking the ire of D 614
rides on one of D 606
rides on them as D 602
river or bay of D 596
ridge to see the D 594
rival of his in D 588
right to tax at D 585
right to rob me D 544
right to tax to D 540
rigging of one of D 536
rival the earl of D 528
right ear for the D 528
ridge to see if D 520
rinse the gel in D 514
ridge is not so D 498
right to wear my D 492
rites of one of D 486
rival the one in D 483
right to swing my D 480
right ear than in D 480
rifle so that he D 472
rival of all the D 456
right to tie the D 447
ridge we had to D 446
rides to see the D 442
rinse it out in D 440
rival the art of D 439
rival in one of D 432
ripping it off the D 426
ridge is cut by D 426
right ear and an D 422
rinse the top of D 418
rifle is one of D 416
rival to any of D 415
ridding the seas of D 414
right to lean on D 413
rifle in one of D 412
right by his ear D 411
rival in this or D 408
rigid as one of D 408
right to tax on D 401
rinse it off in D 391
right to tax as D 388
right to tax an D 387
rides as far as D 384
rigid of all the D 382
ridge as long as D 382
right to dig in D 380
right of art to D 379
right to tax me D 371
right toe with the D 368
rival as far as D 365
rigid in that it D 362
rigging is set up D 361
rites is that of D 360
ridge so that it D 358
ripping up one of D 354
rider on one of D 350
rigid as that in D 346
ridge we saw the D 342
right by her ear D 341
rider to win the D 338
rider is one of D 338
river lea and the D 334
rival the one at D 332
right of suing the D 331
rinse the tip of D 330
rides to get to D 326
right to dam the D 324
right ear than the D 324
right ear than to D 322
rifle to see if D 320
ridge is due to D 320
rites is that the D 316
rigor is due to D 316
rider is going to D 316
rival to her in D 313
rites as may be D 312
right ear and he D 310
rival to that at D 309
river he met the D 308
rigid as far as D 306
right to wear on D 304
rifle as long as D 304
rigging it all up D 302
rider of one of D 298
right to dig it D 297
rigid or may be D 296
ridding the air of D 296
right at his ear D 295
rivet the eye of D 294
ridding an area of D 290
rites so that the D 288
rifle of his foe D 288
rioted in all the D 282
rides in one of D 282
rival in that of D 280
rites of both the D 280
ridge is not the D 280
rites is one of D 274
rigging so that the D 274
right to wear in D 272
right to rob or D 272
ripping up all the D 270
right wing hit the D 270
rifle on one of D 270
rites to one of D 266
rides up with the D 266
right of fee in D 262
right to tear it D 260
right to dam up D 260
ridge is not as D 258
right ear and on D 254
river of ice is D 252
rival the men in D 251
rival of one of D 250
rider to sit in D 248
riven in two by D 246
rites is not the D 244
rinse the end of D 244
ridge of earth on D 242
rival to both the D 241
right ear and to D 240
rifle is not the D 240
rival so long as D 239
ridge to get to D 236
rider so that the D 236
right to vet the D 235
rider to get the D 234
rider the man of D 234
ridge in one of D 232
rinse it with the D 231
river of ice in D 230
rival the sun in D 230
rigid so that no D 228
rifle at him as D 228
rides by with the D 228
rigid it may be D 224
rigid in his or D 224
ridge he was on D 224
rival if not to D 222
rider is that the D 222
rider in one of D 220
rinse in two or D 219
rigid so far as D 218
right ear with an D 218
right to dig on D 216
right ear and in D 214
rider on top of D 214
right to sow the D 213
rival of both the D 212
right ear and at D 212
right of suing on D 211
river is met by D 210
right to sue me D 210
rinse it and the D 208
rival to fear in D 206
rival so far as D 206
rival of that at D 206
rigid as long as D 206
ridge to that of D 206
rigid in that the D 204
right to tear the D 204
right ear was the D 204
rival is going to D 202
ripen it for the D 202
rifle as with the D 202
rival is out of D 200
rigid as any in D 200
ridge at top of D 200
rider is apt to D 198
rival in any of D 197
ripping of you to D 197
ridge to near the D 196
ridge as lying in D 194
right to tax by D 193
rigging of all the D 192
rifle is going to D 192
rifle as far as D 190
rides up out of D 190
right to sue it D 188
ridge or two of D 188
rites in use in D 186
right ear that is D 186
rifle to aim at D 184
rider to use the D 184
rival he had to D 183
rival to one of D 181
rider to sit on D 181
rigid as any of D 180
right to sue of D 180
rigging so that it D 180
rites as long as D 179
river we met the D 178
rigid an idea of D 178
rites as far as D 177
rival of any of D 176
rides to all the D 176
rifle is not in D 175
right ear and it D 174
rivet in one of D 172
rifle in use in D 172
ridge he saw the D 170
rides the sun of D 170
rider to this is D 170
river on ice to D 168
rival in all of D 168
right to mar the D 168
right to mar or D 168
ridge on one or D 168
right to wear at D 167
rival is one of D 166
risings in all the D 166
right to dig or D 166
ridge of earth or D 166
rigging so that he D 162
ridge or row of D 162
ridge is that of D 162
rider is not in D 162
river of mud in D 160
right toe and the D 160
right at her ear D 160
ridge on one of D 160
rigid to act as D 159
rifle up off the D 158
rival to win the D 156
rites he had to D 156
ridge or top of D 156
ridge in all the D 156
rides on and on D 155
right to bed as D 153
rifts of oak in D 152
rider to one of D 152
rival as long as D 150
rinsing it with the D 150
right to his ear D 150
rider to bring the D 150
rigor is not the D 149
right on cue as D 149
right ear with my D 148
river or bay in D 146
rites in all the D 146
right to ply the D 146
ridge is near the D 146
rider as far as D 146
right to swing the D 145
right ear than at D 144
rifle to try to D 144
rides as long as D 144
rider is out of D 144
rifling of all the D 142
rider so far as D 142
right to sow so D 141
rigor is not to D 140
right wing tip of D 140
right ear and my D 140
ridge to try to D 140
right ear may be D 138
rifle at his ear D 138
ridge we are on D 138
riser so that the D 136
right ye owe to D 136
rides in all the D 136
rival the use of D 135
rifle is that it D 134
rider is not the D 134
right to rob us D 133
rider so that he D 133
rites is not so D 132
right to nip me D 132
rifle or gun is D 132
rides in with the D 132
rinsing it off in D 130
rigor as that of D 130
rigid so long as D 130
rides the top of D 130
ridding the law of D 130
rival to that in D 129
right wing tip is D 128
ridding the gas of D 128
right to seal the D 127
right to ken the D 126
right ear due to D 126
rival is not the D 124
rites is not to D 124
riled up that he D 124
riled me was the D 124
ridge so that he D 124
ridding the dog of D 124
rival to them in D 123
ripen us for the D 122
rigor is one of D 122
right the earl of D 122
rifle by one of D 122
rites is due to D 120
rites as that of D 120
rigid as are the D 120
ridge of earth in D 120
rites so dear to D 119
rites so long as D 118
ridge of earth to D 118
river he met an D 116
rival of man in D 116
rival if not the D 116
rinding is that the D 116
rigid so that he D 116
right ear near the D 116
right as per the D 116
ridge to get the D 116
ripen so that the D 115
right to say yea D 115
rites as one of D 114
rigid to fit the D 114
right ear can be D 114
right ear that he D 112
ridge or near the D 112
river or bay or D 110
rival the old in D 110
right the hay is D 110
rifle is not to D 110
ridge of all the D 110
rides on any of D 110
rival to all the D 109
rimming the top of D 109
right to bed so D 109
rival so that he D 108
rites or with the D 108
rigid or set in D 108
rigid as was the D 108
right ear was to D 108
rifle or gun in D 108
rival to god in D 107
right to boo the D 107
rites in one of D 106
rifle to use the D 106
rifle is now in D 106
ridge of earth is D 106
ridge is not in D 106
rider be not of D 106
rivet so that it D 105
right to wear so D 104
rifle to its ear D 104
rifle is not so D 104
ridge or peak of D 104
risks the ire of D 103
right ear and is D 102
ridge to head the D 102
ridge of her ear D 102
rides the wings of D 102
rival so near the D 100
riled up all the D 100
rigor is that it D 100
right ear all the D 100
rifle is that the D 100
rifle he had to D 100
ridge is for the D 100
rider is not to D 100
rival in that it D 99
right to seal up D 99
right to sue be D 98
right of fox to D 98
ridge in each of D 98
ridge he had to D 98
rider to see the D 98
rider is using the D 98
ripen in may or D 97
right on cue to D 97
river or bay to D 96
rites so that he D 96
rites as old as D 96
ripping the top of D 96
ripen to that of D 96
rinsing it out in D 96
rigid as can be D 96
right to tear us D 96
rider to hear the D 96
ripen in two or D 95
rigor as far as D 95
right to wear or D 95
right to mow the D 95
rider is not as D 95
rival of his at D 94
risings of sin in D 94
right to tax if D 94
right to hog the D 94
ridge on both the D 94
ridge of ice on D 94
rider to get up D 94
river of ice to D 92
rites of each of D 92
rites of any of D 92
rigor is not an D 92
rigid it can be D 92
rigid in all the D 92
right on cue he D 92
ridge on each of D 92
rides it all the D 92
rider as one of D 92
right to bed in D 91
right on cue in D 91
river the bed of D 90
rival the song of D 90
rival so set in D 90
ripping it out by D 90
rigor so that the D 90
rigid of any of D 90
rigging to see the D 90
rifle to bring the D 90
ridge to one of D 90
ridge is going to D 90
ridge as one of D 90
rides he had to D 90
rivet the end of D 89
ripen as long as D 89
rivet is put in D 88
rival the zeal of D 88
right the row of D 88
rider is not an D 88
rider in all the D 88
rival is that of D 86
rises an elm of D 86
ripping the hem of D 86
rigor to bear on D 86
right of fee is D 86
rigging up for the D 86
rifle to get the D 86
rifle as one of D 86
ridge is that it D 86
rides to see if D 86
rider is not on D 86
rival to fear on D 84
rival or two to D 84
rival is not to D 84
rigging as far as D 84
ridge or bar of D 84
ridge of ice to D 84
ridge is not an D 84
rival to get the D 83
rites by way of D 82
rifle is all in D 82
rifle by way of D 82
ridge we had an D 82
ripping it off in D 81
rivet on them the D 80
rinse it two or D 80
rigor of law is D 80
rigor is not so D 80
rifle he had in D 80
rides to death in D 80
rides so that he D 80
right to wear as D 72
rival if they do D 68
right to tip the D 58
right to wear to D 54
rival in both the D 52
rival as one of D 52
right on his ear D 52
right in one ear D 51
rivet so that the D 50
rises in mean sea D 47
right to hit my D 47
rites to all the D 45
rider to get on D 45
right to sow it D 43
right to gang up D 43
right to hit or D 42
right to her ear D 42
rider is put on D 42
right to sow in D 40
