up to a few M 127797
up in a few M 125479
up to a year M 104572
up of a new M 60530
up in a new M 39497
up in a way M 35389
up to a new M 33927
up in a big M 32679
up as a bad M 28611
up to a man M 24207
up in a box M 23892
up of a few M 22948
up in a long M 22821
up in a day M 19675
up in a heap M 18076
up by a few M 15983
up to a lot M 15350
up as a man M 14222
up of a set M 13875
up so i can M 13608
up to a day M 13398
up as i was M 12354
up to a big M 12236
up by a man M 12050
up in a bag M 11986
up as a boy M 11259
up by a new M 11061
up as a new M 10442
up in a red M 9503
up to a long M 9037
up on a few M 8688
up in a web M 8105
up in a bar M 7891
up to a set M 7532
up by a long M 7299
up in a war M 7202
up of a long M 7162
up in a bad M 6940
up in a lot M 6854
up on a big M 6280
up of a man M 6256
up in a year M 6129
up on a new M 5983
up on a long M 5895
up in a dry M 5403
up in a bit M 5400
up in a two M 5342
up of a lot M 5267
up to a low M 5186
up in a net M 4995
up in a man M 4943
up to a real M 4797
up to a sum M 4757
up in a one M 4669
up in a low M 4582
up as i had M 4543
up as a way M 4367
up on a low M 4086
up on a lot M 4036
up in a real M 4015
up as i did M 3955
up to a red M 3921
up to a two M 3897
up in a dead M 3799
up if i had M 3789
up on a man M 3762
up in a non M 3579
up on a box M 3543
up in a mad M 3341
up as a god M 3184
up in a fit M 3031
up by a big M 3026
up in a far M 2972
up at a bar M 2893
up if i did M 2889
up in a set M 2789
up in a wet M 2719
up by a set M 2706
up as a bar M 2687
up to a one M 2642
up to a bit M 2459
up to a top M 2445
up by a team M 2416
up to a bar M 2391
up at a new M 2387
up in a bear M 2384
up by a lot M 2298
up on a day M 2294
up at a sky M 2283
up on a map M 2239
up in a log M 2217
up at a big M 2173
up at a man M 2146
up at a low M 2124
up as a kid M 2124
up in a job M 2059
up if i can M 2009
up as a real M 2001
up as a big M 1944
up on a log M 1941
up to a pre M 1932
up to a war M 1914
up to a six M 1846
up to a far M 1810
up of a mix M 1808
up if i was M 1801
up as a non M 1778
up to a ten M 1772
up as a one M 1766
up to a mean M 1763
up at a run M 1760
up of a real M 1746
up to a dead M 1711
up at a and M 1684
up at a few M 1667
up in a poem M 1637
up of a head M 1634
up on a seat M 1623
up of a two M 1595
up by a boy M 1563
up to a seat M 1548
up as a long M 1527
up of a sum M 1515
up on a bar M 1480
up as a set M 1466
up to a job M 1446
up to a bad M 1435
up in a top M 1400
up on a job M 1395
up to a net M 1361
up as a two M 1357
up of a non M 1346
up as a poet M 1345
up in a dog M 1300
up at a long M 1298
up to a near M 1272
up in a bow M 1272
up on a web M 1237
up to a boy M 1236
up of a big M 1223
up to a lie M 1218
up to a head M 1216
up on a lead M 1198
up on a bit M 1198
up as a son M 1190
up by a red M 1187
up by a dog M 1180
up as a red M 1180
up as a team M 1177
up of a war M 1174
up of a team M 1169
up at a red M 1169
up on a two M 1131
up as a key M 1126
up in a law M 1119
up to a god M 1105
up on a heap M 1100
up as a law M 1096
up in a pit M 1095
up as a war M 1082
up in a cup M 1055
up to a cut M 1047
up so i had M 1046
up by a low M 1045
up on a dry M 1037
up by a law M 1036
up as a low M 1031
up as a nun M 1024
up to a non M 1000
up as a dead M 994
up to a and M 990
up to a sky M 988
up on a dead M 987
up of a low M 987
up on a one M 976
up in a near M 976
up to a log M 947
up of a boy M 944
up by a non M 912
up by a real M 895
up is a new M 889
up on a red M 888
up of a web M 886
up to a dog M 883
up in a not M 874
up to a dry M 872
up of a one M 871
up to a max M 862
up so i was M 854
up by a two M 838
up as i sat M 830
up in a pre M 813
up of a and M 808
up so i did M 806
up on a year M 800
up as a meal M 800
up as i can M 767
up in a song M 765
up on a set M 759
up to a not M 758
up at a dead M 757
up at a set M 747
up on a real M 744
up is a way M 738
up by a bar M 729
up on a run M 717
up by a bear M 713
up as a dog M 707
up in a weak M 699
up of a dead M 695
up to a death M 690
up as i got M 690
up to a way M 686
up on a war M 685
up to a fit M 681
up at a mean M 680
up by a god M 670
up in a run M 664
up in a deal M 663
up to i year M 650
up as a bear M 642
up of a job M 636
up in a head M 630
up to a run M 628
up in a sad M 626
up is a lot M 624
up in a six M 619
up to a gap M 614
up to a box M 602
up in a seat M 583
up to a cup M 581
up on a bad M 575
up in a can M 573
up in a death M 572
up by a far M 569
up of a red M 565
up as a top M 564
up of a law M 562
up as i saw M 556
up or a new M 554
up by a key M 542
up is a bit M 531
up to a weak M 529
up of a die M 524
up by a bad M 524
up is a long M 523
up to a heat M 522
up by a cat M 515
up in a meat M 514
up in a ten M 512
up by a bit M 510
up in a cat M 506
up on a non M 502
up on a wet M 501
up in a dying M 501
up as i ran M 497
up by a one M 496
up as a net M 496
up to a map M 494
up on a fly M 492
up in a pet M 491
up as a pet M 487
up in a sky M 486
up in a god M 486
up in a lie M 481
up to a key M 477
up of a day M 470
up on a path M 465
up to a team M 460
up in a plea M 458
up to t and M 446
up to a due M 443
up as a bit M 443
up on a top M 441
up if i get M 439
up as a bag M 438
up to a kid M 433
up as a job M 433
up to a law M 432
up by a war M 432
up as i read M 431
up as a weak M 429
up to a pay M 423
up of a pro M 420
up is a real M 420
up at a far M 420
up in a mean M 418
up by a poet M 412
up to a sad M 410
up to a bag M 405
up by a weak M 404
up to d and M 401
up or a top M 401
up at a meal M 400
up as a plea M 400
up of a top M 394
up as a few M 391
up if i got M 390
up of a net M 387
up of a gap M 386
up to a bear M 385
up to a plea M 383
up of a six M 382
up at a job M 382
up at a bad M 382
up of a heap M 379
up of a pre M 378
up is a big M 377
up as a dry M 375
up as a cat M 371
up on a team M 368
up on a meat M 367
up in a boy M 362
up to a yet M 357
up by a year M 355
up as a web M 354
up by a dry M 352
up at a pre M 352
up as a fit M 349
up on a far M 347
up by a day M 347
up to a heap M 342
up of a key M 342
up in a dim M 342
up to a mad M 339
up as a head M 339
up in a lead M 338
up to a meal M 335
up of a way M 335
up as a sum M 334
up of a year M 332
up in a and M 330
up as a wit M 330
up on a six M 328
up is a key M 327
up on a kid M 326
up by a path M 326
up of a bar M 323
up in a bid M 321
up of a weak M 320
up to a wet M 317
up in a team M 316
up on a boy M 315
up of a box M 307
up to a path M 305
up at d and M 304
up by a leg M 301
up at a lot M 299
up in a beat M 298
up as a day M 297
up on a ten M 296
up as a not M 296
up as a lot M 295
up of a path M 294
up by a too M 294
up of a map M 292
up in a tow M 290
up in a heat M 285
up is a bad M 284
up of a bit M 283
up in a mid M 283
up in a bin M 283
up of a dog M 282
up by a heap M 280
up as a mad M 280
up at a boy M 276
up by a net M 274
up in a sun M 272
up to a dim M 271
up as a pre M 271
up to a cat M 270
up of a dying M 264
up at a two M 264
up it a few M 262
up in a key M 261
up by a near M 261
up to a deal M 260
up to i day M 259
up so i got M 258
up on a dog M 258
up in a pro M 258
up by a web M 258
up as a myth M 256
up by a six M 255
up in a myth M 254
up or i can M 251
up of a dry M 249
up by a poem M 248
up on a key M 247
up by a she M 244
up of a bad M 243
up as i lay M 240
up at a log M 239
up by a sun M 238
up as a near M 238
up to a poem M 237
up by a dead M 236
up or a long M 233
up as i put M 233
up the a and M 232
up by a song M 232
up as a sad M 232
up as a being M 232
up in a mix M 229
up as a year M 228
up as a heap M 228
up by a top M 227
up as i get M 227
up if i let M 226
up in a lay M 225
up as a toy M 225
up of a far M 224
up in a map M 223
up by a son M 223
up by a head M 221
up on a near M 220
up in a too M 218
up as a box M 217
up in a now M 215
up by a mad M 214
up to a song M 213
up in a men M 213
up in a fly M 210
up if a man M 210
up by a wet M 210
up as a pro M 210
up as a going M 207
up if i try M 204
up as a sin M 204
up as a gap M 204
up to a mid M 200
up by a pro M 200
up at a near M 198
up on a cat M 197
up in a gap M 197
up by a run M 196
up on a die M 195
up of a ten M 195
up if a new M 195
up as i see M 193
up on a bear M 192
up in a shy M 192
up by a and M 192
up as a six M 192
up on a deal M 188
up to i had M 186
up if i say M 186
up at a real M 183
up to a lead M 182
up by a rear M 182
up by a kid M 182
up to a sit M 181
up as a bug M 180
up in a rear M 178
up in a cry M 178
up or i was M 177
up to i can M 174
up in a path M 173
up by a fit M 173
up on a weak M 172
up by a plea M 172
up to a sun M 171
up on a bet M 170
up to a tow M 168
up on a pro M 168
up of a poet M 168
up of a lead M 168
up as a poem M 168
up of a mean M 167
up in a fear M 167
up as a song M 166
up to a fear M 165
up of a pay M 165
up in a cut M 164
up as a ten M 160
up to a rear M 159
up of a log M 159
up so i put M 158
up in a leap M 156
up at a day M 155
up on a pre M 154
up of a cup M 154
up by a log M 152
up to a pro M 150
up it a long M 148
up as a far M 148
up by a not M 146
up by a lead M 146
up at a six M 146
up in a saw M 145
up if i see M 145
up in a due M 144
up on a may M 143
up in a nun M 142
up to a fly M 141
up on a bag M 140
up to a web M 138
up to a beat M 138
up so i may M 138
up by a heat M 137
up at a bit M 137
up on a song M 136
up of a poem M 136
up at a top M 136
up as a lie M 136
up if i saw M 135
up if i hear M 135
up in a fix M 134
up as a sun M 134
up to i was M 133
up as i may M 133
up on a head M 132
up at a fly M 132
up as a wet M 132
up by a box M 131
up as i try M 131
up as a cry M 130
up in a toy M 128
up as a log M 128
up in a kid M 127
up if i may M 127
up as i hear M 127
up of a cut M 126
up as a lay M 126
up by a mid M 125
up to a being M 124
up on a pay M 124
up as i say M 124
up as a singing M 124
up by a pre M 123
up by a now M 123
up on a sun M 122
up on a cup M 122
up to a cry M 121
up of a cat M 121
up in a dip M 121
up as a seat M 121
up as a shy M 120
up of a not M 119
up by a cut M 119
up in a singing M 118
up to a dying M 117
up to a dear M 117
up is a man M 117
up if i put M 117
up or i had M 116
up at a mad M 116
up to a son M 115
up to a myth M 114
up in a win M 114
up in a old M 114
up by a yet M 112
up to s and M 111
up of a near M 110
up in a son M 109
up as a for M 109
up on a lie M 108
up on a and M 108
up in a may M 108
up by a ten M 108
up in a meal M 106
up as a dot M 106
up at a dim M 105
up as a fear M 105
up on a not M 104
up at a map M 104
up of a bag M 103
up to i and M 102
up at a team M 102
up of a son M 101
up as i set M 101
up to a win M 100
up is a far M 100
up as a map M 98
up by a dim M 96
up to i did M 94
up at a dog M 93
up in a bet M 92
up as a dip M 92
up as a path M 91
up is a old M 90
up on a pet M 89
up at a box M 89
up so i get M 88
up on a meal M 88
up on a going M 88
up in a dot M 88
up by a dying M 88
up as a bet M 88
up by a job M 87
up in a dear M 85
up at a pay M 85
up as a cup M 85
up of a plea M 82
up at a tag M 82
up if a few M 81
up on a bug M 80
up by a sad M 80
up of a run M 79
up is a two M 75
up to a too M 72
up to a bias M 72
up of a fly M 72
up or a few M 67
up of a sun M 65
up as a win M 62
up as a lead M 62
up to a now M 61
up of a wet M 60
up to a with M 57
up or a big M 56
up to a bin M 54
up to a bid M 54
up as a run M 54
up as a mean M 53
up or a bit M 52
up at a one M 52
up is a low M 51
up to a bow M 50
up of a meat M 50
up if i ask M 50
up at a sun M 50
up at a non M 50
up of a song M 49
up by a meat M 49
up is a one M 48
up by a sky M 48
up as a fly M 48
up on a net M 47
up of a com M 47
up in a for M 47
up of a now M 46
up of a heat M 46
up by a fly M 46
up at a ten M 46
up of a saw M 45
up is a job M 45
up by a tow M 45
up by a mean M 45
up to a toy M 44
up is a set M 44
up to a then M 43
up of a too M 43
up of a dot M 43
up is a dead M 43
up of a seat M 42
up of a meal M 42
up in a pay M 42
up as a mix M 42
up to a dip M 41
up to a can M 41
up on a leg M 41
up of i and M 41
up by a nun M 41
up at a web M 41
up as a dying M 41
up on a rear M 40
up at a weak M 40
up in a row D 37756
up in a bun D 13382
up in a car D 13076
up in a neat D 12284
up to a peak D 11787
up in a hot D 5917
up in a bed D 4870
up to a ton D 3874
up in a rag D 3728
up in a thin D 3656
up on a bed D 3469
up in a cab D 3179
up in a hut D 3068
up in a rug D 3003
up in a leaf D 2906
up by a gang D 2824
up of a thin D 2620
up by a mob D 2424
up in a mat D 2420
up in a swing D 2146
up on a hot D 2137
up on a peg D 2122
up to a car D 2117
up in a tin D 2105
up in a pan D 2084
up by a car D 1947
up in a riot D 1917
up in a van D 1887
up to a beam D 1763
up to a guy D 1755
up in a fur D 1716
up in a sling D 1697
up in a pen D 1682
up to a gas D 1638
up of a row D 1625
up in a pot D 1587
up to a row D 1514
up in a gay D 1500
up in a pub D 1496
up in a hug D 1462
up in a jar D 1344
up in a hat D 1317
up by a row D 1304
up as a spy D 1300
up at a gas D 1282
up on a mat D 1279
up in a tie D 1274
up as a bed D 1256
up to a cap D 1254
up by a thin D 1254
up on a bus D 1241
up in a bus D 1084
up to a hut D 1060
up on a car D 1051
up to a bed D 990
up to a thin D 988
up to a neat D 988
up in a tub D 979
up in a dingy D 953
up in a mud D 946
up in a wry D 924
up in a pie D 893
up to a hot D 887
up of a gas D 883
up in a fog D 880
up in a gas D 868
up in a gang D 848
up at a bus D 846
up on a cot D 839
up in a bath D 836
up in a mob D 834
up on a guy D 828
up in a zoo D 819
up on a beam D 813
up in a jet D 804
up in a den D 801
up to a par D 786
up by a hot D 742
up on a rug D 734
up in a lab D 723
up at a flea D 721
up to a gun D 719
up by a tax D 718
up by a ray D 712
up in a cow D 700
up by a dam D 687
up by a guy D 675
up in a wad D 667
up as a lion D 665
up of a sub D 651
up by a sub D 630
up on a tip D 616
up in a raw D 616
up at a row D 616
up to a lion D 574
up to a cow D 562
up in a nut D 558
up in a shoe D 557
up as a peak D 553
up as a thin D 552
up as a sub D 544
up in a fan D 542
up on a thin D 537
up in a jam D 530
up of a car D 520
up on a par D 519
up by a gas D 509
up in a bay D 508
up at a neat D 506
up by a cow D 505
up as a liar D 500
up as a car D 495
up as a tax D 492
up in a gun D 490
up in a peak D 488
up in a bog D 481
up in a sex D 476
up as a hot D 476
up by a bus D 471
up in a tug D 468
up to a cop D 466
up on a per D 465
up in a cap D 458
up in a tax D 455
up in a tux D 452
up on a peak D 449
up at a pub D 437
up in a fat D 415
up by a cop D 415
up in a hay D 406
up to a fat D 405
up to i per D 400
up in a cue D 398
up in a rat D 393
up to a bus D 391
up on a mud D 390
up on a hinge D 389
up in a lion D 383
up in a pig D 375
up in a jug D 374
up by a bed D 363
up of a beam D 359
up to a mob D 358
up on a row D 357
up on a leaf D 355
up in a pow D 351
up by a lion D 348
up as a sex D 347
up to a lag D 346
up in a cot D 346
up by a tug D 346
up on a tax D 340
up to a jog D 328
up in a wig D 328
up as a fad D 328
up on a gun D 325
up as a lad D 322
up to a tax D 320
up by a beam D 310
up on a lee D 309
up as a gay D 309
up as a bath D 306
up by a jet D 305
up of a fog D 304
up by a hen D 300
up by a sling D 293
up by a neat D 289
up on a pin D 284
up by a fat D 283
up in a vial D 279
up by a gun D 279
up to a gang D 278
up to a fig D 278
up in a deaf D 276
up of a pan D 274
up of a gang D 273
up as a cop D 273
up in a sly D 272
up by a nut D 272
up to a per D 268
up of a hot D 266
up as a fat D 265
up to a ringing D 260
up in a beam D 260
up in a rut D 255
up as a bum D 254
up on a cow D 252
up at a gig D 252
up in a flea D 250
up at a gay D 249
up to a hay D 246
up in a sub D 246
up in a fir D 246
up on a rod D 239
up of a bed D 236
up in a sty D 235
up by a van D 234
up in a con D 232
up on a swing D 230
up by a trio D 230
up by a fan D 230
up in a gig D 227
up to a pew D 226
up at a gym D 224
up of a gun D 222
up by a fox D 222
up to a riot D 220
up of a lion D 220
up at a car D 217
up as a fan D 217
up by a pin D 216
up of a raw D 214
up by a rod D 214
up as a guy D 212
up to a seal D 211
up on a tin D 210
up in a vat D 210
up as a gas D 210
up to a cub D 204
up of a jet D 201
up of a tax D 198
up in a hen D 198
up on a pad D 197
up in a sting D 196
up of a pin D 195
up on a bay D 194
up in a tan D 194
up on a floe D 192
up in a pew D 192
up on a pew D 191
up on a pop D 190
up in a sod D 188
up in a jig D 186
up in a ski D 185
up as a cow D 183
up as a cap D 183
up to a peg D 177
up to a leaf D 177
up by a gay D 177
up as a bat D 175
up on a fat D 174
up as a pow D 174
up to a hen D 173
up in a rod D 173
up by a cab D 173
up at a thin D 173
up of a dam D 172
up in a dug D 172
up as a rod D 168
up on a tee D 167
up in a lap D 167
up as a raw D 167
up at a hut D 164
up as a pig D 161
up in a cop D 160
up on a pig D 159
up in a fad D 158
up of a cow D 157
up as a leaf D 157
up as a row D 156
up of a gel D 155
up in a wee D 155
up as a jet D 155
up to a bay D 154
up by a thong D 154
up in a guy D 152
up in a trio D 150
up in a lean D 150
up of a fat D 149
up in a pug D 147
up in a gym D 146
up to a fox D 145
up to a floe D 145
up on a seal D 145
up as a hit D 145
up to a tee D 144
up in a fox D 144
up as a pot D 144
up of a ray D 142
up by a tie D 140
up in a fun D 139
up to a dingy D 138
up on a hog D 138
up as a shoe D 138
up to a mud D 136
up as a hay D 133
up by a cam D 132
up as a fox D 132
up as a gang D 130
up on a lab D 129
up to a gay D 128
up on a neat D 128
up in a spy D 128
up in a hit D 127
up of a bus D 126
up as a ken D 126
up of a rod D 124
up by a leaf D 124
up to a raw D 123
up on a hay D 123
up of a pig D 123
up of a mat D 123
up on a cue D 122
up as a fur D 120
up in a pad D 119
up to a fan D 118
up in a sac D 117
up in a bob D 117
up as a beau D 115
up at a guy D 114
up of a shoe D 113
up by a pig D 113
up as a neat D 112
up to a pub D 111
up of a cap D 111
up as a sop D 111
up as a gag D 111
up in a keg D 110
up in a gin D 110
up on a lap D 108
up by a tap D 108
up as a deaf D 108
up as a bus D 108
up to a cab D 107
up on a gas D 107
up as i hit D 107
up as a den D 107
up on a ski D 106
up on a hat D 106
up by a shoe D 106
up on a tub D 105
up by a peg D 105
up on a shoe D 104
up in a dam D 104
up by a bath D 104
up at a dingy D 104
up in a fig D 103
up in a rig D 102
up in a hog D 102
up as a dam D 102
up on a hit D 101
up in a ton D 101
up of a moth D 100
up in a peat D 100
up as a cue D 100
up to a gig D 99
up on a heath D 96
up in a bee D 96
up on a raw D 94
up in a seal D 94
up as a beam D 94
up by a rat D 93
up on a keg D 90
up as a mob D 90
up in a rum D 88
up as a trio D 88
up as a nut D 88
up of a mob D 86
up in a seam D 84
up of a leaf D 82
up in a hap D 82
up at a hot D 82
up as a duo D 82
up on a cop D 80
up as a rug D 80
up to a pin D 77
up to a tie D 75
up to a sub D 75
up to a bath D 74
up to a fun D 71
up to a rod D 68
up to a tin D 62
up to a ski D 62
up to a hit D 61
up of a bee D 61
up as a gun D 61
up by a thug D 60
up to a dam D 59
up of a gay D 57
up as a pop D 57
up to a fee D 56
up to a pot D 55
up to a pig D 55
up in a pear D 55
up by a riot D 54
up on a sub D 53
up in a bean D 53
up at a jog D 53
up to a jet D 52
up in a pop D 52
up to a lean D 51
up on a rung D 51
up of a hat D 51
up to a con D 49
up of a dial D 49
up in a pin D 48
up by a mud D 48
up to a van D 47
up to a tip D 47
up to a rim D 47
up of a pot D 45
up to a trio D 44
up as a fun D 44
up in a ray D 43
up in a pod D 43
up at a bed D 43
up as a bun D 43
up to a swing D 42
up to a pen D 42
up to a gal D 42
up on a lion D 42
up of a trio D 42
up at a ski D 42
up at a mud D 42
up to a tap D 41
up on a pap D 41
up of a tin D 41
up in a gum D 41
up by a ham D 41
up of a rim D 40
up at a gun D 40
