upon pain of death M 32790
upon whom he had M 22586
upon what he had M 18996
upon some of his M 15708
upon some of them M 15034
upon what he has M 12917
upon whom it was M 11568
upon hearing of this M 9762
upon whom he was M 8313
upon those of his M 7752
upon what we are M 7512
upon pain of being M 7511
upon hearing of his M 7496
upon some of our M 7422
upon what he was M 6628
upon whom he has M 6459
upon some of its M 6098
upon taking the oath M 6057
upon such as are M 5512
upon many of them M 5430
upon whom he can M 5051
upon what is now M 5029
upon none of them M 4296
upon what is being M 4280
upon many of his M 3796
upon coming of age M 3627
upon what we can M 3578
upon most of them M 3496
upon whom the lot M 3416
upon what we mean M 3390
upon whom we can M 3332
upon what he saw M 3326
upon what we may M 3302
upon many of our M 3276
upon whom it has M 3098
upon what it was M 2959
upon whom we are M 2880
upon what he can M 2699
upon those of our M 2662
upon what is not M 2586
upon hearing of her M 2542
upon whom the law M 2510
upon pain of his M 2488
upon what he does M 2436
upon whom it had M 2416
upon what do you M 2358
upon what it has M 2336
upon some or all M 2326
upon taking up his M 2218
upon some of her M 2216
upon what is going M 2176
upon such an one M 2021
upon what he did M 1986
upon what we see M 1978
upon taking an oath M 1945
upon such as had M 1932
upon many of its M 1888
upon such an act M 1862
upon pain of our M 1738
upon such of his M 1723
upon whom the sun M 1706
upon those of its M 1682
upon five or six M 1606
upon those of her M 1602
upon when he was M 1582
upon coming to this M 1570
upon what we had M 1480
upon what we now M 1430
upon those of any M 1424
upon whom he may M 1390
upon when he had M 1374
upon most of his M 1360
upon such of them M 1354
upon here is that M 1327
upon whom the end M 1322
upon faith in god M 1318
upon when it was M 1286
upon coming up with M 1282
upon nothing at all M 1278
upon peace or war M 1274
upon whom we had M 1265
upon what he may M 1240
upon whom we may M 1232
upon what is this M 1196
upon what do they M 1184
upon most of our M 1116
upon whom the new M 1101
upon what it does M 1100
upon what it can M 1072
upon such an idea M 1059
upon whom it may M 1006
upon whom it can M 1004
upon what he read M 970
upon hearing of our M 942
upon such as they M 904
upon during the war M 889
upon those of all M 874
upon whom the dead M 870
upon what is and M 844
upon such as may M 842
upon what the law M 841
upon what we read M 815
upon during the day M 803
upon taking my seat M 786
upon seeing the man M 769
upon seeing the two M 768
upon trial it was M 750
upon part of his M 706
upon some of this M 702
upon what it had M 692
upon these or any M 684
upon time of day M 682
upon what we say M 672
upon from the rear M 669
upon some of you M 668
upon three of his M 664
upon what it may M 658
upon those of them M 630
upon good or bad M 622
upon three of them M 612
upon whom he now M 611
upon pain of one M 598
upon seeing the new M 578
upon what is for M 570
upon those he had M 568
upon many of her M 560
upon hearing the sad M 559
upon hearing the cry M 558
upon what to him M 552
upon none at all M 552
upon giving up his M 550
upon life in this M 537
upon whom he did M 533
upon whom the old M 530
upon coming to his M 524
upon paying the sum M 518
upon when we are M 516
upon what he and M 512
upon faith in his M 510
upon taking it off M 506
upon many of you M 506
upon those in his M 504
upon during the year M 501
upon moving to new M 494
upon mixing the two M 494
upon seeing the boy M 486
upon much of his M 480
upon what is real M 475
upon whom to fix M 470
upon whom he and M 462
upon three of our M 462
upon most of its M 460
upon what is read M 456
upon hearing the song M 452
upon their so doing M 450
upon whom do you M 448
upon three of its M 448
upon whom no one M 443
upon whom be god M 441
upon life in its M 440
upon love to god M 436
upon whom the eye M 434
upon life on earth M 432
upon giving to his M 430
upon whom to lay M 424
upon part of this M 424
upon life in all M 420
upon whom the act M 419
upon such as you M 418
upon some of that M 418
upon whom to try M 416
upon what we hear M 416
upon what he now M 416
upon such of our M 408
upon coming to new M 406
upon hearing of its M 402
upon hearing he was M 396
upon work of this M 394
upon faith in him M 389
upon those of you M 382
upon whom the death M 378
upon seeing it for M 378
upon such of its M 370
upon such as can M 370
upon pain of her M 364
upon whom the war M 363
upon what we did M 358
upon during the long M 357
upon what is due M 354
upon whom we all M 350
upon land he has M 350
upon whom the real M 346
upon whom he hath M 346
upon love of god M 346
upon what we bring M 344
upon rule of law M 340
upon hearing the old M 340
upon when he has M 337
upon what the man M 336
upon time of year M 336
upon much of this M 336
upon threat of death M 335
upon pain of two M 334
upon life or death M 331
upon what the new M 330
upon those of that M 329
upon what is put M 328
upon taking the job M 328
upon much of our M 324
upon making up for M 324
upon their king and M 320
upon such as did M 320
upon none of his M 320
upon part of its M 313
upon along the way M 313
upon hearing the bad M 310
upon mile of them M 308
upon trying to get M 304
upon those of this M 302
upon seeing me she M 302
upon fact on you M 302
upon these it was M 300
upon from the top M 297
upon reading of this M 292
upon pain of god M 292
upon seeing the dead M 289
upon such of her M 286
upon what is new M 282
upon what he hath M 282
upon those he has M 282
upon what the men M 278
upon what is yet M 278
upon ways of doing M 276
upon pain of ten M 274
upon what the poet M 270
upon those in our M 268
upon hearing the man M 265
upon reading the poem M 264
upon whom the two M 263
upon whom the idea M 260
upon peace at any M 260
upon hearing the death M 260
upon whom the poet M 258
upon taking up its M 256
upon were it not M 254
upon trial he was M 254
upon poor us with M 254
upon most of her M 254
upon line of them M 254
upon what to say M 252
upon hearing it was M 252
upon trying to see M 250
upon life in that M 250
upon taking it out M 249
upon four of them M 248
upon only so far M 242
upon what the old M 240
upon such as was M 240
upon seeing the old M 240
upon seeing me and M 240
upon coming to see M 240
upon during the two M 239
upon part of that M 236
upon what is our M 234
upon these we can M 234
upon only as one M 231
upon those of men M 230
upon land is not M 230
upon whom we set M 228
upon what we saw M 228
upon trial the one M 228
upon making of one M 228
upon truth in his M 226
upon trial of this M 226
upon here is not M 224
upon having my own M 224
upon part of our M 223
upon waking up and M 222
upon those he was M 222
upon seeing it was M 222
upon hearing it read M 222
upon asking my old M 222
upon such an area M 220
upon trial of any M 216
upon those in use M 216
upon part or all M 216
upon life is that M 215
upon what to them M 214
upon taking up this M 214
upon taking to his M 214
upon what is his M 212
upon those in this M 212
upon seeing the red M 212
upon these in any M 208
upon such as lie M 208
upon some as yet M 208
upon living or dead M 208
upon five of them M 206
upon those of new M 204
upon view of any M 202
upon life as one M 201
upon what we all M 200
upon seeing the men M 200
upon pain of going M 200
upon what is thus M 198
upon whom at this M 196
upon what is one M 196
upon reading it was M 196
upon work of any M 194
upon only if they M 194
upon evil at all M 194
upon acts of this M 194
upon will be that M 192
upon reading it that M 191
upon these he put M 190
upon these as they M 190
upon part of them M 190
upon pain to pay M 190
upon what is god M 188
upon faith in man M 188
upon during the six M 187
upon nine or ten M 186
upon more of his M 186
upon whom he set M 184
upon those of one M 182
upon these as his M 182
upon what the eye M 180
upon much of its M 180
upon life is not M 180
upon hearing it for M 180
upon faith in our M 180
upon whom to heap M 178
upon whom the long M 178
upon most or all M 178
upon hearing of both M 178
upon what we put M 176
upon many in our M 176
upon living in his M 176
upon high or low M 176
upon crying to god M 176
upon whom the day M 175
upon taking up her M 174
upon faith in its M 172
upon only the two M 170
upon faith of this M 170
upon these he had M 168
upon pain of not M 168
upon only as they M 168
upon making up his M 168
upon hearing of any M 168
upon whom he put M 166
upon trial he has M 166
upon those of old M 166
upon hearing of that M 166
upon even by his M 166
upon coming to our M 166
upon such an end M 165
upon these as being M 164
upon giving up her M 164
upon giving up all M 164
upon seeing an old M 162
upon none of our M 162
upon many in that M 162
upon life as they M 162
upon hearing the new M 162
upon asking to hear M 162
upon what the two M 160
upon such an old M 160
upon such an earth M 160
upon life at all M 160
upon hope of not M 160
upon having the key M 159
upon hearing he had M 158
upon just the one M 157
upon most of all M 156
upon four of his M 156
upon faith in this M 156
upon here at any M 152
upon data of this M 152
upon what is near M 151
upon what we get M 150
upon what it saw M 150
upon when the going M 148
upon these in his M 148
upon these he was M 148
upon their or his M 148
upon only so long M 148
upon faith as its M 148
upon what in his M 146
upon only by its M 146
upon what is but M 145
upon four or six M 145
upon these the red M 143
upon whom the ill M 142
upon what we and M 142
upon reading the two M 142
upon love in all M 142
upon ending the war M 142
upon whom at that M 140
upon what in this M 140
upon these is not M 140
upon just as they M 140
upon hearing it that M 140
upon fact or not M 140
upon even if they M 140
upon those of low M 138
upon those as his M 138
upon life as being M 138
upon leading the way M 138
upon whom we now M 137
upon such or any M 136
upon much as they M 136
upon here is one M 136
upon whom no man M 134
upon when the cup M 134
upon what in our M 134
upon truth in any M 134
upon those we had M 134
upon prior to any M 134
upon part of her M 134
upon whom in his M 132
upon those of two M 132
upon what is doing M 130
upon those on his M 130
upon page of his M 130
upon most if not M 130
upon life as she M 130
upon land of his M 130
upon adding to his M 130
upon prior to his M 128
upon land of this M 128
upon here is this M 128
upon having of things M 128
upon those of earth M 127
upon truth in its M 126
upon time in his M 126
upon such as this M 126
upon from the day M 126
upon faith in that M 126
upon during the heat M 126
upon whom no real M 124
upon what we ask M 124
upon what he then M 124
upon such of you M 124
upon such as she M 124
upon none of its M 124
upon having it for M 124
upon pain of six M 123
upon whom the earth M 122
upon whom it does M 122
upon what to put M 122
upon what the earth M 122
upon what it did M 122
upon those it was M 122
upon other of his M 122
upon moving the head M 122
upon many an old M 122
upon hearing the one M 122
upon hearing me say M 122
upon even in our M 122
upon these as things M 120
upon reading it and M 120
upon land in this M 120
upon land in that M 120
upon life in his M 118
upon hearing of them M 118
upon hearing it and M 118
upon whom it did M 116
upon seeing if his M 116
upon reading at this M 116
upon love as his M 116
upon what we owe M 114
upon what is old M 114
upon what he got M 114
upon trial by any M 114
upon here as they M 114
upon faith in one M 114
upon what the real M 112
upon what he eats M 112
upon seeing the way M 112
upon early in this M 112
upon when the two M 110
upon what in him M 110
upon taking the old M 110
upon making it his M 110
upon hour he lay M 110
upon those on earth M 108
upon from the air M 108
upon acting as his M 108
upon seeing us and M 107
upon when the new M 106
upon what the boy M 106
upon truth as its M 106
upon making the new M 106
upon land in any M 106
upon land by way M 106
upon having it both M 106
upon will be all M 104
upon those of god M 104
upon only in its M 104
upon nothing in this M 104
upon much of that M 104
upon making the law M 104
upon land in his M 104
upon giving me his M 104
upon whom he then M 102
upon what do all M 102
upon these in all M 102
upon seeing me was M 102
upon life as you M 102
upon land in its M 102
upon during the pre M 102
upon till it was M 101
upon taking the lead M 101
upon when we say M 100
upon what it all M 100
upon what is set M 100
upon threat of war M 100
upon those in its M 100
upon boys or men M 100
upon adding to this M 100
upon whom my all M 99
upon must be one M 99
upon land at all M 99
upon years of his M 98
upon whom to hang M 98
upon whom the man M 98
upon whom it all M 98
upon when we die M 98
upon what it now M 98
upon what is far M 98
upon these he has M 98
upon ideas he had M 98
upon hope of his M 98
upon having it all M 98
upon duty in his M 98
upon whom the use M 97
upon whom the son M 96
upon whom it hath M 96
upon when we can M 96
upon what is too M 96
upon these at all M 96
upon taking the new M 96
upon taking me with M 96
upon prior to its M 96
upon most of this M 96
upon line of men M 96
upon taking up one M 95
upon whom he saw M 94
upon trial is not M 94
upon these we may M 94
upon these if they M 94
upon such an ill M 94
upon life at that M 94
upon early in his M 94
upon break of day M 94
upon what at that M 92
upon trial of six M 92
upon those we are M 92
upon these as two M 92
upon seeing the head M 92
upon seeing me for M 92
upon reading the new M 92
upon reading of them M 92
upon only to pay M 92
upon here to say M 92
upon call of its M 92
upon five or ten M 91
upon whom the dying M 90
upon whom he does M 90
upon when the war M 90
upon what the act M 90
upon what is low M 90
upon upon the death M 90
upon such an out M 90
upon seeing the dog M 90
upon only by way M 90
upon mixing of two M 90
upon mixing it with M 90
upon many or all M 90
upon living in this M 90
upon hearing of all M 90
upon coming to her M 90
upon came up for M 90
upon whom the god M 88
upon trying to bring M 88
upon paying up all M 88
upon only as long M 88
upon love in its M 88
upon here by way M 88
upon having in this M 88
upon from the box M 88
upon five of his M 88
upon faith in and M 88
upon depth of her M 88
upon whom to put M 86
upon whom the boy M 86
upon whom it now M 86
upon when it has M 86
upon what the day M 86
upon these in this M 86
upon these in her M 86
upon such an aim M 86
upon seeing me with M 86
upon only by one M 86
upon making an end M 86
upon life in our M 86
upon life as too M 86
upon only the one M 85
upon when he set M 84
upon what is its M 84
upon those of both M 84
upon seeing the long M 84
upon moving the arm M 84
upon many if not M 84
upon life in new M 84
upon here in this M 84
upon having the old M 84
upon will be our M 82
upon whom the fear M 82
upon view of his M 82
upon till he saw M 82
upon their foe and M 82
upon such an age M 82
upon life on this M 82
upon land to bring M 82
upon half of his M 82
upon seeing it that M 81
upon whom is this M 80
upon whom he thus M 80
upon view of all M 80
upon these the new M 80
upon such in this M 80
upon over the long M 80
upon none of you M 80
upon mark so long M 80
upon come in its M 80
upon love of one M 59
upon taking me out M 51
upon some thing that M 47
upon when the sun M 44
upon seeing no one M 44
upon such as die M 43
upon seeing the sun M 41
upon having the two M 41
upon what is that M 40
upon from the east M 40
upon whom the tax D 1555
upon news of this D 712
upon whom to lean D 693
upon news of his D 586
upon deck to see D 508
upon filing of any D 490
upon heating in air D 462
upon rank of them D 458
upon heaps of dead D 426
upon rows of them D 384
upon wave of them D 380
upon taking the oar D 354
upon wave of new D 350
upon leaving the bath D 348
upon paying the fee D 328
upon deck in his D 306
upon rows of men D 280
upon deck at all D 270
upon your ear with D 267
upon land the art D 258
upon tier of them D 250
upon mirth as too D 240
upon gold to one D 231
upon what the bat D 226
upon leaving the car D 226
upon sale of his D 224
upon sale of real D 222
upon leaving the old D 218
upon mats to dry D 203
upon leaving the ark D 201
upon leaving the bar D 188
upon bread or meat D 180
upon rest in bed D 172
upon gold as one D 170
upon leaving the area D 169
upon whom to pin D 164
upon such as thou D 161
upon deck or being D 158
upon leaving the earth D 157
upon bringing the two D 156
upon those he met D 152
upon race or sex D 152
upon whom the seal D 146
upon snow or ice D 146
upon mine ear with D 146
upon deck in all D 146
upon leaving the egg D 144
upon what it fed D 142
upon wave of men D 142
upon fold of dingy D 142
upon beds of yew D 134
upon laws of this D 132
upon sale of its D 126
upon sale of all D 124
upon leaving to his D 124
upon filing the tax D 124
upon heaving the lead D 122
upon lamb as one D 120
upon cone of new D 118
upon sale of any D 114
upon rows of dead D 114
upon leaving the gun D 114
upon hearing the fan D 114
upon leaving the two D 112
upon deck as any D 108
upon your ear and D 106
upon filing in that D 106
upon bond to one D 106
upon news of her D 104
upon bail on both D 104
upon rank of men D 102
upon bringing the war D 102
upon those of sir D 100
upon lips as real D 100
upon moss of ash D 96
upon sand or mud D 94
upon rose if she D 94
upon hearing the gun D 92
upon reading the earl D 90
upon sale of that D 88
upon leaving the die D 85
upon rising to let D 82
upon leaving the job D 82
upon deck in that D 82
upon rising in his D 80
upon leaving it for D 80
upon deck to put D 80
upon whom we lean D 52
upon vote of two D 47
