upheld the use of M 12168
upward as far as M 7959
upward so that the M 7748
upheld the idea of M 3826
uphold the law of M 3802
uphold the idea of M 3163
upward so that it M 3128
upheld so long as M 2194
upheld as long as M 2033
upheld by all the M 1852
uphold the use of M 1547
upheld the law in M 1454
uphold the law in M 1444
uptake is due to M 1322
upheld by both the M 1164
upheld the law as M 1156
upheld the ban on M 1136
upward to see the M 1107
uphold the law as M 1075
upheld in all the M 1000
upheld an act of M 980
uptake of lead by M 940
update it with the M 939
upheld the act as M 915
update the set of M 909
upward so that he M 808
upheld the law of M 780
upheld the law on M 690
upheld the act in M 670
upward to see if M 607
upheld the act of M 572
upward as long as M 562
upward to near the M 554
uphold the law by M 550
uphold the ban on M 524
upward to end in M 517
upheld as one of M 508
uphold the myth of M 469
update on how the M 448
uptake in both the M 439
upward by way of M 435
update of all the M 416
uphold it and to M 386
update it for the M 386
upheld so far as M 365
uphold my end of M 362
uphold the act of M 358
uptake of all the M 355
upheld by one of M 354
uphold the law or M 344
upheld the plea of M 332
update on all the M 308
uphold the law to M 304
upward to bring the M 301
upward on top of M 299
upheld in being by M 296
upheld by men of M 290
uphold the law on M 279
upheld the law by M 278
upheld as far as M 278
upward to god in M 277
upheld in both the M 260
update by using the M 260
upward to one of M 256
uphold the law at M 256
upward to try to M 254
update of one of M 254
upward to get the M 251
uproot the idea of M 247
uptake is one of M 241
uphold as far as M 234
upward in all the M 232
uptake of lead in M 226
uptake is not the M 222
upheld by him in M 222
upheld by all of M 222
uptake of one or M 220
uphold the way of M 215
uphold the law is M 214
update to one of M 207
upheld by two of M 206
uptake of both the M 202
upheld is that the M 202
upward so far as M 196
upheld is that of M 196
upheld in this by M 196
update so that the M 196
uptake of each of M 194
upheld is now to M 192
update or not to M 192
upward to end at M 190
upward in one of M 189
upward to that of M 181
upheld as being in M 180
update to all the M 180
uptake of heat by M 178
uptake so that the M 177
upward so that by M 176
upward he saw the M 176
update the team on M 176
update or add to M 175
upheld my end of M 174
uphold it for the M 166
upheld by them in M 164
update on one of M 164
uphold the law if M 163
update the law of M 162
uptake is low in M 160
upheld the act on M 160
upheld the myth of M 158
upheld as not in M 158
upward to cup the M 156
uptake of any of M 156
uphold the arm of M 156
upward to aid in M 152
upward so long as M 152
update is that the M 152
update it using the M 151
upward at one of M 150
uptake is not as M 148
upward so that we M 146
uptake of one of M 146
update the path to M 144
upward is due to M 142
uphold an act of M 142
upward to let the M 140
upward to see it M 138
upward on one or M 138
uphold it with the M 138
upheld by that of M 138
update the law to M 136
upward on wings of M 132
uptake is that the M 132
update so that it M 131
upward to top of M 130
upward so that in M 130
upheld in that it M 130
upward to god as M 128
upward in both the M 126
upheld the act by M 126
upheld by law or M 126
uptake by both the M 124
upheld by one or M 124
upward by using the M 122
upward as you go M 122
upward to act as M 121
upheld by him as M 121
upward as they go M 120
upheld the ban in M 120
uptake is not an M 118
uptake in all the M 118
upheld in doing so M 118
uptake to that of M 117
upheld by them as M 117
upward to him as M 116
uphold the law so M 115
upward it may be M 113
upheld it and the M 112
upheld by law in M 110
uptake in one or M 109
upward to all the M 108
upward is one of M 108
uptake by man of M 108
uphold it and the M 108
update of both the M 108
uphold in war the M 107
uptake is low or M 106
upheld in all of M 106
upward in awe at M 104
upward as does the M 104
uphold an act by M 104
upheld it with an M 104
upheld in one of M 104
uptake or use of M 103
upward to fit the M 102
upward of ten or M 102
upward in each of M 102
update the law in M 102
update on each of M 102
update it and to M 102
upheld the arm of M 98
update to all of M 97
upward to set the M 96
uphold the oath of M 96
update to see if M 95
upward by one or M 94
upward as they do M 94
uphold the plea of M 94
upheld in that the M 94
upheld by men in M 94
uphold the set of M 92
upheld by fear of M 92
uptake in all of M 90
upheld so that the M 90
upheld by god in M 90
update on his or M 90
update on all of M 90
upward to read the M 88
upward so that no M 88
uptake of all of M 86
uphold no man in M 86
upward is that of M 84
uphold the act as M 84
upheld by god or M 84
uphold is that the M 80
upheld the use by M 80
upheld if they do M 80
update the law on M 80
uptake as long as M 50
update to get the M 48
upheld the ban as M 42
upward as you do M 41
upshot is that the D 18512
upshot of this is D 14038
uphold me with thy D 4296
upshot is that we D 3723
upshot of all of D 2971
upshot is that if D 1915
upshot of all the D 1908
upshot is that in D 1824
uprising of all the D 1822
upshot is that it D 1597
uptake of ions by D 1548
upshot is that he D 1080
upside is that the D 985
upside of this is D 729
upkeep of all the D 695
upshot of all is D 676
upshot is that no D 603
upside is that it D 509
updating of all the D 476
upshot is that an D 422
upside to this is D 387
updating the set of D 352
uplift of all the D 346
uplift the lot of D 323
uphill to get to D 306
uptake of dye by D 299
upshot of all my D 296
uptake of urea by D 288
upside the head to D 287
updating it with the D 280
uptown to see the D 277
upshot is that by D 268
uprising in one of D 264
upside the head if D 262
uphill as far as D 252
upside the head by D 250
uptake of gas by D 244
uptake of ions in D 242
uprising in all the D 238
upshot is that as D 236
uptown as far as D 232
uptake of ions is D 232
upside is that we D 228
uphold us with thy D 227
upshot is that at D 226
uplift is due to D 225
upshot is that to D 220
upheld the tax on D 216
update the row in D 215
uptake of this ion D 211
uplift is one of D 203
updating of both the D 198
uprising is one of D 196
upside is that if D 194
upshot of that is D 194
upshot is that my D 194
upside the head or D 187
upheld the tax as D 185
upside to all of D 180
upshot is that on D 178
uprising as that of D 178
upshot of them is D 176
uproar in all the D 176
upsets the idea of D 175
uprising of one of D 172
uplift of both the D 172
updating it for the D 164
upbringing as one of D 162
upkeep of one or D 160
uproar of all the D 156
upland is not in D 156
upkeep of both the D 156
upbringing in one of D 154
uptake of fat by D 140
uplift is not the D 139
uproar of one of D 136
uphill to see the D 136
upside the head in D 135
uproar is owing to D 134
upkeep of one of D 134
upbringing of his or D 128
upside the head as D 126
update to row in D 126
upsets me that he D 122
upbringing is one of D 122
upward to hit the D 120
uprising as one of D 120
upbringing is that it D 118
updating of one of D 116
uproar in both the D 112
uphill so that the D 112
upshot of one of D 110
upbringing of all the D 110
uphill to one of D 108
upbringing to that of D 108
upshot is not to D 106
uproar is going on D 105
upkeep of each of D 104
upheld the tax in D 104
uplift the man of D 103
uplift so that the D 103
updating so that the D 100
updating is one of D 100
uproar by way of D 92
uprising to that of D 92
updating the law to D 92
upside of that is D 90
upshot so far is D 90
uprising is that it D 90
upland as far as D 89
uprising in may of D 86
uptake of gas is D 84
updating of all of D 84
upsets me that the D 82
uphill to see it D 82
updating is that it D 82
upbringing as that of D 82
uphold the art of D 81
upside the head of D 80
uprising is that the D 80
uptown to get the D 72
upwind so that the D 71
uptown to see my D 63
uptown to one of D 57
upside the head so D 48
upbringing as far as D 45
upturn in both the D 42
uptown or out of D 41
uptown by way of D 41
upbringing is not the D 41
