upload a file to M 1519
update a list of M 904
uphold a code of M 328
uphold a theory of M 272
uphold a view of M 266
upload a copy of M 248
upheld a theory of M 246
upheld a form of M 214
update a copy of M 202
uphold a kind of M 198
upheld a view of M 194
uphold a form of M 168
uproot a tree or M 159
upheld a rule of M 150
update a file at M 150
update a file of M 146
update a file on M 132
update a file in M 129
upload a file or M 124
upheld a kind of M 120
uphold a rule of M 116
upheld a gift of M 104
upload a list of M 103
upheld a fine of M 102
upward a part of M 96
update a part of M 91
update a file or M 90
upheld a ruling by D 524
updating a list of D 358
upheld a ruling of D 258
upward a foot or D 174
updating a file of D 110
upheld a ruling in D 96
uphold a soul in D 92
upheld a suit by D 90
upheld a writ of D 88
