else said anything . M 2116
else ever could . M 1832
else ever again . M 1722
else will either . M 1580
else made sense . M 1578
else knew about . M 1534
else ever since . M 854
else worth while . M 716
else will serve . M 624
else will change . M 560
else last night . M 520
else came close . M 498
else were speaking . M 460
else will avail . M 414
else knew either . M 360
else must yield . M 322
else will touch . M 300
else need apply . M 258
else must change . M 252
else want anything ? M 248
else knew anything . M 246
else held equal . M 246
else will thrive . M 232
else worth knowing . M 224
else last night ? M 210
else says anything . M 204
else here below . M 194
else came first . M 190
else were equal . M 182
else ever wrote . M 176
else were breaking . M 160
else make yours . M 160
else have known . M 148
else have feared . M 140
else keep quiet . M 126
else ever comes . M 110
else from working . M 108
else means anything . M 106
else here knows . M 102
else fell apart . M 102
else came later . M 102
else will occur . M 100
else worth stealing . M 98
else will appear . M 98
else know about . M 98
else will count . M 96
else will agree . M 96
else ever tried . M 96
else from speaking . M 94
else here today . M 90
else make sense . M 88
else from hence . M 88
else even close . M 88
else heard anything . M 86
else more easily . M 84
else have found . M 82
else have anything ? M 82
else into motion . M 80
