all in a day M 39021
all of a heap M 21052
all in a heap M 20002
all in a few M 17933
all of a man M 9984
all to a man M 9595
all in a way M 7338
all if i had M 6642
all in a new M 3851
all as a man M 3553
all as i had M 3430
all in a big M 2933
all if i did M 2774
all be a lot M 2596
all in a bad M 2486
all of a set M 2303
all in a year M 2209
all in a box M 2052
all of a day M 2035
all to a new M 1860
all in a long M 1773
all of a long M 1710
all as a way M 1666
all if i can M 1550
all in a man M 1522
all to a few M 1467
all of a year M 1302
all as i was M 1284
all of a new M 1270
all go a long M 1203
all or a few M 1192
all of a red M 1184
all at a low M 1164
all in a bag M 1080
all of a few M 1032
all be a bit M 1004
all as i did M 994
all if i was M 993
all on a heap M 986
all to a head M 932
all the a and M 906
all as a poet M 906
all do a lot M 888
all in a bid M 886
all to a dead M 858
all in a low M 830
all is a new M 808
all if a man M 793
all on a day M 783
all on a new M 775
all by a few M 775
all on a dead M 766
all by a long M 750
all in a heat M 743
all as i can M 736
all be a bad M 692
all on a big M 672
all in a war M 665
all in a lot M 658
all be a lie M 652
all in a sad M 613
all in a one M 593
all is a man M 584
all by a new M 574
all up a bit M 570
all of a and M 570
all in a fit M 569
all is a lie M 565
all in a far M 563
all on a low M 545
all of a low M 542
all be a man M 541
all as i say M 540
all so i can M 522
all is a long M 522
all by a man M 516
all in a mad M 500
all in a non M 498
all in a real M 483
all is a real M 481
all sing a song M 478
all on a few M 458
all be a big M 458
all in a two M 451
all of a job M 432
all as a real M 428
all is a bit M 420
all as a new M 412
all on a long M 399
all as i saw M 388
all as a set M 381
all in a poem M 376
all is a set M 370
all of a boy M 360
all in a death M 345
all to a big M 336
all in a dry M 336
all as a big M 332
all of a non M 329
all of a team M 328
all in a bit M 326
all the s and M 322
all in a set M 315
all of a poet M 312
all on a map M 306
all is a dead M 306
all on a dry M 300
all of a big M 296
all on a non M 291
all of a bad M 286
all is a big M 284
all in a net M 282
all in a dead M 281
all on a one M 280
all as a bad M 277
all do a bit M 274
all as a boy M 266
all on a path M 262
all as i see M 258
all as a bit M 258
all as a god M 255
all of a real M 246
all at a dead M 240
all in a red M 232
all do i see M 224
all to a real M 220
all in a weak M 220
all is a low M 218
all of a poem M 214
all is a far M 214
all is a bad M 214
all be a real M 212
all on a man M 210
all is a way M 204
all on a red M 202
all of a dead M 198
all by a law M 198
all to a long M 192
all to a set M 191
all to a boy M 186
all in a dim M 182
all in a singing M 181
all up i had M 174
all up a few M 174
all is a lot M 174
all by a head M 172
all at a long M 172
all as a war M 172
all on a two M 166
all in a six M 166
all to a sum M 162
all of a song M 162
all in a fix M 162
all as a being M 161
all of a lot M 160
all of a pre M 155
all on a war M 154
all in a song M 154
all in a due M 154
all in a ten M 153
all be a year M 148
all at a meal M 148
all or a set M 143
all eat a lot M 143
all if i get M 142
all if a few M 142
all as a son M 142
all so i did M 141
all of a web M 140
all as a team M 140
all is a god M 139
all to a meal M 138
all of a has M 138
all by a set M 137
all or a pro M 134
all is a myth M 134
all be a long M 134
all as a day M 134
all of a cat M 132
all as i now M 132
all to a low M 130
all of a son M 130
all of a heat M 128
all as i sat M 128
all on a sat M 127
all in a god M 126
all by a due M 126
all as i read M 126
all in a web M 124
all as i may M 124
all to a lot M 123
all of a dog M 123
all in a mix M 120
all in a bar M 120
all of a two M 119
all so i was M 118
all of s and M 118
all in a run M 117
all or a lot M 116
all of a one M 116
all go a bit M 116
all at a big M 116
all to a non M 115
all do i say M 114
all is a non M 113
all on a bet M 112
all of a ten M 111
all on a bad M 110
all do i owe M 110
all as a law M 110
all to a god M 109
all is a key M 109
all so i had M 108
all as i ran M 108
all as a key M 107
all is a sin M 106
all do i mean M 106
all at a song M 106
all as a kid M 106
all to a far M 105
all on a set M 105
all or a big M 104
all on a real M 104
all is a two M 102
all in a cup M 102
all of a war M 101
all to a job M 100
all be a new M 100
all as i lay M 100
all as a poem M 100
all of a god M 99
all on a run M 98
all is a sky M 96
all is a sad M 96
all in a pre M 96
all on a far M 95
all the d and M 94
all to a war M 93
all is a poem M 92
all is a head M 92
all as a long M 92
all at a new M 90
all on a job M 88
all of a weak M 88
all of a kin M 88
all if i let M 88
all do i bear M 88
all if a new M 86
all am i not M 86
all of a meal M 84
all as a lot M 84
all of a far M 82
all is a fear M 82
all in a pit M 80
all of a six M 60
all be a set M 43
all in a sky M 42
all in a sun M 40
all at a run M 40
all in a row D 51418
all on a par D 4006
all of a row D 3052
all in a hot D 2458
all of a sud D 1549
all in a neat D 1223
all in a fog D 641
all on a row D 618
all in a pot D 462
all of a lung D 436
all on a per D 379
all in a car D 284
all in a hat D 248
all in a jam D 242
all in a gay D 242
all on a bus D 232
all in a tin D 218
all on a bed D 214
all of a tax D 207
all on a hot D 206
all in a pan D 206
all in a jar D 203
all in a wad D 179
all of a sop D 176
all in a nut D 170
all in a riot D 151
all is a thin D 148
all in a bath D 148
all on a dung D 146
all in a rut D 146
all of a car D 132
all in a thin D 132
all of a hot D 128
all in a bed D 128
all in a dung D 126
ale at a vat D 126
all of a dingy D 114
all on a car D 112
all of a hop D 102
ale in a pub D 98
all is a feat D 88
all of t hem D 84
all in a bog D 84
alb is a long D 84
all in a bus D 80
all in a fun D 55
all on a fee D 53
all or a sub D 43
