allows us to see M 127816
almost as if they M 119492
almost as if she M 115864
almost to the end M 72872
almost at the end M 57054
already on the way M 56198
allows us to use M 43706
almost to the top M 37465
almost to the day M 36917
allowing me to use M 36750
almost at an end M 29415
already in the air M 29313
almost as if you M 25584
already at the end M 25569
always in the way M 25108
allows us to say M 20768
always to be had M 20442
allowing us to use M 17688
allowing us to see M 17682
almost at the top M 16560
always at the top M 16079
allowing me to see M 15462
always in the end M 14956
already by the end M 14377
allows us to get M 14036
always at the end M 13826
always in the air M 12104
always be the one M 11960
allowing it to dry M 11710
always at the head M 10740
allowing me to read M 10196
always on the run M 10119
already at the age M 9970
almost as if his M 9558
allowing it to run M 9106
already in the area M 8773
already on the job M 8539
always on the job M 8479
almost as if this M 8366
already at the top M 8021
already in the mid M 7996
allows us to read M 7894
almost up to his M 7608
already in the old M 7532
allows us to put M 7512
almost as if one M 7497
always as an end M 7198
allows us to deal M 7172
already in the year M 6876
allows me to see M 6806
always on the way M 6762
allows us to ask M 6638
allows us to set M 6556
already in the new M 6271
allows us to add M 5994
already on my way M 5954
almost as if her M 5928
already at an end M 5797
almost as it was M 5580
always to be with M 5175
allows us to bring M 5076
allows us to hear M 5068
already by the mid M 4606
always in the lead M 4522
always be on our M 4522
always be in his M 4502
always to be one M 4481
always be on his M 4428
always be in our M 4222
always to do with M 4170
always in the long M 4138
already at the head M 4012
almost to the earth M 3911
almost at the head M 3892
almost in the act M 3872
almost up to her M 3808
allows me to use M 3696
already on the path M 3612
already in the pre M 3571
almost on the day M 3405
almost as an act M 3372
almost in the way M 3360
allows me to say M 3330
almost up to our M 3300
allowing me the use M 3286
always to the end M 3281
always in the rear M 3234
almost as if god M 3209
allows me to get M 3204
almost as if that M 3127
always be at his M 3054
always on the top M 3052
almost go so far M 3032
almost to an end M 3026
always do so with M 2970
alluding to the death M 2968
allows it to run M 2930
almost as if all M 2874
always be on top M 2873
allowing it to get M 2864
allowing it to act M 2864
almost as it had M 2766
always to the east M 2760
almost to the death M 2748
allowing it to lie M 2736
already in the way M 2728
almost on the top M 2728
allowing us to get M 2722
allowing me to get M 2676
always be in this M 2656
always be in one M 2646
almost as if each M 2636
already in the act M 2616
already on the air M 2604
allows us to act M 2536
always to be read M 2530
always be the aim M 2514
almost as he had M 2510
always go the way M 2508
already on the run M 2492
allows it to act M 2490
always do it with M 2484
almost as if our M 2456
always in the act M 2430
always be an easy M 2416
always to be doing M 2392
always in the top M 2383
always be the way M 2314
always as if they M 2314
alluding to the old M 2292
allows us to map M 2276
almost to the head M 2236
already up to his M 2232
allowing it to hang M 2180
already be in use M 2160
already in the war M 2146
always at or near M 2125
already in the east M 2095
already in the bag M 2091
almost as an end M 2035
always be at war M 2013
always go to him M 2012
allowing it to set M 2006
almost of an age M 2001
almost to the man M 1937
always to do his M 1934
always to be that M 1885
allowing it to use M 1878
always to be put M 1868
allowing as it does M 1864
already in the age M 1861
always do the things M 1846
allude to the death M 1839
already in the sky M 1817
almost up to its M 1798
almost as if for M 1790
alarming as it was M 1781
always go to see M 1780
always be the man M 1732
always in my head M 1724
always do the one M 1722
allude to the two M 1696
alluding to the two M 1685
almost as if with M 1671
always in my own M 1658
always to do that M 1647
always in the sky M 1646
allows it to use M 1640
always be in her M 1626
always do the job M 1616
always to be his M 1606
always to be set M 1600
always do as you M 1596
always to be got M 1594
always do as they M 1594
allows us to run M 1590
allows us to let M 1576
always in the old M 1566
already in the set M 1560
always to be near M 1559
always be an odd M 1542
already be on his M 1522
already at or near M 1505
always in my way M 1504
always be in that M 1492
already in the two M 1484
almost on the run M 1477
always to be going M 1472
always in the east M 1472
already in the can M 1468
already in the box M 1464
almost to the sky M 1456
allowing us to hear M 1448
always in the one M 1447
always be on one M 1431
always in the eye M 1427
already on the day M 1421
always as if she M 1412
always up to his M 1410
allude to the use M 1409
always on the one M 1404
allowing us to read M 1388
always up to you M 1386
always be as they M 1376
allows us to fix M 1376
alluding to the new M 1362
always in the sun M 1360
always be so easy M 1360
allows it to get M 1358
already in my head M 1344
always in the red M 1341
altering it in any M 1336
allowing it to heal M 1336
almost to the year M 1326
always go to her M 1322
already at the bar M 1318
almost as he was M 1316
allowing me to sit M 1306
allows of the use M 1300
allude to the old M 1281
allowing it to die M 1274
almost in the air M 1268
always the thing that M 1264
allude to the idea M 1255
albeit it is not M 1254
always be in its M 1248
allows it to fit M 1244
always in the new M 1237
almost up to him M 1214
almost by the day M 1214
almost as if its M 1214
already on the top M 1206
altars of the god M 1199
allows me to put M 1182
always in the wings M 1178
always be at its M 1172
albums of the year M 1167
almost as he did M 1160
allowing us the use M 1152
alluring to the eye M 1147
always be of use M 1145
allowing us to say M 1142
allowing it to sit M 1128
always be on her M 1120
already in the top M 1110
always go to his M 1100
already in the law M 1097
always in or near M 1096
alluding to the use M 1091
always be at her M 1084
allows us to fit M 1084
always to the sun M 1083
almost as if two M 1077
almost as it did M 1076
allows me to bring M 1074
already on the web M 1073
always do it for M 1070
always to do this M 1064
always be my son M 1062
almost to the old M 1062
always to go with M 1060
already it is being M 1054
alluding to the idea M 1054
always be to get M 1052
already in the far M 1050
always do it that M 1046
always to be our M 1040
alluding to the way M 1036
allude to it now M 1031
always to be thus M 1028
almost as my own M 1028
allude to is that M 1027
already it is not M 1026
always be as long M 1022
allows us to cut M 1022
always to be out M 1020
always be to him M 1006
already in it and M 998
allowing me to say M 998
almost to the age M 988
allows it to see M 972
already in my own M 966
always in the path M 962
already on the map M 961
always go in for M 954
allowing me to put M 944
always is in this M 934
already on the earth M 934
allows us to try M 930
almost by the way M 922
altars of the old M 921
always on my own M 918
always be the key M 918
always do it this M 914
always be as easy M 908
already in the red M 907
always be the real M 902
almost to the east M 902
almost to the far M 898
already by the age M 894
allows us to pay M 894
almost to the mid M 892
allowing us to bring M 892
allows us to not M 884
always be at one M 876
always as it was M 872
allude to it with M 867
always be to his M 864
already by the year M 864
allowing us to put M 860
always be to you M 856
always be the head M 854
always be an act M 852
allude to the way M 849
almost up to them M 846
allude to it for M 845
allowing it to fly M 842
already the king had M 840
always to be led M 838
always be to her M 838
allows me to read M 838
alarming thing is that M 837
always go up and M 834
always go so far M 827
always be so with M 826
almost to go out M 822
always go as far M 816
always be of this M 816
always be so and M 810
always to be for M 808
always in the area M 808
allows me to add M 808
already in the pay M 807
always on the day M 803
allows us to both M 802
always to be too M 798
allows it to dry M 798
allows up to two M 797
always be of one M 786
already be on its M 784
almost to the rear M 780
always on the east M 779
already it is too M 778
always be the lot M 776
alluding to the long M 776
always on the path M 774
already on the team M 771
almost in the old M 770
always in my eye M 768
always as if you M 764
allows me to hear M 764
allude to is this M 763
always in the fear M 762
always do so and M 762
allowing me to bring M 760
alluding to the war M 758
always on or near M 755
already in the lead M 754
allowing us to set M 746
allowing us to deal M 744
allude to my own M 738
already of an age M 734
always go to one M 733
always in the dead M 732
already in the death M 728
already in the end M 727
always go to that M 726
always be up and M 720
allows me to ask M 712
always go in and M 704
already up to her M 702
allude to in this M 701
always to be two M 697
always be the end M 696
always do as she M 694
almost in as bad M 694
always do so for M 690
allure of the new M 687
allude to the new M 685
always in the day M 684
allows us to lay M 684
always in the now M 682
always go to them M 682
allows up to six M 677
always on the far M 676
always it is not M 672
almost in the path M 672
alluding to the things M 672
alluding to an old M 672
almost up to that M 670
always on the set M 667
allude to is not M 667
always to be this M 664
allowing me to try M 664
always do in this M 660
always be my own M 660
always be an area M 660
allows us to buy M 660
already in the near M 654
always to be her M 652
always be on its M 648
altars of the sun M 648
allowing me to hear M 646
always to the one M 645
always be the fear M 640
already in the wings M 638
already in the low M 637
always be at our M 636
allowing as it did M 634
always as to our M 632
almost at the age M 630
allowing me to pay M 628
almost in the rear M 626
already in the job M 624
almost to the low M 621
allude to the law M 618
already in the rear M 616
always on the earth M 612
already on the far M 612
always on the end M 611
already up to our M 610
allows me to set M 610
already in the big M 609
always be the two M 604
almost as an old M 604
always at the rear M 602
allowing it to fit M 602
allude to the long M 601
always is at this M 600
always in the law M 600
almost up to this M 596
allowing it to mix M 592
almost to the eye M 589
allowing us to ask M 588
allowing it to lead M 588
always to go out M 587
always be in use M 584
almost as if both M 582
allowing it to air M 581
always to the old M 580
always up to now M 576
altars to the sun M 574
always up to this M 572
always it is with M 572
always is to get M 572
already be on her M 572
allows me to sit M 572
always be so for M 570
already be in his M 570
allows it to set M 570
always be the sum M 569
already in the earth M 569
almost to the new M 568
always be the few M 566
allowing us to run M 566
almost in my own M 564
almost at the far M 560
allows me to deal M 560
always to go for M 558
always be to see M 558
allows it to lie M 558
allowing it to see M 558
always go on with M 550
always be to our M 550
already at an age M 550
almost as if not M 550
allows it to fly M 550
already on the new M 547
almost on the way M 544
allows us to sit M 544
allude to the war M 543
always to me with M 542
almost on the dot M 542
allowing me to ask M 542
always be to use M 540
always be of that M 540
already in the era M 538
almost go as far M 538
allude to the one M 537
always be the top M 536
alluding to the then M 536
always be an end M 534
always is in his M 532
altars at the east M 528
already at an all M 526
always be as one M 524
always of the real M 523
always in the low M 522
almost to be one M 522
allude to the act M 522
allowing me to run M 518
already in the path M 516
always go on and M 514
already in the bar M 514
always up to that M 512
already at the far M 512
almost to the pre M 512
always go on doing M 510
alluding as it does M 509
always in the heat M 507
already as if she M 504
almost as if being M 504
always to do things M 502
always to be both M 498
almost at my own M 498
always up to her M 496
always as he had M 494
already in the poem M 494
always on my way M 492
almost on to his M 492
alluding to in his M 492
almost to my own M 490
always be to bring M 486
always be in any M 486
always as he was M 486
almost in the dead M 486
always on the war M 484
already the king was M 480
always be the odd M 478
altering it to fit M 478
allowing us to add M 478
altars to the god M 477
always be to try M 474
always in the near M 471
allows it to hang M 470
always up to our M 468
always in the head M 468
already in the long M 466
already up to its M 464
already in the pit M 462
allows us to bear M 462
always to be cut M 460
always on the low M 460
always be as you M 458
allows it to deal M 456
already in or near M 452
already in my death M 450
always so in this M 448
always go to war M 448
already on the east M 445
always to do our M 442
always be so long M 441
alluding to the myth M 439
always to the law M 438
always to be won M 436
always to be due M 436
almost in the mid M 436
albums in the top M 436
always be in fear M 432
allowing it to pay M 432
always to go and M 430
alluding to the law M 430
allude to the myth M 429
always do my own M 428
always do if you M 426
always do at this M 426
already on the long M 426
already be up and M 426
allowing us to act M 426
alarming as it may M 426
always on the old M 424
always do if they M 424
already by the law M 424
allowing me to add M 424
already in the few M 422
allowing me to set M 422
already do we see M 420
albeit it be not M 420
always so to act M 418
allude to the real M 417
already in the net M 416
always to do and M 414
always on the head M 414
almost as if any M 414
altering it so that M 413
always in so far M 412
already be in that M 412
almost to the red M 412
always as if for M 410
allows us to mix M 410
always be so far M 409
always be as near M 408
alluding to my own M 408
albeit he is not M 406
always go to this M 402
always be as low M 402
allows me to buy M 402
allows it to cut M 402
always be at ease M 400
almost as it does M 400
allude to in his M 400
allows to be put M 400
already in the one M 399
almost as if out M 399
always to be its M 398
always go in one M 396
alluding to the one M 395
almost to be his M 394
always be to them M 392
allows us the use M 392
almost at the mid M 390
allows on the one M 390
always in the key M 384
always be an old M 384
albeit no king that M 383
always or in all M 382
always of the one M 382
always be the men M 382
allowing it to rot M 382
allowing it to deal M 382
always go as they M 380
already on the net M 377
always on the dot M 376
always go to our M 376
always go on being M 376
alters in no way M 376
allows it to die M 376
alluding to the day M 374
allowing it to put M 374
allude to it and M 373
always of the old M 372
always is in any M 372
already in the map M 372
alluding to in this M 372
always on at him M 370
always do it and M 370
always by the way M 368
almost in the bag M 368
always as we are M 366
altars in the two M 366
already of the way M 366
allows up to ten M 366
allows of the easy M 366
allowing me to die M 366
allows us to sum M 364
allows it to earn M 364
allowing me to buy M 364
always be the law M 363
always be the son M 362
almost as the sun M 362
allows me to pay M 362
allowing it to heat M 362
already in the bud M 361
always is the one M 360
always by the end M 360
already in the use M 360
allows me to let M 360
albeit we do not M 360
always to be weak M 358
always be by his M 358
already is in use M 358
almost as the eye M 358
allows it to read M 358
always up to him M 356
almost as if men M 356
allows it or not M 356
already in the arm M 354
allows it to bring M 354
already on the war M 352
almost on my own M 352
allowing it to buy M 352
always be in each M 348
always up at six M 347
already on the lot M 346
almost of my own M 346
almost in the eye M 346
allows it to heal M 344
allowing it to cut M 344
always in the real M 342
always am to see M 342
always on the man M 341
always to do all M 340
almost as we are M 340
almost as of old M 340
altars in the east M 339
already in the seat M 339
always to the top M 338
always to the man M 336
always be on that M 336
already if he had M 336
already be in this M 336
allows us to lead M 336
always be as far M 334
always at the bar M 334
always be the old M 332
altars to the dead M 332
allows of an easy M 332
allowing it to bear M 332
always to the idea M 330
allows it to sit M 328
always by the use M 326
always at the far M 325
always do in any M 324
already in the head M 324
always be the day M 322
allowing us to buy M 322
alluring as it was M 321
alluding to the sun M 321
always in the big M 320
already to be had M 320
already in an area M 320
almost on to its M 320
allowing us to map M 320
alluding to the real M 319
always go to god M 318
always be on this M 318
allows it to put M 318
always be at that M 316
almost as if new M 316
allude to the poet M 316
allows us to heal M 316
always to be not M 314
alluding to the act M 314
allows us to then M 313
always up to its M 312
always go by that M 312
always be up for M 312
already we do not M 312
almost of no use M 312
almost in the sky M 312
almost at my wit M 312
already on the box M 311
always go at them M 310
already as an old M 310
always in the eating M 309
always be by her M 308
albeit in the long M 308
already in the real M 306
allows me to run M 304
allowing it to mean M 304
already in the idea M 302
allowing us to sit M 302
always be in all M 300
already in the mix M 300
already in the eye M 300
almost as the day M 300
always to be eating M 299
always to be dry M 298
allude to the man M 298
always to be using M 296
always of my own M 296
always is at that M 296
allowing it to bring M 296
almost to the big M 294
allude to my being M 294
always be the boy M 292
always of the two M 291
always go to hear M 290
always be my aim M 290
altars of the new M 290
already of the age M 290
almost by the eye M 290
alluding to is that M 289
always to be and M 288
always on the long M 288
always be as bad M 288
already to the east M 288
already on it and M 288
allure of the big M 288
allowing of the use M 288
always on the air M 286
always is the way M 286
always be in and M 286
already in the man M 285
always to do one M 284
always on the new M 284
already be on our M 284
almost to an act M 284
alluding to the man M 283
always is to see M 282
allowing on the one M 282
always as the one M 281
already is in its M 280
always to the earth M 278
always in the bar M 278
already in so far M 278
allowing up to two M 277
alluding to the year M 276
alluding to the poet M 276
always to be men M 274
always do as one M 274
already be in our M 274
already be in her M 274
altars of the dead M 273
already up on his M 272
alluding to the end M 272
always to the head M 270
always as if his M 270
always go as you M 268
always be at this M 268
always at my own M 268
almost by an act M 268
allows me to act M 268
always in the mid M 267
always be my one M 267
always on at her M 266
always go in with M 264
already in the lot M 264
allows in the way M 264
always do or say M 262
almost on to her M 262
almost as it has M 262
allowing me to act M 262
always to be singing M 260
always to be new M 260
almost on my way M 260
allows us to now M 260
allows me the use M 260
always in the two M 259
already to be one M 258
already to be doing M 258
already on the pay M 258
already if it was M 258
almost in the year M 258
albeit at the end M 258
always to be lying M 256
already in the day M 256
already as if they M 256
almost as if things M 256
almost at the rear M 255
always is in that M 254
always in us and M 254
always be an idea M 254
always as in his M 254
almost of the old M 254
allowing it to read M 254
albums in the mid M 254
always to the eye M 252
always as it has M 252
almost to be had M 252
allure of the old M 252
allows us to reap M 252
allowing us to pay M 252
always to be run M 250
always is in its M 250
always be in god M 250
already in us and M 250
allowing it to earn M 250
almost to the one M 249
almost in the age M 249
allude to is one M 249
always to do for M 248
allows it to buy M 248
almost as if man M 247
always to be ill M 246
always in the bag M 246
already on my own M 246
already at the new M 246
always to the death M 244
always in the man M 244
already is in our M 244
already he is being M 244
aligning it so that M 243
always be so bad M 242
already on the old M 242
already in the sun M 242
already if it had M 242
albeit it be but M 242
always in the pay M 241
always it be not M 240
always be in awe M 240
already as it was M 240
almost to the hue M 240
almost as we see M 240
allowing me to lead M 240
always on the beat M 238
always go my way M 238
altars of the two M 238
almost on the old M 238
alluding to the poem M 237
always do in that M 236
always be the big M 236
always as the man M 236
already to the new M 236
allows me to try M 236
always on the near M 234
always of the end M 234
allude to the men M 234
always to me that M 233
almost as it now M 232
allows it to pay M 232
always as the end M 231
allowing up to six M 231
always do in our M 230
always be the new M 230
already be at his M 230
allude to it was M 230
allows us to fly M 230
always in the bad M 228
almost as if dead M 228
alluding to it and M 228
allude to the poem M 228
alters it so that M 227
allude to the end M 227
always to me and M 226
allows of it being M 226
allowing me to let M 226
always at the east M 225
always to do her M 224
always to be old M 224
always is to joy M 224
always be in top M 224
allows up to one M 224
always to the rear M 223
always on the off M 223
always be to put M 222
always as an act M 222
almost as in his M 222
allows it to add M 222
always to my own M 220
always to be easy M 220
always go to for M 220
always go in this M 220
always am to hear M 220
almost up to one M 219
always the king who M 218
always on the arm M 218
always as he saw M 218
already in an era M 218
already be at war M 218
already at the pre M 218
almost as we did M 218
always in the far M 217
always to the new M 216
always to me one M 216
always in it and M 216
always do my job M 216
already in the cup M 216
already by the way M 216
almost as if death M 216
always on the plea M 214
always is to bring M 214
always in the mix M 214
always if he had M 214
already on the set M 214
almost in the top M 214
almost do it with M 214
allowing up to one M 214
always in an area M 213
already to do that M 213
always to the real M 212
always in the use M 212
always be my dear M 212
always at an end M 212
almost to be put M 212
allows us in this M 212
allowing it to lay M 212
allowing it to end M 212
almost as the one M 211
allure of the east M 211
always up to them M 210
already of the old M 210
already is or has M 210
already be in its M 210
alluding to the sad M 210
allowing us to try M 210
almost to be that M 209
always by the fear M 208
always be in two M 208
already to be dead M 208
almost as we had M 208
alluding to the ill M 208
albeit in the end M 208
always of the dead M 207
always at the one M 207
already in the non M 207
always on the two M 206
always in the box M 206
always be on earth M 206
always be in him M 206
almost to be two M 206
almost on my head M 206
alluding to the head M 206
allows me to cut M 206
allowing it to add M 206
always be to one M 205
always by the law M 204
already on the low M 204
already in the boy M 204
always be by way M 202
already up at his M 202
already do the job M 202
allure it to its M 202
already at the low M 201
always in an ill M 200
almost to the sun M 200
allowing it to win M 200
allowing it to age M 200
already at the idea M 198
alluding to is not M 198
albums of the era M 198
albeit at the low M 198
always on the real M 196
always in my path M 196
alluding to it with M 196
alluding to it now M 196
albums at the end M 196
allows us to end M 195
always to us and M 194
always to go too M 194
always so by any M 194
always is in all M 194
always go to any M 194
always be to ask M 194
always be my real M 194
always be at each M 194
almost as he saw M 194
allows us to die M 194
albeit he be not M 194
always we do not M 192
always is in our M 192
almost to be its M 192
almost as we can M 192
allowing us to cut M 192
allowing me to fly M 192
alarming as it had M 192
already on the seat M 191
always by the one M 190
altars of the earth M 190
already to be too M 190
already it is one M 190
allows me to not M 190
allows it to lay M 190
allege it is not M 190
almost to the seat M 189
always to an end M 188
always by the old M 188
always be an air M 188
already at the man M 188
almost in the bud M 188
allows it to bear M 188
always to go one M 187
alluding to the non M 187
always be to each M 186
always be as dear M 186
always at the old M 186
already on the leg M 186
almost as he does M 186
allude to it any M 186
already by the two M 185
always to be bad M 184
always on the use M 184
always in the dry M 184
always be so that M 184
already to the end M 184
already in the song M 184
almost as in our M 184
allows us to win M 184
always in the earth M 183
always in an easy M 182
always be to set M 182
always be the bad M 182
always at me for M 182
already in the heat M 182
already by the use M 182
almost to be going M 182
almost in the end M 182
alluding to the low M 182
albums of the day M 182
always up at this M 180
always the thing you M 180
always it is one M 180
already of my own M 180
already be so far M 180
allows it to mean M 180
alluding to the dead M 179
always on the weak M 178
already up in his M 178
already on to him M 178
albeit in the new M 178
always so in all M 176
always or of that M 176
always on the box M 176
always be to its M 176
already am at this M 176
almost at the boy M 176
alluding to the song M 176
allowing it at all M 175
always to the day M 174
always as if this M 174
almost to be out M 174
almost as an arm M 174
allowing it to beat M 174
always is to use M 172
always in an old M 172
always go to new M 172
allude to an old M 172
allows it to say M 172
allowing me to win M 172
always of the non M 171
allude to the ten M 171
always so as not M 170
always in it for M 170
already to be far M 170
almost to the bow M 170
allows me to lead M 170
always of the head M 168
always is in war M 168
already on my head M 168
almost to the dot M 168
almost on us and M 168
almost at my head M 168
almost as we read M 168
allows it to win M 168
albums of the mid M 168
always up to one M 167
almost as the man M 167
always to do him M 166
always is to put M 166
always in the war M 166
always be the things M 166
always be on and M 166
altars at the end M 166
already be in one M 166
allege it in his M 166
always to be far M 165
always in an arc M 165
always to the two M 164
always to the men M 164
always to be off M 164
always on the team M 164
always it is our M 164
always is the law M 164
always in the year M 164
always be an aim M 164
always as it had M 164
already on to his M 164
already be an old M 164
almost at the old M 164
alarming to me than M 164
always to be real M 162
always to be hung M 162
always on the big M 162
always in the dim M 162
always do so out M 162
always be the song M 162
always be the low M 162
always be an aid M 162
already or at any M 162
already by the old M 162
almost to the two M 162
almost to the area M 162
almost at the run M 162
almost as if now M 162
alluding to the red M 162
always be the mean M 161
always at the low M 161
always so at this M 160
always or at any M 160
always of the long M 160
always it is for M 160
alluding to the now M 160
always of the earth M 159
always to be low M 158
always he or she M 158
always be the weak M 158
already in my mid M 158
always so in our M 156
always so at that M 156
always go up with M 156
always go on that M 156
always do in all M 156
always be to let M 156
always be to act M 156
always be on god M 156
always as we see M 156
already in the bad M 156
already be at its M 156
allows us to lie M 156
allowing me to hang M 156
allowing me to fix M 156
always up by six M 155
always in the mean M 155
always at the pit M 154
always at it with M 154
already to the man M 154
almost on the end M 154
albeit we be not M 154
always is to try M 152
always go by this M 152
always be the poet M 152
always be he who M 152
already in the dim M 152
already in the bin M 152
almost of the age M 152
allowing me to cut M 152
albeit it is one M 152
allude to it but M 151
always to the use M 150
always of an odd M 150
always it is this M 150
always be in them M 150
always be in easy M 150
already to the use M 150
already on the wings M 150
already on or near M 150
already is in this M 150
already if he was M 150
almost to be too M 150
almost as we our M 150
allude to in our M 150
always is an end M 149
alluding to the six M 149
always to go off M 148
always by an act M 148
always be of two M 148
always at the seat M 148
altars in the old M 148
already in the run M 148
already in the poet M 148
almost on the fly M 148
almost do it for M 148
alluring as it may M 148
allows us to own M 148
always up in his M 146
always to do you M 146
always do to each M 146
already of the new M 146
already in my eye M 146
almost as we use M 146
allude to the god M 146
allude to do not M 146
allows it in his M 146
already in the dog M 145
almost to no one M 145
alarming to the old M 145
always to be all M 144
always on my head M 144
always do to any M 144
already if we had M 144
allowing us to fix M 144
albeit it is now M 144
always in the set M 143
always in or out M 143
almost to the being M 143
always go to get M 142
always be the cry M 142
always be in you M 142
already so we can M 142
almost to the war M 142
almost on the head M 142
almost in the wings M 142
allude to the boy M 142
allowing it to hear M 142
alarming thing of all M 142
always do it all M 141
always so in his M 140
always on me for M 140
always go to its M 140
always do as long M 140
already is in his M 140
almost as we now M 140
almost as the head M 140
almost as he can M 140
allude to the fear M 140
allows it to cling M 140
almost at the dead M 139
altering as it does M 138
already in the dry M 138
already at the seat M 138
allows us to hang M 138
allows me to lay M 138
altars to the east M 137
allude to the day M 137
always go to you M 136
always go on this M 136
always be as she M 136
always as of one M 136
already do we hear M 136
almost to the lot M 136
almost to be singing M 136
almost as the air M 136
alluding to the age M 136
allude to an idea M 136
allows me in this M 136
allowing us to fly M 136
allowing me to lay M 136
allowing it to dip M 136
allowing it to all M 136
always of the man M 134
always he is not M 134
always do in real M 134
always be to that M 134
always be the joy M 134
always at the eye M 134
always as an old M 134
already to do with M 134
allows me to end M 134
allows it to lead M 134
allowing us to both M 134
alarming of the two M 133
always up to all M 132
always do it now M 132
always by the man M 132
always be to this M 132
always be by our M 132
already in no mean M 132
already at the rear M 132
almost to the bar M 132
allows us to earn M 132
allows us an easy M 132
allows it to mix M 132
allowing us to not M 132
allowing me to tag M 132
always sing the song M 130
always go to and M 130
always be the seat M 130
always be on you M 130
always as it now M 130
always as if with M 130
always as he has M 130
altars to the new M 130
already on the head M 130
almost to the arm M 130
almost as in any M 130
almost as if old M 130
allude to the sun M 130
allude to at this M 130
allows it to hear M 130
allowing it to say M 130
albeit in no way M 130
altars to be set M 129
always to be let M 128
always of an easy M 128
always in the poet M 128
always be the use M 128
always be by far M 128
altars on the east M 128
already to be out M 128
almost as the old M 128
almost as of one M 128
alluding to it had M 128
allude to as being M 128
allows us to leap M 128
allowing me to deal M 128
albeit in an area M 128
almost of the east M 127
always to do them M 126
always is to say M 126
always is on that M 126
always is if you M 126
always be to lead M 126
always be my boy M 126
always be my big M 126
altars in the new M 126
already in the web M 126
almost as the two M 126
alluding to the few M 126
allude to the bad M 126
allowing the king and M 126
alarming in the way M 126
always be in rear M 125
almost at the two M 125
always sing as they M 124
always on the map M 124
always go at this M 124
always be at any M 124
altars of my god M 124
already up on her M 124
already of no mean M 124
almost in an act M 124
alluding to it was M 124
allows me to earn M 124
always go in that M 123
always be to hear M 122
always be the path M 122
always as he did M 122
already in my new M 122
already in an age M 122
almost to the boy M 122
almost to my death M 122
allude to the sad M 122
allows us to cry M 122
allowing us to let M 122
always of the low M 121
always to do two M 120
always is the act M 120
always do at that M 120
always be as few M 120
already by the long M 120
already be at now M 120
almost to be hung M 120
almost of the two M 120
alluding to the men M 120
allude to it are M 120
allows me to fly M 120
allowing as he does M 120
alarming as to lead M 120
always on the sky M 119
always so in its M 118
always or at all M 118
always by the idea M 118
always be the sad M 118
always be of his M 118
always as if one M 118
already to the old M 118
almost to eat and M 118
almost by the law M 118
almost as if going M 118
allude to the year M 118
allude to the six M 118
always of the day M 117
already at the one M 117
alluring to me than M 117
always to the far M 116
always do on this M 116
always be of low M 116
always be my old M 116
always as we now M 116
already be on this M 116
already as to how M 116
almost to be her M 116
almost be as bad M 116
almost as the new M 116
almost as the end M 116
almost as it may M 116
alluding to the god M 116
allude to the head M 116
allows us to aim M 116
always in the non M 115
always be the ease M 114
always be of our M 114
always be an eye M 114
already on to you M 114
already in the log M 114
already at it and M 114
almost to the long M 114
almost to the era M 114
almost to be our M 114
almost in the death M 114
alluding to the oath M 114
allows of no easy M 114
allows me to die M 114
always on the fly M 113
always to me but M 112
always in the pit M 112
always in my old M 112
already in my seat M 112
already be on top M 112
almost on the earth M 112
almost of the hue M 112
almost be an act M 112
allure of the real M 112
allude to the sin M 112
allude to the lot M 112
allude to the far M 112
allows to the man M 112
allows as to how M 112
allowing it in all M 112
allowing up to ten M 111
always up to then M 110
always so at ease M 110
always on to him M 110
always in the bow M 110
always in me and M 110
always go on for M 110
always go in fear M 110
always be to win M 110
always be the easy M 110
already to be read M 110
almost up to death M 110
almost in as ill M 110
alluding to the near M 110
allows it to end M 110
allowing me to bid M 110
alarming in the idea M 110
already of so long M 109
allure of the idea M 109
alarming to me was M 109
always it is his M 108
always in the things M 108
always in the team M 108
always in the joy M 108
always in an odd M 108
always go on thus M 108
always by the aid M 108
always be the year M 108
always at the big M 108
altars at the top M 108
already on the law M 108
almost to the going M 108
allude to the few M 108
allows of no real M 108
allows it to both M 108
allowing us to reap M 108
allowing us to fit M 108
albeit it is but M 108
always to be long M 107
alluring in the idea M 107
always to the long M 106
always go to all M 106
always eat at six M 106
always be the idea M 106
always be of far M 106
always as an aid M 106
already the thing you M 106
already he is not M 106
already be an act M 106
almost as the dead M 106
allowing us to lead M 106
aligning of the two M 106
always to be god M 105
always on the lead M 105
already of the two M 105
almost to the dead M 105
almost as if war M 105
allows to be one M 105
always up to any M 104
always to do god M 104
always on the men M 104
always is to him M 104
always he do not M 104
always do to you M 104
always by the eye M 104
always be the sun M 104
always be on how M 104
always be by its M 104
alters it in any M 104
almost up to pre M 104
almost eat up with M 104
allude to the then M 104
allude to the pre M 104
allowing it in this M 104
always up to god M 102
always to be top M 102
always in the idea M 102
always go in his M 102
always eat it with M 102
always be on him M 102
alters or in any M 102
altering it at all M 102
already on the big M 102
already in the dying M 102
already in it are M 102
alluding to the pre M 102
allows us to log M 102
allows us to cling M 102
allows me to bear M 102
allows it to beat M 102
allows at the end M 102
almost as by day M 101
allude to the not M 101
allude to the age M 101
allows us to heat M 101
always to do too M 100
always it is easy M 100
always in the poem M 100
always by the job M 100
always by the few M 100
always be the long M 100
always as to how M 100
always as to his M 100
already or do not M 100
already in my bag M 100
already by the new M 100
almost up to you M 100
almost to be set M 100
almost do it now M 100
alluding to the boy M 100
alluding as it did M 100
allude to the doing M 100
alarming thing to say M 100
always to be sad M 98
always the king and M 98
always so in real M 98
always by the head M 98
always by my own M 98
always be on them M 98
always be of you M 98
always be of real M 98
altering it to his M 98
already or is going M 98
already it is all M 98
already do in our M 98
already as if you M 98
almost to the act M 98
almost as it can M 98
almost as in you M 98
almost as if doing M 98
allows me to mix M 98
allows me to lie M 98
alarming as he had M 98
altering of the law M 97
almost in the man M 97
allude to an act M 97
always the thing they M 96
always so to his M 96
always of the poem M 96
always is to any M 96
always go to law M 96
always at the man M 96
always as to its M 96
always as it does M 96
altering it to read M 96
already to my own M 96
already in the dead M 96
already as we can M 96
almost to be non M 96
almost on the far M 96
almost of an old M 96
almost in the heat M 96
almost as on wings M 96
alluding to an idea M 96
allude to the earth M 96
allows us to rid M 96
allowing us to win M 96
allowing me to lie M 96
allowing it to cling M 96
always be an age M 95
always is to his M 94
always is it easy M 94
always by the two M 94
always be to any M 94
always be so dear M 94
always be in bad M 94
already to the two M 94
already on the area M 94
already it is going M 94
already in it can M 94
already in it all M 94
already in an ill M 94
almost to the path M 94
almost on the man M 94
almost in the area M 94
alluding to the key M 94
alluding at the end M 94
allude to the now M 94
allows to do this M 94
alarming to the new M 94
always to the god M 92
always so to its M 92
always on at you M 92
always do in his M 92
always be to god M 92
always be on both M 92
always be if you M 92
always be an ill M 92
already to be set M 92
already on the two M 92
already be at her M 92
already at the old M 92
already as he was M 92
already am in all M 92
almost so in its M 92
almost as the sky M 92
almost as of death M 92
almost as if don M 92
allows us in our M 92
allows it to leap M 92
allowing us to lay M 92
allege it of all M 92
albeit in my own M 92
alarming to us than M 92
alarming thing is not M 92
always do so that M 91
already be in new M 91
almost at the pre M 91
allowing to go out M 91
alarming as the one M 91
always on the dead M 90
always of the things M 90
always of the dry M 90
always in the men M 90
always if it was M 90
always if it has M 90
always be in too M 90
altars of the one M 90
already is the day M 90
already by the men M 90
almost to the sum M 90
almost to be doing M 90
almost of the earth M 90
allows me to win M 90
alarming in the cry M 90
almost at the mean M 89
almost as if cut M 89
always to the things M 88
always on the wings M 88
always of the weak M 88
always it is you M 88
always in at this M 88
always by the men M 88
always am an and M 88
already the king and M 88
already is on its M 88
already in so bad M 88
almost in an age M 88
almost at the bar M 88
alluring us by its M 88
allude to the non M 88
allude to the area M 88
allows to be set M 88
allowing me the run M 88
always be the god M 87
always up to each M 86
always up on his M 86
always to eat and M 86
always to be but M 86
always on to you M 86
always on the dry M 86
always on my arm M 86
always of the way M 86
always of the law M 86
always in my bag M 86
always by the act M 86
always be in act M 86
always as my own M 86
altering it as they M 86
already up on one M 86
already up in her M 86
already or if they M 86
already on the end M 86
already be so low M 86
already as it can M 86
almost to the dry M 86
almost by the run M 86
almost be my son M 86
almost at the man M 86
almost as the son M 86
almost as if set M 86
allude to it they M 86
allude at the end M 86
allows it to them M 86
already on the out M 85
already it is far M 85
almost to be cut M 85
almost is the key M 85
always so is not M 84
always do by his M 84
always do as his M 84
always be my god M 84
always be as big M 84
always at the age M 84
already to go and M 84
already so it was M 84
almost on the wings M 84
almost in the one M 84
almost by the year M 84
allure us to our M 84
alluding to the sin M 84
alluding to the bad M 84
alluding to it for M 84
allows it to reap M 84
allowing me to end M 84
allowing me to earn M 84
allowing it to bang M 84
always by the age M 83
allude to the dead M 83
albeit in the low M 83
always ring up and M 82
always ring in our M 82
always on the sad M 82
always in the doing M 82
always eat in this M 82
always eat at his M 82
always be the act M 82
always be so weak M 82
always be my kid M 82
always be me who M 82
always be in due M 82
always be as her M 82
already on the death M 82
already it is easy M 82
already in on this M 82
almost to be lying M 82
almost of the use M 82
almost as he has M 82
allure of the myth M 82
allude to the dear M 82
allows us to beat M 82
allows us at this M 82
allows it at all M 82
already by the sun M 81
almost at the east M 81
always to be red M 80
always is at his M 80
always do so but M 80
always do or not M 80
always be so low M 80
always be my law M 80
always at the new M 80
always as the head M 80
always as he does M 80
already of no use M 80
almost by the end M 80
almost as the war M 80
alluding to the joy M 80
allude to my old M 80
allows it to let M 80
allowing it the use M 80
aliases of my own M 80
albeit in an odd M 80
already at the two M 79
alarming is the way M 67
already on the one M 62
always on the rear M 60
alarming to the men M 58
alarming to me that M 58
already in the key M 56
always to be pre M 54
always go as one M 54
always be an all M 53
already on the red M 52
always it is that M 50
already at the net M 49
already to the far M 48
always on the key M 47
always be the set M 47
allows us to sin M 47
always on the out M 46
always at the net M 46
almost at the one M 45
altars on the top M 44
already up to two M 44
alluding to the all M 44
allows to go out M 44
almost on the rear M 43
almost in the net M 42
almost as an all M 42
alluding to is one M 42
always the thing one M 40
always by the day M 40
already up to six M 40
almost to the air M 40
allure of the man M 40
albeit at the top M 40
allies in the war D 23194
almost on the eve D 11502
always to be met D 7586
already in the car D 6864
almost to the tip D 6176
albedo of the earth D 5796
allies on the one D 5392
alerting me to this D 4890
allies at the end D 4748
always in the van D 4346
allies in the east D 4167
alleys of the old D 3751
always go to bed D 3664
already on the eve D 2607
allied to the old D 2452
allied to the one D 2347
allied to the idea D 2228
allies in the far D 2193
alcove at the end D 2182
almost to the rim D 1979
allies in the area D 1872
allies of the new D 1861
allies in the new D 1840
always on the eve D 1744
allied to the two D 1739
allies of the two D 1731
always on the tip D 1634
allied to the new D 1615
always in my ears D 1606
already in the pot D 1604
already on the bus D 1574
allowing it to swing D 1550
almost to the eve D 1307
alerts us to this D 1282
allied to the use D 1169
allied as it was D 1160
alight on the top D 1159
alcove at the far D 1148
alerts us to how D 1027
almost at the tip D 1020
already on the bed D 996
already be in bed D 994
almost to the car D 954
alloys of the two D 943
allied to it are D 939
already at sea and D 936
alumni of the log D 916
allies in the low D 864
allows us to tap D 858
already in the bay D 848
allies in the two D 838
alerts us to its D 832
allied on the one D 830
almost to the hem D 828
allies in the near D 824
allied in the war D 788
already in the van D 754
alcove at the rear D 751
almost to the ears D 748
allies in the long D 740
almost at the peak D 739
allies of the old D 732
already in the bed D 728
always at the tip D 710
allied to the red D 700
almost to the peak D 694
alarms to go off D 684
already on the ice D 667
always be an art D 662
alight on the tip D 658
allows us to tie D 656
allies in the rear D 635
already on the ebb D 622
always at the fag D 614
already at the peak D 613
alerting us to this D 600
alumni of the new D 598
alcove in the rear D 597
already in the cab D 594
allied to it was D 593
aliens in the new D 588
allied to the art D 586
allied to it and D 581
alumni of the old D 579
allies in the old D 570
almost on the tip D 568
already to be met D 562
alight on the earth D 559
always in the car D 556
allies of the war D 551
alerts us to our D 550
already on the tip D 538
almost to the hip D 526
alarms me is that D 520
allows it to swing D 516
allies as it was D 516
already in the tub D 510
almost to an art D 503
always up to par D 500
alerts us to one D 498
alerts us to his D 498
albedo of the ice D 491
already in the pan D 490
already at sea can D 490
allies to the end D 490
alumni of the law D 487
allied to if not D 478
alcove at the top D 474
almost to the bed D 471
allies in the air D 470
aliens in the east D 463
always to be fed D 462
always in the hot D 462
allies on the eve D 458
alumni of the year D 455
allied to my own D 455
allied to it that D 447
already on the seas D 446
always at the peak D 435
allied to the kings D 432
already in the gas D 431
allies to the east D 430
already in the rig D 422
alcove on the far D 418
almost at the car D 416
alight at the inn D 414
already in the egg D 410
almost to the bay D 410
always be on tap D 406
allied as he was D 396
allowing it to leak D 394
allied to it than D 394
alleys in the old D 392
alumna of the year D 390
allies of the kings D 380
allies in the way D 378
alerts us to two D 378
alumni of the two D 374
already in the bus D 374
almost in my lap D 372
allied to the non D 371
already in the bath D 364
allies of the east D 361
alight on the head D 358
almost as an art D 354
allies by the end D 348
already at the car D 342
already the sea was D 330
allied to the fear D 328
always to be sung D 324
almost to the lip D 322
allied to the dog D 322
always in the ears D 320
almost on the sly D 320
already on the car D 318
already in the art D 314
allowing it to sag D 314
always be in bed D 312
allies as if they D 312
always in the mud D 308
alight at the end D 294
almost in the lap D 292
always on the sly D 291
almost in the bed D 284
allowing it to hit D 284
allowing it to thaw D 282
allows me to wear D 280
allude to the art D 272
always be in hot D 268
almost to the toes D 268
allies as the war D 266
allies as it had D 266
alight on the wet D 266
allied to the law D 264
alerts us to her D 264
allied to the sun D 262
alleys of the east D 262
aliens in the eye D 262
already in my car D 260
allies of the men D 260
always on the hop D 259
allies as to how D 258
allowing me to wear D 254
alarms as to her D 254
allies in the year D 252
already at the bus D 250
allies of the six D 248
always on the bed D 245
allies at the top D 244
almost to the gum D 241
allies in the end D 240
always to be neat D 236
always the sea and D 236
alumnae in the area D 235
alleys in the rear D 234
albedo of sea ice D 233
alloying of the two D 229
allied to the east D 228
already at sea with D 226
allied to the real D 226
alumni in the area D 225
always be at par D 224
allows us to pin D 224
allies of the day D 224
allies of the one D 223
allied to the long D 222
alarms in my head D 221
already in the hot D 220
alloys in the two D 220
allies in the mid D 220
alcove at the head D 218
alloys it is not D 216
allied to the god D 216
allied to the earth D 216
alight on it and D 215
already in the lung D 214
alleys on the way D 214
always on my ass D 212
allies in the sky D 212
alerting us to our D 212
almost to the hub D 208
almost as if art D 208
allied to us than D 208
allied to the earl D 208
aliens in the area D 207
always on the thin D 206
allies in the non D 206
alleys in the area D 204
alcove in the far D 203
already in the lab D 202
allies on the way D 200
allies on the day D 200
alleys of the big D 196
alerting us to its D 196
allied to the war D 195
allied to the may D 195
allied to the cod D 195
alight on the dead D 195
always in the pub D 194
always be as hot D 194
allied to the big D 193
allied to the hog D 192
alleys of the new D 192
already in the oil D 191
alight on my head D 191
alleging it as her D 190
always on the hob D 188
alkali in the ash D 188
alerts us to that D 188
almost on the rim D 186
alluding to the art D 186
always on the rim D 185
always on my toes D 184
aliens of the east D 184
allude to the hon D 183
almost to the seam D 182
almost to my bed D 182
almost at the fag D 182
allied to the way D 182
alarms of the day D 182
always in the bed D 181
allies on the far D 181
always at sea and D 180
almost as the den D 180
allied to the yew D 180
always be the art D 179
always be so hot D 178
already in the jar D 178
aliens at the end D 178
allele of the ace D 177
aliens as if they D 176
alarms us in this D 176
always be the guy D 174
already in the pen D 173
always to be ringing D 172
allies as he had D 172
always on the lee D 171
allies as he was D 170
allows us to tax D 168
alerting me to its D 168
aliens in the sky D 167
always an ear for D 166
always on the mat D 164
always on the beam D 164
almost at the bus D 162
allows it to tap D 162
already in the hut D 160
alight on the leaf D 160
always in the pot D 158
alleys at the rear D 158
aliens to the new D 158
allied to us and D 157
allows us to dig D 156
allies in so far D 156
alight in the sun D 155
allies at the head D 154
allied to the lion D 153
always on the ice D 152
always in the lap D 152
already in my ears D 152
allies to be won D 152
almost to my car D 150
allies of the non D 150
alloys on the one D 148
allowing us to tap D 148
allied to the sin D 148
alleging it is not D 148
alight on the toes D 147
already in the tax D 146
almost in my ears D 146
alight at an inn D 146
always in the lab D 144
always in the bath D 144
already in my bed D 144
allies in the oil D 144
allied to the ant D 144
alight at the top D 144
always in the gym D 142
always be my dad D 142
allies of the pro D 142
alarms me by his D 142
already in the sub D 141
alight on the new D 141
always be my mom D 140
almost no ear for D 140
alloys by the use D 140
alleys to the rear D 140
aliens or of any D 140
already at the inn D 139
always on the bus D 138
allies to be out D 138
almost to the inn D 137
allies of the man D 137
always in the egg D 136
already in the gym D 136
already in the gun D 136
alerts us to both D 136
allies in the pro D 135
alkali or an earth D 135
albedo of the cap D 135
always on the swing D 134
almost to the ice D 134
allows us to hit D 134
allowing it to sue D 134
allies as it can D 134
allied to the death D 134
alerts us to new D 134
always go to bat D 132
almost to the jaw D 132
aliens on the one D 132
always at the hub D 130
almost on the lip D 130
alluding to the earl D 130
already in the sung D 128
already in the row D 128
already in the den D 128
allowing me to tap D 128
alleys at the end D 128
alerting us to his D 128
always be at peak D 124
already in the mud D 124
almost as if sex D 124
allowing me to lean D 124
allied to the man D 123
alerts us to any D 123
always to be gay D 122
almost in the ears D 122
allies of the big D 122
already in the ice D 120
almost at the rim D 120
almost as if tom D 120
allows me to tap D 120
allies as to his D 120
allied to the pre D 120
allied to the myth D 120
allele is the one D 120
alerting us to how D 120
already on the tax D 119
always in the art D 118
always be an ass D 118
allowing it to tap D 118
allies if it was D 118
allied to the now D 118
allied to it but D 118
aliens in the two D 118
already in the lee D 116
almost to the bus D 116
allies to do all D 116
allies if we are D 116
allied to the act D 116
alloys in the heat D 115
alight in the top D 115
already in the gut D 114
allows us to wear D 114
allies on the wings D 114
already in the hat D 112
almost in the fun D 112
allowing it to wear D 112
allies to the new D 112
aliens to the ins D 112
alarms on at all D 112
alloys in the low D 111
already in the leaf D 110
allies as of his D 110
allied to the elm D 110
allied to the bear D 110
alkali in the one D 110
alarms us at this D 110
almost on my lap D 108
almost at the hip D 108
allies of the raj D 108
allies it is not D 108
alarms on the way D 108
allies of the dead D 107
alcove of the bay D 107
always on the hot D 106
always on the ebb D 106
already on the pad D 106
already in the gang D 106
almost at the lip D 106
alcove at the east D 106
always to be con D 105
alcove on the east D 105
already in the pub D 104
almost in the van D 104
almost in the mud D 104
allies of the fox D 104
allies in the art D 104
allied to the sex D 104
allied to the cat D 104
alight in the sky D 103
always go by car D 102
already on the mat D 102
already in the vat D 102
already in the swing D 102
allies or of his D 102
allies by sea and D 102
aliens on the earth D 102
alkali at the end D 101
already in the inn D 100
almost at thy wit D 100
allows it to leak D 100
allowing it to pop D 100
allies if he had D 100
alkali in the dry D 100
alight on the rim D 100
alerting me to his D 100
already in the sex D 98
allies or of our D 98
allied to it may D 98
allele in the two D 97
almost as if sir D 96
alloys of the non D 96
allies by the use D 96
allied to the oil D 96
alders on the far D 96
always be an oil D 95
allies or to his D 94
allies on the use D 94
allies of us all D 94
allies in the one D 94
allied to the fox D 94
allied to the bee D 94
allied as we are D 94
alleys of an old D 94
alarms me by her D 94
allied to the poet D 93
alarms me to see D 93
always on the bum D 92
always at the gym D 92
already on the rod D 92
almost to the lid D 92
almost to my ears D 92
alloys is to use D 92
allows me to tie D 92
allowing us to dig D 92
allowing it to tear D 92
allies on the two D 92
allies if he was D 92
allies as it did D 92
allied to an old D 92
alloys is the mean D 91
almost as if dad D 90
alloys in the hot D 90
alkali in the bath D 90
alight by the way D 89
always on the tap D 88
already in the pew D 88
almost as if lee D 88
allies as we can D 88
allied to the hay D 88
alerting us to new D 88
alcove in the east D 88
alarms us by its D 88
alarms to be set D 88
always be the hem D 86
always at the pub D 86
already on the lam D 86
already in the raw D 86
already in the lion D 86
almost to the shoe D 86
alloys in the near D 86
allowing it to lean D 86
allies in the law D 86
allies as the new D 86
allied as the two D 86
alarms in the area D 85
already the sea had D 84
already at the lab D 84
almost to the gun D 84
almost by my ears D 84
allies at the war D 84
aliens in the way D 84
alerts us to pay D 84
alerting us to any D 84
alerting me to new D 84
alarms by the old D 84
alight on the ice D 83
alight by the sun D 83
allowing us to tie D 82
allowing it to gel D 82
allies of the use D 82
allies of the red D 82
allies go to war D 82
alkali of no man D 82
alerts us to all D 82
always in the hut D 80
almost to the leaf D 75
aligns at the tab D 74
allied to the rat D 52
allied to the things D 50
alleys to the east D 50
alight as it was D 50
allied to the low D 48
alight on the end D 47
albedo at the top D 45
allies to the war D 44
alight as if with D 44
already at the bed D 43
allies of the tang D 43
always in the sub D 42
almost on the bed D 42
allied to the dead D 42
already in the ark D 41
alloys of the lead D 41
allowing it to tax D 41
allies in the real D 41
alluding to the fog D 40
alloys at or near D 40
alkali on the one D 40
alkali it is not D 40
alight on the bow D 40
