occur due to the M 52214
occur both in the M 19114
occur owing to the M 7040
occur and it is M 6812
oceans and in the M 3810
occur due to an M 3706
occur out of the M 3604
occur both on the M 3058
occur for up to M 3004
occur not in the M 2990
occur both at the M 2972
occur but it is M 2816
occur east of the M 2808
occur and to be M 2742
occur and in the M 2546
occur than in the M 2182
occur are in the M 1556
occur and if the M 1344
oceans and of the M 1298
occur not at the M 1234
oceans and on the M 1132
occur that it is M 1054
occur near to the M 944
occur are to be M 940
occur and if it M 914
occur and by the M 870
occur and of the M 860
occur but in the M 824
occur and on the M 812
occur are of the M 776
occur than if the M 774
occur and to the M 716
occur and at the M 672
occur and so the M 652
occur all of the M 632
occur both to the M 630
occur all at the M 626
oceans than in the M 614
oceans and to the M 614
occur and is the M 614
occur was in the M 570
occur not on the M 566
occur out in the M 550
occur with it in M 546
occur far in the M 530
occur that in the M 506
oceans due to the M 480
occur low in the M 480
occur for it to M 470
occur and if so M 465
occur than it is M 436
occur may be the M 430
occur now in the M 418
occur near or at M 406
occur has to be M 384
occur far to the M 382
occur for us to M 370
occur for me to M 356
occur one of the M 344
occur are at the M 342
occur then it is M 336
occur and as the M 322
oceans and by the M 308
oceans are to be M 304
oceans than on the M 292
occur they do so M 268
occur than is the M 264
occur and be of M 264
occur and is an M 260
oceans are in the M 254
occur owing to an M 248
occur not as the M 226
occur may be of M 226
occur and so on M 223
occur with the so M 222
occur too in the M 222
occur but at the M 222
occur both as an M 220
occur than on the M 214
occur and be the M 214
occur may be so M 196
occur had to be M 196
oceans and at the M 194
occur are on the M 190
occur and is of M 182
occur with up to M 178
occur than if it M 176
occur both as the M 176
oceans had to be M 172
occur but on the M 172
oceans than it is M 168
occur out on the M 166
occur with in the M 164
oceans are on the M 162
oceans and it is M 160
occur has to do M 160
occur but if the M 158
occur that at the M 150
occur but is of M 150
oceans and so on M 148
occur with us in M 148
occur all in the M 148
occur was to be M 146
oceans may be the M 144
occur and we do M 144
occur both by the M 140
occur and so it M 138
occur thus in the M 136
occur not by the M 136
occur and is it M 136
occur two of the M 134
occur but if it M 132
occur are by no M 132
oceans and is the M 128
occur that in an M 128
occur that he is M 128
occur both in an M 128
occur are of no M 126
occur near or in M 125
occur and as to M 124
occur red in the M 120
occur any of the M 120
oceans led to the M 118
occur may be an M 114
occur led to the M 114
occur and go on M 113
oceans are of the M 112
occur can be of M 112
occur near or on M 111
oceans and up to M 110
occur that is the M 110
occur was at the M 108
occur low on the M 108
occur than at the M 106
occur now or in M 106
occur not as an M 106
occur but as the M 106
occur then in the M 104
occur that is of M 104
occur but we do M 104
occur but is an M 104
occur lead to the M 96
oceans but in the M 94
occur not in an M 94
occur may be in M 94
occur and so we M 94
occur may be as M 93
occur that we do M 92
occur that if the M 92
occur was on the M 90
occur nor is it M 90
occur but do so M 90
occur and in so M 90
occur and he is M 90
occur than in an M 88
occur out of an M 86
occur not to the M 86
occur and do so M 86
oceans was to be M 82
oceans out of the M 82
occur that on the M 82
occur for us in M 82
occur are in no M 82
occur and is in M 82
oceans act as the M 80
occur lie in the M 80
occur near the sea D 429
oceans and the sea D 227
