occur to him that M 95158
occur at any age M 89081
occur to you that M 76244
occur to them that M 37567
occur to her that M 33285
occur to any one M 16752
occur in this area M 11273
occur in any one M 10448
occur in this way M 7644
occur if they are M 5290
occur in old age M 4935
occur on its own M 4628
occur in any age M 4510
occur in all age M 4248
occur in our own M 3930
occur at any one M 3856
occur in one and M 3612
occur so that they M 3118
occur in this age M 2958
occur in any area M 2911
occur if you are M 2690
occur in his own M 2556
occur in men and M 2132
occur to any man M 2067
occur to him for M 2024
occur at this age M 1926
occur to him and M 1856
occur to you and M 1846
occur to one who M 1818
occur in man and M 1798
occur in one year M 1791
occur to you how M 1746
occur in both men M 1560
occur at all and M 1534
occur in that area M 1513
occur to all who M 1510
occur in may and M 1438
occur to one that M 1428
occur in all but M 1408
occur in our area M 1368
occur to you for M 1318
occur at one end M 1250
occur as they are M 1244
occur in one area M 1198
occur in them are M 1190
occur at one and M 1170
occur in men who M 1164
occur at its own M 1136
occur on any one M 1098
occur in one day M 1087
occur in one out M 1070
occur on that day M 1062
occur on this day M 1044
occur if you use M 1028
occur in this and M 988
occur in this act M 982
occur in any year M 981
occur on any day M 960
occur to them and M 952
occur in men with M 884
occur to him how M 870
occur in that year M 854
occur to him now M 852
occur of its own M 828
occur in its own M 814
occur in and near M 794
occur in one way M 788
occur at each end M 776
occur if you try M 772
occur to him then M 756
occur in them and M 744
occur to her for M 690
occur to him was M 678
occur to them for M 650
occur at all with M 638
occur in all our M 630
occur if any one M 622
occur in that way M 606
occur is not yet M 590
occur in one eye M 580
occur to you why M 560
occur in and are M 560
occur to you now M 556
occur in our day M 536
occur to him with M 534
occur as far east M 520
occur it does not M 518
occur at all for M 512
occur on this head M 504
occur at and near M 501
occur or that they M 492
occur so that you M 486
occur in this one M 481
occur the way they M 472
occur in any way M 472
occur on any area M 468
occur on one day M 462
occur in but one M 460
occur to him are M 446
occur if they did M 444
occur in each area M 442
occur in all his M 440
occur as they did M 438
occur to him not M 432
occur in each and M 430
occur in any real M 430
occur or are not M 426
occur in man are M 424
occur if they had M 416
occur to this day M 415
occur to him than M 414
occur to him who M 410
occur to her then M 406
occur in each year M 405
occur to her and M 394
occur or may not M 394
occur in old and M 390
occur to her how M 388
occur in this song M 388
occur in any but M 386
occur to men who M 382
occur in this new M 378
occur in this poem M 374
oceans of air and M 370
occur to them how M 370
occur to all men M 362
occur on this earth M 358
occur to you all M 350
occur or does not M 348
occur at low and M 344
occur we can not M 340
occur in each one M 340
occur at year end M 340
occur to you this M 330
occur in one who M 324
occur on one and M 322
occur at any and M 320
occur in men than M 316
occur on our own M 306
occur in any two M 303
occur to her now M 302
occur in all six M 302
occur in all its M 296
occur in any and M 294
occur if one does M 294
occur in our old M 288
occur if you had M 288
occur or can not M 278
occur in low and M 278
occur if one has M 276
occur so you can M 274
occur it was not M 274
occur in her own M 274
occur at all they M 274
occur so that one M 272
occur on and off M 272
occur at too low M 272
occur so they can M 268
occur or was not M 266
occur is that they M 266
occur to you then M 262
occur it can not M 260
occur at each age M 260
occur in air and M 258
occur in this year M 257
occur on and near M 256
occur in east and M 256
occur in and out M 256
occur as you are M 256
occur to her not M 254
occur to you with M 252
occur in one set M 250
occur as with any M 250
occur to them they M 248
occur if they can M 246
occur in man but M 244
occur to this man M 242
occur to them are M 242
occur to any but M 238
occur to you they M 234
occur at new and M 234
oceans as they are M 228
occur in its use M 222
occur or how long M 221
occur on earth and M 220
occur as you get M 220
occur if you did M 218
occur at all age M 218
occur in war and M 216
occur at that age M 213
occur on all but M 212
occur to all that M 210
occur or did not M 208
occur by any one M 206
occur on new year M 202
occur in any set M 202
occur to two men M 200
occur to one are M 200
occur at all but M 200
occur in but few M 198
occur in old men M 196
occur to you she M 194
occur in all men M 194
occur if you can M 194
occur in man with M 192
occur in any dog M 192
occur to you are M 190
occur of men who M 190
occur in that age M 190
occur in them all M 188
occur in any long M 188
occur in each age M 185
occur so that each M 184
occur in both man M 184
occur to our own M 182
occur or how they M 182
occur to her she M 180
occur or they may M 180
occur to you you M 176
occur to his own M 176
occur in this set M 174
occur of its being M 172
occur is that you M 172
occur on each day M 171
occur to you who M 170
occur so that all M 170
occur in his poem M 170
occur in any non M 166
occur in any job M 166
occur at this low M 166
occur in that one M 165
occur at all was M 164
occur to you not M 162
occur to him she M 162
occur in long and M 162
occur as they may M 162
occur to you but M 160
occur to him any M 160
occur or that are M 160
occur in this long M 160
occur if for any M 160
occur in any war M 158
occur to them was M 156
occur to them not M 156
occur if she has M 156
oceans is that they M 154
occur to one man M 152
occur in them with M 152
occur in new and M 152
occur to men that M 150
occur to deal with M 148
occur to him but M 146
occur in any man M 146
occur is not easy M 144
occur in two out M 144
occur in this day M 144
occur at all are M 144
occur in them that M 142
occur in them for M 142
occur at both low M 142
occur to him why M 140
occur or has not M 140
occur in them can M 140
occur in one but M 140
occur in both pre M 139
occur as you read M 138
occur is one that M 137
occur to men and M 136
occur in two age M 136
occur in his two M 136
occur he does not M 136
occur to her than M 134
occur in war are M 134
occur in men but M 134
occur on any beat M 132
occur in his area M 130
occur in dry and M 130
occur in both and M 130
oceans in this way M 128
occur on his own M 128
occur it may not M 128
occur in each new M 128
occur in any new M 128
occur in all old M 128
occur on any two M 127
occur to one and M 126
occur in them but M 126
occur in meat and M 126
occur so that any M 124
occur it did not M 124
occur in this than M 124
occur in all non M 124
occur in head and M 122
occur in both wings M 122
occur to any that M 121
oceans of our own M 120
occur or not and M 120
occur in dry air M 120
occur in any act M 120
occur if you get M 120
occur at this day M 120
occur to them with M 118
occur in both low M 118
occur by day and M 118
occur in all real M 116
occur if one had M 116
occur at each new M 116
occur as one goes M 116
occur in both old M 115
occur so that both M 114
occur in weak and M 114
occur if both are M 114
occur at top and M 114
oceans do not beat M 112
occur to him all M 112
occur to her was M 112
occur to any real M 112
occur in wet and M 112
occur in this war M 112
occur in low lying M 112
occur in both its M 112
occur to them than M 110
occur to her with M 110
occur or they are M 110
occur no one can M 110
occur in doing this M 110
oceans of our earth M 109
occur to man that M 109
occur on head and M 108
occur is one for M 108
occur in both wet M 108
occur if not all M 108
occur to them all M 106
occur in using this M 106
oceans to east and M 104
occur to any who M 104
occur so that this M 104
occur is that all M 104
occur in both his M 104
occur in all that M 104
occur in aging and M 104
occur if she did M 104
occur if one eye M 104
occur to him one M 102
occur in them may M 102
occur in any eye M 102
occur in all long M 102
occur at and are M 102
occur as they age M 102
oceans of this earth M 101
occur on each beat M 101
occur to him they M 100
occur in one leg M 100
occur in both our M 100
occur in both are M 100
occur if you set M 100
occur as they can M 100
occur is that one M 99
oceans so that they M 98
occur to bring out M 98
occur or that may M 96
occur or that its M 96
occur is that for M 96
occur in them than M 96
occur in our way M 96
occur in any old M 96
occur in air that M 96
occur if she had M 96
occur in his day M 95
occur in each set M 95
occur to them then M 94
occur in man may M 94
occur in both but M 94
occur he did not M 94
occur at its end M 94
occur at each and M 94
occur to bring them M 92
occur is that this M 92
occur if you add M 92
occur we are not M 90
occur to you any M 90
occur to bring him M 90
occur in red and M 90
occur in how they M 90
occur if you run M 90
occur at that end M 90
occur at this end M 89
occur to one with M 88
occur in two and M 88
occur in his long M 88
occur in all things M 88
occur if you put M 88
occur at low but M 88
occur at long and M 88
occur as you try M 88
occur in but two M 86
occur to them but M 84
occur to one not M 84
occur to cut off M 84
occur on our earth M 84
occur if too few M 84
occur if this was M 84
occur as any one M 84
occur to each one M 82
occur so that she M 82
occur on them are M 82
occur of doing him M 82
occur if you and M 82
occur to you than M 80
occur in both this M 80
occur if they all M 80
occur if one was M 80
occur as you age M 53
occur in things that M 45
occur in any law M 45
occur is not that M 42
occur in all seas D 834
oceans of ink and D 360
occur in this bed D 346
occur in one sex D 334
occur on both leaf D 235
occur in each row D 232
occur in this sub D 208
oceans of mud and D 196
occur in both ears D 154
occur in each sex D 130
occur in hot and D 128
oceans of red ink D 126
occur to mar our D 124
occur in our seas D 124
occur in gay men D 118
occur in art and D 98
occur to mar his D 92
oceans of mead and D 90
occur in fat and D 86
occur in gay and D 84
occur in one per D 82
occur to mar them D 80
occur to thee that D 44
