until i found a M 26534
until i found i M 1274
until i spent a M 588
until i wrote a M 478
until i feared i M 414
until i asked a M 408
until i write a M 326
until i catch a M 278
under a tutor a M 186
until i began a M 178
until i built a M 162
under a cloud a M 156
until i guess i M 148
until i tried a M 140
uneasy a state i M 128
until i broke a M 116
until a point a M 116
until i build a M 114
until i added a M 110
until i swore i M 106
until i faced a M 102
under a table a M 94
until i hired a M 92
until i earned a M 90
until i aimed a M 90
under a chair a M 90
under a white t M 87
until i seize a M 84
until a point d M 80
under a pound a D 382
under a penny a D 239
until i spied a D 212
under a stone a D 204
under a guinea a D 189
under a stone i D 162
under a hedge a D 130
under a cliff a D 124
under a spell i D 114
under a throne i D 92
until i fired a D 90
