off from where i M 956
off only after a M 704
off three times a M 507
off just below a M 417
off ever since i M 400
off even though i M 389
off into space a M 368
off just above a M 288
off from getting a M 222
off many times a M 212
off good after a M 192
off till after i M 177
off soon after i M 177
off even after a M 165
off duty after a M 160
off army group a M 159
off their hands a M 147
off from either a M 147
off just after i M 133
off four times a M 132
off into quite a M 109
off even though a M 94
off just beneath a M 90
off just where i M 83
off from point a M 70
off will cause a M 60
off work after a M 50
off here where i M 49
off here while i M 46
off from quite a M 43
off from under a M 40
off five times a M 40
off steam after a D 575
off steam about a D 106
off from thence a D 99
off three shots a D 42
