often they do not M 49529
often this is not M 20903
often not at all M 14216
often with the aid M 13156
often one or two M 10394
often end up with M 10114
often and so long M 7704
often you do not M 7171
offer one or two M 6965
often that it was M 6896
often that he was M 6542
often that it has M 6528
offer them to you M 6352
often and as long M 6329
often had to pay M 5838
offer his or her M 5730
often that he had M 5518
often end up being M 5346
often one of them M 4527
often try to get M 4244
often with the use M 4054
often had to deal M 3792
often that we are M 3738
often out of all M 3634
often had to use M 3630
often ask me how M 3620
offer you the job M 3568
offer him or her M 3337
often that we can M 3320
often led the way M 3210
often than in any M 3174
often than it does M 3136
offer them to him M 3104
often put to death M 3043
often had no idea M 2740
offer them to god M 2662
often this is due M 2658
often not an easy M 2600
often than it has M 2534
often that is not M 2522
often than it was M 2504
offer him the job M 2502
often did so with M 2406
often had to put M 2380
often put up with M 2356
often has to deal M 2350
offer that is not M 2274
offer you my arm M 2248
often lead to new M 2228
often than he did M 2124
often one or both M 2089
often ask me why M 2088
often that it had M 2078
often had to ask M 2034
often than he was M 2024
often and do not M 1992
often ill at ease M 1986
often had to get M 1978
often try to use M 1966
often than he had M 1934
often for as long M 1910
often had to run M 1900
often out of his M 1856
often did in his M 1844
often easy to see M 1792
often with the aim M 1786
often that he has M 1776
often say to him M 1768
often with an eye M 1752
often that no one M 1731
often that we see M 1720
offer one of his M 1694
often has to pay M 1686
often than we are M 1662
often end up doing M 1622
often than do men M 1602
often say to her M 1542
often lead to death M 1498
offer and it was M 1488
often than the men M 1484
often had to sit M 1482
often than he does M 1460
often due to this M 1456
often does so with M 1450
often his or her M 1433
often does in his M 1416
often had to act M 1410
often one of his M 1359
often than it did M 1342
often that it can M 1336
often that we get M 1330
often this is all M 1312
often use it for M 1290
often say to his M 1286
offer them to her M 1278
offer one of them M 1273
often set up for M 1263
often read to him M 1260
often led to war M 1248
often put an end M 1244
often ask if they M 1242
often and it was M 1238
often with the idea M 1230
often get to see M 1228
offer her the job M 1224
offer this to you M 1212
often than to any M 1204
often easy to get M 1204
often not the real M 1168
often not so easy M 1166
often led to his M 1160
often had to buy M 1158
often has to use M 1148
often has no idea M 1144
often goes on for M 1144
offer them to his M 1144
offer you in this M 1120
often put to use M 1104
often not the one M 1096
often led to new M 1084
often lead the way M 1080
often had he not M 1076
often has to act M 1068
often that it may M 1062
often see in our M 1060
often not the lie M 1056
often goes so far M 1046
often that he did M 1042
offer that he had M 1032
often one of its M 1028
often get by with M 1014
offer him the use M 1010
often they do this M 994
often sat in his M 994
often has it not M 994
often read to her M 992
often going so far M 986
often has as its M 958
often get up and M 950
often than in men M 944
often had to lie M 942
often due to his M 942
often than at any M 940
often had to bear M 930
offer you the use M 930
often all of them M 928
often led to death M 926
often out of fear M 913
often sat up all M 908
offer each of them M 908
often that he can M 890
often try to put M 888
often had to say M 886
often does it not M 880
often you do this M 876
often ask me for M 876
offer you my own M 870
offer for the use M 870
often set up with M 854
often she is not M 852
offer him to god M 844
offer all of them M 840
often that is all M 838
often had in his M 838
often with the head M 828
often get the idea M 828
often had to beg M 824
often led to its M 822
often than the non M 818
often out of our M 812
often lead to long M 805
offer her my arm M 802
offer them to our M 800
often that we had M 796
often did so for M 790
often due to its M 788
often sat at his M 784
often use the two M 780
often one to two M 779
often with an air M 776
often near the end M 770
often both of them M 764
often are in our M 764
often all the way M 763
often not as easy M 724
often sat on his M 722
offer him up for M 716
often and as far M 714
offer few if any M 705
often and he was M 704
often one of our M 703
often and in too M 702
often one is not M 701
offer and do not M 694
often did he say M 684
often lead to its M 682
often had to cut M 682
offer them to one M 681
offer them to all M 676
often was in his M 668
often does in this M 668
often say to each M 662
often with the two M 654
often set up and M 652
often ask to see M 646
often lead to war M 645
often hear or read M 645
often has no way M 644
often due to our M 642
offer them up for M 642
often see in this M 640
often are in this M 638
often but do not M 634
often due to bad M 630
often and so far M 622
offer him to you M 620
often and in how M 618
often that we hear M 616
offer any thing that M 611
often say to them M 610
often put to him M 606
often goes to see M 606
often see or hear M 604
often end in death M 595
often due to one M 595
often that of his M 594
often led to long M 594
often lead to this M 592
often had to hear M 592
often near the top M 586
often bring to his M 586
offer her to you M 586
often say of him M 580
offer one of two M 580
often led by his M 578
often has to ask M 566
often put up for M 562
often than he has M 560
offer you at this M 558
offer her the use M 558
often that he does M 556
often that we may M 552
often got up and M 546
often due to low M 546
often led by men M 544
offer that no one M 544
often put to her M 542
often had to bring M 542
offer and he was M 538
often things do not M 535
often men do not M 534
often had to try M 534
often act in this M 530
often say to one M 526
often that he got M 522
often read to them M 520
often did in her M 520
often team up with M 518
offer each of you M 517
offer for the new M 516
often that the two M 515
offer them the use M 514
often that it does M 512
often that he may M 512
often than the one M 511
often had to read M 510
often end up using M 508
often end up not M 508
often err in this M 506
often hear is that M 505
often going as far M 500
often has to put M 498
often had the idea M 498
offer you if you M 498
often two of them M 495
often than the low M 495
often due to too M 484
often for so long M 477
offer all of our M 475
often that the man M 474
offer for the two M 474
often won the day M 472
offer that he was M 468
offer them in this M 466
offer that it was M 466
often than we may M 464
often than we did M 464
often than if they M 464
offer any of them M 464
often than the old M 461
offer them at all M 461
often say it was M 460
offer them to any M 446
often than it had M 444
often saw in his M 444
often not the way M 444
often had to fly M 442
often had no real M 442
often all we can M 440
often try to bring M 438
often read or hear M 438
often has no real M 438
often sat at her M 436
often has he not M 436
often had the poet M 436
often and he had M 436
often see the end M 433
often that the old M 432
often than we can M 432
often not in any M 432
often lead to low M 432
offer and the way M 430
often you do each M 428
often than the two M 428
often mean is that M 428
often lead to his M 426
often hear the cry M 426
often did in this M 422
offer you is that M 420
often with the old M 418
often than in his M 418
often ask us how M 418
often put in this M 416
offer you is this M 416
offer and is not M 416
often but it was M 414
offer one of her M 414
often had to set M 410
often than he won M 408
often and is not M 408
often than the man M 407
often saw the old M 406
often out of her M 406
often put to his M 404
often with no one M 402
often than if you M 402
offer was so far M 401
offer one of its M 401
often say to our M 400
often say we are M 398
often are we not M 398
offer you by way M 398
offer all of its M 397
often due to fear M 396
often does he get M 396
often lead to bad M 395
offer you the sum M 394
often say in his M 392
often cut up and M 392
offer that is new M 391
often sat by his M 390
often hear of this M 390
often has to get M 390
offer you is not M 390
often with the new M 388
often than by any M 388
often for the use M 388
often sat in her M 386
often did we hear M 386
often did at this M 386
often one of two M 380
often had no way M 380
often than we had M 378
offer for the lot M 376
often get an idea M 374
offer and the two M 374
often with my own M 370
often this is one M 370
often not as they M 370
often long to see M 370
often does the job M 370
often has to bear M 366
often did we cut M 366
often that it did M 364
often sit up all M 364
often see the two M 364
often use in this M 362
often sat by her M 362
often read of this M 362
often saw the two M 361
often than on any M 360
often get it all M 360
often bring to bear M 360
often sat on her M 358
often goes to his M 358
often for my own M 358
often does in our M 358
offer but do not M 356
often does so for M 354
offer him in his M 354
offer any thing new M 354
often this is how M 352
often sit in his M 352
often had to lead M 352
offer any of his M 352
often sat in with M 350
often had the air M 350
often did at that M 348
often add to this M 346
offer them in any M 346
offer that is too M 345
offer ease of use M 345
often than is now M 344
often and by how M 344
offer them by way M 344
often say to you M 342
often has the idea M 342
offer this as one M 341
often doing so with M 340
often read in this M 338
often led to this M 338
often led to her M 338
often has in his M 338
often goes as far M 338
offer one or both M 336
offer for the job M 336
often sat in this M 334
often use it with M 332
often not in our M 332
often end up going M 332
offer you an easy M 332
often with the long M 328
often one of her M 326
often set so that M 325
offer any of its M 321
often they go out M 320
often led to them M 320
often and in all M 320
often not so long M 319
often goes by that M 318
often are the key M 318
often with no real M 314
often that it now M 314
often lit up with M 314
offer that we can M 314
often try to run M 312
often than the new M 312
often had to see M 312
offer all of you M 312
often try to set M 310
often that he saw M 310
often read to his M 310
often has to say M 310
offer them up with M 310
often try to read M 308
often hear of them M 308
often that the new M 306
often dry up and M 306
offer but it was M 305
often this or that M 304
often see is that M 304
often had tea with M 304
often does he see M 304
offer that to you M 304
often that of one M 302
offer him tea and M 302
often try to fit M 300
often this is too M 300
offer them as they M 299
often each of them M 298
offer any or all M 297
often and it has M 296
often that by now M 294
often set in with M 294
often sat in that M 294
offer you on this M 294
offer than the one M 294
often use the old M 292
often had to let M 292
offer them in all M 292
offer her to him M 292
often can be put M 290
offer them an easy M 290
often with no idea M 288
often may be due M 288
often has to read M 288
often saw in her M 286
often hear of men M 286
often had no one M 285
offer that he can M 285
often not to his M 284
often this is for M 282
often not by any M 282
often not as bad M 282
offer him by way M 282
often you do them M 280
often not so far M 280
often had as its M 280
often did he not M 280
often not the end M 279
often use in our M 278
often six to ten M 277
often led in her M 276
often easy to use M 276
offer for the old M 276
often see the sun M 275
offer was to pay M 275
often that the real M 274
often has an air M 274
often due to her M 274
offer you my aid M 274
offer him the one M 274
offer two of them M 273
often cling to them M 272
often try to see M 270
often due to non M 270
often arm in arm M 270
often see the old M 268
often put it out M 268
offer him the new M 268
offer all of this M 268
often was the one M 267
often led by one M 267
often use the idea M 266
often hear the old M 266
often and at all M 266
often has to run M 264
often add to our M 264
offer one of our M 263
often that the men M 262
often than do non M 262
often put in long M 262
often not in his M 262
often had to earn M 262
often get the job M 262
often than we see M 260
often one on top M 260
often has at its M 260
offer them as new M 260
offer one to his M 260
often use to get M 256
often has he had M 256
offer them if they M 256
offer you do not M 255
often try to deal M 254
often that he and M 254
often they do both M 252
often that an old M 252
often all in one M 252
offer any thing but M 252
offer and of her M 251
often try to buy M 250
often see in them M 250
often out of its M 250
often mix it with M 250
offer was the one M 250
often than of any M 248
often hear of you M 248
often did he get M 248
often that it got M 246
often that he who M 246
often see in old M 246
often not be easy M 246
often has the air M 246
often due to long M 246
often can be read M 246
often read of them M 245
often win the day M 244
often sings an old M 244
often put to this M 244
often how it was M 244
often did it with M 244
often lead to one M 243
often hear of him M 242
offer her or his M 242
often that if you M 240
often led to bad M 240
offer this or that M 240
often led to one M 239
often does the one M 239
often read in his M 238
often out of this M 238
often hear of his M 238
often easy to say M 238
often bring to our M 238
offer this as any M 238
often use is that M 237
often has no one M 237
often does the man M 237
often see in his M 236
often ask if you M 236
offer you tea and M 236
often not in its M 234
often led to ask M 234
often lead to big M 234
often did so out M 234
offer him an easy M 233
often with the men M 232
often was at this M 232
often one by one M 232
often and to use M 232
offer him the cup M 232
often try to cut M 230
often put on too M 230
often had an air M 230
often does he use M 230
often does he say M 230
often sat up with M 228
offer for the sin M 228
offer and he had M 227
offer all to god M 227
often led the singing M 226
often going on for M 226
often did the old M 226
often did in our M 226
offer this to any M 226
often owing to his M 224
often did we not M 224
often did in that M 224
offer him in this M 224
often and he did M 222
often try to act M 220
often read in our M 220
often put in for M 220
often does in its M 220
often did to his M 220
often did the job M 220
often are to men M 220
offer may or may M 219
often err in our M 218
often weak or non M 216
often has to buy M 216
often did on his M 216
often day by day M 216
offer and we are M 216
often try to win M 214
often set up his M 214
often hear in our M 214
often and at too M 214
offer that he has M 214
offer than he had M 214
offer and the new M 213
often with me and M 212
often hear in this M 212
often had it not M 212
often and we are M 212
often had he sat M 210
often end by being M 210
often due to not M 210
often does so too M 210
often both the one M 210
often see an old M 208
often put on his M 208
often lead to both M 208
often had to lay M 208
often had he read M 208
often one of fear M 207
often get in one M 206
often end up eating M 206
often easy to read M 206
often did we see M 206
offer that if they M 205
often using the old M 204
often that we did M 204
often one in each M 204
often had to beat M 204
often apt to lead M 204
often and we had M 204
often lead to non M 203
offer and if you M 203
often than in all M 202
often read of his M 202
often out in his M 202
often had of being M 202
often had he and M 202
often does in her M 202
offer all he had M 202
often lead to real M 201
often try to say M 200
offer them the job M 200
often get as far M 198
often they do that M 197
often that we got M 196
often get to hear M 196
offer was in one M 196
offer them tea and M 196
often with an old M 194
often not to see M 194
often goes to her M 194
often cut in two M 194
offer them the things M 194
offer her my seat M 193
often led to ill M 192
often hear me say M 192
offer them in his M 192
offer all of his M 192
offer than the old M 191
often see the men M 190
often due to ill M 190
often that we all M 188
often that of being M 188
often singing as they M 188
often not of his M 188
often new to them M 188
often did so not M 188
often did he see M 188
offer them at this M 188
offer him my own M 188
often that the law M 187
often mix the two M 187
often that he now M 186
often run up and M 186
often run by one M 186
often may be too M 186
often led to see M 186
often going in and M 186
often get in our M 186
often and no one M 185
often with the man M 184
often that in this M 184
often get the two M 184
often ask us why M 184
often are the real M 184
often put up and M 182
often had to bow M 182
often for no pay M 182
often due to both M 182
often being as low M 182
often ask me that M 182
often put on one M 181
offer them to its M 181
often with the dead M 180
often out at this M 180
often led to use M 180
often has to try M 180
often has to set M 180
often goes up and M 180
often get in each M 180
often act the way M 180
offer for it and M 180
often not an end M 179
offer and of his M 179
often than to men M 178
often sit at his M 178
often see the use M 178
often run on for M 178
often bar the way M 178
often and in any M 178
offer that is being M 178
offer each of its M 178
often you go out M 176
often that if they M 176
often than in our M 176
often one of being M 176
often lead to them M 176
often goes on with M 176
often end the day M 176
often did we get M 176
offer him the aid M 176
offer any of her M 176
often out of one M 175
offer that to god M 175
often try to fix M 174
often lead to job M 174
often had the job M 174
often does it with M 174
offer you the cup M 174
offer you in his M 174
offer them no real M 174
offer any thing for M 174
often that at one M 172
often than of old M 172
often pay to use M 172
often owe to them M 172
often had to add M 172
often had he had M 172
often does he not M 172
often ask me this M 172
offer her or him M 172
often put it off M 171
often this is far M 170
often led to that M 170
often ask us for M 170
often and to get M 170
offer them as his M 170
offer that he did M 170
offer him the two M 170
often that the one M 169
often one on each M 169
offer and we had M 169
often that in his M 168
often set up near M 168
often put in and M 168
often now as they M 168
often lead to dead M 168
often lay on his M 168
often ate at his M 168
offer both of them M 168
offer and the job M 167
often with no mean M 166
often sit up and M 166
often set up new M 166
often run by men M 166
often read as being M 166
often how to get M 166
often ate it too M 166
often you eat out M 165
offer one to her M 165
often with an arm M 164
often win the war M 164
often than to his M 164
often sit in this M 164
often put on with M 164
often led to say M 164
often can be and M 164
often and if you M 164
offer was an act M 164
often put on for M 162
often not so bad M 162
often lie in that M 162
often led to low M 162
often lay in his M 162
often had in her M 162
often does in that M 162
offer but he had M 162
offer any on his M 162
often than the day M 161
offer him my seat M 161
often than in that M 160
often than he can M 160
often going to his M 160
often aid in this M 160
offer her by way M 160
offer and the one M 160
often get so far M 158
often does at this M 158
offer them to this M 158
offer them my own M 158
offer may be for M 158
often with the end M 157
often use the one M 157
often try to add M 156
often out of meat M 156
often men of low M 156
often going to see M 156
often goes in for M 156
often end in sin M 156
often did he hear M 156
often act as both M 156
offer this as our M 156
offer and it has M 155
often with us and M 154
often with the fear M 154
often was at that M 154
often thus it had M 154
often than in real M 154
often say of two M 154
often out of them M 154
often had the old M 154
often can be had M 154
offer year by year M 154
often are the two M 153
often use an old M 152
often than it can M 152
often sat to him M 152
often read my own M 152
often put on them M 152
often may be far M 152
often hear of its M 152
often has to add M 152
often had the two M 152
often got on his M 152
often die or are M 152
often and the two M 152
offer this to all M 152
offer him the seat M 152
offer any at all M 152
often than in non M 151
often cut in one M 151
offer all we are M 151
often you eat them M 150
often with the death M 150
often weak in this M 150
often put to them M 150
often got in his M 150
often did it not M 150
often but is not M 150
offer you in all M 150
offer this to them M 150
often with the dear M 149
often than the law M 149
often with the sun M 148
often was in her M 148
often sit in her M 148
often out of gear M 148
often one to one M 148
often got the job M 148
often does the sun M 148
often and in this M 148
offer you the things M 148
offer them at that M 148
offer her an arm M 148
offer both of you M 148
often say we can M 146
often say in our M 146
often saw an old M 146
often put in with M 146
often lay in its M 146
often end up dead M 146
offer you as you M 146
often has it that M 145
often sit on his M 144
often see us get M 144
often read to each M 144
often got in each M 144
often did it for M 144
often can we say M 144
often apt to say M 144
often and he has M 144
often all of one M 144
offer them in that M 144
offer them in our M 144
offer any to his M 144
often did the two M 143
offer you the one M 143
offer and in his M 143
often was at his M 142
often they do get M 142
often sat on that M 142
often put it this M 142
often did we try M 142
often are at this M 142
often all the day M 142
often add to his M 142
offer may be too M 141
often see in men M 140
often read of men M 140
often put in his M 140
often mean the end M 140
offer was to buy M 140
often say is that M 139
often with the one M 138
often use it now M 138
often sit in our M 138
often see in one M 138
often saw the new M 138
often lit up his M 138
often led to him M 138
often has in its M 138
often has he led M 138
often did we two M 138
often can be cut M 138
often are of this M 138
often are of low M 138
often act as they M 138
offer that he and M 138
offer her the cup M 138
offer her tea and M 138
offer all the aid M 138
often you do things M 136
often with the air M 136
often with an ill M 136
often that the idea M 136
often opt to use M 136
often did so and M 136
often but it does M 136
often are we going M 136
often and so did M 136
often act on you M 136
offer you the new M 136
offer than to ask M 136
offer any of this M 136
often lead to two M 135
offer them in its M 135
often using it for M 134
often that of her M 134
often than the mean M 134
often than the bad M 134
often say of one M 134
often run as low M 134
often not so for M 134
often has to bring M 134
often had to hang M 134
often due to new M 134
often did to get M 134
often both he and M 134
often ask is how M 134
offer was so low M 134
offer and the deal M 134
often that the use M 132
often sad to see M 132
often owe to each M 132
often lead to any M 132
often lead to and M 132
often had an eye M 132
often due to weak M 132
often did he let M 132
often can be set M 132
offer you my death M 132
offer them so that M 132
offer him at this M 132
often may be that M 131
offer out of fear M 131
offer one or any M 131
often you do that M 130
often say he was M 130
often read it with M 130
often lay in one M 130
offer out of his M 130
offer aid to all M 130
offer but he was M 129
often than we hear M 128
often than he saw M 128
often set in rings M 128
often not of any M 128
often not as long M 128
often lie on top M 128
often led to both M 128
often lead to ill M 128
often hear of our M 128
often get on each M 128
often due to eye M 128
often due to being M 128
often does it for M 128
often but he was M 128
often act as his M 128
often won at this M 126
often they do things M 126
often that the way M 126
often ten to one M 126
often see the man M 126
often see in him M 126
often saw the men M 126
often out in our M 126
often had my own M 126
often bring in new M 126
often are the things M 126
often and it had M 126
offer this by way M 126
often and the one M 125
offer him to his M 125
often was by his M 124
often use my own M 124
often see the top M 124
often see in real M 124
often has the cry M 124
often doing so for M 124
often did he try M 124
often bring on this M 124
often apt to get M 124
often and it does M 124
often and if they M 124
offer you the way M 124
offer you my son M 124
offer him my arm M 124
offer her in her M 124
often are in real M 123
offer one to each M 123
often with an idea M 122
often was to say M 122
often try to pay M 122
often they do him M 122
often than in its M 122
often see the new M 122
often sat up far M 122
often put on her M 122
often lie in this M 122
often led to real M 122
often hid us all M 122
often going up and M 122
often can do this M 122
often being the one M 122
offer you to god M 122
offer you the key M 122
offer her in this M 122
offer and to ask M 122
offer one to you M 121
offer for it was M 121
offer but he did M 121
offer all of that M 121
often with the law M 120
often use the web M 120
often that we now M 120
often that is how M 120
often say to god M 120
often sat to read M 120
often sat on this M 120
often sat on one M 120
often has to cut M 120
often had on his M 120
often for the man M 120
often and on one M 120
offer you the head M 120
offer you an arm M 120
offer him the key M 120
offer her at this M 120
offer for as long M 120
offer and no one M 120
often with an area M 118
often too it has M 118
often than my own M 118
often sat at this M 118
often put the two M 118
often may we see M 118
often lead to use M 118
often how he was M 118
often got to see M 118
often does the team M 118
often did to her M 118
often did the man M 118
often did he use M 118
often did he ask M 118
offer you my seat M 118
offer this to god M 118
offer him in its M 118
offer and to say M 118
often with the real M 116
often that of man M 116
often than we now M 116
often lie on his M 116
often lead to that M 116
often had the use M 116
often for he was M 116
often dry at low M 116
often did as they M 116
often both in his M 116
often and it can M 116
offer him the sum M 116
often year by year M 114
often saw on his M 114
often out of use M 114
often not of this M 114
often not of our M 114
often new to him M 114
often has an odd M 114
often goes on all M 114
often does so not M 114
often cling to old M 114
often ask if this M 114
often any thing but M 114
often act on them M 114
offer you in our M 114
offer them on that M 114
offer that to them M 114
often both in one M 113
offer one to him M 113
offer all the things M 113
often was the way M 112
often use the new M 112
often sat in our M 112
often read it and M 112
often read in her M 112
often put to one M 112
often put on top M 112
often not in that M 112
often has to lie M 112
often has the fear M 112
often due to them M 112
often act on this M 112
often act as one M 112
offer this to him M 112
offer them to each M 112
offer for so doing M 112
offer due to his M 112
offer all or any M 112
offer aid to any M 112
often with an easy M 110
often too it was M 110
often than the few M 110
often than by men M 110
often say he had M 110
often put on this M 110
often not as far M 110
often lying on his M 110
often led by our M 110
often has the long M 110
often die in this M 110
often ask at this M 110
often and he does M 110
offer was at that M 110
offer now to you M 110
offer them the key M 109
offer had it not M 109
offer had he not M 109
often set so low M 108
often see the head M 108
often see no way M 108
often now it was M 108
often not in use M 108
often hear or see M 108
often had we not M 108
often had an odd M 108
often does in real M 108
often did me that M 108
often did in new M 108
often dead or dying M 108
often ask me who M 108
often and at any M 108
offer was in all M 108
offer him in that M 108
offer and it may M 108
often that the son M 107
offer for the head M 107
offer and the bid M 107
offer and it had M 107
offer and he did M 107
often with no end M 106
often use the law M 106
often then as now M 106
often that the boy M 106
often that of two M 106
often set on top M 106
often see on our M 106
often say he has M 106
often run to her M 106
often may be had M 106
often led the men M 106
often has in this M 106
often had the head M 106
often are in old M 106
often add to its M 106
offer you my head M 106
offer you is one M 106
offer them at any M 106
offer and of its M 106
often lead to far M 105
often get is that M 105
offer that the two M 105
often was to him M 104
often than it goes M 104
often than is any M 104
often set in new M 104
often lit up and M 104
often led to two M 104
often lead to our M 104
often has an idea M 104
often had the ill M 104
often had in them M 104
often got an old M 104
often goes on and M 104
often does he ask M 104
often ask if she M 104
often apt to see M 104
offer you an idea M 104
offer them at low M 104
offer one at all M 104
offer him the things M 104
often not the key M 103
often not in one M 103
often due to two M 103
often and go out M 103
often with the top M 102
often was to her M 102
often use in his M 102
often two or all M 102
often that the poet M 102
often that the aim M 102
often that if she M 102
often than the head M 102
often than it now M 102
often than by his M 102
often set in and M 102
often set by law M 102
often read as one M 102
often ran on for M 102
often one of each M 102
often lead to her M 102
often lead to fear M 102
often has the sun M 102
often has the poet M 102
often had in our M 102
often for the dead M 102
often fix the day M 102
often fit in with M 102
often each of you M 102
often due to that M 102
often but he did M 102
often are the men M 102
offer you an old M 102
offer her if she M 102
offer and go with M 102
offer with the idea M 101
offer that to him M 101
often with as few M 100
often try to lead M 100
often sit or lie M 100
often not be too M 100
often near to death M 100
often long to get M 100
often led by lay M 100
often lay on her M 100
often had the joy M 100
often due to using M 100
often but it has M 100
often both by day M 100
often and by too M 100
often act on his M 100
offer you the two M 100
offer not up old M 100
offer him the head M 100
often with my son M 99
often was it that M 99
often using the two M 99
often had no say M 99
offer was to say M 99
offer them is that M 99
offer him an arm M 99
often try to beat M 98
often than do low M 98
often sit in one M 98
often sat at our M 98
often put on our M 98
often not the man M 98
often near the head M 98
often men of this M 98
often mean by this M 98
often had the sad M 98
often had at his M 98
often got on her M 98
often are of our M 98
often and in far M 98
often all on one M 98
offer you in its M 98
offer ten to one M 98
offer one to two M 98
offer and the man M 98
offer and in due M 98
often than the real M 97
often set to one M 97
often lie in one M 97
offer and is now M 97
often with the year M 96
often was to get M 96
often was in that M 96
often was in its M 96
often that of its M 96
often than on his M 96
often than if she M 96
often run in this M 96
often read of him M 96
often read of and M 96
often put in two M 96
often led by new M 96
often lead us far M 96
often got up with M 96
often going to get M 96
often goes by her M 96
often fit in this M 96
often die in our M 96
often can be too M 96
often can be run M 96
often all we had M 96
offer you the aid M 96
offer you my year M 96
offer was to get M 96
offer them as one M 96
offer her up for M 96
offer and the act M 96
often one on one M 95
often due to age M 95
offer with an air M 95
offer that to any M 95
often use the long M 94
often this is easy M 94
often they do them M 94
often than do any M 94
often put in its M 94
often not at his M 94
often led to our M 94
often has the job M 94
often hang on for M 94
often get to use M 94
often does it lead M 94
often did in real M 94
often and we can M 94
often and it may M 94
often and in his M 94
often all he has M 94
offer you my all M 94
offer this to our M 94
offer them do not M 94
offer him or his M 94
offer him no real M 94
offer but to lay M 94
offer and he and M 94
often not an all M 93
offer and we can M 93
often was in this M 92
often than we get M 92
often saw the day M 92
often may we hear M 92
often hear of new M 92
often has at his M 92
often had so long M 92
often goes in one M 92
often for the men M 92
often for me not M 92
often did he cry M 92
often beat up his M 92
offer them is not M 92
offer him if they M 92
offer her an easy M 92
often for the two M 91
often can be far M 91
offer one or all M 91
offer for the way M 91
offer any of you M 91
often that the head M 90
often than the red M 90
often set in his M 90
often see the things M 90
often see the big M 90
often see in her M 90
often say or hear M 90
often owing to its M 90
often not be got M 90
often hear the idea M 90
often goes in and M 90
often get in and M 90
often for the one M 90
often die as they M 90
often cut in this M 90
often but he had M 90
often are we thus M 90
often are in any M 90
often and so are M 90
offer this as his M 90
offer him in aid M 90
offer him at his M 90
offer all he has M 90
often with us all M 88
often too as any M 88
often that we read M 88
often that we deal M 88
often that the key M 88
often see at this M 88
often saw the man M 88
often sat on our M 88
often one of long M 88
often lying so near M 88
often let me sit M 88
often has to sit M 88
often has as one M 88
often easy to bring M 88
often die if they M 88
often apt to bring M 88
offer them the aid M 88
offer them on this M 88
offer that we had M 88
offer him the oath M 88
offer him on his M 88
offer him in our M 88
offer but my own M 88
often with the poet M 86
often with an odd M 86
often than at his M 86
often say by way M 86
often saw in our M 86
often put to our M 86
often put on and M 86
often out of seat M 86
often may be put M 86
often led to too M 86
often hung at her M 86
often had the boy M 86
often got as far M 86
often for the long M 86
often few if any M 86
often does the old M 86
often does it get M 86
often does in old M 86
often did we say M 86
often are at war M 86
often are as low M 86
often act it out M 86
offer this to her M 86
offer him is not M 86
offer are my own M 86
often lead to weak M 85
often lead to too M 85
offer and the sum M 85
often with the way M 84
often that in any M 84
often than we use M 84
often see the sky M 84
often put to you M 84
often one is led M 84
often led us far M 84
often led to dead M 84
often had an idea M 84
often got so far M 84
often end in this M 84
often does he aim M 84
often cut us off M 84
often cling to our M 84
often being the seat M 84
often beat me with M 84
often and is too M 84
often add to her M 84
often act as its M 84
offer you the old M 84
offer them the new M 84
offer him the war M 84
offer her to our M 84
offer and it did M 84
offer and by his M 84
offer all to you M 84
often run in two M 83
offer him the top M 83
often with me now M 82
often with me for M 82
often two in one M 82
often sit up with M 82
often sit on top M 82
often sit on her M 82
often set on one M 82
often sat by him M 82
often put me off M 82
often owing to this M 82
often now he was M 82
often lay at his M 82
often has the old M 82
often has the head M 82
often had to win M 82
often had to fit M 82
often had the bad M 82
often had in its M 82
often had he put M 82
often for it not M 82
often did my own M 82
often did at her M 82
often bring up this M 82
often are the seat M 82
often add to them M 82
offer him at that M 82
often led to fear M 81
often with the eye M 80
often with the big M 80
often they of his M 80
often that of men M 80
often than the long M 80
often than in new M 80
often than do his M 80
often sit in that M 80
often set as low M 80
often see on them M 80
often saw in this M 80
often saw at his M 80
often sat in for M 80
often run in and M 80
often read to mean M 80
often ran up and M 80
often one of real M 80
often not of that M 80
often may it not M 80
often let me lead M 80
often let it run M 80
often how it goes M 80
often had to fix M 80
often had the new M 80
often had it read M 80
often due to eating M 80
often cut to fit M 80
often are we led M 80
often are in his M 80
often are an aid M 80
often and is now M 80
often all the men M 80
offer him in all M 80
offer that it can M 67
offer for the one M 67
offer that if you M 64
offer for the day M 64
offer and to get M 64
offer and to use M 63
often does the earth M 62
offer that we may M 62
offer that we are M 62
often out of key M 60
offer for my own M 60
offer and if they M 60
offer for it that M 59
often set at one M 58
offer for the year M 57
offer for the dead M 57
offer and to pay M 57
offer that it has M 56
offer for the meat M 55
offer for the long M 53
often due to air M 52
offer all the way M 52
offer for me and M 50
offer and to see M 50
offer they do not M 49
offer them the one M 47
often set up that M 46
offer for the ten M 46
often end up out M 45
offer him the lead M 45
offer for the non M 45
offer aid to them M 45
offer aid to his M 45
often use the mean M 44
often hear the two M 44
often for the day M 44
offer that it had M 44
offer and he has M 44
often men of real M 43
often lead to all M 43
often due to heat M 43
often did he long M 43
often cut so that M 43
offer for the death M 43
often led to all M 42
offer that he does M 42
offer not to use M 42
offer and to put M 42
offer and go out M 42
often bring it out M 41
often add to that M 41
offer was by far M 41
offer has so far M 41
offer and in its M 41
often with the red M 40
often put me out M 40
often did so that M 40
often and so that M 40
offer that it may M 40
often lay in bed D 782
often met at his D 720
often had to wear D 640
often lie in bed D 515
often met in his D 510
offer them to thee D 474
often met up with D 450
often met in our D 444
often met in this D 372
often goes to bed D 344
often had to dig D 342
often can be met D 320
often not be met D 318
often sung in his D 304
often sang as they D 296
often dug up and D 280
often was he met D 278
often sung to him D 274
often met at her D 268
often going to bed D 261
often with the tip D 260
often fob us off D 258
often sung to her D 244
offer for the car D 243
often tie in with D 240
often sang to her D 224
often wet the bed D 214
often read in bed D 204
often rung in his D 200
often met in her D 194
often fed by his D 194
often out of bed D 192
often sung in our D 186
often with the pan D 178
often low in fat D 177
often with the pen D 170
often put to bed D 170
often had to lean D 166
often sang to him D 164
often sang the song D 164
often fed by thee D 158
often sang as she D 146
often lying in bed D 146
often met at our D 144
often led the van D 144
often met in one D 135
often had he met D 134
often hinge on how D 132
often sang to his D 126
often met to read D 124
often say in fun D 116
often ringing in his D 116
often does the bus D 116
offer her an egg D 116
often met the eye D 112
often sang to them D 110
often met at each D 110
often for the fun D 108
often met in each D 106
offer her to thee D 106
often see the fox D 104
often met an old D 104
often fed up with D 104
often met by using D 98
often sung by our D 96
often sang the old D 94
often using the pen D 93
often met on our D 92
often met at this D 92
often met in that D 89
often sung by them D 88
often sung by men D 88
often sung by his D 88
often rang in his D 88
often had to rub D 88
often fun to read D 88
often than he hit D 86
often sang in his D 86
often sang at her D 86
often met the old D 86
often has to dig D 86
often dug up old D 86
often met in real D 82
often had to sue D 82
often met the two D 80
often met me with D 80
offer this to thee D 66
often with the fur D 44
offer for the oil D 42
