and is therefore a M 144271
and to maintain a M 118184
and it provides a M 61304
and it requires a M 48604
and he received a M 38540
and is probably a M 35291
and it contains a M 33482
and it required a M 24750
and to exercise a M 20194
and it provided a M 19168
and he remained a M 18738
and he produced a M 17896
and it remained a M 17142
and to generate a M 15940
and it produces a M 15752
and it includes a M 15022
and if possible a M 13579
and it produced a M 13492
and in developing a M 12814
and it presents a M 12414
and it involves a M 12238
and he obtained a M 11988
and to conclude a M 10428
and he proposed a M 10312
and is actually a M 10146
and to discover a M 9126
and it included a M 8966
and to consider a M 8723
and he suffered a M 8474
and so provides a M 8356
and by developing a M 8124
and to identify a M 7820
and is assigned a M 7678
and to purchase a M 7600
and do whatever i M 7340
and he acquired a M 7270
and it suggests a M 7134
and to complete a M 7056
and it received a M 6782
and to describe a M 6648
and is completing a M 6488
and in practice a M 6169
and he prepared a M 6160
and so produces a M 5970
and is developing a M 5924
and we received a M 5746
and he receives a M 5710
and it involved a M 5696
and it deserves a M 5696
and he provided a M 5402
and the distance d M 5398
and he accepted a M 5334
and of developing a M 5068
and he provides a M 4878
and it occupies a M 4822
and to organise a M 4682
and to commence a M 4462
and he demanded a M 4346
and it reflects a M 4292
and we exchanged a M 4286
and to proclaim a M 4222
and he composed a M 4208
and to advocate a M 3948
and by extension a M 3924
and it exhibits a M 3914
and the constant a M 3898
and he retained a M 3808
and to continue a M 3736
and he mentioned a M 3728
and the distance a M 3691
and so provided a M 3646
and so complete a M 3427
and so produced a M 3412
and he presents a M 3386
and is possibly a M 3378
and the children a M 3294
and so requires a M 3260
and it receives a M 3250
and in appendix a M 3148
and he develops a M 3058
and he expected a M 3008
and he achieved a M 3008
and to assemble a M 2956
and so powerful a M 2950
and the interest i M 2856
and it supports a M 2770
and so maintain a M 2768
and he returned a M 2766
and the children i M 2746
and is likewise a M 2740
and he suggests a M 2728
and it concerns a M 2694
and he proposes a M 2668
and he deserves a M 2666
and as possessing a M 2650
and we obtained a M 2630
and the questions i M 2610
and it acquires a M 2610
and by presenting a M 2552
and he designed a M 2532
and we consider a M 2518
and at midnight i M 2440
and so obtained a M 2430
and as complete a M 2414
and to practice a M 2388
and he enclosed a M 2388
and he selected a M 2384
and so beautiful a M 2376
and it afforded a M 2268
and he attended a M 2262
and it develops a M 2242
and to manifest a M 2234
and he included a M 2204
and if possible i M 2194
and to authorize a M 2188
and to evaluate a M 2182
and to developing a M 2154
and he required a M 2126
and he produces a M 2112
and he promised a M 2110
and in possessing a M 2102
and it supplies a M 2078
and it commands a M 2078
and to approach a M 2068
and he occupied a M 2068
and in presenting a M 2050
and is normally a M 2044
and is undergoing a M 2014
and he followed a M 2014
and it occupied a M 2006
and he summoned a M 1926
and so acquired a M 1912
and we followed a M 1906
and it demanded a M 1894
and to announce a M 1886
and it acquired a M 1876
and he directed a M 1868
and he initiated a M 1866
and at midnight a M 1862
and on developing a M 1838
and we observed a M 1810
and he believed a M 1794
and of preventing a M 1792
and he observed a M 1786
and the distance i M 1751
and in response a M 1750
and it proposed a M 1748
and it achieved a M 1736
and to conceive a M 1730
and to transfer a M 1728
and to overcome a M 1682
and to practise a M 1676
and so profound a M 1673
and so terrible a M 1662
and is entirely a M 1657
and by suggesting a M 1644
and it followed a M 1630
and to suppress a M 1622
and he extended a M 1594
and to perceive a M 1592
and so dangerous a M 1574
and to strengthen a M 1570
and is strictly a M 1570
and as containing a M 1558
and of presenting a M 1554
and is conducting a M 1546
and he imagined a M 1538
and we expected a M 1510
and the problems i M 1510
and in preventing a M 1510
and is properly a M 1504
and he advanced a M 1492
and so acquires a M 1486
and so presents a M 1482
and he borrowed a M 1478
and by accident i M 1474
and it explains a M 1472
and so valuable a M 1466
and he recalled a M 1464
and he compiled a M 1462
and so generous a M 1440
and as accurate a M 1434
and the treatment i M 1428
and it inspired a M 1426
and by conducting a M 1422
and the distance s M 1416
and he deserved a M 1414
and he outlined a M 1410
and as beautiful a M 1400
and he exchanged a M 1394
and be assigned a M 1394
and he reported a M 1380
and he includes a M 1380
and is otherwise a M 1361
and the evidence i M 1360
and it suffered a M 1354
and to estimate a M 1350
and the universe a M 1350
and of possessing a M 1350
and he believed i M 1348
and the pictures i M 1342
and he occupies a M 1338
and to contract a M 1322
and the audience a M 1314
and he acquires a M 1308
and it performs a M 1306
and in conducting a M 1302
and the quantity a M 1280
and he requires a M 1270
and he insisted i M 1258
and of supporting a M 1254
and in describing a M 1252
and it initiated a M 1248
and it embodies a M 1234
and to schedule a M 1228
and we discover a M 1226
and on occasions a M 1224
and in practice i M 1222
and he dictated a M 1210
and it undergoes a M 1194
and it proposes a M 1176
and we perceive a M 1174
and he recorded a M 1172
and so constant a M 1138
and so remained a M 1136
and to allocate a M 1114
and by exhibiting a M 1110
and the situation i M 1106
and the exponent a M 1096
and he affected a M 1086
and to convince a M 1070
and the proposal i M 1060
and in response i M 1054
and he detected a M 1054
and to remember a M 1050
and so received a M 1046
and so required a M 1042
and to tolerate a M 1040
and so generate a M 1040
and it operates a M 1040
and in preserving a M 1028
and he exhibits a M 1028
and he achieves a M 1026
and the examples i M 1024
and the accounts i M 1024
and to retrieve a M 1022
and it promised a M 1020
any thing resembling a M 1012
and to persuade a M 1012
and so brilliant a M 1006
and do yourself a M 998
and go wherever i M 996
and we selected a M 992
and the attention i M 986
and by permitting a M 986
and the daughter a M 984
and of conducting a M 980
and as presenting a M 978
and the argument i M 968
and as exhibiting a M 954
and so virtuous a M 952
and in appendix i M 950
and it obtained a M 946
and to dedicate a M 938
and the progress i M 934
and in appendix d M 925
and the decisions i M 916
and the internet a M 914
and the direction i M 914
and we prepared a M 908
and the services i M 908
and to challenge a M 904
and it attracts a M 900
and by generating a M 900
and the materials i M 898
and it retained a M 890
and we describe a M 884
and the affection i M 884
and of preserving a M 884
and so numerous a M 880
and the kindness i M 868
and in suggesting a M 864
and to disclose a M 860
and by installing a M 860
and to withstand a M 858
and the approach i M 848
and we maintain a M 846
and to associate a M 838
and so achieves a M 838
and to separate a M 836
and in supporting a M 834
and in generating a M 834
and we suffered a M 830
and the smallest a M 828
and the governor a M 822
and it happened a M 820
and to conclude i M 818
and he attained a M 814
and by possessing a M 812
and it promises a M 806
and it achieves a M 806
and he effected a M 804
and so accurate a M 798
and to activate a M 794
and he assigned a M 792
and is promised a M 790
and the operator a M 786
and is declared a M 782
and at daylight i M 782
and the students i M 778
and as constant a M 778
and on schedule d M 777
and so achieved a M 776
and he operated a M 770
and it attained a M 760
and he wondered a M 760
and so involves a M 756
and it fostered a M 746
and so whenever i M 744
and he delivers a M 742
and by supporting a M 742
and by expressing a M 730
and it prevents a M 726
and we produced a M 716
and my children i M 710
and he performs a M 710
and it supplied a M 702
and on occasions i M 698
and we attended a M 692
and so intimate a M 689
and by midnight i M 684
and the response i M 682
and it deserved a M 680
and he declared a M 680
and to comprise a M 674
and by education a M 668
and to dissolve a M 666
and so develops a M 664
and as powerful a M 662
and to confront a M 656
and so agreeable a M 656
and it entailed a M 656
and in advocating a M 656
and he finished a M 656
and to restrain a M 652
and the mistakes i M 650
and he supplied a M 644
and the articles i M 642
and of generating a M 642
and it delivers a M 642
and so essential a M 634
and is scarcely a M 632
and he welcomed a M 624
and as absolute a M 624
and the judgment a M 620
and so therefore i M 620
and in children a M 620
and he inspired a M 620
and by describing a M 616
and as respects a M 612
and to validate a M 608
and he attached a M 604
and am therefore a M 603
and to meditate a M 600
and so receives a M 598
and so deserves a M 598
and it prepared a M 598
and in sustaining a M 598
and in containing a M 598
and as brilliant a M 596
and the struggle i M 594
and he combined a M 594
and of permitting a M 592
and he promises a M 592
and as expressing a M 592
and he rendered a M 590
and so suggests a M 588
and the functions a M 587
and in expressing a M 582
and the direction a M 577
and the comments i M 574
and he appended a M 574
and it embodied a M 572
and to instruct a M 568
and so prevents a M 566
and by advocating a M 564
and in attempting a M 562
and the business i M 560
and by connecting a M 560
and of sustaining a M 556
and the students a M 552
and the education i M 548
and in whatever i M 548
and so exercise a M 546
and so original a M 545
and we proposed a M 542
and he answered a M 542
and to resemble a M 540
and by tomorrow i M 540
and we provided a M 538
and by preserving a M 538
and he appoints a M 532
and we captured a M 530
and the officers i M 530
and so preventing a M 530
and it awakened a M 530
and he undergoes a M 530
and he rejected a M 530
and the promises i M 528
and by preventing a M 528
and be declared a M 526
and the prisoner a M 525
and at operation a M 524
and so likewise a M 522
and of expressing a M 516
and the argument a M 514
and we ascended a M 506
and to motivate a M 506
and the condition i M 506
and as generous a M 506
and in permitting a M 504
and by midnight a M 504
and go anywhere i M 502
and is arguably a M 500
and the memories i M 498
and so contains a M 496
and it projects a M 496
and so presenting a M 494
and so initiated a M 494
and of suggesting a M 494
and to download a M 492
and the languages i M 488
and on schedule a M 487
and the doctrine i M 486
and he favoured a M 486
and we achieved a M 484
and he imagines a M 484
and he believes a M 484
and so afforded a M 482
and as reflecting a M 482
and to denounce a M 480
and the response a M 478
and so graceful a M 478
and so enormous a M 476
and is provided a M 476
and the elements a M 475
and the contacts i M 472
and as profound a M 472
and it returned a M 470
and at breakfast i M 470
and we acquired a M 464
and it outlined a M 464
and to prohibit a M 462
and the curiosity i M 462
and he approved a M 460
and we remember a M 458
and to document a M 458
and so religious a M 458
and the benefits i M 456
and he traveled a M 456
and eat whatever i M 456
any thing concerning a M 452
and the negative a M 452
and it supposes a M 452
and we occupied a M 450
and as essential a M 450
and go whenever i M 448
and is generating a M 446
and do exercise a M 446
and it predicts a M 444
and it imparted a M 442
and we designed a M 440
and we approach a M 440
and to dominate a M 440
and we remained a M 434
and the darkness i M 434
and my daughter a M 434
and he unfolded a M 434
and so absolute a M 432
and to conserve a M 430
and so manifest a M 426
and so horrible a M 426
and he declined a M 426
and it initiates a M 424
and we traveled a M 422
and is supporting a M 420
and the situation a M 418
and the presents i M 418
and so occupies a M 418
and so probably a M 414
and in discussing a M 412
and it consumes a M 410
and in addressing a M 410
and the condition a M 405
and the subjects i M 404
and it utilizes a M 404
and in destroying a M 404
and he commands a M 404
and it effected a M 402
and the remedies i M 400
and the mountain a M 400
and the insights i M 400
and so sensible a M 400
and the sentence i M 398
and he captured a M 398
and the movement i M 396
and it enclosed a M 396
and he supposed i M 394
and so permitting a M 392
and in evaluating a M 392
and he unlocked a M 392
and he stumbled a M 390
and at eighteen i M 390
and so effected a M 388
and so deserved a M 388
and we estimate a M 386
and the judgment i M 386
and we generate a M 382
and if required a M 382
and he prepares a M 382
and he attempts a M 382
and so whenever a M 380
and he supplies a M 378
and to forecast a M 372
and is fulfilling a M 372
and to renounce a M 370
and so wickedly i M 370
and he unleashed a M 370
and he advances a M 370
and the solutions i M 368
and it rendered a M 366
and it embraced a M 366
and it combines a M 366
and at developing a M 366
and to distrust a M 364
and so vigorous a M 364
and so includes a M 364
and he pictured a M 364
and the quantity i M 363
and to whomever i M 362
and it reported a M 362
and as valuable a M 362
and the absolute i M 361
and in fairness i M 360
and to liberate a M 358
and so developing a M 358
and the activity a M 357
and if concerning a M 356
and so proposed a M 354
and it depicted a M 354
and he admitted a M 352
and the quantity s M 348
and so supplied a M 348
and on presenting a M 348
and by practicing a M 348
and the lifetime t M 347
and we borrowed a M 346
and it fulfills a M 346
and by consulting a M 346
and as detailed a M 346
and as therefore a M 344
and he predicts a M 342
and by instinct a M 342
and the officers a M 340
and by addressing a M 340
and we included a M 338
and is presenting a M 338
and as dangerous a M 337
and the attitude i M 334
and the analysis i M 334
and he detailed a M 334
and by tradition a M 334
and in contrast a M 333
and at fourteen i M 333
and the positions i M 332
and as committing a M 332
and the criminal a M 330
and he threatened a M 330
and the movement a M 328
and so prepared a M 328
and the applause i M 326
and of exhibiting a M 326
and the assembly a M 322
and is followed a M 322
and to navigate a M 320
and the troubles i M 320
and the messages i M 320
and of attempting a M 320
and it pictures a M 320
and it operated a M 320
and so compelling a M 318
and of commencing a M 318
and by contrast a M 318
and the daughter i M 316
and the articles a M 316
and so performs a M 316
and so commands a M 316
and by education i M 316
and by attempting a M 316
and the sensation i M 314
and so continue a M 314
and as integral a M 314
and he envisions a M 312
and the problems a M 310
and so occupied a M 310
and be whatever i M 310
and the practice i M 308
and the passages i M 308
and the exertions i M 308
and so composed a M 308
and so beautiful i M 308
and the business a M 306
and so innocent a M 306
and it controls a M 306
and so attained a M 304
and it sustains a M 304
and he resigned a M 304
and by practice a M 304
and the original a M 303
and to everyone i M 300
and the sentence a M 300
and so commanding a M 300
and my children a M 300
and as sensible a M 300
and we recorded a M 298
and to dispense a M 298
and it approved a M 298
and by commanding a M 298
and as agreeable a M 298
and to interest a M 296
and in exhibiting a M 296
and so personal a M 294
and the quantity t M 293
and to yourself i M 292
and the quantity d M 290
and so retained a M 290
and as straight a M 290
and the operator d M 289
and is installing a M 288
and by inflicting a M 288
and in whatever a M 286
and the authority i M 284
and the audience i M 284
and it unleashed a M 284
and the constant d M 283
and to extinguish a M 282
and the lectures i M 282
and so supplies a M 282
and he controls a M 282
and the prophets a M 280
and so immediate a M 280
and in scarcely a M 280
and if therefore a M 276
and the customer a M 274
and the confusion i M 274
and so cheerful a M 274
and he requests a M 274
and he asserted a M 274
and as intimate a M 274
and it rejected a M 272
and it occasions a M 272
and in operation a M 272
and he despised a M 272
and at daylight a M 272
and so suffered a M 270
and it recorded a M 270
and by accident a M 270
and we identify a M 268
and by containing a M 268
and as distinct a M 267
and to intimate a M 266
and the treatment a M 266
and the projects i M 266
and so frequent a M 266
and he presumed i M 266
and he foresees a M 266
and as fulfilling a M 266
and to foretell a M 264
and as vigorous a M 264
and to prophesy a M 262
and so entirely a M 262
and he regained a M 262
and he overheard a M 262
and by sustaining a M 262
and in completing a M 260
and he declared i M 260
and he afforded a M 260
and so initiates a M 258
and so discover a M 258
and so decisive a M 258
and so possibly a M 255
and so integral a M 254
and he listened a M 254
and he composes a M 254
and the majority a M 252
and the benefits a M 252
and is coloured a M 252
and the doctrine a M 250
and so convincing a M 250
and so accepted a M 250
and in somewhat a M 250
and as religious a M 250
and the observer a M 248
and the darkness a M 248
and so generating a M 246
and of inflicting a M 246
and it affected a M 246
and in inflicting a M 246
and he promised i M 246
and the murderer a M 244
and the exercise i M 244
and the contrary a M 242
and it mattered a M 242
and be afforded a M 242
and to subtract a M 240
and the surprise i M 240
and the constant t M 238
and the families i M 236
and me concerning a M 236
and he survived a M 236
and the estimate i M 234
and so perilous a M 234
and so ignorant a M 234
and so demanded a M 234
and of satisfying a M 234
and is attempting a M 234
and so resemble a M 232
and of undergoing a M 232
and of describing a M 232
and in protecting a M 232
and in assembling a M 232
and so reflects a M 230
and my daughter i M 230
and it declared a M 230
and he imparted a M 230
and he fostered a M 230
and the services a M 228
and on perceiving a M 228
and of committing a M 228
and the listener a M 226
and he executes a M 226
and the operation a M 224
and he observes a M 224
and he equipped a M 224
and he embraced a M 224
and as innocent a M 224
and the threshold t M 222
and it consumed a M 222
and he detached a M 222
and he ascended a M 222
and by completing a M 222
and the terminal a M 220
and so involved a M 220
and of installing a M 220
and my companion a M 220
and in probably a M 220
and the emphasis i M 218
and so shameful a M 218
and on consulting a M 218
and is researching a M 218
and is afforded a M 218
and the churches i M 216
and so followed a M 216
and it absorbed a M 216
and in fulfilling a M 216
and he remarked a M 216
and he probably a M 216
and he attacked a M 216
and we examined a M 214
and the happiest i M 214
and the concepts i M 214
and the citizens a M 214
and so grievous a M 214
and is addressing a M 214
and we accepted a M 212
and in commencing a M 212
and if tomorrow i M 212
and be provided a M 212
and be grateful i M 212
and so preserving a M 210
and so finished a M 210
and of somewhat a M 210
and it appoints a M 210
and he resisted a M 210
and he incurred a M 210
and he endorsed a M 210
and he answered i M 210
and it prepares a M 208
and is thereafter a M 208
and to contrast a M 206
and the universe i M 206
and the cathedral a M 206
and of overcoming a M 206
and it captures a M 206
and it accepted a M 206
and he believes i M 206
and the guidance i M 204
and the execution a M 204
and the contempt i M 204
and of containing a M 204
and it replaces a M 204
and it declares a M 204
and it combined a M 204
and he supposed a M 204
and he forecast a M 204
and he combines a M 204
and we finished a M 202
and to simplify a M 202
and the industry a M 202
and so included a M 202
and it answered a M 202
and to delegate a M 200
and the practice a M 200
and so masterly a M 200
and of advocating a M 200
and in overcoming a M 200
and we confront a M 198
and to preventing a M 198
and the property i M 198
and so positive a M 198
and so critical a M 197
and to restrict a M 196
and to alienate a M 196
and the internet i M 196
and the critical t M 196
and so whatever i M 196
and so mournful a M 196
and on expressing a M 196
and is rendered a M 196
and he sustains a M 196
and as positive a M 196
and the relations i M 194
and it excludes a M 194
and in predicting a M 194
and he projects a M 194
and we advocate a M 192
and the attitude a M 192
and it computes a M 192
and is directly a M 192
and be admitted a M 192
and at nineteen i M 192
and the forthcoming a M 190
and he proposed i M 190
and he admitted i M 190
and the particle a M 187
and by daylight i M 186
and the mountain i M 184
and so rendered a M 184
and he departed a M 184
and by extension i M 184
and as suggesting a M 184
and as cheerful a M 184
and to abstract a M 182
and the struggle a M 182
and the security i M 182
and so selected a M 182
and of protecting a M 182
and is returned a M 182
and do maintain a M 182
and as satisfying a M 182
and the laughter i M 180
and the identity i M 180
and of whatever i M 180
and so conceive a M 178
and it mentioned a M 178
and it extended a M 178
and he operates a M 178
and do whatever a M 178
and by destroying a M 178
and as describing a M 178
and as comprising a M 178
and we initiated a M 176
and the subjects a M 176
and at breakfast a M 176
and to conducting a M 174
and the injuries i M 174
and the elevation a M 174
and so destroys a M 174
and so definite a M 174
and so committing a M 174
and in descending a M 174
and the operator t M 172
and the conquest i M 172
and so exhibits a M 172
and on descending a M 172
and of witnessing a M 172
and of surprising a M 172
and it inhabits a M 172
and in installing a M 172
and at distance d M 171
and to presenting a M 170
and the religious a M 170
and to multiply a M 168
and the suspicion i M 168
and the questions a M 168
and the gladness i M 168
and so suddenly i M 168
and it increases a M 168
and it captured a M 168
and is somewhat a M 168
and the operation i M 166
and so uncommon a M 166
and in recruiting a M 166
and he inhabits a M 166
and as numerous a M 166
any thing properly a M 164
and to yourself a M 164
and the triumphs i M 164
and of destroying a M 164
and it enforces a M 164
and it confirms a M 164
and is expressing a M 164
and he consumed a M 164
and by undergoing a M 164
and by instinct i M 164
and so likewise i M 162
and it survived a M 162
and he collects a M 162
and by discussing a M 162
and as graceful a M 162
and it protects a M 160
and it presumes a M 160
and he initiates a M 160
and be therefore a M 160
and the elements i M 158
and the concerns i M 158
and so solitary a M 158
and he examined a M 158
and at eighteen a M 158
and as forceful a M 158
and the covenant a M 157
and to disguise a M 156
and to diminish a M 156
and the prospect i M 156
and the positive a M 156
and the patterns i M 156
and the messenger a M 156
and the decisions a M 156
and the computer a M 156
and so suggesting a M 156
and so advanced a M 156
and my business i M 156
and it happened i M 156
and it endorsed a M 156
and as justifying a M 156
and we explored a M 154
and we effected a M 154
and we conceive a M 154
and we advanced a M 154
and the contents i M 154
and so abundant a M 154
and it replaced a M 154
and to surround a M 152
and the conflict i M 152
and it incurred a M 152
and he supports a M 152
and he pictures a M 152
and by daylight a M 152
and to evidence a M 150
and the potential i M 150
and the interest a M 150
and so moderate a M 150
and so majestic a M 150
and so describe a M 150
and on completing a M 150
and of addressing a M 150
and by compelling a M 150
and so unlikely a M 148
and so completing a M 148
and so collects a M 148
and is opposite a M 148
and he wandered a M 148
and he explored a M 148
and he defended a M 148
and as examples i M 148
and so prolific a M 146
and so dominant a M 146
and it executes a M 146
and is discussing a M 146
and is committing a M 146
and in education a M 146
and in darkness i M 146
and in correcting a M 146
and he welcomes a M 146
and he inherits a M 146
and by nourishing a M 146
and so supports a M 144
and of practicing a M 144
and of compelling a M 144
and by assembling a M 144
and at fourteen a M 144
and am developing a M 144
and we assigned a M 142
and the treasures i M 142
and the strongest i M 142
and the internal a M 142
and the contents a M 142
and the children s M 142
and the authority a M 142
and so therefore a M 142
and so possessing a M 142
and so impartial a M 142
and of completing a M 142
and is formally a M 142
and if therefore i M 142
and he replaced a M 142
and he imitated a M 142
and he coloured a M 142
and to compress a M 140
and the shortest a M 140
and of recovering a M 140
and he faltered a M 140
and he consults a M 140
and he absorbed a M 140
and by subjecting a M 140
and as probably a M 140
and we practice a M 138
and to preserving a M 138
and the tradition i M 138
and so wretched a M 138
and so discerning a M 138
and of humility a M 138
and of assaulting a M 138
and is meditating a M 138
and in business a M 138
and he suggests i M 138
and he informed a M 138
and he condemns a M 138
and as terrible a M 138
and so prepares a M 136
and so incurred a M 136
and is assessed a M 136
and he murdered a M 136
and as unlikely a M 136
and as suddenly a M 136
and the sequence a M 135
and the potential a M 135
and the designer a M 134
and is assembling a M 134
and in sickness a M 134
and the strategy i M 132
and the narrator a M 132
and the isolation i M 132
and the integral i M 132
and so inspired a M 132
and so attached a M 132
and is inclined a M 132
and he perished a M 132
and the property a M 131
any thing respecting a M 130
and we required a M 130
and the patience i M 130
and so authentic a M 130
and of fulfilling a M 130
and no otherwise a M 130
and my education i M 130
and by abandoning a M 130
and as definite a M 130
and the external i M 129
and we imagined a M 128
and we associate a M 128
and the sunshine a M 128
and it destroys a M 128
and he awakened a M 128
and by recruiting a M 128
and am promised a M 128
and the supplies i M 126
and the prospect a M 126
and the nonsense i M 126
and of conceiving a M 126
and he mastered a M 126
and by withdrawing a M 126
and as original a M 126
and as governor i M 126
and to sentence a M 124
and so improved a M 124
and so extended a M 124
and so designed a M 124
and it envisions a M 124
and it dictates a M 124
and is evaluating a M 124
and in estimating a M 124
and he wondered i M 124
and he compares a M 124
and we exercise a M 122
and to moderate a M 122
and the wanderer a M 122
and the southwest a M 122
and the composer a M 122
and so detailed a M 122
and is mentioned a M 122
and in persuading a M 122
and in chapters i M 122
and he supposes a M 122
and at constant t M 122
and as supporting a M 122
and an argument a M 122
and the quotation i M 120
and the products i M 120
and so helpless a M 120
and it precedes a M 120
and he reflects a M 120
and by activating a M 120
and the operator s M 119
and to disprove a M 118
and the respects i M 118
and the programs i M 118
and the opposite a M 118
and the contract i M 118
and the computer i M 118
and so obedient a M 118
and it finished a M 118
and it expected a M 118
and it attempts a M 118
and it asserted a M 118
and it advanced a M 118
and is admitted a M 118
and in schedule a M 118
and in intention a M 118
and as resembling a M 118
and as expected a M 118
and as critical a M 118
and we demanded a M 116
and we compiled a M 116
and to whatever i M 116
and the sunlight a M 116
and the original i M 116
and the instance i M 116
and the embedded s M 116
and the activity i M 116
and it threatened a M 116
and is exhibiting a M 116
and he embodies a M 116
and to decipher a M 114
and the document i M 114
and the beautiful a M 114
and so worthless a M 114
and so distinct a M 114
and so commence a M 114
and it increased a M 114
and in holiness i M 114
and he discerns a M 114
and be yourself a M 114
and am sensible i M 114
and to appendix a M 113
and we welcomed a M 112
and we returned a M 112
and we reported a M 112
and to imprison a M 112
and the schedule a M 112
and the conflict a M 112
and so favoured a M 112
and on proceeding a M 112
and of abandoning a M 112
and my situation i M 112
and it assigned a M 112
and he assisted a M 112
and by estimating a M 112
and as wretched a M 112
and an increased a M 111
and to suggesting a M 110
and to generating a M 110
and to acquaint a M 110
and the cheerful a M 110
and so assigned a M 110
and of commanding a M 110
and in compelling a M 110
and if hereafter i M 110
and he restored a M 110
and he declares a M 110
and by practice i M 110
and at preventing a M 110
and as infinite a M 110
and as immediate a M 110
and as careless a M 110
and the branches a M 109
and the beautiful i M 109
and to humanity a M 108
and the platform a M 108
and the challenge i M 108
and so suitable a M 108
and so informed a M 108
and it instills a M 108
and it examines a M 108
and in witnessing a M 108
and he utilizes a M 108
and he balanced a M 108
and by overcoming a M 108
and be rewarded a M 108
and as reckless a M 108
and as commanding a M 108
and the responding t M 107
and so comprise a M 106
and of assembling a M 106
and is suggesting a M 106
and is describing a M 106
and in undergoing a M 106
and in humility i M 106
and in explaining a M 106
and he narrated a M 106
and at nineteen a M 106
and at maturity a M 106
and as compelling a M 106
and the pictures a M 104
and the distance t M 104
and so attracts a M 104
and of correcting a M 104
and it shelters a M 104
and is advocating a M 104
and he depended a M 104
and as decisive a M 104
and as balanced a M 104
and if industry a M 103
and we consumed a M 102
and to sustaining a M 102
and the thousands i M 102
and the smallest i M 102
and the infinite a M 102
and the entrance a M 102
and so stubborn a M 102
and so satisfying a M 102
and it reversed a M 102
and he enforced a M 102
and by tolerating a M 102
and as perilous a M 102
and we practise a M 100
and to quantify a M 100
and the security a M 100
and the prophets i M 100
and the objection i M 100
and the contract a M 100
and the analysis a M 100
and the additions i M 100
and so surprising a M 100
and so explicit a M 100
and so afflicting a M 100
and of probably a M 100
and of nourishing a M 100
and it explores a M 100
and it enhances a M 100
and in execution a M 100
and he examines a M 100
and he destroys a M 100
and he descends a M 100
and he demanded i M 100
and do everyone a M 100
and by descending a M 100
and the infinite i M 99
and the torments i M 98
and the industry i M 98
and the functions s M 98
and the challenge a M 98
and the attempts i M 98
and so identify a M 98
and it compiled a M 98
and if thereafter a M 98
and as suddenly i M 98
and as properly a M 98
and as preserving a M 98
and as formerly i M 98
any thing presents a M 96
and we outlined a M 96
and to frequent a M 96
and to enshrine a M 96
and the twentieth a M 96
and the strangers i M 96
and the narrower a M 96
and the agitation i M 96
and so tomorrow i M 96
and so resembling a M 96
and so elevated a M 96
and is suddenly a M 96
and in satisfying a M 96
and in justifying a M 96
and he disliked a M 96
and he concealed a M 96
and is elevated a M 95
and the observed a M 94
and the evidence a M 94
and so righteous a M 94
and so humorous a M 94
and it occurred a M 94
and it advances a M 94
and in industry a M 94
and in confirming a M 94
and he revolved a M 94
and by authority i M 94
and be rendered a M 94
and be otherwise a M 94
and as authentic a M 94
and the summation s M 93
and we supposed a M 92
and to supporting a M 92
and the solitude i M 92
and the identity a M 92
and so fostered a M 92
and my students a M 92
and it withstood a M 92
and it requests a M 92
and in reflecting a M 92
and in contrast i M 92
and in comforting a M 92
and he finishes a M 92
and he depicted a M 92
and by business i M 92
and as therefore i M 92
and we mentioned a M 90
and the covenant i M 90
and the chapters i M 90
and so troubled a M 90
and it recalled a M 90
and it designed a M 90
and it deprives a M 90
and in perfecting a M 90
and in convincing a M 90
and he expected i M 90
and by affection i M 90
and as sustaining a M 90
and as developing a M 90
and we wondered a M 88
and we overheard a M 88
and we detected a M 88
and the weariness i M 88
and the sufferer a M 88
and the presence a M 88
and the monarchy a M 88
and the eighties a M 88
and the disciple a M 88
and so probably i M 88
and so imminent a M 88
and so forceful a M 88
and so consider a M 88
and it concealed a M 88
and in recovering a M 88
and in darkness a M 88
and in cultured t M 88
and he therefore a M 88
and by evaluating a M 88
and as preventing a M 88
and as inhabiting a M 88
and as impartial a M 88
and the approach a M 86
and so grateful a M 86
and so confused a M 86
and it regained a M 86
and in solitude i M 86
and he intended a M 86
and do generate a M 86
and by positioning a M 86
and at presenting a M 86
and as personal a M 86
and as horrible a M 86
and we composed a M 84
and so returned a M 84
and of reflecting a M 84
and in evidence i M 84
and in elevation a M 84
and in commanding a M 84
and he attracts a M 84
and as undergoing a M 84
and we deserved a M 82
and we conclude a M 82
and the miracles i M 82
and the humanity i M 82
and the diversion i M 82
and the constant s M 82
and the believer a M 82
and so presumes a M 82
and so initially i M 82
and so degraded a M 82
and it relieves a M 82
and it pictured a M 82
and it enforced a M 82
and it composed a M 82
and is practicing a M 82
and in practicing a M 82
and he embodied a M 82
and go anywhere a M 82
and by intention a M 82
and as generating a M 82
and as advocating a M 82
and we declared a M 80
and we compared a M 80
and we attached a M 80
and to compound a M 80
and the selection i M 80
and the hillside a M 80
and the futility a M 80
and the alphabet a M 80
and so undergoes a M 80
and so occasions a M 80
and so imparted a M 80
and so doubtful a M 80
and it restored a M 80
and it composes a M 80
and is secretly a M 80
and he compared a M 80
and the terminal d M 74
and the affinity a M 62
and the required s M 59
and the appendix a M 59
and the relative a M 54
and the estimate s M 53
and the schedule d M 48
and the personal i M 47
and the original s M 44
and the exponent s M 44
and the direction s M 44
and the constant i M 41
and the surfaces a M 40
and to organize a D 19200
and to preserve a D 17852
and in politics a D 13484
and to negotiate a D 10692
and to indicate a D 7846
and is obviously a D 5544
and he invented a D 4578
and he employed a D 3434
and to transmit a D 3216
and he launched a D 2924
and to nominate a D 2918
and it displays a D 2702
and is esteemed a D 2496
and by appointing a D 2340
and of exercising a D 2244
and as furnishing a D 2028
and it provoked a D 2014
and by performing a D 1964
and as handsome a D 1749
and in organizing a D 1742
and by publishing a D 1640
and is commonly a D 1634
and he executed a D 1604
and the wavelength a D 1569
and is accorded a D 1522
and he displays a D 1520
and of appointing a D 1470
and he muttered a D 1458
and as indicating a D 1386
and by organizing a D 1336
and on weekends i D 1296
and of furnishing a D 1280
and is situated a D 1275
and so splendid a D 1262
and it launched a D 1212
and he procured a D 1204
and to register a D 1168
and the thickness t D 1157
and by furnishing a D 1144
and so delicate a D 1130
and in furnishing a D 1126
and of organizing a D 1118
and to dispatch a D 1114
and is reckoned a D 1084
and by exercising a D 1058
and the synthetic a D 1057
and an inverted t D 1057
and to postpone a D 1024
and he inserted a D 1022
and it promotes a D 1018
and he sketched a D 1018
and to mobilize a D 990
and to envisage a D 990
and my iniquity i D 976
and by delivering a D 964
and he snatched a D 948
and to simulate a D 942
and to delineate a D 918
and he whistled a D 898
and so handsome a D 896
and it employed a D 880
and it embraces a D 850
and the thickness d D 842
and the reception i D 806
and it prompted a D 800
and to contrive a D 798
and by displaying a D 786
and the matrices a D 780
and to propound a D 752
and the distress i D 752
and is performing a D 732
and the cylinder a D 728
and by specifying a D 724
and he glimpsed a D 722
and so obviously a D 718
and in negotiating a D 712
and he regarded a D 708
and the minister a D 706
and he clutched a D 690
and the mainland a D 686
and in appointing a D 686
and it provokes a D 682
and is entitled a D 674
and he shivered a D 672
and to regulate a D 666
and the nobility a D 663
and the fatigues i D 658
and in performing a D 658
and it elicited a D 634
and is publishing a D 630
and so preserve a D 628
and he bestowed a D 628
and as exercising a D 628
and the sufferings i D 626
and of performing a D 626
and he fashioned a D 620
and the physician a D 596
and in exercising a D 586
and in collecting a D 586
and to traverse a D 584
and of concluding a D 580
and it encloses a D 580
and in concluding a D 568
and to classify a D 562
and the vitamins a D 562
and the terminus a D 558
and he promoted a D 556
and he ventured a D 554
and is allotted a D 552
and so palpable a D 548
and is negotiating a D 548
and the employee a D 546
and he murmured a D 542
and the soldiers a D 538
and be accorded a D 538
and is exercising a D 536
and the receiver a D 528
and the feedback i D 524
any thing unbecoming a D 522
and of delivering a D 522
and be esteemed a D 520
and is attracting a D 514
and the armature a D 512
and so prolonged a D 510
and to preclude a D 502
and to overthrow a D 498
and of converting a D 492
and so fruitful a D 490
and as befitted a D 486
and by purchasing a D 478
and he conveyed a D 474
and to desolate a D 472
and the republic a D 462
and we procured a D 456
and the employer a D 454
and it promoted a D 452
and the speeches i D 450
and it heralded a D 446
and it conveyed a D 446
and he convened a D 446
and the variables a D 440
and to overlook a D 438
and the princess a D 436
and the consumer a D 436
and it signaled a D 436
and is organizing a D 430
and he fastened a D 430
and an oversize t D 428
and it secretes a D 426
and of collecting a D 422
and he stationed a D 422
and so indicate a D 416
and by concluding a D 410
and the ministry i D 408
and he outlines a D 408
and he harbored a D 408
and by instilling a D 408
and by submitting a D 406
and to dissuade a D 404
and in projecting a D 404
and the elephant a D 402
and the pleasures i D 398
and by collecting a D 398
and is partially a D 392
and so ambitious a D 390
and so provoked a D 388
and so eloquent a D 388
and it behooves a D 386
and to rekindle a D 382
and the landlord a D 377
and in publishing a D 376
and he retreated a D 374
and we employed a D 372
and the therapist a D 372
and of vitamins a D 372
and the liberals a D 370
and in vitamins a D 368
and by projecting a D 368
and to excavate a D 366
and in purchasing a D 360
and the military a D 358
and so friendly a D 358
and to inscribe a D 352
and he subjoins a D 352
and to enunciate a D 350
and in delivering a D 348
and he expelled a D 346
and by negotiating a D 346
and it triggers a D 344
and he bequeathed a D 344
and so invented a D 342
and so notorious a D 340
and it engenders a D 338
and the soldiers i D 336
and by avocation a D 336
and the pressure i D 334
and it outlines a D 332
and the colonies a D 330
and by sponsoring a D 330
and the hospital a D 328
and to solidify a D 326
and the inverted t D 324
and the countess d D 324
and he conducts a D 322
and the dimension d D 320
and so renowned a D 320
and on pressure a D 320
and is requesting a D 318
and by requesting a D 318
and the extracts i D 316
and the director a D 312
and so judicious a D 312
and of negotiating a D 310
and it sponsors a D 308
and in attracting a D 304
and he encloses a D 302
and he betrayed a D 302
and to decorate a D 300
and so laborious a D 300
and he ordained a D 300
and he attaches a D 300
and it inspires a D 298
and it connotes a D 298
and we launched a D 292
and to minimize a D 292
and it conducts a D 292
and he expended a D 292
and the electron a D 290
and is regarded a D 288
and by converting a D 288
and the mistress a D 286
and the creditor a D 286
and the incident i D 284
and to memorize a D 282
and to alleviate a D 282
and the historian a D 282
and it portrays a D 282
and to irrigate a D 280
and the medicine i D 278
and be adjudged a D 276
and to expedite a D 274
and so rigorous a D 274
and so invidious a D 272
and as laborious a D 270
and is delivering a D 268
and the aperture a D 264
and to overturn a D 262
and to maximize a D 260
and the eyepiece a D 260
and is continuing a D 260
and so laudable a D 258
and he reckoned i D 258
and he launches a D 258
and he chuckled a D 258
and by allocating a D 258
and we invented a D 256
and it warrants a D 256
and he invested a D 256
and the ministry a D 254
and of cherishing a D 254
and the christian a D 252
and of displaying a D 252
and of publishing a D 250
and is nowadays a D 250
and he reserved a D 250
and the producer a D 248
and so flagrant a D 248
and by indicating a D 248
and he smothered a D 246
and the province a D 244
and the acceptor a D 244
and is sponsoring a D 244
and in polities a D 244
and be reckoned a D 244
and be ordained a D 244
and the posterior a D 242
and is displaying a D 242
and he sketches a D 242
and by attracting a D 242
and at weekends i D 242
and so launched a D 240
and on weekends a D 240
and to sanctify a D 238
and the standard i D 236
and by exploiting a D 236
and as signifying a D 236
and of instilling a D 234
and he provoked a D 234
and to transact a D 232
and on holidays i D 230
and the merchant a D 228
and in cherishing a D 228
and by conferring a D 228
and the pressure a D 227
and the hospital i D 226
and of conferring a D 226
and he espoused a D 226
and by authorizing a D 226
and the fidelity i D 224
and so dramatic a D 224
and so diligent a D 224
and in parallel a D 224
and the currents i D 223
and we executed a D 220
and the converse i D 220
and it deposits a D 220
and he pondered a D 220
and it betrayed a D 218
and by stretching a D 218
and he trembled a D 216
and he squeezed a D 216
and he indulged a D 216
and of purchasing a D 214
and he reddened a D 214
and by continuing a D 214
and by announcing a D 214
and the tortoise a D 212
and the policies i D 212
and to shoulder a D 210
and the woodwork a D 210
and the patients i D 210
and the capsules a D 210
and so promoted a D 210
and to displace a D 208
and to disperse a D 208
and the detector a D 208
and to construe a D 206
and the sciences a D 206
and so spirited a D 206
and in converting a D 206
and as friendly a D 206
and on palpation a D 204
and he patented a D 202
and the landlady a D 200
and so salutary a D 200
and so procured a D 200
and he grumbled a D 200
and the symptoms i D 198
and in displaying a D 198
and the glimpses i D 196
and by depositing a D 196
and to protract a D 194
and to localize a D 194
and so resolute a D 194
and in instilling a D 194
and so esteemed a D 192
and of rebuilding a D 192
and in construing a D 192
and he mustered a D 192
and he diagnosed a D 192
and to optimize a D 190
and the thickness a D 190
and the minority a D 190
and the expenses i D 190
and of attracting a D 190
and he utilized a D 190
and to catalyze a D 188
and so promotes a D 188
and he nurtured a D 188
and by extracting a D 188
and to repudiate a D 186
and he imported a D 186
and as performing a D 186
and so merciful a D 184
and so christian a D 184
and in preferring a D 184
and by nominating a D 184
and to finalize a D 182
and so injurious a D 182
and so flattering a D 182
and so discreet a D 182
and so abstruse a D 182
and in politics i D 182
and he injected a D 180
and the trousers a D 178
and the judiciary a D 178
and so furnishing a D 178
and he ascribes a D 178
and the velocity a D 176
and the thirstier i D 176
and the offender a D 176
and the dominions a D 176
and the altitude a D 176
and he relished a D 176
and it behooved a D 174
and to confound a D 172
and of concerting a D 172
and he volleyed a D 172
and as resolute a D 172
and as displaying a D 172
and the tortures i D 170
and the salvation i D 170
and the chlorine a D 170
and so tenacious a D 170
and of submitting a D 170
and the reception a D 168
and so humiliating a D 168
and it inflicts a D 168
and is collecting a D 168
and he convoked a D 168
and be allotted a D 168
and of thickness t D 167
and to redefine a D 166
and to entrench a D 166
and the enthusiasm i D 166
and the stresses a D 164
and the furnishing a D 164
and so forcible a D 164
and it presaged a D 164
and by professing a D 164
and the facility i D 162
and of continuing a D 162
and is inserted a D 162
and he recounts a D 162
and the sketches i D 160
and the shoemaker a D 160
and of preferring a D 160
and in indicating a D 160
and he treasured a D 160
and he procures a D 160
and we snatched a D 158
and the curtains i D 158
and of professing a D 158
and he scrawled a D 158
and of extracting a D 156
and he crippled a D 156
and the rectangle a D 155
and the specimen i D 154
and so reverend a D 154
and he signaled a D 154
and he resented a D 154
and by engendering a D 154
and the railroad a D 152
and the pyramids a D 152
and the catholics a D 152
and it converts a D 152
and he enlisted a D 152
and to pinpoint a D 150
and to humiliate a D 150
and to disclaim a D 150
and so transmit a D 150
and in sponsoring a D 150
and the hydrogen a D 149
and to reimpose a D 148
and the servants i D 148
and the nostrils a D 148
and the chaplain a D 148
and the appetite i D 148
and the aircraft i D 148
and on holidays a D 148
and is ascribed a D 148
and he softened a D 148
and he narrates a D 148
and he hazarded a D 148
and as discreet a D 148
and the detector d D 147
and we register a D 146
and to energize a D 146
and so patriotic a D 146
and so courteous a D 146
and of projecting a D 146
and my salvation i D 146
and he pioneered a D 146
and as splendid a D 146
and to surmount a D 144
and the mortgage a D 144
and the inventor a D 144
and he tendered a D 144
and to redirect a D 142
and to civilize a D 142
and the magazine i D 142
and of nominating a D 142
and of indicating a D 142
and is projecting a D 142
and in rebuilding a D 142
and in professing a D 142
and in continuing a D 142
and in concluding i D 142
and as patriotic a D 142
and as obviously a D 142
and to discount a D 140
and to demolish a D 140
and to apportion a D 140
and so eventful a D 140
and it betokens a D 140
and the peasantry a D 138
and the mechanic a D 138
and the marquise d D 138
and the district a D 138
and the chairman a D 138
and is detained a D 138
and he clutches a D 138
and we bestowed a D 136
and to evacuate a D 136
and the contingent a D 136
and so simulate a D 136
and he elicited a D 136
and as evidencing a D 136
and so infamous a D 135
and the exposure i D 134
and he extorted a D 134
and he affirmed i D 134
and we overtook a D 132
and the miseries i D 132
and my communion a D 132
and is coauthoring a D 132
and in forwarding a D 132
and as romantic a D 132
and to override a D 130
and the fragment i D 130
and the coachman a D 130
and so perverse a D 130
and so displays a D 130
and it trembled a D 130
and in traversing a D 130
and in extracting a D 130
and he portrays a D 130
and to penalize a D 128
and to heighten a D 128
and the velocity t D 128
and the ordinate a D 128
and the diaphragm d D 128
and the concrete a D 128
and so imperious a D 128
and it utilized a D 128
and the feminine a D 127
and the magazine a D 126
and the cylinder d D 126
and so populous a D 126
and so enlarged a D 126
and in specifying a D 126
and he unrolled a D 126
and by suspending a D 126
any thing indicating a D 124
and the opponent a D 124
and the managers i D 124
and so employed a D 124
and on publishing a D 124
and it extracts a D 124
and by contriving a D 124
and as impudent a D 124
and to scribble a D 122
and to organizing a D 122
and the treasurer a D 122
and so habitual a D 122
and is adjudged a D 122
and he reckoned a D 122
and he clenched a D 122
and to chastise a D 120
and the investor a D 120
and the garrison a D 120
and in declaiming a D 120
and to refashion a D 118
and to legalize a D 118
and the retailer a D 118
and the pavement a D 118
and the gondolas a D 118
and the curtains a D 118
and the bandwidth a D 118
and so indicating a D 118
and it overlies a D 118
and it garnered a D 118
and he extracts a D 118
and to collecting a D 116
and the servants a D 116
and the provision i D 116
and the precepts i D 116
and the laborers a D 116
and so skillful a D 116
and so enchanting a D 116
and is ordained a D 116
and in medicine a D 116
and by associating a D 116
and to populate a D 114
and the snowdrop a D 114
and the librarian a D 114
and the gatepost i D 114
and is furnishing a D 114
and in publishing i D 114
and in implanting a D 114
and by simulating a D 114
and am resolved i D 114
and to ridicule a D 112
and the villages i D 112
and the sixpence a D 112
and the schooner a D 112
and the parallel i D 112
and the hardship i D 112
and so organize a D 112
and as conferring a D 112
and we organize a D 110
and to dislodge a D 110
and so vehement a D 110
and so mortifying a D 110
and so animated a D 110
and is indicating a D 110
and in mobilizing a D 110
and he bestrode a D 110
and do envisage a D 110
and we fastened a D 108
and to sprinkle a D 108
and the telegram i D 108
and the district i D 108
and it injected a D 108
and he pocketed a D 108
and by scattering a D 108
and at necropsy a D 108
and as eloquent a D 108
and we glimpsed a D 106
and we envisage a D 106
and we encamped a D 106
and the pronouns i D 106
and the musicians i D 106
and the intimacy i D 106
and the interval t D 106
and the formation a D 106
and the comforts i D 106
and the borrower a D 106
and in engendering a D 106
and he squirmed a D 106
and he shrugged a D 106
and he recoiled a D 106
and he emanated a D 106
and as terrifying a D 106
and the interval a D 105
and to relocate a D 104
and to obstruct a D 104
and to negotiating a D 104
and the sentient i D 104
and the reformer a D 104
and the moralist a D 104
and the gardener a D 104
and the ecstatic i D 104
and the campaign a D 104
and of condemning a D 104
and he whittled a D 104
and be baptized a D 104
and as fruitful a D 104
and the dimension a D 103
and to abrogate a D 102
and the sharpest i D 102
and the ensemble a D 102
and so poignant a D 102
and it cemented a D 102
and in requesting a D 102
and by mobilizing a D 102
and as sagacious a D 102
and as delicate a D 101
and to convulse a D 100
and the matrices d D 100
and so romantic a D 100
and of thickness d D 100
and in conquering a D 100
and to renovate a D 98
and to garrison a D 98
and the patients a D 98
and the countess a D 98
and the appointing a D 98
and so provokes a D 98
and we shivered a D 96
and to delivering a D 96
and to amortize a D 96
and the portrait i D 96
and the pamphlet a D 96
and the novelist a D 96
and the cemetery a D 96
and so triggers a D 96
and so polished a D 96
and so gigantic a D 96
and of engendering a D 96
and in announcing a D 96
and he reserves a D 96
and as regarded a D 96
and as judicious a D 96
and as beseemed a D 96
and an electron a D 96
and the standard a D 95
and to socialize a D 94
and to condense a D 94
and to appraise a D 94
and the diaphragm a D 94
and the claimant a D 94
and the boroughs a D 94
and the apostles a D 94
and the analyses i D 94
and the airplane a D 94
and so obviously i D 94
and so converts a D 94
and so audacious a D 94
and by sprinkling a D 94
and the variances a D 93
and to squander a D 92
and to reinvent a D 92
and the physical i D 92
and the anthology a D 92
and of gratifying a D 92
and it portends a D 92
and is soliciting a D 92
and he swallows a D 92
and to mitigate a D 90
and the villages a D 90
and the specimen a D 90
and the sibilant s D 90
and the pentagon a D 90
and the moorland i D 90
and the cardinal d D 90
and it financed a D 90
and is patently a D 90
and in peacetime a D 90
and he ventures a D 90
and he prefixed a D 90
and he indulges a D 90
and he garnered a D 90
and he fidgeted a D 90
and he bellowed a D 90
and we invested a D 88
and to reinsert a D 88
and to brandish a D 88
and to befriend a D 88
and the sixteenth a D 88
and the nitrogen a D 88
and the interval i D 88
and so unwieldy a D 88
and so talented a D 88
and so fashioned a D 88
and it reserves a D 88
and it affirmed a D 88
and in conferring a D 88
and he squinted a D 88
and he shuffled a D 88
and ear wherever i D 88
and do indicate a D 88
and by withholding a D 88
and by portraying a D 88
and by excavating a D 88
and by cherishing a D 88
and at twilight i D 88
and as skillful a D 88
and to supplant a D 86
and to procreate a D 86
and to critique a D 86
and the trustees a D 86
and the suffixes a D 86
and the sinister a D 86
and the reactants a D 86
and the physical a D 86
and so insidious a D 86
and of swallowing a D 86
and it harbored a D 86
and it attaches a D 86
and in submitting a D 86
and he proffers a D 86
and he lavished a D 86
and at concerts a D 86
and an elephant a D 86
and is avowedly a D 85
and we postpone a D 84
and to underpin a D 84
and the shoulder a D 84
and the salinity s D 84
and the fifteenth i D 84
and so attracting a D 84
and it nurtured a D 84
and in delineating a D 84
and he preferring a D 84
and he embraces a D 84
and by intimating a D 84
and as traitors i D 84
and as rigorous a D 84
and the salesman a D 82
and the revolver i D 82
and the pittance i D 82
and the locality a D 82
and the eyebrows a D 82
and so delicate i D 82
and my seclusion a D 82
and in triggering a D 82
and he scrubbed a D 82
and he expounds a D 82
and by distilling a D 82
and the variables i D 81
and we negotiate a D 80
and to instilling a D 80
and to buttress a D 80
and the taxpayer a D 80
and the statutes i D 80
and the settlers a D 80
and the sculptor a D 80
and the politics i D 80
and the counties a D 80
and the christian i D 80
and so prompted a D 80
and on organizing a D 80
and it convened a D 80
and he whispers a D 80
and he suspects a D 80
and by scheduling a D 80
and the analyzer a D 70
and an acceptor a D 60
and the longitude a D 51
and the incident a D 50
and the minister d D 49
and an analyzer a D 49
and the velocity i D 44
and the diagonals a D 44
and the officials a D 40
