sat and waited . M 14872
saw his chance . M 14524
sad and lonely . M 11807
saw him before . M 10440
say but little . M 8322
say for myself . M 4877
saw you before . M 4644
say for itself . M 4369
saw one another . M 4345
saw them before . M 4118
saw her before . M 3934
sat and thought . M 3586
sad and silent . M 3094
saw her chance . M 3090
say that before . M 2996
say too little . M 2876
sad and gloomy . M 2732
saw this clearly . M 2538
saw him myself . M 2198
sad and anxious . M 2092
saw one before . M 2024
say that before ? M 1984
saw for myself . M 1925
saw him clearly . M 1864
saw them myself . M 1856
saw that before . M 1852
saw but little . M 1535
sad and serious . M 1532
saw this happen . M 1522
say they should . M 1406
saw them clearly . M 1306
saw him drowning . M 1254
sad and strange . M 1168
saw him through . M 1158
saw her clearly . M 1146
saw and learned . M 1146
saw that clearly . M 1128
saw his brother . M 1118
saw her sister . M 1112
sat and smiled . M 1108
saw this before . M 1078
sat and begged ? M 1078
saw him depart . M 1070
saw them through . M 1038
saw his friend . M 994
saw things clearly . M 988
say this prayer . M 976
saw his sister . M 972
sad and scared . M 970
saw her brother . M 882
saw him arrive . M 880
saw her myself . M 876
say for myself ? M 872
sat and rested . M 826
say that already ? M 799
saw her friend . M 782
saw his family . M 780
saw that happen . M 742
sad and tragic . M 738
sad and afraid . M 726
saw and thought . M 712
saw with relief . M 700
say this openly . M 698
saw that letter . M 690
saw him before ? M 676
say you wanted ? M 674
saw him earlier . M 664
saw them depart . M 658
say you should . M 642
saw this letter . M 638
saw him buried . M 638
say that counts . M 636
sad and gentle . M 634
say this before ? M 610
sat and looked . M 592
sad one indeed . M 592
saw his shadow . M 590
saw them arrive . M 584
saw him killed . M 578
saw you before ? M 574
saw him return . M 572
say for itself ? M 564
sad and guilty . M 546
say that myself . M 536
say this before . M 532
sad for myself . M 520
saw him before ! M 514
sad and fearful . M 514
say that anyway . M 512
sad and broken . M 512
saw her through . M 494
saw you arrive . M 486
saw his future . M 484
saw that myself . M 482
saw you myself . M 468
saw its chance . M 462
saw her arrive . M 454
saw her depart . M 442
say one prayer ! M 438
saw her reaction . M 434
sat and worked . M 414
sad and lonely ? M 412
say one prayer . M 404
saw but seldom . M 404
saw you before ! M 398
saw him rarely . M 396
saw this myself . M 394
sat and prayed . M 388
sad and touching . M 388
say one minute . M 378
saw his tracks . M 376
saw him watching . M 374
saw them before ? M 362
saw him sleeping . M 362
say them anyway . M 358
saw all around . M 358
saw his master . M 356
say his prayer . M 354
saw them buried . M 342
saw his reaction . M 338
sad she looked . M 338
sad day indeed . M 338
saw him around . M 334
sad and guilty ? M 325
saw her earlier . M 324
saw this happen ? M 318
saw her before ? M 318
saw any fighting . M 316
saw him expire . M 312
sat long enough . M 310
saw his fellow . M 304
saw him anyway . M 304
saw him perish . M 302
say his lesson . M 298
saw her watching . M 298
saw you earlier . M 288
saw him laughing . M 284
saw her return . M 282
sad and joyful . M 282
saw them return . M 280
saw her answer ! M 278
say her prayer . M 274
saw them better . M 272
sat and dreamed . M 270
saw her future . M 264
saw her family . M 262
saw you laughing . M 260
say that prayer . M 256
sat one asleep . M 256
say that enough . M 254
saw him better . M 254
saw her nearest . M 252
say they should ? M 250
say them better . M 250
saw him suffer . M 248
sat and played . M 246
saw his emotion . M 244
saw them happen . M 238
saw them earlier . M 236
saw him escape . M 236
saw him seldom . M 234
saw him standing . M 232
sad and stupid . M 232
say this number ? M 230
say one second . M 228
sad than before . M 228
say each letter . M 226
say how little . M 224
saw them anyway . M 224
say not guilty . M 222
sad and simple . M 222
saw this person . M 219
saw nor tasted . M 219
saw that before ! M 216
saw any before . M 216
saw her laughing . M 214
say this clearly . M 212
say they prefer . M 212
saw them fighting . M 212
saw its tracks . M 212
sad and joyous . M 212
saw his moment . M 210
say this enough . M 208
saw her doctor . M 208
saw two lights . M 206
saw his victim . M 206
saw her glance . M 206
saw her sleeping . M 204
saw her answer . M 202
saw our chance . M 200
saw one another ? M 198
saw him asleep . M 198
say they desire . M 192
saw his glance . M 192
saw was enough . M 190
sad nor joyful . M 190
sad and ironic . M 190
saw this person ? M 188
saw her anyway . M 188
saw one myself . M 186
saw that person . M 184
saw him inside . M 184
sat and begged . M 184
sad and lovely . M 184
say that openly . M 183
saw her standing . M 182
saw her asleep . M 182
saw them killed . M 180
sad and severe . M 180
say that before ! M 178
saw her around . M 178
sad and gloomy ? M 178
saw and smiled . M 177
saw them rarely . M 176
saw his answer . M 176
say each number . M 174
sad and envious . M 170
say not enough . M 164
saw you around . M 164
saw that summer . M 164
saw his corpse . M 164
saw her shadow . M 164
saw lying around . M 162
saw him wronged . M 160
saw dead bodies . M 160
say for myself ! M 158
saw with dismay . M 158
saw that report . M 158
saw her seldom . M 158
saw her buried . M 156
say you needed ? M 154
say this anyway . M 152
saw too clearly . M 152
saw his letter . M 152
sad things happen . M 152
sad and strange ! M 152
saw her inside . M 150
saw few changes . M 150
say this myself . M 148
say that earlier ? M 148
saw this letter ! M 148
saw them before ! M 148
saw its source . M 148
say they admire . M 146
saw not before . M 144
saw its lights . M 144
saw its dangers . M 144
saw his doctor . M 144
saw and wanted . M 144
say than before . M 143
say things clearly . M 142
saw its shadow . M 140
saw any combat . M 140
sat for awhile . M 140
sad and sudden . M 140
sad and humble . M 140
saw our plight . M 138
saw his relief . M 138
say with relief . M 136
say and demand . M 136
saw this instead ! M 136
saw his visions . M 134
say yes anyway . M 132
say who called ? M 132
saw all perish ! M 132
sat and walked . M 132
say that prayer ? M 130
saw things through . M 130
sad and earnest . M 130
say has called ? M 128
saw them arriving . M 128
saw him myself ! M 128
saw him emerge . M 128
sad and remote . M 128
sad and furious . M 128
saw any effect . M 126
say for anyone . M 124
saw you asleep . M 124
saw them laughing . M 124
saw them existing . M 124
saw them depart ? M 124
saw its merits . M 124
saw its effect . M 122
say that sooner ? M 120
say that earlier . M 120
saw too little . M 120
saw her rarely . M 120
sad and grieving . M 120
say that neither . M 118
saw his plight . M 118
sat two ladies . M 118
say they failed . M 116
say she should . M 116
saw its future . M 116
saw this report . M 114
saw this before ? M 114
saw them seldom . M 114
saw him ascend . M 114
say you worked ? M 112
say you bought . M 112
say you accept . M 112
say our prayer . M 112
saw with horror . M 112
saw they needed . M 112
saw them emerge . M 112
saw our fathers . M 112
saw him falter . M 112
saw him clearly ? M 112
sad man indeed . M 112
say you forgot . M 110
say this nicely ? M 110
say they measure . M 110
say that little . M 110
say she wanted ? M 110
saw her plight . M 110
sad they looked ! M 110
saw was alarming . M 108
saw that letter ? M 108
saw her master . M 108
sad than joyful . M 108
saw was strange . M 106
saw that happen ? M 106
saw his clothes . M 106
saw her falter . M 106
saw them standing . M 104
saw and pitied . M 103
say was mutual . M 102
say them myself . M 102
saw you abroad . M 102
saw one another ! M 102
saw him killed ? M 102
sat and taught . M 102
saw his anguish . M 100
saw her letter . M 100
sad and appealing . M 100
saw her better . M 98
saw her before ! M 98
saw them myself ! M 96
saw that winter . M 96
saw its origin . M 96
saw his wounds . M 96
saw his vanity . M 96
saw him afraid . M 96
saw was myself . M 95
say you should ? M 94
saw this fellow . M 94
saw its demise . M 94
saw her suffer . M 94
saw and served . M 94
sad and lonely ! M 94
say that sooner . M 92
saw you watching . M 92
saw that already . M 92
saw but rarely . M 92
saw and stayed . M 92
saw was needed . M 90
saw this notice . M 90
saw its course . M 90
saw his intent . M 90
saw her expire . M 90
sad and amused . M 90
say you killed . M 88
say you called . M 88
say with regret . M 88
say was serious . M 88
say this earlier ? M 88
say how little ? M 88
saw two options . M 88
saw his faults . M 88
sad she looked ! M 88
sad they looked . M 86
sad and absurd . M 86
say with horror . M 84
say with curses . M 84
say this freely ? M 84
say they behave . M 84
saw was reality . M 84
saw this figure . M 84
saw this before ! M 84
saw that before ? M 84
saw not clearly . M 84
saw his mission . M 84
saw him bleeding . M 84
saw her relief . M 84
saw her misery . M 84
sad and alarming . M 84
say too loudly . M 83
saw this through . M 82
saw his teacher . M 82
saw her sorrow . M 82
saw her corpse . M 82
saw her clothes . M 82
saw with wonder . M 80
saw this summer . M 80
saw one person . M 80
saw its wisdom . M 80
saw him engaged . M 80
saw her vanish . M 80
say that anyhow . M 49
say that anyway ? M 47
say that clearly . M 44
say that instead . M 43
say was enough . M 40
