sat quite still . M 5608
say anything either . M 4462
say about anything . M 2530
say about women . M 1859
say makes sense . M 1518
say anything about . M 1360
say never again . M 1242
sad world needs . M 804
say about others . M 776
say about money . M 751
say about people . M 620
say about women ? M 584
say anything again . M 480
say anything aloud . M 476
say anything though . M 474
sat holding hands . M 466
say anything right . M 436
say about anything ? M 419
say about music . M 408
say about people ? M 406
say about poetry . M 342
say about either . M 320
saw people running . M 318
say about money ? M 302
sat still again . M 274
say about writing . M 271
say about seven ? M 258
say every night . M 256
say anything nasty . M 250
sad smile again . M 248
say about later . M 236
say anything today . M 224
say about trees . M 218
sad about anything . M 216
say about beauty . M 214
saw action again . M 212
saw either again . M 210
say thanks again . M 192
say about ethics . M 190
say anything worse . M 186
say about learning . M 182
saw anything amiss . M 181
saw naked people . M 178
saw every morning . M 178
sat erect again . M 176
say about teaching . M 175
say cutting words . M 172
say about power . M 168
say every morning . M 164
saw white people . M 160
say about dreams . M 148
say about books . M 144
say about change . M 142
say about others ? M 140
say about angels . M 136
say anything false . M 132
say words about . M 128
say about crime . M 128
say about anything ! M 122
say anything twice . M 120
say about yours . M 120
say about speaking . M 120
say about hunting ? M 120
saw every night . M 120
say anything really . M 119
say anything right ? M 114
say about eight . M 114
sad sweet smile . M 114
say still others . M 112
sat thinking still . M 112
say about style . M 110
saw quite often . M 110
say anything first . M 108
say about music ? M 108
say about fifty . M 108
say about heaven . M 106
saw light again . M 106
sad story again . M 106
say anything later . M 104
say about views . M 100
say about dreams ? M 100
sat alone again . M 96
say months later . M 94
say about thirty . M 94
say eight hours . M 90
say about error . M 90
say every evening . M 88
say about theirs . M 88
say about labor . M 88
saw black people . M 88
say about seven . M 86
say above fifty . M 84
say about price . M 84
say about forty . M 84
sat smiling weakly . M 84
say sixty pages . M 82
say fifty miles . M 82
say empty words . M 82
say about today ? M 82
say about eight ? M 82
sad people happy . M 82
say anything final . M 80
say about method . M 80
say about rules . M 43
