save a great deal M 45962
saying a great deal M 42170
said a great deal M 41140
says a great deal M 37642
saying a good deal M 31840
said a good deal M 18988
said a young man M 11907
saying a word and M 11166
says a good deal M 11022
said i must not M 10736
save a good deal M 10075
said a word for M 9326
says i must not M 8734
said i will not M 7972
said i love you M 7372
said a word that M 6326
said a word and M 5524
saving a great deal M 5441
said a word all M 4938
said i need not M 4746
says i have not M 4210
says i love you M 4130
save a very few M 4074
saying i love you M 3946
saying a word for M 3660
said i have not M 3606
says i will not M 3390
said a word but M 3206
saying i will not M 3148
saying a word she M 3058
said i knew that M 2548
said a word yet M 2300
save a file with M 2154
saying a word that M 2138
said i want you M 2086
saying i have not M 1708
said i know not M 1704
save a life and M 1590
said a wise man M 1544
said a mass for M 1530
said i must get M 1522
said a word too M 1504
saying i told you M 1432
says i need not M 1406
says a young man M 1360
says a word and M 1360
said i unto you M 1360
said a lady who M 1346
said i felt that M 1322
save a file for M 1309
save a life that M 1261
said a third man M 1256
saving a good deal M 1254
saying a word but M 1192
said i told you M 1172
said i knew you M 1156
said i think you M 1150
save a young man M 1113
said i knew him M 1092
said i owed him M 1082
said a week ago M 1075
saying a word they M 1056
said i hope you M 1010
says i have got M 1002
save a file that M 984
save a single one M 973
said i must see M 966
said a girl who M 948
said i think that M 942
says a word that M 926
saving a file with M 852
said a word nor M 844
said i knew how M 840
save a file and M 838
said i know you M 836
said a girl with M 818
said a good man M 812
said a month ago M 783
same i will not M 762
said i just had M 760
saying i think you M 756
said a great man M 744
said i only had M 742
said a wise old M 736
saving a file for M 732
save a great and M 728
says i must get M 716
saying i want you M 702
says a wise man M 700
saying i must not M 678
save a vast deal M 675
save a file using M 672
says i talk too M 656
said i told him M 642
said i knew not M 640
said i unto them M 630
said i knew she M 618
said i must ask M 598
said i have had M 596
saving a life and M 588
said i made him M 588
said i know that M 588
same i think that M 574
said i must try M 560
said a very few M 556
said i owed you M 550
said i made her M 550
save a copy and M 541
said i must bring M 536
said i wish you M 534
saying a word too M 530
says a word for M 520
says i have had M 518
same i wish you M 514
said i must put M 514
said a word she M 508
says a must say M 504
saying a mass for M 498
said i must pay M 492
says i want you M 484
save a single man M 478
said a young and M 476
says a great poet M 474
said i knew all M 470
said i gave him M 470
said i just did M 458
said a very old M 456
said a word out M 447
said a young boy M 426
same i think you M 422
said a word then M 412
says i told him M 410
saying a word all M 410
said a word this M 406
save a good man M 404
says a lady who M 398
save a good bit M 392
says i will get M 386
said i gave her M 386
save a copy for M 380
saying a word with M 374
same i have not M 374
said a poor man M 364
said i told her M 362
said i like you M 360
saying a very few M 358
said i have got M 354
saving a life that M 351
says a word but M 350
saying a word now M 350
save a life for M 340
same i know that M 338
said i know how M 338
said i will see M 336
save a poor old M 328
said i hate you M 328
said i will try M 326
said i once had M 322
said a rich man M 322
said a lady with M 322
said a word with M 320
said i knew this M 318
save a life with M 316
said i were not M 316
said i need you M 314
says i must see M 312
save a file you M 312
said a wise and M 312
said i give you M 304
says a good man M 300
save a life than M 298
save a life but M 298
said i knew they M 298
said a deep and M 298
said a word now M 296
said i knew her M 294
save a girl who M 293
says i must die M 288
saying i think that M 288
says i love not M 286
says i must ask M 284
saying i know you M 284
save a young boy M 284
said a loud and M 282
said i knew who M 280
says a holy man M 276
said i think this M 276
saying i know not M 274
says a word too M 272
said a very long M 271
said i will say M 270
said i unto him M 270
said a girl had M 270
said a word one M 269
says i ever did M 268
said a word had M 266
same i want you M 264
says a girl who M 260
save a poor man M 260
said i thank you M 258
said i must read M 258
save a step and M 256
said i must now M 256
said i tell you M 254
same i feel that M 251
says a great man M 250
said i will get M 250
said i know who M 250
same i knew that M 245
says i must put M 244
says i have too M 244
said i knew them M 244
said a youth who M 244
said a wise one M 243
said i feel that M 239
said i think she M 234
said i sure did M 234
said i owed her M 234
said i love him M 234
says i make her M 232
said i must say M 230
says i must pay M 228
says i make him M 226
same i felt that M 226
said i will bring M 226
said a third one M 225
says i gave him M 224
said i made you M 224
same i thank you M 222
said i must let M 222
said i gave you M 222
same i must say M 220
says i know that M 219
says i think too M 218
same i hope you M 218
said a true and M 216
said a lady was M 216
says a wise old M 212
saying i hope you M 212
save a lost and M 212
saying i have had M 210
saying a word out M 208
said i must die M 208
said a lady near M 208
same i gave him M 206
said a girl was M 206
saving a file and M 204
said i think they M 204
saving a file that M 202
said i just can M 202
said i heard you M 202
said a great poet M 202
said t love you M 200
said i have two M 200
said a very bad M 200
said a holy man M 200
said a good bit M 200
says i will die M 198
says i must try M 198
save a copy with M 196
says i must let M 194
save a rich man M 194
save a city that M 192
says i think you M 190
says i must say M 190
saying i wish you M 190
said i told them M 190
said i owed them M 190
said i hope that M 189
saying i told him M 186
saying i need not M 186
saying i know how M 186
save a life was M 186
said a great and M 186
save a sick man M 184
save a life you M 184
said i knew his M 184
says i love god M 182
said i want him M 182
said i said that M 181
says i made him M 180
says i know you M 180
said i just got M 178
says i told her M 176
said i left him M 176
said a thank you M 176
said i miss you M 174
says i work too M 172
says i told you M 172
saying a vast deal M 172
said i also had M 172
said a word they M 172
save a great man M 170
same i tell you M 170
same i have now M 170
said a single man M 170
said i felt all M 169
says i have won M 166
said i like them M 166
said a good old M 166
says i must bring M 164
says a very old M 164
says a third man M 164
says i think that M 163
said a soft but M 163
says i have two M 162
says a work now M 162
save a room for M 162
said i want this M 162
save a single day M 161
says i have this M 160
says a girl can M 160
said i will die M 160
saying a word then M 158
saving a young man M 158
said i will ask M 158
said a lady had M 158
says a word with M 156
saving a very few M 156
same a great deal M 156
said a soft and M 156
saying a word you M 154
said i love her M 154
said a clear and M 154
said a poor old M 152
said a poor and M 152
saying i know that M 151
saying i must get M 150
said i must use M 150
said i have now M 150
said a third and M 150
saying i love him M 148
said i knew and M 148
saying t love you M 146
same i love you M 146
said i have one M 146
said a vast deal M 146
save a theory that M 145
saying i think they M 144
saying i left them M 144
saying i left our M 144
same a good and M 144
said a name that M 144
says i know how M 142
save a ship and M 142
same i ever was M 142
said i will add M 142
said i want that M 142
said i must sit M 142
said a great big M 142
says a wise and M 140
said i have too M 140
says a poor man M 138
says a girl with M 138
saving a life was M 138
same i have long M 138
said i only got M 138
said i made them M 138
said i knew one M 138
said i gave them M 138
said i sure was M 136
said i know all M 136
said a word was M 136
said a calm and M 136
save a data set M 135
same i know not M 134
said i said she M 134
said i felt this M 134
said i came out M 134
says i wish you M 132
says i must lie M 132
saying i think this M 132
same i dare say M 132
said i just was M 132
saying a word nor M 130
said i must hear M 130
said i dare not M 130
saying a good bit M 128
said i went out M 128
said i must buy M 128
said a word you M 128
saying a word was M 126
said i made too M 126
said i know this M 126
said a leading man M 126
saying i want this M 124
saying i have all M 124
said a good and M 124
saying i talk too M 122
save a life are M 122
same i know you M 122
said i talk too M 122
said i know him M 122
save a page that M 120
said i knew why M 120
said i have this M 120
says i must read M 118
says i must now M 118
saying a word had M 118
save a work path M 118
save a great sum M 118
said i will pay M 118
said i went too M 118
said i heard that M 117
save a love for M 115
says i gave her M 114
says a great and M 114
saying i have any M 114
save a good sum M 114
said i must mean M 114
said a third boy M 114
said a girl near M 114
says i have one M 112
same i will say M 112
said a monk who M 112
saying a week ago M 111
says i know not M 110
save a tree and M 110
said i have read M 110
said i came not M 110
said a huge man M 110
saying i knew him M 108
said i will and M 108
said i think but M 108
said i only did M 108
says i have read M 106
says i have all M 106
saving a file you M 106
save a full day M 106
said i work for M 106
said i knew too M 106
said i came with M 106
safe a single day M 106
says i made her M 104
says i have real M 104
says a line and M 104
saying i knew that M 104
save a life may M 104
said i must run M 104
said i leave you M 104
said a dark man M 104
saving a file using M 103
says i hope you M 102
save a life can M 102
same i will try M 102
said a third with M 102
said a leading new M 102
says i came not M 100
says a great big M 100
saying t told you M 100
saying a word put M 100
saying a word led M 100
saving a life can M 100
said i means and M 100
said a youth with M 100
said a copy had M 100
said i will put M 98
said a very sad M 98
saying i like you M 96
saying i knew you M 96
saving a girl who M 96
said i want them M 96
said a lady one M 96
save a mile and M 94
same i told you M 94
same i think she M 94
said i will now M 94
said i pray you M 94
said i made his M 94
said i fell off M 94
said a very odd M 94
said a third who M 94
says i will see M 92
says i need you M 92
says i know him M 92
says a word all M 92
saying i have read M 92
saying a month ago M 92
saving a busy man M 92
save a baby who M 92
same i give you M 92
said i felt bad M 92
said a book was M 92
safe i felt with M 92
saving a vast deal M 91
says i love him M 90
says a word now M 90
says a good bit M 90
saving a poor man M 90
save a life does M 90
same i think they M 90
said i unto her M 90
said i like this M 90
said i felt ill M 90
said a good way M 90
says i tell you M 88
says a good way M 88
saying i miss you M 88
save a fair bit M 88
same i have got M 88
said i said you M 88
said i hope she M 88
said i have put M 88
said a kind and M 88
said a calm but M 88
saying i love her M 86
said i when she M 86
said i hope they M 86
said a ship was M 86
says i must buy M 84
says i make too M 84
says i have now M 84
saying i think she M 84
saying i sent you M 84
saying i have this M 84
saying i have got M 84
saving a young boy M 84
save a void and M 84
save a tree that M 84
save a part for M 84
save a body old M 84
same i told him M 84
same i hope that M 84
said i must and M 84
said a young new M 84
same i wish that M 82
same i have had M 82
said i like him M 82
says i give her M 80
saying a word can M 80
save a baby and M 80
said i must lie M 80
said i hate him M 80
said i dare say M 80
safe i will not M 80
said i have long M 47
says a word out M 44
save a hope that M 44
save a bird that M 44
saying a word one M 42
save a ship that M 42
save a good one M 41
said i take that M 41
sake i will not D 8344
said a tall man D 1973
sake i hope you D 1140
sail a boat and D 768
saith i know him D 734
sake i hope that D 598
sake i must not D 590
said a great fat D 474
sake i will say D 448
sake i will try D 402
sake i wish you D 380
sake i will now D 378
sake i have not D 370
sail a boat with D 368
sake i pray you D 360
save a spot for D 339
sake i dare not D 322
sake i hope she D 298
save a tidy sum D 296
save a soul and D 296
said a tall thin D 290
said a tall boy D 290
says i love thee D 272
said a vote for D 256
sake i hope not D 252
sail a ship and D 248
save a soul that D 247
sank a great deal D 242
sank a good deal D 236
said a tall and D 224
sail a ship with D 219
save a nest egg D 216
says i must wear D 210
save a soul for D 204
sake i must try D 200
said i must wear D 198
says a pious and D 194
sail a great deal D 191
sake i will put D 182
said a navy has D 182
said i love thee D 178
sake i will use D 176
sail a good deal D 175
sake i hope they D 174
sake i want you D 170
sake i think her D 168
save a buck and D 162
saving a nest egg D 158
sake i here use D 158
saying i have met D 156
sale i give and D 156
sack a town and D 152
sake i have had D 150
sank a well and D 148
sake i wish that D 148
said i took too D 148
said a young lad D 142
sake i will bear D 140
sake i have put D 140
sake i took this D 136
sake i must ask D 134
said i took her D 134
sand i ever saw D 132
sake i speak thus D 132
sake i hope this D 124
sake i have run D 124
sake i think you D 120
said a bald man D 118
save a soul than D 116
said a boat was D 116
sake i took them D 114
said a bomb had D 114
sack a city and D 114
save a soul but D 110
saws i ever saw D 108
save a goat with D 108
safe a spot for D 108
saving a spot for D 106
sake i will let D 106
sake i thank you D 104
save a dime and D 101
save a wife and D 98
said i took them D 98
save a tooth that D 97
save a sigh that D 96
sake i told him D 94
sake i tell you D 92
salt i ever saw D 90
said a wife and D 90
sale a good and D 88
save a limb that D 86
sank a ship nor D 86
sake i pray thee D 86
sake i pray that D 86
said i took him D 86
sack a city that D 86
save a tiny bit D 84
sake i must say D 84
save a film that D 82
sank a ship with D 82
sake i will lay D 82
sake i give you D 82
said a single dam D 82
sake i must and D 80
sake i love this D 80
