safety for them . M 1238
safety was off . M 1192
safety for all . M 1056
safety and ease . M 982
safety for you . M 956
safety for him . M 935
sacred and dear . M 922
safety with him . M 610
safety for her . M 578
sample them all . M 558
safest for you . M 542
safely with them . M 466
sample and mix . M 462
safety and joy . M 458
safely say that . M 456
safely for you . M 448
sacred for him . M 442
sadder than that . M 398
safely with him . M 382
sacred for that . M 372
safety with them . M 366
sacred with him . M 350
safely with you . M 314
safely thus far . M 312
sacred for them . M 312
sample did not . M 304
sample for you . M 286
safest way out . M 252
sample does not . M 248
safety thus far . M 242
safety for man . M 232
safest for them . M 224
safety for use . M 218
sample with air . M 210
sadder than death . M 206
safely for him . M 194
sample each year . M 192
sample with you . M 180
sacred than that . M 180
safely say this . M 178
sacred than this . M 174
safety for death . M 172
safety and use . M 168
safety that way . M 164
safest that way . M 162
sacred for you . M 160
safely this far . M 156
safely with her . M 152
sadder than that ? M 148
safety with you . M 142
safest for him . M 140
safely use them . M 138
safety and death . M 136
safest for her . M 136
sadder for his . M 134
safety with her . M 132
sample was cut . M 126
sample was low . M 120
sacred for all . M 120
safety seat use . M 116
sacred with them . M 116
sadder than this . M 114
safely each day . M 112
sample with him . M 108
sample each one . M 108
safety for both . M 106
sample was run . M 102
safety that day . M 101
sample was not . M 100
sampling them all . M 96
sample for him . M 96
safely that day . M 94
sampling does not . M 92
sacred that day . M 92
safety and his . M 90
sample for each . M 86
safely for her . M 86
sadder than you . M 86
safety than this . M 84
sacred for man . M 84
safely his own . M 80
sacred for god . M 80
safest with you . M 51
safest with him . M 40
