hung over it . M 8649
hung from it . M 4419
hung upon it . M 3798
hung over us . M 2926
hung over me . M 2340
hung onto it . M 834
hung upon us . M 388
hung upon me . M 214
hung onto me . M 116
hung just so . M 116
hung high up . M 96
hung upon it ? M 86
