humbly as i can M 848
humans in a way M 762
hunted as a boy M 427
humble as i was M 426
hunted up a few M 290
hunted by a man M 237
humble as a dog M 232
humans in a few M 206
hunted by a dog M 188
humans to a new M 188
humans in a new M 188
humbly as a man M 184
hunted up a man M 177
humans by a non M 173
humble as i can M 168
humble as a man M 168
humans as a way M 164
humbly as i may M 160
humble by a few M 158
hunted up a job M 152
humble in a way M 146
hunted up a new M 120
hunted as a team M 120
hubris of a man M 112
humans in a pre M 108
hunted up a big M 100
hurdle in a long M 98
humans of a new M 98
hunted by a few M 96
humors as i had M 94
hunted up a long M 80
humans is a long M 80
hugged by a bear D 464
hummed in a low D 394
hunter is a man D 361
hushed to a low D 244
hunter in a low D 238
hunter as a man D 232
hurled at a man D 230
hugged me a lot D 224
hugged by a man D 220
hunted by a mob D 184
hunted as a fox D 160
huddle in a heap D 140
hustle up a few D 128
hurled in a heap D 108
hunter of a lion D 98
hurrying in a few D 96
hustle of a big D 94
hushed to a dead D 90
humane in a way D 86
hunter as a bear D 84
hubcap of a car D 84
humors of a gang D 82
hushed by a new D 80
