scared i was . M 3516
school a lot . M 1574
school a year . M 942
scared a bit . M 652
school a day . M 394
scared a lot . M 344
scared i got . M 309
school i did . M 308
school a try . M 264
scared i was ? M 255
scared i was ! M 246
school i mean . M 180
scared i get . M 178
scared a bit ? M 168
school a lot ? M 129
script a day . M 126
script a bit . M 118
school a bit . M 96
script a lot . M 90
scarce a map . M 90
scheme a try . M 82
