school at the age M 104800
school at the end M 35070
school of the air M 28092
scared me to death M 26820
scheme of the act M 14638
school in the area M 13950
school in the east M 11303
school in the old M 8146
screen at the end M 7244
school as it was M 7056
school of the new M 6605
school in the mid M 6499
school in the new M 6405
school on the day M 6149
scheme of the poem M 5890
school in the year M 5735
scheme of the new M 4992
school on the one M 4795
school is the one M 4392
school on the east M 3993
scared to go out M 3943
scheme is to use M 3906
school at the top M 3379
scheme of the two M 3294
school he or she M 3233
school of the old M 3141
school it is not M 2831
school by the end M 2671
school of the day M 2586
scared as he was M 2506
school in an area M 2434
school to the new M 2423
scared us to death M 2421
script at the end M 2374
screen at the top M 2372
school to the end M 2333
school in the age M 2298
scheme at the end M 2245
school on the way M 2184
school by the age M 2137
scheme of my own M 2134
school or in any M 2110
school in the way M 2096
scheme is the one M 2043
scheme as it was M 2032
scarce in the area M 2024
school in an old M 2006
school in the day M 1960
scared me so bad M 1942
school to be with M 1930
school as he had M 1903
school at the head M 1862
school of my own M 1812
scheme of the old M 1810
school at the old M 1770
school in the near M 1763
school to the age M 1738
screen at the far M 1734
screen to the top M 1611
school we do not M 1585
school in the big M 1553
school if he had M 1518
school in the top M 1510
school at the new M 1479
school as he was M 1471
scheme in my head M 1428
school of the way M 1392
school at an age M 1350
school to the job M 1304
school is to get M 1288
scheme it is not M 1258
scheme of the war M 1215
school or in his M 1210
scheme of the law M 1202
school of the law M 1134
screen of the new M 1122
screen at the rear M 1119
school in so far M 1108
scared of my own M 1100
school on my own M 1094
scarce as it was M 1084
script to be run M 1082
scheme in the area M 1078
school to be out M 1074
scared at the idea M 1046
school so he can M 1044
scheme to be put M 1028
scheme is the use M 1012
school on my way M 1006
scared of me and M 1004
scared to do that M 1003
scarce in the new M 980
school to do this M 944
screen on the top M 922
school if it was M 918
script to be read M 916
school as it had M 905
school of the mid M 899
school on the map M 896
screen on the far M 895
school in or near M 895
school in my own M 888
school as if they M 877
school is to bring M 876
scheme by the end M 865
school to go out M 857
scheme is to get M 852
school is in its M 850
scheme in the year M 848
scarce to be had M 842
scared of the big M 824
school to be set M 816
school up to that M 815
school as the one M 807
school in the far M 805
school as it has M 797
script at the top M 796
school so we can M 796
school or to get M 796
school as it now M 791
school or do not M 789
school if it had M 786
scared to go near M 786
scheme as the one M 765
school of the east M 764
school or to any M 761
school is the key M 754
school in the two M 754
screen as it was M 734
school if he did M 734
scheme in so far M 728
school is an old M 726
screen as if they M 725
scared by the idea M 723
scared of the man M 720
scarce in the east M 715
screen to the one M 714
school as he did M 712
school or at any M 710
school if he has M 704
scheme in the bud M 704
scared me to see M 700
screen is to use M 698
school is by far M 692
school on the new M 688
school in the long M 682
scarce in the dry M 682
school of the far M 679
school of the year M 678
school to be run M 676
school is the way M 670
school to do for M 661
school to the old M 654
school on the old M 650
scheme as to how M 648
screen of the add M 644
school of the age M 642
scheme of the day M 629
school to be one M 624
scared me so that M 622
scared as he had M 622
scheme is in use M 614
scheme of the year M 613
scheme as it has M 612
school as it does M 611
school is to fit M 608
scheme is to set M 608
screen at the head M 606
school to go and M 606
scared of it and M 604
scheme in the new M 597
script to do this M 594
school so as not M 588
school up to and M 587
school or in one M 585
school is in this M 584
scheme is in its M 584
school or if they M 580
scheme on the one M 579
school to the day M 573
screen in the path M 572
school if he was M 571
school if he does M 570
screen in the rear M 565
scared of the idea M 562
scheme as he had M 558
school is the use M 554
scared of us than M 551
scheme we do not M 550
scheme to an end M 550
scarce be so low M 548
script as it was M 546
school of the end M 544
school to go with M 540
scared to go and M 539
scheme to the end M 538
school or if you M 536
scheme in the way M 536
school he is not M 534
scared as we are M 532
scared of the old M 528
script on the web M 526
school to do its M 522
scared of the new M 522
school of the pre M 520
school or of any M 517
school is to see M 516
scheme to the new M 512
screen or by using M 510
scheme of an all M 510
school on the top M 509
scheme in the mid M 504
screen is the one M 503
school or the new M 502
school is the real M 494
screen of the sky M 493
scared of me than M 489
school of the sun M 488
school in the end M 488
school in the one M 481
school at or near M 480
scheme is to bring M 480
school to do that M 478
school as to how M 472
scarce in the old M 472
school by the use M 470
screen in the new M 461
school of the two M 461
school in the war M 461
school up to this M 460
school on the air M 460
school by the year M 460
school in no way M 458
scheme is to put M 458
scheme to the one M 453
scheme of the now M 452
scheme is the idea M 452
school so it was M 451
school is so far M 446
scared of the way M 444
scarce at the end M 444
school to an old M 442
scheme of the way M 438
scheme as it had M 436
script of the new M 430
screen at the east M 427
scheme in the near M 427
screen as if she M 426
school if at all M 424
screen in the way M 423
scheme of the earth M 419
scheme on the head M 418
scheme of the six M 418
screen by the use M 416
school or it may M 416
scheme in no way M 412
school as in any M 407
screen of the old M 406
school or in her M 406
school as the key M 406
school on the far M 402
scared to do this M 402
scheme of the poet M 400
scheme as it now M 400
script to the end M 398
screen as it does M 397
school is to use M 396
school is to put M 396
school or to one M 395
school in the log M 394
scared of the dog M 392
school in the use M 388
school as he does M 376
school or to his M 373
screen in the top M 371
school or in our M 370
scared of me now M 370
scared by the way M 370
school at my age M 369
school as an aid M 368
scheme in the long M 366
scheme if it was M 366
school on the death M 364
school in the real M 364
scared of the law M 364
school as the new M 362
school in my day M 360
scheme is so far M 359
scheme to do this M 358
screen in the far M 355
screen as he was M 350
scheme by the use M 350
school if he can M 349
scheme of the set M 349
school to the real M 348
scheme to be set M 346
screen so as not M 344
school to do her M 340
school is to aid M 340
screen in an area M 337
scared to be out M 337
script is to use M 336
script of the two M 334
screen in my head M 332
scared of us and M 332
scheme is by far M 330
school of the red M 326
school if it has M 326
scheme of the one M 326
scheme of the all M 325
scheme is to add M 324
school or do you M 322
school is in one M 322
school by the way M 320
school in an all M 317
school up to age M 316
screen in the box M 314
scheming as to how M 311
school to the top M 310
school to do with M 310
school as he has M 310
scheme or of any M 310
screen of the web M 308
scheme is the way M 308
screen on the end M 307
school as it did M 306
school if we are M 305
school to do his M 304
script is the one M 303
school as the law M 303
school of the area M 302
school in the then M 302
scared to be with M 301
school is so big M 300
school to an end M 298
script of the old M 295
school or the job M 294
school as an end M 294
scheme is to try M 294
scared by the cry M 294
script to go with M 292
screen to the end M 292
school up to now M 292
school is to lead M 292
school is the idea M 292
screen in the area M 291
screen of the eye M 290
school by the new M 288
school as if she M 288
script of the day M 287
scheme of the area M 286
scheme in an area M 286
scheme in the east M 285
scared of the dead M 283
scheme in the two M 282
school to be put M 280
scared to go any M 280
scared me the way M 280
scarce as it had M 280
screen is at eye M 278
school if we had M 278
screen so we can M 277
screen to be read M 276
school in the pre M 276
scheme if it had M 276
script on the set M 274
school in the air M 274
scheme at the top M 274
scheme at the age M 274
scheme of the ten M 273
scheme as it may M 272
school is in any M 270
school to the one M 269
school by the head M 268
scheme of it all M 268
scheme is as yet M 268
school or at one M 266
school is in his M 266
school as we now M 266
screen so it can M 264
school is on its M 264
scared by the new M 263
screen to the rear M 262
screen is in use M 262
scarce by the end M 262
school or of his M 261
script on the top M 260
school in an era M 260
script by the end M 258
screen is the sum M 258
scheme of the east M 258
screen it is not M 257
screen to the east M 256
school is to set M 256
screen of the two M 255
script of my own M 254
screen or if you M 254
school or at his M 253
scarce as the war M 252
school if it can M 251
school at the far M 251
school is the new M 250
school so he was M 248
school at the east M 245
school or in its M 244
scared to go for M 244
school in my area M 243
school to do all M 242
school or by any M 242
school if it does M 241
script in my head M 240
scheme of the things M 240
scared of is that M 240
school to be near M 239
school in the red M 239
school as we had M 239
screen to the eye M 238
screen as if you M 238
school is to ask M 238
school as the way M 234
screen in the mid M 232
scared me to hear M 232
scared of no one M 231
school to me was M 230
school in the rear M 230
scheme of the song M 230
scheme is to let M 230
school to be that M 229
school to be his M 226
school is by its M 226
school as we did M 226
scheme of the long M 226
school or the day M 225
script in the air M 224
school is at all M 224
scheme in the poem M 224
screen of an old M 222
school or the law M 222
school is the end M 221
screen by the aid M 220
school to an all M 220
scared to go with M 220
school it is easy M 218
school is to try M 218
school do so for M 218
scheme as is set M 218
school or the one M 216
school in an age M 216
scheme in my own M 216
scheme as if they M 216
scarce to be got M 216
school to the two M 215
screen on the east M 214
screen as he had M 213
school is to run M 212
scared by the fear M 211
screen in the bar M 208
school up to its M 208
school or if she M 208
scared it to death M 208
school or to pay M 206
scheme or in any M 206
scheme it is easy M 206
school to do things M 205
screen or it can M 204
school in king and M 204
screen to be set M 202
scheme to be run M 202
scheme is to see M 202
school to the east M 201
school or on his M 200
school in the off M 200
school as an all M 200
scarce on the way M 200
scheme in the air M 199
script in the head M 198
school is to act M 198
school is at its M 198
scheme or to any M 196
scheme is to run M 196
school is an all M 195
school up to his M 194
school or to buy M 194
school of an old M 194
school if we did M 194
scheme as he was M 194
scheme of the mid M 193
screen as the two M 192
school is an area M 192
school as the boy M 192
scheme or by any M 192
scared of the things M 192
screen to be put M 189
scheme of the air M 189
script on the one M 188
school at my own M 188
scared of the men M 188
school or the old M 186
school he is going M 186
scheme in the end M 186
screen or it may M 185
script of the year M 184
screen as he did M 184
school to the boy M 184
school in my old M 184
school as to its M 184
scheme of the real M 183
script he or she M 182
school or to see M 182
screen is the way M 180
school to the use M 180
school or of its M 180
school is to deal M 180
school is as yet M 180
scheme of the big M 180
scheme of it was M 180
scarce in the mid M 180
scarce in the earth M 180
school or go out M 178
school of an and M 178
school is to lay M 178
scheme is the set M 178
scared of an old M 178
school on the two M 177
scared by the dog M 177
screen on the rear M 176
school to be too M 176
school it is now M 176
school is in all M 176
scared by it all M 176
scarce in an area M 176
school on or near M 175
school to go for M 174
school to be her M 174
school in my new M 174
school as we are M 174
scared by my own M 174
screen as it did M 173
school as the two M 173
script in the way M 172
school or he may M 172
school of the era M 172
school on the lot M 171
school is at one M 171
screen is an area M 170
screen in the two M 170
school of the war M 170
school is to read M 170
scarce be of any M 170
school if we can M 169
screen so he can M 168
screen or the bar M 168
school on the plea M 168
school as the son M 168
scheme to the two M 168
scheme is to cut M 168
scheme if it has M 168
school at the rear M 167
screen of my own M 166
scheme if he had M 166
scheme is the key M 165
scheme of the pre M 163
script of an old M 162
screen or in real M 162
screen in the sky M 162
school so no one M 162
school or is not M 162
school of the low M 162
school is as old M 162
scared of it all M 162
screen on or off M 161
scared of no man M 161
school of the one M 160
school is the old M 160
school is no easy M 160
school in the sun M 160
school as we can M 160
scheme of the use M 160
scared to go all M 160
scared as he did M 160
screen to the new M 159
script is in use M 158
school if the head M 158
school as he saw M 158
scared of me for M 157
script in the new M 156
school is in use M 156
scarce of the age M 156
screen of the man M 155
scheme of the man M 155
scared of the job M 155
script is to set M 154
screen in the old M 154
school in it for M 154
school as to his M 154
scheme on the old M 154
scared of the war M 154
screen as an aid M 153
screen in the web M 152
school or to use M 152
script on the rear M 151
school in the dead M 151
script on the fly M 150
school or the head M 150
scheme is to buy M 150
scarce it is not M 150
school as the day M 149
scared at the way M 149
script as the one M 148
screen to the big M 148
school to the head M 148
school or in that M 148
school of no mean M 148
school it is all M 148
school is an act M 148
scheme to be rid M 148
scheme is at all M 148
scared as if she M 148
scarce eat up all M 148
script to do that M 147
scared to go off M 147
screen to the two M 146
school to the big M 146
school or to her M 146
school or at her M 146
scheme is an old M 146
scheme in the old M 146
scheme he or she M 146
screen to do this M 145
school is in new M 145
script on my own M 144
school of the real M 144
school of the big M 144
school of my old M 144
school as an act M 144
screen is of oak M 142
screen as it had M 142
school is so bad M 142
school in the non M 142
scarce in the long M 142
screen in the end M 140
screen by the two M 140
school to go see M 140
school or the way M 140
school is of this M 140
school in the few M 140
scheme if it can M 140
school or do they M 138
school on the job M 138
school of it and M 138
scheme is in two M 138
scheme is in this M 138
scarce in the air M 138
school is so that M 137
screen of the big M 136
screen if it was M 136
school of the near M 136
school is an easy M 136
scheme on the two M 136
school on the set M 135
school in the low M 135
screen on the real M 134
school or on any M 134
school on the use M 134
school is to say M 134
school is to let M 134
school in the era M 134
school he is now M 134
school by the mid M 134
school as he may M 134
scheme of the map M 134
scheme as it did M 134
scared of the two M 134
scarce or do not M 134
script in the top M 133
school of the then M 133
school is as far M 133
script on the day M 132
screen on the one M 132
screen at the age M 132
school or an old M 132
school on an old M 132
school is the sum M 132
scheme in the act M 132
scheme as it can M 132
screen of the set M 131
screen in the air M 131
school in the six M 131
scheme to be that M 131
screen to the earth M 130
screen he or she M 130
school by the aid M 130
school by an old M 130
school at the seat M 130
school as the end M 130
school as it may M 130
scheme of the non M 130
school so we had M 129
script to the new M 128
school to be not M 128
school or to that M 128
scarce of an age M 128
school in an out M 127
school if it did M 127
school at the red M 127
scared to do any M 127
scared of the cat M 127
scared of it that M 127
script on the air M 126
screen as the new M 126
school to the death M 126
school to be read M 126
school to be both M 126
school as my own M 126
scheme if we are M 126
school is on one M 124
scheme to me and M 124
scared of me that M 123
school is to sit M 122
school as it then M 122
scheme on the way M 122
scheme of the web M 122
scheme as an aid M 122
scarce be so long M 122
scared of me but M 121
script of the big M 120
script is to read M 120
screen we do not M 120
school is to them M 120
school is the boy M 120
school in the head M 120
scheme the king had M 120
scheme of an act M 120
scared of it too M 120
scheme of the end M 119
script it is not M 118
school up in new M 118
school to the way M 118
school to be for M 118
school or as they M 118
school of the men M 118
school as we see M 118
scheme of the myth M 118
scheme is to ask M 118
screen to the real M 117
script as if you M 116
screen in the add M 116
school so he had M 116
scheme is to pay M 116
scarce on the east M 116
scarce if at all M 116
school it is that M 115
script is in its M 114
screen is the area M 114
school to do and M 114
school to be any M 114
school on the path M 114
school do so with M 114
school by the old M 114
scheme it is now M 114
scheme as it then M 114
scared by the big M 114
school of the man M 113
scared of the bear M 113
script on it and M 112
script is to run M 112
screen on it and M 112
screen is at its M 112
school so we did M 112
school or by his M 112
school or at our M 112
school is in our M 112
school as the head M 112
scared to go see M 112
scared of the bad M 112
scarce in the war M 112
scarce in the near M 112
screen on the way M 111
school at the one M 111
scared at the end M 111
scarce in the far M 111
school is to add M 110
scheme to be too M 110
scheme is the two M 110
scared as it was M 110
scarce as it has M 110
screen of the real M 109
school of the non M 109
script is to add M 108
script as he had M 108
screen as we are M 108
school ring on his M 108
school is to you M 108
scheme of the path M 108
scheme by the aid M 108
scared to go too M 108
scared on the way M 108
scared of the boy M 108
school or in this M 107
script of the few M 106
script in the web M 106
screen is on top M 106
screen at the new M 106
school to the idea M 106
school me in how M 106
school at the then M 106
school as the top M 106
scheme so as not M 106
scheme in so doing M 106
scheme as it does M 106
scarce he on his M 106
screen as the one M 105
school by the two M 105
scheme of the age M 105
script on the way M 104
script is the way M 104
screen is the real M 104
school to me and M 104
school to be its M 104
school or do any M 104
school it is too M 104
school is to pay M 104
school is of two M 104
school in or out M 104
school by the boy M 104
scheme to the old M 104
scared by the red M 104
school is the day M 103
script as if they M 102
school to go off M 102
school to be rid M 102
school or on its M 102
school of the poet M 102
school is to win M 102
scheme in the real M 102
scarce on the earth M 102
scarce in the big M 102
screen on the day M 101
school so he did M 101
school or to act M 101
school or in day M 101
scared of the real M 101
scared by the war M 101
scarce in the real M 101
scarce at the top M 101
script or in any M 100
school to the area M 100
school or by being M 100
school is the job M 100
school is the age M 100
school as the old M 100
school as he can M 100
scheme to the war M 100
scheme to go with M 100
scared to do things M 100
scarce to be read M 100
scared of it than M 99
script in the two M 98
screen up to that M 98
school to be and M 98
school or to set M 98
school or by one M 98
school at the all M 98
scheming to do him M 98
scheme is in any M 98
scared to be going M 98
scarce by the war M 98
school or the age M 97
screen so no one M 96
school or of being M 96
school in the sky M 96
school he is put M 96
scheme is to lay M 96
scheme is the sum M 96
scared by it and M 96
school as if you M 95
scheme to the non M 95
script to me and M 94
script is the use M 94
screen if we are M 94
screen as he sat M 94
school to do any M 94
school or it can M 94
school or an area M 94
school it is one M 94
school go so far M 94
school as to who M 94
scheme to be one M 94
scared in the way M 94
scared by the old M 94
screen in the near M 93
school if he got M 93
school as the year M 93
script in the near M 92
screen of the head M 92
school to the law M 92
school to an age M 92
school of the boy M 92
school is the man M 92
school is so low M 92
scheme up to that M 92
scheme or to that M 92
scheme is the ease M 92
screen as it can M 91
scarce by the mid M 91
script so it can M 90
screen is the new M 90
school or to its M 90
school or the use M 90
school is in that M 90
school in it and M 90
school as me and M 90
scheme is as old M 90
script of the end M 89
script of the poem M 88
script is the real M 88
script as it had M 88
school to be doing M 88
school or to run M 88
school or to read M 88
school or to bring M 88
school or in job M 88
school is the path M 88
school is the head M 88
school as an area M 88
scheme of an old M 88
scheme as he saw M 88
scarce up to now M 88
scarce be at war M 88
scarce in the two M 87
script or an idea M 86
screen if it has M 86
screen at the two M 86
screen as the man M 86
school it is and M 86
school at the death M 86
scheme is an idea M 86
scheme by the year M 86
scheme by the new M 86
scheme as we can M 86
scheme as he has M 86
scheme as he did M 86
scared of in this M 86
scared of is not M 85
scared of if you M 85
screen on the new M 84
screen as in real M 84
school is to this M 84
school is the fear M 84
school at the log M 84
scheme if it does M 84
scared as to bring M 84
school to be let M 82
school is or can M 82
school is at this M 82
school is as bad M 82
school as to why M 82
scheme on the use M 82
scheme of the low M 82
scheme as is now M 82
scared us so bad M 82
scarce or is not M 82
scared of me too M 81
script of the man M 80
screen of the air M 80
screen is an old M 80
school or in real M 80
school is so new M 80
school is an arm M 80
school in the act M 80
school as we all M 80
school as in his M 80
scheme to the men M 80
scheme by the two M 80
scheme as in any M 80
scared to go get M 80
scarce in the year M 80
scared if it was M 67
school in the not M 61
scared if he had M 59
screen is the key M 55
screen to the far M 54
scared as if they M 54
school or the two M 51
script to the web M 50
script is the key M 50
screen in the eye M 50
scheme of the key M 49
scared on my own M 49
scheme of the then M 48
scared of it now M 48
scared at my own M 48
screen or in any M 47
school if no one M 47
screen in the sun M 45
school at the day M 44
screen to the sun M 43
school it is his M 43
school is so near M 43
scared to be near M 43
scarce in the red M 43
school so it can M 42
school at an all M 42
scheme on the day M 42
scheme is the non M 41
scheme in the one M 41
scared of the long M 41
scarce in the low M 41
screen in the big M 40
screen by the end M 40
school in the all M 40
screaming at the top D 40072
scores of the two D 24033
school of the art D 23150
scores on the two D 19814
scroll of the law D 15474
scenes of the war D 10307
scares me to death D 7203
scored in the top D 6468
scenes of the day D 6467
scores in the two D 6402
screams of the dying D 6349
scroll to the top D 6238
scores at the end D 6059
scenes of the old D 5651
scores on the sat D 5646
scales of the two D 5019
scoffs at the idea D 4448
scales on the head D 3287
scroll to the end D 3245
school in the rue D 3231
scenes at the end D 3185
scroll of the war D 3154
scenes of the new D 3076
scenes in the old D 2696
scribe of the law D 2547
scales on the wings D 2488
scenes of the two D 2475
school on the bus D 2474
scores on the six D 2317
scribe in the law D 2210
scores in the top D 2202
scores on the new D 2138
scoffing at the idea D 2091
scents in the air D 1924
screaming at me and D 1870
screams at the top D 1837
scares me is that D 1826
scores of the men D 1712
scenes by the way D 1661
scenes of the poem D 1644
screws at the top D 1620
scenes in the two D 1594
screams of the men D 1544
scarring of the lung D 1544
scanning of the head D 1498
scores in the set D 1422
screaming to be let D 1421
scales of the head D 1398
scores in the low D 1390
school at roe head D 1389
scanty as it was D 1378
scenes in the new D 1369
scalps of the dead D 1349
scales on the two D 1337
scales in the two D 1330
schism to an end D 1317
scores of the six D 1304
scales at the end D 1288
scores on the pre D 1243
screaming in the air D 1224
scooping it up with D 1224
scenes as if they D 1194
scenes as the one D 1190
scored in the low D 1184
scenes of my own D 1168
scroll at the top D 1161
scenes in the east D 1148
scored at the top D 1142
scales on the top D 1139
scores on the odd D 1132
screaming in my head D 1130
school in the art D 1109
screaming at me that D 1097
scenes of the earth D 1094
scenes in the poem D 1068
scores on the act D 1065
scenes of the death D 1026
scores of the top D 1015
screws on the top D 1008
screws at the end D 1006
scores on the math D 996
scales at the top D 996
screaming at me for D 980
scenes of woe and D 968
scores at the top D 964
school in the car D 964
scanning the sea for D 946
scanning of the beam D 927
scenes on the way D 888
scores on the one D 883
schism of the east D 869
screaming in my ears D 864
scarce to be met D 838
scores of the non D 827
scores at the two D 823
scenes in the war D 817
scores in the area D 809
scores of the new D 800
scents of the earth D 800
scenes on the heath D 800
scenes of the far D 793
scores as if they D 786
scraps of the old D 769
scores on the ten D 752
screwing up the nut D 750
screaming to the top D 750
scales of the new D 738
scales of the bud D 734
scorns to go out D 728
scooping it up and D 716
scheme of the weal D 716
screams of the man D 713
schism of the old D 713
scores of the low D 712
scores of the ten D 710
scenes of the dead D 700
scenes of the long D 694
school of the deaf D 693
scenes in my head D 680
school on the rue D 678
screams of the two D 676
scores at the age D 668
scales of the wings D 664
scenes of the act D 662
scored at the end D 650
screws in the top D 634
scored by the team D 632
scarring in the area D 630
scales in the one D 629
scouring of the earth D 627
screaming as if she D 623
screws at the rear D 616
scares me to see D 604
school of the van D 596
scores of the old D 594
scores in the mid D 594
school on the eve D 590
scraping up the earth D 584
scenes as he had D 564
scanning or by any D 560
scoops it up and D 555
screaming as if they D 554
scorer on the team D 554
scores on the job D 550
scenes of the year D 550
screaming at the man D 544
scalps of the two D 540
scopes of the two D 538
scorch of the sun D 529
schism of the non D 529
scared by an owl D 526
scores at the low D 513
screwing on the cap D 512
scores on the law D 509
screams of the dead D 508
scores on the fear D 497
scroll up to see D 494
scores of my own D 494
screaming as he ran D 484
scores on the mas D 484
schema of the two D 483
scheme of the tax D 482
scenes on the two D 482
scales as if they D 482
scanning of the lung D 480
scales at the tip D 478
scored at or near D 477
schism of the two D 473
scored by the two D 471
scouring of the bed D 470
scenes of the poet D 464
screws to the top D 458
scents of tea and D 454
scales of my own D 450
scores on the lie D 448
scores at or near D 443
scaled up so that D 440
scorch in the sun D 439
scenes to be met D 438
scales in the seas D 438
screaming at the sky D 427
scraps of the day D 426
scotch at the bar D 426
scrape of the key D 422
scheme as in fig D 422
scores on the sub D 421
screams of the mob D 418
scored in the two D 415
screaming to be fed D 414
scenes it is not D 414
scenes at the top D 412
scaled by the mean D 406
screws on the end D 404
scenes in it are D 402
school of the rue D 400
screwing on the lid D 398
screams of the boy D 398
scores of the day D 398
scales on the cap D 393
screaming in the sky D 392
screwing in or out D 386
scenes is the one D 383
scores in the new D 382
scenes to the eye D 382
scouts of the air D 380
scenes on the east D 380
scales in the area D 380
screwing on the top D 376
screaming at us and D 376
scored by the use D 374
school in the bay D 374
scribe at the end D 370
scouts in the area D 370
screaming at the men D 366
scenes in the long D 366
scanning the sea with D 366
scenes on the set D 365
scares us to death D 365
scales of the war D 364
scores on the ace D 361
scores on the eating D 359
scroll at the end D 357
scrape it up and D 357
scanning the sea and D 354
screams of the old D 350
screaming as he was D 350
screwing up of his D 346
scores by the use D 346
scrape up the earth D 344
scales of the old D 342
scrape as no one D 340
scales in the sun D 337
scrape of the pen D 336
scenes of the end D 336
scenes in the big D 334
scores is the sum D 332
scores of the pre D 331
scored at the mean D 331
scenes of the boy D 330
scouts in the lead D 328
school of the sung D 328
scales on the one D 328
scenes of the east D 327
scanning of the area D 326
schism in the new D 325
scenes of the real D 324
scared of my dad D 320
school to an ant D 319
scores on the poi D 318
screen as in fig D 316
school in the bus D 316
scanning of the sky D 316
screwing it up and D 314
scored by the new D 313
scores in the six D 312
scored on the two D 309
scores by the end D 307
scores is to use D 306
schism of the ten D 306
scenes of as you D 306
screws on the rear D 304
scrape it up with D 304
scribe of the god D 302
screaming at the end D 302
scraps of an old D 302
scowling up at him D 296
scores on the old D 296
scraping of the bow D 292
scanty as it may D 292
scaled on the map D 292
schism in the east D 291
scores at the mean D 289
scores on the mac D 288
scooping up the icy D 286
scores up to and D 284
scowling at the man D 282
scowling at me and D 282
scenes of the area D 280
scenes in the way D 280
scored by the axe D 279
scenes of sea and D 278
school in the gym D 276
scores on the tat D 275
scores of the dead D 274
scores he or she D 274
scenes on the day D 273
schism on the one D 272
scales it is not D 271
scaled to the top D 271
school at the art D 270
scraping at the earth D 269
schema is the set D 269
scales of the cup D 268
scooping up the earth D 267
schema to the new D 267
scored in the mid D 266
scores on the non D 265
scoops it up with D 265
screaming in the car D 264
scenes in the act D 264
scales of the dead D 264
scores to the mean D 263
scores on the psi D 263
scenes in the real D 263
scales as in fig D 262
scolding at the top D 260
scenes of the one D 260
scenes in it that D 260
screws in the end D 259
screws to the beam D 258
scores it is not D 254
scenes of the red D 254
scenes of an old D 254
screams as he was D 252
scraps to the cat D 250
scouts of the two D 250
scenes on the wings D 250
scales of the poi D 250
screams in my head D 249
scraping at it with D 248
scouts at the head D 248
screaming at me all D 246
scrawl it up for D 246
scored as if they D 246
scenes in as you D 246
scanning of the two D 246
scales of the law D 246
scurvy on the way D 245
scored at the low D 244
scowls at me and D 242
scenes in the far D 242
screaming at me not D 240
scalps of the men D 240
scenes at the old D 239
screwing it up for D 238
screaming as he did D 238
screams in my ears D 236
scrawl at the end D 235
scents on the air D 235
scaled to the new D 235
screams of the art D 234
scowling at the old D 234
scores on the mat D 234
scoffing at me and D 233
scores on the set D 232
schema at the end D 232
scenes to be let D 232
screaming at the two D 231
scores on the big D 230
scales of the mean D 230
schema of the new D 228
scowling at the two D 227
scenes of the man D 227
screams at the end D 226
scenes in the bar D 226
scarring of the lid D 226
scores on the cat D 224
scores on it are D 224
school or in bed D 224
scraps to the dog D 223
scribe of the old D 222
scrape of the bow D 222
scales in the air D 222
screaming at the boy D 220
scrape at it with D 220
scenes we do not D 220
scenes in the area D 220
screws of the two D 219
scores in the pre D 219
scouring the sea for D 218
scoffing at the things D 218
screams in the air D 217
screen of the car D 216
schism in the old D 216
scared of the guy D 215
schema is the one D 214
screaming at me out D 212
scales of the leg D 212
scroll of the dead D 210
scores in the non D 210
scenes in my own D 210
scenes in an act D 210
scanty as he had D 210
scents of the east D 209
scenes of the men D 208
scenes by the use D 208
scales of the fir D 208
screaming of the jay D 206
scores in the one D 206
scales by the use D 206
scarce in the bay D 205
scrawl of the pen D 204
school in my car D 204
scenes of it are D 204
screws it up and D 202
scores of the big D 202
schism at the end D 202
scores on the sex D 201
screws in the rear D 200
screws in the lid D 200
scenes to be set D 200
scenes on the one D 200
scenes as the death D 200
scraps at the end D 199
scores on the low D 199
scouts in the rear D 198
scotch in the bar D 198
scents of sea and D 198
scouts to go out D 196
scores of the year D 195
scribe of the new D 194
scenes in an old D 194
scenes at the inn D 194
scales of the red D 194
scaled up to any D 194
scanty as my bed D 193
school in an inn D 192
scenes on sea and D 190
scenes is no way D 190
scenes as he was D 190
scaled to the mean D 190
scoops me up and D 189
scents of the day D 189
scales of the leaf D 189
scaled to the peak D 189
scroll of the sky D 188
scouts to the top D 188
scenes in the art D 188
screws in the rim D 186
screaming at the guy D 186
screaming at the dog D 186
scouts on the east D 186
scores of the deaf D 186
scores in the way D 186
scenes of the age D 186
scenic of the two D 185
screaming of the men D 184
scenes to be cut D 184
scenes of the big D 184
scarring of the eye D 184
scanning of the eye D 184
screams at me and D 183
scores of the one D 183
scoops of the ice D 183
scanning as an aid D 182
scored at the box D 181
school in the ivy D 181
school is the hub D 180
scents of the old D 180
scenes to be read D 180
scenes in the top D 180
scores of the age D 179
schist on the east D 177
screws on the two D 176
screaming at us that D 176
scorning to be any D 176
scenes he or she D 176
scanning of the gel D 176
scales up to and D 176
scowling up at her D 174
scores of the sub D 174
scores by the two D 174
scenes as he has D 174
scales of thy own D 174
scales at the two D 174
scruff of the dog D 172
screaming at the old D 172
scores in the long D 172
scenes on the urn D 172
scarring of the earth D 172
scales of the one D 172
scanning of the tip D 171
screaming at us for D 170
scenes as we are D 170
scaled up to fit D 170
scalds of the yet D 170
scraps of the real D 169
screaming at me now D 168
scared by the thud D 168
scores in the box D 166
scares me to hear D 164
scales on the day D 164
scores to the two D 163
scents of the new D 163
scenes to the end D 162
scales on the toes D 162
scouting in the area D 161
scarring in the lung D 160
scarce in the hot D 160
scenes in the mid D 158
scanning of an area D 158
scroll to be read D 156
scores in the row D 156
scores in the end D 156
scenes to do with D 156
scenes so as not D 156
scenes of the myth D 156
scarring of the lip D 156
scaled up to deal D 156
screws in the two D 154
scraping of the pen D 154
scores on the long D 154
scores on the end D 154
schema on the one D 154
scaled up by using D 154
scroll at the head D 152
scores on the mean D 152
scenes of the sad D 152
scenes as he saw D 152
scales on the leg D 152
scales of the eel D 152
screaming of the dying D 151
scores on the day D 150
scanning the ion beam D 150
scaled it to get D 150
screams at me that D 149
scenes in the one D 149
screwing on the nut D 148
screaming as if her D 148
school to the bus D 148
scenes of it had D 148
scenes in the sun D 148
scenes as we saw D 148
scored in the end D 147
scurvy on the long D 146
scouts or the red D 146
scores on it and D 146
scores of the team D 146
scores is in its D 146
scores in the act D 146
scoffs at the old D 146
scenes in it and D 146
scales of the east D 146
scanning of the earth D 145
scraps of it are D 144
scenes of the mid D 144
scenes in the death D 144
screaming up at him D 142
scraps as we can D 142
scoffs at the man D 142
school or to bed D 142
schism in the one D 142
scales on the dial D 142
scales of the top D 142
screws in or out D 140
screaming on the way D 140
screaming at me with D 140
scraping it up with D 140
school or the bus D 140
school of the sap D 140
scenes on the lid D 140
scenes on the cup D 140
scenes of an act D 140
screaming at the kid D 139
scraping up the mud D 138
scrape of my pen D 138
scores on an easy D 138
scores of the odd D 138
scooping up the mud D 138
scheme of the sub D 138
scenes in the man D 138
scares me to say D 138
screen in the car D 137
screen as the beam D 137
scenes in the can D 137
scanning in the east D 137
screws in the head D 136
screaming to the earth D 136
screaming to the car D 136
scowling at me with D 136
scouts on the way D 136
scouts in the van D 136
scouring of the seas D 136
scores as an aid D 136
scooping up the cat D 136
scenes of my long D 136
scares me is how D 136
screws to the end D 135
scraps to eat and D 135
scrape in the earth D 135
scroll in the air D 134
screen in the den D 134
scowling as he did D 134
scenes to an act D 134
scenes on the top D 134
scenes of the dying D 134
scales in the key D 134
scores is the mean D 133
screws in the hub D 132
screaming as the car D 132
scores on the bar D 132
school as the hub D 132
scenes on the old D 132
scenes on the ice D 132
scanning me up and D 132
scales to the old D 132
scored on the low D 131
scenes in the air D 131
scroll in the sky D 130
screams of the mad D 130
screaming to be set D 130
screaming in the sun D 130
scores on the use D 130
scolding of the old D 130
scenes as it was D 130
scales is to use D 130
scales go up and D 130
scrape as he has D 128
scenes is to use D 128
scales in the way D 128
screws of the new D 126
screaming to the sky D 126
scouting on my own D 126
scores go up and D 126
scales by the two D 126
screams as if she D 125
scared of the gun D 125
scowling at me for D 124
scores on the ego D 124
scenes as he does D 124
scalps in the air D 124
scales in the sky D 124
scribe of the day D 122
screaming as if each D 122
scored as the sum D 122
school in the sub D 122
scenes in the sky D 122
scenes in the red D 122
scares me so bad D 122
scales of the pic D 122
scales in the mid D 122
scoops of the war D 121
scheme of the art D 121
scroll on the top D 120
scored it up for D 120
school as an art D 120
scenes of the gay D 120
scanty as is our D 120
scaled by the area D 120
scouts to the east D 119
scroll up so that D 118
screams at me for D 118
screaming in the one D 118
scraping of the old D 118
schema as it was D 118
schema as an aid D 118
scents of the air D 118
scarring of the area D 118
scales on the old D 118
scrape at the earth D 117
scores in the sub D 117
scales of the earth D 117
scores on the easy D 116
scheme of the earl D 116
scenes by sea and D 116
scales on the long D 116
screams as if they D 115
scroll of the year D 114
scroll of the new D 114
scraps of the new D 114
scouting of the area D 114
scores on the key D 114
scores of the sat D 114
scroll to the new D 113
scrawl at the top D 113
scraping of the ice D 113
scores is the one D 113
scenes in the inn D 113
scurvy thing to cry D 112
screwing in the new D 112
screaming to me for D 112
screaming as it was D 112
scores on the cap D 112
scores on it with D 112
scoffs of an ill D 112
schema is the idea D 112
scents of the two D 112
scenes of the era D 112
scenes as he did D 112
scales in the long D 112
screws in the air D 111
screams to be cut D 111
scared of the car D 111
screws on the new D 110
scraping by on his D 110
school is the art D 110
scenes on the earth D 110
scares me the way D 110
scales is the use D 110
scales if we are D 110
scraps of my own D 109
scored by the red D 109
school or an art D 109
scenes at the red D 109
scroll in the ark D 108
screws in the cap D 108
scraps of the meat D 108
scores in the old D 108
scored in the six D 108
scenes as we had D 108
scared of an owl D 108
scalps at the end D 108
scales of the long D 108
scaled to the seat D 108
scales up to that D 107
screen in the lab D 106
scraps in the way D 106
scraping of my pen D 106
scores on the air D 106
scores of us who D 106
scores in the ten D 106
school in the hot D 106
scenes is the way D 106
scenes in no way D 106
scenes as if she D 106
scales of the six D 106
scales of it and D 106
scales in the new D 106
scurvy by the use D 105
screws on the lid D 105
scaled by the sum D 105
screams at us that D 104
screaming to the men D 104
screaming as he goes D 104
scraping of the key D 104
scouts of the war D 104
scouting to the east D 104
scored in the way D 104
school to be met D 104
school as ye law D 104
schist of the bay D 104
schema of the poem D 104
scenes to the pit D 104
scenes is the use D 104
scanty as it had D 104
screaming at no one D 103
scoffing at the new D 103
scents we do not D 103
scruff of the cat D 102
screaming of the man D 102
scowling at the sky D 102
scores by the sum D 102
scorer of the day D 102
scheme on the eve D 102
schema of the way D 102
scared by the din D 102
scales is to set D 102
scales in the end D 102
schism in the mid D 101
scarps on the east D 101
script in the car D 100
screws to the two D 100
screaming it at him D 100
scraps in the mud D 100
scraping it up and D 100
scraping at the mud D 100
scowling as if she D 100
scores on the web D 100
scored in the area D 100
scooping up the meat D 100
school of the fat D 100
scheme is to tax D 100
schema is the way D 100
scanning is to use D 100
scales of the job D 100
school or the dean D 99
scenes of the riot D 99
screaming on the top D 98
screaming as it goes D 98
scraps of the meal D 98
scores on the way D 98
scores is the use D 98
scored in the key D 98
schema in the way D 98
scenes of the way D 98
scenes of the mob D 98
scenes as if you D 98
scraping on the ice D 97
scores in the year D 97
scheme of the gas D 97
scales of the day D 97
scored in the war D 96
scorch it as you D 96
scenes on the end D 96
scales to be set D 96
scales on the tip D 96
scoops at the end D 95
scoffs at the law D 95
screws on the old D 94
screws at the two D 94
screams of the new D 94
screaming at the sad D 94
scraping in the earth D 94
scouts to go with D 94
scouts of the new D 94
scooping up the thin D 94
schism in the year D 94
schema it is not D 94
scalps to the dead D 94
scales of the map D 94
scales of the beam D 94
scales in the row D 94
screen in the hut D 92
screen by the bed D 92
screaming to be put D 92
screaming of the mob D 92
screaming as the two D 92
scraping of the wings D 92
scored as to its D 92
scored as it was D 92
scooping up the dead D 92
schema of the real D 92
scenes of the few D 92
scenes at the new D 92
scanning is the use D 92
scalps of the red D 92
scales in the near D 92
scales in the bud D 92
screams of the one D 91
screaming in the mud D 91
scroll as it was D 90
screwing up my own D 90
scorning to doe him D 90
scores as we did D 90
school on the art D 90
scenes to the pen D 90
scenes of the bay D 90
scenes in the wings D 90
scenes in the pub D 90
scenes at the two D 90
scares us to see D 90
scraps of the dead D 89
scroll of the ten D 88
screen of the mac D 88
screen by the beam D 88
scouts on the top D 88
scouts of the rear D 88
scores in my head D 88
scorer of the team D 88
scored by the old D 88
scored by the end D 88
schism at an end D 88
schema of the six D 88
scents of the far D 88
scenes as the two D 88
scenes as the old D 88
scares me is not D 88
scales in the top D 88
scrape on my arm D 87
scroll to the ark D 86
screaming at the ref D 86
school of the fox D 86
scenes of it with D 86
scenes he is now D 86
scarab ring on one D 86
scalps of the ten D 86
scales is the one D 86
scales in the low D 86
scales on the leaf D 85
scribe of the two D 84
screws of the law D 84
screaming of the red D 84
scowling at the boy D 84
scouring the sea with D 84
scooping me up and D 84
schema is to use D 84
scenes of the pre D 84
scenes it is our D 84
scenes in the car D 84
scales we do not D 84
scales to be read D 84
scales on the way D 84
scales on the rear D 84
scales on the end D 84
scales on it and D 84
scales as an aid D 84
screws in the box D 82
screen is the tab D 82
screams of the ape D 82
screaming to the end D 82
screaming on the bed D 82
screaming of the owl D 82
screaming at us all D 82
scraps in the air D 82
scrape up the mud D 82
scrape in the then D 82
school is no fun D 82
school at the bus D 82
scents to the air D 82
scenting in the air D 82
scenes at the death D 82
scanning it on both D 82
scalping as if they D 82
scroll on the end D 81
scurry of the age D 80
screaming of the two D 80
schema of the old D 80
scenes to go with D 80
scenes on the big D 80
scenes in the year D 80
scenes in the rear D 66
schema at the top D 58
scroll to the far D 56
scouts at the idea D 53
scores of the mean D 52
screams to be let D 51
screws on the cap D 49
scored as the mean D 49
scoffing at the old D 49
scored by the one D 48
scoops of the year D 48
scares of the mid D 48
scenes of the six D 46
scurry to the top D 45
scored on the top D 45
scenes in or near D 45
screaming in the rear D 44
scouts at the age D 44
scoffing at the law D 44
scenes of the sun D 44
scared of the mob D 44
scales of the gar D 44
scored on an end D 43
schema to the one D 43
scenes on the eve D 43
scored up to that D 42
scored on the six D 42
scales to the top D 42
screws to the rear D 41
screams in the dead D 41
screams at the man D 41
scored on the sat D 41
scones to go with D 41
school at an ivy D 41
schism of the mid D 41
scenes at or near D 41
scared me to bed D 41
scored on an all D 40
scalping of the dead D 40
