scarcely anything , " M 832
scarcely begun , " M 420
scarcely saved , " M 292
schedule today , " M 242
scarcity value , " M 198
scarcely known , " M 182
scarcely breathe , " M 180
scarcely human , " M 130
scarcely stand , " M 92
scarcely write , " M 84
