what they are , M 477513
what you mean , M 315696
what you say , M 274719
what they say , M 177293
what you are , M 154118
what they did , M 141293
when they did , M 134570
when she did , M 108404
what are you , M 93718
what you did , M 85236
what she did , M 80784
what you see , M 75199
when they are , M 70374
what they mean , M 68542
what say you , M 66334
what they saw , M 61374
what she was , M 59158
when you say , M 57246
what they may , M 57038
what they see , M 56518
when they die , M 56170
what they are ; M 50352
when you die , M 47970
what they are : M 45173
when they say , M 44114
what you can , M 41724
when you can , M 39824
what are they , M 39806
what they had , M 37802
what she saw , M 35456
what they read , M 34460
what does not , M 34324
what was that , M 32742
what they can , M 28536
what she does , M 27760
when she does , M 26196
when they can , M 24922
what that was , M 24076
what you get , M 23234
what was not , M 23020
when his son , M 23010
what you saw , M 22258
what you hear , M 22034
what you say ; M 22008
what they hear , M 20680
when you are , M 20360
what you read , M 20306
when one day , M 19660
what they say : M 19349
what they say ; M 18554
what one does , M 16884
when you did , M 16674
what you ask , M 16538
what you mean ; M 15344
what she had , M 15310
when and how , M 14370
what they did ; M 14266
when you read , M 14064
when doing this , M 13117
what mean you , M 13050
what they ate , M 12332
what was new , M 12306
what you are ; M 12014
what this was , M 11840
when they say : M 11694
when you ask , M 11498
what you got , M 11032
what you may , M 9250
when her son , M 9098
what did not , M 9066
what things are , M 9032
when she was , M 8946
what one has , M 8852
what they get , M 8844
what was this , M 8686
when they saw , M 8572
what are not , M 8320
what they mean ; M 8284
what was then , M 7776
what they got , M 7728
what can not , M 7568
when she saw , M 7552
what they mean : M 7546
when they had , M 7250
when they ask , M 7092
what you say : M 7040
when they cry , M 6934
what you are : M 6807
what she has , M 6698
when was that , M 6666
what you get : M 6662
what god does , M 6626
what they buy , M 6612
when she had , M 6436
what was doing , M 6382
what was she , M 6356
what they did : M 6348
when they read , M 6298
when you say : M 6242
what they saw : M 6172
when you win , M 6112
what she read , M 5850
what they saw ; M 5768
what they earn , M 5726
what they see ; M 5674
what she did ; M 5666
what men are , M 5575
whom they are , M 5536
what she was ; M 5482
what they ask , M 5460
what she was : M 5410
when you see , M 5290
what was real , M 5262
what she saw : M 5244
when you run , M 5232
when any one , M 5170
what you owe , M 5072
what men say , M 4778
what and how , M 4738
when they hear , M 4714
what you had , M 4702
what was his , M 4688
when you can : M 4648
whom they had , M 4628
what was due , M 4586
what they read ; M 4568
what you mean : M 4529
when you hear , M 4502
what you own , M 4498
when two men , M 4488
what she can , M 4392
what you doing , M 4388
what was bad , M 4376
what you see : M 4358
what and why , M 4340
when you buy , M 4246
when they act , M 4224
whom she had , M 4202
when they die ; M 4198
when they see , M 4182
what you see ; M 4176
what they may ; M 4070
what they fear , M 4022
what one can , M 4008
whom they deal , M 3972
what can you , M 3972
what you did ; M 3960
when she sings , M 3876
what she ate , M 3850
when she can , M 3846
when this man , M 3830
what they had ; M 3776
what fear was , M 3712
what you buy , M 3696
what has not , M 3678
when and why , M 3561
what was read , M 3558
when one does , M 3528
when you cry , M 3482
when they run , M 3474
when she goes , M 3432
when you can ; M 3418
whom you ask , M 3407
when eating out , M 3398
when one man , M 3385
whom you mean , M 3332
when you sit , M 3298
when was this , M 3284
whom you see , M 3216
what you can ; M 3120
what they can ; M 3118
when they fly , M 3076
what they own , M 3074
what god was , M 2960
what you earn , M 2938
when she sat , M 2926
when they win , M 2924
what you fear , M 2906
whom she was , M 2882
what she did : M 2880
when going out , M 2842
when using them , M 2798
when they may , M 2784
when with him , M 2778
when with her , M 2759
what they owe , M 2756
what she saw ; M 2754
what was not ; M 2740
what with that , M 2720
what they hear ; M 2660
what one did , M 2596
when that was , M 2546
what they see : M 2530
when they try , M 2496
when any man , M 2472
what does not ; M 2358
what she got , M 2348
when you try , M 2320
what man does , M 2310
what one eats , M 2298
what you hear ; M 2228
when she read , M 2226
what she eats , M 2210
when they ate , M 2206
whom you are , M 2204
when all men , M 2176
whom they may , M 2172
whom they saw , M 2162
what was old , M 2128
what men did , M 2066
when they won , M 2064
when cut off , M 2038
what one may , M 2026
what you ate , M 2010
whom you saw , M 2000
when you sin , M 1994
when you add , M 1990
when our son , M 1978
when one can , M 1973
when they sin , M 1960
when they can ; M 1914
what his age , M 1914
when they buy , M 1902
what was now , M 1878
when with them , M 1876
when they sit , M 1870
when you may , M 1864
when you act , M 1864
whom are men , M 1860
whom they fear , M 1858
what you ask ; M 1842
what that was ; M 1836
what may not , M 1836
what you use , M 1830
what death was , M 1826
when you lie , M 1814
what you pay , M 1810
what did you , M 1800
what war was , M 1770
when men die , M 1766
when with you , M 1761
what she read : M 1746
what she does ; M 1744
when you fly , M 1736
what god did , M 1718
what they pay , M 1704
when they ran , M 1700
whom and why , M 1698
when she ran , M 1688
what they had : M 1686
whom she saw , M 1660
what you read ; M 1656
what with this , M 1652
when one has , M 1647
whom they act , M 1612
when this was , M 1608
what you get ; M 1608
when they err , M 1592
when men say , M 1554
what was doing ; M 1534
whom all things , M 1528
when near death , M 1504
whom are dead , M 1494
when one did , M 1488
what one does ; M 1488
when they are : M 1482
what this man , M 1472
when they lie , M 1468
what you did : M 1465
what one was , M 1464
what they use , M 1446
whom and how , M 1440
whom may act , M 1418
what things mean , M 1418
when they dry , M 1416
what this does , M 1414
what they read : M 1392
what but this , M 1392
when they end , M 1386
what man was , M 1371
what they bring , M 1368
whom all men , M 1360
when all things , M 1350
what are not ; M 1344
whom they see , M 1340
when she won , M 1328
what she may , M 1322
when she ate , M 1320
what one man , M 1320
when you die ; M 1308
what our age , M 1296
when she eats , M 1276
whom you say , M 1268
when they all , M 1268
what are now , M 1246
when that goes , M 1242
when and how ; M 1217
when not eating , M 1211
what she had ; M 1208
whom you may , M 1206
when they did ; M 1204
when that man , M 1194
what then was , M 1186
what had not , M 1172
what you read : M 1152
what sin was , M 1146
when they sat , M 1136
when all this , M 1133
whom his son , M 1128
what she does : M 1122
what did she , M 1104
what her age , M 1096
what men earn , M 1072
what you hear : M 1060
when you cut , M 1044
when they die : M 1036
whom they say , M 1020
when two things , M 1005
what they arc , M 994
whom you deal , M 992
what they get ; M 984
what you try , M 978
what you owe ; M 962
what one saw , M 954
when they ask : M 952
what had she , M 952
when near him , M 950
when his men , M 940
when our men , M 938
when she has , M 936
what they can : M 914
what does not : M 914
what one has ; M 910
what did they , M 908
when his head , M 898
what that was : M 894
when his death , M 882
what each has , M 870
when did you , M 868
what was dead , M 866
what this was ; M 866
what you can : M 860
what one had , M 854
whom they deal ; M 844
what was odd , M 840
when each man , M 838
when old age , M 824
what was law , M 824
what they fear ; M 822
when you had , M 814
when cut out , M 814
when they too , M 806
what was going , M 806
when too wet , M 804
what this was : M 804
what that man , M 804
when they wed , M 792
what are they ; M 792
what they got ; M 786
whom are not , M 784
when one goes , M 784
when you are : M 782
what and why ; M 778
when they heal , M 774
when you ask : M 756
what they was , M 750
whom they are ; M 734
what goes out , M 734
whom you act , M 730
when you pay , M 724
what man has , M 724
what was owing , M 718
what his son , M 716
what they hear : M 708
what they ask ; M 708
what each does , M 704
what was not : M 700
whom she has , M 698
whom did not , M 690
what was bad ; M 688
when set out , M 684
whom they buy , M 678
what she say , M 678
what for you , M 676
what god does ; M 674
what can not ; M 672
what war was ; M 667
whom they can , M 666
when let out , M 666
what things are ; M 664
what any man , M 664
what all men , M 664
what see you , M 660
when they read : M 658
what men fear , M 654
what she had : M 650
what fear was ; M 644
when they mean , M 642
when she did ; M 642
when this poet , M 640
what you saw ; M 634
what was easy , M 630
when too dry , M 626
when near her , M 626
what they may : M 626
what they ate ; M 626
when that day , M 624
what you buy ; M 624
when his long , M 622
what was low , M 622
when they beg , M 600
what was due ; M 600
when too long , M 596
what was mean , M 596
what use then , M 594
what and why : M 594
whom they lead , M 592
when you won , M 592
what was fit , M 592
when put out , M 590
when near them , M 588
when they pay , M 582
what you bring , M 578
what for him , M 578
when they cry ; M 572
what did not ; M 562
what they earn ; M 560
whom you can , M 558
when they are ; M 558
what was near , M 558
when you get , M 552
when far off , M 552
when his dog , M 548
what was weak , M 546
what she read ; M 546
when one eats , M 544
what any one , M 538
when not singing , M 536
whom you fear , M 532
what one does : M 532
when not one , M 530
what that does , M 530
what are men , M 528
when each one , M 524
when this idea , M 522
when his age , M 520
when they age , M 518
whom you read , M 512
what man can , M 512
when his eye , M 504
what you saw : M 504
what they get : M 502
when she sings : M 496
when doing that , M 494
what does this , M 494
when you did ; M 492
when using this , M 492
when they lead , M 492
what say you ; M 492
what was man , M 486
what they buy ; M 486
what she can ; M 482
when too low , M 480
what was sin , M 478
what she has ; M 476
when you saw , M 474
when they add , M 474
when set off , M 470
whom god has , M 468
what men are ; M 460
what god has , M 458
whom they read , M 450
what and who , M 446
what they got : M 437
what was new ; M 436
what you was , M 432
what one can ; M 430
whom her son , M 428
when they set , M 428
what led him , M 428
when you mean , M 424
whom they all , M 422
when you lead , M 420
what was read ; M 418
whom was one , M 414
whom they led , M 412
when she too , M 412
what can they , M 412
whom you owe , M 408
when you hear : M 408
what you ask : M 408
when old men , M 406
when men ask , M 406
when she may , M 404
what way then , M 404
whom you see ; M 402
when you die : M 402
whom are you , M 400
when they win ; M 400
what are kings , M 400
when she read : M 398
what you add , M 396
whom old age , M 392
when this boy , M 390
when they read ; M 390
when nor how , M 388
whom you mean ; M 384
whom she sat , M 384
when you bow , M 384
when this one , M 378
what god does : M 371
whom they mix , M 370
when this son , M 368
what was real ; M 368
when they wed : M 367
when you use , M 366
what men say ; M 366
whom was dead , M 364
whom they pay , M 362
when its head , M 362
what they owe ; M 362
when you read : M 360
when and how : M 360
what was death , M 360
when they leap , M 358
when you fear , M 356
what had they , M 356
what does she , M 356
when this law , M 354
whom she led , M 352
whom one son , M 350
when they use , M 350
when near you , M 350
when eating meat , M 350
whom they act ; M 346
whom you buy , M 344
when you ate , M 344
what and how ; M 344
what she has : M 339
when they run ; M 338
what they doing , M 338
what they try , M 336
when she lay , M 332
when you bet , M 330
what was his ; M 330
what for them , M 330
when they did : M 327
what you may ; M 326
when you ran , M 322
what has she , M 322
what they ask : M 320
what man did , M 320
when you read ; M 314
what was god , M 314
what but that , M 314
what does that , M 312
when they can : M 310
when they fit , M 308
whom they beat , M 306
when not ill , M 306
what has not ; M 306
what are you ; M 306
what are then , M 306
when they both , M 304
whom you hear , M 300
whom she may , M 300
when you err , M 300
whom they deal : M 299
what are they : M 299
what can one , M 298
whom she too , M 296
whom had not , M 296
what that mean , M 296
when that long , M 294
what was ill , M 294
what she sings , M 294
when she can ; M 292
what one ate , M 292
whom being going , M 290
whom you mix , M 288
when air dry , M 288
what each did , M 288
when that one , M 286
what you got : M 285
when that son , M 282
when one was , M 282
when his team , M 282
what this new , M 282
what they own ; M 282
what its age , M 282
when you see : M 278
what men mean , M 278
when and why ; M 276
what men may , M 276
what did this , M 276
what are bad , M 274
whom are now , M 272
what they add , M 272
when one sings , M 271
when they thus , M 270
what nor why , M 270
when thus read , M 268
what her son , M 268
what are not : M 267
when her boy , M 266
when his own , M 264
when this new , M 262
what she sings : M 262
when with him ; M 260
when she sings ; M 260
what with them , M 260
what men earn ; M 260
what death was ; M 259
when his big , M 258
when are you , M 258
when this goes , M 256
when this earth , M 256
when they wed ; M 256
what with eating , M 256
what man does ; M 256
what for her , M 254
when you are ; M 252
when both are , M 252
whom god hath , M 250
whom and why ; M 250
when they lay , M 248
what you had ; M 248
what you fear ; M 248
when men act , M 246
what two things , M 244
what this did , M 244
what with men , M 242
what was sad , M 242
what was old ; M 242
whom one can , M 240
when this big , M 240
when using them : M 238
when this act , M 238
when can age , M 238
what she ate ; M 238
what got him , M 238
what and how : M 237
whom are dead ; M 236
when too old , M 236
what does god , M 236
what all this , M 236
whom they say : M 235
what they ate : M 235
when they bear , M 234
when she die , M 234
when men sin , M 234
what you win , M 234
what say they , M 234
what one read , M 234
what men see , M 234
what was and , M 232
what they use ; M 232
what each was , M 232
when you set , M 230
when they fly ; M 230
what you earn ; M 230
what law was , M 230
when you bid , M 228
what are you : M 228
what led you , M 226
what each does : M 225
what you got ; M 224
whom god was , M 222
when you wed , M 222
when doing this ; M 222
what for fear , M 222
when using them ; M 220
when our own , M 220
what you lead , M 220
what she got : M 219
whom one has , M 218
when six men , M 218
when going out ; M 218
what you bid , M 218
what his job , M 218
what one did ; M 214
what can not : M 214
what can man , M 214
whom you had , M 212
whom god had , M 212
when too weak , M 212
when not dead , M 212
when are men , M 212
what one has : M 212
what one day , M 212
what did that , M 212
whom but one , M 210
when not due , M 210
what you won , M 210
what you arc , M 210
what was fit ; M 210
whom they fear ; M 208
what you own ; M 208
when they bit , M 206
when doing this : M 205
what was going ; M 204
whom you are ; M 202
whom was old , M 202
whom they mean , M 202
when with her ; M 202
what with fear , M 202
what that did , M 202
what all are , M 202
when they sin ; M 200
when one who , M 200
when using one , M 199
what was one , M 198
whom they own , M 196
when this old , M 196
when this cup , M 196
when things are , M 196
when they mix , M 196
whom they own ; M 194
whom she now , M 194
whom and how ; M 194
when you aim , M 194
when she did : M 194
what its end , M 194
whom this man , M 192
whom not one , M 192
what you mix , M 192
when too near , M 190
when read off , M 190
what god can , M 190
when men are , M 188
when each day , M 188
what was won , M 188
what they all , M 188
what sin was ; M 188
what men saw , M 188
what god did : M 187
whom they saw ; M 186
when you heal , M 186
when wet and , M 186
what zen was , M 186
what with him , M 186
what are death , M 186
when man was , M 184
when long ago , M 184
when her long , M 184
when god goes , M 184
when with you ; M 182
when with men , M 182
when this poem , M 182
when that being , M 182
when her dog , M 182
what was dear , M 182
what they bear , M 182
whom can read , M 180
what has being , M 178
whom they owe , M 176
whom one may , M 176
whom one day , M 176
when they fear , M 176
when not that , M 176
when both men , M 176
whom she had : M 175
when you may ; M 174
when they rot , M 174
when they cry : M 174
when our eye , M 174
when her dear , M 174
what was being , M 174
what for that , M 174
whom she saw ; M 172
when she does ; M 172
when lying ill , M 172
what may now , M 172
whom they ask , M 170
when they low , M 170
what may not ; M 170
when this day , M 168
when his man , M 168
when for him , M 168
what they fear : M 168
what one was ; M 168
whom they sit , M 166
whom they may ; M 166
when you too , M 166
when his boy , M 166
when her kings , M 166
what men did ; M 166
what they earn : M 165
when they act ; M 164
when she was ; M 164
when his arm , M 164
what was new : M 164
what they won , M 164
what she got ; M 164
what was his : M 162
what they bid , M 162
what they ail , M 162
when they hear : M 161
what did not : M 161
when they who , M 160
when and then , M 160
what has this , M 160
whom they now , M 158
whom they did , M 158
when they got , M 158
when she now , M 158
when she goes ; M 158
when set going , M 158
what its use , M 158
what god did ; M 158
what with you , M 156
what has now , M 156
what and that , M 156
when one boy , M 154
what his was , M 154
what with war , M 152
whom they use , M 150
whom are old , M 150
when you beg , M 150
when this eating , M 150
when they get , M 150
when they cut , M 150
when kings die , M 150
when being read , M 150
what was cut , M 150
what things mean : M 150
what had you , M 150
whom they sat , M 148
when and who , M 148
whom she read , M 146
when one saw , M 146
when her eye , M 146
what men are : M 146
whom one was , M 144
whom men say , M 144
when this long , M 144
when they add : M 144
when saw you , M 144
when men say : M 144
what was out , M 144
what they arc ; M 144
what was doing : M 143
whom you use , M 142
whom you saw ; M 142
when yet man , M 142
when they may ; M 142
when they deal , M 142
when being cut , M 142
what they bring ; M 142
what god was ; M 142
what each man , M 142
whom was ill , M 140
whom she did , M 140
whom any one , M 140
when with them ; M 140
when read out , M 140
when men see , M 140
what you reap , M 140
what you pay ; M 140
what you may : M 140
what war does , M 140
what this sun , M 140
whom they hear , M 138
when run out , M 138
when one may , M 138
when her head , M 138
when god has , M 138
what was got , M 138
when that boy , M 136
when that big , M 136
when one had , M 136
when his low , M 136
what she eats ; M 136
what are real , M 136
what ail you , M 136
whom they cry , M 134
when this was ; M 134
when they two , M 134
when led out , M 134
when few men , M 134
when dry and , M 134
what this big , M 134
what that big , M 134
what run things , M 134
what nor how , M 134
whom you pay , M 132
whom she can , M 132
when she say , M 132
when read now , M 132
when its long , M 132
what men can , M 132
what each one , M 132
what both are , M 132
whom one eats , M 130
when god did , M 130
what with heat , M 130
whom this was , M 128
whom but you , M 128
when you all , M 128
when thus set , M 128
when his poem , M 128
what was earth , M 128
what they win , M 128
whom you lead , M 126
whom they arm , M 126
whom but now , M 126
when you buy ; M 126
when they say ; M 126
when they arc , M 126
what you add ; M 126
what way this , M 126
what was real : M 126
what you had : M 125
when they bow , M 124
when she wed , M 124
when men can , M 124
when his song , M 124
when for her , M 124
what that dear , M 124
what end then , M 124
when you add : M 122
when that was ; M 122
when eating them , M 122
when due and , M 122
when but few , M 122
what they cut , M 122
what one can : M 122
what few men , M 122
what act does , M 121
when they lie ; M 120
when his wit , M 120
when doing them , M 120
when all are , M 120
what you ate ; M 120
what men had , M 120
what had now , M 120
what god may , M 120
what god had , M 120
what can war , M 120
when they beat , M 118
what she mean , M 118
what goes out ; M 118
what can and , M 118
whom all fear , M 116
when using tcp , M 116
when near them ; M 116
what all say , M 116
whom they owe ; M 114
whom are dead : M 114
when you win ; M 114
when this war , M 114
when one year , M 114
what was far , M 114
what things may , M 114
what she hath , M 114
what his own , M 114
what she can : M 113
what say you : M 113
whom you own , M 112
whom was god , M 112
when you rid , M 112
when you lay , M 112
when they err ; M 112
when new men , M 112
what with singing , M 112
what this boy , M 112
what this act , M 112
what they act , M 112
what she doing , M 112
what you owe : M 111
when two kings , M 110
when she ran ; M 110
when our dog , M 110
when being led , M 110
what you use ; M 110
what you does , M 110
what things mean ; M 110
what they pay ; M 110
what she now , M 110
what are war , M 110
when eating out : M 109
whom you say : M 108
whom you deal ; M 108
whom you ask ; M 108
whom his death , M 108
whom can not , M 108
when you sit ; M 108
when this area , M 108
when she ate ; M 108
when and why : M 108
what was dry , M 108
what one got , M 108
what has that , M 108
what eats them , M 108
what but this : M 108
whom you mean : M 107
whom was ten , M 106
what was that ; M 106
what this old , M 106
what they now , M 106
what that one , M 106
what can she , M 106
what can read ; M 106
what but you , M 106
whom they ate , M 104
whom all die , M 104
when its use , M 104
when his leg , M 104
when god was , M 104
what way they , M 104
what things are : M 104
whom her wit , M 102
when they hear ; M 102
when they does , M 102
when that god , M 102
when our earth , M 102
what you own : M 102
what you bear , M 102
what man may , M 102
what got her , M 102
what they owe : M 101
whom they bow , M 100
whom one god , M 100
when they set ; M 100
when men who , M 100
when cut off ; M 100
when being set , M 100
what you bet , M 100
what then why , M 100
what she sings ; M 100
what joy was , M 100
what cut off ; M 100
what was this : M 99
what death was : M 99
when his new , M 98
when god had , M 98
when but two , M 98
when all law , M 98
what was read : M 98
what they lead , M 98
what they lay , M 98
what all did , M 98
whom had two , M 96
when you own , M 96
when you age , M 96
when things die , M 96
when they saw ; M 96
when they end ; M 96
when that sun , M 96
when she read ; M 96
when new and , M 96
when her big , M 96
when both act , M 96
what with age , M 96
what was was , M 96
what was hid , M 96
what men say : M 96
what are his , M 96
whom each one , M 94
when that old , M 94
when that fix , M 94
when ten men , M 94
when one can ; M 94
when not using , M 94
what was her , M 94
what was don , M 94
what now was , M 94
what her head , M 94
what beat you , M 94
what are dead , M 94
when you sat , M 92
when they buy ; M 92
when they ate ; M 92
when that law , M 92
when that idea , M 92
what was ill ; M 92
what was far ; M 92
what they win ; M 92
what then are , M 92
what not and , M 92
what may aid , M 92
what are doing , M 92
what this does : M 91
whom they bring , M 90
when you run ; M 90
when not set , M 90
whom men see , M 88
whom all this , M 88
when its sun , M 88
when her own , M 88
what they bear ; M 88
what singing was , M 88
what one saw ; M 88
whom they lay , M 86
whom are men ; M 86
when you reap , M 86
when this year , M 86
when they try ; M 86
when that dear , M 86
what had not ; M 86
what got you , M 86
whom you hear ; M 84
whom they cling , M 84
whom not men , M 84
whom may god , M 84
whom and him , M 84
when his job , M 84
when his cat , M 84
what you bring ; M 84
what use now , M 84
what this war , M 84
what they does , M 84
what that day , M 84
what his joy , M 84
whom you bow , M 82
whom one saw , M 82
when this being , M 82
when they led , M 82
when not dry , M 82
when his old , M 82
when for them , M 82
when all sin , M 82
what new god , M 82
what his sin , M 82
whom this one , M 80
when she cry , M 80
when put out ; M 80
when put off , M 80
when one ate , M 80
when any two , M 80
what job did , M 80
what his real , M 80
whom they are : M 75
whom you ask : M 70
what law does , M 67
when they see : M 62
what you buy : M 62
what they buy : M 53
when you use : M 52
what was due : M 52
what man eats , M 52
what lie did , M 50
when you buy : M 44
whom they lead : M 42
what sin does , M 42
what she ate : M 42
whom you see : M 40
when you cry : M 40
what old man , M 40
what heat was , M 40
