over the world . M 1484816
over the place . M 404462
over the phone . M 214034
over the water . M 195606
over the floor . M 112748
over the period . M 106306
over the river . M 100376
over the house . M 96004
over the state . M 95322
over the globe . M 86256
over the others . M 84526
over the table . M 83490
over the hills . M 58900
over the people . M 58030
over the field . M 53860
over the plain . M 42550
over the issue . M 36976
over the whole . M 36616
over the rocks . M 36100
over the crowd . M 32730
over the paper . M 32092
over the walls . M 31770
over the kingdom . M 29480
over the world ? M 26438
over the enemy . M 24808
over the grass . M 23292
over the wound . M 21982
over the child . M 21136
over the sides . M 20790
over the trees . M 19388
over it again . M 18608
over the money . M 17412
over the group . M 17374
over the stage . M 16944
over the first . M 16298
over the music . M 16262
over the stream . M 15510
over the altar . M 14998
over the meeting . M 14972
over the world ! M 14427
over the opening . M 13800
over the pages . M 13560
over the oceans . M 13034
over the words . M 13028
over the place ! M 12810
over the noise . M 12620
over the image . M 11918
over the party . M 11746
over the phone ? M 11412
over the leaves . M 11288
over the board . M 10580
over the chair . M 10078
over the lines . M 10066
over the place ? M 10056
over the limit . M 9772
over the abyss . M 9706
over the edges . M 9404
over the price . M 9210
over to others . M 8669
over the joint . M 8544
over the trail . M 8248
over the cycle . M 8236
over the press . M 8010
over the engine . M 7388
over the plant . M 7214
over the front . M 7172
over me again . M 6938
over the store . M 6748
over the woman . M 6580
over the crown . M 6534
over the story . M 6404
over the books . M 6344
over the event . M 6288
over the months . M 6266
over the ruins . M 6224
over the frame . M 6176
over the meadow . M 6054
over the track . M 5814
over the filling . M 5592
over the lower . M 5456
over the night . M 5420
over the right . M 5338
over the coast . M 5288
over the woods . M 5092
over the season . M 5038
over an abyss . M 4940
over the goods . M 4872
over the bones . M 4850
over the devil . M 4786
over the action . M 4764
over the route . M 4688
over the trunk . M 4576
over the class . M 4548
over the point . M 4540
over the green . M 4394
over the trees ? M 4342
over my hands . M 4072
over the facts . M 4004
over the brain . M 3944
over to visit . M 3924
over the plane . M 3760
over the others ? M 3738
over the works . M 3632
over my house . M 3568
over the queen . M 3536
over by others . M 3530
over the space . M 3456
over the block . M 3452
over the steps . M 3442
over the lands . M 3420
over to watch . M 3404
over the worst . M 3334
over the women . M 3260
over the scale . M 3220
over the sound . M 3158
over the holes . M 3104
over the house ? M 3092
over the weather . M 3064
over the trust . M 3022
over the hands . M 2944
over the drawing . M 2934
over the weaker . M 2928
over the clearing . M 2904
over at night . M 2808
over the roots . M 2774
over the ashes . M 2732
over the cross . M 2702
over the water ? M 2700
over the parts . M 2626
over the girls . M 2602
over the model . M 2564
over the delay . M 2480
over the strong . M 2468
over my father . M 2448
over the change . M 2430
over the plans . M 2356
over the storm . M 2342
over the light . M 2338
over the wreck . M 2320
over the notes . M 2320
over to sleep . M 2290
over the fires . M 2264
over the seeds . M 2244
over the gates . M 2234
over the slave . M 2214
over an enemy . M 2185
over the pupil . M 2136
over the cells . M 2104
over the shell . M 2092
over the wrist . M 2088
over the reader . M 2074
over the floor ? M 2066
over the river ? M 2042
over the names . M 2028
over the evening . M 2028
over the cover . M 2014
over or under . M 2004
over the train . M 2002
over the floor ! M 1988
over the lakes . M 1982
over the weeks . M 1974
over the house ! M 1960
over the print . M 1938
over my words . M 1937
over the rules . M 1936
over an altar . M 1920
over the watch . M 1900
over the mother . M 1872
over the onions . M 1822
over the waste . M 1812
over the black . M 1812
over an image . M 1777
over the check . M 1768
over it again ? M 1758
over of power . M 1756
over my notes . M 1753
over the crack . M 1752
over my people . M 1746
over an issue . M 1724
over the beasts . M 1710
over the ships . M 1702
over so easily . M 1696
over the water ! M 1680
over the towns . M 1646
over the father . M 1644
over the jumps . M 1638
over the phone ! M 1634
over the globe ? M 1626
over my mother . M 1591
over the birds . M 1584
over the white . M 1574
over us again . M 1522
over the order . M 1514
over the fourth . M 1480
over in agony . M 1478
over the unions . M 1476
over my books . M 1461
over by women . M 1458
over the writing . M 1456
over the chain . M 1454
over the piece . M 1452
over the claim . M 1426
over the people ? M 1408
over the power . M 1396
over the period ? M 1392
over the boxes . M 1334
over the times . M 1324
over the terms . M 1282
over the human . M 1252
over the angels . M 1244
over by force . M 1234
over the files . M 1222
over an opening . M 1198
over in front . M 1169
over the array . M 1152
over the table ? M 1144
over the chase . M 1130
over the crime . M 1114
over the verge . M 1106
over the draft . M 1106
over it later . M 1092
over the entry . M 1086
over the state ? M 1084
over the cause . M 1084
over it easily . M 1080
over my chair . M 1072
over the offer . M 1058
over the fight . M 1056
over my brain . M 1055
over to women . M 1049
over the study . M 1030
over the ranges . M 1006
over the drive . M 1006
over the river ! M 1004
over the miles . M 1004
over the spoil . M 1000
over the clock . M 994
over the landing . M 982
over the worse . M 978
over the tombs . M 972
over it either . M 968
over the links . M 952
over the guard . M 948
over the error . M 946
over the lodge . M 926
over the games . M 926
over the blood . M 926
over the local . M 910
over the money ? M 906
over the stand . M 900
over to check . M 892
over the force . M 892
over my wrist . M 888
over the vowel . M 886
over the small . M 884
over the chaos . M 876
over the blind . M 870
over as usual . M 861
over the hills ? M 856
over the items . M 854
over the reason . M 850
over the posts . M 848
over the mould . M 846
over in class . M 844
over the layer . M 842
over the graph . M 840
over the gifts . M 836
over the agent . M 834
over the hills ! M 806
over the aisle . M 804
over the child ? M 790
over so often . M 790
over to mother . M 785
over as leader . M 785
over the ruled . M 782
over the habit . M 776
over the solid . M 774
over the colon . M 772
over the cases . M 772
over the search . M 770
over the feeling . M 770
over the match . M 760
over the appeal . M 760
over the growth . M 750
over the forms . M 744
over the label . M 742
over my money . M 734
over it twice . M 728
over it first . M 726
over my table . M 701
over by morning . M 689
over the clothing . M 688
over the topic . M 672
over the costs . M 654
over the spread . M 650
over the buyer . M 648
over the stuff . M 642
over the upper . M 640
over the shape . M 636
over the forum . M 636
over the elder . M 632
over the walls ? M 628
over the prize . M 620
over my frame . M 618
over the eight . M 616
over the ruler . M 614
over the trials . M 608
over my reason . M 606
over at times . M 605
over the paper ? M 604
over my bones . M 604
over us today . M 600
over the whole ? M 600
over the fluid . M 592
over the rocks ? M 588
over the table ! M 576
over the cakes . M 576
over the visit . M 568
over the lords . M 568
over the morning . M 562
over the globe ! M 562
over the defeat . M 562
over it still . M 560
over the sites . M 558
over the asset . M 558
over the marks . M 556
over the voice . M 552
over it alone . M 552
over to yours . M 550
over the judge . M 550
over at first . M 545
over the danger . M 538
over my floor . M 524
over the author . M 522
over to cover . M 516
over the lists . M 512
over the field ? M 508
over the kingdom ? M 500
over my paper . M 491
over the limit ? M 490
over the leader . M 484
over my place . M 484
over my plans . M 483
over the older . M 482
over the field ! M 482
over my world . M 481
over the dates . M 480
over the demon . M 476
over my child . M 473
over the angles . M 468
over the style . M 466
over my grief . M 466
over the units . M 464
over as shown . M 462
over the plain ! M 458
over the cloud . M 458
over it today . M 458
over it since . M 458
over the backing . M 456
over the album . M 456
over my voice . M 454
over the first ? M 450
over to first . M 449
over by eight . M 448
over the hearings . M 446
over the glade . M 444
over the wording . M 442
over the depths . M 442
over to grant . M 438
over the fault . M 438
over the rocks ! M 436
over the motion . M 436
over me still . M 432
over the input . M 426
over my story . M 424
over it daily . M 424
over the threads . M 420
over the monks . M 420
over the moral . M 416
over us still . M 414
over me today . M 414
over to father . M 413
over the walls ! M 410
over the stems . M 410
over the owner . M 410
over the guide . M 408
over the plain ? M 406
over the method . M 402
over the teaching . M 396
over the outer . M 396
over the count . M 396
over the civil . M 396
over the catch . M 392
over to study . M 388
over the award . M 384
over to theirs . M 382
over the whole ! M 382
over the killing . M 380
over my limit . M 377
over the parting . M 376
over at seven . M 376
over the scope . M 374
over the notion . M 374
over the twigs . M 366
over the guilt . M 366
over the hours . M 364
over my walls . M 364
over the value . M 362
over or anything . M 358
over the modem . M 356
over the shift . M 350
over the money ! M 350
over the drift . M 350
over the color . M 350
over my writing . M 350
over my dreams . M 350
over the major . M 348
over the burns . M 348
over the grass ! M 342
over the enemy ! M 342
over or under ? M 342
over my wound . M 342
over the issue ? M 340
over at state . M 338
over at eight . M 337
over the vices . M 334
over to people . M 332
over the shade . M 330
over the cores . M 330
over or short . M 328
over on people . M 328
over the cutting . M 322
over the alarm . M 322
over in haste . M 319
over the above . M 318
over the enemy ? M 314
over the fates . M 312
over the casting . M 312
over my offer . M 310
over the texts . M 308
over the people ! M 308
over the elite . M 308
over to occur . M 305
over the tasks . M 304
over the stops . M 304
over the actor . M 304
over my sleep . M 304
over the cycle ? M 302
over the tools . M 300
over the joins . M 300
over my kingdom . M 300
over my child ? M 300
over the inner . M 298
over by water . M 298
over to others ? M 296
over the backs . M 294
over it though . M 294
over in black . M 294
over an orange . M 294
over the bands . M 292
over the nurse . M 290
over the names ? M 288
over to grace . M 287
over the orange . M 284
over my lines . M 284
over the vision . M 282
over the worms . M 280
over the topping . M 280
over the folds . M 280
over to music . M 278
over to brown . M 278
over in force . M 277
over the holding . M 276
over the cache . M 276
over the adult . M 274
over the proof . M 272
over to right . M 271
over in sleep . M 271
over the traps . M 270
over an equal . M 270
over the essay . M 268
over my house ? M 266
over the meter . M 264
over my watch . M 262
over the trace . M 260
over the ordeal . M 256
over the later . M 256
over the walks . M 254
over the total . M 254
over the abyss ? M 254
over the focus . M 252
over the bearings . M 252
over the grief . M 248
over the verse . M 246
over the shame . M 244
over my clothing . M 244
over an album . M 244
over the tests . M 242
over the caves . M 242
over my vision . M 242
over me again ? M 242
over the deity . M 240
over the option . M 238
over the reply . M 236
over to decay . M 234
over the stream ? M 234
over the cloak . M 234
over the abuse . M 234
over the gauge . M 232
over the close . M 232
over the bunch . M 232
over the brood . M 232
over the night ? M 230
over the alien . M 230
over me again ! M 230
over the stage ? M 228
over the grant . M 228
over to money . M 226
over the state ! M 224
over the locks . M 224
over by night . M 224
over the brown . M 222
over my house ! M 222
over in writing . M 222
over the panic . M 220
over it again ! M 220
over in others . M 219
over the signs . M 218
over the bowls . M 218
over it quick . M 216
over to action . M 214
over the sense . M 214
over the kingdom ! M 214
over the books ? M 212
over the binding . M 212
over to dreams . M 211
over the woman ? M 210
over the debts . M 210
over an event . M 210
over in words . M 209
over the steep . M 208
over the paper ! M 208
over to grief . M 206
over to fight . M 206
over the while . M 206
over the loops . M 206
over the false . M 206
over the deeds . M 206
over my reply . M 206
over to spare . M 205
over my right . M 204
over so quick . M 203
over the warmth . M 202
over the price ? M 202
over the known . M 202
over the abyss ! M 202
over on landing . M 201
over the poetry . M 200
over the large . M 200
over the irony . M 200
over in alarm . M 198
over en route . M 198
over the loser . M 196
over the limit ! M 196
over at grace . M 196
over to visit ? M 193
over the honor . M 192
over the hearts . M 192
over the cages . M 192
over the trees ! M 190
over the store ? M 190
over to enter . M 188
over the under . M 188
over the plant ? M 188
over the meeting ? M 188
over the thorns . M 186
over my stuff . M 186
over to match ? M 184
over the youths . M 184
over the short . M 184
over the notion ? M 184
over the leaves ? M 184
over the grass ? M 184
over the chair ? M 184
over an error . M 184
over the heroes . M 182
over me either . M 182
over an array . M 182
over the stage ! M 180
over the tiger . M 178
over the lines ? M 178
over my class . M 178
over in white . M 177
over an engine . M 177
over the halls . M 176
over my enemy . M 176
over the running . M 174
over the group ? M 174
over my visit . M 170
over to grass . M 169
over the wilds . M 168
over the shows . M 168
over the bells . M 168
over it often . M 168
over by angels . M 168
over to users . M 166
over the virus . M 166
over an abyss ? M 166
over in weeks . M 165
over to writing . M 164
over the share . M 164
over the feeding . M 164
over in grief . M 163
over the types . M 162
over the trend . M 162
over the pride . M 162
over in value . M 162
over or above . M 161
over the nursing . M 160
over the loads . M 160
over the heaven . M 160
over the class ? M 160
over tea leaves . M 158
over an adult . M 156
over the winding . M 154
over the users . M 154
over my defeat . M 154
over on others . M 153
over my music . M 153
over the oceans ? M 152
over the earthly . M 152
over in defeat . M 152
over the press ? M 150
over the testing . M 148
over the icons . M 148
over my folly . M 148
over at mother . M 148
over by money . M 147
over the wares . M 146
over an action . M 146
over to today . M 145
over to poetry . M 144
over the labor . M 144
over as easily . M 144
over to reason . M 143
over in space . M 143
over by train . M 143
over the party ? M 142
over the fitting . M 142
over by reason . M 142
over the altar ? M 140
over my father ? M 140
over the noble . M 138
over the lines ! M 138
over the altar ! M 138
over my thinking . M 138
over to chaos . M 136
over the readings . M 136
over the others ! M 136
over the music ? M 136
over the legal . M 136
over me smiling . M 136
over my drawing . M 135
over to share . M 134
over the tails . M 134
over the masks . M 134
over the board ? M 134
over in parts . M 134
over the words ? M 132
over the modes . M 132
over the clues . M 132
over the weather ? M 130
over the goals . M 130
over the carry . M 130
over at grant . M 127
over the sitting . M 126
over the risks . M 126
over the minds . M 126
over the fourth ? M 126
over an asset . M 126
over to state . M 125
over the still . M 124
over the rough . M 124
over the loading . M 124
over the girls ? M 124
over the curse . M 124
over my looks . M 124
over my front . M 124
over in water . M 124
over in quiet . M 124
over as chair . M 124
over in ships . M 123
over the stream ! M 122
over to serve . M 121
over by seven . M 121
over the story ? M 120
over the learning . M 120
over the price ! M 118
over the idols . M 118
over the devil ! M 118
over the breaks . M 118
over in hours . M 118
over so easily ? M 117
over an order . M 117
over to heaven . M 116
over the wealthy . M 116
over the bough . M 116
over by plane . M 116
over to error . M 115
over to idols . M 114
over to chase . M 114
over the hosts . M 114
over the giver . M 114
over the fifty . M 114
over the devil ? M 114
over the crash . M 114
over the chair ! M 114
over my shame . M 114
over me since . M 114
over in print . M 113
over to feeling . M 112
over the months ? M 112
over my phone . M 112
over my pages . M 112
over my hands ! M 112
over my dogma . M 112
over to night . M 110
over to books . M 110
over the relic . M 110
over the phase . M 110
over the junior . M 110
over the child ! M 110
over or blind . M 110
over my scare . M 110
over my field . M 110
over in passing . M 110
over to write . M 108
over the right ? M 108
over the denial . M 108
over the closing . M 108
over me first . M 108
over by trees . M 108
over to panic . M 107
over in panic . M 107
over in months . M 107
over the scare . M 106
over the poetic . M 106
over the holds . M 106
over the given . M 106
over of money . M 106
over to table . M 105
over the royal . M 104
over the guest . M 104
over my route . M 104
over as guide . M 104
over an agent . M 104
over the usual . M 102
over the unfit . M 102
over an evening . M 102
over to games . M 101
over the ruins ? M 100
over the beauty . M 100
over my needs . M 100
over in order . M 100
over by birds . M 99
over to hunting . M 98
over the strong ? M 98
over the stays . M 98
over the crowd ? M 98
over my tools . M 97
over the quest . M 96
over the named . M 96
over the healthy . M 96
over the breathing . M 96
over the wound ? M 94
over the works ! M 94
over my shift . M 94
over the treads . M 92
over the sides ? M 92
over the sides ! M 92
over the pairs . M 92
over the happy . M 92
over the bones ? M 92
over to anything . M 91
over us daily . M 90
over the reason ? M 90
over the prose . M 90
over the plane ? M 90
over the pause . M 90
over the exile . M 90
over or anything ? M 90
over as ruler . M 90
over the meadow ? M 88
over the issue ! M 88
over the brain ? M 88
over my pride . M 88
over my people ? M 88
over my offer ? M 88
over my ashes . M 88
over the warning . M 86
over the jumps ? M 86
over the facts ? M 86
over the eighth . M 86
over my guilt . M 86
over my action . M 86
over by people . M 86
over the season ? M 84
over the files ? M 84
over the brave . M 84
over of pages . M 84
over my prize . M 84
over he world . M 84
over by gifts . M 84
over to spend . M 83
over an issue ? M 83
over to dreaming . M 82
over the worst ? M 82
over the dreams . M 82
over the brief . M 82
over my steps . M 82
over my blood . M 82
over it aloud . M 82
over the haven . M 80
over an enemy ? M 80
over in place . M 68
over at thirty . M 60
over so badly . M 58
over to miles . M 56
over to appear . M 56
over to water . M 55
over to labor . M 55
over in blood . M 54
over by evening . M 53
over to sound . M 51
over to black . M 51
over on paper . M 50
over in action . M 48
over to words . M 47
over to touch . M 47
over at forty . M 47
over to white . M 46
over as above . M 46
over to party . M 43
over to folly . M 43
over in style . M 43
over in shame . M 43
over at large . M 43
over to prose . M 42
over is small . M 42
over in heaven . M 42
over to marry . M 41
over to apply . M 40
over in money . M 40
