over periods of a M 5830
over another in a M 5781
over another is a M 2407
over winter in a M 1836
over access to a M 1358
over another as a M 1146
over nature is a M 878
over nature as a M 735
over bottom of a M 699
over rights to a M 689
over something in a M 640
over itself in a M 628
over another at a M 537
over nature in a M 522
over another on a M 468
over another by a M 411
over almost in a M 378
over myself as i M 340
over choice of a M 332
over someone in a M 312
over occurs at a M 304
over creation of a M 266
over something on a M 264
over another of a M 258
over itself as a M 240
over shares in a M 238
over matter is a M 230
over shares of a M 228
over charge of a M 226
over images of a M 215
over another to a M 214
over events in a M 213
over ground of a M 212
over another or a M 212
over instead to a M 208
over prices in a M 196
over pieces of a M 183
over something of a M 182
over winter as a M 180
over issues of a M 175
over myself in a M 174
over should be a M 166
over effect of a M 165
over nature to a M 164
over wholly to a M 162
over creation as a M 160
over assets of a M 159
over matter in a M 158
over appeals by a M 158
over ninety or a M 154
over almost as a M 151
over assets in a M 150
over changes in a M 148
over actions of a M 146
over values of a M 144
over claims to a M 144
over charge to a M 144
over peoples of a M 134
over twenty in a M 132
over nature by a M 128
over myself if i M 124
over ninety is a M 122
over meetings of a M 118
over copies of a M 118
over almost to a M 113
over merely as a M 110
over issues in a M 110
over prices is a M 108
over instead of a M 105
over reality as a M 104
over papers in a M 100
over always by a M 100
over papers on a M 98
over supply at a M 96
over papers at a M 96
over reality in a M 90
over fields to a M 90
over labour as a M 88
over inside of a M 88
over slowly as a M 86
over someone on a M 84
over rights in a M 84
over powers to a M 84
over mainly to a M 84
over prices as a M 82
over itself at a M 82
over intact to a M 82
over anxious on a M 82
over serves as a M 56
over occurs in a M 52
over version of a M 51
over points in a M 49
over except in a M 47
over simply as a M 43
over dinner at a D 1933
over dinner in a D 1728
over coffee in a D 1526
over coffee at a D 1072
over drinks in a D 894
over coffee or a D 824
over drinks at a D 702
oval window is a D 610
oval instead of a D 556
oval mirror in a D 520
over stones in a D 473
over yonder is a D 452
oval window by a D 448
oval office as a D 396
over rumors of a D 316
oven instead of a D 298
oval office in a D 286
over yonder in a D 270
oval window in a D 268
over dinner or a D 229
oval bodies of a D 218
oval office on a D 180
over policy in a D 172
over rapids in a D 166
oval office by a D 163
oval office is a D 162
over coffee on a D 148
over scales of a D 146
over regions of a D 142
over dressing of a D 141
over budget by a D 135
oval window as a D 134
oval office to a D 134
over policy as a D 132
over levels of a D 130
over fences in a D 130
over budget on a D 126
oval office at a D 118
oval mirror on a D 118
over carter by a D 112
over supper in a D 106
over policy is a D 105
over bodily to a D 105
oven cleaner in a D 104
oval window of a D 104
oval painting of a D 100
over silver as a D 98
over drinks or a D 96
oval formed by a D 92
over nickel at a D 90
over income in a D 90
over income as a D 88
over equity as a D 88
over copper as a D 84
over traces of a D 60
over refers to a D 48
over office to a D 44
