cow may have a D 506
cox had been a D 402
cow had been a D 208
cox was also a D 200
cow that gave a D 194
cow has been a D 156
cot and took a D 156
cow and have a D 154
cox has made a D 140
cow was only a D 140
cox had made a D 139
cop had been a D 128
cox has been a D 126
cow dung into a D 124
cow and half a D 124
cow can have a D 118
cow and make a D 116
cow was also a D 114
cow and took a D 106
cot and made a D 106
cow and calf i D 104
cow and also a D 102
cow was worth a D 96
cow and having a D 96
cow with such a D 92
cow and made a D 92
cop was wearing a D 92
cop was just a D 92
cow for half a D 88
cow was having a D 84
cot with only a D 84
cow was like a D 80
