add that there is M 32884
add one drop of M 20402
add one more to M 13790
add his name to M 9270
add that some of M 7012
add that many of M 5358
add that when the M 5160
add this code to M 4866
add that none of M 4734
add that most of M 4591
add that during the M 4342
add this line to M 4116
add one more thing M 3750
add that even if M 3658
add one part of M 3577
add too much to M 3016
add that even the M 2922
add not only to M 2644
add ten years to M 2550
add that from the M 2540
add new data to M 2522
add one word to M 2520
add new text at M 2416
add any more to M 2414
add that among the M 2336
add that when we M 2310
add her name to M 2150
add that such an M 2139
add that even in M 2132
add one word of M 2085
add that much of M 1979
add that what is M 1924
add new ones to M 1839
add this page to M 1668
add that just as M 1472
add two more to M 1460
add new life to M 1313
add too much of M 1274
add any kind of M 1186
add that part of M 1178
add any other or M 1158
add that when he M 1146
add new text to M 1146
add new meaning to M 1130
add this book to M 1104
add one half of M 1069
add this item to M 1068
add one third of M 1065
add them into the M 1028
add this type of M 958
add yet more to M 954
add that what we M 947
add its name to M 938
add one line to M 930
add this word to M 898
add new ideas to M 897
add any type of M 894
add this kind of M 892
add that much to M 890
add new ones as M 880
add one word in M 796
add one hour to M 793
add one unit to M 790
add this line of M 736
add one other thing M 694
add this file to M 690
add them back to M 676
add one line of M 658
add two years to M 641
add that only the M 640
add not only the M 636
add that nothing is M 620
add one drop to M 616
add one more of M 608
add one unit of M 600
add that when it M 582
add that during my M 565
add this data to M 562
add that what the M 553
add any code to M 538
add that nothing in M 530
add one word on M 530
add this work to M 522
add one item to M 506
add and when to M 502
add this fact to M 486
add that once the M 477
add one half the M 463
add that word to M 462
add this case to M 456
add far more to M 456
add new from the M 436
add this name to M 432
add this note to M 430
add one half to M 430
add each pair of M 424
add that item to M 418
add this cost to M 416
add too much or M 400
add one from the M 400
add this term to M 380
add that name to M 380
add that what he M 378
add them back in M 376
add and edit the M 375
add that over the M 374
add this site to M 372
add one word as M 367
add his name as M 365
add that user to M 354
add that only in M 353
add two sets of M 350
add that such is M 347
add one note of M 342
add that those of M 338
add ten days to M 338
add and nothing to M 336
add them during the M 332
add any more of M 330
add this user to M 322
add any meaning to M 322
add that when in M 318
add that upon the M 317
add that from my M 310
add two more of M 298
add that fact to M 298
add new item to M 294
add two days to M 292
add too much at M 292
add any time to M 292
add one zero to M 286
add this word of M 284
add that nothing we M 282
add one other to M 282
add one month to M 279
add this also to M 276
add new ones in M 274
add two years of M 270
add new fire to M 270
add new ones of M 262
add new depth to M 260
add that even at M 258
add this time to M 256
add this text to M 254
add two feet to M 252
add all these to M 252
add our name to M 246
add this sort of M 242
add one fact to M 242
add that cost to M 236
add one word or M 236
add new ones or M 236
add this link to M 234
add and what to M 234
add any sort of M 232
add that kind of M 230
add them when the M 228
add this into the M 226
add new land to M 226
add that also to M 225
add new data or M 222
add things such as M 221
add that into the M 220
add that file to M 220
add that also the M 220
add one third to M 220
add that only by M 219
add all these up M 218
add that prior to M 216
add that here the M 216
add one last thing M 214
add new songs to M 210
add new code to M 210
add each item to M 210
add this rule to M 208
add that were the M 206
add one more in M 206
add two more in M 204
add one more on M 202
add new ones if M 200
add that three of M 198
add this much to M 190
add its cost to M 188
add any text to M 188
add that lack of M 186
add that even on M 186
add new work to M 186
add new ways of M 186
add new areas of M 186
add his name in M 184
add his call to M 184
add that when my M 182
add that time to M 182
add that nothing of M 180
add that life is M 180
add one link to M 180
add his word to M 180
add that here in M 178
add new ideas or M 178
add that more so M 175
add that here is M 174
add one part to M 174
add any data to M 172
add new tags to M 170
add this icon to M 168
add any form of M 168
add this note of M 166
add this part of M 164
add new ones by M 164
add new areas to M 164
add his word of M 164
add that time is M 162
add one tenth of M 162
add key from the M 162
add this form of M 160
add any more on M 160
add any item to M 160
add this code in M 158
add that part to M 156
add that line to M 156
add any pair of M 156
add too great an M 154
add them onto the M 154
add new ones at M 154
add any word of M 152
add one evil to M 148
add that were it M 146
add that even an M 146
add one note to M 146
add any part of M 146
add them from the M 144
add its icon to M 144
add that early in M 142
add that also in M 141
add one kind of M 141
add that when an M 140
add that ours is M 140
add six years to M 140
add one step to M 140
add new keys to M 140
add how much it M 140
add that data to M 138
add one word by M 138
add one type of M 138
add this line at M 136
add this form to M 136
add this step to M 134
add this unit to M 132
add this test to M 130
add this part to M 130
add that even as M 128
add its part to M 128
add her half of M 128
add that here as M 125
add that love is M 124
add one name to M 124
add too many of M 122
add how much the M 122
add his part to M 122
add any acid to M 122
add that code to M 120
add his theory of M 120
add thus much to M 118
add this unto my M 118
add this drop by M 118
add one thread to M 118
add one item of M 118
add one fifth to M 118
add new jobs to M 118
add each month to M 118
add that half the M 116
add that from an M 114
add ten feet to M 114
add any cost to M 114
add and type the M 114
add this land to M 112
add that here we M 112
add new bits of M 112
add his work to M 112
add this list to M 110
add that saying of M 110
add one line at M 110
add one hour of M 110
add new ideas as M 110
add that book to M 108
add any more at M 108
add that page to M 106
add that even to M 106
add one word at M 106
add new data on M 106
add too much as M 105
add that once we M 105
add that four of M 105
add too many at M 104
add new sets of M 104
add this bird to M 102
add that seeing the M 102
add that like the M 102
add that life in M 102
add that hell is M 102
add one bell to M 102
add this note in M 100
add that faith in M 100
add not loss of M 100
add job from the M 100
add and drag it M 100
add that half of M 99
add that will be M 98
add that type of M 98
add not just to M 98
add his mark to M 98
add this list of M 96
add new ways to M 96
add any text or M 96
add all three of M 96
add this item of M 94
add six more to M 94
add one week to M 94
add one fifth of M 94
add new paths to M 94
add his tears to M 94
add his hand to M 94
add this line in M 92
add that side by M 92
add one term to M 92
add any ideas of M 92
add far less to M 90
add any word to M 90
add that once in M 89
add one food at M 89
add this note on M 88
add our code to M 88
add one part by M 88
add new wealth to M 88
add new text or M 88
add its length to M 88
add its fire to M 88
add them also to M 86
add one pair of M 86
add his ideas to M 86
add that only as M 84
add one drop at M 84
add all four of M 84
add one more by M 83
add that term to M 82
add that some the M 82
add one case to M 82
add his life to M 82
add his anger to M 82
add its case to M 80
add that even so M 49
add that what it M 44
add that only if M 43
add one pint of D 6020
add two cups of D 3587
add new rows to D 1300
add one inch to D 1028
add his mite to D 984
add new fuel to D 955
add and stir in D 726
ads can also be D 690
add one gill of D 646
add one gram of D 620
add one whit to D 598
ads all over the D 558
add one cent to D 452
ads are used to D 442
add any salt to D 418
ads for jobs in D 378
add its mite to D 376
ads that seem to D 370
ads are part of D 370
ado was made of D 366
add hot milk to D 354
ads are full of D 352
add any fuel to D 342
add one atom to D 336
add his mite of D 322
add new zest to D 320
add this task to D 318
add our mite to D 302
add one foot to D 288
add two rows to D 270
add new rows or D 268
add her mite to D 262
add one dram of D 259
ads that will be D 258
add one inch of D 246
add that peals of D 228
add new laws to D 224
add his vote to D 224
ads are trying to D 216
ads are meant to D 214
add red wine to D 210
add oil drop by D 210
add two rows of D 202
add tab from the D 202
add our meed of D 196
ado was made by D 184
add one mole of D 184
ads that show the D 180
ads are among the D 180
ads that rely on D 175
ado was made in D 173
add its foil to D 172
add any drug to D 172
add not fuel to D 170
ads may also be D 168
ads that play on D 164
ads that used to D 160
ads that tell us D 160
add one atom of D 160
ads for some of D 156
ads are used in D 156
ads are used by D 156
ads you want to D 144
add peat moss to D 143
add one mite to D 142
ads that have the D 138
ads are seen by D 136
ado got clear of D 134
add this tool to D 124
ads and word of D 122
ads and those of D 120
add new rows of D 120
add new sins to D 116
ads that make the D 114
add peat moss or D 114
ads run during the D 112
ads are sold by D 112
ads that were the D 110
ado she went to D 110
add this string to D 110
add one string to D 110
add any zest to D 110
add this node to D 108
ads are seen as D 107
ads are able to D 106
add that wine is D 106
ads for many of D 104
add new york to D 104
ads that show up D 102
ads that seek to D 102
add new tabs to D 102
add any salt or D 102
add one vote to D 100
ads that were in D 96
ads that fail to D 96
add our mite of D 94
ads are sent to D 92
ads and some of D 90
ads are hard to D 88
ado than there is D 88
add two cans of D 88
add one acre to D 86
ads they want to D 84
ads are from the D 84
add that foot to D 84
add ice cream to D 84
add any tiling to D 84
ads and went to D 82
