added to the water M 89170
added to the first M 59458
added to the total M 53215
added to the above M 51429
added to the model M 43429
added to the basic M 40123
added to the value M 37997
added to the growing M 31709
added to the price M 30521
added to the group M 25173
added to the table M 19987
added to the right M 19528
added to the usual M 17826
added to the world M 17638
added to the blood M 17279
added to the sense M 16494
admit of no doubt M 15982
added to the final M 15721
adapt to the needs M 15661
added to the state M 14724
added to the house M 13848
added by the author M 13821
added to the force M 13601
added to the front M 12244
added to the power M 12110
added to or taken M 11850
added to the local M 11813
added to the story M 11485
added to the beauty M 10924
added to the others M 10658
added to the cells M 10440
added to the board M 10380
added to the fluid M 8968
added to the class M 8798
added to the costs M 8713
added to the whole M 8588
added in the first M 8373
admit of no delay M 8242
added to the upper M 8122
added to the feeling M 7965
added to the lower M 7961
added to the chain M 7948
added to the store M 7865
added to the growth M 7681
added to the image M 7608
added to the royal M 7277
adapt to the world M 7184
added to the input M 7166
added to the field M 7098
added to the ration M 6960
added to the party M 6718
adapt to the change M 6516
added to the daily M 6469
added to the study M 6354
added to the working M 6165
added to an equal M 6046
added to the drawing M 5968
added to the kingdom M 5959
added to the small M 5907
added to the labor M 5893
added to the names M 5599
added to the noise M 5562
added at the start M 5535
added to the large M 5431
added to the danger M 5303
added to the trust M 5088
added to the plant M 5077
added to the older M 5026
added to the graph M 4867
added to the words M 4846
added to the lists M 4784
added to the glory M 4767
added to the white M 4756
added up to about M 4716
adapt to the local M 4708
added to the child M 4609
added to the array M 4570
added to the crown M 4381
added to the paper M 4361
added to the order M 4354
added to the fixed M 4298
added to the human M 4287
added to the scale M 4204
adopt in the field M 4166
added on the right M 4162
added to the money M 4134
added to the gross M 4047
added to the chaos M 3930
added in the final M 3880
added to the known M 3856
added to the outer M 3772
added to the fourth M 3660
added at the close M 3642
added to the query M 3557
added in the order M 3470
added to the strong M 3459
added to the solid M 3450
added to the stream M 3430
added to the period M 3285
added to the sound M 3271
added to the frame M 3253
added to the light M 3182
added to the seven M 3174
added to the inner M 3164
added to the civil M 3029
added to the black M 2990
added to the appeal M 2943
added in the later M 2923
added to the rules M 2898
added to the selling M 2846
added to the train M 2804
added to the color M 2790
added to the given M 2760
added to the short M 2666
added to the cycle M 2624
adapt it to local M 2618
added to the eight M 2571
added to the sides M 2570
added to the facts M 2546
adult in the house M 2456
added to the moral M 2451
added to the grand M 2427
added to the music M 2424
added to the legal M 2419
added as an extra M 2418
added to the mixed M 2414
added to the draft M 2404
added to the walls M 2382
added to the action M 2379
added to the delay M 2315
added to the search M 2278
added to it until M 2278
added as an after M 2275
admit to the world M 2262
added to the space M 2241
added to the panic M 2236
adapt to the times M 2232
added to the event M 2200
added up the total M 2176
added to it which M 2168
added in the fourth M 2156
added to the block M 2154
added to the teaching M 2149
added to the notes M 2144
added to the waste M 2142
added to my sense M 2140
added to the terms M 2138
added to the start M 2111
added to the goods M 2110
added to the joint M 2087
adult in the child M 2086
added to the books M 2074
added to the engine M 2054
added to the scope M 2046
added to the point M 2032
added to the running M 2031
added to the prime M 2018
adult to the child M 2010
added to the works M 1998
added to the motion M 1984
added to the alarm M 1983
added to it since M 1956
added at the table M 1950
added in an aside M 1928
added to the mother M 1914
added to the thirty M 1911
added to the still M 1896
added to the people M 1891
added in the shape M 1882
admit of the delay M 1880
added to the phase M 1864
added at the right M 1826
added to the notion M 1818
added to the later M 1798
added to the asset M 1785
admit of no change M 1778
added to it after M 1777
added to the stage M 1766
added by the house M 1766
added to the linear M 1755
added by the first M 1738
adult or an older M 1713
added to the major M 1690
added to the cache M 1688
adopt in the event M 1685
added to the files M 1684
added to the entry M 1683
added to the river M 1678
added in the usual M 1670
added to the error M 1668
added to the newly M 1652
added to the count M 1650
added at the front M 1642
added to the share M 1628
added to the green M 1623
added in the right M 1623
added to the cross M 1604
added to the oceans M 1590
added to the risks M 1542
added to the morning M 1523
added to the warmth M 1504
added to the label M 1493
added to it later M 1475
added to the change M 1474
added to the grace M 1472
added in no small M 1472
added to the items M 1464
added to the proof M 1452
added to the opening M 1452
added to the author M 1444
added at the point M 1438
adapt to the harsh M 1434
admit of no reply M 1418
added to the print M 1418
added in the lower M 1408
added in the upper M 1395
added to the crime M 1363
added to the style M 1338
added to the grief M 1312
added as the first M 1312
added to the evening M 1299
added to the binding M 1291
added to the lines M 1286
adapt to the rules M 1270
added to my feeling M 1252
admit of no denial M 1250
added to the place M 1248
admit of an exact M 1242
added to an image M 1241
admit of no proof M 1234
added to in order M 1228
added on the first M 1213
added to in later M 1212
adult or the child M 1208
added to the edges M 1200
adapt to the child M 1188
adult in the world M 1187
added as an aside M 1184
added to the queen M 1180
added to my store M 1178
added to the plain M 1158
added to the forms M 1154
admit to the crime M 1153
added to the check M 1152
added up to nearly M 1150
admit of the whole M 1138
added to by later M 1134
added to the shell M 1130
added in the sense M 1126
added at the sides M 1126
added to the lands M 1124
added to the floor M 1109
adopt it in order M 1092
added in the field M 1091
added to the yearly M 1078
added to by others M 1078
added to an older M 1078
added to the steady M 1066
added to the holding M 1064
added to the route M 1062
added as an option M 1050
added to the cover M 1044
added at the first M 1040
added to the layer M 1036
added to the agony M 1036
added to the women M 1034
added at the final M 1027
added to the guilt M 1015
added to the forty M 1014
added to the parts M 1012
added to the crowd M 1012
adapt to the growing M 1010
added to the magic M 1006
added at the lower M 1002
added to the waiting M 1001
added to it every M 1000
added to the learning M 996
added by the later M 992
added to an empty M 990
added to the piece M 988
added to the claim M 988
added in the house M 972
added up to anything M 960
added in the period M 956
added to the tools M 954
added in the above M 936
added to the eighth M 932
added to the units M 928
added to the grant M 926
admit of the growth M 924
added by the state M 922
added to the rather M 914
added to the method M 914
added in the total M 913
added to the tasks M 912
adopt in the first M 906
added to the lives M 904
added to the cause M 900
added to my growing M 896
added to the trials M 894
adapt to the white M 890
added to the fifty M 888
added to the empty M 888
added up to quite M 885
added to an array M 882
added to the brain M 881
added to the owner M 880
added to the feeding M 878
adapt to the varying M 876
admit of no appeal M 862
added as the final M 860
added to the track M 856
added to the night M 853
added as the fourth M 852
added on the floor M 851
added to the fires M 850
added at the upper M 834
added to the honor M 822
added to the dialog M 814
added to the cloud M 814
admit of the water M 809
added to the noble M 804
added to the issue M 803
added to the enemy M 803
added in the light M 801
added to the cares M 798
adapt to the shape M 796
adult is no longer M 794
added to the slave M 794
added in the notes M 788
added to the voice M 786
added to the peril M 784
added to the cases M 782
added to the father M 780
added to the brief M 779
added to the filling M 776
added to the plane M 768
added at the input M 768
added to the virus M 764
added to the guest M 764
admit it in front M 763
added to the watch M 760
adapt to the group M 758
added to the sixty M 748
admit at the start M 744
admit it to others M 740
added to the pages M 740
added to the roots M 739
added to the hours M 732
added to the axioms M 730
added to the extra M 724
added to the quick M 723
adult it is about M 721
added to the trend M 712
added to the texts M 710
added to the leaves M 709
adept in the black M 705
admit of an appeal M 696
admit it at first M 695
added to the trunk M 694
added to the agent M 684
added to the pride M 682
added in an under M 682
added to the award M 678
added to it about M 678
added to the yield M 675
added to it under M 670
added in the morning M 670
added by the final M 668
added to the quiet M 666
added to the essay M 665
added to the clock M 664
added to the buyer M 660
added to my grief M 660
added to the press M 658
added to it while M 656
added is the value M 644
added to my father M 640
added to the happy M 639
admit to the house M 638
added in the state M 637
adapt to the human M 635
admit in the first M 634
added to the round M 627
added to the adult M 622
added in the words M 620
added in the table M 620
adapt to the style M 617
adult in the group M 616
adapt to the lower M 616
added to the logic M 612
added in the space M 608
added to the marks M 606
added to the drive M 600
added to the sweet M 598
added to the nursing M 595
added to the curse M 592
added by the lords M 592
added to the woman M 588
added to the readings M 588
added to the types M 580
added to the awful M 577
added to the shame M 572
added to the guard M 571
added to the shape M 570
added in the model M 570
added by the reader M 570
added by the owner M 568
added on the front M 562
added to the unease M 559
added to the merit M 558
added to the humor M 558
adapt to an alien M 558
added as the child M 556
added to the writing M 555
added by the small M 550
added be so added M 545
admit to an error M 544
added to the close M 544
added on the sides M 544
adapt to the growth M 540
added in the place M 538
added to the bending M 537
added to the prize M 536
added to the plans M 536
admit of no decay M 532
added to the gifts M 532
adapt to the given M 532
added in the event M 531
added to the burning M 530
added by the local M 530
added as he stood M 530
adult in an adult M 526
added to the brown M 525
added by the board M 525
added to the storm M 524
adopt it in place M 522
added to the album M 520
added to the meter M 518
added to the reacting M 516
added to the passing M 516
added to my mother M 514
admit of the usual M 512
added to the gauge M 512
added by the labor M 504
added to the casting M 498
added up to thirty M 496
added to the spread M 492
added to the verse M 488
added to the users M 488
added to the after M 484
added to the option M 482
added to the nouns M 482
added in the solid M 482
added to the gains M 480
admit to my shame M 472
added to the irony M 472
added to the breathing M 472
added to the mould M 468
added to the testing M 467
added to the closing M 467
added up to seven M 465
added to the vocal M 465
adept in the field M 458
added to the vowel M 458
added to the nearly M 458
added to the false M 458
added on the upper M 458
added to the resting M 455
admit of the action M 454
added to the stems M 453
added to the debts M 452
added to the ashes M 452
added to the utter M 450
added to my notes M 448
adapt to the light M 446
added to the views M 442
added to the meeting M 442
adult in the state M 440
added to the times M 440
added to the games M 438
added to an order M 438
added to the cruel M 430
added on the lower M 430
added in the front M 430
added to the coast M 429
added in the whole M 429
adult in the first M 426
added by the action M 424
added to or mixed M 423
added to the trace M 422
added to the reader M 422
added to the loads M 422
added to the vital M 419
added to the armed M 418
adopt in the light M 416
added is the first M 416
added to the signs M 414
added to the rough M 414
added to the pupil M 414
added to the longer M 411
added up to create M 408
added to the earned M 408
admit of an equal M 406
admit it is quite M 406
added by the civil M 406
admit it is rather M 404
added to the orange M 404
added to the phone M 402
added up to yield M 400
adapt to the newly M 400
added to an action M 399
added to the vigor M 398
added in the proof M 398
adapt to the state M 397
added to the seeds M 396
added to the feeds M 396
added to the verbs M 394
adept in the sound M 392
added to the trees M 392
added to the beaten M 392
added to the built M 390
adapt to the learning M 388
added to the tales M 386
added as he moved M 386
added to the chair M 384
admit to be valid M 382
added to the offer M 382
added to the under M 378
added to the loose M 378
added to the loading M 376
adapt to the people M 376
added at the onset M 374
adapt it to human M 371
admit of the above M 370
added to the rocks M 370
added to the bones M 370
added up the costs M 368
admit to the abuse M 364
added on the fourth M 364
added in the water M 364
added to the topic M 362
added as the water M 361
added to the acute M 360
added to an entry M 360
added to the girls M 358
added in the eighth M 355
added to the poetry M 353
added to the worry M 350
added to the ships M 350
added to the shift M 350
added to the prose M 350
added to the season M 349
added to the unity M 346
added to it makes M 346
added to the carry M 345
adopt it in terms M 344
adapt to the daily M 344
added to the cleaning M 343
adapt it in order M 342
added to the warning M 341
adapt to the shift M 340
adapt it to every M 340
added to the tests M 338
added to it either M 338
added to the build M 337
adult on the child M 336
added up to eight M 334
added up in order M 334
added to the lodge M 334
added up the money M 330
added to the altar M 330
added to my first M 330
added to by every M 330
added to the calling M 329
added in the given M 328
adapt to the space M 328
adapt to the newer M 328
adult in the sense M 326
adapt it to serve M 326
added to the pleasing M 324
added to the links M 324
added to the leader M 324
adapt to the stage M 324
adult at the table M 322
admit it in words M 322
added to the grass M 321
added to the hopes M 320
added to it again M 320
admit to the whole M 318
admit of no terms M 318
added to the poetic M 318
added to the fully M 318
added by the fourth M 317
adult to be loved M 316
added to the boxes M 316
added is so small M 316
added to the guide M 314
added to the defeat M 314
added to my guilt M 314
added in the evening M 314
added in the small M 312
adapt to or change M 312
admit to the party M 310
admit of no pause M 310
added to the vision M 310
added to the super M 310
added on the outer M 309
added to the dates M 308
admit in the house M 306
added to the vague M 306
adapt to the input M 306
added to the focus M 304
adapt to the weather M 304
added to the vices M 301
added by the voice M 300
admit to be false M 298
admit of an easier M 298
added to the where M 298
added to the needs M 297
added up the hours M 296
added to the saved M 296
added to my debts M 296
added to my daily M 296
added to my alarm M 296
adult in the prime M 294
admit of no final M 294
admit of no exact M 294
added to the forum M 293
added to the burnt M 293
admit to my table M 292
adapt to the alien M 292
added to the cries M 291
added to the fight M 290
added at the times M 290
adapt to the major M 288
added to the spent M 286
added to the habit M 286
added to the hands M 284
added to an asset M 284
added as he began M 284
adapt to the large M 284
added to the towns M 282
added to my usual M 282
added by the group M 282
admit of the right M 280
added to the lengthy M 280
adult of the child M 278
adult as the child M 276
admit to the order M 276
admit to be within M 276
added up to fifty M 276
added to the globe M 276
added to it within M 276
added to the wound M 275
admit to the study M 274
admit to the first M 274
added to the junior M 274
adapt to the noise M 274
added on the motion M 271
admit of the opening M 270
added by the child M 270
admit to the others M 268
admit to the facts M 268
admit to be right M 268
added by the people M 268
adapt in the light M 268
added up the items M 266
adapt to the users M 266
added in the outer M 264
added up the value M 262
added to the toils M 262
added to the mapping M 262
added at the stage M 262
admit it in order M 260
admit to the place M 258
adult in the class M 256
admit on the stand M 256
adapt to the small M 256
adopt as the value M 254
added to the exact M 254
adult on the upper M 252
admit to the power M 252
admit to the class M 252
added to the limit M 252
added by the crown M 252
added as the needs M 252
added as he headed M 252
adapt to the wider M 252
adapt to the working M 251
added to the trail M 250
added in an equal M 250
added in the chain M 248
added as the eighth M 248
adapt to the logic M 248
admit of the passing M 247
added at the plant M 246
adult by the child M 244
added to the stand M 244
added to the newer M 244
added to the fault M 244
added to the equal M 244
added to the catch M 242
adapt to the facts M 242
admit to the right M 240
added up to forty M 240
added in the close M 240
admit to the press M 238
admit of the motion M 238
added to an event M 238
added to the brood M 236
added to or drawn M 236
added to by gifts M 236
added in the local M 236
admit of no longer M 234
added to the deathly M 234
added to it daily M 233
added in the short M 233
admit to the kingdom M 232
added to the ample M 232
added to the reason M 230
adapt to the extra M 230
added as an eighth M 229
added to the cutting M 228
added by the growth M 227
added to the thrust M 226
adept of the black M 225
added to the finding M 225
added at the outer M 225
admit of the first M 224
adult it is often M 223
added to the landing M 223
added to the inter M 223
added in the basic M 223
admit of no motion M 222
added in the large M 222
added to the never M 221
adult it is found M 220
adult in the party M 220
admit it in others M 220
added to the healthy M 220
added to the goals M 220
added by the field M 220
admit it up front M 219
added to the noisy M 218
added in the draft M 218
added to the nurse M 216
added to the harsh M 216
added in the price M 216
added at the edges M 216
adapt to the short M 216
admit of the large M 214
admit in the light M 214
added to the chant M 214
adapt to the basic M 214
admit to the killing M 213
added to an inner M 213
admit to the error M 212
added to the codes M 212
added to it gives M 212
adapt is to change M 212
added to the upset M 211
adapt to the adult M 211
admit of an error M 210
added to the backs M 210
adapt it to varying M 210
added to the spoil M 208
adult or an adult M 207
added up to total M 207
admit to the reader M 206
added to the ordeal M 206
added to the drift M 206
added to my small M 206
adult to an adult M 204
admit of no error M 204
added to the stuff M 204
added to the clothing M 204
added as if speaking M 204
adapt to the water M 204
adapt to in order M 204
added to the dooms M 202
added to the civic M 202
added to my shame M 202
added as the story M 202
adapt to the often M 202
admit of so large M 200
added to the wording M 200
added in the cycle M 200
adapt to the usual M 200
admit he is right M 199
adapt to the teaching M 199
added up to large M 198
added to the sites M 198
added in the story M 198
adapt to the place M 198
adult is the child M 196
added to the steps M 196
added to the doubt M 196
added as the train M 196
adult is an adult M 195
adopt in the world M 195
adept in the study M 195
added in the gross M 195
added to the backing M 194
added in the value M 194
added to the often M 192
added to the clearing M 192
added by the large M 192
added by the extra M 192
admit to the floor M 190
added to the worst M 190
added to the piety M 190
added to the cages M 190
added in the night M 190
adapt to the color M 190
adopt is to place M 188
added to the hosts M 188
adapt to the others M 188
adopt in the place M 186
admit to the people M 186
admit to the child M 186
admit to be sound M 186
added to the uneasy M 186
added to my unease M 186
adapt to the whole M 186
added to the weaker M 184
added in the fable M 184
added as an input M 184
adapt to the trend M 184
adapt to the image M 184
admit of the working M 183
admit of my writing M 183
admit of the parts M 182
admit of no warmth M 182
added to the months M 182
adapt to the total M 182
adapt to the tasks M 182
added to the winning M 181
added to the elite M 181
adult in the wider M 180
added by the above M 180
admit of the roots M 178
admit of my getting M 178
added to the wider M 178
added to the calls M 178
added to in every M 178
added on an extra M 178
added by the judge M 178
admit to be really M 176
added to the quest M 176
added by the queen M 176
added as the value M 175
admit to the group M 174
admit of the lower M 174
added to the weather M 174
added to the hunger M 174
added by the story M 174
added up the price M 172
added in the midst M 172
added in the exact M 172
added at the option M 172
added at the opening M 172
added as the author M 172
added to at later M 171
adult of the lower M 170
adore as the mother M 170
admit of the power M 170
admit it is easier M 170
added up the facts M 170
added to the lords M 170
added to the angles M 170
added or in which M 170
added in the forms M 170
adult in the small M 168
added to the ruler M 168
added to the realms M 168
added to the holes M 168
added to the deadly M 168
added to my cares M 168
added on the final M 168
added in the voice M 168
adapt it to change M 168
adult if the child M 167
added to the steep M 167
added to the falling M 167
added on the house M 167
admit of the child M 166
added to the proud M 166
added to the birds M 166
added in the style M 166
added by the method M 166
added by the father M 166
adult or the older M 164
adult as an adult M 164
admit to the judge M 164
admit of the change M 164
admit of no check M 164
admit of an action M 164
added of the whole M 164
adapt to the added M 164
adopt as the basic M 163
added to the ascii M 163
added up to major M 162
added to the ruins M 162
added to the meanings M 162
added to an engine M 162
added by the water M 162
adapt to the power M 161
adult in the story M 160
adopt on the issue M 160
admit to my mother M 160
added to the fitting M 160
added to the blind M 160
added by the monks M 160
added by an order M 160
added to the hunting M 159
added on the inner M 159
added in the input M 159
admit of the light M 158
adept in the water M 158
added up to sixty M 158
added to the decay M 158
added to the bands M 158
adore in the place M 156
adopt at the start M 156
added to the breed M 156
adult in the adult M 155
adept of the first M 155
added in the world M 155
added by the joint M 155
admit to the feeling M 154
added to the naked M 154
added to or built M 154
added to it where M 154
added in the study M 154
adopt it in every M 152
added to the lending M 152
added to the drops M 152
added at the later M 152
adept in the writing M 151
added to the proxy M 151
added to an input M 151
adapt to the labor M 151
adult in the whole M 150
admit to the upper M 150
added to the threats M 150
added to the named M 150
added to the deeds M 150
added to it could M 150
adapt to the value M 150
adapt to the model M 150
adept in the world M 149
added in the growth M 149
added if the first M 148
adapt to the worst M 148
adapt to the mother M 148
adept in the rules M 146
added to the truths M 146
added to the reply M 146
added to or given M 146
added at the inner M 146
adapt or go under M 146
added to the actor M 144
added as the study M 144
adapt to the forms M 144
adapt to it rather M 144
added by the human M 143
admit of my reaching M 142
added to the fable M 142
added to the cheer M 142
added if the child M 142
adapt to the study M 142
adapt to the motion M 142
adapt or to change M 142
added at the proof M 141
adult of the first M 140
added to the shade M 140
added to the letting M 140
added in the rough M 140
added to the might M 139
added to the create M 139
added to the chase M 139
added by my father M 139
added at the local M 139
adult in the place M 138
adult in the field M 138
admit of the entry M 138
admit of no hopes M 138
added if the water M 138
added by the change M 138
added at the royal M 138
added in the inner M 137
adapt to the point M 137
adult in the lives M 136
adopt in the study M 136
adopt at the close M 136
added to the match M 136
added to the folly M 136
added on the later M 136
added in the image M 136
adapt to the scale M 136
adapt to the notion M 136
adapt to or adopt M 136
added to the lethal M 134
added at the place M 134
adapt to the views M 134
adapt to the legal M 134
adapt it to create M 134
adopt is to allow M 132
added to the vivid M 132
added to the sorry M 132
added to the really M 132
added to it rather M 132
added on the morning M 132
added at the angles M 132
added as he tried M 132
adapt to the goals M 132
adult to the point M 130
adult is the mother M 130
admit to my father M 130
added to the winding M 130
added to the bunch M 130
added to my trials M 130
added by the working M 130
added by the words M 130
added at no extra M 130
adapt to the rough M 130
adapt to the moral M 130
adapt in the sense M 130
adult in the learning M 129
admit of the drawing M 129
added is no longer M 129
adopt in the works M 128
adopt in the short M 128
admit to be quite M 128
admit of an extra M 128
added to the sleep M 128
added to the gauging M 128
added to the acids M 128
added to the abuse M 128
adapt to it easily M 128
adapt to the outer M 127
adapt to the longer M 127
adopt it in spite M 126
adopt as the first M 126
admit of my waiting M 126
added up in terms M 126
added to the unions M 126
added to the crack M 126
added to the coded M 126
added to it eight M 126
added on the point M 126
added on the cover M 126
added as the others M 126
adapt to the first M 126
added to the seeming M 125
adopt in the later M 124
admit to the habit M 124
admit of the notion M 124
admit of no equal M 124
admit of my engaging M 124
admit at the first M 124
added to the lengths M 124
added to the judge M 124
added to the every M 124
added it is found M 124
added in the paper M 124
added by the users M 124
added by my mother M 124
added in the closing M 123
admit of the sense M 122
admit of the raising M 122
admit of so ample M 122
added to the tolls M 122
added to the mixes M 122
added to the minus M 122
added to the dreams M 122
added to the depths M 122
added to the denial M 122
added to the cores M 122
added by the rules M 122
added at the state M 122
adapt to the words M 122
adult of the human M 121
added to the sitting M 121
added in the class M 121
adapt to the testing M 121
adult to be aware M 120
adult in the study M 120
admit of no limit M 120
admit it is right M 120
added to the varying M 120
added to the traps M 120
added of the final M 120
added it in order M 120
added at the meeting M 120
added as the blood M 120
added as an entry M 120
adapt to the strong M 120
adapt in the first M 120
admit to the value M 119
added to an altar M 119
added in the plant M 119
admit of the given M 118
admit of so gross M 118
adept at the quick M 118
added to the lasting M 118
added to the click M 118
added to or moved M 118
added to my pride M 118
added on in order M 118
added of the total M 118
added in an extra M 118
added by the nurse M 118
added as the group M 118
adapt to the threats M 118
adapt to the enemy M 118
adult or the adult M 117
adult in the labor M 117
added to the soothing M 117
adult in the midst M 116
admit of no human M 116
added to it twice M 116
added on the input M 116
added in the cases M 116
added by the order M 116
added as the reason M 116
adapt to the wants M 116
added to the missing M 115
added to the howling M 115
added to the elder M 115
added in the newly M 115
adopt is to apply M 114
adept in the magic M 114
added to the verge M 114
added to the amazing M 114
added to my panic M 114
added to my force M 114
added by the others M 114
added as it comes M 114
adapt to the notes M 114
admit of the close M 113
adult it is quite M 112
adult is the first M 112
adopt at the first M 112
admit of the point M 112
admit of the exact M 112
admit in the words M 112
added up to months M 112
added to the wrist M 112
added to the wreck M 112
added to the within M 112
added to the weakly M 112
added to the treating M 112
added to the alien M 112
added to so often M 112
added on to plain M 112
added by the white M 112
adapt to the chaos M 112
added to the drawn M 111
admit to the inner M 110
admit of the people M 110
admit of the blood M 110
adept at the basic M 110
added to the tight M 110
added to the onions M 110
added to at every M 110
added by the study M 110
added at an extra M 110
adapt to the above M 110
added is the total M 109
adult is in danger M 108
admit of the running M 108
admit it is often M 108
added to by local M 108
added to an agent M 108
added by the paper M 108
added by the actor M 108
added at the water M 108
adept in the noble M 107
added on to cover M 107
adult he is still M 106
admit it in plain M 106
adept at the tasks M 106
added to the favor M 106
added in the longer M 106
added in the extra M 106
added in the author M 106
added by the maker M 106
adapt to the sound M 106
adapt to the onset M 106
admit to the state M 105
admit of my walking M 105
added to us since M 104
added to the timer M 104
added to the forcing M 104
added to the burst M 104
added to an email M 104
adapt to the inner M 104
added to the forming M 103
admit to be human M 102
admit to be error M 102
admit of the total M 102
admit of my calling M 102
admit it is still M 102
adept in the first M 102
added to the wants M 102
added on the whole M 102
added on the model M 102
added on the books M 102
added in the power M 102
added as he wiped M 102
added by the growing M 101
adapt to an adult M 101
admit to be binding M 100
admit to an equal M 100
admit it in print M 100
added up to weeks M 100
added to the lakes M 100
added to the bowls M 100
added to it comes M 100
added of the others M 100
added in the plane M 100
admit us to share M 98
admit to the woman M 98
admit to be rather M 98
admit it is really M 98
added to the turning M 98
added to the nearby M 98
added to the email M 98
added to by rules M 98
added in the lords M 98
adapt to the night M 98
added by the total M 97
adult in the right M 96
adopt or to change M 96
adopt it we shall M 96
added to the valid M 96
added to the scare M 96
added to the apathy M 96
added to my chain M 96
added to my agony M 96
added it to trust M 96
adapt as the world M 96
adopt or to avoid M 94
admit of the upper M 94
added to the sayings M 94
added as an appeal M 94
adapt to the price M 94
adult if the adult M 93
adopt it in speaking M 92
adopt in the house M 92
added up the check M 92
added to the echoes M 92
added to it nearly M 92
added in the search M 92
added in the months M 92
added if it seems M 92
added by the buyer M 92
added by an agent M 92
added as he noted M 92
admit it to either M 91
added in the goods M 91
added by the elder M 91
adopt is to start M 90
adopt if he could M 90
admit to the change M 90
admit to my house M 90
admit of so close M 90
admit of my sending M 90
added to my worry M 90
added to by human M 90
added in the costs M 90
added by the terms M 90
added by the lower M 90
added as is known M 90
adapt to the rather M 90
adapt it to today M 90
adapt in the short M 90
admit of the landing M 89
adult in the crowd M 88
adopt is to offer M 88
admit us to equal M 88
admit to the board M 88
admit in the final M 88
added up to rather M 88
added up to money M 88
added to the truly M 88
added to the shows M 88
added to the posts M 88
added to the angels M 88
added to my money M 88
added to it still M 88
added to by growth M 88
added on the method M 88
adapt to the risks M 88
adapt to the field M 88
adult is to create M 86
adult in the water M 86
adult in the kingdom M 86
adopt as the model M 86
admit of my drawing M 86
added up to proof M 86
added to the usage M 86
added to the greed M 86
added by the upper M 86
added by the force M 86
added as the weather M 86
adapt to the event M 86
adapt it to large M 86
adept at the first M 85
adult to the small M 84
adult it is nearly M 84
adopt it in others M 84
adopt it as theirs M 84
adopt is to avoid M 84
admit to the human M 84
admit of my staying M 84
added to the spare M 84
added to the shaping M 84
added to the heroes M 84
added in the major M 84
added if the color M 84
added at the fourth M 84
adapt it in every M 84
added up to strong M 83
added to the playing M 83
adult on the first M 82
adult it is wanting M 82
adopt or to adapt M 82
adopt it in cases M 82
admit on the floor M 82
adept at the short M 82
added to the gates M 82
added to my state M 82
added to my house M 82
added on the river M 82
added in the stage M 82
added as the woman M 82
adapt to the plant M 82
adapt to the music M 82
adapt to the buyer M 82
added by the plant M 81
adult in the lower M 80
adopt in the final M 80
admit of the growing M 80
admit it is getting M 80
admit it if asked M 80
added to the visit M 80
added to the sunny M 80
added to it words M 80
added to it might M 80
added to by reason M 80
added on the label M 80
added by an author M 80
added at the usual M 80
added as an inner M 80
added to the purge M 71
added in the drawing M 65
added to my thinking M 59
adult on the right M 57
added to the thinking M 57
added to the lifting M 56
admit of an opening M 54
adapt to the class M 54
added up the whole M 53
added to it fifty M 51
added up to equal M 50
added to the killing M 50
added on or after M 50
added in the group M 50
added to my total M 49
added on to every M 49
added if the final M 47
admit of the front M 46
admit of no right M 46
added to the sharing M 46
added on or taken M 46
added by the close M 46
added by the class M 46
adapt to the fluid M 46
adept in the whole M 45
added on to human M 43
adult in the human M 42
admit on the whole M 42
added to the liber M 42
added in the adult M 42
adapt to the fixed M 42
admit of the fluid M 41
added to it thirty M 41
added by the outer M 41
added to the blown M 40
added to my inner M 40
added on the longer M 40
added it up again M 40
adapt to the opening M 40
adapt to the changing D 31236
added to the staff D 23422
added to the stock D 22042
added to the basis D 15883
added to the fleet D 11405
added to the title D 11046
added to the flask D 10611
added to the scene D 8930
added to the urine D 8612
added to the social D 8185
added to the ranks D 7841
added to the charm D 7577
added to the score D 7089
added to the index D 6501
added to the basal D 6444
added to the assay D 6232
added to the roman D 6183
added to the wells D 6156
added to the chart D 5861
added to the nation D 5698
added to the stack D 5508
added to the gloom D 5482
added to the treaty D 5421
added to the boiling D 5347
added to the queue D 5277
added to the resin D 5239
added to the rolls D 5190
added to the serum D 4946
added to the batch D 4908
added to the dough D 4888
added to the tubes D 4561
added to the juice D 3962
added to the canon D 3956
added to the flour D 3881
added to the latex D 3772
added to the glass D 3724
adieu to the world D 3697
added to the funds D 3679
added to the plate D 3647
added to the sales D 3633
adapt to the social D 3614
added on the basis D 3542
added to the court D 3441
added to the mailing D 3402
added to the steel D 3366
added to the metal D 3140
added to the sauce D 3104
added to the flame D 2958
added to the drama D 2943
added to the paste D 2932
added to the panel D 2740
added to the spray D 2704
added to the creed D 2689
added to the paint D 2632
added to the beaker D 2618
added by the court D 2583
added to the sugar D 2579
added to the slide D 2549
added to the urban D 2509
added to the diets D 2396
added to the alloy D 2381
added to the fresh D 2373
added to the dried D 2294
added to the region D 2184
adopt as the basis D 2160
added to the crude D 2152
added to the tower D 2122
added to the wages D 2092
added to the speed D 2070
adapt to the rapid D 1974
added to the brine D 1971
added to the sinking D 1929
added to the genus D 1908
added to the glaze D 1900
adapt it to changing D 1888
added to the fruit D 1862
added to the trade D 1841
added to the cooking D 1814
added to the corps D 1800
added to the level D 1755
added to the grain D 1711
added to the syrup D 1662
added to the housing D 1658
added to the shock D 1636
added to the bible D 1636
added to the ladle D 1623
added to the cooling D 1552
added to the coating D 1538
added to the hotel D 1536
added to the taxes D 1530
added to the blank D 1493
added in the reign D 1464
added to my stock D 1449
added to the soils D 1428
added to the penal D 1424
added to the mixer D 1412
added to sea water D 1410
added to the routing D 1398
added to the organ D 1398
added to the naval D 1396
added to the heated D 1360
added to the flock D 1320
added to the blend D 1300
added to the thrill D 1288
added to the rural D 1285
added to the earnings D 1284
added to the rotor D 1266
added to the tally D 1258
added to the motor D 1255
added to the rates D 1224
added to the novel D 1220
added to the donor D 1208
added to an ounce D 1158
added in the ladle D 1158
added to the movie D 1151
added to the rapid D 1114
added to the evils D 1114
added to the stone D 1104
added to the league D 1099
added to the amino D 1096
adapt to the norms D 1096
added to the header D 1092
added to the beater D 1080
added to the sheet D 1072
added to the crust D 1038
added to the washing D 1032
added to the savings D 1014
added to the solar D 1004
added to the salad D 976
added to the racial D 974
added to the fauna D 969
added to the bureau D 969
added to the semen D 960
added to the choir D 942
added to the fiber D 934
added to the ethnic D 924
added to the lipid D 917
added to the debit D 902
added to the votes D 898
added at the level D 893
added at the mixer D 882
added to it would D 862
added to the pathos D 856
added to the bench D 853
added in the region D 839
adapt to the urban D 838
added to the blast D 836
added to the rinse D 832
added to the inlet D 832
added to the shaft D 813
added to the flood D 812
added to the sperm D 811
added to the drain D 805
added to the chief D 803
added to the lymph D 798
added to the tanks D 796
added to the drill D 788
added to the rigid D 786
added to the papal D 760
added to the smoke D 758
added to the privy D 756
admit of no rival D 754
added to the cereal D 746
added to the wheel D 734
added to the listing D 729
added to the curve D 714
added to the gravy D 713
added to the dutch D 712
added to the fused D 705
added to the quota D 700
added to the chord D 699
added to the banking D 696
added to the stain D 695
added to the cargo D 690
adieu to the scene D 685
added to the breadth D 668
added to the foods D 666
added to the drink D 666
added to the pitch D 664
added up the score D 662
added to the mound D 660
added to the weird D 650
added to the suite D 648
added to the plating D 642
added to the enema D 640
added to the anode D 636
added to the shelf D 632
added to the cards D 632
added to the furor D 628
added to the argon D 626
added to the broad D 622
added to the basin D 620
added to the probe D 618
added to the bills D 618
added to the grade D 617
admit on the basis D 616
added to the cable D 612
added to the horse D 610
added to the grave D 604
added to the vapor D 598
added to the lunar D 588
added to the sponge D 574
adapt to the level D 574
added to the pilot D 568
added to the flora D 564
added to the strings D 556
added to the eerie D 551
added to the liver D 550
adult on the basis D 548
added to the chill D 548
added to the duchy D 544
added to the blaze D 542
added to the dance D 538
added to the havoc D 536
added to the syringe D 535
adopt on the basis D 534
added to the gases D 532
added to the digit D 530
added to the dreary D 526
added to the honey D 519
adapt to the rhythm D 518
added to the fever D 514
added to an index D 514
added by the clerk D 512
added to the hoard D 510
added to the skill D 508
added to the rolling D 505
added to the apple D 505
added to the manor D 504
added to the setting D 500
added to the melting D 499
added to the sheer D 496
added to the flowing D 494
added to the valve D 493
added to the smell D 488
added in the cooking D 484
added by the housing D 484
added to the negro D 478
added to the macro D 477
added to the cabin D 474
added by the treaty D 474
added to the robot D 472
added to the ceiling D 470
added to the audit D 469
added to the inert D 468
added to the epoxy D 464
adagio of the first D 461
added to the setup D 460
added to the driving D 460
added to the sport D 457
added to the piles D 456
added to the laser D 452
admit of the rapid D 446
admit of no treaty D 442
added to the moist D 442
adieu to the place D 440
added to the meager D 440
added to an assay D 440
added to the voter D 438
added to the fusion D 436
added on the title D 436
added to the truck D 427
added to the salts D 424
added to the smooth D 420
added to the fatty D 420
added to the decor D 419
added to the stern D 417
added at the arrow D 416
adieu to the house D 414
added at the inlet D 414
added to the sight D 412
added to the priming D 408
added to the abbey D 407
added to the brick D 406
added to the tense D 404
added to the taste D 404
added to the tract D 400
added to the spice D 398
added to the ponds D 398
added to the dress D 397
adieu to the river D 392
added to the oxide D 388
added to the fatal D 388
added in the assay D 386
added to the potting D 385
added to the dense D 384
added to the bonus D 384
added to the punch D 382
adapt to an urban D 382
added to the rinsing D 380
added to the smart D 378
admit of no cavil D 376
added to the rooms D 372
added to the combo D 372
added to the bases D 372
added to the serial D 370
added to the plots D 370
added to the edict D 370
added to the genre D 369
added to the chest D 368
added to the photo D 366
added to the crews D 366
added to the studio D 364
added to the rhythm D 364
added to the pulse D 364
added to the grout D 363
added to the gruel D 361
added to the ounce D 360
adapt to the speed D 360
added to the toxin D 358
added to the wafer D 354
added to the odium D 354
added to the flesh D 354
added to the dowry D 354
added to the canal D 354
added to the march D 353
added on the verso D 353
added to the minor D 352
added to the strip D 350
adapt to the taste D 350
added to the banks D 348
added to the trading D 345
added to the shunt D 340
added to an alloy D 340
added to the brand D 336
adapt to the novel D 336
added to the patch D 334
added to the iodine D 334
adept at the sport D 333
added by the baker D 333
added to the methyl D 332
added to the codex D 332
added to the brass D 332
added to the bonds D 332
added to the roles D 330
added to the sharp D 326
added to the chyme D 326
added to the bride D 326
added to the delta D 325
added to the mount D 324
added to by fresh D 324
added to the shore D 321
added to the stool D 320
added to the grape D 320
added to the faces D 320
added to the opera D 318
added to the slope D 316
added to the grease D 316
added to the pending D 315
adept in the craft D 314
added to the changing D 313
added to the comic D 312
added to the annex D 312
adieu to the stage D 309
added in the mixer D 309
added to the tribe D 308
added to the rents D 308
added in the blank D 304
added to the cairn D 302
added to the cider D 300
added to the reign D 298
added to the flash D 298
added to the cocoa D 298
added to the token D 296
added to the menus D 293
added to the creek D 292
added in the studio D 292
added up the votes D 290
added to the lotion D 290
added to the farms D 290
added to my staff D 290
adieu to the light D 289
added to the theater D 288
added to the mouse D 288
added by the roman D 286
added to the median D 284
added to the crops D 280
added to the swell D 279
added to the senior D 278
added to the purse D 278
added to the burial D 278
adopt to the changing D 277
added to the iodide D 277
added to the scrap D 274
added to the pixel D 274
added to the pains D 271
added to the jelly D 271
adieu of the world D 270
adder to the voice D 270
added to the villa D 270
added to the mural D 270
added to the vinyl D 269
added to the amine D 269
added to the dairy D 268
added in the title D 268
added to the legion D 266
added to an amino D 265
added to the ranch D 264
added to the polar D 264
added to the tonic D 263
added to the welding D 262
adapt to the mores D 262
added to the fairy D 261
added to the squad D 260
adult in the nation D 259
added to the mongol D 258
added to the molding D 258
added to the quilt D 254
added to the lofty D 254
added to the feces D 254
added to the lingual D 253
added to the spell D 252
adapt to the region D 251
added to the films D 250
added by the trade D 250
added as an annex D 250
adept at the craft D 249
added to the puree D 248
added to the borax D 247
added to the tangle D 246
added to the skirt D 246
added to the phage D 244
added to the bleach D 244
added to the slate D 243
added to the soaking D 242
added to the nodes D 242
added in the ensuing D 242
added to the glare D 240
added to the leaching D 238
added in the beater D 238
added to the lumen D 235
adieu to the muses D 232
added to the troop D 232
added to the tenor D 232
added to the breast D 232
adult at the level D 230
added to the wedding D 230
added to the harem D 230
added to the ester D 228
added to the tidal D 226
added to the straw D 226
added to the quart D 226
added to the pound D 226
added to the myriad D 226
added to the leather D 226
added to the eclat D 226
added to the radial D 225
adieu to the people D 224
added to the maize D 224
added to the herds D 224
adept at the social D 223
added to the pumping D 222
added in the rotor D 222
added to the dealer D 221
adieu to the court D 220
added to the spine D 220
added to the opium D 220
added to the fines D 220
added to my gloom D 220
added by the dealer D 220
added to the stick D 219
added to the imaging D 219
admit of the ingress D 218
added to the camel D 218
admit to the court D 217
added to the bedding D 216
added to the faint D 214
adapt to the shock D 214
added to the viral D 213
added to the thesis D 212
added to the stars D 212
added to the melee D 212
added to the fixer D 212
added to the fetal D 212
added to the scant D 210
added to the clays D 210
added to the packing D 208
adieu to the cares D 206
added to the magma D 206
added to the focal D 206
added to the doors D 206
added to the coins D 206
added to my title D 206
added to the soups D 204
added to the roads D 204
added to the booty D 204
added to the skull D 203
added to the churn D 203
added to the labial D 202
added to the drugs D 202
added to the fiery D 201
added to the venom D 200
added to the themes D 200
added to the glowing D 200
added to the fecal D 200
added by the freaks D 200
added to the chalk D 199
adapt to the setting D 199
added to the spore D 198
added to the plays D 198
added to the blade D 198
added to the arrow D 198
adult on the scene D 196
added to the nasal D 196
added to the brake D 196
added to the bound D 196
added in the roman D 196
added to the rigor D 195
added to the pudding D 195
added to the curds D 192
added to the crest D 192
added to the cubic D 191
added to the ports D 190
added to the welsh D 189
added to the violet D 188
added to the sandy D 188
added to the goose D 188
added to the atoms D 188
adapt to the rigid D 188
added to the tumor D 187
added to the toxic D 186
added to the thirst D 186
added to the stamp D 186
adieu to my uncle D 185
added to the kinds D 184
added to the flute D 184
added to the crank D 184
added as he leaned D 184
adieu to the whole D 182
adept at the skill D 182
added to the rosin D 182
added to the ridge D 182
adapt on the basis D 182
adieu to the banks D 180
added to the stove D 180
added to the nerve D 180
added to the billing D 180
adagio of the fourth D 179
added to the sword D 177
added to the yolks D 176
added to the pagan D 176
added to the lunch D 176
added to the lever D 176
added to the chips D 176
added in the plate D 176
added in the steel D 174
added to the curry D 173
added to the brush D 173
added to the widow D 172
added to the stark D 172
added to the ratings D 172
added to the nodal D 172
added to the craft D 172
added to an inert D 172
added to the babel D 171
added to the weapon D 170
added to the truss D 170
added to the rites D 170
added to the modal D 170
added to the cadre D 170
added to the surge D 169
added to the shining D 169
admit of the serving D 168
adieu to my mother D 168
adieu to my father D 168
added to the shirt D 168
added to the loans D 168
added to the baron D 168
added to an iodide D 168
adapt to the kinds D 168
added to the medial D 166
added to the alpha D 166
added as an alloy D 166
added by the social D 165
admit to be sober D 164
added to the slime D 164
added to the rumor D 164
added to the relay D 164
added to the pools D 164
added to the humus D 164
added to the fence D 164
added to the coals D 164
added as he shook D 164
added to the china D 163
added up the bills D 162
added to the sheep D 162
added to the loyal D 162
added to the liter D 161
added to the psalm D 160
added to the mulch D 160
added to the lingering D 160
added at the rates D 160
added as an index D 159
added to the sweep D 158
added to the pivot D 158
added to the candy D 158
added to the split D 157
added to the slain D 157
added to the rooting D 157
added to the graft D 157
added to the waves D 156
added to the quasi D 156
added to the footing D 156
adapt to the whims D 156
added to the stale D 155
added to the scoring D 155
added to the flush D 155
added to the bonding D 155
added to the slice D 154
added to the screw D 154
added to the porch D 154
added to the petty D 154
added to the pasta D 154
added to the olive D 154
added to the float D 154
added to the dryer D 154
added to the motto D 152
added to the datum D 152
added to the clerk D 152
added to the ankle D 152
added in the editing D 151
added to the rifle D 150
added to the piers D 150
added to the medal D 150
added to the flange D 150
added to the crush D 150
added on the plate D 150
adorn at an epoch D 148
adept in the social D 148
added to the heater D 148
added to the roaring D 147
added to the synod D 146
added to the nausea D 146
added to the ardor D 146
added to the adobe D 146
added to the typed D 145
added to the aroma D 144
added to the algal D 144
admit as the basis D 142
added to the skins D 142
added to the funding D 142
added to it fresh D 142
added at the dough D 142
adult in the rural D 140
adieu to the shore D 140
added to the swarm D 140
added to the micro D 140
added to the forts D 140
added to the farming D 140
added to my savings D 140
added to the radar D 139
added to the grist D 139
admit it in court D 138
added to the genes D 138
added in my libel D 138
added to the cheek D 137
added to the facial D 136
adapt to the roles D 136
adapt to the myriad D 136
added to the renal D 135
added to the parking D 135
added to the merry D 135
added to the thawed D 134
added to the pouch D 134
added to the rebel D 133
adieu to the sound D 132
added to the xylem D 132
added to the sewer D 132
added to the ducal D 132
added to my score D 132
added to the zenith D 131
adult at sea level D 130
added to the souls D 130
added to the remit D 130
added to the headings D 130
added in the melting D 130
adder in the grass D 128
added to the trays D 128
added to the linen D 128
added to the farce D 128
added to the coach D 128
added to the whiting D 127
added to the torso D 127
added to the excel D 127
adieu to the party D 126
added to the wines D 126
added to the tracing D 126
added to the odors D 126
added in the rural D 126
admit the sea water D 124
admit of the boats D 124
added to the steaming D 124
added to the norms D 124
added to the miasma D 124
adapt it to social D 124
adult in the setting D 123
added up to fewer D 122
added to the throne D 122
added to the siege D 122
added to the parks D 122
added to the matte D 122
added to the manly D 122
added to the arena D 122
added as the basis D 122
adult in the social D 121
adept in the skill D 121
adult in the tribe D 120
admit of no fancy D 120
added to the tempo D 120
added to the teapot D 120
added to the sober D 120
added to the finer D 120
added to the drums D 120
added to the cation D 120
adapt to the rural D 120
added to the fishing D 119
added in the trade D 119
added to the stake D 118
added to the sealed D 118
added to the rival D 118
added to the pedal D 118
added to the gloss D 118
added to the ensuing D 118
added to my uncle D 118
added to the shearing D 117
added to the nylon D 117
admit to the ranks D 116
added to the tonal D 116
added to the dozen D 116
added to an enema D 116
added in the attic D 116
adapt to the dutch D 115
added to the unreal D 114
added to the teeming D 114
added to the muddy D 114
added to the mince D 114
added to the milling D 114
added to the mayor D 114
added to the marsh D 114
added to the fringes D 114
added to the attic D 114
added on the score D 114
adapt to the skill D 114
added to the sailing D 113
adult in the region D 112
adobe or of stone D 112
admit to the social D 112
added to the vogue D 112
added to the roofs D 112
added to the roast D 112
added to the polling D 112
added to the parings D 112
adage of the roman D 112
added to the firms D 111
adore to be thrown D 110
added to the ghost D 110
added to the fuzzy D 110
added to the flows D 110
added at the boiling D 110
adapt to the drier D 110
adept at the trade D 109
added to the brewing D 109
added at the stern D 109
added to the throngs D 108
added to the genial D 108
added in the urban D 108
added in the header D 108
added in the index D 107
adieu to the worthy D 106
added to the stink D 106
added to the motif D 106
added to the leased D 106
adage of the olden D 106
added by the fancy D 105
admit of the tubes D 104
admit of the placing D 104
added to the lurid D 104
added to the heels D 104
added to the dirty D 104
added to the creep D 104
added in the flask D 104
adapt to sea water D 104
added to the staging D 103
adieu to the field D 102
added to the wedge D 102
added to the waist D 102
added to the toast D 102
added to the peanut D 102
added to the boats D 102
added to an epoxy D 102
added on the blank D 102
added to the tongue D 101
added to the thorax D 101
added as the oxide D 101
admit to the canon D 100
adieu to the white D 100
added to the twist D 100
added to the regal D 100
added to the poles D 100
added to the heaped D 100
adieu to the others D 99
added to the optic D 99
adopt as the motto D 98
added to the mills D 98
added to the milky D 98
added to the homey D 98
added to the fetus D 98
adieu to the snows D 96
added to the lobby D 96
added to the editing D 96
added as an inert D 96
admit of the setting D 95
added to the potion D 95
added in the telling D 95
adobe on the plaza D 94
admit of the sexes D 94
added to the violin D 94
added to the vault D 94
added to the throat D 94
added to the armor D 94
added in the creed D 94
added by the staff D 94
adapt to the horse D 94
adieu to the brave D 93
adieu to my vision D 93
adieu to la belle D 93
admit of the screw D 92
adder to the carry D 92
added to the wagon D 92
added to the tapes D 92
added to the jarring D 92
added to the depot D 92
added to the cuffs D 92
added to the brook D 92
added on the slide D 92
adapt to the jungle D 92
added to the sloop D 91
adult in the pupal D 90
adopt as the title D 90
added to the rider D 90
added to the mingled D 90
added to the melts D 90
added to the kitty D 90
added to the fingers D 90
added to the braking D 90
added to the bombing D 90
added to the blues D 90
added as it would D 90
adieu to the works D 89
added to the atlas D 89
adorn it in every D 88
admit of the banks D 88
added to the wrongs D 88
added to the tenths D 88
added to the pricing D 88
added to the hanger D 88
added to the gamut D 88
added to the discs D 88
added to the dimer D 88
added in the adder D 88
added at the waist D 88
adapt to the gloom D 88
added to the badge D 87
adieu to the state D 86
adieu to the bride D 86
added to the nabob D 86
added to the leaden D 86
added to the grating D 86
added to the gauze D 86
added to the blunt D 86
added to the barge D 86
added in the blast D 86
added by the singers D 86
adieu to the still D 85
added to the stiff D 84
added to the soapy D 84
added to the snuff D 84
added to the shire D 84
added to the pipes D 84
added to the pills D 84
added to the knife D 84
added to the cough D 84
added to the acres D 84
added at the flank D 84
added as the fruit D 84
added to the guild D 83
added to the mythic D 82
added as we drove D 82
adapt to the swift D 82
adage in the world D 82
adept in the odious D 80
added to thy grief D 80
added to the shops D 80
added to the scorn D 80
added to the savor D 80
added to the orbit D 80
added to the herbs D 80
added to my meager D 80
added to my flock D 80
added in the treaty D 80
adapt it to rural D 80
adieu to the chief D 75
adieu to the royal D 67
adieu to the loved D 66
adieu to the sweet D 64
added to the etching D 64
added to an organ D 64
added to the gable D 63
adieu to the smoky D 61
adieu to the quiet D 61
added to the galling D 61
added to the amide D 60
adieu to the queen D 59
adieu to the coast D 59
added to the opioid D 58
adieu to the noble D 57
added to the dipping D 57
adieu to the grand D 56
adagio of the eighth D 56
adieu to my aunts D 54
adieu to the crowd D 53
added to the seething D 53
added to the putty D 53
added as the metal D 53
added to the tuned D 52
added to the damping D 52
adieu to the reader D 51
added to the framing D 51
added to the mogul D 50
added to the stereo D 49
added by the steel D 49
adder on the right D 48
added to the mucus D 48
adieu to the mother D 47
added to the viewing D 47
added to the breach D 47
adieu to the weeping D 46
added to the serving D 46
added to the ranking D 46
added to the lemon D 46
added to the grazing D 46
added to an iodine D 46
added by the brush D 46
added up it would D 45
added to the snake D 45
added to the dancing D 45
adept in the trade D 44
added to the smoking D 44
adult in the novel D 43
adieu to the hunting D 43
adieu to the broad D 43
added to the moose D 43
added to the betel D 43
added in the washing D 43
adept in the sport D 42
added to the molar D 42
adapt to the nation D 42
adept in the wiles D 41
added to the bulging D 41
added in the boiling D 41
added by the dutch D 41
added to the stout D 40
added to the soaring D 40
