get anything out of M 70378
get money out of M 23956
get money for the M 10612
get people out of M 10569
get under way in M 10115
get bored with the M 7794
get stuck with the M 7033
get blood out of M 6485
get under way at M 6092
get right out of M 4956
get water for the M 4536
get bored with it M 4518
get tough with the M 3649
get water out of M 3641
get under way as M 3279
get mixed with the M 3210
get money for it M 3060
get blown out of M 3008
get every one of M 2858
get every bit of M 2830
get anything for it M 2530
get upset with me M 2312
get right with the M 2222
get people off the M 2214
get round this by M 2034
get where she is M 1993
get quite out of M 1979
get under way on M 1968
get women out of M 1843
get bored and go M 1706
get under way the M 1582
get under way to M 1564
get value out of M 1549
get older and the M 1536
get nearly all the M 1484
get really mad at M 1431
get worse with the M 1368
get which can be M 1330
get worse for the M 1242
get stuck with an M 1237
get anything for the M 1222
get worse and the M 1214
get under way by M 1202
get money for my M 1158
get upset with the M 1155
get bored with me M 1152
get stuck with it M 1137
get people out to M 1111
get really out of M 1032
get either one of M 1008
get longer and the M 986
get taken out of M 982
get lucky and the M 971
get anything but the M 968
get cross with me M 924
get wiped out by M 883
get sense out of M 860
get about with the M 854
get nearly all of M 848
get music out of M 844
get value for the M 800
get change for the M 788
get about that he M 774
get touch with the M 771
get money and to M 764
get calls all the M 756
get order out of M 748
get badly out of M 736
get lucky and be M 734
get tough with me M 724
get stuff out of M 690
get anything that is M 670
get worse all the M 640
get action out of M 628
gear could not be M 628
get anything off the M 622
get people who do M 619
get wiped out in M 617
get every one to M 614
get right off the M 612
get bored doing the M 603
get asked all the M 591
get lucky with the M 588
get alive out of M 588
get quite rid of M 586
get bored with my M 582
get books out of M 576
get money for an M 566
get people not to M 560
get anything for me M 560
get words out of M 557
get alone with the M 548
get blown off the M 546
gear which can be M 536
get power out of M 527
get stuck and do M 513
get under one of M 504
get which may be M 500
get lucky and he M 498
get round all the M 490
get rough with me M 488
get older and as M 486
get stuck for the M 476
get hired for the M 468
get books for the M 462
get about that the M 460
get water for my M 448
get anything fit to M 446
get white men to M 444
gear which may be M 443
get hanged for it M 440
gear train can be M 438
get beaten for it M 436
get money was to M 434
get older you do M 432
get moved out of M 425
gear train and the M 420
get under way so M 418
get rather than to M 416
get power for the M 414
get hungry and eat M 414
get about and do M 412
get glory out of M 394
get blown out to M 394
get worse than it M 392
get others out of M 390
get acted out in M 390
get about and to M 390
get money and the M 380
get taken out to M 378
get lucky and it M 374
get rough with the M 372
get people out on M 369
get mother out of M 362
get kicks out of M 362
get parts for it M 358
get within two or M 356
get older and we M 354
get within ten or M 348
get under way if M 348
get nasty with me M 348
get round this is M 346
get people off of M 342
get easily out of M 340
get money for us M 336
get water was to M 334
gear train may be M 333
get under way or M 332
get every man to M 332
get taken off the M 330
get right out on M 330
get poetry out of M 328
get stuck doing the M 322
get worse and it M 320
get hungry for the M 320
get within one or M 318
get worse and we M 316
get upset with us M 316
get lower than the M 314
get first all the M 313
get water and to M 312
get anything for my M 310
get rather out of M 304
get worse and he M 302
get quite near to M 302
get right out to M 301
get yours out of M 296
get worse due to M 296
get stuck and the M 296
get lodging for the M 296
get change for it M 296
gear shift and the M 294
get money for me M 290
get water and the M 288
get under way is M 288
get older they do M 288
get really mad if M 286
get stuck with me M 284
get round one of M 283
get parts for the M 282
get nearer than the M 282
get anything but an M 282
get about all the M 282
get worse than the M 280
get value for it M 278
get backing for the M 278
get worse for me M 276
get older and go M 274
get anything that he M 274
get found out in M 272
get bored out of M 267
get worse day by M 266
get stuck out in M 266
get water for us M 264
get tough and the M 262
get weaker and the M 260
get grass for the M 256
get light and the M 252
get every bit as M 250
get bored and the M 248
get under way it M 246
get stuck for an M 246
get upset with my M 244
get loose and do M 244
get under way we M 242
get people with the M 242
get people mad at M 242
get hungry and go M 242
get first out of M 241
get worse for us M 240
get stuff for the M 238
get sadly out of M 238
get clothing for the M 238
get bored with us M 238
get proof that the M 236
get every man in M 236
gear drive for the M 236
get right out in M 235
get money than to M 234
get change out of M 233
get asked out on M 233
get cross with the M 232
get space for the M 230
get quite all the M 230
get taken out by M 227
get lucky and do M 226
get asked out by M 226
get loose and the M 224
get close with the M 224
get round with me M 222
get nearer for the M 216
get lower and the M 216
get after him to M 214
get legal aid to M 212
get upset and do M 211
get bored and do M 210
get anything near the M 210
get anything going in M 209
get older and it M 208
get value for my M 206
get sound out of M 206
get about two or M 206
get which has the M 203
get right was the M 202
get eight out of M 202
get proof that he M 200
get older and my M 200
get proof that in M 198
get quite mad if M 196
get under way he M 193
get round them by M 192
get water for me M 190
get loose out of M 190
get loose and go M 190
get after him in M 190
get mixed with it M 188
get longer than the M 186
get rather than the M 184
get people out in M 184
get wiped out on M 182
get power and to M 182
get names for the M 182
get might not be M 179
get people off my M 176
get money that is M 174
get grant out of M 174
get anything that we M 174
get light out of M 173
get tough with us M 172
get money with the M 172
get fully out of M 172
get every day of M 170
get about ten or M 170
gear train with the M 169
get about how to M 168
get worse and be M 166
get older and do M 166
get either one or M 166
get stuck and be M 164
get method for the M 164
gear train for the M 164
gear shall not be M 164
get round her in M 162
get quite all of M 162
get money was the M 162
get money and be M 162
get blown out by M 162
get upset and go M 160
get stuck and we M 158
get light for the M 158
get maybe two or M 156
get lucky and we M 156
get upset and the M 154
get round that by M 154
get older that the M 154
get easier for the M 154
get easier for me M 154
get blown off by M 154
get where god is M 152
get since this is M 152
get anything off of M 152
get above all the M 152
get wiped out if M 150
get stuck out on M 150
get quite near the M 150
get maybe one or M 150
get water that is M 149
get goods for the M 148
get round him in M 147
get women off the M 146
get water for tea M 146
get right with it M 146
get naked and do M 146
get anything with the M 146
get after all the M 146
get worse year by M 144
get about six or M 144
gear rather than the M 144
get turns out to M 142
get theirs ere the M 142
get round with the M 142
get every day in M 142
get stuck with my M 140
get rough and the M 140
get father out of M 140
get facts out of M 140
get easier with the M 140
get blood for the M 140
get anything you do M 138
get anything for an M 138
get after you if M 138
gear drive and the M 138
get really hung up M 136
get naked with me M 136
get magic and the M 136
get nearly all my M 134
get bored with an M 134
get about now as M 133
get where you do M 132
get goods out of M 132
get drawn out of M 132
get dates with the M 132
get cover for the M 132
get beneath them to M 132
get beaten out of M 132
get asked out to M 132
get stuck and it M 130
get drawn off the M 130
get built and the M 130
get anything for us M 130
get water off the M 128
get tough and to M 128
get light and we M 128
get girls out of M 128
get close and to M 128
get about that we M 128
get solid with the M 126
get older and is M 126
get money but to M 126
gear spread out on M 126
get upset that the M 125
get wiped off the M 124
get taken out in M 124
get stuck doing it M 124
get round them in M 124
get round him to M 124
get every one in M 124
get either him or M 124
get under all the M 122
get ships out of M 122
get people for the M 122
get mixed and the M 122
get loose for the M 122
gear parts and on M 122
get wider and the M 120
get tight with the M 120
get round this in M 120
get older that we M 120
get hurry off in M 120
get close and the M 120
get showing that the M 118
get round him by M 118
get older and be M 118
get easier and the M 118
get blown out in M 118
get after you to M 118
get upset that he M 117
gear boxes for the M 117
get which are the M 116
get tough for the M 116
get threats all the M 116
get older due to M 116
get money and he M 116
get hungry for it M 116
get cross with my M 116
get chase out of M 116
get right and the M 115
get method and the M 115
get quiet and go M 114
get either men or M 114
get close and be M 114
get black men to M 114
get upset and it M 112
get right for the M 112
get really near to M 112
get about and the M 112
get under way an M 110
get round him if M 110
get every man of M 110
get bored doing it M 110
get below him on M 110
get above them in M 110
get water with the M 108
get seven out of M 108
get money off of M 108
get loose and be M 108
get either you or M 108
get either all the M 108
get aught out of M 108
get costs out of M 107
get after them in M 107
get where they do M 106
get today and be M 106
get taken out on M 106
get taken off to M 106
get stuck due to M 106
get right now is M 106
get really bad in M 106
get older and to M 106
get money off the M 106
get loose and he M 106
get gifts for the M 106
get wiped out at M 105
get tough with an M 104
get names out of M 104
get loose and to M 104
get loose and eat M 104
get every man he M 104
gear drive can be M 103
get worse and to M 102
get stuck all the M 102
get right wet in M 102
get about two to M 102
get bored and to M 101
get working with the M 100
get water and we M 100
get upset for no M 100
get stuff off the M 100
get strong for the M 100
get older than it M 100
get money was by M 100
get hungry and we M 100
get above him in M 100
get about doing it M 100
gear which was to M 100
get cross with us M 99
get spread out in M 98
get round this the M 98
get round that in M 98
get rough with us M 98
get right and to M 98
get older that it M 98
get money that he M 98
get heaven for us M 98
get grace out of M 98
get either one to M 98
get bored eating the M 98
get anything was to M 98
gear shift was in M 98
gear change and the M 98
get women out to M 96
get hands for the M 96
get found out by M 96
get dates for the M 96
get awful mad at M 96
get action was to M 96
get worms out of M 94
get stuck with no M 94
get round this we M 94
get others not to M 94
get money out to M 94
get lucky and go M 94
get easier for us M 94
gear train with an M 93
get working men to M 92
get right than the M 92
get money and go M 92
get anything going on M 92
get about with my M 92
get could not be M 91
get strong and the M 90
get round them if M 90
get rather than on M 90
get quite far in M 90
get every man on M 90
get naked and go M 89
get worse than he M 88
get taken for the M 88
get saved with the M 88
get hints that the M 88
get cleaning out the M 88
get bored and be M 88
gear shift was on M 88
gear broke and the M 88
get upset and we M 86
get nasty with the M 86
get mixed and of M 86
get labor for the M 86
get books for me M 86
get below him as M 86
get backing for an M 86
get within and to M 84
get under them or M 84
get truly out of M 84
get short with me M 84
get proof that an M 84
get light and to M 84
get hints for the M 84
get every kid in M 84
gear either with the M 84
get where all the M 82
get tough for me M 82
get stuck and to M 82
get stuck and go M 82
get round them to M 82
get lower with the M 82
get books and to M 82
get about and be M 82
get stuck with in M 81
get people going on M 81
get strong and be M 80
get proof that it M 80
get lucky one of M 80
get light and he M 80
get fixed for the M 80
get fixed and the M 54
get bored and so M 52
get longer with the M 50
get badly cut up M 48
gear which has the M 44
gear which was in M 42
get round them as M 41
gear which was the M 41
get thrown out of D 8741
get smart with me D 6674
get fresh with me D 2514
get drunk with the D 2244
get tired and go D 1946
get funds for the D 1919
get drunk and go D 1902
get thrown off the D 1374
get funding for the D 1248
get drunk and to D 1088
get drunk and be D 1002
get drunk and do D 926
get would not be D 909
get drunk for the D 812
get votes for the D 800
get thrown out on D 799
get tired for no D 780
get funny with me D 740
get drunk all the D 734
get fresh air in D 606
get drunk with me D 566
get drunk and the D 566
gel which can be D 539
get level with the D 520
get drunk and sing D 515
gear blank and the D 504
get strung out on D 492
get drunk out of D 492
gel phase and the D 472
get really fed up D 455
get tired and the D 454
get sassy with me D 446
get peter out of D 440
get drunk with it D 424
gear ratios can be D 416
get thrown out the D 415
get drunk and he D 400
gel layer and the D 391
get harry out of D 388
gear wheel and the D 383
get thrown out by D 380
get fired for it D 378
gear meshing with the D 378
get speed out of D 366
get visas for the D 364
get dirty and the D 363
get honey out of D 360
get japan out of D 358
get funds out of D 356
gear ratios for the D 356
get thrown out at D 350
get voted out of D 347
get thrown out in D 346
get mingled with the D 330
gear lever and the D 327
get huffy with me D 316
gel point and the D 300
get tired and do D 298
get drunk with us D 298
get tired and he D 292
gear shaft and the D 292
get frank out of D 288
get funding for it D 282
get stone for the D 278
get billy out of D 278
get thrown off by D 276
get drugs out of D 274
gear would not be D 274
get drunk with my D 272
get tired with the D 270
get testy with me D 256
get crazy and go D 256
gear housing and the D 256
get lunch for the D 244
gel point can be D 242
get thrown out or D 240
get fresh air to D 240
get bobby out of D 240
get sugar out of D 239
get jimmy out of D 238
get fancy with the D 238
get solving for the D 230
get loans for the D 230
get fresh with the D 230
gear ratios and the D 227
get thrown out if D 226
get swept out to D 225
get daddy out of D 224
get funding for an D 220
get souls out of D 212
get rooms for the D 206
get drunk and it D 206
get quite hot in D 202
get drunk and we D 198
get fresh air or D 196
get tired and we D 192
get tired and it D 190
get wages for the D 180
get drunk and eat D 180
get dizzy with the D 180
get voted off the D 178
get fired out of D 177
get smart with us D 174
gel layer can be D 174
gel phase can be D 171
get jenny out of D 170
gear would not go D 170
get sport out of D 168
get juice out of D 168
get tired lying on D 166
get sally out of D 166
get really hot in D 164
gel which may be D 164
get soaking wet in D 162
gel could not be D 162
get plumb out of D 160
gel shows that the D 160
get rather fed up D 158
get swept out of D 156
get fresh air on D 154
get grain for the D 152
gear ratios may be D 150
get rooms for us D 148
get sober and to D 146
get cocky with me D 146
get skill and the D 144
get tired out at D 142
get swept off my D 140
gel method for the D 139
get needs met in D 138
get fresh meat in D 138
get drunk and so D 138
gel state and the D 135
get straw for the D 134
get roger out of D 132
get funds for an D 132
get drunk than to D 132
get drugs off the D 132
get dirty with the D 132
gel slice can be D 132
get folks out of D 130
get fresh air at D 128
get drama out of D 126
get molly out of D 125
get smart with the D 124
get fired for the D 124
get fired all the D 124
gem which had the D 124
get terry out of D 122
get rusty with the D 120
get drunk and is D 120
get dirty and to D 120
get lunch for us D 118
get lippy with me D 118
get fresh air by D 118
get filed with the D 118
gear stick and the D 118
get china out of D 116
get fused with the D 114
get wives for the D 112
get tired doing it D 110
get singled out as D 110
get drunk but he D 110
gear blank can be D 109
get tired and my D 108
get sandy out of D 108
get swept off the D 106
get heather out of D 106
get drunk and in D 106
get dirty and do D 106
get coins for it D 106
get tired and to D 104
get talking with the D 104
get spots out of D 104
get crazy with the D 104
get anything hot to D 104
get thrown out as D 103
gel rather than the D 101
get lunch out of D 100
get bills out of D 100
get drunk but to D 98
get colds all the D 98
get paint out of D 97
get vexed with me D 94
get tired out by D 94
get smart and he D 94
get crews for the D 94
gear meshing with it D 94
gear lever was in D 94
get votes out of D 92
get tired and be D 92
get thither was the D 90
get lunch and to D 90
get drunk and if D 90
gear pumps can be D 90
get rolling with the D 88
gel rather than in D 87
get fresh put in D 86
gel would not be D 86
get tired out so D 85
get loans and to D 84
gear wheel may be D 84
get mouthy with me D 82
get drunk two or D 82
get robin out of D 80
get funds for it D 80
get drunk they do D 80
get dried out or D 80
gel method can be D 70
gel method and the D 58
get tired all the D 53
gel phase may be D 43
gear lever can be D 43
