get married now . M 3266
get started now . M 3122
get between them . M 2882
get checked out . M 2168
get started now ! M 1679
get married yet . M 1616
get himself out . M 1472
get married now ? M 1180
get started with . M 1158
get married too . M 1134
get married for ? M 1104
get started then . M 1086
get together then . M 996
get carried out . M 981
get married then . M 841
get everything out . M 803
get married then ? M 650
get herself out . M 614
get crowded out . M 556
get started now ? M 510
get anybody out . M 421
get himself going . M 278
get familiar with . M 270
get married with . M 268
get together now . M 258
get married now ! M 254
get married for . M 242
get himself off . M 242
get married too ? M 238
get everything going . M 236
get together then ? M 234
get certain things . M 234
get together with . M 224
get exactly that . M 214
get married yet ? M 212
get everything new . M 212
get started then ? M 176
get everything set . M 170
get checked out ? M 162
get stopped out . M 160
get outside them . M 160
get between you . M 158
get summers off . M 156
get dropped off . M 146
get married off . M 144
get herself off . M 142
get carried off . M 142
get nervous too . M 140
get herself going . M 132
get everything off . M 130
get everything wet . M 120
gear between them . M 120
get together too . M 115
get drowned out . M 115
get nervous now . M 112
get married too ! M 106
get written off . M 102
get started too . M 102
get printed out . M 98
get awfully mad . M 96
get started yet . M 94
get himself one . M 92
get together now ? M 90
get material things . M 90
get himself out ? M 88
get worried now . M 86
get awfully wet . M 80
