get a hearing . M 18294
get a life . M 12893
get a living . M 9934
get a copy . M 9490
get a break . M 9294
get a room . M 8014
get a life ! M 6517
get a date . M 5516
get a look . M 5114
get a book . M 4042
get a rest . M 3762
get a call . M 3670
get a lift . M 2982
get a pass . M 2864
get a cold . M 2824
get a clue . M 2784
get a beating . M 2664
get a view . M 2456
get a hold . M 2324
get a turn . M 2258
get a ship . M 2202
get a copy ? M 2176
get a reading . M 2124
get a breath . M 2098
get a name . M 1974
get a rise . M 1952
get a part . M 1942
get a baby . M 1928
get a girl . M 1648
get a break ? M 1526
get a room ? M 1500
get a kiss ? M 1462
get a treat . M 1322
get a coat . M 1314
get a third . M 1284
get a life ? M 1214
get a pair . M 1148
get a kiss . M 1104
get a living ? M 1094
get a fish . M 1060
get a home . M 1020
get a name ? M 1018
get a date ? M 984
get a line . M 962
get a rash . M 952
get a hearing ? M 892
get a tree . M 838
get a game . M 838
get a maid . M 836
get a drop . M 830
get a fall . M 818
get a room ! M 792
get a trial . M 760
get a clue ! M 729
get a theory . M 728
get a baby ? M 694
get a gift . M 674
get a zero . M 658
get a show . M 640
get a bearing . M 628
get a load . M 598
get a word . M 590
get a pass ? M 538
get a wash . M 518
get a cloth . M 510
get a week ? M 508
get a hiding . M 506
get a lift ? M 502
get a kick . M 498
get a mate . M 488
get a wrap . M 480
get a plan . M 480
get a fire . M 472
get a list . M 468
get a girl ? M 462
get a test . M 450
get a cure . M 450
get a ship ? M 446
get a leave . M 444
get a hint . M 442
get a turn ? M 432
get a book ? M 430
get a feel . M 428
get a cold ? M 422
get a hand . M 394
get a call ? M 394
get a part ? M 386
get a lock . M 376
get a look ? M 370
get a fine . M 368
get a bird . M 368
get a walk . M 364
get a break ! M 334
get a high . M 326
get a burn . M 320
get a clue ? M 306
get a blow . M 306
get a draw . M 304
get a mark . M 302
get a cake . M 302
get a case . M 298
get a file . M 288
get a kill . M 286
get a goal . M 286
get a sign . M 284
get a note . M 284
get a peace . M 274
get a rest ? M 270
get a rush . M 268
get a body . M 268
get a rating . M 264
get a post . M 264
get a video . M 256
get a stay . M 254
get a month ? M 254
get a trial ? M 252
get a date ! M 252
get a bone . M 250
get a feed . M 248
get a tree ? M 246
get a fare . M 246
get a site . M 244
get a tour . M 232
get a union . M 224
get a beating ! M 222
get a role . M 218
get a hint ? M 216
get a heart . M 214
get a single . M 212
get a half . M 210
get a month . M 206
get a week . M 202
get a game ? M 198
get a swim . M 194
get a living ! M 186
get a wind . M 184
get a reading ? M 182
get a pair ? M 180
get a beating ? M 178
get a wish . M 172
get a copy ! M 170
get a five . M 168
get a trim . M 164
get a tail . M 162
get a pain . M 162
get a form . M 162
get a deed . M 160
get a cast . M 158
get a text . M 154
get a move . M 152
get a worm ? M 150
get a play . M 150
get a jump . M 148
get a hall . M 148
get a band . M 142
get a hearing ! M 138
get a truth . M 136
get a rest ! M 134
get a push . M 134
get a coat ? M 134
get a fish ? M 130
get a maid ? M 128
get a gift ? M 120
get a range . M 116
get a meaning . M 116
get a tour ? M 114
get a turn ! M 112
get a baby ! M 112
get a worm . M 108
get a heart ? M 108
get a flag . M 108
get a four . M 106
get a fifth . M 106
get a mile . M 104
get a dream . M 104
get a cold ! M 102
get a city . M 102
get a line ? M 100
get a rule . M 98
get a treat ? M 96
get a third ? M 96
get a face . M 96
get a word ? M 94
get a will . M 94
get a video ? M 94
get a take . M 92
get a male . M 92
get a good . M 92
get a body ? M 92
get a trap . M 90
get a step . M 90
get a page . M 90
get a kiss ! M 90
get a fire ? M 90
get a rate . M 88
get a list ? M 88
get a pull . M 86
get a home ? M 86
get a well . M 84
get a trip . M 82
get a leave ? M 82
get a goal ? M 82
get i none ! M 80
