may i present my M 10110
may i presume to M 8937
may i request the M 5464
may i suggest to M 4749
may i present to M 3674
may i present the M 3062
may i suggest the M 2855
may i suggest we M 2524
may i inquire if M 2478
may i inquire as M 2243
may i inquire the M 1599
may i comment on M 1200
man a present of M 1150
man a creature of M 1021
may i suggest an M 948
may i request to M 937
man a citizen of M 928
may i request of M 914
may i inquire of M 893
man a quarter of M 892
may i receive the M 859
man a glimpse of M 754
man a stranger to M 736
man a subject of M 734
man a picture of M 691
man i believe to M 663
man a lecture on M 630
may i presume on M 625
may i address the M 615
may i confide in M 604
man a variety of M 596
may i respond to M 590
may i explain the M 537
may i inquire to M 534
may i propose to M 513
may i arrived at M 512
man a handful of M 508
may i explain to M 490
man i assumed to M 482
may i succeed in M 472
man a product of M 462
may i forgive in M 442
may i attempt to M 432
may i suggest in M 430
may i proceed to M 422
man a subject to M 420
may i confess to M 400
man a position of M 397
may i explain my M 393
may i examine it M 390
may i examine the M 383
may a witness be M 368
may i believe be M 364
man a mixture of M 362
man i married is M 348
may i suggest it M 309
man i guessed to M 304
may i request an M 298
man a stranger in M 298
man a position in M 289
may i correct the M 286
man a question or M 286
man a partner in M 283
man i chanced to M 280
map a variety of M 278
may i believe my M 263
may a variety of M 260
man a thousand or M 248
may i restore the M 236
man i believe is M 234
may i suppose be M 230
man a freedom of M 229
may a patient be M 221
man a history of M 220
man i planned to M 214
man i noticed in M 210
man a question of M 202
may a citizen of M 200
may i prepare the M 198
man a position as M 198
man i admired so M 194
man i believe in M 192
man a disgust of M 192
man i brought in M 189
may i confess it M 188
may a rainbow be M 187
man i alluded to M 184
may i explain it M 178
man a function of M 177
may a company of M 174
man a witness of M 174
man i brought to M 172
man a success in M 172
may i request my M 171
may i receive it M 168
man i decided to M 166
man a fortune in M 166
may i triumph so M 165
man a soldier in M 164
may i clarify the M 162
man a package of M 162
man a species of M 161
may i suggest as M 160
may i inquire on M 158
may a company be M 158
man a service by M 158
man a maximum of M 153
man i belonged to M 150
may a council of M 149
may i decided to M 146
may a citizen be M 146
may i crossed the M 144
may i prosper as M 143
man a promise of M 143
may i preface my M 142
man i suppose he M 142
man i desired to M 140
mad i started to M 140
man i believe he M 139
man a captain in M 134
man i propose to M 133
may i presume at M 132
man a convert to M 130
may i believe it M 128
man a relation of M 128
may i present an M 126
may i improve the M 126
man i account to M 126
man a mystery to M 126
may i receive no M 122
map a picture of M 121
man a fraction of M 121
may i question the M 120
may i believe in M 120
map a network of M 120
man i believe it M 120
may a student be M 118
man i married in M 116
may i present it M 114
may i dismiss my M 114
man a message of M 112
may a stranger to M 110
man i visited in M 108
man i married to M 106
man a pattern of M 105
may i inherit it M 104
may i deserve to M 104
may i brought up M 104
man a quality of M 102
map a program of M 101
may a mixture of M 100
man i started to M 100
man i pretend to M 100
may a summons to M 99
may i perhaps be M 98
may a decision be M 98
man s ability to M 98
man a minimum of M 97
may i achieve the M 96
may a scholar be M 96
may a product of M 96
may i perform the M 94
may i increase in M 94
man a message to M 94
man a creature to M 93
may i welcome the M 92
may i support the M 92
may i propose the M 92
may i confide my M 92
may a division of M 92
may i prosper in M 90
may i improve in M 90
man s relation to M 90
man i correct it M 90
may i delight in M 88
may i consult my M 88
may a solution of M 88
man a student of M 88
may i improve my M 86
may i deserve it M 86
man i declare to M 86
man i claimed to M 84
man a hundred or M 84
may i believe the M 81
may i suggest my M 80
man i respect so M 80
man i dislike so M 80
may i visited the M 59
man a liberty of M 52
man a freedom to M 48
may a congress of M 47
map a program to M 47
may i arrived in M 44
man a machine is M 43
man i counted on M 41
man a concept of M 40
may i venture to D 24740
may i express my D 5042
may i express the D 3414
may i express to D 1091
man a faculty of D 712
may a pitfall be D 588
may i commend to D 460
may i rejoice in D 440
may i forfeit the D 300
may i indulge the D 296
man a license to D 293
man a traitor to D 292
may i venture on D 279
may i venture the D 274
may i solicit the D 272
man a cistern in D 240
may a violation of D 231
may i indulge in D 218
man a servant of D 212
may a license be D 193
man a battery of D 182
map a texture to D 169
may i sharpen my D 160
man a funeral is D 158
may i torture my D 150
may i venture at D 140
man a faculty to D 128
may i partake of D 124
man a musician is D 122
may i venture an D 100
may i cherish the D 100
man a mouthful of D 100
man a denizen of D 100
may i commend the D 92
man a modicum of D 85
may i inspect the D 80
may i digress to D 80
man a fistful of D 80
