fry in hot oil D 5764
fry in hot fat D 2543
fro of them that D 796
fry in its own D 368
fro in his bed D 360
fry in his own D 315
fro in his own D 311
fry of his own D 284
fry an egg and D 269
fro in this way D 259
fro in and out D 234
fro on his bed D 228
fro of men and D 212
fro we leap and D 208
fry an egg for D 207
fro in mid air D 202
fry the meat and D 197
fro in one and D 196
fro in her seat D 181
fro in one end D 180
fro as she sat D 180
fro on his beat D 170
fry the meat for D 151
fro in his seat D 146
fry if they can D 142
fry the fat out D 126
fro in her head D 122
fry in oil and D 121
fry it for you D 120
fry on low heat D 111
fro to and fro D 110
fro in her own D 104
fro by our own D 100
fro in his head D 97
fro in her bed D 96
fry of its own D 92
fro in its own D 90
fro on her bed D 88
fro to see her D 84
fry in oil for D 63
fry the ham and D 43
