from what i am M 25346
from whom i am M 10798
from what i do M 8662
from time t to M 5509
from part i of M 5280
from book i of M 3854
from city a to M 3528
from such a thing M 3106
from type i to M 3068
from part a to M 2926
from town a to M 2010
from type a to M 1614
from there i go M 1348
from part i to M 1320
from whom i do M 1298
from city i to M 1282
from site a to M 1258
from part a of M 1202
from here i go M 1174
from host a to M 1106
from such a king M 1090
from site i to M 1084
from line a to M 932
free when i am M 903
from seeing a thing M 902
from those i am M 864
from here i am M 852
from time i to M 826
from port a to M 818
from list a or M 715
from there i am M 698
from cell a to M 672
from these i am M 660
from bank a to M 646
from pure a to M 634
from time a to M 622
from such a foe M 614
from here i do M 604
from unit i to M 586
from side a to M 578
from type i in M 566
from form i to M 565
from there i do M 554
from user a to M 550
from cell i to M 526
from book i to M 512
from what i at M 502
from form a to M 498
from having a go M 469
from home i am M 448
from case a to M 442
from having a king M 440
from step a to M 412
from test i to M 404
from plan a to M 402
from when i am M 396
from page a to M 392
from whom a thing M 366
from case i to M 366
from mode i to M 360
from what i or M 334
from part i is M 324
from what a thing M 316
from body a to M 282
from whom i so M 264
from part a in M 257
from part i in M 255
from type i or M 254
from room a to M 240
from saying a thing M 230
from list a to M 228
from port i to M 220
from type a in M 213
free time i do M 212
from time t on M 199
from bank a on M 198
from time s to M 196
from date t to M 192
from your i am M 190
from page i to M 190
from type i by M 188
from page i of M 182
from bank a in M 180
from form a of M 175
free will i am M 175
from side i to M 174
free when i do M 165
from such a ring M 162
from part i or M 160
from those i do M 152
from town i to M 144
from time t is M 140
from half a tea M 138
from unit a to M 134
from home i do M 132
from work i am M 130
from those i so M 125
from many a woe M 125
from type a or M 124
from what i eat M 120
from line i to M 118
from what i so M 116
from book i in M 116
from what i in M 112
free time t is M 112
from post a to M 110
from part i as M 110
from mode a to M 110
from mark i to M 110
from part i the M 106
from part a is M 106
from book i is M 106
from work i do M 104
free when i go M 102
from whom a king M 100
from saying i am M 100
from when i do M 98
from these i do M 96
from step i to M 96
from part i on M 96
from making a go M 96
from whom i in M 94
from port a or M 94
from base a to M 94
from making a thing M 88
from high d to M 86
from site a is M 84
from taking a thing M 82
from mine i am M 82
free gift i am M 80
from tomb a at M 57
from case i in M 49
free will i do M 46
from node i to D 11013
from node a to D 6184
from zone i to D 3437
from node s to D 1878
from isle a la D 675
from zone a to D 564
from camp i to D 524
from tank a to D 512
from task a to D 474
from node d to D 394
from node t to D 358
from pole a to D 356
from atom a to D 318
from such a sea D 296
from such a re D 283
from firm a to D 274
from node i is D 228
from atom i to D 186
from such a ms D 183
from node i in D 154
from iron i to D 154
fret when i am D 154
from fort a la D 152
from wave i of D 148
from tube a to D 130
from nothing a sea D 120
from pier a to D 100
from amid a sea D 86
from node a is D 52
