friend and enemy . M 6524
friend was right . M 5974
friend and father . M 4566
freely and easily . M 4194
freely and fully . M 4070
friend and guide . M 3993
freely with others . M 2132
friend and leader . M 2034
friend and equal . M 1479
friend and guest . M 1412
friend and pupil . M 1384
freely and often . M 1148
freely than others . M 1142
friend any longer . M 900
friend nor enemy . M 872
freely than usual . M 864
friend that night . M 802
friend and tutor . M 660
friend this morning . M 618
friend and yours . M 578
friend was thinking . M 532
friend and agent . M 532
friend was waiting . M 526
friend was alive . M 492
freely with water . M 486
friend was missing . M 448
friend and mother . M 446
friend that evening . M 412
friend who cares . M 400
friend this evening . M 396
frames are shown . M 352
friend all right ? M 344
fright and panic . M 334
friend than enemy . M 300
friend had asked . M 296
friend was sitting . M 292
friend this morning ? M 290
friend for money . M 284
friend and model . M 282
freely with people . M 274
frames and rules . M 274
fright and shame . M 271
friend had taken . M 262
fright and grief . M 245
friend was feeling . M 244
fright this morning . M 240
frames and boxes . M 226
friend was saved . M 222
friend that morning . M 218
friend all right . M 216
framed his reply . M 214
fright and hunger . M 211
friend was speaking . M 210
fright and hurry . M 206
freely and truly . M 204
fright and alarm . M 200
freely with women . M 200
friend than yours . M 196
freely and fully ? M 190
friend was staying . M 184
frauds and cheats . M 184
friend was working . M 182
friend and father ! M 182
frames and walls . M 182
freely for others . M 178
friend and healer . M 176
friend one evening . M 172
friend you trust . M 170
fright and agony . M 166
friend was black . M 160
friend and others . M 160
freely and easily ? M 160
friend for months . M 158
friend was seated . M 156
fright and worry . M 154
friend was upset . M 154
friend and nurse . M 146
friend had lived . M 142
friend with child . M 140
freely this morning . M 140
friend one night . M 139
friend was smiling . M 138
friend his father . M 138
friend this evening ? M 136
friend and slave . M 136
friend who cared . M 134
freely and aloud . M 134
friend was found . M 132
friend was alone . M 130
frames are missing . M 128
friend had stood . M 124
friend all round . M 124
frames are added . M 124
freely and alone . M 120
frames for action . M 120
friend this night . M 116
freely that night . M 114
friend was white . M 112
friend all night . M 112
freely with either . M 112
friend and enemy ? M 110
fright our party . M 108
friend can offer . M 108
friend and reader . M 108
framed with trees . M 108
friend and child . M 104
fright she looks ! M 102
friend was happy . M 102
friend she loved . M 102
friend was calling . M 100
freely than water . M 100
frames are empty . M 100
frames and cases . M 100
framed his words . M 100
friend one morning . M 98
friend has asked . M 98
friend had drawn . M 98
frames are given . M 96
friend with others . M 94
friend was taken . M 92
friend had found . M 92
friend with money . M 90
freely all night . M 88
frames are black . M 88
friend was hurting . M 84
frames and parts . M 84
fright this morning ? M 82
friend was nearby . M 82
friend was awake . M 82
friend had grown . M 82
friend had begun . M 82
frauds and fools . M 82
friend and theirs . M 80
freely with acids . M 80
fright that night . M 43
