duty of a king M 8240
duty if i do M 7164
duty as a king M 1874
duty is a thing M 1285
dull as i am M 541
duty of a to M 358
duty on a to M 270
duty as i am M 246
duty to a king M 236
duty to a to M 214
duty if i am M 210
duty as a thing M 166
during the s or M 136
duty as i do M 122
duty or a king M 120
duty in a thing M 100
dumb as i am D 672
dull as a hoe D 450
duke or a king D 430
dust as i am D 416
duty of a sea D 186
duck of a thing D 132
dumb if i do D 100
