during most of the M 459774
during much of the M 185236
during part of the M 126013
during some of the M 51716
duty owed to the M 19778
duty will be to M 17140
dull pain in the M 15643
during many of the M 11814
duty owed by the M 11345
during most of my M 10804
during work on the M 5836
during half of the M 5068
dull page in the M 4584
during life in the M 3862
during life by the M 3756
during life or at M 3730
during three of the M 3696
dull time of it M 3438
duty must be to M 3106
duty were to be M 2827
during some of my M 2750
during four of the M 2728
dull side of the M 2648
during much of my M 2486
during work in the M 2436
duty lies in the M 2390
during part of my M 2160
dull page in it M 2160
during life it is M 2040
duty when it is M 1968
duty must be the M 1924
dull gray of the M 1858
duty only on the M 1713
dull pain in my M 1662
duty fell to the M 1638
during five of the M 1614
during most of it M 1598
during life of the M 1534
duty cast on the M 1506
duty laid on the M 1470
duty will be the M 1442
dull life of the M 1400
dull duty of an M 1386
dull eyes of the M 1360
duty most of the M 1353
during spring in the M 1344
duty there is no M 1299
during life or by M 1270
during trial if the M 1268
duty here is to M 1256
duty owed by an M 1208
duty even in the M 1157
during rest of the M 1152
during life to the M 1084
dull grey of the M 1082
dull part of the M 1070
duty ratio of the M 1034
during mass in the M 1008
dull pain at the M 970
during part of it M 960
during healing of the M 948
duty early in the M 927
during mixing of the M 916
during life to be M 914
during many of my M 906
duty owed to an M 822
duty free to the M 814
during mass at the M 800
duty prior to the M 793
dull pain of the M 790
dull edge of the M 788
duty fell on the M 786
duty only to the M 776
duty even if it M 766
duty upon us to M 764
duty came to be M 762
duty when he is M 755
dull life in the M 746
during those of the M 744
duty will be in M 720
during life on the M 708
duty even at the M 706
dull echo of the M 696
duty free or at M 681
during much of it M 674
dull blue of the M 672
during meals in the M 664
duty only if it M 656
duty free in the M 656
duty came to an M 646
duty even to the M 634
during wars of the M 626
dull time of the M 626
duty only in the M 603
duty even if the M 584
during mass on the M 582
dull when it is M 572
dull line in it M 560
during birth or in M 550
dull must be the M 541
during work at the M 534
during reading of the M 532
during years of the M 530
duty such as the M 523
during none of the M 522
dull eyes at the M 510
dull town to me M 508
dull days of the M 504
duty time in the M 502
duty leads me to M 496
duty also of the M 488
duty here in the M 482
duty only if the M 480
during nine of the M 474
dull most of the M 468
during wars in the M 458
duty done in the M 453
dull pain on the M 452
duty laid by the M 450
during rest in the M 446
dull line in the M 444
dull mind of the M 442
dull gray in the M 442
duty adds to the M 440
during flow of the M 438
duty were in the M 434
dull life of it M 430
dull hour in the M 430
duty were we to M 426
duty used to be M 426
duty part of the M 418
during ageing of the M 416
dull face of the M 412
dull some of the M 410
duty fell to me M 408
during years in the M 398
during time of the M 398
during life is to M 398
duty have to be M 392
dull look of the M 390
duty were he to M 388
dull days in the M 388
duty there at the M 384
dull when he is M 384
duty only to be M 382
duty lies on the M 382
duty done by the M 380
dull beating of the M 380
during life or in M 376
duty upon it to M 374
duty here at the M 370
duty came to the M 366
duty down to the M 362
during life is the M 358
during part of an M 356
duty laid on me M 350
during life as the M 350
duty laid on us M 346
duty there in the M 343
duty must be in M 340
duty free up to M 339
during life or on M 338
duty call on the M 337
during play in the M 334
dull mass of the M 334
duty went to the M 332
duty just as the M 323
duty done to the M 320
during trial of the M 320
dull work to be M 320
duty over to the M 319
during life at the M 312
during days of the M 312
during part or the M 310
during gaps in the M 310
dull wits of the M 302
during cure of the M 298
dull note of the M 290
duty made by the M 288
duty lies at the M 286
during more of the M 284
duty only by the M 280
dull work in the M 278
duty there is to M 276
duty even if he M 276
duty ever to be M 272
during flow in the M 268
during trial by or M 264
during play of the M 264
during life if the M 264
duty upon me to M 260
duty leads to the M 260
during life as to M 260
dull time in the M 260
during peace in the M 258
dull eyes on the M 258
duty back in the M 256
dull work of the M 256
duty only at the M 255
dull tread of the M 254
duty here is the M 252
during care of the M 252
duty much of the M 247
during birth if the M 242
dull moan of the M 238
duty will be as M 236
during birth or by M 236
during birth of the M 236
dull eyes to the M 236
duty only of the M 232
duty cast on it M 232
during life is in M 232
duty well in the M 230
duty left to the M 230
during mixing in the M 230
during life by an M 230
duty only if he M 226
duty even of the M 226
duty seem to me M 222
duty free by the M 222
during life or the M 222
dull fall of the M 222
dull here in the M 220
during mating in the M 218
duty also to the M 214
duty when we do M 212
duty mark of the M 210
duty call at the M 210
duty runs to the M 208
duty room of the M 206
duty rate on the M 206
during time at is M 206
during such of the M 204
dull even to the M 204
during meals at the M 202
dull upon me in M 202
duty when in the M 198
duty owed by it M 198
during trial or in M 198
duty here to do M 196
duty cast by the M 196
duty seem to be M 195
duty will be at M 194
during most of an M 192
dull care to the M 192
duty late in the M 190
during what is the M 190
during spring of the M 190
dull cold in the M 190
duty free at the M 189
duty when he or M 188
dull beats of the M 188
during trial by the M 186
duty owed to it M 184
duty free on the M 184
duty also in the M 184
duty laid on it M 182
dull life on the M 180
duty will be an M 178
duty fell to my M 178
duty west of the M 176
duty south of the M 176
during fall in the M 176
during trial on the M 174
during term of the M 174
during meals or in M 174
during earning to the M 174
dull ones in the M 174
dull blue in the M 174
duty north of the M 172
duty must be of M 172
duty down at the M 172
dull fire in the M 172
dull even in the M 172
duty will be of M 168
duty some of the M 168
duty said to be M 168
duty time at the M 167
duty also to be M 166
dull life at the M 164
duty were it to M 162
dull note in the M 162
duty back to the M 161
duty upon tea is M 160
duty just as if M 160
dull years of the M 160
duty will be on M 158
duty there is an M 158
during work on an M 158
during life is an M 158
dull time at the M 158
duty such as is M 157
duty told me to M 156
during trial or on M 156
during time in the M 156
during life is of M 156
dull reading to the M 156
dull city in the M 156
duty down in the M 155
duty here on the M 154
duty held by the M 154
duty having to be M 154
during trial to the M 154
during birth as the M 154
dull gray on the M 154
dull gray as the M 154
duty need to be M 153
duty rule is to M 152
duty over to my M 152
duty came to me M 152
dull view of the M 152
dull grey in the M 152
duty came up to M 150
during peace of the M 148
during life as an M 148
during ageing in the M 148
duty done is the M 146
dull days on the M 146
duty time of the M 144
dull years in the M 144
dull echo in the M 142
dull must he be M 141
during stay in the M 140
during birth by the M 140
duty upon it as M 138
duty once to be M 138
duty also to my M 138
during life of an M 138
dull days at the M 138
dull areas of the M 138
during meals or at M 136
during reading is to M 134
during birth or the M 134
duty went up to M 132
duty well to the M 132
duty next to the M 132
during work he is M 132
dull ones of the M 132
dull next to the M 132
duty well by the M 130
duty lies to the M 130
duty came in to M 130
during what is in M 130
dull side is the M 130
dull eyes in the M 130
duty must be so M 128
duty also is to M 128
during term in the M 128
during rise of the M 128
duty were of the M 126
duty there to the M 126
duty such as to M 126
duty owed in the M 126
duty came in the M 126
duty back at the M 126
during spring at the M 126
during reading is the M 126
during laying of the M 126
duty must be at M 124
duty leads us to M 124
during years on the M 124
during trial in the M 124
during making of the M 124
during life or to M 124
during birth or as M 124
dull pain in it M 124
dull look in the M 124
dull blow on the M 124
duty post in the M 123
duty must be an M 122
during youth is the M 122
during work or in M 122
during work on my M 122
dull eyes on me M 122
duty side of the M 120
duty fell on me M 120
during rest is the M 120
during play or in M 120
dull life of an M 120
duty will in no M 118
duty same as we M 118
duty also on the M 118
during work of the M 118
during wars or in M 118
during part of or M 118
during life as in M 118
duty work in the M 116
duty lies on us M 116
duty fell to be M 116
during rain it is M 116
during life in my M 116
dull town on the M 116
duty tour in the M 114
duty such as we M 114
duty just as it M 114
during youth in the M 112
duty only if we M 108
duty must be my M 108
during work or at M 108
during peace to the M 108
during healing of an M 108
during birth in the M 108
duty leading to the M 106
duty felt by the M 106
duty even as he M 106
during spring on the M 106
dull side to the M 106
dull line of the M 106
duty will be so M 104
duty upon or the M 104
duty even if we M 104
duty came to my M 104
during runs of the M 104
during mating of the M 104
during hearing of the M 104
during birth or at M 104
dull there in the M 104
duty were on the M 103
during those on the M 102
dull work on the M 102
dull wash of the M 102
dull copy of the M 102
duty much to the M 100
during pain in the M 100
dull heart of the M 100
duty upon it of M 98
duty rate in the M 98
during life he is M 98
dull grey on the M 98
dull eyes as he M 98
duty only in so M 96
during play on the M 96
during peace by the M 96
during dips in the M 96
dull work at the M 96
dull eyes to me M 96
dull days or in M 96
dull areas in the M 96
duty were at the M 94
duty only as the M 94
duty left in the M 94
during test in the M 94
during birth is the M 94
dull toll of the M 94
dull gray by the M 94
dull blow of the M 94
during years of no M 93
duty will in the M 92
during trial is to M 92
during taking of the M 92
during play or on M 92
dull sort of thing M 92
dull room of the M 92
during work to the M 90
during ages in the M 90
dull there as it M 90
duty many of the M 89
duty well if he M 88
duty till it is M 88
duty there is the M 88
dull reading in the M 88
dull pain at my M 88
duty were to the M 86
duty left to me M 86
duty have to do M 86
duty cease to be M 86
duty bids me to M 86
during rest or in M 86
dull peace of the M 86
dull pain of an M 86
dull look to the M 86
dull girl in so M 86
duty here to the M 84
duty even as the M 84
during reading in the M 84
during meals on the M 84
during ageing is the M 84
dull form of the M 84
dull care to be M 84
duty done at the M 82
duty clear to do M 82
duty ahead of us M 82
during peace it is M 82
dull most of my M 82
dull eyes as the M 82
dull edge of it M 82
duty made on the M 80
duty just as he M 80
duty here to be M 80
during loss of the M 80
during life or of M 80
during coding of the M 80
during birth to the M 80
dull here by the M 80
dull blow to the M 80
duty free if the M 63
duty time on the M 59
duty life of the M 50
duty room at the M 49
duty will be no M 43
duty rating of the M 43
duty tour of the M 42
duty just at the M 40
duty free or on M 40
dual role of the D 16805
dual role in the D 9844
dull ache in the D 7897
dull roar of the D 7850
dust bowl of the D 7596
duly made by the D 5234
dues paid by the D 4553
duct leading to the D 4264
dull glow of the D 3948
duly paid by the D 3836
duty paid on the D 3830
dual meaning of the D 3778
dues paid to the D 3608
dues were to be D 3464
dust bowl in the D 3446
duly made to the D 3386
dull cold ear of D 3346
duly sent to the D 3216
during heating of the D 3028
duly paid to the D 2880
dust rose in the D 2758
dust rising in the D 2455
dual form of the D 2430
dull boom of the D 2272
dull ache in my D 2182
dual role as the D 2168
duty paid by the D 2113
duke went to the D 2089
duly made in the D 2024
dull aching in the D 1969
dull gleam of the D 1948
dust hanging in the D 1925
duty paid to the D 1924
during drying of the D 1822
duke came to the D 1622
dust made by the D 1566
dusk fell on the D 1484
dues owed to the D 1456
duct tape on the D 1440
duke went on to D 1332
during lent in the D 1318
during heating in the D 1280
dual role as an D 1276
dull ache at the D 1190
dust burn to the D 1148
duly held on the D 1134
duke said to me D 1074
dust left by the D 1065
duct leads to the D 1040
dumb show of the D 1008
dual view of the D 960
duly went to the D 945
dull glow in the D 944
dust clinging to the D 923
dull thuds of the D 910
dust rose up in D 882
dull thump of the D 858
duck pond in the D 814
duke said to the D 802
dust clung to the D 797
dull gold of the D 782
duly made on the D 780
dust when it is D 774
dump some of the D 772
dust flying in the D 748
dust hangs in the D 734
during curing of the D 730
during firing of the D 726
duck down in the D 724
duct tape to the D 720
dull gold in the D 714
dues owed by the D 676
during heating up to D 674
during heating to the D 668
duke came up to D 660
dumb show in the D 648
dust rising on the D 624
dull ache of the D 624
duly held at the D 622
dust left in the D 616
duke died on the D 616
dull throb of the D 614
dust flew up in D 606
dull glow on the D 594
duct tape in the D 582
dual role of an D 580
duct lies in the D 578
dune areas of the D 576
dust high in the D 574
dull roar in the D 570
duke told me he D 562
dual theory of the D 562
duty paid in the D 558
duly held in the D 554
dues have to be D 546
dust bowl to the D 544
duly paid at the D 544
dusk side of the D 540
dust lost in the D 522
duty paid on it D 520
duke said as he D 510
dumb show to the D 506
dust lies on the D 500
dust fell on the D 500
duty paid at the D 498
dust will be the D 496
dust some of the D 496
dust rose to the D 494
duly came to the D 494
dust left on the D 493
duke went up to D 493
during diving in the D 492
dust rise in the D 488
dual part of the D 474
duly made at the D 468
dual threat to the D 468
dull roll of the D 466
dull tone of the D 458
duly made by or D 454
duck back to the D 446
dual task of the D 442
dust rose on the D 438
duck pond at the D 432
dumb show at the D 430
dual life of the D 430
during lent of the D 428
dust down to the D 426
dues only as the D 426
during lent at the D 420
dump site in the D 417
dust rose as the D 402
dumb life of the D 390
dust next to the D 388
duly made of the D 386
duly come on to D 382
duct lies to the D 382
dust used in the D 376
dusk came on the D 374
dust lies in the D 373
dust there is in D 372
dull thump on the D 372
dust rising to the D 370
dune sand in the D 370
dust made up of D 368
duly paid on the D 363
during drying in the D 362
duty took me to D 358
dust sent up by D 358
dull bulk of the D 358
duke look to it D 354
duke gave up the D 354
dust rose up to D 350
dust fell to the D 350
dust back to the D 348
dull aching of the D 348
duke sent to the D 348
dump into the sea D 345
dust bowl on the D 344
dual meaning in the D 344
duly laid on the D 342
dust mote in the D 341
duke back to the D 338
dust down on the D 336
during riots in the D 334
duck eggs in the D 330
dual theme of the D 330
duke died in the D 329
duke down to the D 328
dual aims of the D 328
dust baths in the D 326
duly took up the D 326
dull thuds on the D 326
during lent or on D 322
duck there is an D 322
dust fall on the D 320
dull spot in the D 320
dust blew in the D 319
dump most of the D 319
duke were in the D 319
duck down to the D 318
dust were to be D 316
duke were to be D 312
dust heaps of the D 308
dumb look on my D 308
duck pond on the D 308
duck back in the D 308
dumb girl of the D 304
duct lies on the D 304
dust thick on the D 303
dust shot up in D 300
dust even to the D 298
duct down to the D 297
dust flung up by D 296
dull gleam in the D 294
dust down in the D 293
dust load in the D 292
dues paid to an D 292
duly made by an D 290
dual role to the D 290
dust most of the D 288
dusk when it is D 288
dull hues of the D 288
dust load of the D 284
dull roar of an D 282
duke rode up to D 278
dues such as the D 274
dune sand on the D 273
dust clings to the D 270
dust came up in D 268
duly paid up to D 266
dues paid in by D 266
dune areas in the D 265
duck down on the D 264
dumb show on the D 260
duly went on to D 260
during thawing of the D 258
duly sued in the D 258
dues paid in the D 258
dual role on the D 254
dual reading of the D 250
duct ahead of the D 248
dust seem to be D 246
duly sent on to D 246
duke heard of the D 246
duct when it is D 246
duke from the king D 244
dual face of the D 244
duct runs to the D 243
dust over me as D 242
during firing in the D 242
dull clang of the D 240
dues paid up to D 238
duck lake in the D 236
dust were in the D 234
dues paid at the D 234
duke took up the D 232
dust into the sea D 230
during lent by the D 230
dumb fish in the D 230
dull thump as the D 228
dull gleam of an D 226
duct ends in the D 226
duct cyst is the D 225
duly sent by the D 224
duly done in the D 224
dull rays of the D 224
dust ahead of us D 223
duct tape of the D 223
dusk most of the D 222
duly paid in the D 221
dusk fell in the D 220
during mining of the D 220
dull boom in the D 218
dust cast up by D 216
duly sent up to D 216
dual role at the D 216
dust seen in the D 215
dump next to the D 214
dust heaps in the D 212
during seating of the D 212
duly kept in the D 210
duly felt by the D 210
dust fall to the D 207
dune sand of the D 206
dust coming up the D 204
during drying on the D 204
dust fall in the D 202
during days at sea D 202
dust back in the D 200
dusk came to the D 200
duly paid in as D 200
dull lamp in the D 200
duly awed by the D 198
duty laws of the D 196
dull roar as the D 196
dual goal of the D 196
dull gleam on the D 194
duke coming up on D 194
during heating in an D 192
dual rule of the D 192
dust flux to the D 188
duly came in the D 188
dual role is the D 188
duly done by the D 186
dull spot on the D 186
duke came to be D 186
dues went to the D 186
dust acts as an D 184
dull ache on the D 184
duke said on the D 184
dual meaning to the D 184
during peaks in the D 182
dumb show by the D 182
dull boom of an D 182
dump most of it D 180
dull buzz of the D 180
duck swam up to D 180
duck rising on the D 180
duct work in the D 179
duck hunt in the D 179
dust cake on the D 178
dust blew up in D 178
dull throb in my D 178
duel came to an D 178
duct leads to an D 178
dual role is to D 178
dust even in the D 176
during reaming of the D 176
during baking of the D 176
dumb wife in the D 176
duke were at the D 176
dues paid on the D 176
dusk just as the D 174
dump file in the D 173
dust boot in the D 172
dumb loving of the D 172
dust have to be D 171
dust flew in the D 170
dust away to the D 170
dull roar as of D 170
duty paid on an D 168
dust rise on the D 168
duke were on the D 168
duct runs in the D 168
dull gilt of the D 166
dust gets in the D 164
duly seen to the D 164
duly made by me D 164
duke gave it to D 164
duke came to me D 164
duct cyst in the D 163
duke told the king D 162
duck came to the D 162
dust must it eat D 160
during rearing on the D 160
dumb show if he D 160
dull thuds as the D 160
duke told me of D 160
dust moving in the D 158
dune sand at the D 158
dump file to be D 158
duly used in the D 158
dust ahead of the D 157
dust gets on the D 156
dust early in the D 156
during lent to the D 156
dump some of it D 156
dust ratio in the D 155
dull thuds in the D 154
duke will be in D 154
duke died of the D 154
dual threat of the D 154
dune areas on the D 153
duct work to the D 153
dust such as is D 152
dust haze in the D 152
dumb girl in the D 152
duly made to it D 152
duly laid by the D 152
dull throb in the D 152
duke came to my D 152
duct wall at the D 152
dust rising up in D 151
dust just as the D 151
duly paid to me D 150
duke made up the D 150
duct tape at the D 150
duct size in the D 149
dust mass in the D 148
dust load on the D 148
during voting on the D 148
duly made or thing D 148
duct back to the D 148
dual need of the D 148
dust thick in the D 147
duty mood of an D 146
dust mite is the D 146
duly sent it to D 146
duly heard by the D 146
duck were to be D 146
dust from the sea D 145
during heating at the D 144
dull throb at the D 144
dull ache to the D 144
duke come up in D 144
dust there is no D 143
duck eggs on the D 143
dust flew up as D 142
duly laid in the D 142
dull drab of the D 142
dual form in the D 142
duct prior to the D 141
dust lane in the D 140
dump these in the D 140
duly kept by the D 140
duke gave to the D 140
duff went on to D 140
dues paid in on D 140
dual sign of the D 140
duct tape is the D 139
during lent it is D 138
dull tint of the D 138
duke took me to D 138
dual meet of the D 138
dune belt of the D 137
dust went up in D 136
dust prior to the D 136
dust cloth in the D 136
dusk some of the D 136
during pacing of the D 136
dull heel of the D 136
dump left by the D 135
duly sold to the D 134
duct tape on it D 134
duck diving as the D 134
dust mite in the D 133
dumb idol in the D 132
duly sent in to D 132
duke told me the D 132
dude came up to D 132
during heating by the D 130
dumb most of the D 130
duly made if it D 130
duly held by the D 130
dull pink of the D 130
dull ache of an D 130
duck when it is D 130
dust veil in the D 128
during heating on the D 128
during heating is the D 128
dues only to the D 128
dust over it to D 126
dusk came on we D 126
during lent or at D 126
dump file to the D 126
duly went up to D 126
duke heard of it D 126
dues paid by an D 126
duel will be the D 126
dust shot to the D 124
dust fell in the D 124
duly sent if it D 124
duly rose to the D 124
dull thump of an D 124
dull glow of an D 124
duke john in the D 124
duck dive at the D 124
dual role as it D 124
dust rising as the D 122
dust cloth on the D 122
during lent on the D 122
dump part of the D 122
duke will be at D 122
duke told me to D 122
duty bears to the D 120
dump much of the D 120
dumb face of the D 120
duly sent to me D 120
dull gaze of the D 120
duct next to the D 120
duck pond to the D 120
duck lake on the D 120
duty laws in the D 119
dust rising at the D 119
duct leading to it D 119
duty tend to be D 118
during work at sea D 118
during rioting in the D 118
duel were to be D 118
dump heaps of the D 117
duct tape on my D 117
dull aching at the D 116
dull ache to an D 116
dues paid to it D 116
duck shot in the D 116
duck hanging in the D 116
during peaks of the D 114
during heating up of D 114
dump went up in D 114
dumb fish of the D 114
duly made up to D 114
duke says of the D 114
duke said in the D 114
duke john on the D 114
dual case of the D 114
duct wall in the D 113
duck down at the D 113
duty rose to an D 112
dust here in the D 112
dumb lips of the D 112
duly heard in the D 112
dull thump in the D 112
dull haze of the D 112
dude next to me D 112
dust haze of the D 111
duct work on the D 111
duct leading to an D 111
dust will be in D 110
dust spot on the D 110
dump site on the D 110
dumb show is the D 110
dumb form of the D 110
duly sent in the D 110
duke says it is D 110
duke says he is D 110
duct will be the D 110
duct ends at the D 110
duct cyst of the D 110
dual uses of the D 110
dual life in the D 110
duck some of the D 109
dust clinging to it D 108
during drying is the D 108
dumb play of the D 108
dumb move on my D 108
dual work of the D 108
dust there in the D 106
during baking in the D 106
dump site at the D 106
dull whir of the D 106
duck taking to the D 105
dust used to be D 104
dumb life on the D 104
dumb lady to be D 104
dumb down to the D 104
duly came to an D 104
dues over to the D 104
dual part in the D 104
dual name of the D 104
dust flux in the D 102
during heating of an D 102
dumb heart of the D 102
dull news of the D 102
duct just as it D 102
dual union in the D 102
dust part of the D 101
duck over to the D 101
dusk hand to the D 100
dune south of the D 100
duly paid in to D 100
dull gold on the D 100
duct ending in the D 100
dual side of the D 100
dust flying up in D 99
dune line to the D 99
dust south of the D 98
dust rose as he D 98
dust mote on the D 98
dust bowl or the D 98
dumb grin on my D 98
dumb dogs to be D 98
duel came to be D 98
duct there is no D 98
dual role to be D 98
dust such as the D 97
dump cars on the D 97
dust boot on the D 96
during taping of the D 96
dull silk of the D 96
duke rose up in D 96
dues were in the D 96
duct wall is at D 96
duck went to the D 96
duct tape in my D 95
dust used by the D 94
dust deep in the D 94
dumb luck to be D 94
dumb beast of the D 94
dull theme to the D 94
duke will go to D 94
duke when he is D 94
duct work of the D 94
dual task is to D 94
dual goal is to D 94
duct cyst at the D 93
dust will be of D 92
dust tail of the D 92
dust shed by the D 92
dust rose up on D 92
dust only to be D 92
dust from it is D 92
dust came in so D 92
during drying by the D 92
dump site to the D 92
duke will do me D 92
duke will be my D 92
duke took in the D 92
duct lies at the D 92
duck said to the D 92
dust leads to the D 90
dust from the tea D 90
dull glow to the D 90
dull ache of my D 90
duke used to be D 90
duke gave me the D 90
duke early in the D 90
duke came in the D 90
duct wall on the D 90
duck farm in the D 90
dual role in an D 90
dual mode of the D 90
dust rose up as D 89
dust adds to the D 88
dull film on the D 88
duke took it up D 88
duke rode to the D 88
dust over to the D 87
duck most of the D 87
dust laid by the D 86
dusk fall on the D 86
during firing by the D 86
dumb fury of the D 86
duke will be the D 86
duke says to the D 86
duct must be at D 86
dual role is an D 86
dust sown by the D 84
dust left in my D 84
dust clung to my D 84
dust blew in my D 84
dumb luck in the D 84
duly sold in the D 84
duly kept up the D 84
duly fall to the D 84
duke will be on D 84
dual task in the D 84
dust made in the D 83
duck left by the D 83
dust went up to D 82
dust swam in the D 82
dust clung to it D 82
during voting in the D 82
dumb beast in the D 82
duly tied up in D 82
dull tide as if D 82
dull boom as the D 82
duck sits on the D 82
dual role by the D 82
dust rising up to D 80
dust need to be D 80
dust down at the D 80
dusk back to the D 80
dumb sign to me D 80
dumb kids in the D 80
dull pink on the D 80
dual role of king D 80
dual form as the D 80
dump used to be D 63
dump west of the D 60
dump south of the D 59
duck down by the D 57
duck hunt on the D 50
dune belt in the D 49
dump back to the D 48
duck used in the D 48
dump cars of the D 45
dust over the sea D 44
dust from it as D 44
dust bins of the D 44
duct there is an D 44
dust high up in D 43
duct leading up to D 41
dust even as the D 40
dump north of the D 40
duct such as the D 40
duct open on the D 40
