judging by the way M 24699
judge of the dead M 19073
judge of the new M 11821
judge of the law M 8018
judge by the way M 7058
judge of the earth M 5085
judge of my own M 5022
jumping in the air M 5006
judge it by its M 4977
judge of the real M 4934
judging by my own M 4619
judge by my own M 4396
judge us by our M 3627
judge at the end M 3459
judge by the eye M 3025
judging by the eye M 2687
judge as to how M 2600
jumps in the air M 2596
judge to be for M 2451
judge in my own M 2446
junior of the two M 2356
judging by the few M 2346
judge it on its M 1969
judge of the one M 1827
judge by the few M 1823
judge of the things M 1794
judge in the new M 1741
judge of the old M 1738
judge of the age M 1675
judge or in any M 1609
judge as to its M 1542
judge of it for M 1512
judge of the man M 1460
jumps to the end M 1358
judging by the two M 1281
judge of an ill M 1265
judge as to his M 1222
judge if he had M 1210
judge as to who M 1200
judge me as you M 1165
judge on the day M 1160
judge of us all M 1156
judge if it was M 1136
judging by the sun M 1131
jumps to the top M 1129
judge of it with M 1112
judge if he has M 1073
judge on the new M 1065
judge of the way M 1050
judge of the two M 1012
judge to be his M 988
judge is the one M 970
judging of the real M 968
judging by the long M 948
jumps to the eye M 916
judge at the old M 911
judge of it than M 902
judge of the men M 900
judging by the age M 896
judge of the end M 877
judge as he was M 835
judge it is not M 822
junior at the bar M 798
judge if he was M 796
judging it by its M 794
jumping on or off M 789
judging by the low M 777
jumping up to get M 767
jumping up on her M 763
judge it at all M 728
jumping up in his M 727
judge of the use M 722
jumps to the new M 720
judging of the age M 714
judge by the two M 697
jumping to the end M 696
judge of the day M 684
jumping up on his M 665
judge in the eye M 653
jumps up on his M 627
judging by the new M 626
judging by the ease M 618
jumping up at him M 588
judge in the way M 588
judging by the one M 581
judge is the law M 574
judge by the long M 572
judging by the man M 568
jumping up to see M 565
judge to be bad M 555
judge as to that M 549
judge to be too M 540
judge of the then M 534
judging by the map M 525
judging by the old M 522
judge by the use M 521
judge if he did M 518
judge by the sun M 518
jumps up on you M 507
jumping on to his M 504
jumping up on him M 500
judge in the old M 499
judging by the use M 494
judge of it and M 494
judge at the head M 494
judge it by our M 491
jumping to the top M 486
judge us on our M 481
judge to be that M 476
judge or to act M 475
judge to be not M 474
judge is to hear M 473
judge of the heat M 468
judge by the one M 467
judge it in its M 452
judge in the end M 452
judge at the age M 450
judge to be one M 444
judge he is not M 442
judge is to see M 436
jumps on it and M 428
judge if we are M 426
judge of the poet M 422
judge us in due M 408
judging by the law M 406
judge of it who M 404
jumps in the way M 396
judge as to this M 396
judge by the old M 394
jumping up on you M 392
judge in the law M 391
judge in the east M 391
judge as he sat M 391
judge it by any M 374
judge me by that M 371
judge is an old M 369
judging it on its M 364
judge of my joy M 364
judge to do this M 363
judging by the things M 362
judge by the law M 357
judging of the things M 356
judge in the area M 353
jumping on me and M 350
judge me as they M 344
judge on the one M 341
judge of my long M 338
judge or by any M 337
judge to be our M 336
judge is on his M 336
judging as to its M 330
judging by the cut M 327
judge on the law M 326
jumps at the idea M 322
judging of it for M 320
judge it as you M 315
judge by the ease M 314
jumping at the idea M 313
judge it in this M 312
judge us by that M 311
jumping on it and M 310
jumping on it with M 307
jumps up to get M 306
junior to the one M 303
judge to the law M 302
judge if it does M 301
judging of my own M 300
judge of the act M 298
judge us by how M 296
judge of the year M 293
judge of the joy M 293
judge is to act M 291
judge in the one M 289
judging of the dead M 285
jumps at the end M 284
judge us by this M 279
judging of the two M 276
judge by the end M 272
judging by the men M 268
jumping to the new M 267
judging by the area M 267
judge to be its M 267
judge of the east M 267
judge me if you M 266
judge it by that M 266
judge it as being M 266
judge or in his M 264
judge by the age M 256
jumping up to his M 254
judge me in this M 252
judge by my eye M 251
jumps in the sun M 248
judge to be due M 248
judge of the pre M 248
jumps on me and M 246
jumping up in her M 246
judge is he who M 246
judge by the new M 245
judge of no mean M 244
judge it by his M 244
judge to do his M 243
jumping up to run M 240
jumping up at his M 240
judge it as they M 240
judge of the sum M 238
judge is in his M 237
junior to me and M 236
jumping up at her M 236
judge it by how M 234
judge is the man M 233
judge of me with M 232
judge to be fit M 231
judge is the head M 230
jumping on the top M 228
jumps up on her M 226
jumping on to her M 224
judge by the things M 220
judging of the law M 218
judge as to all M 218
jumps up as one M 216
judge in the day M 216
jumping up on them M 212
jumping on me for M 211
judging by the heat M 211
judge to be real M 210
judge by the map M 210
judging of it with M 208
judge of the head M 208
judge of by this M 208
jumps up at you M 207
judging is an act M 206
judge us on how M 206
judge me by them M 206
judge as the man M 206
jumping up on top M 205
judge as to why M 205
jumps up in his M 204
jumps on to his M 204
judge or by his M 204
judge by the air M 202
judge if it can M 201
jumping up on one M 200
judging by the big M 200
jumping at the end M 199
judge of the path M 199
judge to go easy M 197
jumping up to put M 196
judge as to any M 196
judge of the far M 195
judge it on that M 195
judge of it now M 194
judge it by this M 194
judge as he had M 194
judge is to sit M 193
judge as we are M 193
judge in the act M 192
judging of the man M 188
judge me by this M 188
judge by the low M 188
judging us by our M 186
judge to do that M 183
judge us in this M 182
judge of us and M 182
judge by the cut M 182
judging as to his M 180
judge of the bad M 180
judge the thing that M 179
jumping to the head M 178
judging by the set M 178
judge in so far M 178
judge if it has M 176
jumps in the two M 175
judge of the fit M 173
judge by the men M 173
judge if he does M 172
judge as it was M 172
judge is to try M 171
jumping to the beat M 170
judge if he can M 168
judging by the red M 166
judge me on that M 166
jumping on the seat M 165
judge or of any M 164
judge me at all M 163
judge as if they M 163
judge on my own M 162
judge of the seat M 162
judge it in any M 162
jumping on the box M 161
jumping up to her M 160
judge in the seat M 160
jumping up to try M 158
judge if it may M 158
judge in the year M 155
jumping up at them M 154
judging it in its M 152
judging as he did M 152
judge to be far M 152
judge to be both M 151
judge it at its M 150
judge is of all M 150
judge of the area M 149
jumps up to see M 148
judging it by our M 148
judging in the earth M 148
judge me in that M 148
judge of me and M 147
judge is to use M 146
judge to do with M 145
judge of the due M 145
judging by the head M 144
judge is in one M 142
judge as he may M 142
jumping on the new M 140
judge to be her M 140
judge me on how M 140
judge of no man M 139
judge at the bar M 139
judge in the earth M 137
judge as he does M 137
judge to the end M 136
judge to the bar M 132
judge by the gap M 132
jumps up to her M 131
junior of the old M 130
jumps of the eye M 130
judge to the sad M 130
judge of us with M 130
judge as we may M 130
judge to do but M 128
judge to be mad M 127
judge by the man M 127
judge of the kings M 126
judge of an act M 125
judge it as one M 125
judge is in any M 125
judge he or she M 123
jumping on my head M 122
judge it as bad M 122
judge is to ask M 121
judge as it does M 120
judge us on that M 119
judge of by his M 119
judge to be men M 118
judge is to say M 118
judge by the aid M 118
jumping in the way M 117
judge of it but M 117
jumps up at him M 116
jumping on the end M 116
judging or by using M 116
judging of the use M 116
judge in no way M 116
judge by the arm M 116
jumps at me and M 115
jumping on the web M 115
judging on the one M 115
junior at the age M 114
judge if we can M 114
judge as the one M 114
jumps to the head M 113
judge by the head M 112
judge at the day M 112
jumps in the real M 110
jumping on me with M 110
judge me by how M 110
judge by the red M 110
jumping on the man M 109
judge or to that M 109
judging as to how M 108
judge or to any M 108
judge as the law M 108
junior as he was M 107
judging of an act M 106
judging as he does M 106
judge it at this M 106
judge is the real M 106
judge in the sum M 106
judge if he sat M 106
judge if he may M 106
judge if it had M 105
judge at the new M 105
judge as if you M 105
jumping up to say M 104
judge or of his M 104
jumping at my own M 103
judge on the way M 103
judge is an act M 103
jumps up to his M 102
jumping up as she M 102
judging of the men M 102
judge or the law M 102
jumping to my death M 101
jumps up on them M 100
jumps up on its M 100
jumps up on him M 100
jumping in to try M 100
judge in the real M 100
judge by the dim M 100
judge us by them M 99
judge to be put M 99
junior in the law M 98
jumps up on top M 98
judging of it than M 98
judging in my own M 98
judge to the new M 98
judge of the set M 98
judge me in any M 98
judge in the sky M 98
jumps up in her M 97
jumping as if they M 97
jumping up he saw M 96
judge of as any M 95
judge is in this M 95
jumps of the day M 94
jumping as if she M 94
judging of the act M 94
judging in the way M 94
judging as he was M 94
judge to do her M 94
judge by the poem M 94
judge if the new M 93
judge if it goes M 93
jumps to the web M 92
jumping up to sit M 92
judging as it does M 92
judge us in meat M 92
judge the king and M 92
judge or to get M 92
judge me the way M 92
judge it by eye M 92
judge in the two M 92
judge at the pre M 92
judge if the use M 91
jumping up is not M 90
judge to do all M 90
judge it in that M 90
judge in the few M 89
jumps as is that M 88
jumping up in fear M 88
jumping as it did M 88
judging it by his M 88
judge the king for M 88
judge is by law M 88
judge in the mid M 88
judge by the poet M 88
jumps up to say M 87
jumps on the way M 86
judge of me for M 85
jumping up at you M 84
judging us in our M 84
judge us in death M 84
judge on the seat M 84
judge by the dead M 83
judging by the sky M 82
judge me at this M 82
judge by an old M 82
judge us by his M 81
judging by the weak M 80
jumps in to say M 74
judge of the sin M 73
judge of it all M 71
judge as to her M 71
judge as he did M 67
judge we do not M 59
jumps on the top M 58
jumps on me for M 55
jumps at it and M 54
judging by the mean M 54
judge to be two M 54
judge at the top M 54
junior to the man M 53
jumps to the far M 53
junior to me was M 52
jumps in the mean M 50
judge of the pro M 50
judge of by its M 49
judge as to our M 49
judge of the ease M 48
judge in the long M 48
judge in or out M 48
judge to be near M 46
judge to be any M 46
judge it so fit M 46
judge it by one M 46
judge in the pre M 46
judge as he has M 46
junior to the new M 45
junior to my own M 45
judge of the ill M 45
judge of the air M 44
judge is to put M 44
judge is to bring M 44
judge is the key M 44
judge of it not M 43
jumps up to run M 42
jumps to the idea M 42
judge to the man M 41
judge of the death M 41
judge if the two M 41
judge by the set M 41
jumps up to sit M 40
judge it as not M 40
judge if the man M 40
judge by the heat M 40
jumping on the bed D 8105
juice of the dog D 1950
juice of the meat D 1947
judge of the tax D 1784
judge of the art D 1577
juice of the earth D 1217
juice to the pan D 1086
jumps on the bed D 1052
juice of the aloe D 1052
jungle to the east D 984
juice of the fig D 964
juice in the pan D 940
jumping in the car D 922
juice of the leaf D 883
jungle on the far D 789
juice of the red D 654
juice at the end D 643
jungle at the end D 624
jumps in the car D 584
juice of the nut D 526
juror in the box D 493
jumping on my bed D 485
jumping up in bed D 372
judging of an art D 354
jungle on the way D 334
jungle of the east D 323
juice in the dog D 318
juice in the can D 316
juice in the cup D 308
jungle on the east D 304
juror is of kin D 295
juice in it than D 286
juice on it and D 258
juice of the two D 254
juice of the dead D 254
juice in it and D 254
juice as it was D 254
juror as to his D 252
juice to go with D 252
judge us if thou D 247
juice of the pear D 246
juror in the eye D 244
jungle in the rear D 241
jungle of the big D 240
jumping up to hug D 240
jumping in the hay D 223
juice to the pot D 222
juice on the way D 222
juice of the cow D 206
judge of the sex D 201
jungle at the head D 200
juice in the jar D 198
juice in the top D 195
jungle as if they D 192
jumps up in bed D 192
juice of the pig D 188
jungle in the dry D 186
juice of the raw D 184
juice to the air D 182
juice in the meat D 182
junks in the bay D 180
jungle in the area D 174
juice in the eye D 166
jumps on my lap D 165
juror in an age D 164
juice to the egg D 162
jumping on the car D 161
juice at the bar D 160
jungle of the new D 158
juice on the rug D 156
juice in the pot D 154
jungle at the far D 152
juice in the old D 152
jungle at the top D 150
juice in the air D 150
jumping in my car D 148
juice in an ice D 148
juice by the use D 148
jumping on the ice D 147
juice of an owl D 146
jungle to the top D 145
juice of the lac D 145
jungle to the head D 144
juice in the two D 144
jumping of the gun D 141
juice of the yew D 141
jutting in the air D 140
jungle in the dead D 140
juice is in its D 140
judging by the row D 140
jungle on the one D 139
jungle of the law D 138
juice is the one D 138
juice is by far D 138
judge it to bee D 138
jumping on the bus D 132
jumping in the bay D 132
juice on the top D 132
juror as to any D 130
jumping on my lap D 130
juice of it and D 130
juice as it ran D 130
jungle in the east D 127
juice in the car D 126
juice to be one D 124
juice at the top D 124
juice in the sun D 123
juice of the pith D 122
juice in it for D 120
judge of an art D 119
juror he or she D 118
jumps in my lap D 118
jungle of the old D 116
juice is at its D 112
jumping in the bed D 110
juice of the old D 108
juice of the day D 108
judging by the mud D 107
juice on the cut D 105
jumps on my bed D 104
juice to the hot D 104
juice is an old D 104
juror if he had D 100
jungle as he had D 100
jungle it is death D 98
judging is an art D 98
jungle at the rear D 96
jungle to the rear D 95
judge by the row D 94
jungle to the bed D 92
juice it is not D 92
judging by the car D 92
judge of the zeal D 91
jutting to the sky D 90
jungle of the day D 90
jungle in the heat D 90
jumping on the toes D 90
juice of the rat D 90
juice of it was D 90
jungle as it was D 88
jungle as he was D 86
juice on the one D 86
junior in the art D 84
jungle as the sun D 84
juicy as it was D 84
juice of the new D 84
juice as an aid D 84
judging of the art D 84
jungle is the law D 82
juice of the hop D 82
judging by the thin D 80
juice in the ice D 62
junior to the tax D 60
jutting of the jaw D 58
judge of the sup D 53
juice of the sun D 51
jumps on the ice D 47
judge on the eve D 47
junior to the zoo D 43
juice to the top D 42
judge by the ink D 41
jungle on the top D 40
