but she refused . M 29562
but not anymore . M 25402
but not tonight . M 25012
but was defeated . M 21530
but one example . M 20977
but was refused . M 19248
but they refused . M 18768
but not forever . M 10954
but not everything . M 10682
but for himself . M 9192
but god himself . M 8522
but not perfect . M 7686
but not exactly . M 7118
but got nowhere . M 6692
but not certain . M 6668
buy his freedom . M 5854
but not defeated . M 5812
but not together . M 5262
but then stopped . M 4938
but not unknown . M 4714
but not removed . M 4380
but she refuses . M 4366
but not printed . M 4118
but few friends . M 3754
but not painful . M 3734
but not himself . M 3716
but for herself . M 3708
but was ignored . M 3492
but too evident . M 3456
but with himself . M 3307
but not totally . M 3226
but she stopped . M 3196
but not subdued . M 3126
but not equally . M 3060
but not simpler . M 2976
but not unusual . M 2918
but with respect . M 2809
but not usually . M 2694
but she laughed . M 2662
but one species . M 2618
but not stopped . M 2598
bud and blossom . M 2568
but with dignity . M 2556
but not hostile . M 2552
but not control . M 2482
but with pleasure . M 2356
but not unhappy . M 2356
but not defined . M 2258
but not adopted . M 2256
but she managed . M 2212
but not threatening . M 2210
but not illegal . M 2158
but had refused . M 1984
but one solution . M 1966
but one language . M 1902
but one subject . M 1892
buy this product ? M 1888
but our country . M 1860
but not outside . M 1826
but not colored . M 1822
buy her freedom . M 1814
but one question . M 1808
but not decided . M 1768
buy his product . M 1720
but not injured . M 1718
but for pleasure . M 1718
but one outcome . M 1700
but not happily . M 1662
but you refused . M 1654
but not touched . M 1648
but not crowded . M 1642
but not visible . M 1626
but man himself . M 1563
but not females . M 1556
but one patient . M 1554
but not written . M 1528
but god himself ? M 1526
but not altered . M 1498
but going nowhere . M 1448
but too certain . M 1422
but one element . M 1418
but they escaped . M 1404
but they managed . M 1382
but not quickly . M 1380
but not worried . M 1376
but not friends . M 1348
but one eternal . M 1330
but his friends . M 1330
but one purpose . M 1317
but for justice . M 1308
but not blindly . M 1300
but not religion . M 1282
but too familiar . M 1268
but not married . M 1252
but had escaped . M 1252
but not measured . M 1248
but was stopped . M 1232
but not helpful . M 1226
but his country . M 1224
but for society . M 1222
but not extreme . M 1206
but not herself . M 1204
but one religion . M 1190
but not willingly . M 1182
but not ashamed . M 1174
but not divided . M 1166
but one respect . M 1158
but not strongly . M 1148
but both together . M 1142
but not released . M 1132
but not realized . M 1124
but bad masters . M 1122
but all together . M 1114
but ten minutes . M 1112
but with decision . M 1111
buy and consume . M 1104
but not familiar . M 1090
but for service . M 1076
but not uniform . M 1056
but not despair . M 1052
but its essence . M 1050
but was released . M 1046
but one country . M 1046
but she escaped . M 1030
but not precise . M 1030
buy his silence . M 1024
but not pursued . M 1016
buy that product . M 1015
but not ignored . M 1014
buy this product . M 980
but not harmful . M 978
but too visible . M 976
but its quality . M 972
but not reliable . M 946
but not avoided . M 940
but not command . M 938
but not correct . M 934
but few persons . M 934
buy our product . M 926
but not foolish . M 926
but not enacted . M 926
but not optimal . M 922
buy for himself . M 921
but with delight . M 920
but they existed . M 918
but not present . M 908
but not elegant . M 908
buy and operate . M 903
but not eternal . M 892
but too plainly . M 864
but now extinct . M 864
but two persons . M 862
but too natural . M 856
but few answers . M 852
but with herself . M 848
but act locally . M 848
but his enemies . M 838
but not unhealthy . M 830
but for freedom . M 830
but not content . M 828
but not listening . M 812
but not extinct . M 810
buy for herself . M 806
but too correct . M 802
buy its product . M 801
but not marriage . M 794
but few escaped . M 794
but not central . M 782
but few species . M 782
but not superior . M 772
but are unusual . M 770
but not history . M 766
but one wonders . M 765
but not counted . M 762
but not pleasant . M 752
but not legally . M 752
but was rescued . M 750
but they persist . M 742
but not regular . M 742
but with purpose . M 740
but not cynical . M 740
but one following . M 738
but not applied . M 738
but its beginning . M 734
but not quality . M 730
but not inferior . M 724
but not immoral . M 724
but not explain . M 724
but all refused . M 722
but not anymore ! M 720
but not respect . M 712
but not destroy . M 698
but not damaged . M 698
but not nervous . M 688
but not forward . M 680
but not linearly . M 668
but its absence . M 664
buy and install . M 659
but its content . M 650
but are defeated . M 646
but not roughly . M 644
but for victory . M 640
but few succeed . M 640
but two choices . M 624
but not demanding . M 622
but not claimed . M 622
but not natural . M 620
but not deleted . M 620
but with success . M 616
but not reduced . M 616
but not justice . M 616
buy her silence . M 614
but not passive . M 610
but not closely . M 610
but his thoughts . M 610
but too general . M 604
but not freedom . M 598
but his parents . M 596
but then withdrew . M 594
but not noticed . M 594
but not repeated . M 592
but with sympathy . M 590
but few remarks . M 590
but not granted . M 588
but how exactly ? M 588
but not pointed . M 586
but not curable . M 584
but for everything . M 580
but for decades . M 579
but with sadness . M 574
but they laughed . M 574
but few details . M 572
but not trusted . M 570
but was delayed . M 566
but not related . M 564
but not steadily . M 554
but not daunted . M 554
but they stopped . M 548
but not capital . M 546
but not persons . M 544
buy them himself . M 542
but not private . M 538
but not complex . M 538
but too quickly . M 536
but for comfort . M 534
but both refused . M 534
but not intense . M 522
but not feasible . M 522
but with several . M 520
but not typical . M 518
but not invalid . M 516
but not carried . M 516
but one witness . M 514
but not rational . M 514
but its effects . M 510
but who listens ? M 502
but not enjoyed . M 500
but ten thousand . M 498
but not assured . M 498
but not studied . M 492
but not primary . M 492
but with justice . M 491
but she resists . M 490
but not jointly . M 490
but two hundred . M 488
but not material . M 486
but not secured . M 482
but not finally . M 480
but one verdict . M 478
but not focused . M 476
but not tonight ! M 472
but not pressed . M 472
but few members . M 472
but one function . M 468
but one problem . M 466
but not obscure . M 466
but its weakness . M 466
but not entered . M 464
but then released . M 462
but one decision . M 462
but they survive . M 460
but one article . M 460
but not covered . M 460
but are related . M 458
but not sympathy . M 452
but not function . M 444
but not quietly . M 442
but not hurried . M 442
but not hastily . M 442
but not spoiled . M 440
but not imposed . M 440
but not forever ! M 440
but not animals . M 434
but with society . M 432
but two thousand . M 432
but not divorce . M 432
but one escaped . M 428
but not neutral . M 426
but not useless . M 422
but not reassuring . M 422
but not labeled . M 422
but not culture . M 422
but ill defined . M 420
but not general . M 416
but one occasion . M 414
buy our freedom . M 412
but one hundred . M 412
but not revealed . M 412
but not enemies . M 412
but its results . M 412
but why tonight ? M 410
but not violence . M 410
but his majesty . M 410
but her parents . M 410
but bad history . M 410
but our friends . M 408
but not anxiety . M 408
but few results . M 408
but with triumph . M 404
but one request . M 400
but not wounded . M 398
but for several . M 396
but one baptism . M 392
but get nowhere . M 392
but not language . M 390
but not corrupt . M 390
but not anymore ? M 390
but his subject . M 390
but that happens . M 388
but not fragile . M 386
but she herself . M 384
but not opposed . M 384
but not desired . M 384
but with trembling . M 382
but who decides ? M 382
but not liberty . M 382
but one chapter . M 380
but its purpose . M 380
but are increasing . M 380
buy our product ? M 378
but not worship . M 378
but two minutes . M 376
but not disabling . M 376
but not abusive . M 376
but not viruses . M 372
but how altered ! M 372
but not believing . M 370
but its product . M 370
but for religion . M 370
but its success . M 368
but few survive . M 368
but old friends . M 366
but one remains . M 362
but not periodic . M 362
but not located . M 360
but led nowhere . M 360
but her friends . M 360
but not allowed . M 356
but one essence . M 354
but not logical . M 354
but not orthodox . M 352
but not lighted . M 352
but not diseased . M 352
but two parties . M 350
but now deceased . M 350
but not amended . M 350
but for defense . M 350
but for defence . M 350
but not chaotic . M 348
but his pleasure . M 348
buy his liberty . M 344
but not profits . M 344
but his passions . M 344
but few enemies . M 341
but for oneself . M 338
but few virtues . M 338
but was wounded . M 336
but few achieve . M 336
but with disgust . M 334
but now revealed . M 334
but one mistake . M 332
but not slavery . M 332
but had stopped . M 332
but why proceed ? M 330
but not letters . M 330
but god remains . M 329
but not upwards . M 328
but not started . M 328
but not exposed . M 328
but its victims . M 328
but with history . M 326
but six thousand . M 326
but not rotation . M 326
but not victory . M 324
but far inferior . M 324
but two species . M 322
but not poverty . M 322
but goes nowhere . M 322
but for liberty . M 322
but not updated . M 320
but not produce . M 320
but not numbers . M 320
but two escaped . M 318
but one variety . M 318
but one wounded . M 316
but not priests . M 316
but may persist . M 316
but one destiny . M 314
but with freedom . M 312
but one picture . M 312
but not details . M 312
but with control . M 310
but our enemies . M 310
but one symptom . M 310
but not trained . M 310
but not admired . M 310
buy them herself . M 308
but one process . M 308
but his ambition . M 308
but are ignored . M 308
but for support . M 306
but few remains . M 306
but with oneself . M 304
but then dropped . M 304
but one thousand . M 304
but not retired . M 304
but not parents . M 304
but are optional . M 304
but not meaningful . M 302
but not grasped . M 302
but its function . M 302
but get married . M 302
but few remaining . M 302
but not similar . M 300
but not ordered . M 300
but not fortune . M 300
but for capital . M 300
but with friends . M 298
but with concern . M 298
but two wounded . M 298
but not teachers . M 298
but had retired . M 298
but god himself ! M 298
but two classes . M 296
but not tragedy . M 296
but not figured . M 296
but for charity . M 296
but its subject . M 294
but its history . M 294
buy his records . M 292
but not pleasure . M 292
but for exchange . M 292
but with religion . M 290
but not silence . M 288
but not literal . M 288
but not hopeful . M 288
but not debated . M 288
but that depends . M 286
but not awkward . M 286
but his partner . M 286
but few letters . M 286
but his fortune . M 284
but one comment . M 282
but are limited . M 282
but you escaped . M 280
but with violence . M 280
but why compare ? M 280
but not weighed . M 280
but with victory . M 278
but with everything . M 278
but not prevent . M 278
but not revised . M 276
but not endless . M 276
buy off enemies . M 274
but its location . M 274
buy them anymore . M 272
but why exactly ? M 272
but not visited . M 272
but how dreadful ! M 272
but act quickly . M 271
but with persons . M 270
but two members . M 270
but one company . M 270
but not crossed . M 270
but with silence . M 268
but not lightly . M 268
but not damages . M 268
but dead silence . M 268
but not shorter . M 266
but not failure . M 266
but for sympathy . M 266
buy that picture . M 264
but was improving . M 262
but not locally . M 262
but was drowned . M 260
but was dropped . M 260
but not evident . M 260
but its friends . M 260
but all perfect . M 260
but not selfish . M 258
but not loosely . M 258
but not austere . M 256
but not advancing . M 256
but his destiny . M 256
but for conduct . M 256
but are refused . M 256
but not buildings . M 254
but her thoughts . M 254
but with despair . M 252
but his absence . M 252
but are similar . M 252
but she worried . M 250
but one officer . M 250
but not receive . M 250
but not objects . M 250
but not massive . M 248
but his religion . M 248
but she escapes . M 246
but not increase . M 246
but ill adapted . M 246
but not genuine . M 244
but his superior . M 242
but all society . M 242
but she forgets . M 240
but one society . M 240
but not members . M 240
but not between . M 240
buy them locally . M 238
but one division . M 238
but not soundly . M 238
but not limited . M 238
but few windows . M 238
but for himself ? M 237
buy this company . M 236
but you stopped . M 236
but real enemies . M 236
but not returning . M 236
but not prudent . M 236
but not overall . M 236
but not drowned . M 236
but not ancient . M 236
but his poverty . M 236
buy his company . M 234
but with quality . M 234
but not support . M 234
but not suffering . M 234
but not success . M 234
but not answers . M 234
but his freedom . M 234
but few possess . M 234
but are improving . M 234
but with language . M 232
but now retired . M 232
but not planted . M 232
but not handled . M 232
but its utility . M 232
but for control . M 232
but with congress . M 230
but why despair ? M 230
but one location . M 230
but not utterly . M 230
but not rotated . M 230
but not decayed . M 230
but for quality . M 230
but for display . M 230
but one position . M 228
but not workers . M 228
but not happier . M 228
but not abortion . M 228
but few present . M 228
but are shorter . M 228
but not reliably . M 226
but not supreme . M 224
but not society . M 224
but not humbled . M 224
but not affecting . M 224
but was revived . M 222
but one preceding . M 222
but one monster ! M 222
but not including . M 222
but not doubled . M 222
but not dictate . M 222
but not compact . M 222
but its reverse ? M 222
but its members . M 222
but ill success . M 222
but was unmoved . M 220
but not welcome . M 220
but not checked . M 220
but few wounded . M 220
but few vessels . M 220
but not suicide . M 218
but with benefit . M 216
but they endured . M 216
but not answering . M 216
but far superior . M 216
but are implied . M 216
but are eternal . M 216
but was blocked . M 214
but not truthful . M 214
but not service . M 214
but not position . M 214
but not inhuman . M 214
but not degrees . M 214
but how foolish ! M 214
but two aspects . M 212
but one glimpse ! M 212
but not unified . M 212
but not thoughts . M 212
but not privacy . M 212
but not classes . M 212
but two letters . M 210
but not stronger . M 210
but his bravery . M 210
but with anxiety . M 208
but not rounded . M 208
but with results . M 207
buy one himself . M 206
but not peculiar . M 206
but not masters . M 206
but not goodbye . M 206
but its outcome . M 206
but for results . M 205
but his prayers . M 204
but one message . M 202
but not remorse . M 202
but not matched . M 202
but not magical . M 202
but not exceeding . M 202
but not confusing . M 202
but die together . M 202
but all classes . M 202
but then laughed . M 200
but one machine . M 200
but not ruthless . M 200
but this stranger . M 198
but one unknown . M 198
but not largely . M 198
but not blocked . M 198
but his studies . M 198
but not sincere . M 196
but not affable . M 194
but few records . M 194
but with urgency . M 192
but two answers . M 192
but one service . M 192
but one instant . M 192
but not unwilling . M 192
but not loyalty . M 192
but are nervous . M 192
but six hundred . M 190
but not oneself . M 190
but not omitted . M 190
but his pleasure ? M 190
but his honesty . M 190
but one failure . M 188
but not several . M 188
but for exertion . M 188
but not visibly . M 186
but not outward . M 186
but not escaped . M 186
but not crowned . M 186
but his opinions . M 186
but her prayers . M 186
but for worship . M 186
but for success . M 186
buy his produce . M 184
but was eternal . M 184
but real trouble . M 184
but not weakened . M 184
but its reverse . M 184
but its failure . M 184
but for history . M 184
but she endured . M 182
but one product . M 182
but not notable . M 182
but not enforce . M 182
but his weakness . M 182
but few workers . M 182
but far stronger . M 182
but she yielded . M 180
but sat quietly . M 180
but not verbose . M 180
but not congress . M 180
but has refused . M 180
but few diseases . M 180
but not writers . M 178
but not division . M 178
but not charity . M 178
but lead nowhere . M 178
but his language . M 178
but not imitate . M 176
but not comfort . M 176
but not bravery . M 176
but may recover . M 176
but his liberty . M 176
but was ashamed . M 174
but not receiving . M 174
but for slavery . M 174
but can imagine . M 174
but bad results . M 174
but two stories . M 172
but not harmony . M 172
but not college . M 172
but its novelty . M 172
but for utility . M 172
but one quality . M 170
but not operating . M 170
but not lowered . M 170
but are unknown . M 170
but one passage . M 168
but now unknown . M 168
but not offered . M 168
but not annoyed . M 168
but one concern . M 166
but not thorough . M 166
but not spirits . M 166
but not species . M 166
but for mastery . M 166
but are present . M 166
but they doubted . M 164
but real essence . M 164
but not producing . M 164
but not parties . M 164
but few regrets . M 164
but far simpler . M 164
but one ambition . M 162
but not replace . M 162
but not insight . M 162
but not blinded . M 162
but his company . M 162
but was removed . M 160
but one penalty . M 160
but not misleading . M 160
but not coupled . M 160
buy this service . M 158
but saw everything . M 158
but not respond . M 158
but not planned . M 158
but not glorious . M 158
but not faithful . M 158
but for silence . M 158
bug and lightning . M 158
buy you everything . M 156
but one victory . M 156
but not readable . M 156
but not labored . M 156
but its profits . M 156
but with animals . M 155
but with honesty . M 154
but two volumes . M 154
but they succeed . M 154
but not assumed . M 154
but new masters . M 154
but its position . M 154
but its creators . M 154
but how quickly . M 154
but his virtues . M 154
but his patient . M 154
but going forward . M 154
but for research . M 154
but few secrets . M 154
but did recover . M 154
buy his loyalty . M 152
but too limited . M 152
but not perform . M 152
but not maximal . M 152
but not location . M 152
but she noticed . M 150
but not weakness . M 150
but not execute . M 150
but his success . M 150
but his defects . M 150
but for privacy . M 150
but few insects . M 150
but with objects . M 148
but she manages . M 148
but not results . M 148
but not opinions . M 148
but not confining . M 148
but its increase . M 148
but her absence . M 148
but its donation . M 146
but for shelter . M 146
but for animals . M 146
but all escaped . M 146
buy this machine . M 144
but then returns . M 144
but our sympathy . M 144
but our freedom . M 144
but one channel . M 144
but not routine . M 144
but not distant . M 144
but its masters . M 144
but his sympathy . M 144
but get started . M 144
but for company . M 144
but few masters . M 144
but few animals . M 144
bug you anymore . M 144
but this instant . M 142
but our prayers . M 142
but one pleasure . M 142
but his marriage . M 142
but her religion . M 142
buy his freedom ? M 141
but two schools . M 140
but too willingly . M 140
but real objects . M 140
but not searched . M 140
but not arrived . M 140
but not ambition . M 140
but her freedom . M 140
but dead letters . M 140
but both escaped . M 140
but was unhappy . M 138
but then ignored . M 138
but not worldly . M 138
but not purpose . M 138
but not improving . M 138
but for teachers . M 138
buy our produce . M 136
but with charity . M 136
but this question . M 136
but one equation . M 136
but not tonight ? M 136
but not process . M 136
but not insects . M 136
but not himself ? M 136
but not decrease . M 136
but bad effects . M 136
but ash remains . M 136
but any decision . M 136
but they decline . M 134
but ten members . M 134
but not withered . M 134
but not research . M 134
but not renewed . M 134
but not precious . M 134
but not enabled . M 134
but not ability . M 134
but his removal . M 134
but her dignity . M 134
buy that anymore . M 133
buy and possess . M 132
but why explain ? M 132
but was worried . M 132
but was checked . M 132
but not symbols . M 132
but low quality . M 132
but real friends . M 131
buy our records . M 130
but with culture . M 130
but was trapped . M 130
but they recover . M 130
but our thoughts . M 130
but one pattern . M 130
but now removed . M 130
but not managed . M 130
but not increasing . M 130
but not discuss . M 130
but not current . M 130
but his example . M 130
but her marriage . M 130
but for listening . M 130
but few desires . M 130
but bad passions . M 130
but with numbers . M 128
but she guessed . M 128
but one account . M 128
but not praised . M 128
but not naively . M 128
but not emotions . M 128
but not consuming . M 128
but not believe . M 128
but its creature . M 128
but his conduct . M 128
buy his picture . M 126
but real effects . M 126
but now observe . M 126
but for marriage . M 126
but few schools . M 126
buy this company ? M 124
but with details . M 124
but too closely . M 124
but not matured . M 124
but not initiate . M 124
but man departs . M 124
but ill together . M 124
but ill fortune . M 124
but his victims . M 124
but being ignored . M 124
but are inferior . M 124
buy any product . M 122
but you promise ? M 122
but you mistake . M 122
but you escaped ? M 122
but was nervous . M 122
but she withdrew . M 122
but one student . M 122
but not hateful . M 122
but not capable . M 122
but its tyranny . M 122
but ill advised . M 122
but his essence . M 122
buy his support . M 120
buy and prepare . M 120
but six members . M 120
but not unequal . M 120
but not excused . M 120
but not dropped . M 120
but not cracked . M 120
but its objects . M 120
but its enemies . M 120
but his ability . M 120
but for variety . M 120
but for himself ! M 120
but for ambition . M 120
but with modesty . M 119
buy and develop . M 118
but was omitted . M 118
but was general . M 118
but one episode . M 118
but not uttered . M 118
but not unchanging . M 118
but not acutely . M 118
but his dignity . M 118
but his creature . M 118
but his brothers . M 118
but her weakness . M 118
but her fortune . M 118
but for profits . M 118
buy this article ? M 116
buy one together . M 116
but with content . M 116
but was avoided . M 116
but two objects . M 116
but not preached . M 116
but not jealousy . M 116
but not chained . M 116
but its climate . M 116
but his purpose . M 116
but for friends . M 116
but they suffice . M 114
but not reverse . M 114
but not religion ! M 114
but not leisure . M 114
but not honored . M 114
but its surface . M 114
but his message . M 114
but his history . M 114
but his critics . M 114
but his capital . M 114
but for fortune . M 114
buy him everything . M 112
but she remains . M 112
but one married . M 112
but not trapped . M 112
but not sadness . M 112
but not possess . M 112
but not patient . M 112
but not governing . M 112
but not dreadful . M 112
but not boredom . M 112
but not anatomy . M 112
but may increase . M 112
but for damages . M 112
but few writers . M 112
but being together . M 112
but was pursued . M 110
but two decades . M 110
but too faithful . M 110
but this happens . M 110
but that unknown . M 110
but say goodbye . M 110
but our pleasure . M 110
but not resisting . M 110
but its species . M 110
but his freedom ? M 110
but for delight . M 110
but are stronger . M 110
but all animals . M 110
buy and consume ? M 109
but with clarity . M 109
buy new material . M 108
buy her freedom ? M 108
but with thoughts . M 108
but with symbols . M 108
but with defiance . M 108
but was patient . M 108
but was cautious . M 108
but then decline . M 108
but one weakness . M 108
but not unmoved . M 108
but not together ! M 108
but not joyless . M 108
but not gracious . M 108
but not gathered . M 108
but ill applied . M 108
but his devotion . M 108
but few objects . M 108
but with ability . M 106
but two matches . M 106
but our spirits . M 106
but one soldier . M 106
but one creature . M 106
but not subject . M 106
but not oblivion . M 106
but not madness . M 106
but not justify . M 106
but its variety . M 106
but her silence . M 106
but few fellows . M 106
buy this picture . M 104
buy that article . M 104
buy one herself . M 104
but was unknown . M 104
but was carried . M 104
but was admired . M 104
but two vessels . M 104
but two samples . M 104
but two friends . M 104
but our weakness . M 104
but not trembling . M 104
but not improve . M 104
but not delight . M 104
but not decision . M 104
but its prophet . M 104
but few buildings . M 104
but all decayed . M 104
buy that picture ? M 102
buy that company . M 102
buy off trouble . M 102
buy his product ? M 102
but one harmony . M 102
but one culture . M 102
but not welcoming . M 102
but not plainly . M 102
but not degrading . M 102
but not bounded . M 102
but its solution . M 102
but his service . M 102
but bad spirits . M 102
but all workers . M 102
buy our company . M 100
buy her product . M 100
buy and support . M 100
but you survive . M 100
but too precise . M 100
but they withdrew . M 100
but ten seconds . M 100
but one surface . M 100
but one concept . M 100
but not tempted . M 100
but not decreasing . M 100
but not beliefs . M 100
but not anarchy . M 100
but his letters . M 100
but has endured . M 100
but for clarity . M 100
but with devotion . M 98
but why protest ? M 98
but why marriage ? M 98
but was content . M 98
but two masters . M 98
but this remains . M 98
but this country . M 98
but they yielded . M 98
but now refused . M 98
but not minimal . M 98
but not elderly . M 98
but not consume . M 98
but not combine . M 98
but his sisters . M 98
but for honesty . M 98
but for following . M 98
but few victims . M 98
but are misleading . M 98
but are helpful . M 98
but all combine . M 98
but you laughed . M 96
but was subdued . M 96
but was injured . M 96
but two windows . M 96
but this stranger ? M 96
but our volition . M 96
but one comfort . M 96
but not saddening . M 96
but not orderly . M 96
but not guarded . M 96
but not grammar . M 96
but not enraged . M 96
but not clarity . M 96
but not blatant . M 96
but not advised . M 96
but his country ? M 96
but her emotions . M 96
but for herself ? M 96
but for anybody . M 96
but few noticed . M 96
but are fragile . M 96
buy her silence ? M 94
but you managed . M 94
but with failure . M 94
but two natures . M 94
but two figures . M 94
but they believe . M 94
but sun himself . M 94
but not succeed . M 94
but not exactly ! M 94
but its details . M 94
but his uniform . M 94
but his product . M 94
but his picture . M 94
but her country . M 94
but for parties . M 94
but for ambition ! M 94
but yet endless . M 92
but with jealousy . M 92
but why pretend ? M 92
but was adopted . M 92
but then retired . M 92
but then resumed . M 92
but then refused . M 92
but one partner . M 92
but one example ? M 92
but not disgust . M 92
but not decline . M 92
but its religion . M 92
but his silence . M 92
but his counsel . M 92
but has stopped . M 92
but are omitted . M 92
but all religion . M 92
but with insight . M 91
buy them together . M 90
buy that product ? M 90
buy him freedom . M 90
but yet patient . M 90
but with slavery . M 90
but with emotions . M 90
but was present . M 90
but was natural . M 90
but was limited . M 90
but was divided . M 90
but was adamant . M 90
but then diverge . M 90
but one address . M 90
but now obscure . M 90
but now decayed . M 90
but not endowed . M 90
but not devotion . M 90
but not conduct . M 90
but not certain ! M 90
but not brothers . M 90
but its control . M 90
but his talents . M 90
but his position . M 90
but get married ? M 90
but for illness . M 90
but few repairs . M 90
but each refused . M 90
but being faithful . M 90
but few teachers . M 89
buy this material . M 88
buy nor replace . M 88
buy his passage . M 88
but with promise . M 88
but was increasing . M 88
but two brothers . M 88
but too complex . M 88
but that subject . M 88
but not stories . M 88
but not organic . M 88
but low country . M 88
but its language . M 88
but how glorious ! M 88
but her majesty . M 88
but had trouble . M 88
but for congress . M 88
but few figures . M 88
but act together . M 88
but was declining . M 86
but two measures . M 86
but too briefly . M 86
but they mistake . M 86
but then revived . M 86
but she drifted . M 86
but one quarter . M 86
but not weighty . M 86
but not straining . M 86
but not forgive . M 86
but not everything ! M 86
but not cowards . M 86
but not concern . M 86
but not careful . M 86
but not bothered . M 86
but new teachers . M 86
but new burdens . M 86
but man himself ? M 86
but how similar . M 86
but how elegant ! M 86
but his culture . M 86
but for priests . M 86
but for devotion . M 86
but for country . M 86
but are natural . M 86
but are lighter . M 86
buy that harness . M 84
buy his stories . M 84
buy her friends ? M 84
but why stronger ? M 84
but was wrecked . M 84
but too visible ! M 84
but then recover . M 84
but she watched . M 84
but read madness . M 84
but our desires . M 84
but one beginning . M 84
but not widened . M 84
but not western . M 84
but not punishing . M 84
but not erected . M 84
but not cryptic . M 84
but not conceit . M 84
but its triumph . M 84
but its occasion . M 84
but its infancy . M 84
but his suffering . M 84
but his command . M 84
but her sisters . M 84
but her brothers . M 84
but for command . M 84
but are simpler . M 84
but are complex . M 84
but was renewed . M 82
but ten thousand ! M 82
but our parents . M 82
but one century . M 82
but not figures . M 82
but not destiny . M 82
but not deposed . M 82
but not condemn . M 82
but new material . M 82
but man remains . M 82
but its symptom . M 82
but his justice . M 82
but for despair . M 82
but all differing . M 82
buy them outside . M 80
buy ten thousand ? M 80
buy his silence ? M 80
buy her records . M 80
but who exactly ? M 80
but was unlucky . M 80
but war renewed . M 80
but two sources . M 80
but they arrived . M 80
but she listens . M 80
but our enemies ! M 80
but one scholar . M 80
but now revived . M 80
but not victims . M 80
but not falsely . M 80
but not excuses . M 80
but not emptied . M 80
but not effects . M 80
but his illness . M 80
but had ignored . M 80
but for weakness . M 80
but all related . M 80
but all corrupt ? M 80
bud and blossom ! M 44
