buying into it . M 1473
buying from us . M 1237
buying from me . M 587
buys into it . M 385
buys from us . M 371
buying from it . M 254
busy living it . M 244
buys from it . M 212
busy making it . M 204
buds upon it . M 200
buying from us ? M 169
buys from me . M 168
busy upon it . M 162
busy among us . M 156
burn into me . M 143
busy over it . M 134
busy reading it . M 120
burn upon it . M 103
busy making up . M 100
busy making tea . M 96
buying into it ? M 90
buying from me ? M 84
burn from it . M 41
