we to do with M 82294
we do in our M 36862
we do in this M 27240
we go to war M 22351
we go on with M 21967
we do so with M 21820
we do it all M 18695
we go to see M 18676
we do it for M 18338
we go to our M 17704
we do it with M 17654
we go in and M 13552
we in no way M 10878
we to do now M 10564
we go so far M 10413
we go in for M 10365
we do or say M 9972
we go to him M 9864
we do to get M 8656
we do to our M 8470
we do so for M 8464
we go on and M 8236
we go on our M 7858
we do is not M 7638
we do it this M 7056
we do the things M 7046
we go to them M 6928
we do it now M 6746
we do so not M 6726
we go up and M 6500
we do to them M 5672
we to do this M 5122
we go to his M 5064
we go to god M 5013
we go to that M 4799
we go as far M 4630
we do it and M 4626
we do at this M 4616
we to do for M 4460
we do we are M 4430
we do or not M 4116
we do on our M 4044
we go to this M 4016
we do so that M 3854
we do it not M 3848
we go to her M 3842
we to do then M 3781
we of the old M 3728
we do if they M 3728
we go to get M 3522
we do to him M 3450
we do the job M 3432
we in the east M 3406
we do of our M 3358
we do in all M 3358
we do it that M 3241
we of the new M 3227
we go to new M 3221
we be on our M 3142
we at the end M 3040
we do to each M 2990
we go on this M 2974
we go to one M 2956
we go on for M 2922
we do so and M 2922
we do in that M 2894
we go in our M 2882
we sing the song M 2834
we do on this M 2826
we go in this M 2812
we do to you M 2808
we go on now M 2802
we do so now M 2802
we go to all M 2771
we do or can M 2734
we to do that M 2666
we go on doing M 2650
we do we can M 2612
we do on earth M 2609
we go on that M 2608
we do at all M 2489
we go in now M 2448
we do to bring M 2414
we do is for M 2382
we go in with M 2346
we do to one M 2246
we on the earth M 2235
we in the end M 2064
we be of one M 2036
we do by our M 1932
we be at all M 1932
we do in any M 1930
we do is that M 1884
we go to hear M 1872
we do if our M 1820
we do it out M 1810
we of the east M 1784
we do in his M 1728
we do to god M 1712
we be in our M 1698
we be in any M 1682
we do if you M 1674
we go to any M 1670
we go we are M 1652
we go the way M 1622
we do at our M 1590
we to do but M 1588
we be in this M 1584
we do or how M 1582
we go on being M 1576
we go to buy M 1572
we eat is not M 1554
we do by this M 1522
we go on using M 1494
we on the way M 1432
we do go out M 1426
we do to things M 1392
we do is get M 1371
we do to this M 1354
we do so too M 1352
we do so out M 1308
we in the new M 1307
we do it too M 1302
we do if she M 1280
we be of any M 1270
we sing in our M 1268
we do is sit M 1252
we to go and M 1248
we do the one M 1247
we or do not M 1246
we do of that M 1232
we do in one M 1195
we go in that M 1182
we go to and M 1170
we do of any M 1140
we do is our M 1130
we it is who M 1122
we go or not M 1104
we do at that M 1078
we do of his M 1062
we do we may M 1058
we eat it all M 1046
we do so using M 1034
we do to try M 1032
we do is this M 1032
we eat it with M 1024
we do as they M 1002
we do in real M 998
we do as you M 994
we go to for M 992
we do to that M 991
we eat in our M 968
we do to earn M 964
we to be for M 958
we if we are M 932
we go at all M 930
we do to see M 922
we we do not M 900
we do of them M 896
we do do not M 896
we in the air M 889
we sing to you M 888
we do as our M 888
we at the top M 877
we do at any M 876
we do to her M 860
we in the mean M 851
we if we can M 848
we in the old M 846
we do is put M 838
we do is going M 824
we do is try M 820
we in the way M 812
we do if this M 812
we do in new M 811
we go by way M 808
we be of that M 807
we do to all M 806
we eat the meat M 774
we do the leg M 762
we do to fix M 754
we be to see M 752
we on the one M 746
we do it our M 746
we do to his M 742
we do so our M 738
we go to each M 736
we do to put M 734
we do by way M 734
we do so all M 712
we go by this M 702
we do to and M 700
we do or are M 698
we eat of this M 694
we to be that M 690
we go in one M 690
we go on eating M 688
we go we see M 682
we do as long M 668
we go on any M 664
we of the earth M 661
we do on all M 657
we go up this M 654
we do it then M 652
we to go out M 650
we to go now M 648
we do of all M 648
we go on long M 646
we do to any M 646
we be in that M 631
we do by using M 616
we go by our M 610
we to be doing M 604
we do so let M 598
we go to pay M 596
we to be put M 588
we go up now M 588
we go to law M 586
we do is use M 577
we up the being M 574
we do it one M 570
we do or that M 568
we do is but M 566
we do is set M 560
we go up one M 557
we do is add M 556
we go at this M 554
we go we can M 548
we do an act M 548
we sing to him M 546
we do it are M 542
we sing to them M 538
we eat it and M 538
we up to now M 536
we go on thus M 536
we do on that M 536
we do so long M 534
we be in his M 530
we do the math M 526
we do if one M 526
we do in and M 524
we do no one M 520
we to do and M 516
we in the rear M 514
we be at war M 510
we do is all M 509
we do if that M 509
we to do our M 506
we go as long M 500
we do or may M 500
we do by its M 496
we as we are M 494
we eat in this M 490
we go in two M 481
we to go for M 476
we be of our M 476
we do is ask M 470
we go up with M 464
we do the air M 464
we do in each M 452
we be at any M 452
we go on day M 447
we do it but M 444
we go up for M 442
we go to its M 442
we go on then M 442
we do in war M 441
we be if our M 440
we go on all M 435
we do of this M 434
we to be led M 432
we do of its M 432
we do the real M 428
we do so can M 428
we go up that M 426
we do if god M 422
we go on year M 418
we be so far M 415
we do to win M 414
we do in god M 411
we go in his M 410
we be in all M 410
we to do all M 406
we go by his M 406
we do so they M 402
we be so now M 398
we go to die M 396
we in the war M 394
we do is read M 393
we be if they M 392
we do so far M 389
we do in two M 384
we sing of our M 382
we do to deal M 382
we do is run M 382
we sing the old M 380
we in the long M 380
we sing to god M 378
we be if you M 376
we sing to her M 374
we do to men M 372
we to do any M 370
we do to end M 370
we be to our M 370
we go to now M 368
we eat we can M 368
we do so then M 368
we do is with M 366
we go by and M 362
we eat at six M 361
we do is one M 360
we go on one M 359
we do so are M 358
we at the head M 358
we do in them M 352
we go at them M 350
we eat or not M 350
we to be thus M 344
we go to ask M 344
we to go with M 342
we as we read M 338
we go to two M 335
we eat we are M 334
we to do who M 332
we do so both M 332
we do it each M 332
we go to bring M 330
we do the act M 330
we be so weak M 330
we do of god M 329
we sing to our M 326
we of the non M 326
we be to god M 326
we to be going M 322
we go or why M 322
we do of her M 322
we do if all M 318
we go to rear M 316
we do to set M 316
we go to you M 310
we be at this M 308
we be to each M 306
we do the old M 304
we do or who M 304
we go to are M 302
we go in death M 302
we do or try M 298
we to the end M 296
we go by that M 292
we be of use M 292
we go in any M 290
we eat at our M 288
we do we get M 288
we do the man M 286
we do is bring M 284
we do in its M 284
we do or why M 280
we do it any M 280
we up to this M 278
we do or see M 278
we do on any M 278
we do is cut M 276
we by so doing M 274
we eat do not M 272
we be of this M 272
we go on too M 270
we do the way M 270
we do to aid M 268
we it is not M 266
we go to box M 266
we go on let M 266
we go in all M 266
we do it his M 266
we do the deal M 264
we do eat and M 262
we do to rid M 260
we do in using M 260
we be at our M 260
we do is say M 259
we go to use M 258
we be to him M 257
we do at one M 256
we to do them M 254
we to be too M 254
we go or how M 254
we be if all M 254
we on the air M 252
we go on out M 251
we go we hear M 250
we go on you M 250
we to be one M 248
we go the long M 248
we if we had M 244
we do it has M 244
we do is let M 238
we do as god M 238
we do as far M 238
we be to hear M 236
we go so that M 233
we do it may M 232
we in the law M 230
we do is too M 230
we do as men M 230
we go on how M 228
we eat of them M 228
we eat of that M 227
we do on one M 225
we do the ten M 222
we in so doing M 220
we do to ease M 220
we do do that M 220
we eat or how M 218
we do is being M 218
we do by his M 218
we in the real M 216
we be if this M 216
we be in him M 215
we do the sun M 214
we sing or say M 212
we go on singing M 211
we do we try M 210
we do as being M 210
we do the two M 209
we eat up all M 208
we eat so that M 208
we in or out M 205
we do to heal M 204
we do so but M 204
we do in both M 204
we do to its M 202
we be up and M 202
we be at ease M 202
we do go with M 200
we eat to our M 198
we do so you M 198
we do it does M 198
we to be all M 197
we be as one M 197
we it in our M 196
we in it for M 196
we do to let M 196
we of the two M 195
we go at that M 195
we go at our M 194
we eat it for M 194
we do of men M 194
we do it both M 194
we be to that M 194
we be at one M 194
we go we may M 192
we be in two M 192
we of the law M 191
we go to try M 190
we go to sit M 190
we go to death M 190
we do of one M 190
we do the poem M 188
we do it can M 186
we go is not M 184
we go eat now M 184
we do to cut M 184
we do of him M 184
we go by them M 182
we eat is one M 182
we do on them M 182
we do no man M 182
we do is far M 182
we do is both M 182
we be in for M 182
we of the mid M 180
we of the dead M 180
we do do this M 180
we do is out M 178
we go by its M 176
we do the day M 176
we be the men M 176
we be in ten M 176
we be if god M 175
we go to with M 174
we do we see M 174
we do it than M 174
we in an age M 172
we go so long M 172
we do to add M 172
we be in six M 172
we in the year M 170
we go in too M 170
we do go for M 170
we go at death M 169
we do it ill M 169
we of the rear M 168
we eat up our M 168
we eat on our M 168
we eat it now M 168
we do so does M 168
we eat the way M 166
we do is bad M 166
we do in him M 166
we be on this M 166
we be in sin M 166
we on the map M 164
we in the mad M 164
we go to men M 164
we do is who M 164
we in the day M 162
we go to read M 162
we go in then M 162
we do as yet M 162
we to go near M 160
we do is real M 160
we to go far M 158
we go in fear M 158
we do to pay M 158
we do the easy M 158
we do of you M 158
we do by being M 158
we do so use M 157
we in the far M 156
we do to say M 156
we do so this M 156
we as to this M 156
we to be set M 154
we go if you M 154
we do the new M 154
we do so may M 154
we do in ten M 154
we do at each M 154
we by the law M 154
we be to get M 154
we in the non M 153
we go at each M 152
we do if not M 152
we do by any M 152
we be so ill M 152
we be of its M 152
we do in law M 150
we do go and M 150
we eat at one M 149
we do by that M 149
we sing we are M 148
we in the age M 148
we go do now M 148
we be to one M 148
we go to old M 146
we be to them M 146
we in the two M 145
we to eat one M 144
we in the act M 144
we go on they M 144
we do so than M 144
we be in death M 144
we to be rid M 142
we go on air M 142
we do is due M 142
we do at his M 142
we be on that M 142
we do so act M 141
we on the top M 140
we do it god M 140
we do in her M 140
we be as yet M 140
we of the real M 138
we eat at this M 138
we do on each M 138
we by the act M 138
we in the one M 137
we do it two M 137
we do is god M 137
we to the old M 136
we in the near M 136
we do the big M 136
we do as she M 136
we to the earth M 134
we to be with M 134
we do the men M 134
we do of how M 134
we do if things M 134
we on the east M 133
we to the idea M 132
we sing it with M 132
we sing at our M 132
we of the things M 132
we go to low M 132
we eat at all M 132
we do it using M 132
we do is pay M 132
we to eat our M 130
we in the path M 130
we in the big M 130
we eat or use M 130
we eat no meat M 130
we be in one M 130
we in the use M 128
we go to say M 128
we eat of its M 128
we do if and M 128
we do by not M 128
we do as one M 127
we do to use M 126
we do if his M 126
we do by now M 126
we do as all M 126
we be in god M 126
we to go then M 124
we eat is all M 124
we do so how M 124
we be to all M 124
we as we now M 124
we in the earth M 123
we do is buy M 123
we to eat and M 122
we in the mid M 122
we in the eye M 122
we eat to how M 122
we eat it than M 122
we do it long M 122
we in an era M 120
we go to put M 120
we go in her M 120
we do the bad M 120
we go to red M 119
we sing at all M 118
we on to our M 118
we on or off M 118
we go of our M 118
we eat the meal M 118
we eat of one M 118
we do the use M 118
we do the long M 118
we do by going M 118
we or the kings M 116
we go to beg M 116
we go if not M 116
we go at his M 116
we do or die M 116
we be the one M 115
we up to our M 114
we to it that M 114
we of the year M 114
we go on not M 114
we eat the head M 114
we eat the dog M 114
we eat is our M 114
we do by law M 114
we as we may M 114
we do the near M 113
we go by air M 112
we eat in one M 112
we do on her M 112
we do of man M 112
we do no not M 112
we do no act M 112
we do is now M 112
we be so mad M 112
we do is see M 111
we so to wit M 110
we sing the new M 110
we go to earth M 110
we do to beat M 110
we do the idea M 110
we do of each M 110
we be as far M 110
we to go this M 108
we sing to each M 108
we on the path M 108
we of the red M 108
we in the area M 108
we go to big M 108
we eat the boy M 108
we eat as long M 108
we do so god M 108
we do by god M 108
we be by that M 108
we be as long M 108
we to be who M 106
we of the big M 106
we go in god M 106
we do the earth M 106
we do or did M 106
we be if that M 106
we to go off M 104
we of the age M 104
we in an ill M 102
we eat if you M 102
we do it far M 102
we do is sin M 102
we do by day M 102
we be to you M 102
we be by this M 102
we be at that M 102
we of the one M 101
we of the air M 100
we eat the one M 100
we to be now M 98
we do we say M 98
we do in long M 98
we do if both M 98
we do as how M 98
we be of two M 98
we to be cut M 96
we sing to all M 96
we sing in one M 96
we go to deal M 96
we go to cut M 96
we go the day M 96
we go on but M 96
we go as low M 96
we do on his M 96
we do it you M 96
we do is new M 96
we to the new M 95
we sing of god M 94
we sing it for M 94
we sing is but M 94
we no be bad M 94
we do to fit M 94
we do to bad M 94
we do or for M 94
we do in six M 94
we be in now M 94
we go to win M 92
we go to has M 92
we go at one M 92
we do the death M 92
we do it was M 92
we do eat meat M 92
we be if its M 92
we eat is that M 91
we do in death M 91
we to be any M 90
we sing of them M 90
we go on dying M 90
we do to lead M 90
we do if any M 90
we do by and M 90
we go up two M 88
we do to read M 88
we do so one M 88
we do by him M 88
we by the way M 88
we be as dead M 88
we go in you M 86
we do the sum M 86
we do if war M 86
we be of god M 86
we be by any M 86
we to be his M 84
we go to beat M 84
we eat on this M 84
we do or they M 84
we do or our M 84
we by an act M 84
we up to that M 82
we it is easy M 82
we go to both M 82
we go on lying M 82
we go it weak M 82
we go by one M 82
we eat of his M 82
we eat at his M 82
we do to death M 82
we do or you M 82
we do in eating M 82
we be so shy M 82
we be so sad M 82
we be so apt M 82
we go in low M 81
we up to with M 80
we to go any M 80
we do we mean M 80
we do is weak M 80
we be of all M 80
we to be off M 67
we of the war M 59
we go to far M 59
we do or use M 56
we to be out M 49
we be so near M 48
we go to man M 45
we do is act M 45
we do is hang M 44
we do in man M 43
we to the sun M 42
we do to man M 42
we do or act M 41
we at the new M 41
we go to air M 40
we do the dead M 40
we go to bed D 43731
we do in bed D 1232
we sing to thee D 839
we on the eve D 748
we go by car D 560
we go by bus D 378
we go to art D 375
we eat or wear D 333
we in the car D 298
we go to bath D 292
we do to thee D 278
we do in fig D 270
we do in art D 236
we do as thou D 219
we go to bat D 210
we do the art D 158
we in the art D 146
we eat an egg D 136
we go to fox D 130
we to doe with D 126
we go to thee D 121
we sing of thee D 116
we in the van D 108
we go to gym D 108
we go to sir D 106
we to be fed D 102
we go to row D 102
we eat the cow D 100
we do is art D 97
we eat it raw D 96
we doe at this D 96
we in the gay D 84
we go to dig D 80
we of the rue D 42
we do is fun D 41
we in the bay D 40
