we go through the M 67218
we go beyond the M 25784
we do something to M 10310
we go around the M 8694
we do better to M 8240
we be forced to M 7304
we do manage to M 6884
we be afraid of M 6702
we the peoples of M 6644
we to regard the M 6280
we do without the M 5814
we to accept the M 5236
we of course do M 5227
we do intend to M 4816
we go through it M 4748
we go through in M 4214
we to follow the M 4208
we go across the M 4132
we do decide to M 3976
we do should be M 3956
we or should we M 3810
we be unable to M 3786
we do object to M 3538
we go toward the M 3366
we go behind the M 3358
we go further in M 3276
we to arrive at M 3174
we do without it M 3108
we do expect to M 2944
we be without the M 2936
we be afraid to M 2914
we to oppose to M 2874
we do happen to M 2814
we be guilty of M 2760
we to assess the M 2734
we do accept the M 2724
we be likely to M 2710
we go through to M 2460
we to define the M 2426
we to measure the M 2416
we the spirit of M 2358
we go before the M 2232
we to forget the M 2062
we to regard it M 2050
we be guided by M 2036
we do arrive at M 2026
we so afraid of M 1978
we do choose to M 1956
we do desire to M 1942
we do something we M 1924
we do little to M 1832
we do expect the M 1816
we go inside the M 1794
we be misled by M 1786
we to return to M 1760
we go through an M 1696
we to listen to M 1694
we to attach to M 1694
we do before we M 1628
we to refuse to M 1596
we do better in M 1524
we do accept it M 1518
we do something in M 1499
we to ignore the M 1490
we be without it M 1490
we do insist on M 1447
we to expect the M 1432
we be called to M 1430
we go further we M 1420
we do through the M 1384
we to expect of M 1372
we go further to M 1342
we to submit to M 1306
we do homage to M 1298
we to assign to M 1296
we go around to M 1256
we to regard as M 1174
we go beyond it M 1170
we to resort to M 1152
we go around in M 1152
we to expect to M 1150
we to insist on M 1127
we go higher in M 1126
we to wonder at M 1078
we to expect in M 1062
we do instead of M 1022
we to assume the M 1018
we do instead is M 992
we so admire in M 966
we do better by M 962
we do honour to M 936
we go through as M 928
we to reject the M 912
we be treated as M 886
we go inside to M 876
we be engaged in M 848
we go direct to M 838
we do expect it M 838
we do return to M 814
we go across to M 804
we do regard it M 794
we be thought to M 794
we do something of M 784
we to answer the M 780
we go higher up M 776
we do regard the M 772
we be taught to M 764
we go abroad to M 762
we to accept as M 750
we so afraid to M 744
we do attend to M 742
we do listen to M 740
we to obtain the M 730
we do before the M 730
we do reject the M 728
we be united in M 728
we be placed in M 728
we to accept it M 720
we to pursue the M 718
we to remain in M 712
we go through is M 704
we be doomed to M 704
we to choose the M 696
we as humans do M 696
we do better if M 690
we so regard it M 688
we be called on M 677
we to permit the M 668
we to depend on M 668
we do follow the M 668
we do little or M 664
we do depend on M 663
we to relate the M 652
we go before we M 644
we go further it M 630
we in regard to M 628
we be united to M 620
we to affirm the M 610
we go upward in M 606
we to expect it M 600
we do further by M 600
we go swimming in M 591
we eat should be M 590
we go deeper in M 588
we to relate to M 586
we do assert is M 584
we to decide the M 578
we to attain to M 578
we to suffer the M 572
we be denied the M 570
we be spared the M 564
we be guided in M 562
we be anxious to M 546
we to remove the M 544
we eat before we M 542
we do unless we M 534
we as readers of M 534
we so choose to M 528
we to become the M 526
we so wanted to M 524
we do something or M 516
we do injury to M 516
we to escape the M 512
we do adhere to M 508
we go further on M 507
we do submit to M 504
we do realize the M 502
we go through so M 499
we do realize it M 490
we do damage to M 490
we be caught in M 482
we go around it M 480
we be raised to M 480
we to wonder if M 478
we so anxious to M 478
we to secure the M 476
we do better at M 472
we to select the M 468
we to resist the M 468
we go abroad we M 466
we to extend the M 464
we do expect is M 464
we to decide in M 456
we do assume the M 454
we to attend to M 452
we to manage it M 448
we be pleased to M 448
we do enough to M 446
we to admire the M 444
we be taught by M 442
we to divide the M 440
we do regard as M 434
we do abound in M 434
we to marvel if M 426
we to credit the M 426
we be judged by M 424
we go through on M 418
we as readers do M 416
we the authors of M 412
we do something on M 412
we to assign the M 410
we on behalf of M 404
we to defend the M 400
we by virtue of M 398
we do something as M 397
we or someone we M 396
we go aboard the M 396
we do differ in M 396
we do enough of M 392
we to adhere to M 390
we to measure it M 384
we go without the M 376
we do admire the M 374
we do further of M 372
we do arrest it M 370
we be blamed if M 370
we be joined to M 368
we do notice the M 364
we do notice it M 364
we so desire to M 360
we to follow in M 358
we the secret of M 358
we to manage the M 356
we do desire it M 356
we be spared to M 356
we do around the M 352
we go behind it M 344
we go further up M 340
we do toward the M 338
we to handle the M 336
we do demand of M 334
we do little in M 333
we to endure the M 330
we do attain to M 324
we be secure in M 324
we to decide on M 322
we so regard the M 322
we do plenty of M 320
we go onward in M 312
we do something is M 312
we to expect as M 309
we as adults do M 309
we to expect if M 308
we do obtain the M 308
we do admire it M 308
we be before we M 308
we so define it M 304
we do retain the M 304
we do resort to M 304
we be caught up M 302
we to define it M 300
we in favour of M 300
we do something so M 300
we do refuse to M 300
we be jealous of M 300
we to praise the M 298
we to follow it M 298
we the priest to M 296
we do inside the M 296
we to reduce the M 294
we to behold the M 292
we go abroad in M 292
we be lifted up M 290
we do wisely to M 288
we go without it M 284
we to retain the M 280
we so desire we M 278
we be pleased or M 278
we to regret the M 276
we go instead to M 276
we be honest in M 274
we do belongs to M 270
we in future to M 268
we be untrue to M 266
we to refuse the M 264
we be raised up M 264
we so arrange the M 260
we the strength to M 258
we be helped to M 258
we be closer to M 258
we be called the M 258
we do further in M 256
we be active in M 256
we do notice is M 254
we be joined in M 254
we be helped by M 252
we be caught by M 252
we do assume it M 248
we so seldom do M 246
we do wonder at M 246
we to behave in M 244
we so desire it M 242
we to object to M 240
we the honour of M 240
we be called in M 240
we to uphold the M 238
we in virtue of M 238
we do accept as M 238
we to repent of M 232
we do choose the M 232
we to attack the M 228
we be judged in M 228
we to assume an M 226
we do forget it M 226
we do relate to M 224
we as readers or M 224
we so caught up M 222
we eat plenty of M 222
we do prefer to M 222
we be silent on M 222
we do better on M 220
we to attain the M 218
we so likely to M 216
we do affirm is M 214
we to detail the M 212
we go further by M 212
we go closer to M 212
we to lament the M 210
we do something by M 210
we be treated in M 210
we be fearful of M 210
we be buried as M 210
we to oppose the M 208
we do stress the M 208
we do something at M 208
we be amazed at M 208
we to desire to M 206
we to arrange the M 206
we sing praise to M 206
we be secure of M 204
we to realize the M 202
we the record of M 202
we go through at M 202
we do wisely in M 202
we do assert the M 202
we to reject it M 200
we of course at M 200
we no mission to M 200
we do expect of M 200
we be curious to M 200
we to select as M 198
we to punish the M 198
we to assume as M 197
we to govern it M 196
we to assume it M 196
we in nature or M 196
we be before the M 196
we to suffer it M 194
we to choose to M 192
we do decide is M 192
we be scared of M 192
we to decide to M 190
we go beyond an M 190
we go deeper we M 188
we be useful to M 188
we to demand of M 186
we be treated to M 186
we to remain at M 184
we to charge the M 184
we do almost the M 184
we be always in M 184
we to choose as M 183
we to record it M 182
we to prefer the M 182
we to ensure the M 182
we do demand is M 182
we to square the M 180
we be taught the M 180
we do without an M 178
we to supply the M 176
we be helped in M 176
we to obtain it M 174
we to follow up M 174
we so choose we M 174
we do except to M 174
we be called by M 174
we to travel in M 172
we do another thing M 172
we the number of M 170
we do decide on M 170
we do attain it M 170
we be taught of M 170
we be fitted to M 170
we as judges to M 168
we to record the M 166
we to decide if M 166
we do abroad is M 166
we to defend it M 164
we do something it M 164
we do recall the M 164
we do choose it M 164
we to modify the M 162
we go gladly to M 162
we do expect an M 162
we do chance to M 162
we do better or M 162
we do affirm the M 162
we be killed by M 162
we be called no M 162
we to expect an M 160
we to embark on M 160
we do wonder if M 160
we do something the M 160
we do behave in M 160
we as readers to M 160
we so intent on M 158
we in charge of M 158
we do desire is M 158
we to detect the M 156
we in prince or M 156
we do whether we M 156
we do neither of M 156
we do aspire to M 156
we be thought of M 156
we be viewed by M 154
we to assign it M 152
we so fearful of M 152
we to ignore it M 150
we to assume he M 150
we the owners of M 150
we so stupid as M 150
we do prefer the M 150
we do hereby in M 150
we do better as M 150
we to figure the M 148
we the wisdom to M 148
we the shadow of M 148
we go swimming at M 148
we go before it M 148
we be fooled by M 148
we to regard an M 146
we so define the M 146
we do simply by M 146
we be turned to M 146
we be amused by M 146
we to profit by M 144
we to endure it M 144
we to deduce the M 144
we to adjust the M 144
we go through we M 144
we do reject it M 144
we be united by M 144
we to forget to M 142
we to commit the M 142
we do reject is M 142
we to pursue it M 140
we to excuse the M 140
we so choose the M 140
we do reduce the M 140
we do obtain an M 140
we do expect in M 140
we be buried in M 140
we to travel to M 138
we to assume in M 138
we the rights of M 138
we go beyond or M 138
we do ignore the M 138
we do assume is M 138
we be judged of M 138
we we should be M 136
we to answer it M 136
we the result of M 134
we do desire the M 134
we be treated by M 134
we to attain it M 132
we in regard of M 132
we go deeper the M 132
we do whether it M 132
we do battle in M 132
we no record of M 130
we go higher we M 130
we go through my M 128
we do regret the M 128
we be fallen in M 128
we in reality do M 127
we to reduce it M 126
we to combat the M 126
we so scared of M 126
we do report the M 126
we do indeed in M 126
we be better or M 126
we so adjust the M 124
we be tested on M 124
we be better at M 124
we to repair the M 122
we to devote to M 122
we to beware of M 122
we the fellow of M 122
we do commit the M 122
we do already in M 122
we to expect no M 120
we to answer to M 120
we go around on M 120
we to obtain an M 118
we of course go M 118
we do measure it M 118
we be sleeping or M 118
we be picked up M 118
we be joined by M 118
we be forced at M 118
we to manage to M 116
we to expect or M 116
we do permit the M 116
we do obtain it M 116
we be warned by M 116
we be serious in M 116
we be engaged to M 116
we to accept in M 115
we to answer in M 114
we to accept of M 114
we go onward to M 114
we go around by M 114
we do define the M 114
we be silent in M 114
we to double the M 112
we to assert the M 112
we in behalf of M 112
we eat instead of M 112
we do select the M 112
we do measure the M 112
we do extend the M 112
we do define it M 112
we do beyond the M 112
we do answer to M 112
we do affect the M 112
we be guided to M 112
we do differ on M 111
we to accept an M 110
we sing before the M 110
we eat before the M 110
we be asleep or M 110
we to remain on M 109
we to secure it M 108
we to return the M 108
we to desire it M 108
we the nature of M 108
we no brains to M 108
we do follow it M 108
we be cheated of M 108
we to attach the M 106
we the sooner be M 106
we in effect do M 106
we do repent of M 106
we do detect the M 106
we do attach to M 106
we be ground to M 106
we be always on M 106
we to violate it M 104
we to verify the M 104
we to define in M 104
we to assume to M 104
we the object of M 104
we no desire to M 104
we eat through the M 104
we do oppose is M 104
we do before it M 104
we be earnest in M 104
we to become so M 102
we to assume on M 102
we the choice of M 102
we go swimming or M 102
we go boldly up M 102
we eat enough to M 102
we do almost no M 102
we do across the M 102
we be warned to M 102
we be seized by M 102
we to relate it M 100
we to inform the M 100
we to bodies on M 100
we eat enough of M 100
we do notice in M 100
we do changes the M 100
we be modest in M 100
we to refuse it M 98
we to prefer as M 98
we to mention the M 98
we to impart the M 98
we so little of M 98
we so insist in M 98
we no memory we M 98
we do remove the M 98
we do mention the M 98
we do actions of M 98
we be taught in M 98
we be stupid or M 98
we to forget it M 96
we so accept it M 96
we it should be M 96
we go through or M 96
we go inside we M 96
we do little of M 96
we do attach the M 96
we do appears to M 96
we be forced by M 96
we so framed in M 95
we to tackle the M 94
we to meddle in M 94
we to expect at M 94
we to direct the M 94
we to depict the M 94
we to conceal the M 94
we do neither so M 94
we do credit to M 94
we do better the M 94
we do assess the M 94
we be surely the M 94
we be placed on M 94
we be amongst the M 94
we to extend it M 92
we to compel the M 92
we to ascend to M 92
we the strength of M 92
we do poorly in M 92
we do neither the M 92
we be unjust to M 92
we be reborn in M 92
we be raised in M 92
we as likely to M 92
we to attend the M 90
we the source of M 90
we so unsure of M 90
we so rarely do M 90
we so needed to M 90
we sing around the M 90
we in anguish or M 90
we go listen to M 90
we eat before it M 90
we do ignore it M 90
we do become the M 90
we do assign to M 90
we be anxious as M 90
we to regain the M 88
we to denote the M 88
we to demand it M 88
we the readers of M 88
we so devoid of M 88
we of grasping the M 88
we go boldly to M 88
we do become so M 88
we do assure the M 88
we do advise the M 88
we be locked up M 88
we be changed to M 88
we be afraid in M 88
we be viewed as M 87
we to enable the M 86
we the spirit to M 86
we the better or M 86
we so needed the M 86
we go higher the M 86
we go beyond to M 86
we go abroad or M 86
we do praise the M 86
we do merely to M 86
we do indeed do M 86
we do assume in M 86
we be violating the M 86
we be scared by M 86
we be changed by M 86
we to decide it M 84
we go inside or M 84
we be better to M 84
we be standing in M 83
we the elders of M 82
we go without an M 82
we do something he M 82
we do realize we M 82
we do oppose the M 82
we do modify the M 82
we be useful in M 82
we be strict in M 82
we be agents of M 82
we to weight the M 80
we to foster the M 80
we to embark in M 80
we no chance of M 80
we go upward to M 80
we go abroad on M 80
we do notify to M 80
we as honest as M 80
we go inside so M 53
we be judged as M 43
we go marching on D 3206
we be driven to D 1200
we eat dinner at D 794
we to locate the D 764
we be slaves to D 658
we be focusing on D 618
we the slaves of D 556
we go ashore in D 548
we go farther in D 512
we do strive to D 504
we be driven by D 458
we go marching to D 452
we go farther on D 447
we go farther to D 446
we eat dinner in D 426
we go farther we D 418
we the chiefs of D 384
we the leaders of D 372
we go astray in D 372
we to employ the D 348
we go shopping in D 340
we go marching up D 331
we the richer by D 316
we go ashore to D 304
we go ashore at D 298
we to settle the D 286
we to bridge the D 278
we be robbed of D 278
we to strive to D 270
we do employ the D 262
we the clergy of D 236
we be minded to D 234
we to revert to D 232
we to reckon the D 230
we to settle it D 228
we go farther it D 224
we to convey to D 222
we to derive the D 220
we be tender to D 214
we go shopping or D 212
we go farther up D 211
we be struck by D 210
we to survey the D 208
we be swayed by D 208
we go shopping we D 206
we to impute the D 202
we to bestow on D 198
we be slaves or D 196
we go astray if D 188
we to derive it D 184
we to accede to D 178
we go shopping at D 178
we to impute to D 172
we to esteem the D 168
we to review the D 162
we to render the D 162
we do invoke the D 160
we be averse to D 158
we so partial to D 156
we do assent to D 156
we as leaders of D 156
we be puffed up D 150
we to reckon as D 148
we the freest of D 146
we be striving to D 144
we do murmur at D 142
we to strike the D 140
we to render to D 138
we go ashore we D 134
we be slaves of D 132
we be clothed in D 132
we do render no D 126
we to render it D 124
we so readily do D 120
we eat supper at D 120
we do reveals the D 116
we to assent to D 108
we to employ it D 106
we to convey the D 106
we so esteem it D 106
we do repute to D 106
we to review it D 104
we to reckon in D 104
we go knocking on D 104
we go ashore on D 104
we be polite to D 104
we go shopping on D 100
we do invest in D 100
we do employ it D 98
we to impute it D 96
we so prolong the D 94
we doe intend to D 94
we do esteem the D 94
we to reckon up D 92
we to insure the D 92
we to accord to D 92
we eat dinner on D 92
we do employ in D 92
we be spending on D 92
we as nurses do D 92
we so wedded to D 88
we go astray on D 88
we do locate the D 88
we be lovers of D 88
we to employ in D 86
we as leaders in D 86
we be saints or D 84
we be remiss in D 84
we be spending the D 82
we to hearken to D 80
we go plodding on D 51
we go charging in D 50
we to reckon on D 45
