were quite a few M 73870
were still a few M 53302
were within a few M 42190
were given a new M 21046
were still a long M 15566
week later i was M 11040
were creating a new M 9614
were quite a lot M 8843
were still a lot M 8616
were given a few M 8014
were getting a bit M 7080
were found a few M 6714
week after i had M 6476
were given a set M 5374
were quite a bit M 5036
were getting a lot M 4829
were still a bit M 4326
were seeking a new M 4108
were within a day M 4047
were seeking a way M 3332
were added a few M 3142
were given a two M 2968
week later i had M 2966
were given a day M 2795
well might a man M 2757
week after i was M 2672
week later i got M 2664
were given a lot M 2556
were under a lot M 2540
were given a year M 2418
were about a year M 2341
week after i got M 2340
were times i was M 2326
were given a one M 2312
week while i was M 2308
were given a long M 2298
were given a low M 2279
week since i had M 2276
were taken a few M 2174
were given a meal M 2109
were forming a new M 2070
well where i was M 1912
were people i had M 1830
well while i was M 1803
were opening a new M 1796
weary after a long M 1719
well after a few M 1692
were given a big M 1688
were still a boy M 1668
were getting a new M 1644
were feeling a bit M 1635
were learning a new M 1552
were given a job M 1444
week later i saw M 1406
went twice a day M 1374
well within a few M 1362
were given a real M 1352
were given a ten M 1314
were within a year M 1257
were times i did M 1244
were asked a few M 1162
went where i was M 1160
were given a cup M 1156
were given a six M 1146
were times i had M 1128
well might i say M 1123
were testing a new M 1116
were shown a set M 1110
well since i was M 1079
were looking a bit M 1066
well after i had M 1043
were finding a new M 1040
were under a vow M 1028
were given a seat M 1028
were built a few M 1014
were writing a new M 998
week since i saw M 988
well until a few M 962
week since i was M 950
were learning a lot M 948
were playing a new M 934
went quite a long M 926
went within a few M 920
were still a day M 916
were given a key M 916
were sitting a few M 904
were given a pre M 894
well until i was M 892
were given a map M 888
were nearly a year M 884
went twice a year M 881
went while i was M 874
were putting a lot M 860
were quite a long M 858
well within a year M 849
were until a few M 846
were causing a lot M 844
were getting a bad M 836
were really a man M 815
were given a bad M 808
were about a day M 804
well until i got M 804
were quite a new M 792
were never a real M 786
were casting a net M 782
were still a year M 764
weary after a day M 756
were still a new M 750
were given a red M 748
were under a ban M 730
were quite a way M 720
week after i saw M 706
were asked a set M 698
well since i had M 689
were still a far M 678
were given a bit M 674
were putting a new M 668
were gaining a new M 668
were shaping a new M 662
were getting a big M 660
were given a sum M 652
well after a long M 650
were quite a team M 644
were finding a way M 644
were given a box M 641
were words i had M 628
were rather a lot M 626
were people i did M 626
week later a new M 626
were playing a team M 622
well under a year M 621
were holding a big M 620
were still a kid M 618
west within a few M 614
were writing a poem M 612
were keeping a low M 608
were shown a few M 604
were showing a new M 602
were playing a lot M 602
were still a big M 598
were clearing a path M 596
were moved a few M 586
were thinking i was M 576
were reaching a new M 572
well after a year M 572
were getting a few M 568
were getting a real M 564
well spend a few M 564
went quite a way M 562
were seated a few M 554
were playing a key M 542
west coast a few M 540
were shown a new M 540
were running a bit M 530
were really a lot M 530
wealth which a man M 530
well until i had M 529
were under a new M 524
were given a far M 517
were shown a map M 514
were while i lay M 512
were while i was M 508
were where i had M 506
were after a few M 500
were given a say M 493
well aware i was M 492
were walking a few M 490
well maybe i can M 490
were under a year M 482
were still a team M 480
were selling a lot M 476
weary though i was M 476
were under a law M 475
well thanks a lot M 475
week until i was M 469
were often a long M 466
were often a few M 458
well until a year M 450
went quite a bit M 446
were still a man M 434
well since i saw M 434
were ranged a few M 430
were seeking a job M 428
went after a few M 428
were missing a lot M 427
were staying a few M 426
were really a new M 424
were missing a few M 424
were aware i was M 422
were passing a few M 420
were after a long M 420
well known a few M 420
were quiet a long M 415
well where i had M 415
were drawing a net M 412
were built a long M 412
well create a new M 410
were often a bit M 409
went until i was M 408
well after i was M 408
were sorry i was M 406
were given a bag M 398
well known i was M 396
west point a few M 392
were taken a year M 392
were playing a big M 384
were added a new M 382
were happy i was M 380
were given a non M 376
were given a head M 376
were given a mean M 375
were never a big M 374
were arguing a lot M 374
well known a man M 366
week twice a year M 364
were still a real M 362
were growing a bit M 362
wealth which i had M 360
were given a lead M 358
well within a day M 358
well spare a few M 356
were working a lot M 354
west point a year M 352
were given a way M 352
were found a long M 352
week after i get M 352
week since i got M 346
were waiting a few M 344
were still a way M 344
week after i did M 344
were until i saw M 340
were sorry i had M 338
were sharing a meal M 338
were running a few M 336
were playing a song M 336
were given a pay M 334
were really a bit M 333
were until i got M 332
went after a man M 331
were raising a new M 330
were about a man M 330
were added a year M 323
well known i had M 322
were until i had M 318
were teaching a new M 316
were holding a long M 316
were feeling a lot M 312
well twice a day M 311
were where i was M 310
well might i ask M 310
week later i read M 310
were which i had M 308
well aware i had M 308
week after a long M 308
were alone a lot M 302
were taken a long M 298
were rather a long M 298
well until a new M 296
well maybe i did M 296
were found a year M 283
were people i was M 282
were obeying a law M 282
were holding a man M 282
were aware i had M 280
went about a lot M 278
were really a god M 277
were shown a long M 272
were running a big M 272
were begun a few M 272
week until i got M 270
week later a man M 270
were until i was M 268
were forcing a way M 268
were creating a lot M 268
were within a two M 266
were within a long M 264
were never a day M 264
were calling a dog M 264
were sending a man M 262
were growing a few M 262
well within a team M 259
were echoed a few M 258
were after i had M 258
were words i did M 256
were breaking a law M 254
well start a new M 254
were short a man M 252
were killing a lot M 250
were again a few M 250
were others i did M 248
were alone a few M 248
were within a ten M 244
were playing a few M 244
week until i had M 244
were seeking a man M 243
were getting a cut M 243
were thinking a lot M 242
week which i had M 242
were looking a lot M 240
were cutting a path M 240
well until i saw M 240
well after a day M 238
were women i had M 236
were often a way M 236
were getting a head M 236
were drawing a map M 234
were quite a big M 230
went under a low M 229
were writing a lot M 228
went under a few M 228
were working a few M 226
were cutting a new M 226
were showing a lot M 224
were passing a long M 224
were known a long M 224
were holding a war M 224
west point i was M 222
west point i had M 222
were selling a new M 222
were given a top M 222
were books i had M 222
well cause a man M 222
week until i get M 222
were speaking a few M 220
were others i had M 220
well maybe i was M 215
were really a big M 214
were playing a cat M 214
were given a death M 214
were under a death M 212
were truly a man M 212
were asked a lot M 212
well until i get M 212
well though i was M 212
well since i got M 212
well begin a new M 212
week later i sat M 212
were clearing a way M 210
were alive a year M 210
well after i got M 210
were really a way M 208
were nearly a day M 206
were lucky i was M 206
well aware i can M 206
were writing a long M 204
were really a bad M 204
were missing a leg M 204
were drawing a lot M 204
week after a death M 204
were known a few M 202
were hanged a few M 202
wept until i was M 202
were costing a lot M 201
were passing a big M 200
week later i ran M 198
were lucky i did M 196
were burnt a few M 196
well where a man M 195
were really a long M 194
were never a man M 194
went missing a few M 194
west where i was M 192
were under a big M 192
were quiet a few M 192
were letting a lot M 192
were creating a real M 192
were chasing a man M 192
went round a few M 192
were noted a few M 190
were again a boy M 190
went after a job M 190
week within a few M 190
were writing a song M 188
were never a bit M 188
were known i had M 188
wept since i was M 186
were really a set M 184
were often a lot M 184
well spend a day M 184
were given a run M 182
were alive a few M 182
were given a log M 180
went where i had M 180
week where i was M 180
week later i did M 180
were often a key M 179
were given a man M 179
were finding a lot M 178
were feeling a new M 178
well build a new M 178
week later i get M 178
weary steps i had M 178
wealth gives a man M 178
were treading a path M 176
were playing a long M 176
went after a big M 176
were times i got M 174
were shown a way M 174
wealth makes a man M 174
were still a weak M 172
were meeting a man M 172
were known i was M 172
went under a big M 172
were given a son M 171
were nearly a dead M 170
were really a team M 168
were filling a gap M 168
were selling a few M 166
were playing a real M 166
were never a boy M 166
went until i had M 166
well takes a lot M 165
were sending a few M 164
were seated a man M 164
week after a few M 163
west which i had M 162
were given a toy M 162
week after a new M 162
west where a man M 161
were twice a day M 160
were short a few M 160
were quite a boy M 160
were names i had M 160
were joining a new M 160
were meeting a real M 158
were meeting a new M 158
were chasing a cat M 158
week which i was M 158
were shown a toy M 156
were rather a new M 156
were putting a few M 156
were opening a path M 156
were built a year M 156
week within a year M 155
were sharing a cup M 154
were holding a dead M 154
well until i put M 154
well might a few M 154
week terms a year M 154
west after a long M 152
were speaking a new M 152
were resting a few M 152
were about a few M 152
well drive a man M 152
were winning a war M 150
were speaking i was M 150
wept until i had M 150
wealth within a few M 150
were playing a set M 149
were waiting a long M 148
were stuck a few M 148
were stealing a few M 148
were alone i had M 148
were about a new M 148
went hungry a lot M 148
well since i can M 148
west where i had M 147
were truly a team M 147
week after a year M 147
were shown a lot M 146
were freed a few M 146
were begun a year M 146
went where i did M 146
went after a new M 146
went about a year M 146
well under a new M 146
were raising a lot M 144
were often a day M 144
well write a new M 144
well knowing i had M 144
well aware i did M 144
wealth after a long M 144
were maybe a bit M 143
were shown a box M 142
were sharing a big M 142
were drawing a new M 142
were helping a man M 140
well within a long M 140
were within a one M 139
west coast i was M 138
were walking i saw M 138
were times i saw M 138
were still a bud M 138
were risking a lot M 138
were first a few M 138
were given a heat M 137
were sending a lot M 136
were passing a low M 136
were never a lot M 136
were mixed a few M 136
were given a weak M 136
were after a day M 136
well under a day M 136
well above a man M 136
were getting a meal M 135
were under a head M 134
were shown a man M 134
were really a son M 134
were pouring a new M 134
were given a bar M 134
were gaining a lot M 134
were running a lot M 132
were often a law M 132
were alone i was M 132
went about a bit M 132
well quote a few M 132
were given a cut M 131
were under a man M 130
were taken a day M 130
were stage i and M 130
were sending a new M 130
were saved a long M 130
were playing a bit M 130
were never a team M 130
were getting a long M 130
went quite a few M 130
were twice a year M 128
were still a going M 128
were sending a team M 128
were raising a hue M 128
were happy i had M 128
were given a law M 128
were added a long M 128
were after a man M 127
were winning a lot M 126
were walking a dog M 126
were killing a man M 126
were either a few M 126
were drawn a few M 126
were under a real M 124
were holding a low M 124
were feeding a few M 124
were drawing a long M 124
week until i can M 124
west while i was M 123
west coast i had M 122
were working a new M 122
were spread a few M 122
were really a bar M 122
were opening a way M 122
were maybe a few M 122
well since i did M 122
week after i read M 122
were under a two M 121
were tried a few M 120
were right i was M 120
were playing a one M 120
were passing a law M 120
were hungry a lot M 120
were after a new M 120
were taken i was M 118
were staying a long M 118
were missing a bet M 118
were found a new M 118
were found a heap M 118
were drawing a bow M 118
were above a year M 118
well until i can M 118
week later i set M 118
west until i was M 116
were truly a new M 116
were small i was M 116
were playing a far M 116
were keeping a few M 116
were holding a few M 116
were holding a cup M 116
were getting a deal M 116
well write a few M 116
well known i can M 116
well enjoy a few M 116
week later a long M 116
were holding a sit M 115
were given a try M 115
were working a job M 114
were running a real M 114
were often a mix M 114
were learning a few M 114
week later i put M 114
were hunting a man M 112
were given a leg M 112
were added a box M 112
were walking a long M 110
were raising a few M 110
were named a and M 110
were keeping a lot M 110
were growing a new M 110
were class i and M 110
were about a boy M 110
well though i had M 110
well anything i see M 109
were passing a new M 108
were meeting a lot M 108
were holding a job M 108
well until i read M 108
week period i was M 108
wealth which a long M 108
were working a year M 106
were under a sad M 106
were under a long M 106
were shown a real M 106
were sharing a box M 106
were reaching a head M 106
were never a bad M 106
were found a day M 106
well spend a lot M 106
were running a long M 104
were pulling a long M 104
were never a not M 104
were cutting a deal M 104
went about a long M 104
well after a bad M 104
weary bones i lay M 104
were working a ten M 102
were still a law M 102
were sitting a long M 102
were sharing a seat M 102
were playing a war M 102
were playing a day M 102
were missing a key M 102
were hurting a lot M 102
were creating a bad M 102
were after a big M 102
well shall a man M 102
week later a few M 102
were where a man M 100
were running a new M 100
were playing a two M 100
were others i was M 100
well offer a way M 100
well after a bit M 100
were either a bit M 99
were shown a red M 98
were pulling a big M 98
were alike a man M 98
went until i got M 98
went after i had M 98
week twice a day M 98
were holding a red M 97
were after a year M 97
were winning a new M 96
were really a war M 96
were girls i had M 96
were getting a job M 96
were freed a year M 96
were found a box M 96
wept quite a bit M 96
well until a day M 96
well admit i was M 96
week where i had M 96
were within a six M 95
week after a man M 95
were thrust a few M 94
were thinking i had M 94
were saved a lot M 94
were really a few M 94
were reaching a low M 94
were holding a lot M 94
were getting a dog M 94
were fitting a new M 94
were cutting a way M 94
were class a and M 94
week after a two M 94
were words i was M 92
were showing a few M 92
were rather a few M 92
were meeting a long M 92
were looking a long M 92
were given a going M 92
were fixed a few M 92
went rather a long M 92
went again a few M 92
well until a man M 92
well start a war M 92
weary while i was M 92
were working a long M 90
were which i saw M 90
were shown a path M 90
were seeking a path M 90
well within a man M 90
were until i read M 88
were showing a real M 88
were really a poet M 88
were never a kid M 88
went hunting a lot M 88
were showing a net M 87
were still a key M 86
were really a boy M 86
were getting a far M 86
were built a bit M 86
were breathing a new M 86
went broke a few M 86
were tried a year M 84
were seeking a long M 84
were really a joy M 84
were people a lot M 84
were others i can M 84
were often a real M 84
were often a dead M 84
were given a dry M 84
were found a bit M 84
were either a man M 84
well after a meal M 84
week after i ran M 84
week about a new M 84
weary after a few M 84
were thinking a few M 82
were taken a bit M 82
were sorry i did M 82
were signing a death M 82
were shown a big M 82
were sharing a few M 82
were right a year M 82
were rather a bad M 82
were holding a new M 82
were about i can M 82
went within a year M 82
went round a bit M 82
well until i see M 82
well knows i can M 82
west until a few M 80
west could i see M 80
were sharing a bag M 80
were breaking a new M 80
went round a long M 80
went below a few M 80
well blame a man M 80
week where i can M 80
well which i had M 62
west about a year M 61
were given a war M 48
were given a near M 46
well could i bear M 46
were really a law M 44
were keeping a day M 44
were given a mid M 44
were under a one M 43
were often a far M 43
were shown a ten M 42
were given a pro M 42
well within a two M 42
were running a war M 41
were playing a man M 41
well again i was M 41
were given a team M 40
were given a dog M 40
well which i was M 40
well quite a few M 40
were driving a car D 1936
were burying a man D 1418
were talking a lot D 1312
were forging a new D 1168
week later i met D 1136
were getting a raw D 1092
were given a hot D 1075
were holding a gun D 830
were dancing a jig D 774
were telling a lie D 732
were talking i was D 728
were reaching a peak D 677
were setting a bad D 662
were sharing a bed D 661
were wasting a lot D 582
were given a bath D 578
week after i met D 562
were setting a new D 528
were mingled a few D 494
were talking a few D 490
were digging a pit D 478
were given a bed D 474
were cooking a meal D 462
were sharing a pie D 438
were digging a new D 434
were withal a mean D 430
weed which i had D 412
were given a thin D 384
were given a tax D 366
were staging a sit D 342
were holding a pow D 340
were milking a cow D 318
were driving a new D 310
were talking i had D 302
were given a car D 296
were driving a team D 292
were shaking a bit D 290
were blazing a new D 282
were turning a deaf D 278
were talking a man D 276
were given a raw D 275
were fired a few D 272
were quite a hit D 266
were playing a gig D 266
were given a tin D 256
were framing a new D 250
were talking i saw D 248
were throwing a big D 246
were given a cue D 238
were people i met D 236
were talking a long D 234
were given a mug D 234
went fishing a lot D 232
were dancing a war D 230
were given a hut D 226
were given a tip D 222
well shave a lion D 220
were shown a row D 212
were given a gun D 210
were driving a big D 208
were burying a dead D 206
were throwing a lot D 204
were thrown a few D 202
were drawing a bead D 202
were shooing a fly D 194
were sending a car D 192
were hailing a cab D 190
well repay a few D 182
were under a hot D 178
were hailing a new D 164
were sharing a pot D 162
were given a pep D 160
were driving a long D 160
were talking a bit D 157
were given a per D 155
were passing a row D 154
were given a cow D 152
were sorting a set D 148
were pouring a hot D 148
were smoking a lot D 144
were ranged a row D 144
were really a spy D 142
were killing a cow D 142
were driving a cab D 142
were given a fee D 141
were shown a hut D 136
were driving a few D 136
went fishing a few D 136
well since i met D 134
were still a cop D 132
were driving a red D 130
were fined a sum D 126
were faces i had D 126
were chasing a fox D 126
were running a fox D 122
were petting a cat D 122
were holding a pen D 120
were busting a gut D 120
were walking a thin D 118
were still a gay D 118
were killing a pig D 118
were renting a car D 116
were hunting a fox D 116
were driving a van D 116
were digging a big D 116
well under a tap D 116
were under a seal D 114
well repay a long D 114
weir under a head D 114
were talking i got D 112
were still a hot D 112
were pushing a car D 112
were levying a tax D 112
were sipping a cup D 108
were selling a car D 108
went thrice a year D 108
were given a par D 107
were within a rod D 106
were telling a new D 106
were molding a new D 106
were grazing a few D 106
were digging a long D 106
were dancing i had D 106
well until i met D 106
week since i met D 106
were piled a few D 104
were given a pat D 104
were driving a lot D 104
were mending a top D 102
were given a seal D 102
were chasing a car D 102
were tasting a new D 100
were liker a man D 100
were given a pot D 100
wearing quite a bit D 100
were teased a lot D 98
were sinking a new D 98
were given a fat D 98
were fined a few D 98
went under a bus D 98
were throwing a net D 97
were passing a car D 96
were seated a row D 94
were driving a cow D 94
were changing a lot D 94
wears quite a new D 94
were still a lad D 92
were issuing a new D 92
were holding a hot D 92
were fishing a few D 90
were carving a new D 90
were camping a few D 90
were ramming a cap D 88
were placing a bet D 88
were boiling a pot D 86
went thither a few D 86
well after a bath D 86
wearing quite a lot D 86
were quite a fad D 84
were others i met D 84
were given a bus D 84
were washing a car D 82
were sharing a cab D 82
were after a fox D 82
were shown a bed D 81
wearing either a hat D 80
were getting a tad D 47
