days when he was M 94672
days prior to due M 81099
data used in this M 77291
days when it was M 68938
days when he had M 51492
days from the day M 38189
data from the two M 30899
days went by and M 22684
days during the year M 21030
date when it was M 18533
date from the end M 18061
days when the sun M 14504
date back as far M 12434
dark side of things M 12128
date from the mid M 12023
days when we had M 11822
days prior to his M 11734
days when he and M 10878
date from the year M 10532
data from the new M 9735
data such as that M 9159
days from the end M 8817
dark side of his M 8188
data bearing on this M 7634
dark when we got M 7200
days prior to this M 7100
days prior to any M 7084
dark side of this M 6202
days when it had M 6170
days gone by and M 6102
days when he did M 6060
dark side of our M 6056
dark hair on his M 5812
data from the web M 5772
days prior to its M 5380
days when we are M 5180
dare look at him M 4848
days when the old M 4710
date from the day M 4639
days when the air M 4555
data type of each M 4534
date when the new M 4461
data from the old M 4306
data from the real M 4220
dark eyes of his M 4154
days upon the earth M 4070
days prior to and M 4058
date back to this M 4026
date when he was M 3970
days prior to that M 3907
days trying to get M 3874
days when no one M 3854
data will be read M 3811
data tell us that M 3769
days prior to her M 3764
days when the sky M 3756
dawn upon me that M 3728
days went on and M 3540
dare look at her M 3526
data used in our M 3504
data base is not M 3485
dark side to this M 3460
date list of all M 3436
days went by with M 3360
dark eyes as she M 3226
days when we did M 3220
data such as this M 3148
data such as age M 3060
data back to earth M 3023
data from the mid M 3005
dark side of her M 2914
dark eyes on her M 2906
date will be set M 2852
days into the new M 2841
days when the two M 2832
days prior to each M 2830
days gone by had M 2814
data must be read M 2757
data sets do not M 2753
date back to pre M 2693
data into the new M 2692
data type is not M 2620
date back to his M 2563
date back to that M 2551
days prior to our M 2550
days when the new M 2549
data from the six M 2538
days such as this M 2482
dark side of man M 2482
days from the death M 2406
days prior to death M 2401
days when the earth M 2370
data will be put M 2364
days past he had M 2352
days ahead of him M 2314
dawn upon us that M 2308
date prior to that M 2152
days prior to use M 2134
data from the area M 2134
data from the year M 2100
dark hour of our M 2100
days wore on and M 2094
days among the dead M 2062
days ahead of her M 2060
dark when he got M 2060
days just to get M 2054
data base so that M 2034
dare tell me that M 2030
dare speak to him M 2026
dark side of god M 2023
days when the men M 2020
days during the war M 1986
days gone by was M 1946
days ahead of them M 1932
data from the end M 1929
date from the pre M 1922
dark eyes on him M 1904
date from the age M 1890
date when the act M 1888
dark days of his M 1888
data into or out M 1821
days when we can M 1762
days here on earth M 1762
dark from the sun M 1747
dark side of that M 1746
data also do not M 1734
days prior to being M 1696
data from my own M 1660
days will be long M 1659
days when we all M 1636
days there is not M 1636
days when he has M 1618
days when he sat M 1602
dark days of war M 1591
date from the era M 1582
data from the pre M 1578
dark eyes to his M 1576
dare speak to her M 1572
dark days of our M 1546
days some of them M 1544
data from the top M 1534
data over the web M 1514
days when the war M 1480
data sets in this M 1478
dark when he was M 1476
days when he does M 1470
days most of them M 1464
data base of this M 1443
data once it has M 1440
data such as are M 1418
data show is that M 1416
data base of all M 1415
date from the old M 1414
days many of them M 1402
dark during the day M 1384
data base is being M 1381
dark look on his M 1374
date during the year M 1365
dark hour of his M 1356
dark hair of his M 1352
dark side to his M 1334
dark ages it was M 1329
days when it did M 1320
days from the due M 1318
days went by she M 1316
data file is not M 1303
days more he was M 1296
data from the long M 1276
date when he had M 1269
days gone by they M 1264
dark eyes as they M 1256
data item is not M 1251
data sets is that M 1250
dark hair on her M 1246
dark blue of her M 1246
data base is that M 1244
dark eyes of her M 1240
days were so long M 1228
data back to its M 1228
days when the red M 1214
data from the one M 1201
date must be set M 1194
days into the war M 1193
days when he can M 1188
data from the east M 1183
days ahead of you M 1180
date there is not M 1178
dark hair as she M 1168
data have so far M 1166
dark eyes on his M 1146
days gone by that M 1126
date from as far M 1126
dare tell me you M 1110
date from the new M 1105
dark blue of his M 1100
dark line of his M 1094
data from the mean M 1092
days ahead of his M 1084
dark when we set M 1074
days down to our M 1050
dark look in his M 1046
dark when the sun M 1036
data sets of this M 1028
days when the law M 1025
data file so that M 1024
data from the non M 1016
data base in this M 1016
days when he got M 1006
dark blue or red M 1006
data from an old M 1000
dawn when the sun M 994
dare look at his M 988
data from the few M 980
data sets is not M 966
dark days of her M 958
data flow to and M 956
days when he saw M 942
days more to get M 936
dark when the two M 935
data from the low M 925
dare even to die M 922
days when he ran M 916
days when the heat M 915
dare look at each M 912
data must be put M 906
dark when we get M 902
days left to him M 900
dark hair at his M 900
dark side of its M 884
dark side of all M 882
days gone by with M 876
data type to use M 876
data used in its M 874
dark mass of men M 872
data from an area M 865
days till the end M 858
data sets so that M 855
data prior to its M 854
days more of this M 846
dark when it was M 844
dare speak to you M 844
days when we sat M 840
days gone by are M 840
data from the air M 836
data from the ten M 832
dark side of earth M 829
data from the earth M 814
days when the idea M 812
days when it has M 810
data rate is not M 810
date from the war M 808
days when the big M 806
days when we saw M 804
days when it does M 804
days gone by for M 804
dark mass of her M 802
data from the use M 790
date when the sun M 787
data held in any M 786
days were up and M 784
dark ages of our M 774
date back to its M 770
data seem to fit M 766
dark part of her M 766
date when the law M 763
dark side to all M 762
days when the man M 760
data from the log M 758
days past we had M 754
dare call me that M 752
data even if they M 746
dark side of him M 744
data type of this M 742
data used to fit M 740
data type of its M 740
dark down on her M 734
data have as yet M 726
date prior to his M 724
dark room is not M 720
days during the dry M 716
days wore it all M 714
data used in each M 714
data along the way M 714
dare look on that M 714
days when the area M 708
data type so that M 708
data base is too M 708
dark when he had M 706
data have to say M 704
days when we got M 696
dare look at them M 696
dawn upon the earth M 694
dark side to him M 694
data just do not M 692
days when we both M 688
days from the new M 688
days just to see M 686
data must be set M 684
data type is one M 683
days gone by this M 674
dark when we had M 674
data over the air M 666
days went by they M 660
data from the who M 656
data give an idea M 654
days gone by has M 650
data base is one M 649
days when the son M 648
dawn when it was M 648
dark part of his M 646
data show us that M 644
data item is read M 641
data type is that M 639
data base is now M 638
days when he won M 634
dark room so that M 630
date back so far M 625
date when the old M 619
dark view of things M 618
days during the two M 616
data seem to bear M 606
days when he read M 604
data from the may M 601
date from the death M 599
days till he was M 598
data into the two M 598
days left to get M 596
dark side to her M 596
days when we read M 594
data type of that M 594
data rate of each M 594
dark side is not M 594
data used in his M 590
date when the two M 583
dare talk to him M 580
dark face of his M 576
dark side of one M 575
dark side is that M 574
days from the year M 572
date back to her M 570
data here do not M 570
dark hair to her M 570
days like the one M 566
days when he too M 560
date till the end M 560
data used in that M 558
data flow is not M 558
dark hair to his M 558
days when he lay M 552
days went by that M 552
data when it was M 552
dark hour of her M 548
dare talk to her M 548
days gone by she M 546
date when it had M 546
dash back to his M 546
days when he led M 544
days when as yet M 540
days pass by and M 538
days left in this M 538
date from an age M 536
data sent to and M 536
dark eyes in his M 536
days when the use M 534
days more in this M 534
data just as you M 532
dawn when he was M 526
dark days of that M 520
dawn came up and M 518
date back to our M 513
days when we get M 510
days just as they M 506
dark when the men M 502
dark eyes to her M 502
dark angel of death M 502
dawn when he had M 501
days left in his M 500
days were so far M 498
data just as they M 498
dark hole in his M 498
days when the east M 496
days past it has M 494
dark hair of her M 494
days when we hear M 490
data base is then M 490
dark side to our M 490
data from it and M 486
days past he has M 484
dawn came it was M 484
data bank of all M 484
dark side of new M 483
days when the boy M 482
date prior to its M 482
date from an era M 482
data type by using M 480
days when the kings M 478
days past the due M 478
days gone by you M 478
days ahead of its M 478
data used in all M 478
days told me that M 477
days used to say M 474
data from the head M 470
dark side of any M 470
days over the year M 469
date from the song M 466
data from the all M 466
dark ages as far M 465
days here in this M 464
days when the mean M 461
date most of them M 461
data file is read M 461
dark eyes at him M 460
days when it all M 458
days went on she M 458
days some of our M 458
data sets by using M 456
data form to add M 456
dark side of them M 456
dark years of war M 454
dawn upon us with M 452
date when it has M 451
data from the job M 451
days back he had M 450
data type in this M 450
dark part of our M 450
data from the near M 449
dark room of his M 448
days when the poet M 446
data prior to that M 446
date from the two M 441
data same as for M 440
data from the map M 440
dark when he saw M 440
data rate is low M 439
days till he had M 438
days more he had M 438
days even if they M 438
dawn came he was M 438
data type of any M 438
dark side of being M 438
days were so few M 436
data flow in and M 436
dark mass of his M 436
days ahead of our M 434
data from the red M 434
days when the long M 432
data base on all M 432
dark look in her M 428
days during the six M 427
data file is then M 427
data prior to and M 426
days will be cut M 424
days most of our M 424
days when no man M 422
dark band on each M 422
dare call it that M 422
days prior to may M 421
days when it may M 420
data bits in each M 418
data used in both M 416
data from it are M 416
days went by his M 414
days gone by who M 414
dare look at you M 414
dark cloth of his M 412
days were to end M 408
days into the job M 408
date when he has M 407
data used in any M 406
data coming in and M 406
dark eyes to him M 406
days just do not M 404
data item in each M 404
dark hair in his M 404
dare turn my head M 404
days some of his M 402
days gone by but M 402
data type of all M 402
dark years of his M 402
date none of them M 401
days will be few M 398
date when it may M 398
data only if they M 398
date some of them M 395
date when the war M 394
data used to set M 392
dare take it out M 392
date many of them M 391
days along the way M 390
data from the cat M 390
days into the year M 389
days none at all M 388
days when the dead M 386
data type to each M 386
dare look to see M 386
date when it can M 385
date when we can M 384
dark eyes he had M 384
dark areas of our M 384
data will be for M 382
dark when no one M 382
date some of his M 381
days from the old M 380
dark when we saw M 380
dark eyes at her M 380
data sent to them M 378
data from the day M 376
data base to see M 376
data base by using M 376
dark hair in her M 376
dark gate of death M 376
days will be one M 374
days when the head M 374
dark room in his M 374
days there is but M 372
data over the long M 372
date time of day M 370
data from the far M 370
dark line of her M 370
data type is set M 369
data from the set M 369
days back we had M 362
dark view of his M 362
days during the long M 360
data rate on each M 358
dark side of war M 357
data prior to any M 356
dark room to see M 356
days when if you M 354
days gone by than M 354
dark eyes in her M 354
days when the one M 352
dawn came up out M 352
data used do not M 352
data prior to this M 352
data leading to this M 352
data during the year M 351
days more it was M 350
days from the east M 350
dare look at one M 349
days work in one M 348
data flow in one M 348
data file if you M 348
dark days of may M 347
dawn from the east M 346
dark eyes of this M 346
date back to one M 345
data file to use M 345
days many of our M 344
date must be put M 344
data used by all M 344
dark cave of his M 344
days seem so long M 343
dare tell us that M 342
data used to run M 340
dare speak to them M 340
days when we see M 338
data used by this M 338
days when my own M 336
days ahead of that M 336
dark look on her M 336
dark side of each M 334
dark part of him M 334
dare take it off M 334
days went on with M 332
data when it has M 332
data used by each M 332
data base to use M 331
days when he goes M 330
dark days of its M 330
dare speak of them M 330
date prior to this M 329
days when the real M 328
date next to each M 328
data will be set M 328
dark face of her M 328
dark days of old M 326
days when it can M 324
days what he had M 324
dark trying to get M 324
dark time in his M 322
dark part of each M 322
dark fire of his M 322
data such as how M 321
days even if you M 320
data even if you M 320
dark side of men M 320
dark ahead of them M 320
days past it was M 318
dark sort of way M 318
dare tell me how M 316
data during the day M 315
days nothing at all M 314
data type is for M 314
data held by him M 314
dark time in our M 314
days were to bring M 312
days five or six M 312
dawn said as she M 312
data from the eye M 312
dark hair at her M 312
dark fire in his M 312
data sets to see M 311
days when the death M 310
days what it had M 310
days what is now M 310
days left of his M 310
date must be not M 310
data there is one M 310
data bank is not M 310
dark page in our M 310
dark face as she M 310
dare talk to you M 310
dare swear he has M 310
days there is one M 309
days trying to see M 308
data held on them M 308
dark view of man M 308
dark side to them M 308
dark came on and M 308
date back to old M 307
days will be all M 306
days when the going M 306
data lies in its M 306
dark ages is not M 306
days past it had M 304
days none of them M 304
dark eyes of that M 304
dark days of this M 304
data will be one M 303
data show the mean M 303
days lost in all M 302
days came to him M 302
data into it and M 302
days when the team M 299
data bearing on its M 299
days what he was M 298
data will be too M 298
data item in its M 298
dark hole of his M 298
data from the url M 297
data flow in both M 297
date most of his M 296
data type is being M 296
days early so that M 295
data file by using M 295
days when we ran M 292
days what it was M 290
days during the wet M 290
data only as long M 290
dark eyes as his M 290
dawn when the sky M 288
data file is being M 288
dark when we are M 288
dare tell me this M 288
days back in new M 286
data seem to say M 286
data base on this M 286
date back to may M 284
dark wood of his M 284
dark side to that M 284
dark hair is cut M 284
dark line on each M 282
dark even to see M 282
dark days it was M 282
data sets at each M 280
dare come to her M 280
days were it not M 278
days left on his M 278
date many of his M 278
data base in its M 278
data rate of one M 276
data item in one M 276
data from the sun M 276
dark line of our M 276
dare hope to see M 276
days when the now M 275
date from as long M 275
days till it was M 274
days past in this M 274
days here on his M 274
data there is not M 274
dark lady of his M 274
dark hair so that M 274
data such as mean M 272
data item is being M 272
data base do not M 272
dark time of year M 272
dark hour of death M 272
data will be that M 271
data from the war M 270
dawn came up with M 269
dark ages in our M 269
days will be too M 268
days were as long M 268
days seem to fly M 268
data sets of all M 268
dark lord on his M 268
dark hair in two M 267
days most of his M 266
date when he did M 266
data bearing on his M 266
data such as air M 265
days when he may M 264
days left of our M 264
dawn when the air M 264
date when he and M 264
data rate is too M 264
data base of its M 264
dark areas in this M 264
days when he ate M 262
data must be both M 262
data from the tag M 262
dark line of men M 262
dare hope is that M 261
days shut up with M 260
days left to them M 260
dare think of them M 260
dare even to ask M 260
days when in this M 258
days like an old M 258
days came up with M 258
dark half of each M 258
data from the key M 257
data tell us how M 256
data over the two M 256
dark hair on top M 256
dark form of his M 256
days more we had M 254
data word is read M 254
data sets in our M 254
date back to long M 253
days when so few M 252
date when the idea M 252
data item in this M 252
days when an old M 250
days left on this M 250
date most of our M 250
data when we are M 250
data over an area M 250
data rate is set M 249
data from the read M 249
data type as its M 248
data onto the end M 248
data base of our M 248
data base is far M 248
data base at any M 248
data back to you M 248
dark heart of man M 248
days were to him M 246
days pass on with M 246
data sets in each M 246
dark look at his M 246
dark hair as his M 246
date only as far M 245
days prior to day M 244
data sets we can M 244
data bearing on each M 244
dark side is then M 244
date fits in with M 243
days will be read M 242
days only it can M 242
days more we saw M 242
data from as far M 242
data bank so that M 242
dark room or box M 242
days went by her M 240
data used is not M 240
dark when he set M 240
dark depth of that M 240
daring kind of war M 240
days when the end M 239
data base on aging M 239
date when he can M 238
data sets of any M 238
data base on each M 238
dark there is not M 238
dark hour of its M 238
dark hand of death M 238
data bank is being M 237
data rate of this M 236
data onto the new M 236
date during the war M 235
days will be for M 234
days there on his M 234
days pass by with M 234
data used by both M 234
data base or any M 234
date even if they M 233
data from the big M 233
days when he set M 232
days left to her M 232
data sets of both M 232
dark gray on top M 232
data sets as they M 231
data from the age M 231
days went by this M 230
dawn when the two M 230
data were of two M 230
data used by them M 230
data used by him M 230
data flow in this M 230
data fits on one M 230
dark upon the earth M 230
dark hole in her M 230
dark heart of things M 230
days were to see M 228
days early to get M 228
data prior to using M 228
data from the bad M 228
dark look at her M 228
dark cave of her M 228
data like the one M 227
days wore on with M 226
dawn upon us and M 226
days from the one M 224
days ahead if you M 224
data type in each M 224
data bearing on them M 224
dare lift up her M 224
data used so far M 223
days prior to going M 222
data sets in one M 222
data base at this M 222
dark mark on his M 222
days when the top M 221
days made up for M 220
days early in may M 220
data type to any M 220
dark room at this M 220
date will be that M 219
days when the path M 218
days when the cry M 218
data type in that M 218
date when we are M 217
date from the one M 217
days when the year M 216
days till we get M 216
data base to aid M 216
dark when the old M 216
dark down on his M 216
dark ages of its M 216
days went on they M 214
days pass in this M 214
date when we may M 214
dark when he and M 214
dark till the dim M 214
date were it not M 213
days will be set M 212
date will be one M 212
data used by one M 212
data sets of each M 212
data into an easy M 212
data file in this M 212
dash into the air M 212
dare lift up his M 212
date prior to any M 211
data into an area M 211
days when the fear M 210
days there is going M 210
days more we may M 210
days left of her M 210
data bearing on that M 210
dash back to her M 210
dark heart of his M 210
dark fall of her M 210
dark blue is her M 210
daring even to ask M 210
dare think he has M 210
days among the new M 208
dawn from the top M 208
data type in its M 208
data from the men M 208
data base of any M 208
dark days he had M 208
dark ahead of him M 208
dare think of that M 208
days went by but M 206
days over an area M 206
days lost in each M 206
days just is not M 206
days ahead so that M 206
date work on this M 206
date used in this M 206
dark anger in his M 206
data when the two M 205
days when he put M 204
days were the two M 204
days there he was M 204
days many of his M 204
date when the job M 204
data type if you M 204
days when the dog M 203
days went on that M 203
days went by one M 202
days more in that M 202
days left of this M 202
days leading to his M 202
days gone by men M 202
date when the use M 202
dark heart of this M 202
dark days in our M 202
dare give me that M 202
days tell us that M 201
days when we may M 200
days there is too M 200
days ahead of this M 200
data such as its M 200
data sets we use M 200
data file is one M 200
dash line is for M 200
dark view of our M 200
dark sort of joy M 200
data item so that M 199
data base at all M 199
days when we ate M 198
days when the job M 198
days past my due M 198
dark road he was M 198
days over the two M 197
data sets to use M 197
days whom he had M 196
days drag on and M 196
data file to its M 196
dark were it not M 196
dark page in his M 196
dare look up and M 196
dare give me any M 196
data flow so that M 195
dark realm of death M 195
days when in his M 194
days left to run M 194
days during the one M 194
data base is set M 194
dark hand on her M 194
dark eyes he saw M 194
dare speak of him M 194
days during the mid M 193
data from the net M 193
days gone by may M 192
data into the web M 192
data from the tcp M 192
data bearing on our M 192
data bank on all M 192
dark well of his M 192
dark room he had M 192
dare speak at all M 192
dash down the path M 191
days such as that M 190
days fell in with M 190
data such as one M 190
data such as for M 190
data only in one M 190
data once it was M 190
data here is not M 190
data from the run M 190
dark side of both M 190
dark room it was M 190
data loss is not M 189
data file of all M 189
days when the few M 188
days from the age M 188
data type of one M 188
data such as web M 188
data sent by one M 188
dark time in her M 188
dark mass of its M 188
days unto the end M 186
days trying to fix M 186
days there to see M 186
days gone by our M 186
dawn till the sun M 186
date when the sum M 186
data rate in each M 186
data come in two M 186
dare even to try M 186
days from the top M 185
date there is one M 185
data used in one M 185
days were the old M 184
days only to see M 184
data seen so far M 184
data bearing on all M 184
dark part of this M 184
dark form of this M 184
dare turn to see M 184
dare take an oath M 184
dare make so dear M 184
days from the two M 183
data type do not M 183
days went so far M 182
days there in his M 182
date when he may M 182
dark heads of men M 182
days trying to put M 180
data word is being M 180
data from the fit M 180
data bits is odd M 180
data base is thus M 180
days gone by one M 179
days when we was M 178
days lost by each M 178
days four to six M 178
dawn coming on his M 178
data sets of two M 178
data over the old M 178
data come in and M 178
dark well of her M 178
data rate so that M 177
dare come to see M 177
days wore on she M 176
data sets we are M 176
data past the end M 176
data held by them M 176
data from the team M 176
dark when the man M 176
dark hair on its M 176
dark days of fear M 176
dare look in her M 176
dare even to say M 176
date even if you M 175
data file in any M 175
dark days of mid M 175
days prior to bid M 174
data from the bar M 174
data base is weak M 174
dark land of death M 174
dark hall to his M 174
dark eyes of one M 174
days when the low M 173
date most of this M 173
days when the god M 172
days went by for M 172
days past the end M 172
days more we beat M 172
days ahead of any M 172
data from the death M 172
dark view of this M 172
dark blue to red M 172
dare look at any M 172
data from the dog M 171
days upon the way M 170
days came to his M 170
date book on this M 170
data such as his M 170
data base to its M 170
data base in any M 170
dark room or with M 170
dark knot of men M 170
dark from the sky M 170
dark curl of his M 170
days when me and M 168
days prior to ash M 168
days half of them M 168
data used by that M 168
data loss if you M 168
data from the off M 168
data from the his M 168
dark eyes do not M 168
dark days of new M 168
dark days he was M 168
dark areas of his M 168
dare speak of this M 168
dawn when we got M 167
dark mass of earth M 167
date when we had M 166
data flow in each M 166
dare look up for M 166
date must be that M 165
dare come to this M 165
days will do for M 164
data will be out M 164
data unit is not M 164
data sent to him M 164
data rate of any M 164
data moving to and M 164
data link is not M 164
dark when we sat M 164
dark hole is not M 164
dark hair he had M 164
dark blue of its M 164
dark areas do not M 164
dare speak up for M 164
days lost in that M 163
data base we can M 163
data word so that M 162
data will be both M 162
data type is now M 162
data must be easy M 162
data into the log M 162
dark side to its M 162
dark part of its M 162
dark lady in that M 162
dark form of her M 162
dark even by day M 162
days when we set M 160
days when it got M 160
days lost in this M 160
days came to see M 160
dawn when he and M 160
date when the poem M 160
date copy of all M 160
data base we are M 160
data along the path M 160
dark half of his M 160
dark hair in long M 160
dark eyes as her M 160
date prior to may M 159
data such as real M 159
days when no meat M 158
days such as are M 158
days came to her M 158
date range of this M 158
date line is not M 158
data type at all M 158
data sets it was M 158
data over the area M 158
data leave us with M 158
data item is one M 158
data base is its M 158
data bank of this M 158
dark mask of his M 158
dark mark on her M 158
days during the heat M 156
data were in and M 156
data used in them M 156
data such as job M 156
data sets in both M 156
data rate is then M 156
data base to get M 156
dare look in his M 156
dare lift my head M 156
days when my son M 155
days when the bad M 154
days were by far M 154
days died in his M 154
days coming up with M 154
days came to them M 154
date back to him M 154
data rate of all M 154
data here is that M 154
data base of each M 154
dark ages of his M 154
days will be with M 152
days till we got M 152
days much of his M 152
days much as they M 152
days back he was M 152
dawn when he saw M 152
data from the era M 152
dark side of you M 152
dark pits of war M 152
dark next to her M 152
dark line on his M 152
dark into the sun M 152
dark hair in its M 152
dare speak of his M 152
date back to mid M 151
days when the day M 150
dawn must be near M 150
data rate by using M 150
data from the way M 150
dark room to get M 150
dark gray to red M 150
dark back of his M 150
date from the use M 149
date file of all M 149
dash away the cup M 149
days were up they M 148
days more to run M 148
days gone by his M 148
days draw in and M 148
date from the long M 148
data used is that M 148
data part of each M 148
data only if you M 148
data must be for M 148
data gets to its M 148
dark wealth of her M 148
dark hall to her M 148
daring when he saw M 148
data such as can M 147
days when we lay M 146
days when the bow M 146
days went by too M 146
days come to all M 146
date when he saw M 146
data will be far M 146
data type of both M 146
data sets in real M 146
data rate in this M 146
data file is now M 146
data base is for M 146
data bank is that M 146
dark room we can M 146
dark blue on top M 146
dark arch of his M 146
daring many of them M 145
days made it his M 144
days left in may M 144
days here on this M 144
data from the mit M 144
dark there to see M 144
dark side in all M 144
dark room in her M 144
dark page of our M 144
dark hole of her M 144
dark depth of his M 144
dark cloth of her M 144
dare such an act M 144
date five or six M 143
data leads to two M 143
dark side of death M 143
days when we two M 142
days when we put M 142
days went on his M 142
days time it was M 142
days have we had M 142
days gone by all M 142
days back it was M 142
data when it does M 142
data when he was M 142
data type in one M 142
data sets on this M 142
data during the war M 142
dark room of her M 142
dark like it was M 142
dark hair as her M 142
dark face of this M 142
days over the new M 141
date from the act M 141
date back to two M 141
days wore on his M 140
days used to get M 140
days used in this M 140
days time he was M 140
days till we see M 140
days till the day M 140
days prior to using M 140
days prior to end M 140
days laid up with M 140
data size of each M 140
dark years of her M 140
dark till he was M 140
dark paths of this M 140
dark fury in his M 140
dark blue in this M 140
dare think of him M 140
dawn told me that M 139
data word is then M 139
dark ways of god M 139
dark even at mid M 139
days wore on they M 138
days will be that M 138
days will be but M 138
days full of joy M 138
dawn came in with M 138
date like the man M 138
date from the top M 138
data used is for M 138
data rate of that M 138
data prior to being M 138
data into the old M 138
data ends up being M 138
dark room at our M 138
dark hour in our M 138
dark eyes he was M 138
dark room in one M 137
days went on for M 136
days used to sit M 136
days till the year M 136
days only of each M 136
days only in each M 136
days more to see M 136
days late on his M 136
date from the going M 136
date from the area M 136
data sets in two M 136
data only on one M 136
data from it for M 136
data file to see M 136
data base of both M 136
dark next to him M 136
dark door of death M 136
dark ages of man M 136
dark ages of her M 136
days when the non M 135
days when the age M 135
data flow of this M 135
days seem to get M 134
days ahead of all M 134
data seem to lead M 134
data from the bit M 134
dark time the eye M 134
dark side to you M 134
dark gray of his M 134
dark ending to our M 134
dark days to her M 134
dark areas is not M 134
days from the mean M 133
dawn into the day M 133
dawn come up and M 133
date will be two M 133
data part of this M 133
days till we can M 132
days must be set M 132
days much of this M 132
dawn came we saw M 132
date book of its M 132
data rate is thus M 132
data make it easy M 132
data held in its M 132
data file is that M 132
data file in its M 132
dark side is too M 132
dark arch as she M 132
dare look at that M 132
date part of pre M 131
days will be far M 130
days into the air M 130
days among the men M 130
date have so far M 130
date data on all M 130
data sets or for M 130
data sets is one M 130
data from the dry M 130
dark hand he had M 130
dark fire in her M 130
dark days in his M 130
dark ages of this M 130
dare swear he can M 130
dare come to you M 130
data such as heat M 129
data base in one M 129
days when the way M 128
days used to run M 128
days there he had M 128
days such as new M 128
days more as you M 128
days into the run M 128
days during the off M 128
date when the real M 128
data type is new M 128
data type is any M 128
data type as that M 128
data item is then M 128
dark when the boy M 128
dark look as she M 128
dark hair is long M 128
dark grey of his M 128
dark eyes of all M 128
daring when it was M 128
dare speak of her M 128
dare leave me now M 128
data must be pre M 127
dash down the long M 127
dark side in that M 127
dark room to dry M 127
dare tell my dear M 127
days when the song M 126
days only or for M 126
days more so that M 126
days like the old M 126
days left on our M 126
days call no man M 126
date will be not M 126
data type in our M 126
data sets in all M 126
data must be fit M 126
data from the add M 126
data file is set M 126
data during the two M 126
data coming to its M 126
dark pits in his M 126
dark mark on each M 126
dark eyes on them M 126
dark eyes in that M 126
dark eyes at his M 126
daring play of his M 126
days from the sun M 125
data must be that M 125
dash into the earth M 125
days went by all M 124
days most of this M 124
days early in this M 124
data told us that M 124
data just the way M 124
data from it can M 124
data base or for M 124
data base in that M 124
dash over to see M 124
dark when we all M 124
dark hair as they M 124
dark coming on and M 124
daring plan he had M 124
dare show my head M 124
dare hint to her M 124
dash back to our M 123
dark when the air M 123
days will be dead M 122
days more at his M 122
date when he got M 122
data type is then M 122
data sent to you M 122
data paths to and M 122
data file on each M 122
data fall in this M 122
data base of one M 122
dark look at him M 122
dark hour of that M 122
dark body of men M 122
dark blue as her M 122
dare come to him M 121
days when my old M 120
days when it ran M 120
days were my own M 120
days used to set M 120
days pass on and M 120
days only if you M 120
days like the day M 120
days gone by can M 120
days from the use M 120
date there is but M 120
data will be easy M 120
data type in any M 120
data sets is then M 120
data file to read M 120
data base as they M 120
dark wood of our M 120
dark when we try M 120
dark paths of sin M 120
days told no one M 119
data will be all M 119
data from the goes M 119
days will the earth M 118
days trying to bring M 118
days just to read M 118
days come to see M 118
days back to her M 118
data type in both M 118
data such as our M 118
data size is not M 118
data sets to each M 118
data must be due M 118
data base in each M 118
dash over to her M 118
dark fire of her M 118
dark eyes of our M 118
date from the poet M 117
dare come to our M 117
days what it has M 116
days till he got M 116
days pass as they M 116
days must be read M 116
days coming to you M 116
days ahead to this M 116
data next to each M 116
data flow of each M 116
data base it was M 116
data bank is now M 116
data back to his M 116
dark wood of sin M 116
dark ways of sin M 116
dark till it was M 116
dark hand on his M 116
dare speak to each M 116
days take it out M 115
data base of real M 115
days when we and M 114
days were so bad M 114
days went by now M 114
days left on earth M 114
days have we not M 114
days came to this M 114
dawn went to her M 114
date work of its M 114
data type to and M 114
data sets to get M 114
data only by using M 114
data have in our M 114
data even if one M 114
dark hole in its M 114
dark heart of him M 114
dark eyes to see M 114
dark areas of this M 114
dark ages is that M 114
dawn when we see M 113
days past to see M 112
days must be few M 112
dawn when he got M 112
date sign up for M 112
data well at all M 112
data sent to that M 112
data once it had M 112
data just is not M 112
data item to its M 112
data item in that M 112
data during the run M 112
data bearing on both M 112
dark years of our M 112
dark wood on one M 112
dark side in his M 112
dark room he was M 112
dark room as they M 112
dark line on her M 112
dark hole he had M 112
date when the earth M 111
data show the age M 111
days when we too M 110
days more the sun M 110
days more in his M 110
days lost in any M 110
days here in new M 110
days have we sat M 110
days from my own M 110
days back in his M 110
dawn when the men M 110
date when an act M 110
date even in his M 110
data item is set M 110
data held in this M 110
data from the heat M 110
data base as being M 110
dark line of low M 110
dark like the earth M 110
dark face of god M 110
dark door we lay M 110
dare look on her M 110
dare even to put M 110
data must be one M 109
data base at one M 109
dash into it and M 109
days when tea was M 108
days when it led M 108
days when an idea M 108
days stay in this M 108
days same as for M 108
days late in may M 108
days have no idea M 108
days from the dead M 108
days during the new M 108
dawn upon me and M 108
dawn coming up and M 108
date will be for M 108
data type or any M 108
data rate in both M 108
data item by using M 108
data item at each M 108
data file in one M 108
data fail to fit M 108
data down to its M 108
data base in real M 108
data base in both M 108
dark void of his M 108
dark hour he was M 108
dark girl in her M 108
dark face of that M 108
dark eyes he has M 108
dark blue as his M 108
daring from the easy M 108
dare think of her M 108
dare move at all M 108
date when the map M 107
date such as that M 107
data such as has M 107
data base in two M 107
days were as yet M 106
days used to put M 106
days have an end M 106
days gone by did M 106
days during the day M 106
dawn were by this M 106
date when the east M 106
date must be one M 106
data sets it may M 106
data sent to this M 106
data range is not M 106
data prior to each M 106
data book of new M 106
data bits of each M 106
data base as one M 106
dark room to one M 106
dark room as she M 106
dark like the sky M 106
dark like an old M 106
dark down in that M 106
dark days in this M 106
dare talk to them M 106
days when the then M 105
days when we say M 104
days were as bad M 104
days upon the death M 104
days trying to buy M 104
days till the new M 104
days some of you M 104
days some of her M 104
days during the ten M 104
days came it was M 104
date when the death M 104
date early in this M 104
data will in all M 104
data such as they M 104
data sets is now M 104
data over the top M 104
data into the real M 104
data from it using M 104
data file do not M 104
data bits as they M 104
data base on its M 104
dark room of our M 104
dark part of that M 104
dark look of his M 104
dark face at this M 104
dark areas on its M 104
dark areas in our M 104
dark along the way M 104
daring plan of his M 104
daring part of his M 103
days when the weak M 102
days when the things M 102
days when on his M 102
days tell me that M 102
days more of his M 102
days full of sun M 102
days ahead as they M 102
data used to map M 102
data loss is due M 102
data held in each M 102
data have we for M 102
data base is and M 102
dark sort of man M 102
dark page in her M 102
dark hour in his M 102
dash over to his M 101
dark hair in one M 101
days when in her M 100
days were in all M 100
days told us that M 100
days past to get M 100
days even if she M 100
days early so they M 100
days down to his M 100
dawn came we had M 100
data type in all M 100
data such as new M 100
data sent by each M 100
data rate to use M 100
data only in its M 100
data fall on one M 100
data came up with M 100
data back to them M 100
data back to our M 100
dark time of our M 100
dark pits of his M 100
dark girl he had M 100
dark core of her M 100
dark blue as they M 100
daring pass up and M 100
dare speak to his M 100
days none of his M 99
dawn when no one M 99
dawn from the sky M 99
data held in one M 99
data file on all M 99
daring acts of this M 99
days when the dry M 98
days when it saw M 98
days time he had M 98
days speak of him M 98
days past of our M 98
days over the death M 98
days more to put M 98
days make up for M 98
days left in our M 98
days left in her M 98
days into my new M 98
days from the way M 98
days from the head M 98
days down to one M 98
days among the old M 98
dawn till it was M 98
data will be not M 98
data will be and M 98
data rate at each M 98
data item on each M 98
data into as few M 98
data from the now M 98
data from the com M 98
dark hour in her M 98
dark ages of pre M 98
dare think of going M 98
dare stop my way M 98
date prior to death M 97
data file of this M 97
days work in his M 96
days were of this M 96
days went on this M 96
days went by our M 96
days more so than M 96
days left in that M 96
days come the two M 96
days ahead to see M 96
date when he set M 96
data will be key M 96
data sent in each M 96
data into the one M 96
data from the and M 96
data file is too M 96
data base at that M 96
dark when we can M 96
dark room in this M 96
dark line is not M 96
daring step on his M 96
dare take my oath M 96
dare leave it out M 96
dare call my own M 96
data flow is that M 95
days when to get M 94
days were in any M 94
days three of them M 94
days prior he had M 94
days here in our M 94
days even to get M 94
date when the day M 94
date till the day M 94
data will be low M 94
data sets at this M 94
data held on each M 94
data from the sky M 94
data came in and M 94
data base is both M 94
dark when the eye M 94
dark line of this M 94
dark line of its M 94
dark ages in any M 94
dark ages as they M 94
dare tell me not M 94
date back to any M 93
dare turn it off M 93
days what we had M 92
days upon the old M 92
days trying to read M 92
days prior lo due M 92
days must be for M 92
days most of her M 92
days from the heat M 92
days during the pre M 92
days coming to him M 92
days back on earth M 92
days ahead as you M 92
date only of its M 92
date early in may M 92
data were as yet M 92
data such as who M 92
data sets in any M 92
data must be not M 92
data from the wet M 92
data from an off M 92
data fits in with M 92
data base as that M 92
dark when he let M 92
dark road he may M 92
dark hair he was M 92
dark cast to his M 92
dark blue so that M 92
dare tell the old M 92
dare speak to any M 92
dare hope it was M 92
dare break the law M 92
dawn upon it that M 91
date from the mean M 91
data during the pre M 91
data base if they M 91
days when the joy M 90
days when my head M 90
days till we are M 90
days more to bring M 90
days making up for M 90
days made it easy M 90
days fill the air M 90
days down to its M 90
days among my own M 90
date will be too M 90
date till the year M 90
date lies in its M 90
data word is not M 90
data when we see M 90
data were of this M 90
data prior to use M 90
data only as they M 90
data held in them M 90
dark wood of her M 90
dark when the new M 90
dark ways of this M 90
dark fire of our M 90
dark cell of his M 90
dark areas on this M 90
dare hold on long M 90
days prior to one M 89
data from the box M 89
days will be his M 88
days when he hung M 88
days were in his M 88
days were at this M 88
days there it was M 88
days more it had M 88
days many of its M 88
days lost by all M 88
days like it was M 88
days have we got M 88
days free of all M 88
days came in aid M 88
dawn like the day M 88
date will be may M 88
date when the long M 88
data when we use M 88
data type as you M 88
data show the two M 88
data rate in one M 88
data base in all M 88
dash over to him M 88
dark room to her M 88
dark grey or red M 88
dark face in her M 88
dark eyes on each M 88
dark core of his M 88
dare think of doing M 88
dare stay to hear M 88
dare speak of god M 88
dare come in and M 88
date wrong by two M 87
days were in this M 86
days think it any M 86
days some of this M 86
days said of him M 86
days hoping to see M 86
days here to get M 86
days here in his M 86
days down to this M 86
dawn upon me why M 86
dawn upon me how M 86
dawn came the sun M 86
date till the death M 86
data were at that M 86
data such as log M 86
data only in this M 86
data must be had M 86
data have no real M 86
data base we use M 86
data base in our M 86
data bank in this M 86
dark side in our M 86
dark room to lay M 86
dark room at one M 86
dark reach in one M 86
dark lock of his M 86
dark just as she M 86
dark hair up and M 86
dark hair on them M 86
dark hair of our M 86
dark edge of her M 86
dark during the long M 86
dark days of long M 86
dark cast of his M 86
dark along the path M 86
daring look in his M 86
dare talk to each M 86
dare take it for M 86
dawn when the day M 85
date list of his M 85
date from the six M 85
data such as area M 85
dash when he was M 85
days were of too M 84
days were in that M 84
days used to bring M 84
days time we had M 84
days such an act M 84
days land at her M 84
days even in this M 84
days early in his M 84
days back to his M 84
days ahead to get M 84
date when the year M 84
date list of its M 84
data were it not M 84
data such as long M 84
data such as key M 84
data speak to this M 84
data show the low M 84
data from the law M 84
data from as few M 84
data fall on two M 84
data base of that M 84
dark time of his M 84
dark room of this M 84
dark lady is not M 84
dark hour it was M 84
dark hair is not M 84
dark core of our M 84
dark ages we did M 84
date when it did M 83
days work is don M 82
days when the cat M 82
days trying to set M 82
days time to get M 82
days nothing of any M 82
days more we got M 82
days many or few M 82
days held in his M 82
days free of any M 82
days come to him M 82
date seem to fix M 82
data from the can M 82
data base as new M 82
data base as its M 82
dark wood of its M 82
dark ways of death M 82
dark side to god M 82
dark over the earth M 82
dark line of them M 82
dark hint or two M 82
dark half of our M 82
dark eyes it was M 82
dark bark in two M 82
dark areas in its M 82
dare come to his M 82
date once it has M 81
days when the bar M 80
days what we now M 80
days send to him M 80
days seem to run M 80
days just as you M 80
days during the end M 80
dawn upon me now M 80
dawn felt the new M 80
data when we can M 80
data were in all M 80
data have by now M 80
dark what it was M 80
dark ways of that M 80
dark void of death M 80
dark threat of war M 80
dark side in her M 80
dark hair on that M 80
dark cave of our M 80
dark ahead of her M 80
dark ages in this M 80
data sets in that M 73
date back to and M 72
date from the east M 70
data over the net M 67
date from the far M 64
date much of this M 62
data flow is one M 61
date none of his M 60
date there do not M 57
date many of our M 56
date back to far M 56
data into the top M 56
data from the sat M 56
dash over the top M 56
date much of his M 54
dawn upon the long M 53
date tell us that M 53
date from so far M 53
date even as they M 53
data over the ten M 53
date many of its M 52
dash upon the rear M 52
date some of our M 51
date early in his M 51
dark grey on top M 51
dawn upon us all M 49
date during the day M 49
data from an end M 49
dash from the rear M 49
dark areas so that M 49
dare come so near M 49
dawn when we are M 48
dawn when the old M 48
date back to man M 48
date back by one M 48
data only in that M 47
data link so that M 47
data from an age M 46
daring theory is that M 46
days from the then M 45
data such as year M 45
data rate is one M 45
data paths so that M 45
data from the out M 45
days only in that M 44
date back as long M 44
data from the lead M 44
data from an air M 44
days when the six M 43
days into the two M 43
data over the six M 43
data form so that M 43
dash into the new M 43
days when the eye M 42
days when my dear M 42
days were as far M 42
date when the man M 42
date some of its M 42
date from the law M 42
dash home to get M 42
dark side so that M 42
dare tell no one M 42
date there is this M 41
dash back to new M 41
daring when he was M 41
days during the may M 40
date when we get M 40
date such as this M 40
dash back the way M 40
dark side of day M 40
dating from the end D 28771
dating from the mid D 21455
dating from the year D 13942
dating back as far D 13314
dating back to his D 10054
dating from the day D 4624
dating back to pre D 4158
dating from the pre D 3460
dating back to its D 3392
dating from the old D 2760
data from the bus D 2550
dating from the age D 2322
damn sure do not D 2259
dating back to her D 2174
dating from the era D 2131
dating from the war D 2100
dating back to that D 1860
damn well it was D 1859
dating from as far D 1810
damn sure is not D 1661
damn well do not D 1614
dating from the new D 1577
data disk or see D 1540
days during the tax D 1529
damn hard to get D 1508
dating back to this D 1494
dark skin of his D 1490
dating from the death D 1462
damn well he was D 1442
damn glad to see D 1404
date when the tax D 1333
dark spot on his D 1308
damn sure of that D 1160
dating from the tang D 1149
dash line in fig D 1122
dark spot on each D 1118
damn good thing you D 1046
data onto the bus D 1014
data mining is not D 1007
damn glad to get D 1004
dating back to our D 982
dart into the air D 962
damn many of them D 940
damn sure he was D 935
data card is read D 915
damn nice of you D 887
data used in fig D 878
dark spot in his D 856
data from the ram D 844
dating from the sung D 840
damp from the heat D 836
damn well is not D 818
damn good at all D 813
days flew by and D 798
damn sure it was D 795
damn good to see D 759
dark skin of her D 746
damp from the dew D 731
damp cloth on her D 720
dark spot on her D 690
days when the art D 670
dark gaze on her D 666
data from the raw D 655
dating from the song D 654
days when we met D 646
data mining is that D 640
data from the rat D 631
data over the bus D 614
damp from the bath D 605
damn fool if you D 604
data will be fed D 598
damp cloth to her D 564
dark brow at her D 560
damn well he did D 546
damn good thing for D 546
damn good thing that D 544
damn sure he did D 543
dark spot in our D 540
damp cloth on his D 534
data from the tax D 530
dating back to may D 520
date from the tang D 512
dart upon it with D 507
damp skin of his D 506
date rape is not D 501
days when the fog D 498
damn well he had D 490
dating back to long D 489
damn what he does D 488
damn good thing too D 482
dark line in fig D 474
date will be met D 456
days were so hot D 454
data from the cad D 450
days when he met D 446
damp from the fog D 445
dark blot on his D 444
days sped by and D 432
dark fringe of her D 432
data such as sex D 430
dark pink or red D 430
date from the sung D 426
dating from the ice D 424
dawn from the bed D 412
dating from an age D 412
dark spot on its D 412
dark rays of heat D 409
days during the peak D 404
damp spot on her D 402
damn what he did D 401
dark blue sea and D 400
dark spot in this D 398
dark mole on her D 396
dating back to old D 395
days during the hot D 392
dark silk of her D 392
dash from the car D 388
damn sure no one D 388
dart upon me and D 384
dark pink to red D 384
dating from an era D 382
data from the row D 376
damp cloth to his D 376
dating back in its D 370
days from the egg D 368
data into the ram D 366
dark spot in her D 362
dark suit he had D 360
dark spot in its D 358
dark silk of his D 358
damp skin of her D 358
damn good at this D 354
data sets in fig D 350
days sick in bed D 348
damp from the wet D 345
data must be fed D 338
data mining is one D 336
dark gleam in his D 334
days when the trio D 332
dark when the bus D 332
damp spot on his D 330
data from the lab D 326
dating from the two D 325
dark vale of death D 325
damn good of you D 322
damn fool he was D 322
dark womb we did D 320
damn good at his D 319
dating from as long D 317
dating back to one D 316
dating back to mid D 308
damp hair on his D 306
data from the gas D 301
darn glad to get D 296
days when he sang D 294
data from the pew D 292
dale told me that D 290
dark spot on one D 288
days when the ice D 285
data from the mac D 284
dark skin is not D 282
dating back to age D 278
damn good in bed D 277
data mining is being D 276
damn sure he does D 276
dating when he was D 272
damn well we can D 272
darn well it was D 271
days slip by and D 270
dark side of sex D 270
damp hand on her D 268
damp cloth so that D 267
data from the bay D 266
damn good thing they D 266
dark beard on his D 264
data mining in this D 263
days rest in bed D 260
data held in ram D 256
dark areas in fig D 256
damp from the day D 251
damn good at that D 251
days when the car D 240
date palm is not D 238
days when the oil D 237
data from an ole D 237
date from the pop D 235
damn glad to hear D 235
days when the hot D 234
damn fool to let D 234
data from the sub D 232
dark spot at its D 232
darn hard to get D 231
dark tint of his D 230
data from the abs D 229
days were as hot D 226
dating back to two D 226
dark tone of his D 226
dark like an owl D 226
damn good thing she D 226
data from the ins D 225
days when my dad D 222
dating back to and D 222
dare avow it was D 222
dating back so far D 218
dark mole on his D 218
darn nice of you D 217
damn good to him D 216
dark suit he was D 214
damn good at her D 213
data from the sex D 212
dark gaze of her D 212
damn what it was D 210
days flew by with D 208
dark tips of her D 208
dark glow of his D 208
dare aver is that D 208
damn good in his D 207
dawn tinged the sky D 204
damn well it does D 204
darn well he was D 202
dark when the car D 202
dark bulk of his D 202
damn sick of this D 201
dark gleam of his D 200
damn sure it does D 200
data from the oil D 199
damn nice of him D 197
dark blue sea was D 196
days used to wear D 194
damp hair at her D 194
damn fool to try D 194
days when the lion D 192
date must be met D 192
date palm is one D 190
dark womb of our D 190
dark gold of her D 190
data from the ice D 189
damn sure he had D 187
data tend to lie D 184
damp hair as she D 184
dating back to sir D 182
dark mood of his D 182
dark glow of her D 182
dark glow in his D 182
damp hand on his D 182
dating some of them D 180
dark gold of his D 180
dark soul of man D 178
damp sand or earth D 177
damp cloth or mop D 176
damp cloth in her D 176
damn glad he was D 175
days drew in and D 174
data from the car D 174
dash line of fig D 174
damp ends of her D 174
dash over the ice D 170
damp cloth or with D 170
days when the seas D 168
dating from the long D 168
dark halo of our D 168
damn fool to get D 168
dark when we met D 166
days went to bed D 165
data such as tax D 164
dark moss on its D 164
dark fuzz on his D 164
damp wool of his D 164
days roll by and D 162
dart from the sky D 162
damp cloth on top D 162
days upon the ice D 160
dark veil of her D 160
dark tint as you D 160
data such as fig D 159
data from the sap D 159
darn glad to see D 159
days more in bed D 158
dark womb of his D 158
dark tide of his D 158
dark wall of his D 156
dark pool of his D 156
dark orbs of his D 156
damp cloth in his D 156
damn sure he got D 156
dale sent to ask D 156
days when the earl D 154
data byte is read D 154
dark when we hit D 154
days took up his D 152
data seen in fig D 152
dark gaze of his D 152
dark blot on our D 152
damn glad it was D 151
dark womb of earth D 150
dark pool of her D 150
dark bars on its D 150
dating from the six D 149
damp from the earth D 149
dark spot on our D 148
damp hair on her D 148
damp cloth of his D 148
damp ball in her D 148
dating from the eve D 146
date from the ice D 146
dark wool of his D 146
dams along the way D 146
damp hand in his D 146
damn well it had D 146
damn well he has D 146
data from the ace D 145
damn fool thing you D 145
days when the bus D 144
days slip by with D 144
dart away in all D 144
dark veil of death D 144
damp silk of her D 144
damp cloth as you D 144
dame over the way D 144
data over the wan D 142
data disk if you D 142
damn fool thing for D 142
dark spot on this D 140
damn well if you D 137
dark skin on his D 136
dark blur of his D 136
damp palm on her D 136
daring finger on its D 134
damn well he can D 134
days when the dew D 133
date when the ice D 133
damn hard to see D 133
days flew by for D 132
data from the peak D 132
dark veil of his D 132
dark tint in all D 132
dark spot of his D 132
dark lane or two D 132
days when the gas D 131
data from the bis D 131
dark beer or ale D 131
damp pads the gut D 131
damn sure it did D 131
damn good if you D 131
dating some of his D 130
darn sure do not D 130
dating from the far D 129
damn good to hear D 129
dating gave an age D 128
dating from the poet D 128
dart from the air D 128
dark fringe of his D 128
damp kiss on her D 128
damn good to you D 128
data from the imp D 127
data byte is then D 127
damp sand or peat D 127
dark scar on his D 126
dark glow to his D 126
dark bank of fog D 126
dating back to new D 125
damn fool thing that D 125
days when the inn D 124
dating back as long D 124
data tend to bear D 124
damn much of that D 124
dark tint of her D 122
dark spot in each D 122
daring race of men D 122
dams made of earth D 121
damp sand or mud D 121
days when the fur D 119
damn well no one D 119
date rape is that D 118
dark wood of fir D 118
damp from the long D 118
damp ends of his D 118
damp cloth is all D 118
damn well we are D 118
damn glad he had D 118
data from the pan D 117
damn lazy to get D 117
data must be met D 116
data from an ado D 116
dark race of men D 116
damn well if they D 116
damn fool do you D 116
dame when he was D 116
days over the ice D 114
dating back as they D 114
data card is not D 114
dark spot at one D 114
dark rims of his D 114
dare troy or any D 114
dare throw it out D 114
dams such as this D 114
dale when he was D 114
dams like the one D 113
damn good in this D 113
days pacing up and D 112
dating from the act D 112
dark smear on his D 112
dark gulf of death D 112
damn well he does D 112
days when the mob D 110
days sped on and D 110
dark oval of her D 110
dark ogre of his D 110
dark line of fir D 110
dark gleam of her D 110
dame gave to his D 110
dawn raid on his D 108
damp kiss on his D 108
damn well we did D 108
dale said he was D 108
date when the car D 105
dating back in this D 104
date when the art D 104
data mining is and D 104
dark spot in all D 104
dark mane of her D 104
dark ages of art D 104
damp skin as she D 104
damp dews of death D 104
dale went to see D 104
dale said he had D 104
darn good thing that D 103
daring feats of this D 103
damn much to ask D 103
days sail of our D 102
days riding up and D 102
dawn when the dew D 102
dating used in this D 102
darn many of them D 102
dark gaze on him D 102
damn well it did D 101
days drew on and D 100
dawn into an art D 100
dart flung by his D 100
dark dome of sky D 100
damn what he was D 100
data such as per D 99
damp from the hot D 99
days when the tax D 98
days roll on and D 98
dating many of his D 98
dating from the dim D 98
dark wave the red D 98
dark wave of men D 98
dark hues of his D 98
dark brow at him D 98
dark band in fig D 98
damn fool is going D 98
data from the hot D 97
days from the pen D 96
data from the aha D 96
data byte in this D 96
dark spot at each D 96
dark glow in her D 96
dams such as that D 96
damp hand to his D 96
days when the pen D 94
data such as peak D 94
dart back to his D 94
damn well go out D 94
damn sick of being D 94
damn well go and D 93
dating only as far D 92
dart into the sky D 92
dark gleam in her D 92
dark bulk of her D 92
damp wool of her D 92
damp hair of his D 92
damn sure we get D 92
dale came to see D 92
dale came in and D 92
dark fuzz on her D 90
dark blue sea with D 90
damp hair at his D 90
damn fool he had D 90
days when sea and D 88
date during the tax D 88
dare break the seal D 88
damp cloth if they D 88
dame took it and D 88
days when the bay D 86
date when he met D 86
data from the dun D 86
darn good thing you D 86
dark wool of her D 86
dark brim of his D 86
damp nape of her D 86
damp cloth of her D 86
dale said to him D 86
days when the sap D 85
days prior to egg D 85
damn cold in this D 85
days took as they D 84
days slid by and D 84
days full of fun D 84
dark imps in and D 84
dark bulk of him D 84
dare avow to man D 84
damp cold of our D 84
days will be hot D 82
days sped by with D 82
dawn took in her D 82
dating from the use D 82
dating back to jean D 82
darn good thing for D 82
dark skin of its D 82
dark rays of this D 82
dare spit it out D 82
damp palm on his D 82
damp palm of his D 82
damn look on his D 82
dale said to her D 82
damn well so far D 80
damn hard to put D 62
damn glad he did D 57
damn good to her D 56
damn glad of that D 53
damp when it was D 51
daring work of art D 48
damn glad we did D 48
damn good to get D 47
data mining in that D 45
data from an oil D 45
dart from the sun D 45
damn sure to get D 45
damn good at being D 44
days among the ice D 43
dating back to man D 43
damp from the air D 43
damn sure we did D 43
dating back to near D 42
date rent is due D 42
damn what we did D 41
damn good on her D 41
days from the eve D 40
damp during the day D 40
damn what he had D 40
damn well am going D 40
damn hard to let D 40
