days later i was M 48386
days after i had M 24390
days later i had M 11798
days after i was M 10200
days later i got M 8756
days later i saw M 7656
days since i had M 7464
days after i got M 5674
days since i was M 3800
days later a new M 3314
days after a death M 2932
days while i was M 2838
days since i saw M 2828
days after i saw M 2506
days later a man M 2343
days after a new M 1538
days later i read M 1502
days until i can M 1480
date within a few M 1411
days later i ran M 1188
days until i was M 1124
days twice a year M 1105
days which i had M 992
days later i sat M 986
days later i did M 978
days later i set M 850
days after a long M 848
date until i was M 828
dawn after a long M 797
days after i did M 792
days later a long M 752
days later i get M 746
date within a year M 737
data which i had M 736
days until i get M 674
days later a few M 674
days after a man M 646
days until i had M 636
days after i get M 602
data within a few M 574
days after d day M 560
days within a few M 546
dark night i was M 546
days until i got M 528
days after i read M 526
days since i got M 510
days until i see M 500
data about a new M 480
days where i was M 472
days until a new M 416
days later i put M 406
days after a big M 400
date which i had M 394
days which i can M 390
days later a big M 384
days later a boy M 378
dark about a lot M 376
days after a head M 360
days within a year M 355
dark where i was M 336
days which i was M 328
days later i see M 322
days within a two M 317
days quite a few M 306
data about a few M 306
dark while i was M 286
days since i read M 262
days later a box M 254
data which i was M 246
date which i can M 242
dawn broke i ate M 234
days after i put M 230
dawn broke i was M 226
dare start a war M 226
data which i can M 218
days where i had M 216
days after i set M 216
date while i was M 190
days after a meal M 188
days later a law M 182
dark after a few M 180
days later i hear M 176
days after a bit M 176
dark after a long M 176
days twice a day M 172
days after a few M 168
data items a and M 168
days after a year M 166
days which i may M 164
dark night a man M 162
days where i can M 160
days within a one M 159
days while a new M 158
dark within a few M 157
dark until i was M 154
days until i saw M 150
days enact a law M 150
data until a new M 148
days since a man M 146
data within a year M 140
data after a few M 140
days while i get M 138
days later i can M 138
daring which a long M 136
date about a year M 135
data within a set M 135
days after a boy M 134
date within a day M 132
data about a job M 130
days quite a lot M 128
dark night a few M 128
days while i had M 124
days after a bad M 124
date since i was M 124
data about a set M 123
dark night i saw M 122
date until a new M 120
days while i got M 118
days seems a long M 118
data twice a year M 118
date marks a new M 116
data which i use M 116
days since i did M 112
days later a seat M 112
data while i was M 111
days within a set M 109
days where i did M 106
days since i ate M 106
dark night i had M 106
dark beneath a sky M 106
data takes a long M 104
date after a few M 103
days until a few M 102
days under a new M 102
days later i and M 102
days after a job M 102
days after a fit M 101
days later a red M 100
days since i put M 94
days later a team M 94
days later a far M 94
data quite a bit M 94
data within a web M 93
days later i run M 92
days after a two M 92
days after a deal M 92
dark under a sky M 92
dark after a day M 92
days after a day M 91
days though i had M 90
date until a few M 90
data about a real M 87
days since i set M 86
days later a son M 86
days while i try M 84
days after a dog M 84
dawn broke i saw M 84
date which i did M 84
date after i had M 84
days after i won M 82
dark hours i had M 80
days within a six M 62
days after a one M 52
data about a mean M 49
dash after a man M 47
date quite a bit M 46
data yield a mean M 46
days later a six M 42
date nearly a year M 41
days later i met D 6618
damn right i did D 1930
days after i met D 1752
damn right i was D 915
damn right i can D 562
days later a mob D 468
days since i met D 384
damn lucky i did D 331
days later a car D 266
data within a row D 264
dating about a year D 213
days after a car D 206
days later i rang D 186
days under a hot D 180
dating until i was D 162
dating since i was D 162
dart after a fly D 159
data plays a key D 140
days later a gang D 136
days later a riot D 134
damn about a man D 117
days after a tax D 114
data shows a peak D 108
days after a cow D 102
days under a lye D 98
damn about a lot D 98
days after a binge D 94
damn about a few D 86
dating while i was D 80
darn right i did D 80
damn lucky i was D 54
damn where i was D 40
