days of the war M 228329
days of the year M 168707
days in the year M 154442
days of the old M 69256
days of the new M 68579
date of the death M 50569
dawn of the new M 49161
date of the act M 34845
days at the end M 30759
date of the new M 24349
data on the use M 23545
date of the year M 23421
dawn of the day M 20425
dawn on me that M 19612
days of the end M 19457
days of the son M 14091
data to be read M 13865
days in the sun M 13296
date at the top M 12555
days on the job M 12308
dark as it was M 12250
data on the web M 12097
date at the end M 11287
data on the age M 11203
dawn of the age M 11053
data at the end M 10961
dark at the top M 10600
days on the way M 10394
data of the two M 10373
dawn of the dead M 10212
days of the long M 10166
date of my death M 10128
date of the end M 10096
days of the east M 9450
days of the dead M 9183
date of the day M 8479
days in the old M 8461
date to the end M 8387
data it is not M 8244
date of the poem M 8210
data in the two M 7908
daring to be bad M 7826
days it is not M 7708
data on the two M 7487
days of the kings M 7454
date of the law M 7308
data is to use M 7178
days in the new M 6765
date in the year M 6483
days to the year M 6328
dark as to how M 6196
days go by and M 5824
dawn on the day M 5757
days of the two M 5582
dare to do that M 5565
data to the end M 5498
days to the end M 5497
dark as to his M 5458
days of the big M 5380
dare to do our M 5365
dawn in the east M 5273
days or as long M 5246
dare to do this M 5158
dawn of the era M 5114
dare to go out M 5074
days of the day M 5019
days is in her M 5016
days of the earth M 4966
data in the new M 4925
dawn on us that M 4924
days we do not M 4838
days of the death M 4746
data on the long M 4742
days of the mid M 4550
date of the two M 4503
data on the new M 4475
days of the web M 4464
data to the new M 4348
days in the area M 4191
dawn of an era M 4155
data by the use M 4102
data in the area M 4100
days as it was M 4064
days of the red M 4042
days of the law M 3988
date of the old M 3873
date on the day M 3763
data as if they M 3710
days on the earth M 3649
date to be set M 3644
data as to how M 3622
data on the one M 3607
date of the war M 3584
days of the due M 3581
data to the web M 3530
days in the east M 3507
date he or she M 3454
data on the mean M 3416
data in the way M 3414
data on the heat M 3386
days to go and M 3380
days as of old M 3218
date it is due M 3177
days of the sun M 3130
date in the near M 3116
data on the area M 3072
dark as to its M 3060
date to the mid M 3057
days of the pre M 2991
date is the day M 2976
days of my own M 2968
data of the new M 2968
data he or she M 2964
daring to go out M 2955
data at the top M 2867
dawn of the year M 2856
days at the old M 2845
date it is not M 2832
dawn in the sky M 2820
days to as long M 2812
dark at the end M 2780
dark as it had M 2752
days in the air M 2722
days of the one M 2670
data as to its M 2606
days at the bar M 2588
data as it was M 2570
data on the way M 2562
days or so and M 2506
dark as to why M 2456
days to do this M 2452
date in the mid M 2420
daring as it was M 2305
days of the poet M 2304
date to the year M 2261
days at the new M 2256
data on the net M 2221
date of the poet M 2202
data on the real M 2196
dare to go near M 2178
dash at the end M 2159
days in the mid M 2142
date we do not M 2099
days as he had M 2090
date is the one M 2081
date of the map M 2014
days of the age M 2001
date on the top M 1998
date at the head M 1983
days of the air M 1958
days as if they M 1958
days of the use M 1955
daring of the man M 1950
days in the far M 1948
dark as he was M 1944
days in the two M 1922
days in the big M 1909
data as an aid M 1905
days in the war M 1903
date is the year M 1894
date in the new M 1891
dark as to her M 1870
days on the run M 1830
date as he may M 1824
data in the low M 1817
days to an end M 1807
data on the fly M 1807
data we do not M 1806
data on the earth M 1796
data in the top M 1790
days on the new M 1785
data on the top M 1756
days in the heat M 1738
data in the near M 1722
date in the area M 1716
data is the use M 1706
dark as to who M 1698
days on my way M 1664
date on the new M 1640
data so it can M 1638
days on the old M 1606
dare to go and M 1604
dare to do any M 1598
days of the six M 1596
days to sing god M 1584
date as the day M 1584
data it is easy M 1576
days to be with M 1562
data on the map M 1562
date of the one M 1560
date in the war M 1533
dark as the sky M 1531
date as it may M 1524
dawn of an age M 1519
data in the real M 1516
days in the dry M 1502
days of the act M 1490
daring as he was M 1485
days as he was M 1472
days the king was M 1466
days at the head M 1422
days if he had M 1416
data in an area M 1416
days he or she M 1414
data on the low M 1414
days on the set M 1400
date as the year M 1396
days at the age M 1384
data at the two M 1374
data up to and M 1364
days of the ten M 1351
days of the dying M 1320
data in an easy M 1316
data is the key M 1304
data on the non M 1295
data on the pre M 1292
days to the sun M 1288
days in the long M 1286
data of the real M 1266
days or it may M 1262
days by the use M 1262
data is the one M 1259
days of my being M 1245
date of my own M 1244
data in the old M 1244
data to be put M 1236
days of the far M 1233
days up to and M 1224
date is the end M 1202
dark as to this M 1190
days in the way M 1182
days if it was M 1178
dawn of the sun M 1177
dark of the sun M 1177
dark by the sun M 1170
days to the east M 1167
days of the man M 1167
data to do this M 1164
date as the one M 1145
dare he do this M 1142
days to do that M 1112
data to the two M 1112
date to the day M 1110
dark to be his M 1102
date as it was M 1101
data of the year M 1100
days or by both M 1094
dawn of an idea M 1076
days on the top M 1074
daring of the men M 1072
data in the set M 1070
days so as not M 1064
days so we can M 1056
dark of the sky M 1055
days he is not M 1048
data of the area M 1047
date of the use M 1046
days in my own M 1038
date to go out M 1028
days of the non M 1025
days in an old M 1016
days of the all M 1010
data of the old M 1010
days or so for M 1006
days of the dry M 1006
data on the six M 1003
dark as to our M 1000
dark as we are M 994
data in no way M 992
data in the log M 984
data on the old M 979
dark so as not M 977
days on my own M 976
dark on the way M 970
date of the job M 968
dawn of the east M 954
data is the sum M 952
dash of the old M 950
days to the new M 948
data in the mid M 942
data up to this M 936
days of an old M 932
date of the big M 932
dawn of the idea M 928
data is by using M 924
days on the east M 913
date of the long M 909
data in the web M 906
dare go so far M 902
days or so that M 898
dawn at the end M 894
days of the real M 883
date to the new M 879
days to the air M 878
data on the job M 876
date in the long M 868
date of the real M 866
data of my own M 866
data as we can M 866
daring of the two M 865
daring me to say M 861
days if he did M 858
date of the bid M 854
date as the end M 853
dark of the year M 851
date on it was M 850
date on it and M 850
data on the air M 848
days as we had M 844
days as it has M 840
data as to his M 840
days to the day M 837
date of the song M 837
days up to two M 832
data if we are M 830
date up to and M 823
days of the may M 816
data in or out M 816
dark on the day M 816
days to go out M 814
days of the now M 806
days in the real M 802
days at the top M 802
date or at any M 802
data is to ask M 802
data on the key M 798
data of the earth M 798
days as it does M 794
dawn on me how M 784
dark as the sun M 776
days by the end M 774
days in the one M 773
data it is now M 772
dark as to all M 772
days in the dog M 771
daring to go near M 769
data to the real M 768
days the king had M 766
days or so they M 766
days as it had M 766
date of it was M 762
days if he was M 760
days if it had M 754
days in an area M 748
date of the pre M 748
days of the boy M 746
dark to the eye M 746
days it is easy M 742
dark as the pit M 741
data is in one M 740
days go by with M 736
data as it can M 734
dark as if they M 732
days in the earth M 728
data on the death M 728
days of the ill M 726
days of an age M 726
data on the year M 726
dark to me and M 724
data on it are M 720
days in the rear M 714
data on the day M 708
days as in our M 704
dark as he had M 704
days to the death M 700
date in the east M 698
data so we can M 698
dark in the east M 695
days or if you M 694
days is the one M 692
days of the run M 690
days of the dog M 689
data is as yet M 688
dark as the one M 686
data up to that M 684
days up to one M 681
days in the red M 680
daring in the use M 680
days of it being M 678
dare to do things M 678
days to do all M 676
dark in the dim M 675
date in the old M 674
data on the sun M 670
days or so ago M 665
date or the day M 664
dark as to any M 662
dark as to that M 658
date on the use M 654
date on the box M 651
dark on the top M 650
days or so with M 648
days or to both M 642
dare to be too M 641
days of the men M 640
days in the box M 639
days it is all M 635
date in the top M 635
data by the end M 635
dark of the earth M 635
date to the old M 632
days the king and M 624
data in the long M 624
days in the low M 623
days in the end M 623
days if he has M 622
data in so far M 622
dark as the earth M 614
date of the earth M 613
days in the near M 612
days he is going M 612
days as it did M 608
data is the low M 608
date by the end M 607
days of my old M 600
days if we had M 600
date of the oath M 598
daring to do this M 598
date of the non M 596
dark in the sky M 596
data to the log M 594
dark in the day M 594
days of my new M 593
data is in each M 592
data as of may M 592
dark in the sun M 591
days in the dead M 590
data in the map M 590
data of the six M 588
data or it may M 584
days or at any M 582
date in the way M 577
date to the pre M 576
data as it goes M 576
date by the use M 575
days as to how M 570
dark as it can M 568
days in the wet M 564
data as it does M 563
data to be had M 562
data or by using M 560
days of the then M 559
data is the mean M 558
data of the pre M 556
dare to go too M 556
data or the use M 555
dash to the rear M 553
date of the mid M 552
dawn as the sun M 548
data via the web M 547
days by the way M 542
days as he did M 540
data as it has M 540
dare to go any M 540
daring me to try M 538
data at the low M 535
days of the vow M 532
data is to say M 532
date if it was M 531
daring to do that M 531
daring of the new M 530
dare he do that M 527
dawn is the head M 526
dare to go far M 526
days on the day M 525
data on the men M 520
date in the box M 519
dare go to war M 514
date of the run M 512
dare to go with M 512
days go on and M 510
data is in its M 508
date to be not M 505
date is in this M 504
data as to why M 504
date of an act M 502
data is to see M 498
days to the old M 496
days to be set M 494
dawn of the long M 493
data in the one M 493
data or to use M 487
days or if they M 486
daring to go any M 486
data to the url M 485
data to the earth M 485
days by the death M 484
data on the end M 484
days as he has M 480
data is the way M 478
dark in the big M 478
days of the god M 476
data in the box M 476
days up to six M 475
days if he does M 474
data on the east M 472
daring thing to say M 472
dare to do and M 472
dark as my own M 470
dawn of the earth M 468
data in the pre M 468
data if it has M 468
days of my long M 466
days if we are M 466
date of the man M 466
days if we can M 462
data up to now M 462
data of the day M 461
data in the non M 461
data to be set M 460
date in so far M 459
days on the death M 458
days in the six M 458
dawn in the air M 458
date on the map M 458
date is the use M 457
date in the use M 456
data in the year M 455
days on the big M 454
data on the log M 452
data on it and M 452
days in my new M 450
data as we did M 450
data as to age M 450
days of the era M 448
data on the red M 448
dark or of being M 448
days as the new M 447
days to go for M 446
days in or near M 445
data to be fit M 444
days at the two M 443
dark to do any M 442
days on the one M 441
days of my dear M 436
days as if she M 436
date in the not M 436
dash to the top M 435
days by the old M 434
data on the war M 434
data as he may M 434
data as an end M 434
data is in this M 430
dawn on me then M 429
dark to go out M 428
days at the red M 427
data at the bit M 426
days so it was M 424
days in the death M 424
days of it and M 422
data to the top M 422
data it is then M 422
days in the pre M 420
date of the sun M 420
date of the era M 420
dawn on me for M 419
date in the two M 419
days in an air M 418
days of the wet M 417
dawn of the war M 417
dark in the bar M 416
days on the two M 414
days in the job M 414
days if it has M 414
dark to go any M 414
dark as it may M 414
days of the bar M 408
days as we are M 408
data to the map M 408
data is to set M 408
days at an end M 407
data is to put M 406
data in the url M 406
dark in the old M 406
date if he had M 404
data is the set M 403
dare go to his M 402
date as the two M 401
days up to his M 400
data as he can M 400
date is to use M 399
dare to go for M 399
days of the dot M 398
days if it does M 398
date of the pay M 398
dark as the day M 398
daring in the way M 398
days in the pit M 396
days in the law M 393
days so he can M 392
data in it and M 392
dark we do not M 392
date in the far M 391
days to the head M 390
date to the death M 390
data on the ten M 389
days of my death M 388
data on the heap M 388
days at or near M 387
dawn of the old M 387
days as it may M 386
dark at the far M 386
data of the non M 385
days by the new M 384
data of the one M 384
data as it may M 384
days to the age M 382
days in an easy M 380
date on the war M 379
date as the old M 379
days is to use M 378
days in the non M 377
data of the mean M 377
data on the man M 374
data of the low M 374
data in the bar M 374
dark it is not M 374
days on the long M 372
dawn on me why M 372
days of the area M 370
days is to get M 368
dare to do with M 368
days of the net M 367
dark as the two M 367
days at the war M 366
data on the aging M 366
data is an area M 366
dark as if she M 366
days in the not M 364
data is to fit M 364
dark so no one M 363
days of woe and M 362
days by the year M 361
date of the red M 360
data of the heat M 360
data as to this M 360
date by the new M 358
date on the old M 357
dark in the long M 356
daring to go far M 353
dare to do for M 353
date to the era M 352
dash to the end M 352
data on an area M 351
date or the year M 349
days to be put M 348
days if at all M 348
date of the son M 348
daring on the earth M 348
dark is the way M 347
date or the end M 346
data as he has M 346
dark of the day M 346
dare go to her M 346
date of it can M 344
data so as not M 344
data if it can M 344
data at the head M 344
data in the key M 343
days of the weak M 342
data on the tag M 342
data by the two M 342
dare go as far M 342
data as we are M 341
data to it and M 340
data to be both M 340
days to do any M 338
data as he had M 338
dare to do them M 338
days in the sky M 337
data or do not M 337
days of the job M 336
date of the ban M 336
date as we can M 336
days at the seat M 334
date of the boy M 334
data of the set M 334
dawn on the far M 332
dash at it and M 332
days of the bow M 331
date of the way M 328
dark it is they M 328
days by the bad M 326
data as the sum M 326
date in an age M 323
date if it has M 322
dash to the earth M 321
daring of the act M 321
data or if you M 320
dark of the long M 320
date as to how M 319
days in woe and M 318
dawn to go out M 318
days to be one M 316
days of the dear M 316
days as it now M 316
date in no way M 316
data of the all M 316
data is to get M 316
date as to all M 315
days go by that M 314
days to the law M 312
days in the lead M 312
dark at the head M 312
days to be out M 311
data to do with M 310
date of an old M 308
daring of the old M 308
days as he may M 306
days of the sit M 304
days at the job M 304
data or it can M 304
dark it is and M 304
date to the age M 303
date of the put M 303
date if it had M 303
days to the one M 302
days to the men M 302
date or on any M 302
date of the set M 302
data on it can M 302
data is to try M 302
data is by far M 302
data as we now M 302
dark in the way M 302
daring to go and M 302
days of the lying M 301
days at the big M 300
days in the pay M 298
dare to go that M 298
days or so she M 296
days on the air M 296
days it is one M 296
dark as it has M 296
days as we did M 294
date so we can M 294
data in it are M 294
date so as not M 293
days as the head M 292
data if it was M 292
dark so we can M 292
dawn on the earth M 291
days to go with M 290
days or he may M 290
days as the two M 290
date at the age M 290
data of the long M 290
data as to who M 290
data as in his M 290
data at or near M 289
dawn of my long M 288
data on the head M 288
date it is that M 287
days of the song M 286
days in the fear M 286
days if it did M 286
date in the poet M 286
data if it does M 286
days it is being M 284
days is the way M 284
data in the air M 284
dark by the aid M 284
days it is going M 282
daring on the one M 282
data in the tcp M 281
days to be not M 280
days as an old M 280
days or in two M 278
days of the bad M 278
date in the end M 278
data in my own M 278
dare go to him M 278
data on the dry M 276
dark as the men M 276
date of the age M 275
dark of the new M 274
date in the age M 273
days in the cat M 272
dawn to go and M 272
date as the new M 272
data on the few M 272
data to the mean M 270
data to an area M 270
dark or in dim M 270
dark as he read M 270
days by the sun M 269
days as the sun M 268
date if the new M 268
data is to add M 268
data to the set M 267
dark of the old M 267
days or so you M 266
days on the beat M 266
date to the one M 265
date or do not M 265
date or go out M 264
days as the old M 263
date is on that M 263
date as to any M 262
dark in the air M 262
days in my old M 260
days in my head M 260
dawn of the air M 260
date of the then M 260
date in my own M 260
data in the six M 260
dark in the red M 260
date as he was M 259
date of the com M 258
data is in any M 258
days by the two M 257
days of the team M 256
days go by you M 256
date on the two M 256
data to the use M 256
data to the low M 256
data of the web M 256
dare to do all M 256
dare do it for M 256
days as in one M 254
date or it may M 254
daring to go too M 254
dare go in and M 254
days as we can M 252
date is the sum M 252
data to be run M 252
data to the one M 251
days is to see M 250
days in the log M 250
days to do one M 249
days in the use M 249
days as in six M 248
date of the deal M 248
data to the sum M 248
data or the way M 248
data of the ten M 248
date of the now M 247
days by the men M 246
date on the way M 246
date of the six M 244
data to the head M 244
data to go with M 244
daring to eat with M 244
dawn so as not M 243
date to go with M 243
date on the one M 243
dark is the sky M 243
days at the law M 242
date the king was M 242
date of it being M 242
data of the poem M 242
data as the key M 242
dare to do him M 242
days on or near M 241
date at the new M 241
date as to its M 241
days on the red M 240
days in no way M 240
days if it can M 240
date on the can M 240
data in the heap M 240
days of the log M 238
days in the dear M 238
date to the due M 238
date to be that M 238
dash of the new M 238
days on the low M 237
days in the ten M 236
dawn to the east M 236
data in the far M 236
dare to be out M 236
dawn as he lay M 235
days of the and M 234
date to the two M 234
data is the real M 234
data in the east M 234
dark to me now M 234
days of the low M 233
date on the death M 233
date if he has M 233
date as he had M 233
days to be long M 232
days is the mad M 232
data on the near M 232
data of the top M 232
dark of my own M 231
days to do them M 230
days or so had M 230
dawn on me and M 230
data in the end M 229
days to the heat M 228
days of the mad M 228
data on the www M 228
days to the mid M 227
data on the set M 227
days to the era M 226
days if he can M 226
days as the son M 226
dawn of the real M 226
date on the end M 225
days on the plea M 224
days of the bid M 224
days as to his M 224
date is so far M 224
dark to go and M 224
dare go on with M 224
dawn of the end M 223
days or in our M 222
days is the sum M 222
date to be put M 222
dark of the eye M 222
date to the poem M 221
date it as far M 221
data to the team M 221
data on the pay M 221
daring as he had M 221
days of the easy M 220
data of the age M 220
days in the then M 219
days or it can M 218
days as the men M 218
data to the air M 218
dark as the red M 218
days on it and M 216
dark in the low M 216
days of the heat M 215
dare to do his M 215
days to the two M 214
days in the run M 214
days in it and M 214
data to the old M 214
data in the earth M 214
daring to do things M 214
dare do or say M 214
days in an year M 213
days to the top M 212
days it is too M 212
days is it going M 212
data he is using M 212
date in the due M 211
days up to ten M 210
dawn on the top M 210
date of the east M 210
date as it had M 210
data is as easy M 210
data if at all M 210
dash of the men M 210
dark as it does M 210
dare to be with M 210
date or in any M 209
data as to all M 209
days to do our M 208
days is as long M 208
days in the off M 208
days at my own M 208
date on the bag M 208
data of the mid M 208
data of the map M 208
daring to be too M 208
dare we to say M 208
days on the far M 207
data in the use M 207
dark on the far M 207
days to do its M 206
days or in any M 206
days of it are M 206
data of the head M 206
dark on the head M 206
dark as we can M 206
days in the age M 205
dark to the end M 205
dark in the area M 205
dare to be men M 205
date of the may M 204
data is at all M 204
data in the who M 204
data in the age M 204
data as to any M 204
dark as the old M 204
dark as it did M 204
daring me to ask M 204
dare go to see M 204
daring of the war M 203
days up to that M 202
days of the pro M 202
days be in her M 202
days be as long M 202
data of the air M 202
data as in this M 202
data to the area M 201
data of the use M 201
days go by they M 200
days as to why M 200
dawn to do his M 200
dare we to this M 200
dare to do you M 200
data as to both M 199
dash at the top M 199
days it is far M 198
days as if you M 198
days as he lay M 198
data via the use M 198
dark on the earth M 198
dare do it now M 198
date on the east M 197
date as it can M 197
data is of two M 197
data as the one M 197
days to go all M 196
days it is our M 196
days in so far M 196
data is so easy M 196
data as if you M 196
daring in the air M 196
date of the top M 195
dark on the sky M 195
days up to now M 194
date in the pre M 194
date he is not M 193
dark as the man M 193
days or so but M 192
days at the air M 192
days as in his M 192
date to be too M 192
data up to age M 192
data of an area M 192
data on the big M 191
dare to be that M 191
days up to this M 190
date of the air M 190
date of it and M 190
dark on the path M 190
dark as we had M 190
dare go to law M 190
days is the day M 189
data is so that M 189
data as in our M 189
days to do with M 188
days by the aid M 188
days at the low M 188
data on the path M 188
data in the bad M 188
dash to the east M 188
dash at the fly M 188
dark in the box M 188
dark as an old M 188
days in the day M 187
date on it that M 187
data is so far M 187
dark is the sun M 187
days or so was M 186
days or of one M 186
days of it had M 186
days he is dead M 186
date to be one M 186
date on the law M 186
date is to get M 186
date is the key M 186
date in the log M 186
data in the job M 186
data if we had M 186
daring of the idea M 186
dawn in the old M 185
date on my own M 185
dark on the one M 185
daring as it may M 185
days to do his M 184
days of the pay M 184
days of the deal M 184
days of an era M 184
days or the end M 183
dare to go all M 183
days to be going M 182
days it is now M 182
days is the old M 182
days in the bar M 182
data at the new M 182
data as it did M 182
daring to do any M 182
dare to do now M 182
days or to pay M 180
days of it was M 180
date the king had M 180
data to the tag M 180
data to an off M 180
data on the law M 180
data is in and M 180
dark is my day M 180
days to the man M 179
days in the eye M 179
days in the can M 179
days as the one M 179
data on the lead M 179
days to eat all M 178
days or so each M 178
days or in ten M 178
days of the ban M 178
days is the use M 178
date as if they M 178
data in it can M 178
dark or in red M 178
dark at the rear M 178
daring me to get M 178
data to or read M 177
dark in the earth M 177
days or if any M 176
date to the use M 176
date of the log M 176
date is in any M 176
data on the out M 176
data on my own M 176
daring of it all M 176
dare to eat any M 176
date if we are M 175
dark as to one M 175
days to go now M 174
days as to who M 174
days as he sat M 174
date or if you M 174
date of the head M 174
data on the sum M 174
data it is thus M 174
data is in use M 174
data in the cat M 174
dark it is all M 174
dark if it had M 174
date on the web M 173
data if the two M 173
data by the mean M 173
dark of the bar M 173
days of my sad M 172
days if we did M 172
date of my son M 172
data on the far M 172
data of the war M 172
date or the due M 171
date by the two M 171
data to be one M 171
days to do her M 170
dawn of my new M 170
date of the plea M 170
date of the net M 170
date in the era M 170
data on it that M 170
dark on my way M 170
dare go up and M 170
days to the use M 168
days so do not M 168
days in the men M 168
days at the death M 168
days as he does M 168
date of the going M 168
dark as if you M 168
date if it does M 167
date as of this M 167
data to do that M 167
days is to try M 166
days in the dim M 166
date to do this M 166
date is the due M 166
data is no easy M 166
data in the read M 166
days to do things M 164
days of the dim M 164
days of the cat M 164
days of tea and M 164
days he do not M 164
date or is not M 164
date on the job M 164
date in the law M 164
data is on its M 164
data is my own M 164
daring as to say M 164
date in or near M 163
days or so are M 162
days is he who M 162
days as he can M 162
dawn on the way M 162
date or by any M 162
date of it has M 162
data to the year M 162
data as the two M 162
dark on my own M 162
daring of the poet M 162
days is the man M 161
days on the box M 160
days of it all M 160
days at the far M 160
dawn as he had M 160
date in an area M 160
date if he was M 160
data on an old M 160
data of the run M 160
data in the red M 160
data by the aid M 160
data as we had M 160
data as to each M 160
dark to the old M 160
dark by the use M 160
days in the out M 158
date of the and M 158
date by the year M 158
data is in two M 158
dark to the east M 158
dark or in bad M 158
dare to be and M 158
dawn of the web M 157
data to the tcp M 157
dark if he had M 157
dare to do her M 157
days is it now M 156
data by the new M 156
dash it in his M 156
dare to eat them M 156
dare or do not M 156
days of an all M 155
dawn or the sun M 155
dark as the air M 155
days or to any M 154
days on the lot M 154
days as an air M 154
days as an act M 154
dawn to the day M 154
date as the due M 154
data to the far M 154
data or in any M 154
dark so it was M 154
daring us to try M 154
dawn to the end M 153
data of the end M 153
data as the mean M 153
data as the age M 153
dark of the air M 153
dare to be one M 153
days to be cut M 152
days he is with M 152
days as in this M 152
date to go and M 152
data as if all M 152
dark to us who M 152
dare to be who M 152
dare to be her M 152
date of the bar M 151
data as of this M 151
dash at it with M 151
days to be his M 150
days of it with M 150
dawn as it was M 150
date to the top M 150
data to the long M 150
data of the key M 150
data is to read M 150
data in the tag M 150
data as we saw M 150
days in the mean M 149
dare to be bad M 149
days to do and M 148
days on an old M 148
date of the cup M 148
date in an era M 148
data to the job M 148
data on the run M 148
dark of the box M 148
dark as we got M 148
dark as if all M 148
dare do it and M 148
date is as yet M 147
data on the eye M 147
days or so long M 146
dawn of my own M 146
date or if they M 146
date it is now M 146
daring as to put M 146
date on the long M 145
date on the fly M 145
date in the earth M 145
dash at me and M 145
days to sing and M 144
days to be got M 144
days on the bar M 144
days of my age M 144
dawn on the men M 144
dawn in the dry M 144
date of the not M 144
date in the sum M 144
data or if they M 144
data on to its M 144
data of king and M 144
data is by use M 144
data is an old M 144
days as an all M 143
dare to be real M 143
days of it she M 142
days it be read M 142
days is in its M 142
days at an old M 142
date is the song M 142
data on the dead M 142
data of the law M 142
data as he was M 142
dark as the head M 142
days to the idea M 140
days to the big M 140
days is to say M 140
days in the top M 140
date on the big M 140
date is the death M 140
date by the way M 140
data is to run M 140
data in the dog M 140
dash up to her M 140
dash to the head M 140
days to go off M 139
date as it did M 139
days to be few M 138
days so we had M 138
days so he was M 138
days in the and M 138
date of the web M 138
date in so long M 138
data on it was M 138
data on it for M 138
dark of the big M 138
date of the low M 137
date as we are M 137
days if the sun M 136
days by the fear M 136
date is in all M 136
date if it can M 136
data is the log M 136
data if we use M 136
dare to do was M 136
days as the mean M 135
date of the cut M 135
days to be too M 134
days on the path M 134
days of the few M 134
days as the seat M 134
days as the man M 134
days as at any M 134
date of the meal M 134
data is the bar M 134
data is an easy M 134
dark by the end M 134
daring us to say M 134
days it is fit M 133
date as it has M 133
data of the net M 133
dash to the far M 133
days so it can M 132
days or in six M 132
days of the leap M 132
days by an act M 132
days as we see M 132
days as the law M 132
dawn in the year M 132
date of the sad M 132
data to the who M 132
data to be too M 132
data is to aid M 132
data if we can M 132
data as to our M 132
data as the new M 132
dark so he can M 132
dark if it was M 132
dark as he did M 132
dare to be all M 132
dare go to any M 132
days of the not M 131
date of the buy M 131
data to the key M 131
days of an ill M 130
days is to put M 130
days is an act M 130
days as he and M 130
date of it may M 130
data up to one M 130
data on the cat M 130
data on the ash M 130
data is in all M 130
data in the poem M 130
data in my head M 130
data as of end M 130
dash me if they M 130
dark in the rear M 130
dare go to that M 130
data is in that M 129
data in the fit M 129
days is no easy M 128
days in the ease M 128
days at the year M 128
dawn at the top M 128
dawn at the head M 128
data on the mix M 128
data is of use M 128
data as he did M 128
dark on the long M 128
dark in my own M 128
dark be my way M 128
daring of the age M 128
dare go in that M 128
dare go in for M 128
date as it does M 127
data on an all M 127
days as we sat M 126
days as to its M 126
dawn by the song M 126
date or to any M 126
date of the dog M 126
date is in one M 126
date by or for M 126
data to the non M 126
data to be not M 126
data so it may M 126
data or of any M 126
data on the weak M 126
dark so we had M 126
dare to be ill M 126
date up to six M 125
date it is easy M 125
dash up to his M 125
dark in the near M 125
dare to go off M 125
data of the job M 124
data it is using M 124
dash at the head M 124
dark in the eye M 124
date to be may M 123
days to my old M 122
days or so this M 122
days as the aging M 122
days as it can M 122
days as he saw M 122
dawn as at any M 122
date on the tag M 122
date it at all M 122
date at the day M 122
date as he did M 122
data is on one M 122
data if it had M 122
daring to be his M 122
days by the non M 121
data of the eye M 121
days to my own M 120
days or the day M 120
date in an old M 120
data on the bit M 120
data is to map M 120
data as he does M 120
dark to the man M 120
date to the far M 119
data by the year M 119
dash at the man M 119
days to be read M 118
days to be for M 118
days on the head M 118
days of my son M 118
days it do not M 118
days is an old M 118
days in so doing M 118
days in it than M 118
date to be with M 118
date or the age M 118
data is the easy M 118
data as it had M 118
dark in the pit M 118
dark as it now M 118
dark as if with M 118
dark as he can M 118
dawn of the one M 117
data in it that M 117
dark to me that M 117
dark it is out M 117
daring of the one M 117
days so he had M 116
days of the head M 116
days of it for M 116
date of my new M 116
data is of any M 116
data in the pdf M 116
daring of the boy M 116
days on the end M 115
days of the lead M 115
date of the dead M 115
data to be that M 115
data is the two M 115
dark or in low M 115
days the thing was M 114
days or an old M 114
days by the act M 114
days as we now M 114
date is at all M 114
data or we can M 114
data is the long M 114
data is the idea M 114
dash at the boy M 114
dark to us now M 114
date as the key M 113
data on the team M 113
data in the bit M 113
days to go yet M 112
days or of his M 112
days of the singing M 112
days of the mean M 112
days is the mean M 112
days in my way M 112
days in it with M 112
days as we all M 112
days as in all M 112
date of the lot M 112
date is in his M 112
data or to get M 112
data or to add M 112
data on the dog M 112
dark to be out M 112
dark at the old M 112
dark as the new M 112
data at the all M 111
days we go out M 110
days to the seat M 110
days to go that M 110
days to eat her M 110
days it is with M 110
days it is that M 110
days at my old M 110
days as in any M 110
date to go for M 110
date is the net M 110
data on the all M 110
data on it may M 110
data is to bring M 110
data in it for M 110
dash up to him M 110
dark to the new M 110
dark to me for M 110
dark as to both M 110
dare to ring for M 110
days to an old M 108
days so no one M 108
days or in one M 108
days in the weak M 108
date of the pit M 108
date of my going M 108
date is in two M 108
date as the law M 108
data is the job M 108
data is by way M 108
data in an old M 108
dash up it and M 108
days to be near M 107
date it is too M 107
date it is being M 107
date is the way M 107
data is the end M 107
dark in the one M 107
days on the dry M 106
days in the path M 106
dawn so we can M 106
data to be cut M 106
data or in its M 106
data on the bar M 106
data is of low M 106
data in an era M 106
data by the way M 106
data as of that M 106
dark to be read M 106
date if it did M 105
dark ring of one M 105
days to the war M 104
days to eat and M 104
days to be our M 104
days or on any M 104
days of the near M 104
dawn of the use M 104
dawn in the far M 104
data to the bit M 104
data is by its M 104
dash up to our M 104
dark or at low M 104
dark as we sat M 104
daring as to set M 104
dare to be his M 104
dare do the things M 104
days in the oak M 103
dawn on the new M 103
dawn as the men M 103
date is the new M 103
date if he did M 103
dash to the bar M 103
dash me if you M 103
dark in the far M 103
days it is then M 102
days is the new M 102
days in the leap M 102
days if it goes M 102
days as the age M 102
dawn on the old M 102
date up to may M 102
date of the ill M 102
data to it for M 102
data is in our M 102
data in the few M 102
data in as few M 102
daring of the few M 102
dare do the one M 102
date if at all M 101
dark of the pit M 101
daring to do all M 101
days to the area M 100
days it is but M 100
days by an old M 100
dawn on the man M 100
dawn if he had M 100
date on or near M 100
date of the kings M 100
date as of may M 100
data to it using M 100
data on the and M 100
data is the ease M 100
data at the web M 100
data at the age M 100
daring as the men M 100
days or so out M 99
days in the now M 99
dawn in my own M 99
date up to one M 99
data on the mid M 99
days up to our M 98
days to the job M 98
days to it and M 98
days on the team M 98
days of the beat M 98
days of king and M 98
days as the war M 98
date to go see M 98
date or of its M 98
date on the things M 98
date as the age M 98
data to do its M 98
data on the gap M 98
data is of this M 98
data is an ill M 98
data in an off M 98
dark if we can M 98
dare to be our M 98
days of the bear M 97
days in the may M 97
dawn as he was M 97
dark of an old M 97
days to be had M 96
days by the head M 96
days at my new M 96
date to be read M 96
date so he can M 96
date or to get M 96
date on an old M 96
date of the few M 96
data it is going M 96
data as the old M 96
dash to the aid M 96
dark so he had M 96
dark as to him M 96
daring thing he had M 96
dare go to them M 96
days on the web M 95
days of my not M 95
dawn on us how M 95
date it the day M 95
data on the then M 95
days to the long M 94
days it is dry M 94
days in the era M 94
days in my year M 94
days at the one M 94
dawn is on its M 94
date on he was M 94
date of the area M 94
date of my being M 94
date is to add M 94
date in the poem M 94
data to the mix M 94
data in the run M 94
data in it may M 94
dark is the day M 94
dark in the two M 94
dark as we set M 94
dark as the long M 94
dark as by day M 94
dare to the end M 94
days as the end M 93
dawn to the top M 93
days the king sat M 92
days or the bad M 92
days in the boy M 92
days go on you M 92
days as to any M 92
days as the year M 92
days as the day M 92
date or be for M 92
date of the men M 92
date as if she M 92
data so he can M 92
data of the men M 92
data is the bit M 92
data is so low M 92
dark is it that M 92
dark in my head M 92
dark as he lay M 92
dawn on the two M 91
date or to pay M 91
data to the law M 91
data is the area M 91
dark of the east M 91
days to me and M 90
days of the pit M 90
days of it they M 90
days is to buy M 90
days in the few M 90
days go by too M 90
days by my own M 90
days as the air M 90
days as an aid M 90
date up to his M 90
date of the team M 90
date of the idea M 90
date of as you M 90
date is in its M 90
date is by far M 90
data to me and M 90
data to be due M 90
data on the things M 90
data it is one M 90
data is the new M 90
dark in an old M 90
dark in an area M 90
daring to go ask M 90
days of my two M 89
days to go ten M 88
days or of our M 88
days of it you M 88
days is to read M 88
days is to not M 88
days as we read M 88
days as in its M 88
dawn on me with M 88
date to the war M 88
date so it can M 88
date or of any M 88
data or we may M 88
data of the dry M 88
data if it did M 88
data as in any M 88
dash at the old M 88
dark to the top M 88
dark on the map M 88
daring thing it was M 88
dare to if they M 88
dare do so now M 88
days as to one M 87
date as to why M 87
date as the death M 87
data on the off M 87
data is the non M 87
days to as low M 86
days or the old M 86
days or the new M 86
days or in his M 86
days of the don M 86
days by the law M 86
days at the idea M 86
date of so doing M 86
date is the old M 86
data to be non M 86
data or is not M 86
data of the few M 86
data it is being M 86
data is or how M 86
dare to be but M 86
dare in the war M 86
days at the sun M 85
dawn in the end M 85
date in the real M 85
data as the real M 85
dark as the far M 85
days or so has M 84
days is in our M 84
days go on with M 84
days as an east M 84
dawn on me who M 84
date it to that M 84
date in the act M 84
data to it with M 84
data or to see M 84
data or to read M 84
data he is going M 84
dash of the boy M 84
dark is the path M 84
dark in the heat M 84
dark if we did M 84
dark if it does M 84
dark if he was M 84
dark he is not M 84
dark as the wings M 84
dark as the end M 84
dark as he ran M 84
dare to the death M 84
dare to do new M 84
dare he go off M 84
dare do so with M 84
dare do it with M 84
data on the wet M 83
days as the real M 82
dawn of it was M 82
dawn in an old M 82
date to the law M 82
date is to say M 82
date by the old M 82
data to the way M 82
data to do any M 82
data on the ease M 82
data of the who M 82
data as of yet M 82
dark it is too M 82
dark in the new M 82
dark if he did M 82
daring of me with M 82
daring as in this M 82
days up in that M 80
days so we did M 80
days of my real M 80
days it is for M 80
days is the idea M 80
days if we may M 80
dark to go with M 80
dark so he did M 80
dark if it did M 80
daring as it had M 80
date of the ten M 79
data in the net M 72
days of the lay M 71
date on the far M 67
data at the one M 65
date of the pro M 64
data to an end M 62
date it is one M 57
dawn on us and M 56
date is so near M 56
days he is out M 55
date on the air M 54
data to the age M 54
days of the meat M 53
days at the east M 53
dash at the rear M 53
days at the then M 52
date as of that M 52
data at the far M 52
days is the key M 51
data of the east M 51
data at the mid M 51
data at the air M 51
daring in the war M 51
dawn on us all M 50
date to as far M 50
date of the lay M 50
data to the net M 50
data as of mid M 50
days of the top M 49
days of the cut M 49
days in the bad M 49
data to be pre M 49
date at or near M 48
data on the eating M 48
days to be off M 47
dawn in the new M 47
data to the east M 47
data to go out M 47
dash on the top M 47
days in it that M 46
date on it but M 46
data up to may M 46
data in an age M 46
daring to do his M 46
daring to be out M 46
days in an all M 45
date on the real M 45
date is the mid M 45
data is the age M 45
dash to the net M 45
dash at the two M 45
date to do that M 44
date on the team M 44
date of the all M 44
data on the pro M 44
data it is that M 44
daring to do and M 44
days of the out M 43
days in an arm M 43
days by the then M 43
days at the long M 43
date by the death M 43
date as to his M 43
date as the real M 43
dark of the low M 43
days to the red M 42
days the thing that M 42
days on the sun M 42
days in the fly M 42
days if no one M 42
date to an end M 42
date of the key M 42
date at the year M 42
data to the pre M 42
dash in to see M 42
dark of the wings M 42
dark in the dead M 42
days of the box M 41
date to the song M 41
data by the age M 41
dash of the one M 41
dash in at any M 41
dash at us and M 41
dark as the dead M 41
date it as being M 40
date at the old M 40
data in the mean M 40
data as the year M 40
dash if he had M 40
dash at me with M 40
dark of the dead M 40
date of the tax D 10178
days of the raj D 6123
data on the bus D 5842
days of the fur D 5086
dating to the end D 5075
data as in fig D 4957
dating to the mid D 4932
dash of the pen D 4436
days at sea and D 4302
dais at the end D 3419
days in the hot D 3028
days of the oil D 2892
days of the art D 2692
data on the sex D 2612
days in the tax D 2431
dais at the far D 2289
damn if he did D 2253
dating of the two D 2170
days in the bay D 2166
days in the rat D 2112
dating of the poem D 1832
data in the row D 1798
dating as it does D 1665
damn thing we can D 1654
damp in the air D 1580
data to be fed D 1536
damn if he was D 1482
dark in the car D 1404
days at sea with D 1286
days of the tax D 1280
days on the ice D 1245
days the sea was D 1220
days at the inn D 1147
days in the ice D 1092
dark in the hut D 1050
damn thing to say D 1046
dame of the old D 1002
dating of the new D 969
dash of the car D 956
damn if it was D 948
data is the raw D 937
days at sea they D 930
dark of the car D 880
dating to the year D 868
data on the per D 866
damn if it did D 846
dating of the dead D 773
days in the rue D 756
dais at the head D 754
days of the ice D 752
days in the car D 748
days of the tang D 730
days of the gay D 728
data on the gas D 716
damn me if you D 710
days in the lab D 708
days at sea are D 704
data on the oil D 701
days of the riot D 699
dating of the end D 699
data in the ram D 687
days in the egg D 684
dating to the pre D 679
dams in the area D 678
damn thing at all D 675
days on the eve D 665
damn thing is not D 650
data on the tax D 649
data to the bus D 646
damn thing in this D 644
damn thing is going D 642
dash to the car D 638
damn thing to you D 632
date of the peak D 620
days in the hut D 614
days of the rye D 607
days of the hot D 606
date of the fiat D 600
days as an art D 591
damn if he had D 583
days of the gas D 574
dating to the old D 572
days at an inn D 565
dark at the tip D 556
damp as it was D 554
days at sea had D 542
days in the mud D 539
days in the oil D 534
dart at the end D 511
dawn of the art D 508
damn thing to him D 508
days at sea was D 506
damp of the earth D 498
dating of the old D 494
days of the sung D 492
data in the rat D 480
dash of the oar D 457
dating to the new D 456
date of the rig D 456
date of the earl D 456
dare go to bed D 450
dating at the end D 438
date of the seal D 438
damn thing if you D 438
dais at the top D 436
dating of the earth D 434
data in the raw D 430
days of the rig D 418
days of the bay D 414
days of the hon D 412
days of the car D 410
damp of the air D 410
days at the art D 406
dawn of the jet D 402
days at sea for D 398
days on the bus D 394
damn thing up and D 390
dating to the era D 388
daft in the head D 378
days of the earl D 376
days on the bay D 369
days of the ark D 365
dash of the tar D 356
data of the gas D 352
days of the lion D 350
damn thing to get D 346
damn thing in his D 344
data on the rat D 340
dark of the hut D 337
dating as it did D 330
dart at the head D 330
days at the zoo D 322
date of the car D 316
dais at the east D 313
days of the tin D 312
dash of my pen D 312
days at sea she D 310
days in the cow D 306
days of the van D 298
days to my bed D 296
dams at the head D 296
days in the inn D 294
days in the gay D 294
days in the bath D 294
daft thing to say D 294
days of the bus D 292
days at the peak D 290
dawn the sea was D 290
days in the art D 289
dating of the year D 289
damn if he does D 287
days in the gym D 285
days at sea per D 284
days at sea each D 284
damn thing to her D 284
data on the raw D 281
damn thing he can D 278
days of sea and D 276
data to the ins D 276
days at sea that D 274
days of the rue D 270
date of the ode D 268
days on the bed D 267
data to the mac D 266
data on the ice D 264
days of the mac D 260
data on the sub D 258
damn if it does D 257
dating in the mid D 255
data in the lab D 250
dating of the ice D 247
damn if we did D 244
days at the gym D 239
dating of the death D 238
data on sea ice D 238
days in the icy D 236
damp of the dew D 235
damn thing to them D 234
dart it up and D 232
dating at the age D 230
data to the ram D 229
days at sea but D 228
dating of the age D 228
dating by the year D 228
days in the den D 226
days at roe head D 226
dating of the peat D 222
dark of the cab D 222
days in the lap D 220
damn thing in that D 220
days of the peak D 216
data as the raw D 214
days in the bed D 213
damn me if she D 213
days of the gang D 210
dart in the air D 210
dale of the new D 210
days on the hot D 209
date of the art D 208
date on the vial D 207
dating of the pre D 206
damn thing as far D 206
data in the gas D 205
days in an ice D 203
date of the oil D 203
days at the lab D 202
dart at it and D 202
dark on the eve D 202
data at the peak D 200
dart of the head D 200
days in the pen D 199
days at the bay D 199
data on the wear D 199
date to be met D 197
data on the peak D 195
data in the sub D 195
days on the heath D 194
days in the ark D 194
data in the cad D 193
data to the hub D 190
dart at the map D 190
dame at the age D 190
damp of the low D 189
days of the goth D 188
days in an inn D 188
days of the jet D 186
days in the fog D 186
days at the spa D 186
date of the riot D 184
days of the fox D 182
data on the hot D 182
days of the dial D 181
dark in the cab D 180
days in the hay D 178
days by sea and D 178
days at sea than D 178
data of the sub D 178
data at the sub D 178
data on the art D 177
data on the car D 176
dark as the ace D 176
dawn of the oil D 175
dark on the bed D 174
date of the sub D 173
dating of the long D 172
dart is by his D 172
dame on the day D 172
dams of the new D 170
days of the rat D 169
days of the tong D 168
days of the gun D 168
days in my bed D 168
days at the hut D 168
date of the fee D 168
dark to the bed D 168
date in the art D 166
dams at the end D 166
dais at the rear D 165
dating to the age D 164
date on the seal D 164
date of the con D 162
days of the fat D 160
days of the egg D 160
damn thing he did D 160
days at sea did D 158
data to the row D 158
dale in the new D 158
days of the heath D 156
days at the met D 154
dart of the eye D 154
data is an art D 153
dating in the year D 152
damn thing he had D 150
damn the king and D 150
dawn of an art D 146
days of the seal D 144
days of the mud D 144
dash of the seas D 144
dark sea of death D 144
dark is thy bed D 144
dabs at it with D 144
days in the peak D 143
days the sea had D 142
days of an oil D 142
days by the ice D 142
damn thing on this D 142
damn me if they D 142
damn thing is that D 141
days to be deaf D 140
damp as the dew D 139
days in the sow D 138
dart of the fang D 138
dash of an oar D 136
dart or the leap D 134
data to the tax D 133
date of the ice D 130
data of the raw D 130
damp at the end D 130
days in the pig D 129
damp in the heat D 129
damp as if she D 129
days on the thin D 128
days on the seas D 128
darn thing we can D 128
dark as the car D 128
days to go pot D 126
dating of the song D 126
dating of the art D 126
date on the lid D 126
date in the car D 126
days on the egg D 124
dating to the song D 124
data in the bean D 124
dams in the bed D 124
days the sea has D 122
days as an egg D 122
dating of the seal D 122
dating is to get D 122
date as the yang D 122
data is the pie D 122
data at the zip D 122
dawn by the icy D 120
dash of my car D 120
days of the inn D 119
dating of the law D 119
data on the leaf D 119
days of the shoe D 118
days at sea you D 118
data to the gun D 118
data on the fat D 118
data of the sex D 118
days at the earl D 116
date on the dial D 116
date in the pie D 116
data on the egg D 116
dash of the fox D 116
damn thing it was D 116
dame at the end D 116
darn if he did D 115
days of the thaw D 114
dating of the war D 114
days on the dun D 112
days of the cap D 112
data of the beam D 112
data is the chi D 112
days of the sex D 110
days of the dig D 110
days at sea out D 110
dating of the kings D 110
damp of the fog D 110
days as an oil D 109
data of the fig D 109
data on the van D 108
dark in the den D 108
damn thing on and D 108
date in the tax D 107
dart at the fly D 107
dark as the bus D 106
damn if it had D 106
dame to be her D 106
dating of the east D 105
damp as it had D 105
days of sea air D 104
date on the leaf D 104
date of the bios D 104
data to an asp D 104
data is in ram D 104
dart at it with D 103
days in the ewe D 102
data of the ice D 102
dark as the ink D 102
damn thing do not D 102
dark of the bus D 101
days at the hot D 100
dating of the use D 100
data in the leaf D 100
damn thing he was D 100
damn me if that D 100
dame to be his D 100
days of the dean D 98
days at the rue D 98
dating as an end D 98
data in the pie D 98
data at the row D 98
dark in the van D 98
days in the fur D 97
days on the rue D 96
days in the jug D 96
date of the leaf D 96
data of the oil D 96
data it is fed D 96
damn thing in her D 96
dawn at the seal D 94
dating is the way D 94
dart on the end D 94
dark in the bus D 94
dams on the way D 94
dams in the way D 94
damn thing to see D 94
damn thing on that D 94
damn thing is all D 94
damn it if she D 94
dame in the mid D 94
dating of the ash D 93
days on the ski D 92
days on the mud D 92
days of the lad D 92
days in the lung D 92
dating by the use D 92
dark or in fog D 92
damn thing or not D 92
days at the oar D 91
days of the swing D 90
days at sea can D 90
dating to as far D 90
data of the row D 90
data in the tax D 90
dams on the two D 90
damn thing in one D 90
dawn of the hot D 89
dating in the area D 88
data on the beam D 88
daring of the lion D 88
dating to the day D 87
damn thing so that D 87
days in the gut D 86
dawn on the eve D 86
dating of the few D 86
daring me to hit D 86
dams in the dry D 86
damn thing if they D 86
damn it of two D 86
days in the lion D 84
days he is fed D 84
days at sea does D 84
dash as the car D 84
dame is up with D 84
days to the bay D 83
days on the rim D 82
days in the pub D 82
days in the pot D 82
daub it on with D 82
dating to the war D 82
date on the egg D 82
data on the lag D 82
damn to me one D 82
damn thing is too D 82
damn if we put D 82
damn if he got D 82
days of the con D 81
damn thing to death D 80
dale in the heat D 80
dating to the tang D 71
dash to the loo D 69
dating on the net D 68
dark of the bed D 62
data in an ole D 60
damp in the old D 60
dart at the top D 58
days of the pan D 57
dart at me with D 56
data of the rat D 54
data on the ore D 53
days in the sub D 52
dating is the one D 52
damp of the long D 51
days on an ice D 50
damp in the wet D 49
days of the sub D 48
days of the rum D 48
dating of the top D 48
date on the sly D 48
date to the tang D 47
date on the tax D 47
dash to the bus D 46
dash to my car D 46
data to the cad D 45
damp of the day D 45
days of the fin D 43
dart to the top D 43
days on the ark D 42
data to the sub D 42
dart at me and D 42
damp of the old D 42
dating on the sly D 41
dark on the ice D 41
damp in the pan D 41
damp as the air D 41
damp as if his D 40
dais in the rear D 40
