danger of being cut M 24773
danger of its being M 24766
dared to say that M 19280
danger of war with M 13101
danger of his being M 11189
danger to his own M 11062
danger is that they M 9800
dares to say that M 9591
danger of being too M 9414
danger of not being M 9222
danger of war and M 9144
danger of being led M 8792
danger is not that M 8784
danger of dying out M 8151
dared to ask him M 7962
danger of our being M 7616
dared to ask for M 7272
danger of being run M 7254
danger is that you M 6670
danger is that this M 6464
danger of war was M 5810
dawns on him that M 5153
danger of being put M 5050
danger of death and M 5010
danger of his own M 4894
danger of going too M 4338
danger of her being M 4270
dared to ask her M 4136
danger of going out M 3837
dawns on you that M 3700
danger is that one M 3493
danger in all this M 3020
danger of any one M 2871
dared to put his M 2552
danger of war had M 2516
danger to our own M 2428
danger of its own M 2366
dawns on them that M 2352
danger to him and M 2226
danger to her own M 2182
danger to its own M 2112
danger of being out M 2072
danger is real and M 2054
danger of being set M 1950
danger is not yet M 1868
danger of war has M 1856
dared to try and M 1850
dated in that year M 1801
dawns on her that M 1773
dawning on him that M 1756
danger to all who M 1734
danger of death for M 1662
danger to you and M 1628
danger of doing this M 1616
danger in its use M 1607
danger in doing this M 1576
dared to use his M 1572
dawning of that day M 1549
danger of this new M 1546
daily to see that M 1543
danger is that our M 1506
danger if they are M 1496
dared to lay his M 1488
danger in being too M 1462
dated on that day M 1454
dared to say this M 1432
danger to them and M 1360
danger of them being M 1334
danger of going off M 1320
danger of this was M 1298
daily in his own M 1287
danger is that too M 1274
dated on and off M 1239
danger to her and M 1238
danger he had run M 1234
danger to any one M 1225
dared to deal with M 1214
danger in using this M 1210
danger to man and M 1186
danger to law and M 1168
danger in his own M 1166
dates of death and M 1155
dated the day and M 1152
dawning of this new M 1133
dared to ask you M 1132
danger of all this M 1132
danger of death was M 1118
dated in this way M 1103
danger of her own M 1098
daily in and out M 1097
danger of using too M 1094
daily to see how M 1087
danger of this being M 1053
danger of his doing M 1044
dared go near him M 1028
daily in this way M 1017
danger is that she M 1014
danger is that with M 1006
dared to ask them M 1000
danger as they are M 992
danger is that all M 990
danger to them all M 953
danger of our own M 952
danger of doing too M 948
dawning on her that M 946
danger of our going M 936
danger of all was M 930
daily to see him M 930
dared to set his M 928
dared to use them M 920
danger he did not M 914
dares to ask for M 911
danger of his not M 910
danger of using this M 898
danger of doing that M 898
danger is that any M 896
danger in all its M 894
danger of going mad M 872
danger of his going M 870
dates of his own M 862
dared to bring him M 862
daily to see her M 862
dates of death are M 856
dared to ask why M 854
danger of not doing M 844
danger is one that M 836
danger of its not M 832
dates do not fit M 812
daily on his way M 805
dared to let him M 794
danger of war for M 792
danger of war that M 790
danger of its use M 790
dated at this day M 789
danger in this way M 784
danger in this area M 784
danger of using them M 782
dared to put her M 772
danger of its doing M 768
danger is that his M 768
danger we can not M 764
dared to let her M 736
danger of our not M 728
danger of its going M 724
danger if you are M 710
dared to ask his M 706
danger of being all M 689
danger of being thus M 684
dates in each year M 679
daily to deal with M 678
dared to ask any M 666
danger of that now M 666
dates so that they M 664
danger of death that M 652
danger of this and M 640
danger he had not M 638
dates so that you M 636
daily in our own M 635
danger he and his M 628
danger if they did M 626
danger of her son M 624
danger in his rear M 622
daily so that they M 621
dawning on them that M 619
danger of eating too M 612
daily to each man M 610
danger of war can M 602
danger of being ill M 600
dared to let his M 598
dared to die for M 594
danger is that men M 594
danger in this new M 594
danger of his son M 593
dared to put this M 592
dated to that year M 591
danger of her going M 578
danger of being one M 574
dared to use her M 570
danger of dying and M 560
danger is not too M 560
dates of this and M 556
danger if they had M 550
dared to ask that M 548
danger to men and M 548
dates of each and M 546
daily on its own M 546
dared to put them M 544
daily if you are M 543
danger of sin and M 536
danger of being for M 534
danger in his path M 534
danger is real that M 532
danger of that with M 530
dared to cry out M 528
danger in using them M 528
danger to them both M 526
danger of this sin M 524
danger in any way M 520
danger to him was M 518
daily if they are M 516
dawning of each new M 510
danger to her son M 510
danger of our age M 509
dared to act thus M 504
daily to god for M 501
danger is that its M 498
danger of being hung M 494
danger to all that M 492
danger is not real M 490
danger in going too M 490
dared to run for M 486
danger to them was M 484
dates of his death M 482
danger if she did M 482
danger of death may M 478
dared to put out M 476
danger in our own M 476
danger of dying for M 474
dared to use this M 472
danger is that each M 472
dated in this year M 469
danger of dying with M 466
danger of him being M 464
danger in this and M 464
dares to say this M 458
dares to put his M 456
danger in that they M 456
danger is not one M 455
dared to set out M 452
danger to one who M 452
dates of death for M 451
dared to bring his M 450
dared to let them M 446
danger of being read M 443
danger to his men M 440
danger of his death M 440
danger at all that M 440
danger of being not M 438
dared to bring any M 436
danger of war may M 434
danger of his dying M 433
danger to his son M 430
danger of war but M 428
dares to deal with M 426
dared to bring out M 426
danger is that both M 426
daily to hear that M 425
daily so that you M 425
danger is near and M 424
dared to use that M 421
danger of death but M 420
danger in this was M 420
danger is all too M 418
dawns on one that M 414
dates of kings and M 414
dawning of his day M 410
danger to our way M 410
danger in this for M 406
danger as she was M 406
dared to say she M 402
dared to say and M 402
danger in her own M 402
danger of any ill M 400
dared to say things M 396
danger so that they M 394
danger of war than M 392
dates is that they M 390
danger of them all M 390
danger in this than M 388
dates of his two M 386
danger of our day M 383
daily at his own M 383
dawning of this day M 382
danger to her was M 382
danger to them than M 380
dates as they are M 377
dated by you and M 376
dared to read and M 376
danger on his own M 376
danger of this man M 374
dated as long ago M 372
danger is that not M 372
dates we can not M 367
danger as you are M 366
dared to say one M 365
danger by his own M 364
danger of death than M 360
dared go near them M 358
danger we are all M 358
danger of death had M 358
danger as they had M 356
dates of both are M 352
dared to ask how M 350
dared to get out M 346
danger of not using M 346
danger of doing any M 346
danger of death are M 346
dared to say they M 344
danger to him than M 344
danger of all that M 343
dared to bring them M 342
dared to bring her M 342
danger of her dying M 342
dared to say out M 340
dared to bring this M 338
dares to set his M 337
dares do all that M 335
dates of all his M 334
dared to put him M 334
danger of things going M 330
daily if you can M 330
danger is then that M 328
dared go near her M 324
dares to try and M 318
danger in its own M 318
daily as they are M 316
dated in his own M 315
dared to use any M 312
danger is that man M 311
dated as they are M 310
danger in eating too M 310
daily on her way M 309
danger of that was M 308
danger he does not M 306
daily in her own M 305
dared do for him M 304
danger in our day M 304
dated so long ago M 303
danger of bias and M 302
danger is not now M 302
danger he was not M 302
daily to see his M 302
dates so you can M 296
danger of that for M 295
danger of any man M 294
danger of this war M 293
dared to put our M 290
danger of this than M 290
daily to see them M 290
danger in using too M 284
danger in our way M 284
dawning of each day M 282
dared to say all M 280
danger to any man M 280
danger of this with M 280
danger of war being M 278
danger of being let M 278
danger of any act M 278
daily to read and M 278
daily to pay his M 277
dated to this year M 275
danger to her than M 274
danger of our doing M 274
danger of one day M 274
danger of his men M 274
danger is not all M 272
daily by men and M 271
dared to ask this M 270
danger of war are M 270
danger of death due M 270
danger of any new M 270
dates of all her M 268
daily to all who M 268
dared to say them M 266
danger to him who M 266
dates in this way M 265
daily to ask for M 264
dates if they are M 263
danger of this can M 262
danger of being weak M 262
dares to lay his M 260
dared to ask god M 260
danger to his rear M 260
danger in this war M 260
danger in this age M 260
dates in may and M 258
dared to try this M 258
danger of going far M 258
dawns on him and M 257
danger of one being M 257
danger in doing that M 257
danger of this for M 256
danger in her eye M 255
danger of this has M 254
daily so that her M 253
danger of death has M 252
danger to them that M 251
dared to say any M 250
danger to him that M 250
danger of death with M 250
dates in his own M 249
dared to see them M 248
danger of this age M 248
danger is near them M 248
danger as she had M 248
danger is now that M 247
danger we had run M 246
danger of using any M 246
danger in going out M 246
danger of air being M 244
danger to all our M 242
danger of all who M 240
danger of all for M 238
danger of dry rot M 236
danger is that for M 236
danger by her own M 236
dares to say she M 235
danger to say that M 235
danger to him now M 234
danger of war lay M 234
daily by its own M 233
dared to cut off M 232
danger of him who M 232
danger of being both M 232
danger is not for M 232
danger he can not M 232
dared to put off M 230
danger if she had M 230
danger he was now M 230
daily so that each M 230
dares to ask him M 228
dared to ask one M 228
danger to our men M 228
danger of men being M 228
danger of all his M 228
danger in using any M 228
danger at all and M 228
dares to use his M 227
dares to cut off M 226
dared to mix with M 226
danger of death they M 226
danger we did not M 224
danger of any real M 224
danger is that new M 224
danger in that way M 224
danger in not doing M 224
danger in his eye M 224
danger of using one M 223
danger by his son M 222
daily to his own M 221
danger is his own M 220
dates in our own M 218
dared to see him M 218
dared do all that M 218
daily so you can M 218
danger to see you M 216
danger of war did M 216
danger of new and M 216
danger he saw was M 216
dared to try out M 214
danger of her doing M 214
danger it was not M 214
danger he had put M 214
dared to try his M 212
dared to pit his M 212
daily so that she M 212
daily in all our M 211
danger of doing him M 210
danger of too long M 208
danger of his head M 208
danger of eating and M 208
danger is far off M 208
daily in his way M 208
dated in any way M 207
dared to rear its M 206
danger to any who M 206
danger of all our M 206
danger in not being M 204
danger he was going M 204
dared to say with M 202
dared to say his M 202
danger in his going M 200
dared to toy with M 198
danger of not going M 198
danger of death can M 198
danger to our war M 196
danger he was then M 196
dared to try that M 195
danger in our path M 194
daily on his own M 194
danger of this way M 192
danger in this that M 192
daily to his job M 192
daily on our way M 191
danger of being won M 190
danger of all being M 190
danger at this age M 190
dared to vie with M 188
dared to say was M 188
danger of war they M 188
danger of his using M 188
danger at all for M 188
dared go that far M 187
dared to lay its M 186
danger on that day M 186
danger of you being M 186
danger it was too M 186
danger in this man M 186
dares to ask her M 185
dates of her own M 184
dates in that year M 184
dared to lay her M 184
danger on his way M 184
danger in our going M 184
daily to buy and M 184
dared to own that M 183
dates of use for M 182
dated on this day M 182
dared to bid for M 182
dared in any way M 182
danger in that area M 182
danger if she was M 182
danger as they did M 182
dates of this year M 181
dared to put that M 181
dares to see and M 180
dared to get too M 180
dared the long and M 180
danger of that death M 180
danger of doing things M 180
danger in them than M 180
dates do not mean M 178
dared to use him M 178
danger to earth and M 178
danger or death and M 178
danger of two things M 178
danger it was that M 178
danger if you had M 178
dawning in his own M 176
dated the day they M 176
danger on this head M 176
danger of war does M 176
danger of this one M 176
danger if you can M 176
daily to see this M 175
dared to use its M 174
dared to see her M 174
danger to you than M 174
danger of his new M 174
danger of being wet M 174
danger at this day M 174
dares to say they M 173
dared to try for M 173
dated on one day M 172
dared to let you M 172
danger to any but M 172
danger to all his M 172
danger of war she M 172
danger of this had M 172
danger of her not M 172
danger of being beat M 171
danger to all men M 170
danger of our men M 170
danger of going with M 170
danger is not new M 170
daily to pay for M 170
daily to beg for M 170
daily to get rid M 169
dared to ask and M 168
dared to act for M 168
dared to act and M 166
danger or that his M 166
daily is all that M 166
danger is that that M 165
danger on that head M 164
danger of his act M 164
danger of any war M 164
daily to god and M 163
dates to see how M 162
dared to use one M 162
dared to put any M 162
dared to ask who M 162
dared to add that M 162
dared to act with M 162
danger of this law M 162
danger of death any M 162
danger is not far M 162
danger as real and M 162
dared to bring that M 161
dates of each year M 160
dares to ask why M 160
danger of war now M 160
danger of using his M 160
danger of one man M 160
danger is not with M 160
daily of his own M 159
dawning of that new M 158
dawning in his eye M 158
danger of new war M 158
danger is real but M 158
danger in this use M 158
dated in this era M 156
dares to let his M 156
dared to use with M 156
dared to use both M 156
daily in one way M 156
dated so that they M 155
dares to use them M 155
danger is too near M 155
dates on them and M 154
dates of new and M 154
dared to read them M 154
danger to men who M 154
danger of his job M 154
danger do you see M 154
danger to fear that M 153
dared to put its M 152
danger we are now M 152
danger of this path M 152
danger of that day M 152
danger in one way M 152
danger is that her M 150
dates in this and M 148
dates as you can M 148
dares to say how M 148
dared to say how M 148
danger to his new M 148
danger of using new M 148
danger by day and M 148
daily to see and M 148
dared to aid his M 146
danger of any law M 146
dared to get near M 145
dates in her head M 144
dares to vie with M 144
danger on this day M 144
danger is near you M 144
dawning on you that M 143
dates in one year M 142
dared to act this M 142
danger we had not M 142
danger of this may M 142
danger of doing them M 142
danger in them and M 142
daily by our own M 142
dates if you can M 141
dares the man put M 140
danger to all its M 140
danger of dying but M 140
danger of death who M 140
danger of being long M 140
danger is that two M 140
danger in doing too M 140
dates of its own M 138
dated in may and M 138
danger of this act M 138
danger of them going M 138
danger of death does M 138
danger of being far M 138
danger of any bad M 138
daily so that any M 138
daily is not too M 138
danger of that and M 136
daily in may and M 136
dared to sit with M 134
daily by all who M 133
dates he was eating M 132
dared to set off M 132
danger of them are M 132
danger in its being M 132
danger he ran was M 132
danger of its dying M 131
danger of death being M 131
danger of being bit M 131
dates of both his M 130
dared to say her M 130
danger to bring out M 130
danger so that his M 130
danger of death did M 130
danger of death all M 130
danger of being with M 130
danger of any but M 130
danger of all and M 130
danger by its own M 130
daily to try and M 129
daily to god that M 129
dared to use and M 128
danger it does not M 128
danger is not being M 128
danger in this idea M 128
danger if you try M 128
danger of dying off M 127
danger in his being M 127
danger in all that M 127
dares to try his M 126
dared to try her M 126
dared to set her M 126
dared to lay any M 126
danger to both man M 126
danger to all and M 126
danger of all lay M 126
danger in any one M 126
daily to hear him M 126
daily by men who M 126
daily as they did M 126
dares to say one M 125
daily in all its M 125
dates of use and M 124
danger to them now M 124
danger to them for M 124
danger or that they M 124
danger of using our M 124
danger of that man M 124
danger of one who M 124
danger of dying than M 124
daily of its own M 123
dates on his own M 122
dates of each job M 122
danger of this use M 122
danger of old age M 122
danger of death not M 122
daily in this area M 122
dated to this era M 121
dares to put them M 120
dares go near him M 120
dared to wet his M 120
danger on her son M 120
danger of that yet M 120
danger of being dead M 120
danger of air and M 120
danger is and how M 120
dates he did not M 119
danger of sin that M 119
dares to cry out M 118
dared to see that M 118
dared to get rid M 118
danger of them doing M 118
danger of men and M 118
danger is that god M 118
daily to sin and M 118
daily to our own M 117
dawning of this idea M 116
dates of our own M 116
dated by his own M 116
dared to use for M 116
dared to try new M 116
dared to set them M 116
dared to see and M 116
dared to read his M 116
danger of too easy M 116
danger in not using M 116
daily he got new M 116
dared to say for M 114
dared to put one M 114
dared to cut them M 114
danger of vying with M 114
danger of this now M 114
danger of this idea M 114
danger of going for M 114
danger it did not M 114
daily to this lying M 113
dared go too far M 112
danger on her own M 112
danger of that being M 112
danger of going bad M 112
danger is that due M 112
danger he was thus M 112
danger of this too M 111
daily by his own M 111
dates to see that M 110
dates of his and M 110
dated the day that M 110
dared go out and M 110
danger to you all M 110
danger so that you M 110
danger on its own M 110
danger of long and M 110
danger of going any M 110
danger of bias due M 110
danger of bad air M 110
danger it can not M 110
danger in our being M 110
danger if you did M 110
danger at his own M 110
daily to sit with M 110
daily so that all M 110
dares to put her M 108
dared to beg for M 108
danger of this myth M 108
danger of eating meat M 108
danger in her going M 108
dawns in all its M 107
dared to die that M 107
danger in using that M 107
dates by one day M 106
dated so that you M 106
dared to say him M 106
dared to long for M 106
danger to him had M 106
danger so real that M 106
danger of war not M 106
danger of them that M 106
danger of going dry M 106
danger of being kings M 106
danger is that few M 106
daily to see you M 105
dares to cut them M 104
dared to buy them M 104
danger to both men M 104
danger of them and M 104
danger of being and M 104
danger is they may M 104
danger if they can M 104
daily so they can M 104
dates in any year M 103
dates if you are M 103
dates of all our M 102
dared to own his M 102
dared to act out M 102
danger we are not M 102
danger to her had M 102
danger so that she M 102
danger of war led M 102
danger of her death M 102
danger is that things M 102
danger is real can M 102
dates to his own M 101
dates is not yet M 100
dates in one day M 100
dared to use our M 100
dared to say yes M 100
dared to say now M 100
danger to deal with M 100
danger of death she M 100
danger is not owing M 100
danger if you get M 100
dares to die for M 99
danger is all that M 99
dared to try him M 98
dared to beat his M 98
danger so they can M 98
danger of men who M 98
danger of her new M 98
danger of fear and M 98
danger of death now M 98
danger is not due M 98
danger in all our M 98
dawning of our own M 96
dates in his head M 96
dared go with him M 96
danger we all ran M 96
danger or can not M 96
danger of our dying M 96
danger is that real M 96
danger in that for M 96
danger if she does M 96
danger as any one M 96
danger as any man M 96
daily the men who M 96
daily in each eye M 96
daily in its own M 95
dates of use are M 94
dates as they may M 94
dated to that era M 94
dared to set him M 94
dared to beat him M 94
danger to both our M 94
danger he has run M 94
daily to him and M 94
dares to ask them M 93
danger by going out M 93
daily to run its M 93
dates of this era M 92
dared to win her M 92
dared to this day M 92
dared to fly off M 92
dared to cut his M 92
dared to ask was M 92
dared on his own M 92
danger to you now M 92
danger to her now M 92
danger to fear than M 92
danger of this long M 92
danger of being his M 92
danger it was his M 92
danger it was for M 92
danger is our own M 92
danger in this act M 92
danger in that and M 92
danger at all but M 92
daily to get her M 92
daily on eye and M 92
daily in all his M 92
dates on them are M 90
dates in this era M 90
dared to try them M 90
dared to pay his M 90
dared to get off M 90
dared go near his M 90
danger of that sin M 90
danger of both being M 90
danger of being its M 90
danger of all its M 90
danger in old age M 90
danger do you mean M 90
daily to all men M 90
dates so they can M 89
danger of going near M 89
danger of going all M 89
dates the new era M 88
dated the one and M 88
dares to use this M 88
danger on her way M 88
danger of man and M 88
danger of his thus M 88
danger is not going M 88
danger is for you M 88
danger if one does M 88
daily on her own M 88
dared to let out M 87
dawns on them they M 86
dawning of day and M 86
dates is that you M 86
dates as you read M 86
dated the day she M 86
dares to say you M 86
dares to say things M 86
danger to this new M 86
danger to him but M 86
danger or death for M 86
danger of its long M 86
danger of being near M 86
danger in his way M 86
danger as her own M 86
daily to him for M 86
daily to get them M 86
dawns on men that M 85
dawns on you with M 84
dates of any two M 84
dared to sit near M 84
danger or that she M 84
danger of using its M 84
danger of too low M 84
danger is now being M 84
danger is being too M 84
danger he has not M 84
danger do you fear M 84
danger in being near M 83
dated on new year M 82
dated at all and M 82
dares to say not M 82
dares to own that M 82
dared to sit and M 82
dared to lead his M 82
danger to man than M 82
danger to both his M 82
danger of war both M 82
danger do you run M 82
danger as they saw M 82
danger we all run M 81
danger is that non M 81
dawning on them all M 80
dates of each are M 80
dates of day and M 80
dated in one year M 80
dares to ask you M 80
dares to act with M 80
dared to bring with M 80
dared to bring all M 80
danger to let him M 80
danger is that air M 80
danger is not easy M 80
danger in her way M 80
danger he may not M 80
danger do you not M 80
danger by using her M 80
danger as his own M 80
danger is not near M 61
danger in this one M 54
daily of all that M 53
dates so that she M 52
danger of using lead M 52
daily in any one M 51
dawns on her and M 49
dared he say that M 48
dawns on him with M 47
dawning of his own M 47
dates to this era M 47
dawns on them and M 45
dates in this area M 45
daily to hear his M 45
daily or with each M 45
danger of going that M 44
danger of being off M 44
daily by each man M 44
daily to get his M 43
dates of that year M 42
daily he put off M 42
dates it was not M 41
dares to say all M 41
danger in his day M 41
dates of his son M 40
dates he does not M 40
dares to use that M 40
daily as they had M 40
darting in and out D 27500
darting to and fro D 10094
dance of death and D 7374
dashing in and out D 5898
danger of being hit D 4771
dancing in his head D 4146
dashing to and fro D 4029
dancing in and out D 3580
daddy of them all D 3404
darts in and out D 2890
dance of death was D 2698
dance in and out D 2258
dancing to and fro D 2087
dancing in her head D 1777
dance of death with D 1471
dance of his own D 1397
dance of death that D 1245
darling be both law D 1188
dance to his own D 1156
dance on new year D 1046
daily to and fro D 1021
daddy is not going D 1002
dance in all its D 999
dance of its own D 918
darts to and fro D 901
dance to and fro D 894
dance of her own D 870
dance of men and D 852
dancing on his toes D 842
dancing on one leg D 841
dance in this way D 806
dance of death had D 728
dance of joy and D 682
dangling to and fro D 673
dangling in mid air D 671
dance of death for D 650
dance in his head D 644
dancing to his own D 618
damning of all was D 610
damning of men for D 587
dancing on her toes D 586
dazed by his own D 577
dance on one leg D 546
darling of his old D 544
dancing on his head D 544
dazed as she was D 540
damping is not too D 534
dancing of men and D 524
dance of death are D 524
darling of them all D 518
dance of things that D 507
dance the way they D 496
dance in art and D 496
dancing at one end D 486
dance or two with D 484
dancing the gay lib D 482
dance of death has D 474
dazed by all that D 455
darling of his age D 454
dancing to her own D 436
danger of riot and D 434
dance in his own D 430
dance to this song D 428
dancing to its own D 425
dance on his head D 414
dandy in his way D 407
dance to its own D 384
dance in her head D 384
dance on her own D 370
dance on his own D 366
dance on her toes D 366
dancing of its own D 358
dancing in all its D 347
dance in her own D 346
dared to wear them D 342
dance of our own D 328
dance as they did D 325
dance so that they D 324
dance on his toes D 324
dance or two and D 322
dancing on his own D 317
dance to her own D 316
dazed to see that D 314
dangling on her arm D 313
danger of being met D 312
dazed by all this D 304
dance in its own D 300
dance it with him D 296
dabbing at them with D 294
daddy is dead and D 293
dance the way you D 292
dance as they are D 290
dangling in thin air D 288
dazed by her own D 284
dancing on her own D 284
daubs of red and D 280
darling of all who D 280
darling of his own D 278
dancing in his own D 278
dance at her own D 278
datum in its own D 272
dancing in her eye D 272
dance is not for D 272
dance in joy and D 266
dangling by one leg D 264
dazed by you for D 260
dance in our own D 260
dance if you are D 254
dance on all our D 248
dance if you can D 248
dancing on that day D 247
dance to our own D 246
dancing in this way D 240
danger of his hat D 238
dance on that day D 238
dancing by men and D 237
daddy is not dead D 237
dance as she had D 235
darling is dying now D 234
dance at his own D 233
dangling by one arm D 232
dance it with you D 232
dancing on its way D 228
dance he did not D 228
dance at all and D 227
dancing in her own D 222
dance as she did D 222
dance on its own D 218
dance of all things D 218
darling of all men D 216
dance as they had D 216
dared to fling its D 214
dangling at one end D 208
dandy of his day D 208
dangling on his arm D 207
damning thing that can D 206
dance it with her D 202
damning of all men D 201
danger of ice and D 200
dancing as she had D 200
dared to wear his D 196
dance the way she D 196
dancing as they had D 194
dancing on may day D 193
dance of sun and D 191
dancing in her seat D 189
dangling at his hip D 188
dance to that song D 188
dabbing the area with D 188
darling of men and D 186
dance so that she D 186
daddy to let him D 186
dance the old year D 182
dangling at its end D 180
dance of war and D 180
dance on her way D 179
dancing on and off D 175
dabbing at her own D 175
daily the pet pug D 174
dancing on new year D 173
dance to this one D 171
dared to sue for D 170
dames as they sat D 170
dancing in its own D 169
dance is one that D 169
dance by men and D 168
dance as art and D 168
dance at all but D 163
dancing on them now D 162
damming up with mud D 162
darling of her own D 160
damps of death are D 160
dance is leaf and D 158
dabbing at her wet D 158
dance is not yet D 156
danger of art being D 154
dazed by this new D 152
danger of being bed D 152
dancing the way they D 152
dazed he did not D 150
dashing at him with D 150
dance of man and D 150
darling as you are D 148
dancing to this song D 148
dance in any way D 148
dance is for you D 146
daily to each cow D 146
dance to her death D 145
dance on this day D 145
dance to him and D 144
dance the new year D 144
dancing on its own D 142
dancing in with her D 142
dance to see how D 141
dance of them that D 141
darting at him and D 140
dangle in mid air D 140
dance of death goes D 140
dames in our day D 140
dabbing at her red D 140
dance it for you D 139
dandy in his own D 138
dancing at her own D 137
dance of her yet D 136
daily in his ears D 136
dancing is not for D 135
dance by his own D 134
dancing in his seat D 133
dance as man and D 133
daddy do not you D 133
danger of eating raw D 132
dance my way out D 132
dancing as they sang D 131
dance if they are D 131
darling of all that D 130
dared to woo her D 130
dance my ass off D 130
dancing as she was D 129
dance is one way D 129
datum of his own D 128
dandy in his day D 128
damning the man who D 128
darling of his day D 126
dabbing at him with D 126
dancing on her head D 125
dance to his death D 125
dancing of men with D 124
dance it with any D 124
dazed at his own D 123
dance to this day D 123
daddy to buy you D 123
dazed by its own D 122
darling of all our D 122
dance as she was D 122
dairy to see how D 122
dancing in his eye D 121
dance of death can D 120
daisy is not out D 120
daubs it with red D 119
danged if she did D 118
daddy do not ask D 118
dared to wear her D 116
daemon of his own D 116
dabbing at her eye D 116
dancing as they did D 115
dance so long that D 115
damping is low and D 115
dashing on its way D 114
dared to wag his D 114
dance of yin and D 114
dance in that way D 114
dance by his red D 114
dabbing at his lip D 114
dance he had led D 113
danger to art and D 112
dames of that day D 112
dancing so that they D 111
datum in this way D 110
dancing as they are D 110
dancing is not one D 109
dance to end that D 109
dance he was doing D 109
datum in his own D 108
dancing to that song D 108
dancing on thin ice D 108
dancing on air and D 108
dance the men and D 108
dance or two for D 108
dance of death but D 108
dance on them with D 107
daddy do not get D 107
darting by with all D 106
dancing by both men D 106
dairy of his own D 106
dashing at its own D 104
darling is not dead D 104
danger to his art D 104
danged if they did D 104
dancing at his own D 104
dance of death may D 104
dabbing at her tear D 104
dance in his seat D 103
dance of joy with D 102
dance of all was D 102
damps the joy with D 102
daisy as she was D 102
dance is that you D 101
dance by two men D 101
dance is not going D 100
daddy king did not D 100
darts at him and D 99
dared to rob him D 98
dancing the old year D 98
dance we can not D 98
daddy is not got D 98
darting on and off D 97
dangle as now its D 97
dance is that they D 97
datum is mean low D 96
darling of her old D 96
dangle to and fro D 96
dancing as she did D 96
dance of death out D 96
dance in that long D 96
dance he and his D 96
daily to our ears D 96
daily in our ears D 96
dashing in his new D 94
darling of all her D 94
darling as she was D 94
danger is met with D 94
dandy of them all D 94
dancing at any one D 94
dance at all than D 93
dashing up with his D 92
darling of all his D 92
dangling at each end D 92
dance it with them D 92
dancing is not fit D 90
dance we can see D 90
damning thing was that D 90
darling do not you D 89
daily in his car D 89
dared to hit him D 88
danger of sex and D 88
dancing to hip hop D 88
dancing to her death D 88
dance he had not D 88
dance he had long D 88
daddy is not had D 88
dandy of that day D 87
darts of wit and D 86
darling of his men D 86
dancing the way she D 86
dancing on its head D 86
dazed as they had D 85
dance on and off D 85
dance he does not D 85
dance of sex and D 84
dance of joy for D 84
dance is but one D 84
damps of death had D 84
daddy of her own D 84
darts so that they D 82
darning in her lap D 82
darling on his lap D 82
dancing to see her D 82
daisy is not one D 82
daddy to bring you D 82
darts of his own D 80
dared to rob them D 80
dared to rob her D 80
danger of tying its D 80
dance he has led D 80
darts at him with D 69
dance so that you D 69
dance on may day D 62
dance it was not D 56
dance in his new D 55
dance if she had D 55
dally so long with D 54
dance is all that D 53
dance on its head D 52
dance as you can D 50
darts at them and D 49
dancing of his own D 48
dance to its beat D 48
dance as she does D 48
dance to that one D 46
daily by bus and D 46
dared to say nay D 45
dance to any one D 45
dance so they can D 45
daddy to get out D 45
dance on his way D 44
dance in her eye D 44
dance as they sang D 44
dance of long ago D 43
damping is too low D 43
dance an old man D 42
daddy is not doing D 42
dancing to our own D 41
dance so that all D 41
dance in air and D 41
dance as you may D 41
dancing is not all D 40
dance the old and D 40
dance of all that D 40
dance as she sang D 40
daddy do not let D 40
