at me because i M 31944
at the beginning i M 27446
at the beginning a M 17260
at the instant t M 17163
at the instant a M 7112
at the instant i M 5772
at the surface a M 5009
at the present i M 3286
at it because i M 2984
at the college i M 2684
at so unusual a M 2534
at so distant a M 2297
at an instant t M 2271
at the picture i M 2266
at my command i M 2164
at my request a M 2144
at the present a M 2073
at the library i M 2028
at the minimum a M 1969
at the address i M 1800
at the college a M 1786
at the division i M 1784
at the academy i M 1738
at the picture a M 1478
at the capital a M 1458
at the academy a M 1434
at the junction a M 1329
at the position a M 1317
at the trouble i M 1306
at the counter a M 1250
at the position i M 1236
at the outside a M 1234
at the liberty i M 1170
at the counter i M 1106
at the surface s M 1063
at the company i M 1040
at the schools i M 1022
at the weekend i M 1010
at the congress a M 958
at my leisure i M 896
at the library a M 840
at the doorway i M 818
at my command a M 818
at the support a M 811
at my request i M 800
at the account i M 756
at the congress i M 744
at as uniform a M 720
at the concert i M 708
at the doorway a M 700
at the question a M 690
at so immense a M 649
at the problem a M 646
at the stories i M 610
at the service i M 602
at so dreadful a M 598
at the capital i M 544
at the pleasure i M 538
at my arrival i M 536
at the parties i M 522
at the extreme a M 505
at the letters a M 470
at the question i M 466
at my devotion i M 454
at the letters i M 426
at the council a M 425
at the surface i M 423
at the figures i M 402
at the maximum a M 390
at so general a M 388
at the location a M 385
at the highest a M 378
at the lecture i M 368
at so pleasant a M 366
at the freedom i M 348
at the council i M 344
at the position s M 343
at the windows a M 342
at the barrier a M 340
at the summons a M 334
at the results i M 330
at the passage i M 328
at an address i M 320
at the material i M 316
at so glorious a M 316
at the junction i M 310
at the objects i M 308
at it closely i M 308
at so extreme a M 304
at the package i M 302
at the college d M 302
at the position t M 296
at the answers i M 296
at the location i M 295
at the subject i M 290
at the company a M 286
at the outside i M 282
at the shelter a M 272
at the exchange i M 272
at the country i M 264
at the present t M 262
at the message i M 262
at the success i M 260
at the contact a M 257
at the language i M 256
at the numbers i M 250
at the position d M 244
at the address a M 236
at the subject a M 230
at so reduced a M 230
at my service a M 230
at the windows i M 228
at so awkward a M 228
at by following a M 222
at the service a M 216
at so painful a M 214
at the machine a M 212
at it against a M 212
at so supreme a M 210
at so perfect a M 210
at my leisure a M 210
at an instant a M 209
at the decision i M 208
at the mistake i M 204
at an average a M 204
at the shelter i M 200
at the program i M 198
at so unequal a M 198
at the specify a M 196
at the problem i M 194
at the barrier i M 192
at the anxiety i M 188
at the surface t M 184
at the details i M 184
at the captain a M 178
at the marriage a M 176
at the instant s M 176
at so gradual a M 176
at so evident a M 176
at the concert a M 174
at by combining a M 172
at the choices i M 166
at so inhuman a M 166
at as distant a M 166
at the marriage i M 164
at the request i M 162
at my parents i M 162
at to provide a M 159
at the patient s M 158
at me steadily a M 158
at the moments t M 156
at to produce a M 154
at me although i M 152
at so decided a M 150
at so foolish a M 148
at an academy a M 148
at the machine i M 144
at the process a M 142
at the exchange a M 142
at so unlucky a M 142
at or attending a M 140
at the journey i M 138
at the example i M 138
at in chapter i M 138
at the company s M 137
at it because a M 132
at the silence i M 130
at the article i M 130
at so ancient a M 128
at in designing a M 126
at the friends i M 122
at the creature a M 122
at or towards a M 122
at the thoughts i M 118
at the beginning t M 118
at the bargain i M 118
at the moments i M 116
at the buildings i M 116
at so blatant a M 116
at my service i M 116
at so natural a M 114
at me because a M 114
at the results a M 112
at so intense a M 112
at so corrupt a M 112
at so regular a M 110
at or following a M 110
at an article i M 110
at the suffering i M 108
at the gateway a M 108
at so hateful a M 106
at the primary a M 105
at the present d M 105
at the screening i M 104
at the numbers a M 104
at as perfect a M 104
at the stranger a M 102
at the measures i M 102
at the figures a M 100
at the support i M 98
at the lessons i M 98
at the glimpse i M 98
at so degrading a M 98
at my pleasure i M 98
at by comparing a M 98
at the highest t M 97
at so austere a M 96
at it enjoyed a M 96
at us because i M 94
at the temples a M 94
at the rainbow i M 92
at so uniform a M 92
at no instant a M 92
at my compass i M 92
at as correct a M 92
at the surface d M 90
at so affecting a M 90
at the pattern i M 88
at the creature i M 88
at so precious a M 88
at so cautious a M 88
at by deducting a M 88
at as general a M 88
at the treasure i M 86
at my prayers i M 86
at my lecture i M 86
at my friends i M 86
at an account i M 86
at the process i M 84
at the highest i M 84
at so central a M 84
at me expecting a M 84
at by selecting a M 84
at the uniform i M 82
at the opinions i M 82
at the secrecy i M 80
at the delusion i M 80
at the baptism a M 80
at the location s M 53
at the current i M 50
at the airport i D 6188
at the airport a D 3258
at the autopsy a D 3036
at the funeral i D 2236
at the corners a D 1647
at the village i D 1606
at the embassy i D 1384
at the factory i D 1108
at the equator a D 1054
at the village a D 1048
at the cottage i D 980
at the funeral a D 976
at the inquest a D 958
at the factory a D 895
at the convent i D 836
at the embassy a D 748
at the election a D 748
at the sheriff s D 740
at the banquet i D 670
at the horizon a D 654
at the whiskey a D 620
at the banquet a D 608
at the stations a D 552
at the capitol a D 542
at the luncheon i D 540
at the inquest i D 536
at thy command i D 496
at the bedside a D 474
at the cottage a D 464
at thy request i D 442
at the insults i D 430
at the earliest a D 408
at the seminar i D 404
at so ruinous a D 404
at the treasury a D 402
at my bedside a D 398
at the blunder i D 394
at the election i D 362
at the rectory a D 360
at the treasury i D 356
at the legation i D 332
at the autopsy i D 320
at the bungalow i D 318
at an election a D 306
at the convent a D 296
at the flowers i D 288
at my expense i D 288
at the gallery i D 282
at the expense i D 281
at the stations i D 272
at the earliest i D 270
at the bedside i D 264
at my alighting i D 246
at the orifice a D 241
at the capitol i D 240
at my expense a D 232
at so shallow a D 226
at my funeral i D 216
at so radical a D 212
at the paintings i D 210
at the legation a D 206
at so haughty a D 198
at the reports i D 196
at so exalted a D 196
at the vitamin d D 192
at sea against a D 188
at sea between a D 186
at my ascribing a D 186
at the inquiry i D 170
at the horizon i D 170
at the national i D 168
at the stables a D 160
at the gallery a D 160
at my bedside i D 156
at the assizes a D 150
at the stables i D 146
at so eminent a D 146
at the seashore i D 142
at sea becomes a D 140
at the stadium a D 138
at my husband i D 134
at the sections a D 133
at as heartily a D 130
at the corners i D 126
at so appalling a D 126
at the courage i D 124
at so unworthy a D 124
at the mermaid i D 120
at the keyhole i D 120
at so promising a D 120
at the scenery i D 118
at my stomach i D 118
at the stadium i D 116
at the straits i D 114
at the seashore a D 114
at so sublime a D 114
at an airport a D 112
at the mimicry i D 110
at the audition i D 110
at the islands a D 108
at the farthest i D 104
at an airport i D 104
at the rectory i D 102
at so ominous a D 102
at the sawmill a D 98
at the offices i D 98
at the expense a D 96
at the assizes i D 96
at so startling a D 96
at so belated a D 96
at sea remains a D 96
at the seminar a D 94
at the national d D 94
at so insulting a D 94
at the optimum a D 92
at the chamber i D 92
at the recital i D 90
at the nursery i D 90
at the farthest a D 88
at sea because i D 88
at the margins a D 86
at the flowers a D 86
at the arsenal a D 86
at so drastic a D 86
at by employing a D 86
at an expense i D 86
at by assigning a D 84
at the orifice d D 80
at so slender a D 80
