ate until he was M 1654
ate anything at all M 1052
ate alone in his M 834
ate alone in her M 424
ate until it was M 370
ate until he had M 296
ate while he was M 236
ate after the men M 196
ate alone or with M 176
ate holes in his M 138
ate parts of his M 130
ate anything or not M 118
ate every thing that M 114
ate alone at his M 94
ate while it was M 92
ate seven of them M 88
ate lunch at his D 450
ate lunch in his D 310
ate lunch at her D 248
ate lunch at one D 246
ate manna or not D 164
ate lunch in one D 162
ate lunch in her D 114
ate lunch at our D 112
ate lunch in our D 102
ate flesh if they D 84
