atom is not a D 2539
atop it was a D 562
atom is now a D 231
atom as being a D 222
atop it and a D 196
atom is thus a D 191
atom or with a D 179
atom is but a D 162
atom so that a D 151
atop it sat a D 128
atom by using a D 128
atom as with a D 117
atom is then a D 109
atop it with a D 92
atop it for a D 84
