attached to it . M 460154
attention to it . M 286815
attention to me . M 82654
attention to us . M 28020
attached to me . M 18081
attempting to do . M 17948
attempts to do . M 10154
attention on it . M 10112
attitude to it . M 9440
attached to it ? M 8366
attacked by it . M 6516
attention to it ? M 6404
attended to it . M 5538
attached to us . M 4936
attention on me . M 3884
attention to me ? M 3468
attention to me ! M 3206
attained by it . M 3158
attained to it . M 3032
attitude to me . M 2016
attached to it ! M 1762
attention to the . M 1708
attempts at it . M 1446
attached to the . M 1415
attempting to do ? M 1406
attention to it ! M 1362
attended to me . M 1086
attention to us ? M 992
attached to me ? M 924
attention on us . M 872
attitude to us . M 860
attention of the . M 846
attempts to be . M 716
attained in it . M 714
attained by us . M 678
attacked the king . M 668
attended the king . M 610
attitude of the . M 534
attached to me ! M 496
attitude to it ? M 470
attention to us ! M 470
attended by me . M 450
attempting to sing . M 430
attempting to eat . M 398
attempts to sing . M 396
attacked by us . M 382
attacked in it . M 366
attempting to be . M 362
attention in it . M 360
attached to no . M 353
attitude in me . M 350
attended on us . M 346
attitude to be ? M 308
attended to us . M 302
attained to me . M 302
attempts to eat . M 298
attitude to be . M 288
attained to it ? M 280
attempting to go . M 272
attacked by me . M 266
attention on it ? M 256
attended on me . M 246
attained by it ? M 244
attended by it . M 240
attitude on it . M 236
attached to us ? M 224
attitude in it . M 216
attempts to do ? M 199
attained by me . M 190
attacked by the . M 186
attitude in us . M 178
attained to do . M 164
attempts to go . M 159
attention on the . M 156
attached on it . M 152
attempts on it . M 146
attended to it ? M 134
attacked the foe . M 130
attended by the . M 124
attention by it . M 120
attitude to me ? M 112
attended the tea . M 112
attended on it . M 112
attitude it is . M 104
attended by us . M 104
attitude of it . M 96
attempts on me . M 93
attention to king . M 88
attention in the . M 86
attained by the . M 84
attacked by it ? M 84
attention to tea . M 80
attention at me . M 80
attended to the . M 80
attained or no . M 80
