after one of the M 191187
after all it is M 91800
after all of the M 86136
after that of the M 79780
after each of the M 65496
after being in the M 37673
after him as he M 37458
after going to the M 28025
after end of the M 27828
after all is the M 27698
after that it is M 26825
after him in the M 25882
after day in the M 22002
after this it is M 21580
after all to be M 19958
after death in the M 19678
after all he is M 18570
after year in the M 17899
after death of the M 17461
after one of my M 16715
after them in the M 16691
after that in the M 16149
after all in the M 15838
after being on the M 15125
after any of the M 14680
after two in the M 14556
after him to the M 14496
after one in the M 12074
after six in the M 11573
after that to the M 11542
after use of the M 10924
after this the king M 10580
after year to the M 9912
after two of the M 9352
after year on the M 9057
after that he is M 8995
after them to the M 8637
after death to the M 8075
after her in the M 7652
after him by the M 7328
after ten in the M 7235
after him on the M 6962
after all be the M 6544
after day to the M 6462
after day on the M 5826
after all of us M 5792
after death to be M 5610
after that the king M 5474
after death is the M 5346
after year by the M 5247
after being at the M 5214
after death by the M 4984
after all to the M 4894
after this in the M 4824
after him as the M 4742
after this he is M 4682
after her to the M 4678
after you go to M 4616
after you in the M 4540
after that on the M 4522
after day at the M 4482
after lying in the M 4472
after all we do M 4326
after him as if M 4290
after that is the M 4208
after him at the M 4096
after them on the M 3987
after that by the M 3860
after them by the M 3740
after that at the M 3711
after this is the M 3504
after death it is M 3485
after him if he M 3440
after that to be M 3396
after all on the M 3346
after year at the M 3212
after both of us M 3168
after lying on the M 3094
after you do the M 2945
after they go to M 2916
after day by the M 2871
after her on the M 2800
after her as if M 2766
after this to the M 2734
after all is an M 2678
after you do it M 2582
after each of us M 2492
after death as the M 2472
after all is to M 2464
after them as if M 2405
after doing so he M 2284
after death on the M 2227
after all if the M 2220
after all at the M 2206
after you do so M 2179
after all of my M 2174
after each of my M 2158
after use in the M 2123
after one or the M 2034
after them as the M 2030
after them at the M 2029
after than or as M 1972
after year as the M 1961
after death is to M 1906
after him up the M 1902
after that as the M 1866
after going on to M 1821
after this to be M 1790
after going on the M 1772
after that we go M 1770
after going up to M 1760
after that is to M 1752
after day as the M 1748
after all by the M 1744
after one of us M 1712
after using it to M 1710
after both of the M 1710
after cup of tea M 1706
after and in the M 1698
after him in an M 1686
after death he is M 1684
after going up the M 1672
after that to go M 1584
after her at the M 1566
after all is it M 1562
after all as the M 1534
after eating of the M 1530
after death is in M 1530
after that we do M 1529
after her up the M 1516
after all if we M 1488
after all to go M 1484
after god in the M 1482
after all if he M 1478
after death or the M 1472
after six of the M 1458
after day of the M 1449
after all is no M 1448
after death is an M 1436
after her as the M 1418
after being in an M 1416
after all if it M 1410
after she or he M 1396
after him to be M 1372
after all be so M 1322
after ten or so M 1309
after this on the M 1306
after all be an M 1298
after her as he M 1284
after using it in M 1249
after them to be M 1234
after him to do M 1216
after this by the M 1214
after all the king M 1202
after year of the M 1200
after things in the M 1175
after them of the M 1162
after you on the M 1148
after year to be M 1138
after using it as M 1110
after all is in M 1110
after all be in M 1105
after death or in M 1095
after all be no M 1085
after death at the M 1084
after death as an M 1078
after ten of the M 1074
after this is to M 1068
after that of my M 1066
after her in an M 1066
after this at the M 1058
after that if the M 1058
after all the thing M 1038
after all of it M 1022
after her by the M 1008
after day as he M 1002
after man in the M 994
after you eat it M 976
after that up to M 974
after death in an M 968
after year it is M 958
after that if he M 950
after this of the M 926
after him of the M 918
after she is in M 916
after you to the M 908
after eating in the M 900
after was to be M 898
after day in an M 892
after and at the M 880
after death if the M 878
after that is up M 866
after him is the M 864
after him up to M 844
after and on the M 836
after all is of M 820
after use of an M 814
after all be of M 810
after death as in M 808
after cup of the M 808
after death is as M 802
after you at the M 800
after eating at the M 798
after this as the M 788
after day to be M 784
after death is no M 780
after them as he M 772
after death as he M 772
after this we do M 768
after all to do M 758
after using up the M 754
after them up the M 754
after that of an M 750
after them in an M 748
after him in my M 748
after death as it M 736
after him it is M 734
after going on in M 728
after all is so M 728
after and so on M 708
after that go to M 704
after that he no M 681
after use by the M 674
after being in it M 672
after doing so the M 670
after you eat the M 664
after year in an M 664
after day it is M 660
after being on my M 648
after all of no M 648
after him to go M 644
after him as an M 640
after death of an M 638
after him the king M 634
after death or at M 631
after day as if M 624
after out of the M 623
after this thing is M 616
after death is so M 612
after doing so to M 604
after death is of M 602
after all by no M 602
after them to do M 598
after death if he M 589
after was in the M 583
after year is the M 578
after going to my M 576
after that as he M 568
after all as if M 560
after them in my M 554
after men in the M 552
after use it is M 549
after all go to M 546
after singing in the M 545
after men of the M 544
after ten on the M 542
after day as we M 542
after hear of the M 538
after god as the M 536
after death go to M 532
after day in my M 532
after god to the M 530
after one by the M 526
after this is it M 522
after that to do M 520
after one on the M 520
after they do it M 516
after put to the M 508
after things of the M 504
after they do so M 500
after all is my M 498
after all do we M 496
after dying on the M 494
after all is as M 490
after ten by the M 482
after two of my M 480
after all as to M 480
after you to do M 478
after this is an M 478
after year if the M 474
after they do the M 474
after led to the M 470
after and it is M 469
after this to go M 468
after this or the M 468
after being in my M 466
after that do we M 464
after they eat the M 458
after that if we M 458
after him in no M 458
after things at the M 452
after six on the M 448
after him so he M 446
after any of us M 434
after man of the M 433
after that the thing M 430
after all in my M 428
after her to do M 424
after that of king M 420
after than in the M 418
after all in an M 418
after going in the M 416
after six by the M 415
after going to so M 415
after that as we M 412
after you as if M 410
after them or to M 410
after him by an M 408
after death to an M 408
after death as to M 408
after one or at M 404
after they go on M 401
after death or to M 401
after dying in the M 400
after day is the M 398
after doing so we M 396
after them is the M 392
after all be as M 392
after all as an M 392
after heap to the M 390
after singing at the M 388
after her in my M 380
after going to an M 380
after six or so M 379
after all as it M 378
after her to go M 376
after all as we M 376
after that if it M 374
after and to be M 373
after this do we M 372
after that is of M 364
after all as he M 364
after doing so it M 358
after and to the M 358
after and by the M 357
after that is it M 356
after god is the M 356
after age in the M 355
after this if the M 354
after that or the M 354
after year to do M 350
after death or of M 350
after this we go M 346
after going in to M 346
after day he is M 344
after this as it M 342
after eating it he M 342
after use on the M 341
after that he or M 340
after two on the M 334
after going up it M 334
after use to the M 332
after that is an M 332
after that go on M 332
after any of my M 332
after that to an M 330
after eating up the M 328
after them it is M 324
after year as he M 320
after that in an M 319
after her if he M 317
after her as an M 312
after day as it M 312
after two by the M 310
after lying at the M 310
after you in my M 308
after you if it M 308
after she is no M 306
after this is in M 304
after area of the M 304
after you or the M 302
after him as we M 302
after all it be M 302
after that in my M 300
after him on my M 300
after bad in the M 297
after year to go M 296
after being by me M 296
after his tea he M 294
after her to be M 294
after day to do M 294
after year up to M 292
after that as it M 292
after that as an M 292
after him as it M 292
after day to go M 292
after all be to M 290
after you eat or M 288
after using it on M 288
after that as if M 288
after you by the M 286
after math of the M 286
after death or on M 286
after her on my M 280
after that is in M 278
after yes or no M 277
after year is to M 276
after poem in the M 276
after death if it M 276
after that do the M 274
after him is to M 270
after doing so in M 270
after age to the M 270
after you go on M 269
after one is in M 266
after him or to M 266
after death as we M 266
after death as is M 265
after them up to M 264
after things on the M 262
after due to the M 261
after you if he M 260
after war in the M 260
after being on it M 258
after but in the M 257
after death by an M 256
after death or by M 254
after him if it M 252
after you as he M 250
after was on the M 248
after death if we M 248
after death is by M 246
after all of so M 246
after both of my M 244
after death to go M 238
after day of it M 238
after this it be M 236
after this as to M 234
after lying to the M 234
after all the so M 234
after age by the M 234
after that as to M 232
after him at an M 232
after eating of it M 232
after had to be M 231
after him or the M 230
after him or he M 230
after death as if M 230
after all to an M 228
after aging in the M 228
after all in no M 226
after you go in M 225
after year as we M 224
after they be of M 224
after them on my M 224
after him if the M 224
after day up to M 224
after are to be M 224
after all or the M 224
after lying in an M 222
after leap in the M 222
after this as he M 220
after all be on M 220
after year the king M 218
after year as if M 218
after war of the M 218
after seat of the M 218
after aging of the M 218
after them if he M 216
after death we do M 216
after death is at M 216
after year if it M 214
after them if the M 214
after being on an M 214
after all do the M 214
after death or as M 213
after year in my M 212
after that is no M 212
after day go by M 212
after bit of the M 212
after with the king M 210
after that to my M 210
after eating is the M 210
after year as it M 208
after year he is M 206
after year by an M 206
after use in an M 206
after them as we M 206
after her if it M 206
after one at the M 204
after dying on me M 204
after box of the M 204
after one thing or M 202
after death so as M 202
after all to my M 202
after one to the M 200
after death or is M 200
after this he no M 199
after that it be M 198
after that he be M 198
after death we go M 198
after has to be M 195
after things to eat M 194
after that by an M 194
after both by the M 194
after and as the M 192
after him on to M 190
after all of an M 190
after two or at M 188
after them the king M 188
after them if it M 188
after two or so M 187
after you as the M 186
after them if we M 186
after day is to M 186
after all is at M 186
after that so we M 184
after put on the M 184
after him he is M 184
after going by the M 184
after day by an M 184
after all on an M 184
after use to be M 182
after them or the M 180
after man on the M 180
after end of an M 180
after and of the M 180
after ten at the M 178
after god of the M 178
after but at the M 177
after you or me M 176
after now is the M 176
after all be at M 176
after singing by the M 174
after being up so M 174
after using it the M 172
after this up to M 172
after them is to M 172
after head of the M 172
after day on an M 172
after them as to M 170
after than it is M 170
after poem of the M 170
after all the to M 170
after him so as M 168
after you is the M 166
after year to an M 166
after she is of M 166
after that we be M 164
after lying on my M 164
after and up to M 164
after you as an M 162
after them or in M 162
after all to no M 162
after year of it M 160
after year at an M 160
after going on at M 160
after they eat it M 158
after but it is M 158
after you to be M 156
after this as we M 156
after put in the M 156
after hung in the M 156
after him as in M 156
after day to an M 156
after act of the M 156
after you to go M 154
after this do the M 154
after this as if M 154
after him to no M 154
after day at an M 154
after all is on M 154
after age of the M 154
after them as it M 152
after one is no M 152
after eating or at M 152
after she is at M 150
after year on an M 148
after singing of the M 148
after cup of it M 148
after put at the M 146
after god by the M 146
after death up to M 146
after year go by M 144
after fear of the M 144
after all up to M 144
after all is by M 144
after both in the M 142
after that on my M 140
after she is on M 140
after him as to M 140
after end of it M 140
after them so as M 139
after was at the M 138
after them as an M 138
after ran to the M 138
after her on to M 138
after eating or in M 138
after eating it is M 138
after being of the M 138
after all is he M 138
after you eat to M 136
after use as it M 136
after him or in M 136
after him as my M 136
after this in an M 134
after this if we M 134
after them to go M 134
after key in the M 134
after eating it we M 134
after being up to M 134
after ten as the M 132
after not to be M 132
after lying in it M 132
after his in the M 132
after her or to M 132
after day at my M 132
after things in my M 130
after how it is M 130
after being up in M 130
after year is an M 128
after year as an M 128
after this in my M 128
after one of king M 128
after him if we M 128
after you in no M 126
after this if he M 126
after god on the M 126
after you in an M 124
after them as in M 124
after than at the M 124
after him the via M 124
after her of the M 124
after may be the M 122
after her as we M 122
after day we go M 122
after bad in an M 122
after using it he M 120
after this to do M 120
after that is my M 120
after lying by in M 120
after her or the M 120
after end to the M 120
after doing so is M 120
after day the king M 120
after being to the M 120
after all go on M 120
after them as is M 118
after that so he M 118
after that on to M 118
after god he is M 118
after day on my M 118
after are in the M 118
after him is in M 116
after going on an M 116
after eating or an M 116
after day to my M 116
after man to be M 115
after they go in M 114
after now is to M 114
after death of my M 114
after death of king M 114
after him or so M 113
after was by the M 112
after that is he M 112
after she is up M 112
after one is the M 112
after being at it M 112
after them to no M 111
after use as the M 110
after that at my M 110
after see to it M 110
after her as it M 110
after each in the M 110
after day up the M 110
after age on the M 110
after use at the M 108
after them in no M 108
after him is an M 106
after god if so M 106
after day is no M 106
after this of my M 104
after this is of M 104
after they be by M 104
after that as is M 104
after owing to the M 104
after doing it in M 104
after box to the M 104
after being in so M 104
after you do an M 102
after year as in M 102
after that we no M 102
after that is as M 102
after song of the M 102
after eating is to M 102
after and he is M 102
after and is the M 101
after year up the M 100
after year if he M 100
after using of the M 100
after them at an M 100
after set up in M 100
after poem on the M 100
after him to an M 100
after got to the M 100
after eye to the M 100
after death or an M 100
after all at so M 100
after going on as M 99
after that is so M 98
after our tea we M 98
after going up in M 98
after any thing in M 98
after all so he M 98
after you on my M 96
after was of the M 96
after this he at M 96
after that be in M 96
after him to my M 96
after him on an M 96
after him in so M 96
after get it in M 96
after death do we M 96
after bag of the M 96
after and in an M 96
after meat in the M 95
after man by the M 95
after year we go M 94
after win of the M 94
after use or the M 94
after that on an M 94
after him do the M 94
after death or if M 94
after day is an M 94
after day if he M 94
after all he or M 94
after all do no M 94
after using it at M 92
after use so as M 92
after use is an M 92
after use by an M 92
after use as an M 92
after than to the M 92
after him to me M 92
after eating to go M 92
after being by the M 92
after all by an M 92
after you ring the M 90
after you do go M 90
after year so as M 90
after men on the M 90
after log on the M 90
after her is to M 90
after dying at the M 90
after bar of the M 90
after all or if M 90
after all as no M 90
after song in the M 89
after this is he M 88
after him to eat M 88
after eating it the M 88
after death is it M 88
after than on the M 87
after this by an M 86
after that we eat M 86
after that so it M 86
after may in the M 86
after eating is an M 86
after and if the M 86
after use is the M 84
after this he to M 84
after them is in M 84
after that king of M 84
after that is on M 84
after his on the M 84
after head on the M 84
after going up on M 84
after and if he M 83
after you go up M 82
after use if the M 82
after two of us M 82
after that we the M 82
after one is on M 82
after eating to the M 82
after eating on the M 82
after each is the M 82
after any thing of M 82
after all the the M 82
after ten as we M 80
after law in the M 80
after her up to M 80
after her if the M 80
after death by no M 80
after all so at M 80
after all or to M 80
after job in the M 62
after death or no M 62
after her so as M 52
after end on the M 51
after man at the M 45
after that so as M 44
after using it so M 42
after that the so M 41
after doing it so M 41
after day so as M 40
after boy in the M 40
after being at sea D 3302
affix them to the D 1954
after tying up the D 1358
after row of the D 1222
after leaf of the D 1044
after tax in the D 722
after going to sea D 690
after tax of the D 498
after that the sea D 474
after tax at the D 428
after peak of the D 426
afoot and in the D 409
after tax to the D 364
after wear in the D 344
after tax on the D 340
affix one of the D 323
after put to sea D 318
after tax of rs D 302
after this the sea D 301
after thee to the D 296
after pot of tea D 296
after thee in the D 274
after ringing up the D 258
after tying it to D 252
after him by sea D 252
after tying up at D 250
after ringing at the D 236
after tax is the D 214
afoot and on the D 209
after rung of the D 206
after row in the D 204
after all the sea D 187
after hit on the D 186
after tax by the D 182
after gun at the D 181
after tying on the D 178
after day the sea D 171
after bath in the D 164
after gun on the D 162
after tying in the D 156
after peal of the D 156
after hit in the D 154
after row to the D 140
after tying it in D 139
after tying it up D 136
after gun of the D 132
affix them on the D 132
after peak in the D 126
after met by the D 124
after that eon of D 122
after tax as the D 118
after wear of the D 116
after met at the D 114
after row on the D 112
after ringing in the D 112
after bay of the D 110
after mug of tea D 108
after tax to be D 106
after leaf in the D 106
affix one to the D 104
after cam to the D 100
afoot out of the D 97
affix has to be D 97
after sex in the D 96
after lap in the D 96
affix its id to D 92
after that of la D 90
after thee in thy D 88
after this he re D 86
after that an ox D 86
after ton of the D 80
after gun in the D 80
after art in the D 41
