after a few days M 818933
after a few years M 558917
after a long time M 203784
after a few more M 169672
after i had been M 154655
after i had left M 74450
after i had gone M 36058
after i had made M 35610
after i was born M 31093
after i had seen M 30576
after a long wait M 29784
after i got back M 25328
after i had done M 23531
after i got home M 23193
after a long life M 20678
after a long walk M 19916
after i had told M 15759
after a long talk M 14558
after a few such M 13440
after a long stay M 12852
after i had come M 12646
after i had sent M 12066
after i got there M 11696
after a long trial M 10976
after a two years M 10484
after i had heard M 10412
after i was gone M 9988
after i had eaten M 9348
after a two days M 8310
after a long trip M 8307
after i had said M 8209
after i got into M 6783
after a ten years M 6780
after a long hard M 6698
after i get back M 6592
after i got here M 6589
after a long look M 6582
after a long rest M 5622
after i sat down M 5525
after a few other M 5324
after i had lost M 5228
after i was done M 5191
after i get home M 5061
after a bit more M 4998
after a long fast M 4820
after i got over M 4819
after i had once M 4545
after i was there M 4452
after a long break M 4374
after a year there M 4214
after a day like M 4176
after a few feet M 4060
after a long term M 3935
after a set time M 3890
after a ten days M 3666
after a meal rich M 3488
after a few deep M 3366
after i had laid M 3352
after i was told M 3296
after i was able M 3156
after a long week M 2871
after i had just M 2813
after a two hour M 2698
after a long peace M 2688
after a new trial M 2647
after a few good M 2608
after a not very M 2606
after a long pull M 2590
after i had lain M 2585
after a long tour M 2554
after a bad dream M 2540
after i was sent M 2508
after a six years M 2478
after i get there M 2464
after a long hearing M 2368
after a six month M 2296
after a two week M 2291
after a long hunt M 2286
after a long list M 2284
after i had used M 2267
after a few vain M 2244
after i got your M 2238
after i was back M 2145
after i was sure M 2087
after a few trial M 2077
after a few songs M 2006
after a few beats M 1974
after a six days M 1954
after a day when M 1946
after i was made M 1940
after a few very M 1936
after a few early M 1931
after a bad fall M 1926
after i was well M 1880
after a long cold M 1825
after a lot more M 1814
after a year away M 1764
after i ran away M 1732
after a few well M 1676
after a year from M 1612
after i got used M 1603
after a few runs M 1594
after a two month M 1549
after a long swim M 1549
after a year when M 1534
after i read your M 1528
after a one hour M 1451
after i saw what M 1441
after a long rain M 1428
after a few hard M 1410
after a few half M 1362
after i get some M 1330
after a few last M 1324
after a long line M 1314
after a long hour M 1299
after a few tens M 1276
after i got well M 1255
after i was come M 1246
after i got away M 1240
after a big rain M 1238
after a few kind M 1224
after a meal when M 1220
after a man dies M 1216
after a has been M 1196
after a few wrong M 1170
after i lay down M 1146
after a new baby M 1122
after a long dark M 1121
after a few warm M 1121
after a job well M 1119
after i was home M 1111
after i had last M 1110
after i was here M 1101
after i hear from M 1101
after a new moon M 1098
after a long lull M 1096
after a meal like M 1046
after a big game M 1015
after i was left M 1004
after i had some M 1004
after a long halt M 1004
after a day full M 990
after a six week M 982
after i got done M 974
after i had kept M 970
after i get done M 955
after a long breath M 940
after a few tears M 926
after i had held M 891
after a few month M 870
after a few heavy M 870
after a long weary M 838
after a long kiss M 830
after i was free M 812
after i saw your M 807
after i got sick M 800
after a few uses M 796
after i had quit M 788
after a few wild M 784
after a far more M 783
after i put down M 779
after a few cold M 753
after a one week M 747
after i was laid M 742
after a meal will M 742
after a near miss M 740
after i had felt M 738
after a few hits M 736
after a long slow M 723
after i get into M 718
after a job loss M 698
after a long span M 696
after a few time M 674
after a big fire M 670
after i got down M 664
after a due time M 660
after a mean time M 659
after a six hour M 656
after a man like M 656
after a meal there M 653
after a few meals M 652
after a few angry M 652
after a wet spring M 638
after a year during M 636
after a few slow M 636
after a few have M 635
after i had time M 612
after i got some M 595
after i see what M 594
after a one month M 593
after a few mild M 590
after a pit stop M 588
after a long half M 587
after i was ready M 585
after a few test M 579
after a man gets M 560
after i got hurt M 552
after a man came M 550
after a long work M 548
after i had tied M 544
after a plea from M 542
after i had worn M 536
after a year here M 536
after a day there M 534
after a long dream M 526
after a few high M 521
after i had more M 518
after i sit down M 516
after i get your M 514
after a year went M 514
after i did make M 510
after a few cell M 510
after a long stop M 500
after i was once M 494
after i had three M 494
after i ran into M 490
after a few cuts M 480
after a long fall M 478
after a new plan M 476
after a new form M 476
after i had shut M 474
after a long road M 471
after i was hurt M 470
after a bit there M 469
after a few sets M 466
after a new life M 458
after a year back M 452
after a long ocean M 452
after a mad dash M 442
after i got past M 434
after a long month M 432
after a long leave M 429
after a few week M 428
after i did some M 424
after a long five M 419
after a meal high M 418
after a few busy M 410
after a long days M 406
after a year only M 404
after i got hold M 403
after i had dealt M 399
after a long land M 396
after a few hour M 392
after i was down M 391
after a day among M 390
after a bad fire M 390
after i had cast M 386
after a big snow M 382
after a few fits M 374
after i get over M 373
after a war there M 373
after a bad cold M 373
after i was sick M 371
after i had your M 370
after a new type M 363
after a long game M 361
after i had torn M 358
after a few dull M 358
after a long calm M 350
after i had fled M 348
after a man from M 348
after a man died M 346
after a death from M 346
after a long rule M 344
after i was five M 341
after a few were M 336
after i was past M 328
after a far from M 328
after i saw those M 325
after a long drag M 324
after a bad time M 324
after a long deep M 320
after i was very M 318
after a few leaps M 316
after s has been M 312
after i did what M 312
after a long three M 311
after a few soft M 307
after a bad game M 304
after a few loud M 302
after i was your M 300
after a few idle M 296
after a long warm M 293
after i had only M 292
after i get well M 290
after a few jobs M 290
after a set date M 287
after a day during M 284
after i get these M 280
after a ten mile M 280
after i see your M 276
after a year were M 274
after a ten hour M 273
after a year like M 272
after a big loss M 270
after i put away M 268
after i had from M 268
after a year their M 268
after i buy these M 264
after i hear what M 262
after i read what M 260
after a new reading M 260
after i had well M 257
after i had also M 257
after i read these M 254
after i had died M 252
after a long dull M 248
after a few fast M 248
after i was over M 247
after i had went M 246
after a web site M 246
after a new mode M 244
after a bad case M 244
after a run from M 234
after a day such M 234
after a bad call M 234
after a long rise M 232
after a year will M 230
after a year these M 230
after a year living M 230
after a lead time M 228
after i get used M 227
after a bad week M 227
after a day trip M 226
after a long note M 224
after a day away M 224
after a new kind M 222
after a long stem M 222
after a dry spring M 222
after i was nine M 220
after i read those M 220
after a war like M 220
after i was four M 214
after a web page M 214
after i sat there M 213
after i was safe M 212
after a path length M 212
after a few leading M 212
after a big play M 210
after a bad trip M 210
after i had most M 209
after a war when M 208
after a meal from M 208
after a few heart M 208
after i had many M 204
after a dog gets M 204
after a year among M 200
after a new snow M 200
after a new fall M 200
after a meal were M 200
after a death there M 200
after i was three M 198
after a new home M 198
after i was away M 196
after a meal during M 194
after a few deals M 194
after a set term M 192
after a few dark M 192
after a big fish M 192
after a long cool M 190
after a long call M 190
after a few acts M 190
after a due hearing M 190
after a day here M 190
after i saw some M 188
after i got laid M 186
after a war ends M 184
after a new birth M 184
after a new sort M 181
after a few fine M 180
after a dip into M 180
after t has been M 178
after a long self M 178
after a big blow M 178
after i had very M 176
after a run over M 176
after i got mine M 175
after a two mile M 175
after a real good M 174
after a dead body M 174
after i was shut M 173
after a day game M 173
after a big hunt M 172
after i was living M 170
after i had wept M 170
after a job like M 170
after a bit beast M 168
after i get what M 167
after a yet more M 165
after a year into M 164
after a new road M 164
after a day well M 163
after a wet dream M 160
after a new line M 160
after a bad play M 158
after a new heart M 156
after a bad loss M 156
after a long four M 155
after a ten month M 154
after a man whom M 154
after a long play M 154
after a few less M 154
after a new ideal M 153
after a set length M 152
after a new item M 152
after a long draw M 152
after a due date M 152
after a bad sort M 152
after i get more M 151
after i was rich M 150
after a new play M 150
after a year some M 148
after a long losing M 148
after a few bold M 148
after a big feed M 148
after a few heads M 146
after a few ages M 146
after a win over M 144
after a run down M 142
after a dry hole M 142
after i got clear M 140
after a team from M 140
after a long turn M 140
after a few free M 140
after i get hold M 136
after a long idle M 136
after a had been M 136
after a bad date M 136
after a new word M 135
after i read some M 134
after i get down M 134
after a long post M 134
after a year make M 132
after a set form M 132
after a new book M 130
after i say what M 128
after i got onto M 128
after a now lost M 128
after a long toil M 128
after a has said M 128
after a few poor M 128
after a few full M 128
after a son born M 126
after a meal made M 126
after a bit when M 126
after i was much M 124
after i had eased M 124
after i got those M 124
after a long pass M 123
after a new theory M 122
after i got lost M 120
after a year more M 120
after a long tale M 120
after a few bits M 120
after a big drop M 120
after a bear hunt M 120
after i had hurt M 118
after i got word M 118
after i got among M 118
after a way those M 118
after a mean life M 118
after a has made M 118
after a death when M 118
after a bad beating M 118
after i get away M 116
after a long test M 116
after a long last M 116
after a new date M 114
after a big show M 114
after a big move M 114
after a big jump M 114
after a meal break M 113
after a few open M 113
after a bar line M 113
after i say good M 112
after a year came M 112
after i had kids M 111
after i was cast M 110
after a big fall M 110
after i saw their M 108
after i had much M 108
after i got these M 108
after a meal have M 108
after a big rise M 108
after i hear your M 107
after a long reading M 107
after a few back M 107
after i was making M 106
after i put some M 106
after a year left M 106
after a vow made M 106
after a six mile M 106
after a long range M 106
after i had swung M 104
after a meal also M 104
after a death among M 104
after i was last M 102
after a man made M 102
after a few oaths M 102
after a big push M 102
after a big kill M 102
after a bad break M 102
after a new food M 101
after a long bone M 100
after i saw these M 99
after a new high M 99
after i get here M 98
after a year gave M 98
after a new faith M 98
after a far less M 98
after a few late M 97
after i was used M 96
after i had these M 96
after a man when M 96
after a long cast M 96
after a long busy M 96
after a god whom M 96
after a war from M 94
after a new town M 94
after a new rule M 94
after a net loss M 94
after a few fish M 94
after a bit some M 94
after a long drop M 93
after i put these M 92
after a war were M 92
after a new city M 92
after a mad rush M 92
after a long trying M 92
after a long love M 92
after a death like M 92
after a dead time M 92
after a real hard M 91
after i got ready M 90
after a new hearing M 90
after a new girl M 90
after a meal very M 90
after a long spring M 90
after a due trial M 90
after i saw miss M 88
after i had shed M 88
after a war during M 88
after a meal eaten M 88
after i was full M 86
after i bad been M 86
after a song from M 86
after a real birth M 86
after a new pair M 86
after a key word M 86
after a few trying M 86
after a bit said M 86
after i had swum M 85
after i had nothing M 84
after d has been M 84
after a meal must M 84
after a few deaths M 84
after a pay rise M 83
after i was seen M 82
after a war over M 82
after a run like M 82
after a long heavy M 82
after a few lazy M 82
after a few bids M 82
after a death threat M 82
after a long want M 80
after a few saving M 80
after a few cool M 80
after a boy from M 80
after a bit came M 80
after a long musing M 78
after i was more M 67
after a long shut M 62
after a dead calm M 56
after a long heart M 52
after a long boring M 48
after i lie down M 47
after i got more M 46
after i had half M 45
after a long think M 44
after a meal more M 43
after a few self M 42
after a few face M 42
after a man once M 41
after a big wind M 41
after a long ride D 10606
after a few bars D 7328
after i had paid D 6807
after a few sips D 4946
after a long bout D 4366
after a new york D 3533
after a long trek D 2220
after i was shot D 2076
after a long hike D 2027
after i had shot D 1796
after i had sold D 1786
after a long string D 1722
after a long sigh D 1524
after a fly ball D 1442
after a few cups D 1424
after a long chat D 1306
after a lag time D 1282
after a few laps D 1272
after a nod from D 1128
after a long race D 1002
after a long dive D 924
after a long soak D 900
after a bad shot D 846
after a low dose D 798
after a hot ride D 780
after a long haul D 762
after a long gaze D 760
after a few swings D 710
after a new drug D 642
after a few rows D 642
after a long tiring D 641
after a hot walk D 624
after a few rods D 624
after a long suit D 622
after a hung jury D 610
after a dog bite D 598
after a bad bout D 585
after a few taps D 578
after a row over D 570
after i had writ D 546
after a new wave D 530
after i got shot D 529
after a few shot D 517
after i had duly D 505
after a tip from D 464
after a meat diet D 458
after a hot fire D 450
after a bus ride D 425
after a bath when D 420
after a car bomb D 414
after a few tugs D 386
after a few baths D 386
after i had bled D 378
after a sew days D 356
after a pep talk D 356
after a tax sale D 300
after a big feast D 290
after a long sail D 280
after i had flung D 276
after a few deft D 271
after a long swig D 262
after a long diet D 258
after i had rode D 254
after a low tone D 254
after a tie vote D 235
after i was sold D 234
after a long feud D 234
after a law suit D 226
after a bad crop D 218
after a long shot D 215
after i set foot D 212
after i met your D 211
after a big race D 210
after i was abed D 202
after a long duel D 200
after a fee tail D 199
after i had took D 180
after i had sunk D 180
after a long dearth D 180
after a heat wave D 180
after i get paid D 159
after a long bike D 156
after a sip from D 154
after a guy like D 152
after a new wife D 146
after a fat load D 146
after a big bowl D 146
after i got paid D 142
after a big sale D 142
after a tax lien D 140
after a rat bite D 139
after a cat bite D 139
after a long coma D 138
after a bus trip D 136
after a big raid D 136
after a long boat D 132
after a hot game D 132
after a hay crop D 132
after a new suit D 130
after a long bull D 130
after a few sobs D 128
after a few curt D 128
after a fox hunt D 126
after a long lease D 124
after a few nips D 124
after a few jars D 124
after a big wave D 124
after a pap smear D 123
after i had lent D 119
after i had bade D 119
after a gang rape D 118
after i was paid D 114
after a long yawn D 110
after a hit from D 110
after a few hugs D 110
after i met john D 108
after a big haul D 108
after a long puff D 106
after a hoed crop D 106
after a few tons D 104
after a few hems D 104
after i had wrung D 102
after a red tide D 102
after a few hops D 102
after a few cows D 102
after a low tide D 100
after a big dose D 100
after a bad raid D 100
after a lag during D 98
after a few loving D 98
after a big bull D 98
after a red ball D 96
after a long rail D 94
after a long feast D 94
after a leak from D 94
after i had slid D 88
after a new crop D 88
after i hit town D 86
after a long pomp D 86
after a cat scan D 86
after a long heating D 84
after a gay life D 84
after a few mugs D 84
after a war raid D 82
after a long outing D 82
after a long boom D 82
after a hot spring D 82
after i met some D 80
after a few cars D 80
after a hot foot D 47
after a gun shot D 46
