afford to pay the M 77456
affect the way in M 36382
affect the use of M 31986
afford to buy the M 31638
affect the way we M 23749
affect the way the M 22918
afford to let the M 20918
afford to buy it M 20446
afraid to say so M 15501
afraid to let go M 15023
afraid of going to M 14578
afraid to use it M 13532
afraid to use the M 13162
afraid to say it M 11860
afraid to ask the M 10802
afraid to let the M 9672
afford to let it M 9590
afraid to try to M 8250
afford to pay it M 7046
afraid to hear the M 6830
afraid to say no M 6497
afraid it may be M 6364
afraid of all the M 6311
afraid of him as M 6044
afford to run the M 5994
afraid to see the M 5506
afraid to let me M 5336
afford an idea of M 5286
afford to pay in M 5177
afford to use the M 5152
afraid of being in M 5104
afraid to try it M 5046
afraid to let it M 4880
afford to set up M 4654
afford to buy or M 4498
afford to pay to M 4358
affect the way he M 4334
afford to see the M 4260
afraid to say the M 4228
afraid of any of M 4182
affect the ease of M 4080
afford to use it M 4014
afford to pay me M 3946
afford to bear the M 3902
afraid to get up M 3884
afford to put up M 3750
afford to pay an M 3572
afraid of him or M 3330
affair is that the M 3310
afford to pay as M 3292
affect the law of M 3280
afraid of him at M 3242
afford to buy an M 3022
afraid to put it M 2984
affect the way it M 2956
affair is one of M 2948
afford to buy in M 2881
afraid of him in M 2788
afraid to put the M 2758
affect an air of M 2718
afraid of any thing M 2640
afraid of them as M 2578
afraid he may be M 2574
afraid of using the M 2510
afraid of him to M 2486
afraid of doing so M 2424
afraid of one thing M 2384
afraid to ask if M 2364
afford to let go M 2358
afraid to bring it M 2348
affect at all the M 2348
afraid of doing the M 2292
afraid to act on M 2282
afraid to try the M 2262
afford to put on M 2252
afraid it was the M 2246
affair as far as M 2246
afford to buy me M 2238
afford to put in M 2236
affect the path of M 2234
afraid of her as M 2230
afford to pay so M 2215
afraid to say to M 2208
afraid of being the M 2104
afraid to get in M 2103
afraid of them or M 2098
affect the way an M 2092
afraid to die in M 2062
afraid of you or M 2046
afford to get it M 1972
afford to get the M 1960
afraid to bring up M 1945
afraid to hear it M 1934
afraid of death as M 1934
afford to pay my M 1934
afraid to see me M 1928
afford to let me M 1892
affect the set of M 1886
affect the area of M 1868
afraid to ask me M 1850
afraid to get on M 1836
afraid we are in M 1758
afford the use of M 1756
afraid of death or M 1754
afford to buy at M 1750
afraid to read it M 1742
afraid to see it M 1660
afford the real thing M 1652
afford to buy as M 1634
afraid to say or M 1605
afraid of dying in M 1600
afford us all the M 1598
affair is that it M 1596
afford to put the M 1560
afford the key to M 1550
affair so far as M 1544
affect us with the M 1536
afraid to run the M 1534
afford to pay at M 1526
affirm is that the M 1508
afraid of doing it M 1506
afford to sit on M 1499
afraid to let us M 1496
afraid to bring the M 1488
affect the fit of M 1478
affair as one of M 1476
afraid to read the M 1466
afford to try to M 1460
affect the mix of M 1442
affair is going to M 1442
afford to pay is M 1400
afford to add to M 1384
afraid to let my M 1380
afraid to own it M 1368
afraid to sit on M 1356
affect the way of M 1350
afloat as long as M 1337
afraid of was the M 1334
afraid to put my M 1330
afford to pay or M 1326
afraid it was my M 1306
afraid of one of M 1294
afford to bring up M 1291
afford me all the M 1288
afford to pay on M 1283
afford to act as M 1278
afraid if you do M 1276
afford to buy my M 1274
afford to say no M 1272
affect me and my M 1268
afford to all the M 1264
afraid of her to M 1230
afraid of how the M 1228
affect the use or M 1214
affirm the idea of M 1213
afford to let us M 1212
affair is not to M 1208
afraid of being on M 1196
afraid of how he M 1182
afford it and the M 1170
afraid as long as M 1156
affect the age at M 1156
affair is not so M 1156
afraid we may be M 1134
afraid to put on M 1130
afraid of you as M 1124
affect the idea of M 1120
afford by far the M 1114
afford to bring in M 1108
afford to pay up M 1099
afford to act in M 1084
afford to pay us M 1076
affect the age of M 1076
afraid of using it M 1074
afford to buy so M 1066
afraid to own up M 1064
affect the eye in M 1054
afford to sit in M 1053
afraid he was of M 1052
afraid to put in M 1042
afraid of death is M 1042
afford to let my M 1040
afford to see it M 1026
afraid of all of M 1024
afraid of them in M 1022
afraid of both the M 1020
afraid of her at M 1018
afford to run it M 1018
afford to put it M 1008
afraid of man or M 994
afraid of you in M 986
affect the ease or M 984
affect the sum of M 974
affair is not the M 972
afraid of them at M 970
afford to own the M 968
afraid to ask it M 966
afraid of being so M 956
afraid to say he M 950
afford to bear it M 950
afford to act on M 940
afraid of going on M 938
afraid to ask my M 934
afraid of her in M 934
afraid of dying of M 924
affair as that of M 920
afraid to ask to M 916
afford to own it M 914
afraid of being an M 906
affect us all in M 902
afford to pay if M 894
afford to bring the M 892
afraid to sit in M 883
afford it and it M 880
affair as long as M 878
affair is that of M 876
affair is going on M 871
afraid of this thing M 864
afraid of how it M 864
afraid of you at M 860
afford to get in M 860
afford to buy on M 859
affect the act of M 848
afraid to use my M 826
afraid of death in M 826
affect an area of M 822
afraid of her or M 820
afford to pay no M 806
afford to let up M 800
afford to fly to M 800
afford to fix it M 798
afraid to see or M 796
afraid to lie in M 788
afraid it has to M 772
afraid of all my M 768
afraid to act in M 762
affect to see in M 762
affect is one of M 760
afraid he was in M 754
affect the air of M 754
afraid to get the M 746
afresh the son of M 734
afraid to fly in M 732
afford it and if M 732
afraid to see my M 730
afraid to put to M 730
afraid is going to M 730
afraid of going in M 729
afford to use up M 716
afford to buy up M 704
afford to get to M 688
afraid of them if M 686
afraid to get my M 680
afford to them the M 672
afford to own or M 670
affect the eye as M 669
afford to say so M 666
afraid to set up M 660
afraid to mix it M 660
afford to deal in M 660
affect us for the M 660
affect of joy or M 658
afford to say it M 656
afraid to die is M 648
afford to let an M 648
afraid of death on M 643
affect it has on M 642
afraid to get to M 640
afraid of going up M 640
afraid to bring in M 636
afraid if they do M 636
affect the mean of M 636
afford to own an M 634
affect us and the M 634
afraid it was an M 632
afraid he was to M 632
afraid of dying as M 626
afraid as death of M 620
afford to heat the M 616
afford to set the M 610
afraid to put up M 608
afraid to say in M 606
affair is that he M 604
affect us with an M 598
afford to cut the M 588
afraid of this or M 586
affect me with the M 586
afraid to pay the M 582
afraid to add to M 580
afraid of him he M 580
affirm the use of M 580
afraid we can do M 576
afraid to ask or M 568
afraid to get it M 564
afford no aid to M 564
affect me for the M 562
afford to get on M 559
affair it was to M 554
afraid it was so M 548
afraid of death at M 546
afraid to use an M 544
afford to each of M 542
afraid of him if M 540
affect the man of M 540
afraid we had to M 532
afraid of now is M 524
affair so long as M 524
afraid to buy it M 520
affect the law in M 520
affair in one of M 520
afford to cling to M 512
afraid so long as M 508
afford to run no M 508
affect the being of M 504
afford to hang on M 502
afraid to hear me M 500
affect the law as M 499
afford to sit by M 496
affair of all the M 496
affair is with the M 494
afraid to ask in M 492
afraid of them to M 492
afraid to die if M 488
afraid of you if M 482
afford it and he M 482
affect the air in M 482
affect it and the M 482
afraid of are the M 480
affect it had on M 480
afraid to act as M 478
affect the end of M 478
affair is out of M 476
afraid to say at M 470
affect the lot of M 470
afraid to own the M 468
affect the heat of M 468
afraid of god or M 466
afloat on all the M 462
affect the man in M 460
afraid of him on M 458
afford it for the M 458
afraid at all of M 456
afford to buy us M 456
affect the job of M 456
affect it for the M 454
afford to fly in M 451
afraid of doing or M 450
afford to him the M 448
afford to say to M 446
afford it out of M 446
afford to lay in M 444
afloat as far as M 442
affect the real or M 442
affair is not an M 442
affair he had in M 442
afraid to death of M 438
afraid of both of M 438
afraid of men in M 434
afield to try to M 434
afraid of him so M 430
affect the eye or M 428
affair of one of M 428
afraid of death by M 426
afraid to cut the M 424
affair is not in M 424
afford to fix the M 422
afraid to arm the M 420
affair an air of M 420
affirm the death of M 419
afraid of you to M 418
affect the war in M 416
afford to run in M 415
afraid the act of M 412
afraid if you go M 412
affirm the being of M 411
afraid of things or M 408
afraid of his or M 408
afford it with the M 408
affect or sum of M 408
afford to put my M 406
afford to lead the M 402
afford it all the M 398
affair so that the M 396
afford to get my M 394
afford to sit at M 392
afraid to set the M 390
afraid to buy the M 388
afraid of dying or M 388
affect the seat of M 388
affect is not the M 386
afraid of than the M 382
afford to read the M 380
afraid to set it M 378
afford to use an M 378
affair of two or M 378
afraid of that as M 374
afraid to try an M 372
affirm the law of M 371
afraid of being at M 370
affect the day to M 370
afraid to die or M 364
afraid as yet to M 364
afford the aid of M 364
affect on both the M 364
affair is now in M 364
afraid the two of M 362
affect me and the M 362
afraid of that thing M 360
afraid he has no M 359
afraid to own to M 354
afford to men of M 354
affect the head of M 354
afraid to lead the M 352
affect the earth in M 352
afraid to let in M 350
affect the use to M 350
afraid to say my M 346
afford no idea of M 346
afraid to die as M 345
afraid to say we M 344
afford us but an M 336
afford to try the M 334
affect us and we M 330
affect the pay of M 330
affair to one of M 330
afraid of that in M 328
afraid of him the M 328
afraid to sit up M 324
afraid of men or M 324
afford to run up M 324
affect the eye of M 324
affair is not of M 324
affair is not as M 323
afraid we are of M 322
afford no aid in M 322
afraid to cry in M 318
afraid it was to M 314
affirm is that it M 314
afford by way of M 312
afraid to lie to M 310
afraid of and the M 310
affair is not at M 310
afraid the idea of M 306
afraid of god as M 306
afraid it was in M 306
afford us for the M 306
afford to use in M 306
affect is that of M 306
affair it may be M 306
afraid to act or M 302
afford to buy is M 302
afford it and we M 302
affect the sun in M 302
afraid of them on M 300
afford no end of M 300
afford it and to M 300
affect the area in M 300
afraid of her on M 298
afraid to lay the M 296
afford to get an M 296
affect the hue of M 296
affect it but on M 296
afraid he had to M 294
afford to heat it M 294
afford to all an M 292
affair in that it M 292
afford to get me M 290
affect to set up M 290
afraid to cut it M 288
afford to pay by M 288
afford to ask the M 288
affair so that it M 288
afford to all of M 286
affect at all on M 286
affair to try to M 282
afraid of being by M 280
afraid he has the M 280
afford to bring it M 280
affirm is that no M 280
affair so that he M 280
afraid of than of M 278
affair to him in M 278
affair is due to M 278
afford to let so M 277
afraid to hear of M 276
afford to bring an M 276
afraid of things we M 274
afford us one of M 274
afraid he may do M 272
afford it had to M 272
affair as are the M 272
afraid to ask an M 270
afraid of dying at M 270
afraid he was the M 270
afford to ease up M 270
afford to die in M 270
afraid to lay it M 266
afraid of that at M 265
afford to hear the M 264
afford to get up M 264
affirm the act of M 264
affect to mix in M 264
afford to not be M 262
afraid to lie on M 260
afraid it was no M 260
afraid to ask us M 258
affect the bias of M 258
afraid to let on M 256
afraid to die at M 256
afford to run an M 256
afraid of and he M 254
afford me and my M 254
affair is that we M 254
afraid to bear the M 252
afraid to act at M 252
afraid of one or M 252
affair by one of M 252
afraid to say if M 250
afraid to hear my M 250
afford to buy to M 250
affair is that no M 250
afford to run at M 248
affect on how the M 248
afraid to run in M 247
afraid we are to M 246
afraid to see in M 246
afford it and do M 246
afford to put an M 244
affirm it and to M 244
affect the eye at M 244
afraid of this as M 240
affect it with the M 240
afraid to bet on M 238
afraid as any of M 238
afford to put me M 238
afford to bring to M 238
affair to that of M 236
affair it was the M 236
afraid is that in M 234
afraid he had no M 234
afford to add the M 234
affair of his to M 234
afraid to add the M 232
afford to aim at M 232
affect us all as M 232
affect the way my M 230
afraid to ask of M 228
afford to lie to M 228
affect the things we M 228
affair on top of M 228
afford to mix up M 227
afraid the day is M 226
afraid in all my M 226
afford to each as M 226
afford it was to M 226
afford as yet the M 226
affirm the one of M 226
afraid to sit at M 224
afraid to put an M 224
afraid of and to M 224
afraid it was me M 224
affair is that in M 224
afraid the end of M 222
afraid of that he M 222
afraid of how we M 222
afraid of death if M 222
afford to win the M 222
afford to lie in M 222
afraid the law is M 220
afraid of them is M 220
afraid of her if M 220
afford as yet to M 220
affirm is that an M 219
afraid the man is M 218
afraid of war as M 218
affect the aim of M 218
affect is that it M 218
afford to get so M 217
afraid to try my M 216
afraid of him is M 216
afloat in one of M 216
afford to fix up M 216
affair of one or M 216
afford as long as M 214
affect us all the M 214
affect the death of M 214
afraid to hang the M 212
afraid of death to M 212
afford to try it M 212
afford to hear of M 212
afford as far as M 212
affair it was in M 212
afraid to die to M 210
afraid is not the M 210
afraid he has to M 210
affect my use of M 210
affair is yet to M 210
afraid to sit to M 208
afraid to end the M 208
affirm is not the M 207
afraid we may do M 206
afraid to cry or M 206
afford to buy of M 206
afford it and is M 206
affect or may be M 206
affair is all the M 206
affirm is that we M 205
afraid of god in M 204
affect the aging of M 204
affect it and it M 204
afford to buy if M 202
affect us that we M 202
afraid to see if M 200
afraid to let an M 200
afraid of but the M 200
afford to man the M 200
affect us and to M 200
affect the two of M 200
affect on all of M 200
affirm the god of M 199
affirm is that in M 199
afraid of war in M 198
afford to cut it M 198
affect the men in M 198
afraid to end up M 196
afraid of him by M 196
affirm of all the M 195
afraid to fly on M 194
afraid of how my M 194
afraid at all to M 194
afford to aid the M 194
affect the run of M 194
afraid of dying on M 193
afraid he was on M 192
affect the head or M 192
afraid to say of M 190
afraid of man as M 190
afford to bid on M 189
afraid of things in M 188
afraid of death he M 188
affair in all the M 188
afford to lay up M 187
afraid of going by M 186
afraid of being up M 186
affair of his at M 185
afraid to use in M 184
afraid of them so M 184
afford to lay it M 184
affect the top of M 184
affect the air we M 184
affect so that the M 184
affect it can be M 184
afraid to try in M 183
afraid of them by M 183
afford it and in M 183
afraid of was to M 182
afford the sum of M 182
affair is apt to M 182
afraid of for the M 180
afford to win it M 180
affect us both in M 180
affair to get the M 180
afford to bet on M 179
afraid to run by M 178
afraid of you no M 178
afraid of god is M 178
afford to put so M 178
afford to err on M 178
affect the head in M 178
affair by way of M 178
afraid of you my M 176
afraid of using up M 176
afford to read it M 176
afford me one of M 176
affair in that the M 176
afraid to own me M 174
afraid to hang up M 174
afraid no one is M 174
afield to see the M 174
affect is due to M 174
affair of all of M 174
afford to and do M 172
afford the things we M 172
affirm of any thing M 172
affect us all at M 172
affect the one as M 172
afraid the end is M 170
afraid is not to M 170
afford to set it M 170
afford to end the M 170
afford to die at M 170
afford it are the M 170
affair is one thing M 170
afraid we are on M 168
afloat so long as M 168
afford so long as M 168
afford no way of M 168
afford me any thing M 168
affirm it with the M 168
affair to you of M 168
afford to buy no M 167
afraid we are at M 166
afraid to read my M 166
afraid of dying by M 166
afford to them an M 166
afford to that of M 166
afford it but it M 166
afraid to run to M 164
afraid the boy is M 164
afraid he was no M 164
afford to use my M 164
affirm the myth of M 164
affect the men of M 164
affirm is not to M 163
afresh to all the M 162
afraid to die on M 162
afraid of god to M 162
affect the one or M 162
affect it are the M 162
afraid to try on M 160
afraid of doing an M 158
afloat on one of M 158
afield as far as M 158
afford it and so M 158
afford is that of M 158
affect is not an M 158
afraid to ask as M 157
afraid to bring to M 156
afraid to ask is M 156
afford to run on M 156
affair he had to M 156
afraid to see us M 154
afraid to put me M 154
afraid to fly the M 154
afraid to die of M 154
afraid to die by M 154
afraid to deal in M 154
afraid of men of M 154
afford to say the M 154
afford to bid up M 154
affect on how we M 154
affect my way of M 154
affair to any of M 154
affair is this of M 154
afraid it was he M 152
afraid he has an M 152
afford to him an M 152
affirm the one or M 152
afraid he was an M 150
afford to see me M 150
affirm it for the M 150
affect is that the M 150
affair is for the M 150
afraid to mix in M 149
affirm the joy of M 149
affirm is that if M 149
afraid to sit by M 148
afraid to ask at M 148
afraid of dying if M 148
afford to buy tea M 148
afford it may be M 148
affect it and to M 148
afraid to bring an M 146
afraid of you on M 146
afraid of them the M 146
afraid of them he M 146
affair to you in M 146
afraid it can be M 144
afraid as far as M 144
affect or can be M 144
affect of age on M 144
afraid of being as M 143
affirm the son to M 143
afresh in all the M 142
afraid to run up M 142
afraid to read in M 142
afraid my head is M 142
afford to cry so M 142
afford the idea of M 142
affect to see the M 142
affect the law or M 142
affirm he was the M 141
afresh the idea of M 140
afraid to say on M 140
afraid to get an M 140
afraid of who we M 140
afraid of that of M 140
afraid of dying to M 140
afraid it was of M 140
afraid is one of M 140
afford us with the M 140
afford to put at M 140
affect us not so M 140
affair to say the M 140
afraid he had the M 138
affect us not in M 138
affect the web of M 138
affect on all the M 138
affect he had on M 138
affair in all my M 138
afraid to fly to M 136
afraid the joy is M 136
afraid of that is M 136
afford us that the M 136
afford to act the M 136
afford the cut in M 136
affect the earth as M 136
affect so that it M 136
affect of fear is M 136
affair is now at M 136
affair he was to M 136
afraid to act the M 134
afraid the death of M 134
afraid the day of M 134
afraid of for so M 134
afraid of and do M 134
afford it but the M 134
affect as one of M 134
afraid to let up M 132
afraid of war or M 132
afraid of and it M 132
afraid is that the M 132
afford to bow to M 132
affect of this on M 132
affect as long as M 132
affair is off my M 132
afraid of going so M 131
afraid to fly or M 130
afraid of can be M 130
afraid my son is M 130
affair as was the M 130
affect me now no M 129
afraid to fly at M 128
afford us that of M 128
afford us any thing M 128
afford to get by M 128
afford to beg the M 128
afford it but we M 128
affect us but by M 128
affect or bias the M 128
affect on any of M 128
affect is not so M 128
afraid of and so M 127
afraid we are the M 126
afraid to end it M 126
afraid to beat the M 126
afraid to aim at M 126
afraid of dying is M 126
afraid it may do M 126
afford to see an M 126
afford to bring my M 126
affect us with no M 126
affect on his or M 126
affair if you do M 126
afraid of him no M 125
afraid we are no M 124
afraid to try or M 124
afraid to read on M 124
afraid to bring my M 124
afraid of this is M 124
afraid of and in M 124
afford to see in M 124
afford to pay do M 124
affair as this of M 124
afraid to use as M 123
afraid to hang on M 123
affair of his in M 123
afford to one of M 122
afford to end up M 122
affirm the end of M 122
affect the map of M 122
affair is that if M 122
afraid the war is M 120
afraid of things he M 120
afraid of her he M 120
afloat in any of M 120
afford to bid the M 120
afford it try to M 120
affirm it may be M 120
affair so that we M 120
affair as one in M 120
afraid to add it M 118
afraid it had to M 118
afraid as she is M 118
afford to run to M 118
afford to men the M 118
afford to get us M 118
afford to ease the M 118
affect the doing of M 118
affect me nor the M 118
affect by way of M 118
affair it can be M 118
affair in all of M 118
affirm is that he M 117
afraid of eye of M 116
afford to put to M 116
afford to lay by M 116
affect us than the M 116
affect by far the M 116
affect as few as M 116
affair of his if M 116
affair of both the M 116
affect us not as M 115
afresh by one of M 114
afraid to say is M 114
afraid to mix the M 114
afraid of you the M 114
afraid of who he M 114
afraid of was an M 114
afraid of that the M 114
afraid of eating the M 114
afford to use so M 114
afford to set an M 114
affirm it due in M 114
affect to use the M 114
affect so long as M 114
affair to put the M 114
affair to end in M 114
afraid he was so M 113
afraid to run on M 112
afraid of you so M 112
afraid of that it M 112
afraid if one of M 112
afraid he and the M 112
afford us all we M 112
afford to bear no M 112
affirm the one is M 112
affect to put it M 112
afloat on top of M 110
afford it due to M 110
afford is not the M 110
afford an aid to M 110
affirm it did in M 110
affect the things of M 110
affect of each of M 110
afraid we had no M 108
afraid to say as M 108
afraid to run it M 108
afraid the men of M 108
afraid of lying to M 108
afford to sit up M 108
afford to lay the M 108
afford it and by M 108
affect the eye is M 108
affect the air to M 108
affair to bring to M 108
affair is that my M 108
affair is but the M 108
affair he was in M 108
affair as bad as M 108
afraid to use up M 106
afraid to try at M 106
afraid or sad or M 106
afraid of was no M 106
afraid of things as M 106
afraid of dying so M 106
afraid of doing my M 106
afraid it may go M 106
afford us but the M 106
afford to any of M 106
afford the one an M 106
affect to head an M 106
affect the team as M 106
affect of all the M 106
affair to bring the M 106
afresh so that the M 105
afraid the idea is M 104
afraid of that if M 104
afraid he was he M 104
afford to see us M 104
affair at one of M 104
afresh to see if M 102
afresh or for the M 102
afraid we can be M 102
afraid to not be M 102
afraid to cut up M 102
afraid to bring me M 102
afraid of doing me M 102
afford to lie by M 102
afford to buy by M 102
afford to bring me M 102
afford the men to M 102
afford it but he M 102
affirm to all the M 102
affect us are the M 102
affect to act as M 102
affair to see the M 102
affair the air of M 102
affair of this or M 102
affair by going to M 102
affair as this is M 102
afraid the air is M 100
afraid he may go M 100
afraid he did on M 100
afloat the idea of M 100
afford to say he M 100
afford to each the M 100
afford the men an M 100
afford it pay the M 100
afford is one of M 100
afford as yet no M 100
affect us with as M 100
affair is set in M 100
afraid the things he M 98
afraid or shy of M 98
afraid of eating in M 98
afford to fly the M 98
afford to add an M 98
afford me not the M 98
afford it had the M 98
affirm on oath the M 98
affair he had no M 98
afraid to buy or M 96
afraid to bring on M 96
afraid the heat of M 96
afraid of war if M 96
afraid of going it M 96
afraid of and is M 96
afraid of all he M 96
afloat is one of M 96
afford the things he M 96
afford the poet the M 96
afford it was the M 96
afford an area of M 96
affect us all to M 96
affect the boy in M 96
affect an act of M 96
affair on one of M 96
affair is out in M 96
affair is one in M 96
affair is now so M 96
affect the area as M 95
afraid so that we M 94
afraid of death the M 94
afford so that he M 94
afford it can be M 94
affect us not at M 94
affect the mean to M 94
affect the law on M 94
affect it are of M 94
affect is not as M 94
affair he had the M 94
afford to let in M 93
afresh by each of M 92
afraid to lead it M 92
afraid to ask by M 92
afraid to act up M 92
afraid the men in M 92
afraid the air of M 92
afraid of her the M 92
afraid he had an M 92
afford to say in M 92
afford to fly on M 92
afford it put on M 92
afford is for the M 92
affirm it was so M 92
affair is that at M 92
afford it and as M 91
afraid we may go M 90
afraid to lay my M 90
afraid the man in M 90
afraid is not in M 90
afraid in all the M 90
afraid he saw me M 90
afford to lead in M 90
afford the ease of M 90
affirm so and so M 90
affirm it was the M 90
affect it not at M 90
affair in any of M 90
afraid to read or M 88
afraid the use of M 88
afraid or shy to M 88
afraid of this in M 88
afraid of men as M 88
afraid of going the M 88
afraid he was at M 88
afford to hear it M 88
affect the things by M 88
affair as can be M 88
afraid we can no M 86
afraid to own my M 86
afraid to bear my M 86
afraid of was my M 86
afraid he can be M 86
afloat in all the M 86
afford to sit it M 86
afford to say of M 86
afford to put by M 86
afford to bid in M 86
afford to bet so M 86
afford the poet an M 86
afford it than the M 86
affirm an act of M 86
affect the war on M 86
affect the dying of M 86
affect is not to M 86
affair to all the M 86
affair it was of M 86
afraid we all do M 84
afraid to buy at M 84
afraid of you is M 84
afraid of with the M 84
afraid if any of M 84
afford to use to M 84
afford the sum at M 84
affect to aid the M 84
affair of war or M 84
affair as with the M 84
affair as being the M 84
afraid to see an M 82
afraid or that he M 82
afraid is not so M 82
afford to pay he M 82
afford to lead an M 82
afford it and my M 82
affirm of any of M 82
affect it that it M 82
affair to him at M 82
affair is not my M 82
afraid to owe us M 80
afraid of using an M 80
afraid no one in M 80
afraid my leg is M 80
afraid as you go M 80
afford to you the M 80
afford to say or M 80
afford to read in M 80
afford to earn the M 80
afford to aid in M 80
afford is not to M 80
afford an aid in M 80
affect the arm or M 80
affair or that he M 80
affair is got up M 80
affair he has to M 80
afford to use as M 68
afraid of death so M 58
afraid of her so M 57
afield to get the M 55
affair he had on M 51
afraid of them no M 49
affect to put on M 49
afraid to ask so M 47
afford to get as M 46
afield to bring in M 45
affirm as one of M 44
affair is now no M 43
affirm the day to M 42
affixing the seal of D 2530
afford to tie up D 2434
affixing the seal to D 900
afraid to wear it D 842
affect the sex of D 766
affect the art of D 734
afford to wear the D 686
affixing to them the D 656
afford to wear it D 618
afraid to hit the D 612
afraid to lean on D 496
affect the ears of D 448
afraid to wear the D 392
affect the wear of D 390
afford the fee of D 364
afford the gas to D 310
afford to pay rs D 271
afraid to tax the D 210
afraid of sex or D 208
affect the lung in D 204
affect to hit or D 194
affixing the seal is D 192
affixing to each of D 182
affect the weal or D 182
afford the fee to D 168
afloat in this sea D 160
afford to hit the D 160
afraid to lean to D 158
afraid to dig in D 155
affect the swing of D 150
afresh the zeal of D 144
afraid to dig up D 142
afford to tip the D 142
afraid of her ex D 136
affect the fee of D 136
afraid to hit me D 134
affect the tax on D 130
affect the tip of D 126
afraid of sex is D 124
afford to tax the D 108
affixing to them of D 104
afford to wear an D 102
affect the zeal of D 102
affect the beam of D 102
afraid to tie up D 100
affect the ray of D 98
afraid to tear up D 96
afford to lag in D 96
affixing to one of D 96
afraid to ham it D 94
affect the big toe D 94
afford to fling it D 90
afford to lean on D 89
afraid to fee the D 86
afraid of sex as D 86
afraid to hit it D 84
afloat in that sea D 82
affect the peak of D 82
affect the gas in D 82
afraid to tap the D 80
afraid the jig is D 80
afford to fan the D 80
affect the seal of D 80
