end war , " M 3901
end with , " M 2603
end with : " M 928
end now , " M 908
end this , " M 893
end say , " M 684
end run , " M 676
end thus : " M 636
end yet , " M 499
end was , " M 452
end them , " M 444
end was : " M 369
end that , " M 313
end all , " M 269
end men , " M 247
end then , " M 218
end too , " M 212
end job , " M 187
end thus , " M 176
end things , " M 139
end that : " M 116
end ill , " M 92
end him , " M 82
end one , " M 73
end man , " M 73
