enemy in the rear M 17180
ended in the death M 14746
enter at the end M 9995
entry at the end M 9824
engage in the war M 9603
entry of the new M 8969
entry in the log M 8624
ended up in this M 8436
engage in an act M 7982
ended up in his M 6997
ended as it had M 6671
enemy of the new M 6664
engage in the act M 6060
ended in the mid M 5521
ended up by being M 5388
enjoy it at all M 5352
ended by the death M 5211
engage in it with M 5158
entry in the war M 5086
ended up in new M 4565
ended in the year M 4370
engaging in an act M 4335
entry in the new M 4298
ended up in one M 4293
ended as it did M 4218
enemy in the east M 4102
ended at the age M 4096
enemy at the head M 4044
ended at the end M 4031
ended up on his M 3863
enter on the path M 3810
enter at the top M 3669
engaging in the war M 3515
ended up in her M 3497
enemy in the war M 3427
enter it at all M 3391
ended up in that M 3271
enemy on the run M 3224
ended up on top M 3207
enemy in the air M 3048
enemy in the area M 2987
ended up as one M 2912
engage in it are M 2838
entry at the top M 2834
engaging in the act M 2811
entry of the two M 2802
ended on the day M 2735
engage in the new M 2709
entry to the new M 2679
entry of the red M 2646
enemy of the man M 2636
engage in it and M 2616
engine in the rear M 2592
ended up in our M 2541
enemy of the old M 2484
entry of the sun M 2456
enter or go out M 2364
enjoy it or not M 2350
engage in as they M 2342
enemy as to his M 2252
ended at the top M 2250
enjoy it as long M 2228
endings of the two M 2216
engage in it for M 2210
engage in the use M 2194
enemy of the law M 2192
enjoy it if you M 2166
engage in the real M 2164
enemy is at our M 2160
engine is to run M 2090
engine to the rear M 2070
enemy in the way M 2046
enemy at the end M 2032
entry to the war M 2022
engine at the rear M 1986
enemy of the sun M 1967
entry in the old M 1940
enemy as he was M 1885
enemy to the east M 1880
enemy on the way M 1856
enter at the age M 1836
ended up on her M 1819
ended in my being M 1724
enemy of us all M 1699
entry in the day M 1674
engine at the end M 1658
enter on the new M 1642
enter the ring with M 1630
engage in an all M 1614
enter the ring and M 1594
ended up at his M 1590
engine on the web M 1530
enter the king and M 1526
enemy of the two M 1523
ended in the war M 1482
engine at the top M 1476
enter it in his M 1452
entry to the area M 1405
enemy as he had M 1398
entry is the sum M 1378
enjoy it in its M 1372
enemy in the act M 1340
ended up the way M 1330
engine of the new M 1327
enemy on the east M 1317
enemy to the death M 1300
entry of the year M 1297
ended as he had M 1293
entry at the head M 1286
enemy in the eye M 1272
entry of the plea M 1266
ended by the war M 1250
enemy of the god M 1230
engage in the long M 1214
entry of the air M 1201
entry is the one M 1167
entry of the day M 1162
enter on it with M 1142
enter it at any M 1138
engine of the old M 1130
ended up at this M 1126
enemy to do our M 1116
enemy is in our M 1106
enter by the eye M 1104
entry to the end M 1098
enemy of the one M 1083
enemy as to our M 1082
ended as it was M 1071
ended up on this M 1066
engine to be run M 1064
entry in the long M 1062
enter in the log M 1060
engaging in the real M 1042
entry of the old M 1041
enter on the way M 1040
entry on the day M 1039
enter by the way M 1016
enemy of the day M 1008
ended up at her M 1006
entry in an old M 984
entry in the year M 982
enter at the eye M 976
enemy as it was M 976
enjoy it in all M 974
ended in the way M 965
enjoy it as you M 960
enjoy at the end M 953
enemy is the one M 952
enemy in the mean M 943
enemy to the end M 938
enemy in the new M 933
entry in the top M 916
enter in at all M 900
enemy if he had M 898
entry to the top M 886
enter by it are M 886
engine as it was M 886
ended by the end M 877
engaging in the use M 876
enjoy it to its M 866
enemy on the one M 864
ended in the old M 859
ended up on its M 854
ended up on one M 853
enjoy it the way M 852
ended up at one M 852
ended by the mid M 852
enemy in the far M 849
enjoy it if they M 848
enemy in the heat M 840
ended up on that M 837
enemy to the new M 832
enemy is the man M 832
ended up by going M 832
enemy of my own M 828
enjoy in the new M 825
entry to the job M 824
enjoy it in his M 822
engage in the day M 820
ended in the two M 817
entry to the old M 811
enemy on the day M 810
enemy of the red M 806
entry to the bar M 794
ended up by doing M 790
ended up on our M 782
entry in the map M 770
ended by an act M 761
entry of the east M 736
engaging in it with M 726
enemy on the top M 719
enjoy it in any M 718
engine of an old M 716
engaging in the new M 716
ended in the east M 715
endings in the cat M 707
enter at the head M 704
enjoy it as they M 702
enemy to the law M 700
engine of the law M 699
engage in if they M 692
ended at the old M 688
enemy of no one M 682
enter in at this M 678
enemy of no man M 670
entry of the death M 666
ended up at our M 666
enter it in this M 662
entry to the two M 650
ended in the new M 649
engage in the old M 648
enemy on the far M 639
enemy of the dead M 639
engaging in it and M 636
enter it at its M 634
engine is on its M 634
enemy in the end M 632
ended up in each M 628
ended at the death M 624
enemy as we had M 622
enter in the day M 620
enter on the war M 619
engage in no act M 618
enemy on the head M 616
engine is the one M 612
engage in no war M 604
ended up in two M 602
engine is in use M 598
enemy as if they M 594
endings in the area M 590
enemy by the use M 586
ended up in its M 583
ended up as his M 582
enjoy to the end M 578
ended up by not M 578
enemy in the long M 574
enter by the rear M 572
enemy of the poet M 572
ended by the act M 560
entry on the fly M 558
enter on my own M 554
enemy to me and M 552
endings in the eye M 552
ended in my going M 550
engine in the air M 547
enter it on his M 546
enemy in the sky M 545
enter at the rear M 544
engine at the head M 544
entry of the head M 534
engine of the day M 534
enter it in its M 532
engine is on dead M 532
enemy in the head M 532
entry in my log M 528
engine it is not M 522
enemy in the day M 521
engine in the new M 519
entry in the two M 518
enter it in any M 516
enemy of the use M 514
engage in the two M 513
enter the ring for M 512
engage in is not M 512
enemy is on his M 512
engine is at its M 510
entry to it was M 508
enemy it is not M 506
entry at the age M 504
enemy is in his M 500
ended up so far M 500
engaging to the eye M 499
entry of the sum M 498
enter on the day M 496
engine on the way M 492
enjoy it in this M 488
engage us in this M 488
engage to do all M 488
ended we do not M 488
entry is the mean M 478
enemy is on our M 478
engaging in an all M 477
ended by my being M 477
enter it or not M 476
engage in the one M 476
engage in or are M 472
entry in the box M 471
ended in the man M 471
enter on my new M 468
entry to the log M 466
ended up at that M 464
enemy on the rear M 463
enemy we do not M 462
entry on the top M 458
enjoy or do not M 456
enemy of the big M 455
enemy is he who M 454
ended by the new M 453
enjoy it at this M 452
enjoy in the way M 452
ended in the red M 450
ended if it had M 450
entry of the one M 449
enemy to my own M 442
ended if he had M 442
enjoy in my own M 438
enjoy it at his M 436
engine by the use M 434
enemy by the way M 434
enemy to the rear M 432
enemy at or near M 429
entry of the man M 428
enter in the new M 427
enemy of the real M 427
engage in it but M 426
entry in the red M 425
engine to the heat M 424
enemy in the old M 424
enemy is at his M 422
enemy if he did M 422
ended in the long M 419
ended by the two M 413
engine is by far M 412
engage in it than M 412
engaging in or being M 410
enemy at the top M 409
enemy if he was M 408
entry of the god M 406
enjoy it as she M 406
engine on the top M 406
entry to the web M 402
enter it by way M 402
engine of the two M 402
entry of the son M 401
entry of the non M 399
ended up as head M 398
ended in the air M 397
engine to be set M 396
engage in it may M 396
enemy of me and M 396
engine on the dead M 394
enemy or of his M 394
enemy to the use M 388
entry in the web M 384
enter on the long M 384
enter on it now M 384
enter in or out M 384
enjoy it of all M 384
entry on the death M 382
engage in my own M 382
enemy in the path M 380
enter it in that M 376
enemy to the earth M 376
enemy of the war M 376
entry to the die M 375
engaging in it are M 374
engage me in this M 374
enemy to be put M 374
engine in the mid M 372
enemy to no man M 372
enjoy it in that M 371
enemy as it had M 370
entry of the men M 368
enemy of king and M 368
entry of the big M 366
engaging in it for M 366
ended in an easy M 366
enter at my own M 364
enjoy it so long M 362
engage in it was M 362
engage to do this M 360
engage in to get M 360
enemy in my own M 360
entry on the east M 357
ended in the near M 357
entry in the area M 356
ended up as its M 356
enjoy as in his M 354
engage me in any M 354
engine up to its M 352
enter is the one M 350
entry to the rear M 346
entry on the new M 346
engage me as his M 346
engage in it can M 346
enemy to the one M 346
enemy of the men M 346
enemy is at ease M 346
ended in an act M 346
enemy of the son M 345
ended up in all M 345
engine is the sum M 342
engine in the old M 342
engaging in the long M 340
ended by the use M 339
entry to the east M 338
enter in the box M 338
enjoy it in our M 338
engine in it and M 338
enemy of the idea M 338
enemy in my rear M 338
enemy in an area M 337
ended at an old M 337
engine of the big M 336
engine is in its M 336
enter it in our M 334
entry to the earth M 332
enjoy it as his M 332
enemy in the year M 332
engine in my head M 330
ended in the men M 328
enemy as to its M 326
engine to the top M 324
enemy of the east M 324
ended up on death M 324
ended up in low M 322
entry to the red M 320
enemy if he can M 320
endings at the end M 320
ended in an all M 320
entry on the log M 318
enemy is so near M 318
enemy to be not M 314
ended in the area M 314
enemy of the earth M 312
entry to the long M 311
entry in the set M 311
engine is to use M 310
engaging in the old M 310
ended up the day M 310
ended in an old M 310
engine to do its M 308
enter at the low M 307
ended at the head M 307
engage us to rid M 306
enemy if he has M 306
ended up the year M 306
ended up in was M 306
entry to the law M 305
entry in the job M 304
entry to do this M 302
enemy to the man M 302
ended as it has M 302
enemy to be got M 300
entry as it was M 299
entry or to bring M 298
engine is an air M 298
enemy to the old M 296
enter it so long M 295
ended in the law M 295
entry at the rear M 294
enjoy it at its M 294
enemy is to get M 294
enemy if he does M 294
ended in an odd M 294
engine to be put M 292
ended at the new M 292
entry of the real M 290
entry in my own M 290
enter it on one M 290
enter in at that M 290
engage me in his M 290
engage in is that M 290
enemy is an act M 288
endings of the old M 288
entry in the key M 287
engine so it can M 286
ended up as two M 286
ended on the death M 286
ended on the east M 285
enter in the way M 284
engage us in our M 284
ended at the low M 284
entry is to use M 282
entry is by way M 282
entry in the add M 282
enter the king with M 282
engine to the red M 282
engage in at this M 282
enemy in the near M 282
ended up by using M 282
ended up as far M 282
entry to the box M 281
enter it on its M 280
enter at the east M 280
enter it at this M 278
enemy if we are M 278
ended it as one M 277
enter it if they M 274
enjoy it if she M 274
enemy in no way M 274
ended up in long M 273
enjoy it to this M 272
ended up in east M 272
enemy to us all M 271
entry of the poet M 268
entry is the key M 268
engaging in it may M 268
ended up in any M 268
engine on the new M 267
engage us to new M 266
engage us in that M 266
entry it is not M 264
enter by the one M 264
ended in the use M 264
ended in the far M 263
ended up as being M 262
enter by the east M 261
enter it at one M 260
enter it as one M 260
enjoy in the old M 260
engine to the end M 260
enemy to be near M 260
enter it on any M 258
enter or to try M 256
engaging as it does M 255
engage in the non M 255
entry of the boy M 254
engage in no new M 254
enemy in the use M 254
enemy by the aid M 254
entry of the war M 253
entry in the path M 252
entry to the path M 251
enter in to this M 250
engine on the old M 250
engage us in any M 250
engage in so long M 250
enemy by the poem M 250
engage in the six M 249
enemy to us and M 248
enemy of the all M 248
ended in the one M 248
entry to an area M 247
enemy to the top M 247
entry by the use M 246
engine of the earth M 246
engine in the way M 246
entry in the mid M 244
engage to go and M 244
enemy is at all M 244
enemy by the end M 244
engage to do that M 243
entry to the big M 242
enter in to his M 242
engine on the rear M 242
engage in or not M 242
enemy as we can M 242
entry by the new M 241
enter in it all M 240
enter in at any M 240
enjoy it on any M 240
engine to the new M 240
enemy is in this M 240
enemy to no one M 239
ended up as they M 239
enter as if they M 238
engine to the air M 238
engage in it that M 238
ended by the year M 238
enter in to any M 236
entry on the long M 234
enjoy it as one M 234
enjoy in the long M 234
enjoy as of his M 234
engage in at any M 234
ended by the man M 234
engage in the dry M 232
ended up in big M 232
enemy at the rear M 231
enter up to six M 230
enter it in her M 230
enter an id and M 230
engage in the job M 230
enemy do we now M 230
enter it in one M 229
engine in the sky M 229
engage in or who M 228
engage by the year M 228
enemy to the god M 228
engage in it they M 226
engage in it all M 226
ended up by eating M 226
entry to the one M 225
entry in the with M 224
enter up to two M 224
enter it on our M 224
enemy to do his M 224
endings in the two M 224
ended up in them M 224
enter up to ten M 222
engine in the year M 222
ended at the east M 222
entry in it and M 220
enter in the dead M 220
enjoy on the way M 220
enjoy if he had M 220
engine to do this M 220
engine is the use M 220
enemy up to this M 220
enemy of the head M 220
enemy as he did M 220
entry on the path M 218
enter it to see M 218
enjoy in the area M 218
engine in an old M 218
enemy as we are M 218
ended up as our M 218
ended on the top M 218
enter it as you M 216
enjoy the tea and M 216
enter it so that M 215
ended up on all M 215
ended up as her M 215
entry to the air M 214
entry as if you M 214
enter on the real M 214
enjoy it in her M 214
engine on the one M 214
engaging in my own M 214
enemy as an act M 212
entry to the real M 211
enter in the near M 211
entry of the long M 210
enjoy it is not M 210
engage in at all M 210
engine of the war M 208
engaging in it was M 208
enemy in the man M 208
ended at the rear M 207
enter in to him M 206
enjoy it to his M 206
enjoy it at any M 206
ended as he was M 206
entry of an old M 204
entry in it was M 204
enjoy by the law M 204
enemy or of our M 204
entry of the law M 200
engage in the age M 200
enemy as he has M 200
ended up in law M 200
ended in the sky M 199
entry on the job M 198
entry in the near M 198
enter it in all M 198
enjoy it on easy M 198
engaging in the way M 198
enemy of the bad M 198
ended up at war M 198
entry if it was M 197
engaging in the two M 197
ended as the sun M 197
entry to be read M 196
entry on the one M 196
entry in the death M 196
enjoy on the earth M 196
engage in or aid M 196
entry to it and M 194
engage in the law M 194
engage in it now M 194
entry on the map M 192
enter on an era M 192
enjoy in the two M 192
engine on the head M 192
engage in if you M 192
ended up on both M 192
engage in the east M 191
entry of the idea M 190
engine is in this M 190
engaging as it was M 190
enemy as it did M 190
enemy in so far M 189
enter it on this M 188
enemy to king and M 188
enemy of my son M 188
entry in the rear M 186
entry in the low M 186
enter it is not M 186
enter at or near M 186
enemy to do him M 186
entry in the net M 184
enter it at that M 184
enter if we are M 184
engine to the use M 184
engine or of any M 184
enemy so as not M 184
enemy of us both M 184
endings of the weak M 184
ended by the old M 184
enemy in the low M 183
ended on the one M 183
enter or do not M 182
enemy to the real M 182
enemy to be too M 182
enemy to be his M 182
entry or at any M 181
engage in the low M 181
engage in it too M 180
engage in it not M 180
engage in do not M 180
enemy is so far M 180
engage in the far M 179
engine as he had M 178
enemy up to that M 178
enemy to it was M 178
enemy in the two M 178
ended in my death M 178
enemy as to one M 177
enter on the era M 176
enter in by any M 176
engine at the pit M 176
engage me to you M 176
enemy is as old M 176
ended up in bad M 176
entry in the big M 174
engage in so that M 174
enemy as he can M 174
ended up in both M 174
ended up in real M 173
ended as we had M 173
enter or to pay M 172
enter it as they M 172
enemy or by his M 172
entry to the sum M 171
engine to the gear M 171
enter it if you M 170
engine of my own M 170
engage in or use M 170
ended to the east M 169
engage in the things M 168
enemy to be cut M 168
ended at the year M 168
entry of the low M 167
entry in the way M 166
entry in the act M 166
enjoy it or you M 166
entry in the one M 165
ended in so far M 165
enjoy it at our M 164
enemy if it was M 164
enemy as he lay M 164
ended up in and M 164
enter on the one M 163
enter in the long M 162
engine so as not M 162
engage us to this M 162
engage to go with M 162
enemy to be that M 162
ended it is not M 162
ended by the going M 162
entry in the east M 161
engine of the ten M 161
entry on the way M 160
entry is in each M 160
entry by the end M 160
engage to do any M 160
enemy to me than M 160
enemy on the path M 160
enemy of the cat M 160
enemy if we had M 160
endings of the cat M 160
enemy on the war M 159
entry to the head M 158
enter on the arm M 158
enter it as his M 158
engine in the near M 158
enter at the one M 157
enjoy in the mean M 157
ended at or near M 157
engage to do with M 156
engage in the way M 156
engage in the path M 156
ended up at new M 156
ended in the key M 156
ended in an area M 155
entry to the pit M 154
enjoy it at that M 154
engaging us in war M 154
enemy to do any M 154
enemy by the law M 154
ended up in being M 154
ended in the big M 154
engaging me in this M 153
ended as the two M 152
entry of my own M 150
entry by the sum M 150
enter as he had M 150
enjoy it do not M 150
engage in to earn M 150
engage at the end M 150
enemy or to win M 150
enemy or to die M 150
enemy or to any M 150
enemy is at this M 150
enemy if it had M 150
enemy at the far M 150
ended on the far M 150
ended by my going M 150
enemy in the one M 149
entry to the men M 148
entry in it for M 148
enter by the end M 148
engine is an old M 148
engage in the all M 148
enemy of the non M 148
ended in the head M 148
entry is in this M 146
engage to eat them M 146
entry of it was M 144
entry is so easy M 144
enjoy it on its M 144
engine as he was M 144
endings in the dog M 144
ended in the act M 144
entry of the key M 143
entry of the dead M 142
enter it do not M 142
enter it by one M 142
engine as it does M 142
engaging in no way M 142
engage it in new M 142
engage in an old M 142
ended up by singing M 142
ended as he did M 142
engine in the two M 141
entry is to set M 140
entry is in use M 140
enter if he has M 140
enter at the far M 140
enjoy the thing that M 140
engine on the far M 140
enemy on the old M 140
enemy on the earth M 140
enemy of the weak M 140
ended up as dead M 140
ended as we all M 140
entry in the heap M 138
entry in or any M 138
engine or in any M 138
engine on it and M 138
engaging in the day M 138
engage in to bring M 138
engage in at one M 138
enemy to be far M 138
enemy of the death M 138
engine on or off M 137
entry on the pay M 136
enter in the url M 136
enter in at one M 136
enter in at his M 136
engine is the net M 136
enemy to do this M 136
enemy by an act M 136
ended in my own M 136
ended in an out M 136
enact or to any M 136
enact it in our M 136
engine at or near M 135
ended at the far M 135
engine is in gear M 134
engage in to try M 134
enemy to go and M 134
enemy of the kings M 134
ended up in war M 133
entry is in his M 132
entry in the real M 132
enter by the old M 132
enjoy in my old M 132
engage in on that M 132
engage in an easy M 132
enemy to us than M 132
ended up an old M 132
entry of the bar M 130
engine or it may M 130
engine is to get M 130
engine in the long M 130
engage us in war M 130
enemy on my own M 130
enemy is to bring M 130
endings in the head M 130
entry on the web M 129
enjoy it in one M 129
ended the thing long M 129
ended as the war M 129
enjoy it he did M 128
engine so we can M 128
engine or an air M 128
engine of the air M 128
engaging in or are M 128
engage it in its M 128
engage if we are M 128
enemy on to his M 128
enemy of the boy M 128
enemy in the gap M 128
ended up by his M 128
ended by the one M 127
entry at the low M 126
enter in to that M 126
enjoy it to our M 126
enjoy it as men M 126
enjoy by the way M 126
engine up to that M 126
engine is at all M 126
engaging of the two M 126
engage us in his M 126
engage the ring gear M 126
engage me in all M 126
entry in no way M 124
enter it as far M 124
enter in to god M 124
enjoy in the use M 124
enjoy in the east M 124
engage in it who M 124
enemy to the men M 124
enemy or in any M 124
enemy is to use M 124
enemy in the dead M 124
enemy is the sun M 123
enter in by this M 122
enter in at them M 122
engine to an old M 122
enemy to the son M 122
enemy if it can M 122
ended up as long M 122
entry if it has M 121
engine as the one M 121
entry in the tag M 120
enter the id and M 120
enter on it and M 120
enter it as long M 120
enter by the two M 120
enter by the new M 120
enjoy it or that M 120
enjoy it on earth M 120
engine in the area M 120
engage in the doing M 120
enemy or of any M 120
enemy as he who M 120
ended in an ill M 120
engine at the new M 119
entry as it may M 118
enter on the age M 118
enjoy it as our M 118
engine is of this M 118
engage in the ten M 118
enemy or to his M 118
enemy of the ego M 118
enemy of the act M 118
enemy is the law M 118
enemy is the aim M 118
enemy as by his M 118
entry in the non M 117
enjoy it so that M 117
ended it as far M 117
entry is by far M 116
enter it in two M 116
enjoy it no end M 116
engaging in an old M 116
engage in the mad M 116
engage in at that M 116
enemy of an old M 116
enemy is the old M 116
ended at the bar M 116
engage in the cut M 115
enemy of the dog M 115
enemy of the air M 115
entry of the log M 114
entry in the all M 114
enter by it and M 114
enter as he was M 114
engine is on and M 114
engage in as you M 114
ended it in his M 114
enter in the rear M 113
entry is the way M 112
enter in the top M 112
enjoy in the six M 112
enjoy in so far M 112
engage us by any M 112
engage me to put M 112
enemy or if they M 112
enemy of the year M 112
endings of the long M 112
ended up at its M 112
engage in the now M 111
engage in an area M 111
ended at the two M 111
entry to the non M 110
entry of the top M 110
enter in the two M 110
engine is no bad M 110
engage it on its M 110
enemy is my own M 110
enemy if we can M 110
ended up at each M 110
entry to the eye M 109
entry or of any M 109
engine is the heat M 109
enemy at the east M 109
entry of the ten M 108
entry of the kings M 108
entry if it can M 108
enter on the log M 108
enjoy in the near M 108
engine to do that M 108
engine as it now M 108
engage us in its M 108
enemy to the two M 108
enemy or to our M 108
enemy or by our M 108
enemy on the map M 108
enemy of no mean M 108
enemy in the few M 108
ended it by being M 108
entry he or she M 106
enter on it too M 106
enter it on all M 106
enter if he did M 106
enjoy in the end M 106
enjoy at my ease M 106
engage me in that M 106
engage in to deal M 106
engage in the key M 106
enemy on the two M 106
enemy as he saw M 106
ended up as yet M 106
ended up as this M 106
ended in the sad M 106
ended in the boy M 106
ended if we had M 106
ended if we are M 106
entry of the six M 105
endings of the eye M 105
enter in it and M 104
engine to an air M 104
engine by the end M 104
engaging as it did M 104
engage in the death M 104
enemy or in his M 104
enemy by the arm M 104
enemy as we did M 104
ended up if she M 104
ended by the law M 104
ended as an old M 104
entry to the far M 103
entry to the day M 103
endings to the two M 103
entry to the set M 102
enter on in this M 102
enter it he was M 102
enter in to see M 102
engine is as yet M 102
engine in the lead M 102
engage me to beg M 102
engage in it has M 102
enemy of the now M 102
enemy of the age M 102
enemy as no man M 102
ended at an age M 102
entry to the key M 101
enjoy it at one M 101
engaging in the one M 101
entry is in its M 100
entry as to any M 100
enter on the old M 100
enjoy is the one M 100
engaging in no new M 100
engage us at any M 100
engage in is one M 100
enemy to an act M 100
enemy so we can M 100
enemy so he can M 100
enemy or by any M 100
enemy is no easy M 100
enemy be in any M 100
enemy as the men M 100
ended up the war M 100
ended up on earth M 100
ended up in non M 100
ended up in death M 100
entry to the team M 98
entry in the sum M 98
enter in to her M 98
enter in the path M 98
enter in the end M 98
enter in by him M 98
enter as it was M 98
enjoy it is that M 98
engine if it was M 98
engage in on his M 98
enemy of the lie M 98
enemy of my god M 98
enemy is an old M 98
enemy in the poem M 98
enemy he is not M 98
ended as the new M 98
entry of the earth M 97
enter in as one M 97
engaging in the non M 97
enemy of the pro M 97
enter on the east M 96
enter it on that M 96
enter as if you M 96
enjoy as if they M 96
engine to go with M 96
engine or by any M 96
engine as the two M 96
engine as he did M 96
engaging to do all M 96
enemy to do you M 96
enemy to be but M 96
enemy or to bring M 96
enemy in so doing M 96
ended up if they M 96
ended to my own M 96
entry to the low M 95
engage to go out M 95
entry is the use M 94
entry as he had M 94
enter by the air M 94
engine as to its M 94
engage to do for M 94
engage or do not M 94
engage in the air M 94
engage in it out M 94
enemy to my son M 94
enemy or to run M 94
enemy is to put M 94
enemy is at its M 94
ended up on was M 94
ended up if you M 94
ended up as bad M 94
ended in the low M 94
ended in the idea M 94
ended in my not M 94
ended by the foes M 94
entry so as not M 92
entry as if they M 92
engine as we now M 92
engaging us at his M 92
engage in an air M 92
enemy to do one M 92
enemy of the then M 92
enemy is at her M 92
ended up in dead M 92
ended in the end M 92
ended in the easy M 92
ended by the singing M 92
ended by the men M 92
engine of the one M 91
engage in the singing M 91
engage in the pre M 91
ended up on two M 91
ended as it does M 91
entry is the net M 90
entry is in two M 90
engine in the big M 90
engaging to do his M 90
engage to do his M 90
engage in the big M 90
engage in the area M 90
engage in my old M 90
enemy to the war M 90
enemy to the red M 90
enemy to be our M 90
enemy or as they M 90
enemy on or near M 90
enemy is to cut M 90
entry to the poem M 89
ended up at two M 89
enter or to bring M 88
enter by my own M 88
enjoy in the year M 88
enjoy if we had M 88
engaging in it had M 88
engage in it had M 88
enemy to the things M 88
enemy to the head M 88
enemy is in that M 88
enemy is by now M 88
enemy in the big M 88
enemy by the two M 88
ended it in that M 88
ended it by going M 88
ended in the singing M 88
ended in the pit M 88
ended in my doing M 88
ended as of this M 88
entry in so far M 86
entry at the new M 86
enter to the end M 86
enter the ring was M 86
enter on the death M 86
enter on so long M 86
enter it we had M 86
enter it in both M 86
enter it he had M 86
enter it as its M 86
enjoy it or are M 86
enjoy it on that M 86
engine in the earth M 86
engine go at ten M 86
engaging in it than M 86
engage it in our M 86
engage in an ill M 86
enemy of the things M 86
enemy as the two M 86
ended by the long M 86
ended at the big M 86
enjoy in the one M 85
engine of the year M 85
engine is at low M 85
engage us in all M 85
ended on the earth M 85
entry is as easy M 84
entry as it does M 84
enter if he was M 84
enter if he had M 84
enter at the bar M 84
engaging in it can M 84
engage to be his M 84
engage it in any M 84
engage in the sin M 84
engage in in this M 84
enemy to the sun M 84
enemy or of being M 84
enemy is the real M 84
ended up as that M 84
ended on an odd M 84
enact it at all M 84
entry if he has M 83
entry or by using M 82
enter it to get M 82
enter in the area M 82
enter in it his M 82
enjoy it by being M 82
enjoy if we are M 82
engine or by using M 82
engine in the end M 82
engine if it had M 82
engage the king and M 82
engage it in his M 82
engage in it any M 82
engage in as long M 82
enemy to be all M 82
enemy is the fear M 82
enemy is in all M 82
ended up in near M 82
ended in the not M 82
ended in an era M 82
entry to my own M 81
ended in the dim M 81
entry is the year M 80
enter up the log M 80
enter it by any M 80
enjoy to be with M 80
enjoy it or get M 80
enjoy is to use M 80
engine on the day M 80
engage us to lay M 80
engage me in long M 80
enemy of the way M 80
enemy as the man M 80
enemy as he may M 80
ended to the joy M 80
ended on the old M 80
ended in the top M 80
ended in an age M 80
enact it in its M 80
enemy is the key M 78
enemy on the new M 67
enter on the top M 59
engine to go out M 59
engine is the key M 59
ended up in far M 59
enemy to the dog M 56
entry in the pay M 55
enemy or by one M 54
entry of the lead M 53
engine to the two M 52
engine as an air M 52
entry to the age M 51
engage in the year M 51
ended so as not M 51
entry to the then M 50
entry on the non M 50
enemy in or near M 50
entry of the due M 49
engage in the not M 49
enter on the far M 48
ended by an end M 48
engage in an out M 46
ended in the dead M 46
entry in the dead M 45
enemy as the one M 45
ended in the now M 45
entry is the end M 44
engage in the team M 44
endings at the top M 44
enter on the two M 43
enter it if one M 43
enter at the new M 43
engine to the low M 43
engaging in the six M 43
engaging in the low M 43
enemy by the red M 43
engage in an arm M 42
enemy is the end M 42
enemy in an all M 42
entry to the all M 41
entry is the set M 41
entry is the day M 41
engaging of the new M 41
engaging in the far M 41
engaging in the age M 41
entry if he had M 40
enjoy in the day M 40
engine in the low M 40
engaging in the air M 40
engaging in it that M 40
engaging as he was M 40
engage in an age M 40
ended in the all M 40
ended if it was M 40
ended up in bed D 7178
engine of the car D 5844
engage in the fur D 3444
entry in the row D 2194
engage in the art D 1590
engine in the car D 1428
enter the sea and D 1128
engaging in the fur D 1067
enemy of the earl D 1049
entry in the fat D 969
enjoy the sea air D 962
enemy in the bay D 820
engine of my car D 800
enter at the dos D 774
endear it to all D 763
engine of the bus D 756
entry of the gas D 741
enter the ear and D 700
enjoy the sea and D 700
enemy on the eve D 670
engine of the van D 666
engage in the sex D 640
ended on the eve D 638
endings in the rat D 630
endow the king with D 599
enemy by sea and D 594
envoy of the new D 588
entry to the bay D 556
endear me to them D 556
enemy to be met D 552
engaging in the art D 549
entry of the oil D 535
endear me to him D 508
endear us to them D 488
engine as the car D 470
engine to the car D 468
engage in the oil D 464
enemy at sea and D 462
endear us to our D 458
endings of the rat D 450
entry of the ark D 446
endear it to her D 426
envoy to the new D 421
enter in my ears D 414
ensue if he did D 403
entry of the bay D 390
engaging in the sex D 370
enemy on the seas D 368
enter the sea near D 354
entry of the tax D 348
engine in my car D 344
endings in the lung D 336
endear us to each D 336
endear it to them D 320
entry of the beam D 316
enemy of the bee D 314
endings in the gut D 304
engage in the ice D 300
enter the sea with D 298
entry of the raw D 290
entry of the dye D 286
envoy in the low D 282
ended in the gas D 280
entry in the per D 272
engine on the car D 272
engage in an art D 272
endear it to him D 270
ensuing on the death D 264
ended in the wee D 262
entry of ca ions D 261
entry in the tax D 261
entry of the mob D 260
enemy is an ass D 260
endear it to its D 252
entry to the car D 251
ensue at the end D 246
entry in the pop D 243
endear us to one D 240
endear me to her D 240
ended at the tip D 235
ensue in the two D 230
enter the sea for D 228
ennui of the long D 208
enemy of the rat D 204
entry of the row D 200
engine in my ears D 198
ended up in hot D 198
envoy of the east D 197
ensue in the near D 197
ended in the mud D 197
engulf us in its D 192
endear it to our D 192
entry of the jet D 190
engine to the oil D 189
enemy on the lee D 186
ensue if the two D 185
enemy is the lion D 184
ennui of the day D 180
enemy of the art D 180
enemy of the fox D 178
entry of the pin D 177
entry is the lung D 176
ensue if he does D 176
entry of the oboe D 170
entry of the ions D 168
engine as in fig D 168
envoy at the end D 164
ensue if the war D 162
engine or the gas D 162
endear it to you D 156
enemy in the fog D 152
envoy of my own D 150
engage in the cod D 150
enema on the day D 150
ended in the bay D 148
entry on the tax D 145
entry in the cam D 142
engulf us at any D 142
endow the thing with D 142
envoy to the east D 141
engage in the fun D 139
entry to the emu D 138
engulf me in its D 138
engage in the hot D 138
enemy of the gang D 138
entry of the tip D 134
entry in the oil D 133
enter by the ears D 132
endear me to you D 132
entry on the eve D 130
entry of the ray D 130
entry of the car D 130
engaging in the oil D 130
engaging in an art D 129
entry of the hot D 128
entry of the egg D 128
enemy of the raj D 128
entry on an ass D 127
entry of the earl D 126
enemy at sea was D 126
ended in the earl D 126
entry in the zip D 124
ensuing at the end D 124
ended in the riot D 124
ended at the bay D 124
endear to us our D 124
envoy to the tang D 121
entry to the lung D 121
ensue in the long D 121
entry in the leaf D 120
enemy to the earl D 116
endings in the tip D 116
ended in the rue D 115
entry to the hut D 114
engine or the car D 114
enter my ear and D 112
ensue if it was D 111
envoy to the far D 110
envoy at the head D 110
ensue if the new D 110
engine of the beam D 110
enemy is the fat D 110
entry to the ems D 109
envoy of the god D 108
engine of the cab D 108
ended in an ice D 107
envoy if he had D 106
enemy to the sex D 106
entry to the oil D 105
enter the er and D 104
engine to the jet D 104
engine if the oil D 104
engine as the oil D 104
envoy to the area D 103
enemy of the hop D 103
enemy of the lion D 102
enemy in the earl D 102
entry to the art D 100
enter at the tip D 100
engine of the tug D 100
engaging in the ice D 100
enemy on the hip D 100
endear us to him D 100
engine to the gas D 99
entry to the bath D 98
enter the sea they D 98
enemy of the sex D 98
ended at the rim D 98
ensue if we had D 96
enemy in the art D 96
entry to the bus D 94
ensue to us and D 94
ennui of the old D 94
engage in the shoe D 94
endings in the leaf D 94
entry to the lab D 92
enter the sea are D 92
ensue as to who D 92
enemy in the gang D 92
endings in the ears D 92
engine is the gas D 91
entry to the gas D 90
ensue on the death D 90
ennui is of its D 90
enemy is in hot D 90
entry of the rod D 86
enter the sea each D 86
enemy to the art D 86
engine of the jet D 84
enjoy it as art D 82
engage the ear and D 82
enemy by sea than D 82
engage in the gas D 81
envoy to the head D 80
endear us to god D 80
enemy of the pear D 74
enemy of the tax D 48
entry to the inn D 44
endear it to any D 43
envoy to the low D 42
