sneaks up on you D 5428
sneaking up on him D 3650
sneaking up on you D 3352
snout to the end D 2845
sneaking up on them D 2822
sneaking up on her D 2614
sneer at the idea D 2476
snout to the tip D 2110
sneer at me for D 1344
snake on the head D 1014
snout of the pig D 971
snout in the air D 952
snake in the act D 930
sniff of the air D 888
snack on the way D 838
sniff at the air D 836
sneer at the old D 750
snare of the fear D 686
sneaks up on them D 574
snake in the path D 554
sneaking up on his D 544
sneer at the man D 534
sneer at me and D 534
snake on the way D 526
snout to the eye D 510
snake in my bed D 500
snake on the path D 498
snake in the sun D 484
sniff at it and D 480
snake at the end D 478
snoring on the bed D 476
sneaks up on him D 465
snaps to the end D 435
snake by the head D 430
sneer at us for D 411
snags in the way D 406
snoring in the bed D 400
snake in the air D 394
sneer at the new D 375
snake or an eel D 372
snoring of the men D 364
snows of the far D 352
sneaking in to see D 344
snake in the head D 342
snake in the box D 341
snout of the gun D 336
snack of tea and D 336
sneer at it and D 333
snows of the year D 330
snake in the bed D 330
sneaks up on her D 327
snows of the long D 326
sniff in the air D 325
snack at the end D 322
snoring of the old D 312
snaring of the sun D 306
snare in the way D 295
snuff in the air D 289
sneer at us and D 284
snack of the day D 282
snout of the hog D 275
snare to the man D 268
snack to go with D 262
snack on the run D 256
snaps it in two D 254
snake in the sky D 253
snuff up the air D 250
sneaks up on its D 247
snake in the eye D 246
sneaking up on its D 238
snort at the idea D 236
snarl of the dog D 226
snare in the path D 224
snack at the bar D 224
snaps to the top D 222
snoring in the sun D 221
snaps in the air D 221
snake in the way D 216
snake on the end D 214
sneaks up on his D 209
sneaking up to her D 206
snare in my way D 204
snout to the sky D 202
snake on the wet D 202
snake in the area D 199
snare on the end D 195
snoring to the sun D 194
sneaking up to his D 194
sneaking up on one D 193
snoop up on you D 192
snake in the bag D 190
sneer at the men D 187
snuff in the box D 185
snake in the long D 182
snake at the top D 182
snoring of the two D 180
sneer at the way D 180
snake in the new D 180
sneer of the lip D 178
snake is in his D 176
sneer in the way D 175
snare on the earth D 174
sneer at the use D 171
snort of the one D 170
sneaking up on our D 170
snake as he was D 170
snubs as if they D 168
snack in the car D 162
snake is the one D 158
snout to the top D 157
snoring of the man D 156
sniff at it with D 154
snare at the end D 154
snake as it was D 153
sneer in the man D 152
snaps it up and D 152
sniff at the idea D 146
sneer at the law D 146
sniff of the real D 142
sneer on the man D 142
sniff at me and D 140
snuff as he goes D 138
sneaking in or out D 138
snake in my path D 138
sniff at the dead D 136
sneer of the man D 136
sneaking up on this D 136
snaps on the head D 135
sneer at an old D 134
snaps it up with D 134
snout of the saw D 132
snout at the end D 132
snare of the law D 132
snake in the pot D 130
snake of the boa D 128
sneer at the poet D 126
snack in the bar D 126
snarl at me and D 123
snake on the top D 122
snake in the pit D 122
snuff or the fan D 121
snows of the new D 121
sneaks up on one D 121
snake in it and D 120
snout of the dog D 119
snout in the mud D 118
snoring in my bed D 116
snake of the earth D 116
snuff at the top D 114
snore it is not D 114
snake on my arm D 114
snake in the car D 114
snack to eat and D 114
snout is as long D 112
sneaks up to his D 112
sneaking up to them D 112
sneaking up to him D 112
sneaking to the rear D 112
snake in the zoo D 112
sneaking up on that D 110
snare of my own D 110
snuff at the end D 109
sniff the sea air D 109
snarl at me for D 109
snowing on the day D 108
snoring on the rug D 108
sneer of the yet D 108
snake in the egg D 108
sniff of sea air D 106
snarl of the big D 106
snake in the day D 104
sneer at the earl D 102
snort at the end D 101
snowy as it was D 100
sniping at the new D 100
sniff of it and D 100
sneer at the end D 100
snake of the east D 99
snoring of an old D 98
snake if it was D 98
snags on the way D 98
sniff up the air D 96
snake on the bed D 95
snoring in the seat D 94
snare to my son D 94
snare is in all D 94
sneaking up on all D 93
sneaking up to our D 92
sneaking up on each D 92
snout of the bear D 91
snaps at me and D 91
sneaking on at this D 90
snake on it and D 90
snout of the rat D 88
snarl at the end D 88
snare of the old D 88
snaps up the one D 88
snows at the end D 87
sneer at in that D 86
snuff is the one D 84
snows in the sun D 84
snake at the zoo D 84
snows on the top D 83
sneaking up to get D 82
sneaking in on them D 82
snoring on the cot D 80
sneaking up to see D 80
snout to the rear D 76
snaps at the air D 69
snows in the far D 61
snaps at the end D 59
snoop on the bus D 54
sniff at the end D 53
snarl to the meat D 50
snows of the east D 48
sneaks in to see D 47
sniff at the new D 46
sneer at the two D 46
sniff at the old D 45
snake or an ant D 43
snaps at the fly D 42
sniping on my own D 41
sniff at the meat D 41
snoring of the dog D 40
sneer in the old D 40
snake to the top D 40
