gap can not be M 8415
gap that can be M 2120
gap may not be M 1406
gap that has to M 1110
gap was due to M 1036
gap that had to M 798
gap and that the M 763
gap that may be M 722
gap was one of M 630
gap that led to M 486
gap can then be M 482
gap was not so M 448
gap can lead to M 448
gap was not as M 445
gap was all the M 410
gap has led to M 406
gap can now be M 352
gap and can be M 352
gap and for the M 326
gap and then the M 322
gap may lead to M 306
gap that was the M 304
gap was not the M 290
gap and then to M 271
gap and bring the M 266
gap that was to M 252
gap for him to M 252
gap and thus the M 239
gap than that of M 227
gap and that it M 226
gap and try to M 220
gap for each of M 212
gap for them to M 204
gap and with the M 200
gap and lead to M 197
gap has yet to M 196
gap for all the M 192
gap and out at M 192
gap was cut in M 186
gap may then be M 182
gap may now be M 178
gap and how to M 172
gap and may be M 169
gap was set at M 158
gap and this is M 158
gap are due to M 154
gap and how it M 154
gap and not the M 153
gap was that the M 152
gap and thus to M 152
gap that has so M 150
gap can thus be M 150
gap and saw the M 148
gap and that of M 144
gap was not to M 142
gap and all the M 141
gap with one of M 130
gap was set to M 130
gap than for the M 125
gap with that of M 124
gap and set up M 118
gap has had to M 116
gap cut out of M 116
gap being one of M 116
gap with all the M 112
gap may lie in M 104
gap was going to M 102
gap for you to M 100
gap and act as M 99
gap for her to M 98
gap with men in M 96
gap they had to M 92
gap for all of M 90
gap and out of M 90
gap has got to M 88
gap and get the M 86
gap was that it M 84
gap that was in M 84
gap that had so M 84
gap and let the M 83
gap was for the M 80
gas can not be D 16966
gas that can be D 12702
gas and oil in D 6558
gas and air is D 5730
gas that may be D 4406
gay men and the D 4368
gas and air in D 4156
gas for use in D 3544
gas and oil to D 3276
gas per ton of D 2880
gas and that the D 2620
gas may not be D 2510
gas law can be D 2496
gas can then be D 2426
gas and air to D 2384
gas and for the D 2064
gas law and the D 2036
gas and can be D 2016
gas and that of D 2008
gay men may be D 1888
gay man who is D 1808
gas and air at D 1564
gas may then be D 1529
gas and oil is D 1482
gay men can be D 1481
gas and had to D 1306
gas and oil as D 1264
gas and may be D 1262
gas law may be D 1230
gas and with the D 1150
gay men are the D 1055
gas for use as D 1035
gas and oil at D 1034
gay men who do D 1024
gas and all the D 954
gay and that he D 928
gas law for the D 918
gang was going to D 890
gay with all the D 878
gas and one of D 850
gas and oil on D 832
gas can now be D 820
gay men and to D 778
gas with that of D 768
gay man and the D 756
gas was due to D 716
gas was one of D 702
gay men with the D 698
gas and air by D 696
gas jet and the D 674
gay men are at D 655
gas may now be D 650
gas that has no D 638
gas and air as D 638
gang was one of D 630
gas and then the D 626
gas and let the D 618
gas can lead to D 606
gay men than in D 604
gas act and the D 604
gay men are in D 600
gay men are no D 596
gas and then to D 592
gas and oil by D 580
gang are going to D 580
gas and oil or D 550
gang was led by D 548
gas and that it D 526
gay men for the D 522
gas has led to D 520
gas and air or D 510
gas and not to D 506
gas and this is D 496
gas may lead to D 490
gas can thus be D 472
gas per day to D 450
gas and its by D 450
gay men are so D 449
gas cap and the D 449
gas was going to D 448
gas that has the D 446
gas are due to D 446
gay was not the D 432
gas that was in D 420
gas are not the D 420
gas than can be D 406
gang can not be D 402
gay and who is D 394
gay men out of D 376
gas and oil of D 374
gas and not the D 374
gang get out of D 374
gas oil can be D 372
gas oil may be D 366
gas and use the D 364
gay men had to D 362
gas for oil in D 362
gas and put the D 360
gay was one of D 352
gas but not to D 348
gas than that of D 342
gas oil and the D 340
gas and that in D 340
gay and that the D 338
gas that has an D 336
gas and has the D 334
gal per ton of D 333
gas and use it D 330
gas per day in D 328
gas was set at D 322
gas was not in D 314
gas that has to D 314
gas than for the D 308
gas for each of D 306
gas with air in D 302
gay man dying of D 298
gas was not the D 298
gas per year to D 296
gas was lit in D 294
gay men and in D 292
gas was fed to D 292
gas and thus the D 290
gas and let it D 290
gas per day is D 280
gay bar for the D 278
gas was not so D 278
gas and air the D 278
gang and see my D 278
gas for all the D 276
gas and air on D 276
gas was put in D 275
gas jet may be D 273
gas per day at D 272
gas may thus be D 272
gas and oil the D 270
gas with air or D 268
gas and put it D 268
gay men was the D 264
gas was not to D 256
gas that was to D 254
gas for use by D 254
gas and then by D 248
gas than does the D 246
gay man can be D 240
gas and using the D 240
gay man may be D 238
gas and not by D 238
gas man and the D 236
gas and all of D 234
gas can and the D 230
gas and put on D 230
gay men and of D 226
gay man and as D 223
gas was not an D 222
gas and air of D 222
gas then goes to D 220
gas law and is D 220
gas and thus to D 220
gas was that of D 216
gas and not on D 216
gap was met by D 216
gas does not go D 214
gang was out of D 214
gang and all the D 212
gas and bring the D 208
gas with one of D 204
gas and that he D 204
gay men are as D 202
gas that was the D 202
gas and has an D 202
gang and that the D 202
gay men than to D 200
gang and that he D 200
gay than that of D 198
gas can out of D 198
gas are apt to D 198
gas ions and the D 197
gay has got so D 196
gas jet can be D 196
gang war with the D 194
gay man and an D 192
gay bar and the D 192
gas was that it D 192
gas and has no D 192
gang and one of D 192
gas with all the D 191
gay man with the D 190
gay can not be D 190
gas and try to D 190
gas and bring it D 190
gas and get the D 188
gay men that the D 186
gal per day of D 184
gas deal with the D 182
gay men than it D 180
gay men and is D 180
gas was not at D 180
gay men with an D 178
gay men and by D 178
gas bag and the D 178
gang and see the D 177
gay men that is D 176
gay men not to D 176
gas and using it D 174
gas and had no D 174
gas you put in D 173
gas was not as D 172
gas oil for the D 172
gas and how to D 172
gang that did it D 172
gang set out to D 172
gas leak and the D 171
gay men are to D 170
gas and that is D 170
gas and out of D 170
gay men than the D 168
gay and all the D 168
gas cap can be D 168
gang was put to D 168
gay men and as D 166
gay but not an D 166
gas that are the D 166
gas law with the D 165
gas are not in D 162
gas and set the D 162
gang was not the D 162
gang war going on D 161
gang that was in D 161
gal was going to D 160
gas that had to D 158
gas that are in D 158
gas can all be D 158
gay and yet so D 156
gay and dying of D 156
gas but not in D 156
gas and gas in D 156
gas cap may be D 155
gang and try to D 155
gas with air is D 154
gas jet with the D 154
gay men dying of D 152
gas with air to D 152
gas being fed to D 152
gang that did the D 152
gay and that it D 150
gas than did the D 150
gas does not at D 150
gas being due to D 150
gas and one on D 150
gay was not an D 148
gay was all the D 148
gas was out of D 148
gas tax and the D 148
gas law and to D 148
gang may not be D 148
gay man with an D 146
gay man for the D 146
gay head and the D 146
gas and two of D 146
gas and oil we D 146
gang and who is D 146
gay men try to D 142
gay man put it D 142
gas than they do D 142
gas for one of D 142
gas and has to D 142
gay for you to D 140
gas than with the D 140
gas met with in D 140
gas and hit the D 140
gas and air be D 140
gas can act as D 138
gas but not the D 138
gas and put an D 138
gas and how it D 138
gas law for an D 136
gang was set to D 136
gay sex and the D 134
gay men due to D 134
gas leak can be D 134
gas but can be D 134
gas and lit the D 134
gal way and the D 134
gay men can do D 132
gas but with the D 132
gay men had no D 131
gas are not at D 131
gar them let me D 130
gas for all of D 128
gas are going to D 128
gas and lead to D 128
gas and air do D 128
gas are that it D 124
gas was let in D 122
gas than any of D 122
gas for both the D 122
gas and use of D 122
gang and sit by D 122
gas you use in D 121
gas but not of D 120
gas and set it D 120
gang and had to D 120
gay men who go D 118
gay men and an D 118
gay and had no D 118
gas was led to D 118
gas for use on D 118
gas being one of D 118
gas and oil it D 118
gas law that the D 116
gas does not in D 116
gas but not on D 116
gas and not in D 116
gal had all the D 116
gay and easy to D 114
gas does not do D 114
gas and heat to D 114
gal can not be D 113
gay and out of D 112
gas and heat it D 112
gas and fed to D 112
gas and are the D 112
gang and had no D 112
gag was put in D 112
gay man has at D 110
gay day for the D 110
gas seal for the D 110
gas can not do D 110
gas are not to D 110
gas and with an D 110
gas and due to D 110
gar him let me D 110
gang was apt to D 110
gas and air so D 109
gas was not on D 108
gas per day by D 108
gas jet near the D 108
gas and then we D 108
gas and oil do D 108
gas and how the D 108
gas and heat the D 108
gang had set up D 108
gay and not at D 106
gas but may be D 106
gas and going to D 106
gas and act as D 106
gang got out of D 106
gag him with the D 106
gay men with no D 104
gay men that he D 104
gay men had the D 104
gay men for an D 104
gay man has to D 104
gay and that we D 104
gas out gas in D 104
gas for heat or D 104
gas and not of D 104
gang and for the D 104
gay now with the D 102
gay men that we D 102
gay men how to D 102
gas was put to D 102
gas this may be D 102
gas law using the D 102
gas are two of D 102
gas are not so D 102
gang that ran the D 102
gay men had an D 100
gas jet for the D 100
gas for fear of D 100
gang that had the D 100
gas this can be D 99
gas can not by D 99
gas and not as D 99
gas are now the D 98
gas and gas to D 98
gas ions can be D 97
gay one with the D 96
gay men use to D 96
gay dog with the D 96
gay and one of D 96
gas with that in D 96
gas was set to D 96
gas and was the D 96
gal who ran the D 95
gay for any thing D 94
gas and heat is D 94
gang was that of D 94
gang and all of D 94
gas are not as D 93
gay men are on D 92
gay man that he D 92
gas has yet to D 92
gas and set up D 92
gas and lit it D 92
gal who can do D 91
gay with her as D 90
gay men use the D 90
gay men that it D 90
gay but that he D 90
gay and this is D 90
gay and she so D 90
gas was air at D 90
gas that hung in D 90
gas has had an D 90
gas for oil as D 90
gas and they do D 90
gas and oil up D 90
gas lit and the D 89
gay sex can be D 88
gay men led to D 88
gas for use at D 88
gas can for the D 88
gas are set in D 88
gang was out to D 88
gang and that of D 88
gay men than by D 86
gay for fear of D 86
gas was for the D 86
gas has not the D 86
gas for one or D 86
gas are fed to D 86
gas and had the D 86
gang has got to D 86
gay old boy he D 84
gay and you do D 84
gas with air at D 84
gas then can be D 84
gas for two or D 84
gas and see if D 84
gang was not an D 84
gang beat him up D 84
gay bar near the D 82
gas that goes to D 82
gas goes out of D 82
gas but for the D 82
gas are set up D 82
gas and that we D 82
gas and got the D 82
gang who had the D 82
gay was not in D 80
gay was going to D 80
gay men but is D 80
gas has had to D 80
gas and one or D 80
gang that was the D 80
gang are not the D 80
gag was out of D 80
gas tar may be D 66
gag and try to D 52
gal who was in D 51
gas heat can be D 46
gal who was the D 45
gas and oil no D 43
gas may act as D 41
gas law due to D 41
