go a lot of M 1766
go a day or M 1300
go a bit of M 932
go a year or M 682
go a lot to M 362
go i had to M 350
go i hear the M 266
go a way of M 244
go i and my M 220
go a bit to M 216
go i can go M 210
go i try to M 168
go a few of M 162
go a bit in M 154
go a few at M 152
go i had no M 144
go a lot on M 140
go a set of M 138
go i hear of M 136
go a lot by M 126
go i see the M 120
go i was in M 118
go i was so M 114
go a bit on M 108
go i owe my M 98
go a long in M 98
go i mean to M 96
go a cry of M 92
go i may be M 88
