go back into the M 192171
go down into the M 164770
go forth into the M 48955
go away from the M 38690
go back over the M 38632
go deep into the M 29201
go back home to M 29133
go forth from the M 22985
go away from me M 22416
go from here to M 19052
go from door to M 16062
go back down the M 15484
go from there to M 14439
go back down to M 14116
go over some of M 12783
go over into the M 11744
go back from the M 11556
go into town to M 11458
go take care of M 11106
go down there to M 10722
go over there to M 10104
go down from the M 10022
go into debt to M 9204
go away into the M 9160
go next door to M 8548
go back there to M 7958
go from left to M 7730
go from room to M 7603
go home from the M 7538
go once more to M 7510
go into some of M 7027
go forth unto the M 6842
go away from it M 6604
go back only to M 6526
go back along the M 6036
go back over it M 5972
go down over the M 5914
go from town to M 5905
go back upon the M 5848
go away when the M 5798
go away from us M 5638
go down well in M 5256
go wrong will go M 4874
go back into my M 4812
go down among the M 4758
go from zero to M 4694
go down into it M 4690
go home when the M 4531
go into hiding in M 4218
go from home to M 4129
go into making up M 4057
go from time to M 4031
go away from my M 3848
go down upon the M 3424
go forth upon the M 3400
go over from the M 3396
go from city to M 3370
go back into it M 3370
go down when the M 3254
go forth among the M 3201
go back over to M 3132
go into making the M 3058
go wrong during the M 3050
go here into the M 2984
go down there in M 2981
go over what we M 2866
go away when he M 2740
go back even to M 2612
go from here in M 2602
go over there in M 2571
go home when he M 2548
go forth from it M 2512
go back home in M 2480
go over well in M 2452
go into town on M 2342
go into what is M 2319
go back there in M 2280
go into hiding to M 2234
go down town to M 2136
go from shop to M 2075
go there during the M 2072
go back upon it M 2070
go into debt in M 2064
go back when the M 2062
go there just to M 2036
go back onto the M 2004
go back home at M 2001
go home during the M 1950
go wrong when the M 1943
go down upon it M 1908
go into such an M 1894
go from good to M 1870
go back from it M 1838
go more into the M 1836
go down into my M 1826
go down along the M 1810
go from here is M 1797
go their hold of M 1790
go into fits of M 1786
go from side to M 1781
go next week to M 1740
go there from the M 1739
go only part of M 1730
go from north to M 1694
go there when the M 1680
go there will be M 1668
go down there at M 1664
go back home as M 1658
go into hiding or M 1644
go down during the M 1632
go forth from me M 1629
go south along the M 1622
go when there is M 1589
go their hold on M 1588
go wrong from the M 1574
go back home or M 1571
go well into the M 1568
go there when he M 1557
go down there on M 1554
go much into the M 1552
go down well at M 1548
go wrong when we M 1540
go your hold of M 1508
go over there on M 1493
go back among the M 1486
go away just as M 1478
go into these in M 1469
go there only to M 1458
go down like the M 1436
go from port to M 1428
go from west to M 1410
go back when he M 1404
go forth from my M 1400
go away even if M 1386
go back even if M 1362
go home when it M 1346
go away when we M 1324
go over unto the M 1306
go over what he M 1304
go north along the M 1292
go forth over the M 1292
go back there if M 1290
go back home if M 1278
go down there as M 1273
go back from my M 1272
go away during the M 1270
go from hand to M 1268
go back only as M 1265
go into depth on M 1254
go back there at M 1254
go down upon my M 1246
go deep into it M 1243
go back over my M 1238
go there when we M 1230
go ahead into the M 1212
go north into the M 1202
go very well in M 1196
go north from the M 1191
go down just as M 1188
go clear back to M 1176
go from here if M 1154
go very early to M 1140
go over there at M 1132
go into town in M 1132
go down there by M 1130
go flying into the M 1106
go over there by M 1104
go into many of M 1096
go back home on M 1088
go free from the M 1076
go away once the M 1052
go home early to M 1042
go down past the M 1039
go away over the M 1036
go home when we M 1014
go back there as M 1014
go from tree to M 1010
go down onto the M 1006
go away like the M 1006
go over well at M 1004
go from high to M 995
go into hiding at M 990
go away back to M 982
go into debt or M 978
go down south to M 972
go from birth to M 963
go back past the M 950
go back three or M 942
go wrong when he M 920
go home over the M 906
go there early in M 904
go away till the M 902
go ahead even if M 900
go forth like the M 892
go from land to M 888
go back down in M 886
go south from the M 877
go into what we M 874
go into making an M 874
go flying down the M 874
go very deep in M 860
go deep among the M 854
go from here the M 849
go back into an M 848
go even into the M 847
go there even if M 831
go away when it M 824
go there once in M 816
go from there is M 814
go only into the M 812
go very early in M 807
go home till the M 804
go west from the M 786
go wild over the M 784
go home early in M 778
go wrong even in M 770
go over what the M 769
go down unto the M 768
go into making it M 764
go over here to M 742
go into town or M 742
go left along the M 741
go forth from us M 736
go back there on M 728
go ahead from the M 722
go from cell to M 715
go away till he M 712
go into what the M 700
go their ways in M 698
go home just as M 689
go from here as M 688
go only when the M 685
go from here on M 684
go back upon my M 682
go back soon to M 678
go clear down to M 676
go from south to M 672
go upon such an M 670
go into town at M 670
go home even if M 666
go your ways to M 665
go over much of M 664
go your ways in M 662
go flying over the M 660
go south into the M 658
go into what he M 658
go back till the M 658
go speak unto the M 646
go high into the M 634
go down here to M 632
go back just to M 632
go along just to M 631
go over there as M 630
go ahead only if M 627
go wrong along the M 626
go back step by M 624
go from page to M 622
go back when we M 620
go down there if M 618
go there once or M 612
go back during the M 612
go there when it M 610
go over what is M 609
go from step to M 600
go from less to M 600
go west along the M 599
go back here to M 598
go from nothing to M 597
go awry when the M 594
go into hiding as M 590
go along when the M 588
go from home in M 587
go ahead just as M 587
go back home the M 586
go home late at M 578
go down into an M 574
go into port to M 572
go well from the M 570
go well during the M 570
go very soon to M 568
go from love to M 568
go deep down to M 568
go along into the M 567
go well over the M 564
go into depth in M 562
go wrong when it M 556
go once more on M 554
go back just as M 552
go very much to M 548
go ahead along the M 548
go into most of M 546
go from what is M 546
go over there if M 542
go back prior to M 542
go very deep to M 536
go away down the M 536
go down even to M 532
go very fast to M 530
go over till the M 530
go back north to M 528
go down hill to M 526
go from dark to M 525
go back home by M 522
go down step by M 520
go from work to M 518
go over into it M 516
go home early on M 516
go back home so M 514
go into trying to M 512
go down early to M 508
go very well on M 506
go home till he M 506
go forth into it M 504
go down when it M 500
go wrong there is M 498
go only just so M 496
go away just by M 496
go ahead when the M 488
go down when he M 486
go back when it M 486
go from ship to M 484
go into debt by M 482
go from life to M 479
go west into the M 474
go only when he M 474
go live among the M 470
go into areas of M 470
go from three to M 470
go jump into the M 468
go from there by M 468
go from among us M 466
go down town on M 466
go wild over it M 464
go along just as M 464
go down till the M 462
go from there in M 459
go back five or M 456
go along hand in M 455
go very fast in M 452
go home only to M 452
go very high in M 450
go from site to M 449
go even when the M 449
go back also to M 448
go over these in M 446
go into town the M 436
go three feet to M 434
go their ways to M 432
go from rest to M 430
go ever hand in M 430
go into town by M 429
go some part of M 428
go back there the M 428
go into even the M 424
go also into the M 424
go into hiding on M 421
go back even as M 420
go along side by M 418
go back down on M 417
go from seed to M 414
go over much the M 412
go into work at M 410
go down only to M 410
go down ahead of M 410
go back four or M 410
go left from the M 408
go into debt at M 408
go from five to M 408
go free into the M 408
go deep down in M 406
go down early in M 404
go along when he M 402
go from bank to M 400
go some length in M 398
go root away the M 398
go home once in M 398
go down amid the M 396
go from theory to M 395
go over part of M 394
go from these to M 394
go your hold on M 390
go over into an M 390
go very wrong in M 386
go into more of M 386
go over many of M 384
go down well on M 384
go deep into my M 383
go there till the M 382
go over well on M 380
go back till we M 380
go even from the M 378
go over there so M 376
go home from my M 376
go down there an M 375
go well when the M 374
go very much as M 374
go there just as M 374
go tell your king M 374
go home ahead of M 374
go back south to M 374
go late into the M 370
go down deep in M 370
go away full of M 370
go down when we M 366
go make sure the M 364
go home along the M 364
go from here at M 363
go away till we M 362
go home early if M 361
go into debt if M 358
go back over an M 358
go look into the M 353
go over early in M 352
go left down the M 348
go home full of M 348
go only from the M 346
go very fast on M 344
go into work on M 344
go even when he M 344
go very slow in M 342
go once more in M 342
go from dawn to M 342
go ahead just the M 342
go home when my M 340
go from home on M 340
go from four to M 340
go away down to M 336
go very high up M 335
go home into the M 334
go from faith to M 334
go back there so M 334
go away from an M 334
go over there or M 332
go down even if M 332
go early into the M 330
go over onto the M 328
go left into the M 328
go free when he M 328
go down like an M 328
go west over the M 326
go there only in M 326
go left over the M 325
go wild when he M 324
go back early to M 324
go back there by M 323
go left onto the M 322
go into what it M 322
go down town in M 322
go crying into the M 322
go very wrong if M 320
go very much in M 320
go from book to M 320
go clear over to M 320
go look over the M 319
go from there on M 318
go from home at M 318
go very wide of M 314
go very well at M 314
go make some tea M 314
go into here in M 314
go wrong even if M 312
go over most of M 312
go from line to M 312
go into over the M 308
go back there is M 308
go down hill in M 306
go back till he M 306
go ahead when he M 305
go well past the M 304
go like hell to M 304
go down three or M 304
go from here or M 301
go from having no M 301
go into debt on M 300
go down there the M 300
go down deep to M 300
go down from my M 297
go some time or M 294
go into work in M 294
go from ward to M 294
go from here by M 292
go free when the M 290
go north over the M 288
go down there or M 288
go back there or M 286
go south during the M 284
go back only so M 284
go away unto the M 282
go from fair to M 280
go there only if M 279
go south down the M 278
go home like the M 278
go home just to M 276
go over there an M 274
go just like the M 274
go very much by M 272
go will have to M 271
go over there the M 270
go from what we M 270
go down here in M 270
go into town as M 268
go along only if M 266
go forth upon an M 264
go from heart to M 263
go very well if M 262
go there only on M 262
go make love to M 262
go high when the M 262
go there must be M 261
go home once the M 261
go from blue to M 260
go forth full of M 258
go back from an M 258
go away only to M 258
go back early in M 256
go down till he M 254
go down there so M 252
go back unto the M 252
go away among the M 252
go away till it M 248
go from here we M 246
go forth early in M 246
go away once he M 246
go over what to M 245
go into when we M 244
go back tens of M 242
go away early in M 242
go along back to M 242
go home early or M 240
go have some tea M 238
go from part to M 238
go back more or M 238
go left past the M 237
go just over the M 236
go into debt as M 236
go from post to M 236
go down unto it M 236
go back there no M 235
go there even in M 234
go over land to M 234
go home early so M 234
go very fast or M 232
go home only on M 232
go from youth to M 232
go well ahead of M 230
go very deep or M 230
go ahead during the M 230
go wrong during an M 228
go bare from the M 228
go back once in M 228
go into town if M 226
go from living in M 226
go down there is M 226
go ahead when we M 226
go there just the M 225
go there three or M 224
go only half as M 224
go wrong over the M 222
go from warm to M 222
go over when the M 221
go from cold to M 220
go back once to M 220
go well back in M 218
go from hero to M 218
go find some of M 218
go down some of M 218
go south when the M 216
go home till it M 216
go from hill to M 216
go over during the M 214
go into those of M 214
go back home an M 214
go these days to M 212
go make sure he M 212
go into work the M 212
go home will be M 212
go home till we M 212
go feed upon the M 212
go only when it M 210
go forth bearing the M 210
go down there we M 210
go very well to M 208
go very hard on M 208
go into lots of M 208
go from case to M 208
go forth when the M 208
go meet some of M 206
go into these at M 206
go into much of M 206
go from here it M 206
go forth into an M 206
go there only as M 203
go along some of M 202
go along just the M 202
go ahead step by M 202
go well till the M 200
go wrong when an M 198
go from data to M 198
go along when we M 198
go into those in M 196
go into hiding if M 196
go from next to M 196
go along from the M 196
go along even if M 196
go south over the M 194
go from body to M 194
go along much as M 194
go much more to M 192
go from truth to M 192
go down once or M 192
go back more to M 192
go well hand in M 190
go home late in M 190
go great part of M 190
go from week to M 190
go from calm to M 190
go down town at M 190
go back home we M 190
go back back to M 190
go over upon the M 188
go from month to M 188
go away once we M 188
go very slow on M 186
go very much on M 186
go from soft to M 186
go clear over the M 186
go back once the M 186
go away into an M 186
go over when he M 184
go home there is M 184
go from poor to M 184
go back full of M 184
go away home to M 184
go into fits at M 182
go home back to M 182
go forth only to M 182
go forth hand in M 182
go down till it M 182
go back only if M 182
go very fast at M 180
go some length to M 180
go back there an M 180
go from back to M 179
go from anger to M 178
go free during the M 178
go forth into my M 178
go down side by M 178
go down just to M 178
go clean ahead of M 178
go away when my M 178
go away only if M 178
go only when we M 176
go forth along the M 176
go even when it M 176
go away there is M 176
go there late in M 175
go upon when he M 174
go there have to M 174
go some time in M 174
go back home is M 174
go down only as M 173
go home soon to M 172
go free upon the M 172
go forth amid the M 172
go back will be M 170
go there also to M 168
go over here in M 168
go ahead will be M 167
go soon into the M 166
go over early to M 166
go have some of M 166
go from what he M 166
go back home he M 166
go back even on M 166
go away from or M 166
go along will be M 166
go ever ever on M 165
go from unit to M 164
go down even in M 164
go back over in M 164
go back among my M 164
go away early on M 164
go over what it M 163
go wrong once in M 162
go well clear of M 162
go into port at M 160
go from girl to M 160
go back west to M 160
go back till to M 160
go back like the M 160
go from ideas to M 158
go down will be M 158
go down hill as M 158
go away ever so M 158
go along like the M 158
go from home as M 157
go into fits if M 156
go home lest he M 156
go from word to M 156
go from nine to M 156
go down till we M 156
go away saying to M 156
go there only at M 155
go wrong will be M 154
go from well to M 154
go from fire to M 154
go four feet to M 154
go awry during the M 154
go away till to M 154
go next door or M 152
go into making of M 152
go wrong just as M 150
go over there it M 150
go down well if M 150
go along more or M 150
go much among the M 149
go wild when the M 148
go next month to M 148
go into hiding so M 148
go into here is M 148
go full time to M 148
go from ocean to M 148
go down there he M 148
go away just at M 148
go along when it M 148
go your ways as M 147
go yell among the M 146
go into town so M 146
go home only at M 146
go from trying to M 146
go fast down the M 146
go clean over the M 146
go back when my M 146
go awry when we M 146
go along side of M 145
go well when he M 144
go from gate to M 144
go from clear to M 144
go forth during the M 144
go back down by M 144
go wrong once the M 142
go wild trying to M 142
go well down the M 142
go home half an M 142
go from tears to M 142
go from show to M 142
go back there it M 142
go some time to M 140
go poor unto my M 140
go just once to M 140
go from text to M 140
go from gray to M 140
go down there it M 140
go along during the M 140
go there late at M 139
go flying past the M 138
go down there of M 138
go down more or M 138
go back till it M 138
go back even in M 138
go when trying to M 137
go along down to M 137
go well when we M 136
go full time in M 136
go from mild to M 136
go away once it M 136
go there ahead of M 135
go ahead over the M 135
go very high or M 134
go there into the M 134
go over more of M 134
go into such as M 134
go into line of M 134
go home even to M 134
go from hell to M 134
go from among the M 134
go down just the M 134
go along most of M 134
go ahead when it M 134
go there soon to M 133
go their ways as M 133
go once into my M 132
go next into the M 132
go from male to M 132
go free when we M 132
go down four or M 132
go back three to M 132
go back once he M 132
go away till my M 132
go ahead trying to M 132
go away even in M 131
go wait upon my M 130
go very well by M 130
go over well if M 130
go over half the M 130
go only half the M 130
go much past the M 130
go just past the M 130
go into debt is M 130
go from item to M 130
go even unto the M 130
go away ready to M 130
go their hold in M 128
go only once to M 128
go from great to M 128
go flying back to M 128
go fast over the M 128
go down trying to M 128
go along step by M 128
go very high on M 126
go very hard if M 126
go home from us M 126
go from here do M 126
go ahead upon the M 126
go ahead down the M 126
go there when my M 125
go very deep as M 124
go there hoping to M 124
go there during my M 124
go over ahead of M 124
go into when the M 124
go from peace to M 124
go from evil to M 124
go from base to M 124
go down once in M 124
go back ever so M 124
go from last to M 123
go slow when he M 122
go north past the M 122
go into hiding by M 122
go home only if M 122
go from slow to M 122
go free even if M 122
go back once or M 122
go back down at M 122
go away just to M 122
go along past the M 122
go into sort of M 120
go into only the M 120
go home want to M 120
go home ready to M 120
go from dream to M 120
go flying down to M 120
go down hand in M 120
go away early to M 120
go over three or M 118
go north when he M 118
go much ahead of M 118
go into when it M 118
go from having an M 118
go from full to M 118
go forth when he M 118
go even when we M 118
go down must be M 118
go back rich to M 118
go back deep in M 118
go awry when he M 118
go away over to M 118
go into debt so M 117
go there like the M 116
go making love to M 116
go just when he M 116
go into more or M 116
go into here the M 116
go home upon the M 116
go forth among my M 116
go only once in M 114
go from mind to M 114
go crying back to M 114
go back upon an M 114
go back just the M 114
go away like it M 114
go away back in M 114
go from there up M 113
go along over the M 113
go along down the M 113
go when left to M 112
go there over the M 112
go north during the M 112
go next time to M 112
go into break the M 112
go from edge to M 112
go four years to M 112
go down lest the M 112
go awry from the M 112
go away must be M 112
go ahead even in M 111
go wrong till the M 110
go next when he M 110
go just from the M 110
go from rich to M 110
go down hard on M 110
go down from it M 110
go slow when the M 109
go down from an M 109
go three days in M 108
go over when we M 108
go north when the M 108
go look into it M 108
go home once or M 108
go from past to M 108
go from host to M 108
go from home the M 108
go from home or M 108
go forth anew to M 108
go down once the M 108
go down even as M 108
go best when the M 108
go along upon the M 108
go wrong here is M 106
go wrong here if M 106
go very high to M 106
go there lest he M 106
go there even to M 106
go take over the M 106
go only upon the M 106
go live from the M 106
go into making us M 106
go home soon as M 106
go from those of M 106
go from role to M 106
go from nice to M 106
go from having the M 106
go down only if M 106
go down among my M 106
go ahead once the M 106
go very well as M 105
go there must go M 104
go past from the M 104
go over till to M 104
go over these as M 104
go into when he M 104
go from single to M 104
go from reading to M 104
go from more to M 104
go free back to M 104
go forth side by M 104
go forth onto the M 104
go down next to M 104
go back like it M 104
go west past the M 103
go wrong only if M 102
go there till it M 102
go over only the M 102
go over just to M 102
go over from an M 102
go just when the M 102
go into ways of M 102
go into hiding the M 102
go here hand in M 102
go full length in M 102
go from plus to M 102
go down only in M 102
go back home it M 102
go along trying to M 102
go flying from the M 101
go find work in M 101
go well there is M 100
go well back to M 100
go onto land in M 100
go much more in M 100
go hunt down the M 100
go from face to M 100
go free over the M 100
go away from so M 100
go among some of M 100
go back years to M 99
go wrong will do M 98
go over ways to M 98
go over like the M 98
go next week if M 98
go make sure we M 98
go home from an M 98
go high over the M 98
go half wild to M 98
go from lake to M 98
go from here so M 98
go from fact to M 98
go back north in M 98
go away just the M 98
go along home to M 98
go ahead back to M 98
go there only by M 97
go there even at M 97
go home early as M 97
go over just as M 96
go over among the M 96
go into line on M 96
go into during the M 96
go home past the M 96
go from link to M 96
go from hole to M 96
go free till the M 96
go down back of M 96
go back ahead of M 96
go back able to M 96
go away like an M 96
go more among the M 95
go wrong only in M 94
go slow over the M 94
go over once or M 94
go into town we M 94
go home down the M 94
go from dull to M 94
go from cage to M 94
go awry when it M 94
go away amid the M 94
go ahead down to M 94
go very deep at M 92
go there till we M 92
go their hold to M 92
go some four or M 92
go soft like so M 92
go only among the M 92
go just when we M 92
go from mine to M 92
go from hard to M 92
go free when it M 92
go forth upon it M 92
go forth ready to M 92
go even once to M 92
go down well as M 92
go down town or M 92
go down five or M 92
go back part of M 92
go back early the M 92
go along here to M 92
go ahead more or M 92
go there once the M 91
go from third to M 91
go from such an M 91
go when life is M 90
go their hope of M 90
go south past the M 90
go past along the M 90
go only once or M 90
go into jobs in M 90
go here into an M 90
go from tomb to M 90
go from there or M 90
go from spring to M 90
go from idle to M 90
go clear into the M 90
go back once we M 90
go also upon the M 90
go along there to M 90
go when work is M 88
go when once he M 88
go very fast if M 88
go there upon the M 88
go there till he M 88
go take part in M 88
go slow when it M 88
go rest high on M 88
go over there we M 88
go less from the M 88
go into work to M 88
go into type at M 88
go home free of M 88
go from what the M 88
go from crying to M 88
go down home to M 88
go down hill at M 88
go away even as M 88
go along there at M 88
go ahead even at M 87
go wrong trying to M 86
go wrong such as M 86
go wrong even to M 86
go wild when it M 86
go west when the M 86
go west among the M 86
go well along the M 86
go very early or M 86
go there hand in M 86
go over even the M 86
go once more the M 86
go next upon the M 86
go look along the M 86
go into work of M 86
go from there if M 86
go forth till it M 86
go back even so M 86
go away soon or M 86
go along part of M 86
go along just in M 85
go there seem to M 84
go part from if M 84
go over four or M 84
go only during the M 84
go next spring to M 84
go make sure my M 84
go into into the M 84
go into depth of M 84
go from stem to M 84
go forth till the M 84
go down much in M 84
go away when an M 84
go away poor to M 84
go away early the M 84
go there even on M 83
go there along the M 82
go talk some to M 82
go some ways to M 82
go over when it M 82
go into work or M 82
go down kind of M 82
go back down it M 82
go away lest the M 82
go away leave me M 82
go along what is M 82
go wrong only by M 80
go south only to M 80
go much into it M 80
go home fast to M 80
go home early the M 80
go full high in M 80
go from stop to M 80
go from jail to M 80
go from cool to M 80
go forth such an M 80
go forth save in M 80
go down south of M 80
go down like so M 80
go back west is M 80
go back there we M 80
go back down or M 80
go away lest he M 80
go from five in M 59
go from there as M 58
go deep into an M 56
go down town as M 54
go into life as M 53
go very fast so M 50
go once more up M 49
go from here up M 48
go there more to M 45
go walk along the M 44
go from early in M 44
go were sent to M 43
go back home no M 43
go back down as M 43
go down there no M 42
go there early the M 41
go over great in M 41
go deep down the M 41
go there once to M 40
go much over the M 40
go from farm to D 2344
go into camp at D 2002
go into camp on D 1300
go from rags to D 1281
go nuts trying to D 1101
go into camp in D 992
go down upon thy D 886
go tearing down the D 794
go forth from thy D 702
go racing down the D 644
go from mouth to D 629
go from camp to D 626
go into camp or D 542
go from tent to D 506
go into dock to D 500
go away leaving the D 470
go their grip on D 448
go from desk to D 414
go into camp to D 388
go numb from the D 386
go forth upon thy D 386
go from pole to D 374
go into peals of D 360
go forth clad in D 334
go into hock to D 324
go prying into the D 300
go into heating the D 294
go poking into the D 278
go from booth to D 278
go riding over the D 272
go nuts over the D 272
go from cash to D 270
go nuts when he D 268
go swinging down the D 260
go from boom to D 250
go from wall to D 244
go from spot to D 238
go from club to D 235
go play golf or D 224
go nuts over it D 220
go into camp as D 217
go away leaving me D 214
go wade like the D 206
go from star to D 206
go gaga over the D 202
go from oven to D 188
go diving into the D 188
go from pink to D 186
go racing back to D 182
go riding down the D 180
go from yard to D 178
go riding along the D 176
go home leaving the D 174
go away leaving it D 174
go tell john the D 173
go from task to D 172
go from feast to D 170
go from boat to D 170
go from york to D 166
go upon leaving the D 162
go riding into the D 162
go from rock to D 160
go upon deck to D 156
go tearing along the D 154
go leaping over the D 154
go into dock at D 154
go hack into the D 152
go bike riding or D 148
go singly into the D 140
go tearing into the D 138
go racing over the D 132
go moping down the D 126
go from cafe to D 119
go wading into the D 116
go tearing over the D 112
go from node to D 112
go lowing down the D 110
go from foot to D 110
go racing into the D 108
go pacing over the D 108
go from flat to D 108
go well nigh to D 106
go over shoes in D 106
go from firm to D 106
go piping down the D 104
go into your ear D 104
go from bush to D 104
go roving into the D 102
go bare take ye D 102
go from noon to D 97
go bike riding in D 97
go prying into my D 96
go limp when the D 96
go from film to D 96
go leaping into the D 94
go into bars or D 94
go leaping down the D 92
go into camp by D 92
go full tilt at D 92
go from gold to D 92
go flat down on D 92
go their grip of D 90
go sour when the D 90
go tearing back to D 88
go tubing down the D 86
go racing along the D 86
go nuts when the D 86
go full bore on D 86
go from hull to D 86
go swinging along the D 80
