god are a broken M 12631
god that i should M 11664
god and a future M 10780
going for a little M 8276
god has a special M 7568
god for a blessing M 4416
god had a special M 3836
god for a special M 3388
goes but a little M 3308
going for a couple M 2714
got out a little M 2604
going with a friend M 2292
god was a spirit M 2095
god has a better M 2058
god and a mortal M 1985
got him a little M 1914
god and a desire M 1906
going for a doctor M 1860
got out a couple M 1776
going out a little M 1612
god for a moment M 1594
got all i wanted M 1558
god and a divine M 1554
god for a little M 1508
god with a special M 1322
god for a record M 1314
got but a little M 1282
god and a belief M 1164
going for a second M 1161
god has a unique M 1154
god had a better M 1144
got off a couple M 1108
going for a minute M 1084
got you a little M 1072
got off a little M 1056
got off a letter M 1032
got was a little M 1030
god was a jealous M 1002
god and a person M 968
god has a greater M 954
god has a divine M 932
god and a member M 926
god was a person M 904
going was a little M 864
god and a brother M 854
got things a little M 830
god was a matter M 828
got her a little M 814
god had a design M 796
god and a blessing M 780
going for a moment M 744
god was a reality M 738
god being a spirit M 731
god has a design M 730
god for a better M 729
god with a mission M 706
god for a friend M 692
god and a little M 686
going for a number M 674
god had a greater M 674
got out a special M 670
god that a person M 670
god has a mission M 668
god has a future M 668
god for a second M 607
god that i wanted M 604
god has a higher M 597
got them a little M 596
got him a couple M 590
goes for a little M 588
god was a little M 578
god has a secret M 578
going for a record M 562
god with a little M 558
god and a higher M 557
going off a little M 556
god with a prayer M 556
god and a better M 551
god with a divine M 548
goes out a little M 540
god with a humble M 538
god and a spirit M 529
got off a second M 524
got out a second M 523
god and a coward M 516
god with a simple M 512
god for a greater M 490
goes with a friend M 488
god and a special M 464
going with a little M 458
god has a master M 457
god had a mission M 456
god with a broken M 451
going with a fellow M 435
god has a direct M 430
god has a blessing M 428
god and a deeper M 425
god with a mortal M 424
god and a common M 420
god for a mortal M 407
god with a passion M 404
god and a friend M 402
goes off a little M 400
god for a divine M 396
got not a little M 394
got was a letter M 392
god and a return M 388
god and a greater M 386
god was a common M 385
god has a church M 382
going got a little M 378
god had a church M 378
goes for a number M 364
god and a finite M 360
god was a creator M 358
god had a divine M 356
going with a highly M 350
going and i thought M 350
got out a letter M 348
goes for a second M 346
god for a person M 336
god has a chance M 332
going for a degree M 330
god with a spirit M 330
god hath a special M 328
god had a higher M 328
got for a moment M 326
goes with a higher M 323
god and a church M 321
god was a divine M 319
god has a nature M 316
god has a double M 313
going with a couple M 306
going out a second M 302
god has a remedy M 302
got him a better M 299
got you a couple M 296
got was a couple M 296
god for a spirit M 294
going out a couple M 290
god with a greater M 286
god and a proper M 286
god with a desire M 284
got out a yellow M 280
goes with a greater M 280
god that i needed M 280
god and a sacred M 280
god has a proper M 272
god with a joyful M 270
god and a source M 270
going for a master M 268
god for a chance M 268
going but a little M 266
god and i wanted M 266
god had a little M 264
god was a tyrant M 263
god was a simple M 263
god and a symbol M 262
god had a chosen M 261
got him a second M 260
god has a chosen M 256
god for a supply M 256
goes that a famous M 254
god and i thought M 254
god was a source M 252
god that i thought M 250
got them a couple M 246
god for a unique M 246
god for a mission M 246
god had a temple M 244
god and a prayer M 240
got all i needed M 238
goes with a little M 238
god has a desire M 236
god was a mighty M 234
god and a passion M 234
god with a belief M 232
going for a further M 230
goes with a candle M 230
going for a better M 229
god and a created M 229
got out a number M 228
going for a special M 226
going and a little M 226
god than a mortal M 226
god and a unique M 226
going with a number M 224
going out a window M 222
going for a higher M 222
god had a unique M 220
god for a higher M 216
god for a minute M 215
god for a number M 214
got out i looked M 213
going and i wanted M 212
god for a garden M 212
got out a report M 208
got with a little M 206
god with a unique M 206
god and a second M 206
got out a volume M 204
going was a matter M 202
goes for a couple M 202
god was a friend M 200
god may a second M 200
god and a devout M 200
god has a strange M 198
god that i learned M 196
god did a greater M 196
got her a couple M 194
god for a reward M 194
got him a special M 192
god was a created M 192
got for a little M 190
god was a fiction M 190
god has a number M 190
god and a simple M 190
god and a chosen M 189
god for a return M 186
goes with a belief M 184
god with a higher M 184
god had a secret M 184
god and a female M 183
going was a relief M 182
god that i desire M 182
god was a purely M 180
god and a priest M 180
god and a number M 180
going for a double M 179
god for a future M 179
going out i should M 178
god and i should M 176
got but a minute M 174
goes for a person M 172
god was a direct M 172
got out a weekly M 170
going for a simple M 170
god had a choice M 170
god had a chance M 170
god but a mortal M 169
got off a number M 168
god and a stable M 168
god had a regard M 166
god and a fellow M 166
god and a direct M 166
goes for a doctor M 164
god has a mighty M 164
god for a deeper M 164
going with a letter M 162
god with a nature M 162
god has a passion M 162
god has a choice M 162
goes that a friend M 160
god for a church M 159
goes for a letter M 158
god with a person M 158
got was a broken M 157
got him a summer M 157
got off a report M 156
got him a chance M 156
god and a public M 156
goes with a special M 154
god for a family M 154
god being a common M 154
got her a better M 153
god was a hidden M 152
god how i wanted M 152
god and a kindly M 151
goes with a system M 150
god has a second M 150
god and a mighty M 150
going for a summer M 148
going for a decade M 148
god was a better M 148
got was a slight M 146
god with a design M 146
god was a remote M 146
god and a fallen M 143
going for a voyage M 142
god was a fellow M 141
got you a better M 140
god was a greater M 140
got him a doctor M 138
god has a simple M 138
god has a larger M 138
god but a little M 138
god and a humble M 138
god had a deeper M 137
god was a symbol M 136
god had a double M 136
god and a guilty M 136
got out a clothes M 134
going for a family M 134
god hath a double M 134
god had a further M 134
god and a reward M 134
god that i sought M 132
god and i punish M 132
god and a closer M 132
god for a further M 131
going with a person M 130
goes with a number M 130
god was a special M 130
god hath a temple M 130
god hath a select M 130
god has a further M 130
god for a couple M 130
god with a number M 128
god with a mighty M 128
god that i return M 128
god has a record M 128
god that i myself M 126
god has a system M 126
god for a mighty M 126
god and a temple M 126
god and a regard M 126
god and a pledge M 126
got that a little M 124
got out a camera M 124
got going a little M 124
goes not a little M 124
god had a direct M 124
god that i reached M 122
god and i prayed M 122
god had a future M 121
god for a favour M 121
goes for a lonely M 120
god has a little M 120
god has a family M 120
god has a dwelling M 120
god did a mighty M 120
going with a pretty M 119
god was a phrase M 118
god and a serious M 118
god had a master M 116
got them a better M 114
going with a winner M 114
going and i should M 114
god was a member M 114
god than a person M 114
going with a gentle M 112
going out a winner M 112
going for a nature M 112
god with a proper M 112
got was a severe M 110
going with a modest M 110
going for a larger M 110
goes with a person M 110
goes with a larger M 110
god had a lesson M 110
god had a larger M 110
god being a person M 110
god was a higher M 109
got out i thought M 108
got her a doctor M 108
going with a special M 108
god with a serious M 108
god for a proper M 108
god was a result M 106
god that i always M 106
god had a blessing M 106
god for a simple M 106
god did a wonder M 106
got off a pretty M 105
got off a street M 104
got cut a little M 104
going out a minute M 104
god with a degree M 104
god has a lesson M 104
god for a teacher M 104
god for a remedy M 104
god and a jealous M 104
got him a pretty M 103
goes with a modern M 102
goes that a number M 102
god with a common M 102
god and a strange M 102
god nor a future M 101
going with a larger M 100
going with a family M 100
going mad a second M 100
goes with a highly M 100
god that i suffer M 100
god has a spirit M 100
god has a favour M 100
god for a sudden M 100
god for a pardon M 100
god and a system M 100
god and a lesser M 100
got that i should M 98
going for a modern M 98
goes for a moment M 98
god has a reward M 98
god had a mighty M 98
god and a larger M 98
got was a simple M 97
god has a vested M 97
got but a slight M 96
going with a doctor M 96
going near a church M 96
going for a decent M 96
god and i always M 96
god and a trusting M 96
got was a pretty M 95
god has a hidden M 95
got out a candle M 94
going for a priest M 94
going and a couple M 94
god had a second M 94
god and i praise M 94
got him a number M 92
goes that a little M 92
god that i prayed M 92
god for a fallen M 92
god and a teacher M 92
god and a creation M 92
going with a strange M 90
goes with a desire M 90
god with a silent M 90
god with a female M 90
god was a creation M 90
god that i become M 90
god and a hatred M 90
god and a clearer M 90
god has a deeper M 89
got you a decent M 88
got him a letter M 88
got him a decent M 88
going out i looked M 88
going for a wander M 88
goes with a broken M 88
god was a strange M 88
god was a highly M 88
god and i desire M 88
god and a doctor M 88
god and a family M 87
got was a lesson M 86
got for a couple M 86
going with a client M 86
going that i should M 86
going out a moment M 86
goes with a simple M 86
goes with a formal M 86
goes near a church M 86
god was a serious M 86
god and a strict M 86
god and a couple M 86
got out a phrase M 84
got off a signal M 84
got him a mighty M 84
going was a serious M 84
goes but a feeble M 84
god was a unique M 84
god was a factor M 84
god was a circle M 84
god and a creator M 84
got was a double M 82
going for a serious M 82
going for a course M 82
god that i remain M 82
god and a chance M 82
got out a button M 80
goes off a second M 80
god with a double M 80
god that a little M 80
got you a pretty M 57
got her a pretty M 55
going was a secret M 51
god was a kindly M 51
god that i neither M 46
god and i became M 46
god was a master M 44
going with a higher M 40
going for a twenty M 40
going for a stroll D 6204
got out a bottle D 3372
going for a picnic D 2193
goes for a stroll D 1128
got out a pencil D 1118
god and a sinful D 836
got him a pension D 686
going for a cruise D 608
going for a shower D 508
going for a coffee D 506
got him a lawyer D 410
god was a terror D 396
got for a shilling D 379
god had a bigger D 378
god has a bigger D 368
got him a bottle D 358
got him a ticket D 356
got out a packet D 330
going for a ramble D 306
god and a sinner D 306
god for a dinner D 302
got you a ticket D 298
got was a series D 286
goes for a brevet D 263
god and a virgin D 258
got her a ticket D 249
got her a bottle D 246
got out a pocket D 236
goes with a singular D 236
got hit a couple D 234
going for a sleigh D 231
god with a hammer D 224
got for a dollar D 216
got out a patent D 212
god for a speedy D 204
got out a leaflet D 198
going for a bottle D 198
god for a sinner D 198
going for a casual D 194
got for a million D 182
god with a solemn D 182
god for a breeze D 182
going for a canter D 178
god has a nobler D 178
going for a refill D 176
going for a million D 173
going with a series D 172
going with a basket D 172
got out a needle D 170
got you a bottle D 166
going for a dollar D 165
going for a gallop D 164
got out a series D 162
got but a dollar D 158
god with a golden D 156
god for a refuge D 156
god for a portion D 152
goes for a picnic D 151
goes with a plural D 150
got her a lawyer D 137
got out a shovel D 136
going for a career D 134
god for a pastor D 134
got out a carton D 132
got out a bundle D 130
god for a sinful D 130
got out a guitar D 128
god for a sermon D 125
got out a pistol D 124
god and a speedy D 124
got for a nickel D 122
goes for a snooze D 122
going for a flight D 120
god and a fuller D 120
got you a lawyer D 118
god for a firmer D 118
god has a bodily D 117
got out a tissue D 116
going for a paddle D 116
goes for a gallop D 116
god with a sinful D 116
god was a tribal D 114
god that i enjoin D 114
got was a polite D 112
got her a shilling D 112
got for a trifle D 112
gong with a hammer D 111
god and a dragon D 110
got out a basket D 108
going for a bigger D 104
goes for a cruise D 104
got was a bullet D 102
got off a volley D 102
god with a million D 102
goes that a farmer D 100
god was a cosmic D 100
got off a flight D 98
got her a tissue D 98
god with a series D 98
got was a bloody D 94
got out a hammer D 94
going with a brazen D 94
got him a tryout D 92
going and a kettle D 92
god for a million D 92
god has a million D 91
god with a sinner D 90
got was a volley D 88
got off a series D 88
going for a pistol D 88
gong with a mallet D 86
god with a shopping D 86
god hath a bodily D 86
got was a ticket D 84
got out a bucket D 84
god with a singular D 84
god was a rebuke D 84
got was a trifle D 82
got out a mirror D 82
got off a portion D 82
going with a convoy D 82
going for a surgeon D 82
going for a sailor D 82
goes with a crutch D 82
got out a canvas D 80
going off a bridge D 80
god and a martyr D 80
going near a police D 60
got out a silver D 49
god and a tender D 44
god was a virgin D 43
god and a warrior D 43
god has a tender D 40
