good for you . M 245618
good and bad . M 197165
gone too far . M 182742
good for him . M 128783
good for them . M 112168
gods and men . M 70128
good for her . M 64173
good and all . M 52024
good for you ! M 43935
good nor bad . M 35650
good old age . M 24438
good for you ? M 23844
gone too far ? M 21182
gone with him . M 18086
good and ill . M 14938
gone with them . M 13386
good for all . M 13275
good for man . M 11015
good you are . M 10846
good old man . M 10592
good for that . M 10420
good you are ! M 9572
good they are . M 9368
gone all day . M 8832
good are they ? M 8267
gone that way . M 7580
gone too long . M 7510
gone with her . M 7502
gone long ago . M 7018
good for him ! M 6704
gone that far . M 6542
good and bad ? M 6526
good with them . M 6360
gone too far ! M 6325
good one too . M 6218
good this year . M 5778
good that way . M 5626
good for this . M 5476
gone this far . M 5388
good way off . M 5330
good for them ? M 5020
gone with you . M 4794
good than bad . M 4624
good are you ? M 4614
good for her ! M 4500
good old way . M 4429
gods and kings . M 4428
good for them ! M 4344
good for him ? M 4122
good with him . M 3618
good old boy . M 3505
gods and men ! M 3322
good job too . M 3220
good for one . M 3182
good she was . M 3052
gone his way . M 3002
good old man ! M 2864
good for both . M 2864
good that day . M 2822
gone that long . M 2806
good with her . M 2794
good and mad . M 2446
gods and men ? M 2352
good for her ? M 2300
good was that ? M 2232
good idea too . M 2198
good for men . M 2176
gone for him . M 2160
gone this way . M 2158
good you can . M 2136
good for eating . M 2116
good and all ? M 2088
gods than one . M 2058
gone for that . M 1960
gone for long . M 1958
good and all ! M 1882
good for now . M 1762
good that did . M 1738
gone out with . M 1724
gods and man . M 1682
good new year . M 1672
good with you . M 1662
good way out . M 1602
gods are dead . M 1600
gone with him ? M 1566
good and dead . M 1563
good all day . M 1560
good things too . M 1504
good for man ? M 1396
good this way . M 1378
goal for you . M 1360
good deal too . M 1294
gods with them . M 1258
good man too . M 1250
good but god . M 1242
good one out . M 1216
good with that . M 1208
good that year . M 1194
goal for him . M 1186
goal for them . M 1160
good they did . M 1144
good they are ! M 1140
good and dry . M 1104
gone all out . M 1076
good and bad ! M 1014
good nor bad ? M 1000
gone and why . M 996
gone that far ? M 994
gone with him ! M 992
good job too ! M 982
gone for now . M 978
gone that day . M 954
good boy now . M 940
gone out yet . M 940
good this year ? M 938
gone for her . M 938
good for long . M 910
good nor ill . M 900
good job now . M 870
goal was near . M 870
goal for all . M 868
gone with you ? M 866
gone this long . M 864
gods nor men . M 862
gone with them ? M 856
gone her way . M 854
good they can . M 852
good that does . M 844
good and wet . M 832
good old man ? M 830
good and new . M 822
good all year . M 820
good things are . M 812
gone with her ? M 812
good idea why . M 792
gone for them . M 782
gone thus far . M 780
good day now . M 776
good you are ? M 768
gone its way . M 764
good deal now . M 756
goal was won . M 734
good one now . M 732
good with this . M 722
gone and all . M 718
good for use . M 716
good idea now . M 712
good for god . M 712
good long one . M 710
good long way . M 706
gods and you . M 690
good old boy ! M 686
gone with you ! M 684
good old age ? M 659
good day out . M 654
gods with god . M 654
gone one day . M 644
gone now too . M 636
gods than one ? M 632
good with you ? M 630
gone that long ? M 626
gone all day ? M 612
gone out too . M 600
good than ill . M 588
good for that ! M 587
good are one . M 584
goal was set . M 584
good old dog . M 566
good long cry . M 566
gods with him . M 556
goal for man . M 554
gone that way ? M 550
goal and end . M 550
gone for you . M 544
good and god . M 542
gone out yet ? M 542
good one day . M 536
gods than men . M 534
good and easy . M 532
gone out now . M 528
good red meat . M 518
good for now ? M 518
good big one . M 514
gone off yet . M 514
good for ill . M 508
good she was ! M 504
good men too . M 504
good that was . M 502
good they are ? M 490
good for all ? M 490
goal you set . M 472
gods for aid . M 470
good easy man ! M 468
gone are you ? M 468
goal for her . M 456
gone and dead . M 452
good but one . M 450
gods for him . M 450
goal for you ? M 446
good can not . M 444
good things going . M 442
good and long . M 442
good for that ? M 440
gods are not . M 430
gone this far ? M 428
good one too ! M 416
gods with men . M 413
good things now . M 412
good are few . M 412
good with god . M 402
good than this . M 402
gone with them ! M 394
good that was ! M 393
good his own . M 390
gone for long ? M 390
good men are . M 388
gone and why ? M 386
gods but one . M 384
good with that ? M 382
gone our way . M 380
good and real . M 378
gods for that . M 378
gods are they . M 378
good red heat . M 376
gone long ago ! M 372
gone but one . M 370
gone near him . M 358
good she did . M 354
good and dear . M 352
good one yet . M 350
good any way . M 350
good old earth . M 348
good long run . M 348
good men die . M 346
gone but two . M 346
gods for them . M 337
gods and god . M 336
good with men . M 332
good with bad . M 326
good man does . M 320
good for two . M 320
good old men . M 316
good use now . M 312
good than that . M 310
gone with her ! M 308
good for earth . M 306
good man now . M 304
gods are one . M 300
good you did . M 298
good for each . M 298
good day too . M 298
gods but him . M 298
goal each day . M 294
good for this ? M 292
good and why . M 290
gone out with ? M 288
good doing that . M 286
good with him ? M 280
good was she ? M 280
gods are men . M 280
good and ill ! M 278
gone that far ! M 274
good does not . M 266
good and ill ? M 266
good old dog ! M 264
good that did ! M 263
good with them ? M 262
good each day . M 262
goal this year . M 262
good she does . M 260
good bit now . M 260
good and had . M 258
good this day . M 256
gone near her . M 256
gone off with . M 254
good than not . M 252
good they may . M 250
good new year ! M 248
gone off too . M 248
good bye now . M 246
gone she was . M 246
good thus far . M 244
good man die . M 244
gone this way ? M 242
good than bad ? M 238
good but bad . M 238
gone off now . M 238
good boy too . M 236
good for men ? M 234
goal are one . M 234
good deal yet . M 232
gone one way . M 232
gone out for . M 230
good for war . M 228
good for bad . M 228
goal and aim . M 228
gods are dead ? M 226
good way too . M 224
good old law . M 224
good his vow . M 224
gone this day . M 224
good and mad ! M 222
gone near them . M 222
good with math . M 220
good big man . M 220
good team man . M 218
good eating too . M 218
good not bad . M 216
good and old . M 216
good and big . M 216
gone this year . M 216
gone out for ? M 216
gone too long ? M 214
good old song . M 212
good man was . M 210
good deal out . M 206
good old things . M 204
good red earth . M 202
good his way . M 200
good deal cut . M 200
goal with him . M 200
goal for each . M 190
good man too ! M 188
good idea then . M 188
good and joy . M 188
gone off him . M 188
good for then ? M 186
good new idea . M 184
good going out . M 182
good that does ! M 180
gods are dead ! M 180
gods they are . M 179
good new one . M 178
good all day ? M 178
gods and things . M 178
goal each year . M 178
good men bad . M 176
gods for you . M 176
good and red . M 174
gone off her . M 174
good than you . M 172
good long day . M 172
good law now . M 172
good for meat . M 172
gone for you ? M 172
gone all day ! M 172
gods that are . M 172
gods for that ! M 172
good but weak . M 170
gone this far ! M 168
gone how long ? M 168
goal than that . M 168
good with man . M 166
good his oath . M 166
good his aim . M 166
good head too . M 166
good one does . M 164
gone off them . M 164
gone far out . M 162
gods are real . M 162
goal with them . M 162
good any day . M 160
gone far off . M 160
good old age ! M 158
good men did . M 158
gone too low . M 158
gone too long ! M 158
good she can . M 154
good meal too . M 152
good bad poet . M 152
good and end . M 152
gone off with ? M 152
gods but god . M 152
goal that day . M 152
good and fit . M 150
gone that long ! M 150
gods and death . M 150
goal for now . M 150
good this year ! M 148
gone that way ! M 148
gods than now . M 148
good one then . M 146
good man did . M 146
gone for one . M 146
good than that ? M 144
good old way ? M 144
good deal going . M 144
gone all red . M 144
good each year . M 140
gods can not . M 140
goal and win . M 140
good old max . M 138
good and his . M 136
gone mad too ? M 136
gone far yet . M 136
good job then . M 134
good with ill . M 132
good new job . M 132
good men with . M 132
good man bad . M 132
good for who ? M 132
good and use . M 132
good with this ? M 130
good deal for . M 130
good can bear . M 130
good old one . M 128
good men all . M 128
good with one . M 126
good are not . M 126
good and sad . M 126
gone they are . M 126
good man yet . M 124
good his plea . M 124
gods are dying . M 124
good too long . M 122
good idea that . M 122
good deal then . M 122
good and being . M 122
gone with that . M 122
gods with men ! M 122
gods with her . M 122
gods for men . M 122
good nor bad ! M 120
good for ten . M 120
gone this way ! M 120
goal for men . M 120
good old song ? M 118
good idea who . M 118
good for then . M 118
good deal read . M 118
gone and going . M 118
gods that set . M 118
gods are dear . M 118
good was bad . M 116
gods than they . M 116
good they get . M 114
good boy too ? M 114
gone mad too . M 114
gods and kings ? M 114
goal than this . M 114
good god man ! M 113
good day off . M 112
good old way ! M 110
good old poet . M 110
good men now . M 110
good long read . M 110
good idea yet . M 110
good for one ? M 110
gods but men . M 110
good was this ? M 109
good with her ! M 108
good that way ? M 108
good old day . M 108
good god was . M 108
good and why ? M 108
good and dead ? M 108
good this was . M 106
good than god . M 106
good old god . M 106
good for eating ? M 106
good boy that . M 106
good bit yet . M 106
goal for both . M 106
good bad boy . M 104
gone out then . M 104
gone for fear . M 104
gods long ago . M 104
good way now . M 102
good pay too . M 102
good men dead . M 102
good how far ! M 102
gods die not . M 102
goal was one . M 102
goal that way . M 102
good year too . M 100
good man then . M 100
good long ago . M 100
good job now ? M 100
good with her ? M 98
good they bring . M 98
good one going . M 98
good for singing . M 98
good easy man . M 98
gone too now . M 98
goal was not . M 98
good with ill ? M 96
good this was ! M 96
good pay then . M 96
good god was ! M 96
good for god ? M 96
good and dear ! M 96
gods did not . M 96
good this way ? M 94
good than they . M 94
good song too . M 94
gone each day . M 94
gods for death . M 94
good men are ! M 92
good for all ! M 92
good day then . M 92
gone long ago ? M 92
gone and won . M 92
goal with you . M 92
good with both . M 90
good things out . M 90
good that way ! M 90
good that day ! M 90
good than his . M 90
good than eating . M 90
good she was ? M 90
good die not ! M 90
good boy now ? M 90
gone his way ? M 90
good one can . M 88
good old cry . M 88
good for this ! M 88
goal with ease . M 88
good man out . M 86
good eye out . M 86
good dog too . M 86
good and one . M 86
gone mad now . M 86
gone for this . M 86
good things end . M 84
good red day . M 84
good men die ? M 84
good are you ! M 84
gone off now ! M 84
good you see . M 82
good you get . M 82
good with death . M 82
good that vow . M 82
good idea too ! M 82
good are they . M 82
good you can ? M 80
good long poem . M 80
good kid too . M 80
good for both ? M 80
gone that year . M 80
