gotten out of the M 69571
gotten rid of the M 19070
gospel and of the M 11946
gospel was to be M 9163
gospel and in the M 8108
gotten out of it M 7584
gotten rid of by M 6362
gospel and to the M 4618
gotten off on the M 4366
gotten rid of it M 4200
gospel are to be M 2780
gotten rid of in M 2729
gotten rid of as M 2350
govern them in the M 2190
gotten out of my M 2162
gotten one of the M 2162
gotten out by the M 2068
gospel had to be M 2021
gotten all of the M 1986
gospel has to be M 1688
gospel out of the M 1677
gospel that it is M 1564
govern them by the M 1472
gospel than in the M 1466
gotten rid of my M 1406
gotten off at the M 1310
gospel and by the M 1268
gotten rid of me M 1258
gotten off to an M 1246
gotten out in the M 1212
govern all of the M 1182
gotten rid of at M 1175
gospel has to do M 1171
gotten out to the M 1106
gotten out on the M 1050
govern and to be M 982
gospel and at the M 952
govern one of the M 948
gotten him to the M 910
gospel and to be M 853
gospel was in the M 806
gospel and on the M 776
gotten her to the M 758
gotten rid of so M 737
gotten hung up on M 731
govern may be the M 724
govern each of the M 686
govern men in the M 664
gospel that is the M 610
govern that of the M 600
govern him in the M 596
gospel and it is M 567
gospel that is in M 542
govern use of the M 540
gospel that is to M 540
gotten any of the M 532
gotten out at the M 526
gospel goes on to M 520
gotten him on the M 508
gotten off of the M 502
gotten him in the M 484
gotten out of an M 480
govern them as he M 456
gotten mad at me M 443
gotten them to the M 440
gotten rid of or M 434
gotten all of it M 428
gospel that he is M 426
gospel was to the M 419
gospel than of the M 416
gotten off to the M 414
gospel one of the M 405
gospel not to be M 395
gotten wet in the M 390
goodly sum in the M 388
gotten them in the M 376
gospel than to the M 364
gotten hung up in M 354
gospel are in the M 348
gospel out to the M 347
gotten all of us M 342
gotten rid of an M 339
gotten out of me M 334
gospel both in the M 331
gotten him to do M 330
gotten them on the M 316
gotten use to the M 306
gospel read in the M 301
gospel than by the M 300
gospel but in the M 296
gotten her on the M 292
gotten him to go M 284
govern and of the M 280
gotten rid of if M 280
gospel may be the M 277
gospel that in the M 275
gotten rid of us M 270
goodly sum to the M 270
govern any of the M 268
gotten her in the M 266
govern you in the M 262
gotten both of us M 262
gospel but of the M 260
govern men as the M 258
gotten rid of to M 255
gospel was at the M 251
gospel not in the M 251
govern them in it M 242
gospel both to the M 241
govern them as the M 238
govern all of us M 236
gospel but to the M 236
gospel and to do M 236
gotten rid of on M 224
gospel and is the M 223
gotten you to the M 222
gospel was by no M 216
gotten her to do M 214
gospel song of the M 211
govern them as we M 204
govern her in the M 202
gospel but it is M 202
govern them on the M 200
gospel goes to the M 199
govern men by the M 198
govern but to be M 194
gospel and as the M 193
govern and in the M 190
gotten mad at the M 190
gotten use to it M 187
gotten him up to M 184
gotten rid of is M 183
govern how it is M 182
gospel was to go M 182
gotten two of the M 180
gotten any of it M 180
gospel than it is M 177
govern them to the M 176
gospel led to the M 175
gotten off by the M 174
govern and to do M 172
gotten off in the M 170
gotten all of my M 168
govern man in the M 162
gotten you in the M 160
gotten them to do M 160
gotten one of my M 160
gotten far in the M 158
gospel read at the M 156
gospel use of the M 153
govern and to the M 150
govern them is to M 148
gotten any of my M 146
goodly sum to be M 146
govern than it is M 144
gospel nor in the M 144
gospel has in it M 138
govern them at the M 134
gospel was on the M 132
gotten you to do M 130
gotten for me in M 130
gospel song in the M 130
govern them or to M 128
govern and at the M 128
goblet out of the M 128
govern them as if M 126
gotten them at the M 126
gotten her to go M 124
gospel idea of the M 122
gospel can by no M 122
gotten her to eat M 120
gotten near to the M 118
govern that is the M 114
govern ill is an M 114
gospel but is the M 114
govern them so as M 112
gospel but by the M 112
gospel and so be M 110
gospel are by no M 108
govern and be the M 104
govern them as to M 102
govern her as if M 102
gotten out of us M 102
gotten out of as M 102
gospel but on the M 102
gospel that is no M 101
gospel singing of the M 101
govern nor to be M 98
govern him as he M 98
gotten them up to M 98
gospel are of the M 98
govern them by an M 96
govern for the king M 96
gospel may be so M 96
govern than to be M 94
gospel and in no M 94
goodly sum if he M 94
govern and it is M 92
gotten any of us M 92
gotten that in the M 90
gospel was by the M 90
gospel may be in M 90
gospel had in the M 90
gospel and as an M 90
gotten one in the M 89
govern them in an M 88
gotten you on the M 88
govern all by the M 86
gotten out of so M 86
gotten one up on M 86
gospel for it is M 86
gotten them to be M 84
gotten are in the M 84
gospel this is the M 84
gospel can do so M 84
gotten red in the M 82
gotten off on it M 82
goodly bit of the M 82
gospel singing in the M 79
gospel may be as M 46
golden age of the D 146518
golden age in the D 32160
golden era of the D 9449
gouged out of the D 7968
golden age to the D 4097
golden key to the D 3879
gouged out by the D 3026
golden hue of the D 2502
golden boy of the D 2451
golden age at the D 2451
golden age is the D 2135
golden cup in the D 2070
golden era in the D 2010
golden head of the D 1826
gorges dam on the D 1691
golden age or the D 1640
goaded him on to D 1530
golden age to be D 1508
golden key of the D 1267
golden age as the D 1259
golden mean of the D 1246
golden lion at the D 1218
golden age is in D 1163
golden age by the D 1082
golden mean is the D 1066
godhead and of the D 1059
golden mean in the D 1004
golden age is to D 999
golden age on the D 930
golden sun of the D 812
goaded them on to D 806
golden key in the D 764
golden age to an D 756
golden orb of the D 752
golden bear at the D 723
gorges cut by the D 701
golden rim of the D 670
gouged out in the D 669
golden sun in the D 646
golden egg of the D 629
goaded him to the D 628
golden day of the D 615
golden wings of the D 614
golden cup of the D 612
gossip was to be D 590
gorges and on the D 578
golden hue to the D 572
golden cup to the D 512
golden age of my D 506
golden lion in the D 502
gorges cut in the D 471
golden eye of the D 466
golden sky in the D 464
golden seal of the D 464
gonads and of the D 460
golden age or of D 429
gossip out of the D 428
golden day in the D 414
gossip and in the D 410
golden age of an D 408
golden mean as the D 404
gossip had to be D 398
gotten hit in the D 396
golden head in the D 394
golden air of the D 392
golden age it is D 392
golden age is an D 385
golden ray of the D 384
golden egg in the D 380
golden tinge to the D 374
golden age of king D 373
gossip going on in D 370
golden head to the D 370
gonads lie in the D 368
golden age as an D 361
golden lid of the D 352
golden sun on the D 346
golden boy in the D 344
gouged him in the D 342
gossip and so on D 342
gonads are in the D 342
golden hue in the D 342
gobble you up in D 336
golden head of an D 332
gouged out of it D 328
golden age is at D 326
golden lion of the D 324
golden head on the D 324
golden mean is to D 320
golden hue on the D 316
godhead and in the D 316
golden path of the D 312
goaded her on to D 312
gonads and in the D 308
golden red in the D 308
godhead who is the D 305
golden age as it D 300
golden net of the D 292
gouged out at the D 290
golden gem of the D 283
golden rings on the D 276
golden mean or the D 274
gouges out of the D 272
gouged out on the D 268
golden age is no D 266
golden sun as he D 264
golden one of the D 263
golden heat of the D 262
golden bit of the D 262
golden beak to the D 262
gossip that he is D 258
golden one in the D 250
golden age or to D 246
golden bow of the D 240
golden path on the D 238
godhead was to be D 234
golden age or an D 233
golden lion on the D 230
gobble them up at D 224
goaded them to the D 222
golden wings in me D 220
golden tinge of the D 220
gobble them up in D 216
golden ass is the D 214
golden now in the D 210
gobble them up as D 208
golden mean to be D 204
golden cup on the D 202
golden tinge on the D 194
golden red of the D 194
golden path to the D 194
gouged out by an D 192
golden top of the D 192
golden mean is so D 192
golden age in an D 189
golden cup at the D 186
golden sky of the D 180
golden boy at the D 180
golden age or in D 178
gorges and in the D 174
golden pot at the D 172
goaded them to an D 170
golden tip of the D 168
gossip and to the D 164
golden hue as the D 162
golden orb in the D 160
golden seat of the D 158
golden head at the D 158
golden cup of an D 158
golden bed in the D 158
godhead are to be D 158
gotten hit by the D 156
golden cap to no D 156
golden wings in the D 154
golden ears of the D 154
golden box in the D 154
golden beam of the D 154
golden age be the D 154
godhead and to the D 153
gorges had to be D 152
gorges dam in the D 152
golden tinge in the D 152
golden key on the D 152
golden rings of the D 150
gossip than in the D 146
golden ark of the D 146
golden man in the D 144
golden beam of an D 144
golden out of the D 142
golden lion in an D 142
golden key is the D 142
golden car to be D 142
golden rod in the D 140
golden end of the D 140
golden ass of the D 140
golden ass in the D 140
golden pin in the D 138
gossip that is the D 136
golden out of it D 136
golden myth of the D 136
gossip that it is D 134
golden wings to the D 134
golden than in the D 134
golden oak of the D 134
golden lion to the D 134
gobble him up in D 134
gorges and up the D 132
golden year in the D 132
golden mean is an D 132
golden cup to be D 132
gossip may be the D 130
golden head as he D 130
golden god of the D 130
goblet and the sea D 129
gotten hit on the D 128
gossip and of the D 128
golden leaf of the D 128
gobble her up in D 128
govern thee in thy D 126
golden rings in the D 126
goblin was to be D 126
gossip goes on in D 124
golden pen on the D 124
gossip got to the D 122
gorges dam is the D 120
golden age as in D 120
gouged out to the D 118
gorges area of the D 118
golden seal on the D 118
gossip was in the D 116
gossip that the king D 116
golden egg is the D 116
golden swing in the D 114
golden hue by the D 114
golden arc of the D 114
golden rings at the D 112
golden peak of the D 112
goalie has to be D 112
goaded him on in D 112
gossip and it is D 110
gorges was to be D 110
golden year of the D 110
golden mean to the D 110
golden age to me D 110
golden seat in the D 108
golden one to the D 108
golden key at the D 108
golden eye in the D 108
godhead that is the D 108
golden leaf in the D 106
golden egg to the D 106
goiter may be the D 106
gobble you up if D 105
golden ass by the D 104
gotten out to sea D 103
goaded him to do D 102
gouged out of an D 100
goosed him in the D 100
gonads and to the D 100
golden urn in the D 100
goaded her to the D 100
golden age of sea D 99
golden pot of the D 98
golden egg at the D 98
godhead hid in the D 98
goalie out of the D 98
gossip has to do D 96
gossip and to be D 96
golden wings on the D 96
golden one to us D 96
golden bed of the D 96
godhead has to be D 96
goaded him to an D 96
gossip that is so D 94
gorges are to be D 94
golden era at the D 94
golden boy on the D 94
goaded him to go D 94
goaded him as he D 94
gorges and at the D 92
golden tan of the D 92
golden song of the D 92
golden mean is at D 92
golden ass is an D 91
gouged out of my D 90
golden tinge in it D 88
golden seal in the D 88
golden arm of the D 88
gossip and on the D 86
gossip and by the D 86
golden song is the D 86
golden son of the D 86
golden rod of the D 86
golden one by the D 86
golden mean by the D 86
golden lion or the D 86
gobble them up if D 86
golden fur of the D 84
gonads and on the D 82
golden ray to the D 82
golden day on the D 82
godhead but to the D 82
goaded him in the D 82
golfer has to be D 81
golden head as if D 80
gobbling them up as D 52
golden boy to the D 50
gobble you up as D 49
gossip with me as D 46
golden age is so D 42
