waiting to see if M 80337
wants to see the M 67328
waiting to see the M 57905
wants to see me M 48274
water so that the M 46506
wants to use the M 41786
waiting to hear the M 38723
water is one of M 37742
water so that it M 25252
wants to get the M 25180
wanting to see the M 22920
warns us not to M 22708
wants to get to M 22132
watch to see if M 19999
water as far as M 19882
waiting to see me M 17835
wants to use it M 16616
water as long as M 15242
wants to see it M 14780
wants to set up M 14352
water on top of M 13758
walls of one of M 13226
water to bring the M 12929
wants to buy the M 12909
water to one of M 12742
wants to get on M 12703
water is not the M 12418
water is due to M 12396
wants to get in M 12034
wants to hear the M 11717
warns us that the M 11380
wants us all to M 10638
wants to see if M 10157
walls of all the M 9934
watch the sun go M 9807
warns us that we M 9760
wanting to use the M 9592
water is not so M 9408
wants to say to M 9375
wanting to get to M 9360
water in all the M 9305
wants to see us M 9128
wants to buy it M 8878
wants to try to M 8819
wants to put the M 8755
waiting to get in M 8658
warning me not to M 8332
water in one of M 8251
walls so that the M 8224
wants to hear it M 8206
waiting to use the M 8192
wanting to get the M 8148
waiting up for me M 7516
wants to read the M 7358
water to see if M 7285
wants to get it M 7272
wants to get up M 7251
wanting in all the M 6976
wanting to hear the M 6902
wanting to see me M 6892
watch the end of M 6887
warning to all the M 6867
wanting to let go M 6780
waiting to get on M 6630
warning us not to M 6448
wants to see in M 6380
wants to bring the M 6124
walking in all the M 6105
wants to win the M 6102
wants to end the M 6073
waiting as long as M 6071
wants to say is M 6007
waiting so long to M 5950
wanting to get in M 5944
water is not to M 5916
water in each of M 5812
water is not an M 5778
warming up for the M 5773
waiting to get the M 5728
wants to get at M 5671
water to get the M 5653
waiting to hear if M 5644
wanting to get on M 5570
wants to run the M 5533
water to that of M 5315
wants to put on M 5132
wants to put it M 5091
water to all the M 5038
water is that it M 5028
water is apt to M 5026
wants to read it M 4840
wants to put in M 4816
water is going to M 4740
water by way of M 4692
water it may be M 4606
water is not as M 4565
waits to see if M 4475
water as may be M 4414
wants of all the M 4386
water so that he M 4358
walking on top of M 4353
wanting to get up M 4322
wants to get an M 4280
wanting to set up M 4240
wanting to see it M 4234
walking is one of M 4205
wanting to get it M 4176
water of all the M 4173
water on earth is M 4080
wants to sit in M 4079
walking the path of M 4050
wants to try it M 4048
water so long as M 4032
wants to pay the M 4030
water as one of M 4026
wants to say it M 3973
water is put in M 3969
water is not in M 3954
wants me out of M 3906
wants to put up M 3823
water to bring it M 3821
waiting to see us M 3809
warning of things to M 3798
wants to say in M 3772
wants to set the M 3748
warns us that it M 3694
wants to buy or M 3679
wants to see an M 3672
warns me not to M 3656
walking as far as M 3635
wanting to end the M 3622
wanting in any of M 3620
walls of both the M 3616
water is that of M 3598
water to wet the M 3590
wants to see is M 3579
wants to get me M 3565
water in them is M 3478
wanting to put the M 3472
warning to all of M 3464
watch the two of M 3450
waiting to get to M 3449
wants to get as M 3430
water to get to M 3429
wants to sit on M 3423
warning us that the M 3408
waiting to hear it M 3385
wants to add to M 3362
water to see the M 3353
watch the way the M 3351
wants to put an M 3297
watch to see the M 3261
water is that the M 3256
wants to lead the M 3254
water is near the M 3202
waiting to put on M 3157
water to try to M 3150
watch on all the M 3142
water is let in M 3138
water in any of M 3130
waiting in one of M 3086
wants as long as M 3075
warning us that we M 3062
walking in one of M 3049
wanting to see if M 3042
wants to see my M 3036
water is low in M 3032
waiting to hear of M 3022
water it can be M 3007
wants to use an M 2995
water to act as M 2978
waiting to see it M 2950
wants to bring in M 2945
waiting on you to M 2922
wants to use us M 2910
wants to hear is M 2823
wants to bring to M 2821
water of one of M 2816
wanting to buy the M 2806
wants to buy an M 2780
wants to put me M 2770
wants to ask me M 2764
walls as far as M 2763
water as can be M 2758
waste as far as M 2748
wants to let the M 2740
water to each of M 2734
water is for the M 2728
watch it all the M 2694
wants to end up M 2680
wants to cut the M 2666
wanting to add to M 2630
wants to ask the M 2627
wanting to say to M 2622
wants to hang on M 2608
warning to him to M 2568
water or air or M 2566
water to add to M 2549
watch the way in M 2541
water is not at M 2528
wanting to bring the M 2504
water so that we M 2454
wants to die in M 2442
water in both the M 2406
waiting on him to M 2398
wants to use to M 2392
wanting to use it M 2372
wanting to hear it M 2348
water is put on M 2338
water on one of M 2326
wanting to let the M 2306
walking on and on M 2301
water or with the M 2288
water or air is M 2286
wants to use me M 2282
waits to see the M 2252
watch the way he M 2251
water is not of M 2250
waiting to hear my M 2189
watch it with me M 2178
water is led to M 2170
wants to act in M 2168
wants to use in M 2154
wants to bring us M 2138
waiting to see my M 2134
wants to say or M 2122
wants to try the M 2117
wants to lead us M 2116
water in all of M 2110
wants no one to M 2082
waste is one of M 2073
water to use in M 2067
wants to bring it M 2030
water on for tea M 2002
walking in off the M 2002
watch the men at M 1998
waits to hear the M 1996
wants to get us M 1984
wants of man in M 1976
waste of all the M 1975
wants to buy my M 1975
waiting on him in M 1968
wants is for the M 1965
water we had to M 1950
wanting to get at M 1937
water to run in M 1930
water by use of M 1930
wanting to say it M 1928
water is run in M 1912
water is out of M 1900
water if you do M 1895
wants to buy me M 1892
wanting in one of M 1876
water as they do M 1861
waiting on god to M 1860
water by using the M 1858
water by one of M 1858
wakes up with the M 1856
wanting to put it M 1846
watch in awe as M 1832
wants to own the M 1825
waiting on you at M 1804
wants to act as M 1787
waiting on you in M 1778
wants to add the M 1777
wants to bring up M 1774
wants as far as M 1774
wants to see or M 1773
water to aid in M 1772
watch it with the M 1767
waiting to use it M 1764
water to get it M 1760
watch me all the M 1756
wanting in that of M 1756
water or air to M 1752
warning to them to M 1752
wants to cling to M 1746
wants to say the M 1743
wants to beat the M 1742
waiting to get my M 1733
warns us that he M 1732
water at one of M 1719
wants so long as M 1682
wants to hear or M 1673
wanting to read the M 1660
wanting to see my M 1654
warms the air in M 1650
water so that no M 1643
warns us that in M 1620
wanting to say the M 1614
water or out of M 1610
warns us that if M 1610
waiting to hear me M 1598
water or air in M 1594
wants to hear me M 1592
water on all the M 1572
water at all in M 1572
wants is for us M 1569
waiting on him at M 1566
wants to use as M 1558
wanting to fit in M 1555
wants an end to M 1542
water to run to M 1538
wants is that the M 1530
waiting up for us M 1530
warning me that the M 1508
walls of each of M 1506
walls so that it M 1504
wanting to get as M 1501
wants is not to M 1496
wanting to put an M 1492
watch the death of M 1490
wants to pay me M 1487
wants to fit in M 1483
wanting to pay the M 1478
walking on one of M 1478
water to run the M 1477
wants is not the M 1470
warms up and the M 1468
wants the boy to M 1466
wants the man to M 1464
water so far as M 1458
wants us out of M 1448
wants to let go M 1439
wants is for me M 1433
waste of heat in M 1411
wants it for the M 1410
wanting to run the M 1406
wanting to buy it M 1404
water to set the M 1402
waste is due to M 1402
warming up with the M 1396
water or weak tea M 1392
waiting at one of M 1390
water to put it M 1389
walls is due to M 1384
walls to see if M 1382
wants to see as M 1379
watch as long as M 1376
walls is one of M 1374
water is put to M 1372
wants to buy at M 1371
water he saw the M 1370
water as low as M 1360
wants to end it M 1357
walks in off the M 1350
wants us not to M 1338
warning is that the M 1336
wants of men in M 1334
warning to you to M 1330
water is then to M 1328
walking the way of M 1328
walking the earth in M 1324
water to ease the M 1316
waiting on god in M 1316
watch so that the M 1312
wants of man as M 1312
wants to read or M 1302
walks the path of M 1302
wants the use of M 1298
wants to hear of M 1292
waiting so long in M 1292
water to mix the M 1283
water to heat up M 1276
waiting on one of M 1266
wakes up and is M 1261
wants to fix the M 1260
water on them to M 1250
wanting to win the M 1244
water or for the M 1242
waiting on god is M 1240
waiting to get it M 1237
water up out of M 1235
wanting to get my M 1224
water to put in M 1219
wants to hear my M 1214
wanting to try to M 1210
wanting to set the M 1208
water in that it M 1199
water as that of M 1196
warns me that the M 1188
waiting to read the M 1188
waiting to get at M 1182
water the use of M 1178
water is set in M 1177
wants to sit up M 1168
walls to see the M 1166
wants to act on M 1165
waiting to buy the M 1164
wants to sit at M 1163
warning is not to M 1158
wanting to ask the M 1154
warns me that it M 1150
water is easy to M 1148
walls of one or M 1146
water in one or M 1140
wanting to bring it M 1138
watch on top of M 1136
water to run up M 1134
walking to one of M 1126
wanting to read it M 1120
wanting to try it M 1114
water is let on M 1108
wanting in any thing M 1108
wants to put us M 1107
walls in all the M 1106
water as out of M 1098
watch to get the M 1097
wants to say he M 1094
water or one of M 1086
walls of any of M 1086
wants to die at M 1083
wants to and is M 1082
water to all of M 1078
water or near the M 1078
water is all the M 1076
warming the air in M 1072
walls on top of M 1070
walks the earth in M 1057
wants to cut it M 1046
wants the two of M 1042
walls as long as M 1041
waste so that it M 1039
wanting to him in M 1038
walking the dog or M 1038
water he had to M 1033
wants to fly to M 1032
waiting to die in M 1030
walking on air as M 1024
warming up and the M 1020
wants to hear in M 1019
wakes up and the M 1017
water to that in M 1014
wanting to hang on M 1014
wanting to ask me M 1000
watch the sun as M 998
wants us both to M 998
wanting to get an M 996
water to heat the M 992
watch the use of M 992
wants to run to M 992
wanting to sit on M 991
water it with the M 984
wanting to cling to M 982
waiting to see in M 982
warning me that my M 980
wanting in all of M 978
water or any of M 975
warning me that if M 965
wanting to sit in M 963
walls in one of M 962
water to use as M 960
walking up one of M 960
watch so that he M 958
watch is that the M 958
waiting to get me M 956
water as did the M 954
wants of them is M 954
water to put the M 953
water in them to M 952
water or may be M 950
water to lay the M 949
warning to her to M 949
wants to beat me M 949
wanting to put on M 949
waiting to put the M 948
water is and the M 946
waste so that the M 944
water or air as M 943
warning of one of M 942
warming is due to M 935
wanting in one or M 934
watch me and do M 931
water to bring to M 930
waiting to pay the M 930
wants to see at M 929
water to bring up M 926
water as big as M 924
wants me not to M 924
wants to let me M 908
waste is not the M 907
watch it for the M 906
warning so that the M 906
wants to run it M 900
watch the top of M 894
waits as long as M 887
warning me that it M 886
wants to say no M 885
walls of two of M 882
water on each of M 880
wants to read in M 876
wants to run an M 875
wants to add an M 874
water on him to M 872
water or with an M 870
water to put on M 869
watch us all the M 868
wants to heal the M 868
water is set at M 866
water as you go M 865
watch as one of M 864
wanting to let it M 864
wanting to end it M 864
waiting on her to M 862
water is led by M 860
wanting to put my M 860
waiting to get an M 858
watch the man in M 855
water to two of M 854
water as does the M 854
water as not to M 853
walking is not the M 852
wants it all to M 848
waiting to see an M 846
waiting the end of M 846
water as all the M 844
walking to get to M 843
water in top of M 838
wants to buy in M 835
wanting to fix the M 832
wants to let it M 831
wants to earn the M 828
waked up out of M 828
water at each of M 825
water to air is M 821
water as you do M 820
wants to see on M 820
wants the war to M 820
watch the path of M 819
warning us that it M 814
wanting to bring up M 812
water to get in M 808
water in them at M 806
wants to pay as M 805
wanting to act as M 805
waiting to ask the M 805
water to them in M 800
watch so that it M 800
wants to buy is M 800
wanting to them in M 796
walls of earth or M 796
wants it and is M 792
wanting to put as M 792
wanting to lie to M 790
water to mix to M 788
watch it and to M 786
waked me out of M 786
waiting to get up M 786
walking as long as M 785
waste the day in M 784
water on both the M 780
watch in one of M 780
wants to bring me M 779
wants to use my M 778
water to get at M 775
warning if you do M 773
watch the men in M 771
wants to bear the M 768
wanting to you in M 768
wanting to buy or M 764
waste of one of M 762
wants the law to M 760
wanting an end to M 756
watch the run of M 754
warning to all to M 754
watch in all the M 748
walls so that he M 748
walls to act as M 747
wanting to lead the M 746
water to let the M 745
water of any of M 744
wakes up out of M 742
waiting to let the M 741
walks as far as M 738
wants to fix it M 734
wanting to cut the M 734
water to one or M 730
wants is not so M 728
waiting on her in M 728
wants to lie in M 727
walks in with the M 727
walls by way of M 726
wanting to put in M 724
wants to bet on M 723
walls to let in M 722
wakes up all the M 722
wants to win at M 717
water so that in M 715
warning me that he M 714
wanting to see or M 714
wanting to run to M 714
waiting to ask me M 714
wants the team to M 712
wants to heal us M 710
wanting to win is M 710
wants to reap the M 706
wanting to ease the M 706
waiting to lead the M 706
waste it all on M 704
wants to rid the M 704
water to wet it M 702
warmth of all the M 702
wants to put to M 700
wanting to try the M 700
waiting on top of M 698
waste is going on M 696
wanting to let on M 696
wants to lay the M 695
wants to own it M 691
water in air at M 690
wants is that we M 688
wants to hear an M 686
walking the path to M 686
watch it with us M 684
wanting to put up M 682
waiting to bring the M 680
waiting is one of M 678
water to run on M 676
water at all is M 674
wanting to see us M 672
water at all the M 670
wants to set us M 670
wants to pay it M 670
walls is that of M 670
water is fit to M 668
warning of all the M 667
water or that of M 666
water as for the M 666
water to aid the M 665
wants to get my M 665
wanting to all the M 664
water by aid of M 662
warning us that if M 662
walls of all of M 662
water to any of M 660
waste of heat by M 659
wants to run in M 658
walking the dog in M 656
watch is one of M 654
wants so far as M 654
waiting to hear an M 650
warmth is one of M 647
wanting to get me M 646
walls so that no M 646
water is now the M 644
wants it all the M 644
watch on one of M 641
wants to lie on M 640
water is set up M 637
water to both the M 636
water to heat it M 633
water so that if M 633
water in two or M 633
wanting to beat the M 632
wants to deal in M 631
wants to let us M 630
wanting the man to M 630
water as they go M 626
wants to say on M 625
watch the men as M 624
waiting up for the M 622
water or that the M 620
water is one thing M 620
water on any of M 618
wants to get by M 618
wants the aid of M 618
wanting to ask if M 616
water if this is M 615
wants to read an M 615
wants to can go M 615
wanting to let me M 614
watch it for me M 612
walking in with the M 612
warning us that he M 610
wanting to end up M 610
walks on and on M 608
water is run on M 606
watch on all of M 604
wanting to say so M 601
water to cut the M 600
wants to read to M 600
wants to ask if M 600
wanting to see an M 600
wanting to act on M 600
waiting to act as M 600
wants to buy up M 596
wants to say as M 594
walking is that it M 592
water as near the M 590
waste so far as M 590
warning to both the M 589
wants to earn an M 589
wants to see to M 588
walking to see the M 587
wanting in him to M 586
walls to get to M 586
wanting to bring in M 584
wants to use or M 583
wants to bring an M 581
water is now in M 580
wants to log in M 579
water or earth or M 577
water so near the M 576
warning to one of M 576
wanting to die in M 576
wants the real thing M 574
wants to win in M 571
water or air at M 570
water is led in M 570
water on for the M 568
waiting to get us M 568
water it has to M 566
wants of man is M 566
waits to see it M 566
waiting on them at M 566
waiting to put it M 565
wants the death of M 564
wants it and the M 564
wanting to put me M 564
warning to any of M 562
wants to say so M 561
watch the sun in M 560
warns us that to M 560
water is now to M 558
walls is that the M 558
waiting to read it M 558
waiting on them to M 558
wants to lead an M 555
watch of one of M 552
wakes up with an M 552
water in air is M 550
wants to pay to M 549
water in with the M 545
water so they do M 544
wanting to any of M 544
wants to say by M 540
wants to hear no M 540
waiting to bear the M 538
water to act on M 536
water is low the M 536
wants the men to M 536
water to dry up M 534
water of both the M 534
water is thus the M 534
wants is one of M 534
water by one or M 532
waive the use of M 532
wants to set an M 531
wants to win an M 530
wanting in both the M 530
water is both the M 528
warming the air of M 528
water as are the M 526
walks the way of M 526
wants to sit by M 525
water to bar the M 524
water or use of M 524
water is owing to M 524
wants to buy us M 523
water as being the M 522
warming is one of M 521
water as any of M 520
water is that in M 518
watch the way it M 518
wanting to say no M 518
walks on top of M 518
waiting the day of M 518
waiting so long at M 518
wants to hear us M 515
watch so that no M 514
walks to see the M 514
water on them in M 512
watch the men of M 512
wanting to act in M 512
watch at all the M 510
wants to set me M 510
wants by way of M 510
walking the earth as M 510
walking is out of M 510
watch if you do M 508
wants the job of M 508
walls it may be M 508
wants to hear at M 507
water to rid it M 504
waste as long as M 504
watch it all go M 503
wants to set it M 501
waste is not an M 500
walks in all the M 500
walls of two or M 498
watch it all on M 497
water or use the M 496
watch is out of M 496
waiting to lead us M 496
warns us that no M 495
water or due to M 494
waiting to set up M 493
waiting to fly to M 492
walks the earth as M 491
water the air is M 490
waste if you do M 490
walking the dog on M 490
wants to buy as M 489
warming up for an M 488
wants to say hi M 487
water at end of M 486
wants the dog to M 486
wants to try on M 485
waste of heat is M 484
warns me that if M 482
warning the men to M 482
water at and the M 481
watch is set to M 480
waste is not so M 480
wants to pay us M 479
wanting to hang up M 479
waste of men or M 478
wants to act the M 478
waiting to bring up M 475
watch the sky as M 474
walking on with the M 474
wants to and the M 473
walls is not the M 472
warning to men of M 471
watch to see it M 470
warning it not to M 470
water is then the M 468
water in both is M 468
wanting me out of M 468
waiting to cut the M 468
water to set up M 467
wants to ask is M 467
walls to get the M 466
walls so that we M 466
wants to bid on M 465
water of each of M 464
water it with my M 464
wants to try me M 464
wants to see no M 463
wanting it all to M 462
wakes up and he M 462
waiting to try to M 462
waiting on her at M 462
water at all to M 461
watch the eye of M 461
water on and in M 460
water is going on M 458
warning so that he M 458
waste is that of M 456
wanting in men of M 456
walking up out of M 456
water in that the M 455
wants of each of M 454
walls to try to M 454
waits up for me M 454
waiting is not the M 454
water in both of M 452
walls to get at M 452
watch the way of M 450
warming is not the M 449
wants to die to M 448
water to mix it M 446
water so that at M 446
waste is that it M 446
warming it with the M 446
walking is not so M 446
water as far up M 445
waste of any of M 445
watch me out of M 444
warning of how the M 444
wanting to cut it M 444
watch to one of M 443
watch on him to M 442
warns me that he M 442
warmth to all the M 442
wants so that he M 442
water be put on M 441
warning to them of M 440
waiting to die of M 440
warning is that it M 438
warning is all the M 438
wants to ask us M 438
wants to fly in M 437
water to let it M 436
water so you do M 436
watch is not the M 436
wants me for the M 436
wanting to hear or M 436
waste of war is M 435
water to heat on M 434
water it has the M 434
wants to win as M 434
wants to read my M 434
wants of both the M 433
water as near as M 432
warns me that my M 432
water is both an M 430
water at any of M 430
waiting to see to M 430
waiting to bring in M 429
water to get up M 428
wants to use is M 428
walks in and the M 428
water or can be M 427
wants to win it M 426
wanting to use my M 426
walls on both the M 426
wakes it now to M 426
waked up all the M 426
water at all on M 425
waste it all in M 424
wanting to buy my M 424
warning to him of M 423
walking is not an M 422
wanting the aid of M 420
walls to let the M 420
wants to beat up M 418
wanting the boy to M 418
wants to pay in M 416
waste of them in M 414
wants to lay on M 413
water on all of M 412
warming is going to M 412
wanting to hear of M 412
wanting to die or M 412
walls is not so M 412
wanting to buy an M 410
waiting to hear no M 410
watch as far as M 408
wanting as far as M 408
water to see it M 406
wants to run up M 406
waiting on you on M 406
wants is not an M 405
water or air of M 404
water is now so M 404
water be put in M 404
waste to all the M 404
waiting to let me M 404
warning to him in M 403
watch on both the M 402
wants to die or M 402
wants the son to M 402
wants it and he M 402
warning is that if M 401
wants to fix up M 401
walks in with an M 401
water or near it M 400
watch on how the M 398
wanting to bring on M 398
wants of you is M 397
water to cling to M 396
water in two of M 394
water by any of M 394
watch is set at M 394
warning by one of M 394
wants to add or M 394
wanting to him on M 394
waiting to bring us M 393
wants to die on M 392
wants of all of M 391
wanting to see in M 391
water to near the M 390
water is low or M 390
water by using an M 390
warning the dog to M 390
waiting by one of M 390
water on going to M 388
water is run to M 388
wants to and he M 388
wants me all to M 388
wakes up for the M 388
waiting it out in M 388
wants to can be M 386
wants to get or M 385
warmth of one of M 384
wants to log on M 384
wanting to that of M 384
waiting is not an M 384
wants to ask of M 383
water as was the M 382
water as that in M 382
watch the dying of M 382
warming to see the M 382
wants me and my M 382
wanting to hear my M 382
wants to read is M 381
waiting to see or M 381
water he has to M 379
watch or read the M 377
water on him in M 376
water is low it M 376
water in and the M 376
water if they do M 376
water as with the M 376
watch is not in M 376
waiting on them in M 376
waiting in all the M 376
water we use is M 374
watch the rear of M 374
wanting as long as M 374
water we use in M 372
waste in all the M 370
wants to die as M 370
wants to and if M 370
walking the dog is M 370
wants to win so M 369
waiting on him as M 369
water to him in M 368
wants it out of M 368
walks to one of M 368
waiting to buy it M 368
water he had in M 367
waiting to put in M 367
warning to men to M 366
wants to say at M 366
wants to cut my M 366
wants the poet to M 366
waits so long to M 366
water on them as M 364
water as easy as M 364
warmth is due to M 364
wants the end of M 364
water the heat of M 363
water at one or M 363
watch it out of M 363
water or use it M 362
waste of both the M 362
warning of this in M 362
waste is not to M 361
warning is that we M 360
wants to read on M 360
wants or has to M 360
wants be not the M 360
wanting the use of M 360
water it had to M 359
water to get on M 358
water or air on M 358
watch me with the M 358
watch me and my M 358
warning at all of M 358
wanting so long as M 358
waiting to bid us M 358
wants of one of M 357
walking so that the M 357
water in and on M 356
watch the way we M 356
wants me for my M 356
wanting to her in M 356
waiting to let us M 356
water so that as M 355
warming the air as M 355
walks in and he M 355
wants to say of M 354
water it was the M 353
wants to hang up M 353
wants to cut me M 353
warms the air of M 352
wanting the war to M 352
watch me try to M 350
walking so far in M 350
wants to die of M 349
water to use on M 348
waste to one of M 348
water so near to M 346
wants to run on M 346
wants me off the M 346
wanting to own the M 346
walls ring with the M 346
waiting to see on M 346
water we had in M 345
wants so that the M 345
watch on him in M 344
watch at one of M 344
wares of all the M 344
wants to hang the M 344
watch he saw it M 342
wants he has to M 342
wanting to die is M 342
waiting to bring me M 341
waste it was to M 340
walls on all the M 340
water to fix the M 338
warning me that we M 338
walls do not go M 338
water to run it M 336
waste to all of M 336
warning to them in M 336
warmth is not the M 336
wanting on one or M 336
waive it for the M 336
waiting to bid the M 336
watch it with my M 335
watch it with an M 334
wanting to cry in M 334
waiting to try the M 334
walking the beat in M 332
walking or using the M 331
water do not go M 330
wanting in them in M 330
walls so long as M 330
wakes up and it M 330
walls in each of M 328
waked me with the M 328
water the way the M 326
watch the man at M 326
warmth of sun on M 326
warming is that the M 326
walls in both the M 326
water to air in M 324
watch to each of M 324
waste is going to M 324
waste by way of M 324
warning to each of M 324
waned as that of M 324
waiting to win the M 324
water or air by M 322
water in his or M 322
water by using it M 322
warming up for my M 322
wanting to rid the M 322
watch the sky at M 320
watch so that we M 320
wants to ease the M 320
wants it not to M 320
wanting no one to M 320
walking to them on M 320
water on her to M 318
warms the air by M 318
wants to with it M 318
waiting to reap the M 318
waiting to fly us M 318
warning to you in M 317
watch it for an M 316
wanting to hear me M 316
watch the sky in M 314
warning is not the M 314
wants to run my M 314
wants to lead me M 314
wanting to use an M 314
walls we see the M 314
watch the head of M 313
wants to buy on M 313
water to top of M 312
water to get us M 312
water so that an M 312
water is not by M 312
water as this is M 312
wants to see of M 312
watch it and the M 311
wants the one thing M 310
wanting to him to M 310
waiting on her as M 310
water to use the M 308
water to get an M 308
water or lying on M 308
water is due in M 308
water in for the M 308
wants to put as M 308
walls of his or M 308
water is led on M 306
warning is for the M 306
wants to earn as M 306
wants the key to M 306
wanting the day to M 306
water on earth to M 304
watch or not to M 304
wanting to fly to M 304
walking the dog to M 304
waken me out of M 304
waiting to ask if M 304
water he was in M 303
walls is not as M 303
water to two or M 302
water on top to M 302
water on one or M 302
wants to use at M 302
wants the poem to M 302
water or going to M 300
wanting us all to M 300
walking by and he M 300
wants to fit the M 299
waits on him as M 299
waiting so long as M 299
water to top up M 298
watch is that of M 298
waste is that the M 298
warms the air to M 298
wanting to run in M 298
walking up with the M 298
walking so that he M 298
watch the man as M 297
walks in and is M 297
water is now at M 296
water in them in M 296
watch us out of M 296
watch of all the M 296
watch it day by M 296
watch as being to M 296
water the way it M 295
wants to try an M 295
wants is not in M 295
warning to all in M 294
warmth so that the M 294
wanting the men to M 294
wakes to see the M 293
water it was as M 292
water is wet is M 292
water if that is M 292
wants the earth to M 292
wanting so bad to M 292
walls to hear the M 292
waiting to bear us M 292
walking by one of M 291
water is not on M 290
wanting to sit at M 290
wanting to own it M 290
wanting to heal the M 290
water to sit on M 289
water on his or M 288
water is with the M 288
water is set to M 288
watch of him to M 288
wants to with the M 288
wanting to aid the M 288
walking the way he M 288
water we see the M 286
water is all in M 286
watch it and it M 286
water in each is M 284
watch the son of M 284
watch the men on M 284
wanting to fix it M 284
water at all or M 283
watch is that it M 282
water to rid the M 280
water so that by M 280
waste on top of M 280
wanting me not to M 280
water to set it M 279
water the way he M 278
water an area of M 278
waste of men in M 278
wanting to get us M 278
walking on air or M 278
water to bear the M 277
watch me and the M 276
warning us off by M 276
warning me off the M 276
wants to own up M 276
wanting to buy me M 276
walking or being on M 276
waiting to fly the M 276
wants to hear as M 275
water to use to M 274
water by all the M 274
watch to man the M 274
warms up with the M 274
wants to get is M 274
water to lie in M 273
wants to use up M 273
wants to put my M 272
wanting to sit up M 272
wanting to set it M 272
wanting to bring me M 272
wanting to add the M 272
walking as one of M 272
wakes up she is M 272
waiting to bid me M 272
wants to hang me M 271
water we use to M 270
water to them by M 270
warmth of him as M 270
wanting to die to M 270
walls to aid in M 270
watch on all my M 269
wants of two or M 269
water or try to M 268
water by heat is M 268
water at top of M 268
water as this we M 268
warning is one of M 268
warning by way of M 268
warmth to that of M 268
wants to and it M 268
wants to and as M 268
water to use it M 267
waste is not in M 267
wants to hear on M 267
wants to bring on M 267
water is death to M 266
waste the sky as M 266
wants to sum up M 266
wants to hang it M 266
watch as they go M 265
waste in one of M 265
warms up for the M 265
water the end of M 264
water at both the M 264
watch by her the M 264
waste the day he M 264
wants the job to M 264
wanting to fly the M 264
walls up and the M 264
waiting to see is M 264
waiting at all the M 264
water up with the M 263
water if all the M 262
watch is lying on M 262
waste in use of M 262
warning to use the M 262
warmth as long as M 262
warming the air to M 262
warming it with an M 262
wants it and it M 262
wanting to say or M 262
walking to get the M 262
waiting to run the M 262
wants to lay in M 261
wants to hear to M 261
wants to fly the M 261
water on them or M 260
water is but the M 260
watch the sun on M 260
warns us that an M 260
wants to can do M 260
waiting to say it M 260
waiting to act on M 260
watch as all the M 259
wants or can be M 259
wanting is not the M 259
walls the use of M 259
water at and in M 258
watch on them as M 258
wants to team up M 258
wants is that of M 258
walls on one or M 258
wants to set in M 257
wants to own an M 257
warning in one of M 256
waked up with the M 256
water the earth is M 255
warning to you is M 255
wants to use on M 255
wants to let on M 255
water on him or M 254
watch the act of M 254
wants to and to M 254
wanting to bring to M 254
waits or goes by M 254
waiting to set the M 254
warmth of her in M 253
wants is that it M 253
water to wet my M 252
water the top of M 252
water or cup of M 252
warning so that we M 252
warning as long as M 252
wants is that he M 252
wanting to run up M 252
walking the dog at M 252
waiting is not in M 252
wants to but he M 251
watch the day go M 250
watch me for the M 250
waste as dry as M 250
warmth in all the M 250
walks the earth to M 250
walking the earth to M 250
water to dry on M 249
watch the men go M 249
walks in fear of M 249
walking or lying on M 249
water to bring in M 248
water to air or M 248
water so long it M 248
water or let it M 248
water as red as M 248
waste is put in M 248
warning of death to M 248
wares as dear as M 248
wanting to win an M 248
wanting to read on M 248
walls as they do M 248
walking the top of M 248
warning to him as M 247
wakes up and we M 246
waits on him in M 246
waiting on all the M 246
watch as big as M 245
water to hear the M 244
watch the real thing M 244
warning is not an M 244
wanting it not to M 244
walls it can be M 244
walks me out to M 244
watch the man on M 243
wants to ban the M 243
waste of all is M 242
wants to lay it M 242
wants me and the M 242
watch as one by M 241
water it was to M 240
wants to lead it M 240
wants of any of M 240
wants an idea of M 240
walls we saw the M 240
wakes of two of M 240
water in them as M 239
waste to try to M 239
water to them as M 238
water to air at M 238
water of all of M 238
warms the air as M 238
wanting to one in M 238
wanting to beat up M 238
walls to bear the M 238
waked by one of M 238
waits on him at M 238
water to lie on M 236
water in war or M 236
water he put in M 236
water be put to M 236
wants to win or M 236
wants to cut up M 236
wanting to win at M 236
walking so long in M 236
wakes me out of M 236
waiting to bring it M 236
waits on you at M 235
water as near to M 234
waste so long as M 234
wants to die by M 234
wants the kid to M 234
wants the head of M 234
wanting to fit me M 234
walls of both of M 234
waiting to die or M 234
wants to cut us M 233
water to heat in M 232
water as both the M 232
walls or may be M 232
waiting to one of M 232
waiting to leap on M 232
water to them to M 230
water or was it M 230
wants the sun to M 230
waiting to put up M 230
waiting so that he M 230
wants to pay an M 229
wants to add it M 229
wants of man at M 229
waits to hear if M 229
water is off the M 228
wants to heal me M 228
wanting to him is M 228
walls to bring the M 228
walls of this or M 228
walls is not to M 228
walking in out of M 228
waits to hear it M 228
water is but an M 226
watch is now in M 226
waste of heat at M 226
wants me now to M 226
wanting in that it M 226
wakes to hear the M 226
waiting up for my M 226
waiting to lead me M 226
water at two or M 225
watch on him as M 225
waste in all of M 225
watch me and to M 224
warning we had of M 224
warning to that of M 224
walking on them at M 224
watch on each of M 222
waste by sin in M 222
waste as may be M 222
wants to run me M 222
wants to hear if M 222
walls to use as M 222
walking by with the M 222
warns me that we M 220
warning the men of M 220
wanting the fear of M 220
wanting it for the M 220
waits on them at M 220
wants or how to M 219
water or not at M 218
water it was so M 218
water is then at M 218
water is near at M 218
water by that of M 218
watch the sky to M 218
waste is all the M 218
warning to get the M 218
wants it and in M 218
waits on you in M 218
water on top is M 216
water on earth in M 216
warning so that it M 216
warmth at all in M 216
warming is that it M 216
wants to own me M 216
wanting to them on M 216
wanting so far as M 216
walls is not an M 216
water is set on M 215
water in doing so M 215
waste is not as M 215
wants to aim at M 215
waste of them is M 214
wanting to say in M 214
wanting to lay the M 214
walls of this my M 214
walls in all of M 214
waiting to hear us M 214
waiting to hear on M 214
warning as far as M 213
wants to hear so M 213
walking is due to M 213
water of two or M 212
water it has no M 212
water is yet to M 212
water he was as M 212
waste of war in M 212
wants to earn at M 212
wanting to die at M 212
wanting to bring us M 212
walls by using the M 212
waked up for the M 212
waiting to put to M 212
waiting to hear or M 212
water we had on M 210
water to dip the M 210
water or any thing M 210
water of both is M 210
water is low at M 210
warning to her in M 210
wants to say we M 210
walking to ease the M 210
walking in for the M 210
waiting on her the M 210
waiting is going to M 210
water up for the M 209
warms up and is M 209
wants to die is M 209
wants to aid the M 209
water to sit in M 208
water is going up M 208
water in one go M 208
wanting it all the M 208
walls or with the M 208
waive the idea of M 208
waiting to say to M 208
waiting to say the M 208
water to hear of M 207
water the way we M 207
warning to them as M 207
water to put us M 206
water he sat up M 206
watch on both of M 206
wanting to bear the M 206
walking up all the M 206
walking on air in M 206
waiting to fly me M 206
walks at dead of M 205
walking in fear of M 205
water so that my M 204
watch is set by M 204
watch is not to M 204
warmth of being in M 204
warmth in one of M 204
wants to run as M 204
wants the idea of M 204
wanting to let my M 204
wants of men as M 203
water is then in M 202
water is one in M 202
warning of god to M 202
wants the deal to M 202
wanting to use me M 202
watch the war on M 201
watch it all in M 201
watch is going to M 201
waste it not in M 201
warning to you of M 201
warning at all to M 201
warning at all the M 201
warmth of her as M 201
water the head of M 200
water or that it M 200
water if she is M 200
watch at each of M 200
warming the top of M 200
wants to win by M 200
waiting is that the M 200
water to see us M 198
water to get my M 198
watch on them to M 198
warns us that by M 198
warmth in and the M 198
wares he had to M 198
wants to fix me M 198
walls as may be M 198
walking my dog in M 198
waits to get the M 198
water on him as M 197
walking is that the M 197
water or not is M 196
water if you go M 196
watch is read at M 196
wants to cut in M 196
wants to add is M 196
wanting to say he M 196
water to use is M 195
waste of heat to M 195
wants to lead to M 195
wants to head the M 195
water in them by M 194
watch by way of M 194
warning of this to M 194
walls so far as M 194
walking to see if M 194
walking so far as M 194
walking as one in M 194
waiting if you do M 194
water if one is M 193
watch or hear the M 193
water to one in M 192
water to bear on M 192
warmth is not so M 192
wants to read me M 192
wanting to end my M 192
walls or out of M 192
waiting to hear in M 192
waiting tea for me M 192
waiting at each of M 192
water at all at M 191
wants to fly at M 191
water to her in M 190
water of one or M 190
water is all we M 190
wants us all in M 190
wanting to fly in M 190
walls to that of M 190
walls of and the M 190
walking is not to M 190
wakes us all up M 190
waiting to beat me M 190
waste in both the M 189
water as due to M 188
wares by way of M 188
wanting the one thing M 188
wanting it may be M 188
wants to pay by M 187
wanting to see as M 187
watch the joy of M 186
warning it may be M 186
wanting in each of M 186
walls to bring in M 186
walls or sat on M 186
waiting to put me M 186
waiting to sit in M 185
watch the boy to M 184
wants to mean by M 184
waiting to earn the M 184
watch it and be M 183
wants to see by M 183
walks is out of M 183
walking or going to M 183
water on lead is M 182
water is thus an M 182
water is near to M 182
water in use in M 182
watch us and to M 182
waste to let it M 182
warms it with the M 182
wants to run at M 182
walks so that he M 182
waiting to sit on M 182
waiting so that the M 182
water we saw the M 180
water or put in M 180
water on you to M 180
water on them at M 180
water is set by M 180
water is key to M 180
watch the sun at M 180
wares as far as M 180
wants to cut to M 180
wanting to see at M 180
wanting to cry at M 180
walking or eating or M 180
waked to see the M 180
water he had no M 179
walking in and the M 179
waver on one of M 178
water to lead the M 178
water as any in M 178
watch as you do M 178
waste of men to M 178
waste it all is M 178
waste in any of M 178
wanting to set me M 178
wanting to set an M 178
wanting to read or M 178
walls or near the M 178
walking me out to M 178
walking by way of M 178
waiting to bear it M 178
waiting on them as M 177
water to them is M 176
water to get me M 176
waste to use it M 176
waste by using the M 176
wanting the death of M 176
walls in two or M 176
walls he saw the M 176
walls by one of M 176
walls as you go M 176
walking the leg is M 176
walking the earth at M 176
waits the day of M 176
waiting as for the M 176
wants to all the M 175
waiting to run in M 175
water or how to M 174
water on them so M 174
water is that at M 174
water do not do M 174
water by going to M 174
water as she is M 174
wants us now to M 174
wants to lie to M 174
walking me out of M 174
waiting to try on M 174
waiting to aid the M 174
watch is not an M 173
waste so that no M 173
warning to get to M 173
wants to aid in M 173
walks in one of M 173
water on her as M 172
water on both of M 172
watch me with an M 172
warmth of both the M 172
wants us off the M 172
wants so bad to M 172
wants is not at M 172
wanting to pay me M 172
wanting at all to M 172
walking on earth in M 172
walking in with an M 172
watch it and do M 171
wants to read so M 171
wanting to lie in M 171
walking or going by M 171
water to air to M 170
watch the man of M 170
warning to both of M 170
wanting to see to M 170
wanting the two of M 170
walking or going up M 170
waive the ban on M 170
waiting to leap at M 170
waiting to die on M 170
waiting tea for us M 170
warning to man to M 169
water is two or M 168
warmth is not an M 168
wants to rid us M 168
wanting to get by M 168
walks the earth is M 168
waiting to end the M 168
water it was in M 167
wants to fly up M 167
wants to die so M 167
water or are in M 166
water is not up M 166
water in them or M 166
water in that of M 166
water as being in M 166
waste in that it M 166
wares we deal in M 166
wants the joy of M 166
wanting to read my M 166
wanting the things we M 166
walls as old as M 166
wakes in them the M 166
waste by one of M 165
wanting to die as M 165
water to run at M 164
water or use an M 164
water is two to M 164
water is one to M 164
water go out of M 164
watch us with the M 164
warning us that in M 164
wants my son to M 164
wants it and at M 164
wanting to die of M 164
walls he had so M 164
walking or use of M 164
waits to see me M 164
warning to her of M 163
warning of death in M 163
water to mix in M 162
water on and the M 162
water is that if M 162
water is but of M 162
water by both the M 162
watch in awe the M 162
warning to put the M 162
wares in one of M 162
wants to read at M 162
wants to lead or M 162
wants to god in M 162
wants to beat us M 162
wants of him is M 162
wants me and he M 162
wanting to hear an M 162
wanting to cut my M 162
walls or for the M 162
walls in any of M 162
waive or not to M 162
waste it may be M 161
wants to win is M 161
walls we put up M 161
walking on them is M 161
water on them is M 160
waste of heat or M 160
wants to map the M 160
wants to lead in M 160
wants is for it M 160
wanting to buy in M 160
wanting in that to M 160
walls on each of M 160
walls is apt to M 160
waste in this so M 159
warning it that the M 159
water or using the M 158
warmth he was in M 158
warming the air by M 158
wares to all the M 158
wants to buy to M 158
wants is out of M 158
wanting to ask it M 158
walls or lying on M 158
waste to let the M 157
water to heat to M 156
water the heat is M 156
water of any in M 156
wants to you to M 156
wants to pay up M 156
wanting in them to M 156
walking we had to M 156
water at all if M 155
waste at all in M 155
wants to fly on M 155
water up with it M 154
water to try the M 154
water in with it M 154
water in going to M 154
water he was to M 154
watch to try to M 154
watch the idea of M 154
watch on her as M 154
wants us each to M 154
wanting to hear no M 154
wanting as yet in M 154
waned so did the M 154
waiting to hear is M 154
waiting to ask my M 154
watch so long as M 153
watch as you go M 153
wants to lay an M 153
walking by and the M 153
waiting to try it M 153
water to air it M 152
water the earth by M 152
water is then so M 152
water is near or M 152
water as was in M 152
watch be out of M 152
wants to read of M 152
wanting to try my M 152
walls an area of M 152
walking in with my M 152
waiting to run to M 152
water so low as M 150
water in them the M 150
watch the war in M 150
watch the man go M 150
watch on them in M 150
watch my rear as M 150
watch me put on M 150
warning he had of M 150
warmth or heat in M 150
wants at all to M 150
wanting to try on M 150
walls he had to M 150
waiting to cut us M 150
watch he had no M 149
wants or for the M 149
wanting to bet on M 149
waits on you to M 149
water to air the M 148
water or all the M 148
water is not my M 148
water he may be M 148
watch the one in M 148
waste of war the M 148
warning is not so M 148
warmth of him in M 148
wants the law of M 148
wants an end of M 148
wanting to cry or M 148
walls so that in M 148
walls as did the M 148
walking so far on M 148
waiting to pay at M 148
waiting to let it M 148
waste as any of M 147
warning to let the M 147
wants to let in M 147
wanting to win so M 147
water or fly in M 146
water is put by M 146
water is put at M 146
water in use is M 146
water he ran no M 146
waste by one or M 146
warms the earth in M 146
warming up and he M 146
warming the end of M 146
wares to one in M 146
wants or that he M 146
wanting to put us M 146
wanting on all the M 146
walking on all the M 146
walking he had to M 146
waiting to set it M 146
waiting so long on M 146
waste to use the M 145
wants of one or M 145
wants in his or M 145
wants as can be M 145
walks in for the M 145
waiting to cut in M 145
water to rot the M 144
warmth of day to M 144
wants to out of M 144
wants to beat it M 144
wanting to run my M 144
wanting to lie on M 144
wanting me for the M 144
wanting is that the M 144
walls by use of M 144
walking is not as M 144
waiting to put my M 144
waiting to die at M 144
waiting on him the M 144
waiting as easy as M 144
watch he had to M 143
walking in any of M 143
water up near the M 142
water to get by M 142
water to end the M 142
water the beat of M 142
water or put it M 142
water in all my M 142
watch us and we M 142
watch it going on M 142
warms the earth by M 142
wants the job or M 142
wanting to fit the M 142
wanting in one thing M 142
waits on her to M 142
waiting to put an M 142
waiting to get by M 142
waiting to buy at M 142
water it was no M 141
watch the boy as M 141
waste in that the M 141
wants to see so M 141
wants to mix up M 141
walking in all of M 141
water to run or M 140
water to each to M 140
watch on him at M 140
waste to put the M 140
warns us all to M 140
warns of this in M 140
warning the boy to M 140
warming to him as M 140
wants to mix the M 140
wants the day to M 140
wants me all the M 140
wanting to read in M 140
walls of earth to M 140
walls at each of M 140
walks up out of M 140
walks the way he M 140
walks on with the M 140
walking the two or M 140
walking it may be M 140
wakes us out of M 140
waiting to beat the M 140
waiting the death of M 140
waiting on him or M 140
water to air as M 139
water it has an M 139
waste in using the M 139
wants to win on M 139
waits on him to M 139
water is wet or M 138
water is all it M 138
water as dry as M 138
watch on her to M 138
waste of two or M 138
waste as one of M 138
warning us that no M 138
warning is not in M 138
wants to pay no M 138
wanting to them to M 138
wanting to buy up M 138
wanting to bring an M 138
waked to hear the M 138
waits to use the M 138
waiting to buy my M 138
waiting to bear me M 138
water the day of M 137
water is hung on M 137
warming on top of M 137
wares he has to M 137
waiting to add to M 137
water to heap up M 136
water on her in M 136
water as all of M 136
watch the team in M 136
waste to that of M 136
wants to ask or M 136
wanting us out of M 136
wanting to pay it M 136
wanting to die if M 136
wanting is that of M 136
wanting in this or M 136
walking so far to M 136
walking is going to M 136
wakes up that he M 136
waked the boy at M 136
waked at dead of M 136
waiting to see at M 136
waste or for the M 135
walks so that the M 135
water to read the M 134
water to mix up M 134
water or off the M 134
water in and to M 134
warns us with the M 134
warns the men of M 134
warning to him or M 134
warmth is that of M 134
warms us with the M 134
warming the air at M 134
wants to pet the M 134
wants it and we M 134
wants it and if M 134
wanting to win it M 134
wanting to use up M 134
wanting to say is M 134
wanting to fix up M 134
wanting in them is M 134
walls in one or M 134
walking on his or M 134
waiting to let go M 134
waiting on all of M 134
waiting in each of M 134
water to use at M 132
water it was an M 132
water in air in M 132
water as heat is M 132
watch so long in M 132
watch on her at M 132
waste of his or M 132
warning or may be M 132
warning me that in M 132
warning is not as M 132
wants to use by M 132
wants to earn on M 132
wants the two to M 132
wanting to let us M 132
wanting the end of M 132
wanting in him is M 132
walls to add to M 132
walls at both the M 132
walls as low as M 132
walking as one to M 132
waiting to pay my M 132
waste is for the M 131
warning us all to M 131
warning to him on M 131
wants to sit or M 131
wanting in him as M 131
walls to sit on M 131
walks in and we M 131
water or let the M 130
water is that to M 130
watch to pay the M 130
watch to bring the M 130
warning is due to M 130
warms up due to M 130
wants to head up M 130
wants to but is M 130
wants to bar the M 130
wants to act or M 130
wanting to sit by M 130
wanting is one of M 130
walls of earth in M 130
walls is that it M 130
walking in that the M 130
walking by all the M 130
wakes up one of M 130
wakes in man the M 130
waiting to fix the M 130
watch to see in M 129
watch is set on M 129
waste of both in M 129
warns us that as M 129
wants to ask my M 129
wants is going to M 129
wants in one of M 129
wanting to run as M 129
wanting to him as M 129
water we are to M 128
water we are in M 128
water to men in M 128
water is that an M 128
water is now of M 128
water is near by M 128
water at six in M 128
water at her in M 128
water as being of M 128
watch us and the M 128
watch the wings of M 128
watch as she is M 128
watch as each of M 128
waste to see if M 128
waste as can be M 128
warning is going to M 128
wants so that we M 128
wanting to you if M 128
wanting or out of M 128
walls to hang up M 128
walks the way up M 128
waked to all the M 128
waiting up for it M 128
wants of man to M 127
walls of red wing M 127
walking to all the M 127
water to see me M 126
water to lay on M 126
water to add is M 126
water or earth in M 126
water is now no M 126
water in air to M 126
water by two or M 126
water be not in M 126
watch the sky go M 126
watch me get my M 126
watch it but do M 126
watch is set in M 126
watch by one of M 126
waste of heat up M 126
warming up due to M 126
warming up can be M 126
wants to wed me M 126
wants to run or M 126
wants of men of M 126
wants it now or M 126
wanting to one of M 126
wanting in two of M 126
walls the men of M 126
walking to see it M 126
walking so near the M 126
walking is for the M 126
wakes up all of M 126
waked to hear it M 126
waiting on any of M 126
wants to for the M 125
walks the path to M 125
waken in him the M 125
water to run by M 124
water to him to M 124
water the air in M 124
water is for us M 124
water is dear to M 124
water in and it M 124
water by each of M 124
watch the arc of M 124
warning us off the M 124
warming the seat of M 124
wares in use in M 124
wants to bear it M 124
wants so that it M 124
wants it has to M 124
wants in all the M 124
wants an act of M 124
wanting to win in M 124
wanting to own up M 124
wanting to beat me M 124
wanting in him the M 124
walls or set in M 124
walks of two or M 124
walks by with the M 124
waked up one of M 124
waiting to bid on M 124
waiting in fear of M 124
watch an act of M 123
wants to cry on M 123
walks in out of M 123
water to tow the M 122
water to him at M 122
water to heal the M 122
water so that on M 122
watch to that of M 122
watch the sky on M 122
watch me put the M 122
warmth of sun or M 122
warming up near the M 122
wants to pay my M 122
wants to heal it M 122
wants to get so M 122
wanting to read to M 122
wanting to leap to M 122
wanting to buy at M 122
walls is not in M 122
walls is for the M 122
walls as one of M 122
walking up and up M 122
waken it out of M 122
waiting to fly at M 122
waiting on men of M 122
waiting at any of M 122
water to run so M 121
wants of this or M 121
waiting on god as M 121
water we see it M 120
water or one or M 120
water of one is M 120
water in them so M 120
watch the area of M 120
watch it was on M 120
watch as two of M 120
warns in one of M 120
warning me for my M 120
warning at all he M 120
warmth to one of M 120
wants to read up M 120
wants to bet me M 120
walls to fit the M 120
walls or lay on M 120
walking the beat on M 120
wakes up with no M 120
waiting to die as M 120
waiting to cut up M 120
water is going in M 119
watch to see to M 119
watch the way my M 119
wants to ask in M 119
wants to ask an M 119
walking by with an M 119
water we got to M 118
water to man or M 118
water is that by M 118
water is and is M 118
water in all is M 118
water he was the M 118
water by men in M 118
watch the kings of M 118
watch it for us M 118
waste of one or M 118
warning as for an M 118
warming to one of M 118
warming so that the M 118
warming it and the M 118
wants to heat up M 118
wants to hang in M 118
wants the area of M 118
wants or how he M 118
wants it now to M 118
wants he but to M 118
wanting to lead an M 118
walls on one of M 118
walls at one of M 118
walking in them is M 118
waked he lay in M 118
watch if one is M 117
wants of man or M 117
wanting in them as M 117
walks we had at M 117
waiting on you as M 117
water to that at M 116
water to beat the M 116
water the day we M 116
water on him if M 116
water of this is M 116
water of death to M 116
water is that we M 116
water is run at M 116
water as that it M 116
watch to bring us M 116
watch the god of M 116
watch me get it M 116
warns us out of M 116
warning it that it M 116
wares so that the M 116
wants to put at M 116
wants to earn it M 116
wants to and no M 116
wants the song to M 116
wants is not as M 116
wanting to reap the M 116
walls to dry in M 116
walks the earth or M 116
walks by and the M 116
walking on them in M 116
walking as they do M 116
waiting to see of M 116
waiting to fix on M 116
water we had the M 114
water we get the M 114
water to air by M 114
water or heat in M 114
water he has no M 114
water at all of M 114
watch the set of M 114
watch the man he M 114
watch me put it M 114
waste is apt to M 114
warning at all in M 114
warms the air at M 114
warming up all the M 114
wares in all the M 114
wanting to him at M 114
waste no end of M 113
wants of all in M 113
walks is one of M 113
water we had no M 112
water to fly up M 112
water is thus in M 112
water he had the M 112
watch the air of M 112
watch on her in M 112
warns us off the M 112
warns me that in M 112
warmth to ease the M 112
warmth as one of M 112
warming to him in M 112
wants to bet the M 112
wants or how it M 112
wants me for me M 112
wants it all in M 112
wanting to use or M 112
wanting to see is M 112
wanting to earn the M 112
wanting as they do M 112
walls so they do M 112
walls or set on M 112
walls in fear of M 112
walls at one or M 112
wakes me with the M 112
waiving the use of M 112
waive the oath of M 112
waits the end of M 112
waiting to leap up M 112
waiting so long is M 112
waver at all in M 111
warning in all the M 111
warming is not an M 111
wants to win to M 111
walking by and we M 111
waits on one of M 111
water is this is M 110
water is then of M 110
water is now an M 110
water he saw in M 110
water by heat in M 110
water by and by M 110
warns us that at M 110
warning to put on M 110
warmth to heat the M 110
warmth is not in M 110
warming of air in M 110
wares is due to M 110
wants to fly me M 110
wants to buy of M 110
wanting to him the M 110
wanting in both of M 110
walks on and the M 110
walking on them or M 110
walking on air the M 110
walking is that of M 110
walking in that as M 110
waits in one of M 110
waiting on each of M 110
water to get as M 109
watch is not so M 109
watch is not at M 109
waste by use of M 109
waste as that of M 109
waiting as one of M 109
water to that or M 108
water to his or M 108
water is that is M 108
watch he saw the M 108
watch as can be M 108
waste of war to M 108
waste of war or M 108
warning to men in M 108
warmth so that we M 108
warming of all the M 108
wants to own or M 108
wants to end on M 108
wants the head to M 108
wants it with the M 108
wanting to see no M 108
wanting to ask my M 108
wanting to aid in M 108
wanting in that he M 108
walks me out of M 108
walking the head is M 108
walking as near as M 108
waiting to hear at M 108
waiting to act in M 108
waiting so long it M 108
waiting on you the M 108
wants of all my M 107
waiting is that it M 107
water to try if M 106
water to run an M 106
water to cut it M 106
water is got by M 106
water in one is M 106
watch the things we M 106
waste it all my M 106
warning the men in M 106
warmth or heat of M 106
warming up and it M 106
wants us for the M 106
wants to fly an M 106
wants to cut an M 106
wants or why he M 106
wants if you do M 106
wants if she is M 106
wanting to men in M 106
wanting to cut to M 106
wanting my son to M 106
walls to let us M 106
walls the area of M 106
walls of this wing M 106
walls as for the M 106
walking the way we M 106
walking in that it M 105
walking as you do M 105
waits to let the M 105
water to them at M 104
water is ten or M 104
water is now on M 104
water is doing the M 104
water is bad in M 104
water be not an M 104
water be near the M 104
water at him as M 104
watch to get at M 104
watch me get the M 104
watch me doing it M 104
watch it and if M 104
warning us that to M 104
warms the top of M 104
warming the air on M 104
wants to win me M 104
wants to hear by M 104
wants to die the M 104
wants to die if M 104
wants to ask to M 104
wants to and in M 104
wants the man as M 104
wants the eye of M 104
wants the act to M 104
wants of men is M 104
wants in his tea M 104
wanting to run it M 104
wanting to lead me M 104
wanting to hear is M 104
wanting to hear as M 104
wanting the things of M 104
wanting the real thing M 104
wanting it and the M 104
wanting in you to M 104
wanting an air of M 104
walls on two or M 104
walls is out of M 104
walking on air to M 104
walking me all the M 104
walking by him in M 104
waked as yet to M 104
waiting to read or M 104
waiting to put us M 104
waiting to die to M 104
waiting is for the M 104
water to dry the M 103
water the area of M 103
watch in awe at M 103
wants of man by M 103
walks the earth so M 103
walks by and he M 103
waiting to die so M 103
water to and the M 102
water the sum of M 102
water or not to M 102
water of death is M 102
water do not in M 102
water at one go M 102
watch to buy the M 102
watch to buy me M 102
watch the way to M 102
watch the team of M 102
watch of one or M 102
watch in each of M 102
waste to put an M 102
waste or use of M 102
warning is now in M 102
wants to pet it M 102
wants my head on M 102
wanting to for so M 102
wanting to die on M 102
wanting it out of M 102
walls to set up M 102
walls of earth on M 102
walls as can be M 102
walls as are the M 102
walking on and the M 102
waits on all the M 102
waiting to fly in M 102
waiting to ask us M 102
waiting so that we M 102
water it does so M 101
watch it try to M 101
warning to her as M 101
wants of all as M 101
walls to put up M 101
water or eating the M 100
water or ate the M 100
water on them by M 100
watch the war of M 100
watch if not to M 100
waste to add to M 100
waste on any of M 100
warmth to all of M 100
warmth of may or M 100
warmth of his or M 100
warming up and we M 100
warming as one of M 100
wares as may be M 100
wants the things he M 100
wants it and to M 100
wants by using the M 100
wanting to put to M 100
wanting to pet the M 100
wanting the idea of M 100
wanting the dog to M 100
wanting in men to M 100
wanting in both or M 100
walls so that if M 100
walls or any of M 100
walking in them in M 100
wakes up and in M 100
wakes in him the M 100
waked he has no M 100
waiting in for the M 100
water so low in M 99
waste in each of M 99
waste an area of M 99
wants to try in M 99
wants to fly as M 99
walking to try to M 99
water or heat or M 98
water of low or M 98
water is that no M 98
water in use at M 98
water in them on M 98
water in and of M 98
watch to let the M 98
watch he had so M 98
warning to try to M 98
warning to sin no M 98
warning is that of M 98
warning he was to M 98
warmth by all the M 98
warming up may be M 98
warming up and to M 98
warming the earth to M 98
wares to one of M 98
wares so that he M 98
wants to wed the M 98
wants to fly it M 98
wanting to lead to M 98
wanting to hear if M 98
wanting to end on M 98
walls so that an M 98
walls or out the M 98
walls of each ring M 98
waive the bar of M 98
waiting it out is M 98
waiting it out at M 98
warning of death or M 97
wants to add in M 97
water we put in M 96
water to all by M 96
water or that he M 96
water or out in M 96
water or lying in M 96
water is ten to M 96
water is one or M 96
water by day in M 96
watch to read the M 96
watch the boy in M 96
watch of two or M 96
watch my way of M 96
waste of wit to M 96
waste of all of M 96
waste it for the M 96
warning the man to M 96
warning of them in M 96
wants us all at M 96
wants the way he M 96
wants the men at M 96
wants it for me M 96
wanting to see so M 96
wanting to ban the M 96
walls to all the M 96
walls as was the M 96
walks the dog in M 96
walking on earth as M 96
walking he has to M 96
waiting to run on M 96
waiting so long he M 96
waiting on him on M 96
waiting on and on M 96
waiting in fear to M 96
water to win the M 95
wants to cling on M 95
wants or can do M 95
water we use the M 94
water to wet me M 94
water to end up M 94
water to bring us M 94
water to bring on M 94
water to both of M 94
water to act in M 94
water on and it M 94
water is low we M 94
water in this is M 94
water in six or M 94
watch the team at M 94
watch me put my M 94
waste in him to M 94
warning of how it M 94
warning is that in M 94
wares is that of M 94
wants to with me M 94
wants to end an M 94
wants it may be M 94
wanting to win or M 94
wanting to fly at M 94
walls of that to M 94
walls of earth at M 94
walls it was the M 94
walls as does the M 94
walking in his or M 94
walking if you do M 94
walking by him to M 94
waken to hear the M 94
water at all as M 93
water as two or M 93
warms to him as M 93
water in fear of M 92
water in aid of M 92
watch the team go M 92
watch me win the M 92
watch it and he M 92
waste is out of M 92
warning of god is M 92
warning of death by M 92
warms the earth the M 92
warming up with an M 92
wants to try my M 92
wants to pay or M 92
wants to own us M 92
wants to not be M 92
wants to err on M 92
wants to die he M 92
wants to buy tea M 92
wants of being an M 92
wanting to lead us M 92
wanting to head the M 92
wanting to hang the M 92
wanting to arm the M 92
wanting the sun to M 92
wanting in them the M 92
walls or can be M 92
walls at all the M 92
walks in his or M 92
walking the path in M 92
walking so long on M 92
walking in them to M 92
wakes up for an M 92
waked up two or M 92
waiting to see by M 92
waiting to leap to M 92
waiting it out on M 92
waiting he had to M 92
water he had so M 91
water by going on M 91
warning to them is M 91
warning to all my M 91
wants to act it M 91
water to him by M 90
water to fit the M 90
water to all as M 90
water or earth is M 90
water on two of M 90
water is all of M 90
water in air of M 90
watch the two as M 90
watch the rings of M 90
watch the poet at M 90
watch it for as M 90
watch be hung at M 90
waste is easy to M 90
warns it not to M 90
wares on top of M 90
wants to set to M 90
wants to say if M 90
wants to run is M 90
wants to ban it M 90
wants it for us M 90
wanting to run an M 90
wanting of all the M 90
wanting in that the M 90
walls to one of M 90
walls to heat the M 90
walls or sit on M 90
walls is going to M 90
walks to her by M 90
waiting to ease the M 90
waiting to die by M 90
waiting the two or M 90
water we may be M 89
watch the two in M 89
warming is not as M 89
wants to pay on M 89
wants to mix it M 89
wants so and so M 89
walks it was the M 89
water we see in M 88
water we had an M 88
water or run the M 88
water on you if M 88
water is thus of M 88
water is than the M 88
water is put is M 88
water is lit up M 88
water in air or M 88
watch the law in M 88
watch me going by M 88
watch it that it M 88
warns the son of M 88
warns the head of M 88
warns me that to M 88
warmth in any of M 88
wants to win us M 88
wants to own as M 88
wants to ask it M 88
wants to arm the M 88
wants the deal the M 88
wants or that the M 88
wants of men to M 88
wants of far the M 88
wanting to add an M 88
wanting the ease of M 88
wanting is that he M 88
walls he was the M 88
walking the way to M 88
walking or lying in M 88
walking on with it M 88
walking on any of M 88
wakes up that the M 88
waken in them the M 88
waiting to use an M 88
water at and at M 87
watch it was to M 87
watch as all of M 87
wants to hear he M 87
water to ease my M 86
water or heat to M 86
water or heat it M 86
water or act as M 86
water of two of M 86
water is let to M 86
water he was so M 86
water by far the M 86
watch to put on M 86
watch the sun of M 86
watch so bad in M 86
watch or read it M 86
warmth is for the M 86
warmth as for the M 86
warms the earth to M 86
wants to lay me M 86
wants to buy by M 86
wants to and we M 86
wants to and do M 86
wants me for is M 86
wants as yet the M 86
wants as for the M 86
wanting or may be M 86
walls as they go M 86
walking on air at M 86
waked at six by M 86
waits on her in M 86
waiting to run up M 86
watch or read or M 85
watch it all as M 85
waste on them the M 85
wants to try is M 85
walks as men do M 85
waiting is not my M 85
water we get in M 84
water up with my M 84
water up and the M 84
water to let us M 84
water so all the M 84
water or both to M 84
water or air the M 84
water on two or M 84
water on her or M 84
water in each at M 84
watch the men to M 84
watch the boy at M 84
waste the way we M 84
waste of air he M 84
waste is that we M 84
waste at one of M 84
warning the men on M 84
warning is that no M 84
warmth on top of M 84
warming the pit of M 84
wants to try us M 84
wants to and at M 84
wants the son of M 84
wants no man to M 84
wants it but the M 84
wanting to them of M 84
wanting to men of M 84
wanting on one of M 84
walking to get my M 84
walking the six or M 84
walking so that it M 84
waked up with an M 84
waiving the plea of M 84
waiting to die is M 84
waiting to beat up M 84
waiting on you if M 84
water at that is M 83
warning to bear in M 83
wants to set on M 83
water to you in M 82
water or does it M 82
water on for me M 82
water it had no M 82
water is lying in M 82
water is bad or M 82
water in one to M 82
water he can be M 82
waste of both of M 82
waste of any thing M 82
warns it that the M 82
warning of how to M 82
warmth to get the M 82
warmth to bring it M 82
warmth as that of M 82
warming the air we M 82
wants to leap up M 82
wants to but the M 82
wants to bow to M 82
wants the things to M 82
wants the man in M 82
wants the ego to M 82
wants the act of M 82
wanting to bring my M 82
wanting to act the M 82
walls to aid the M 82
walks up with the M 82
walking the act of M 82
walking in with me M 82
walking by saw the M 82
waken up with the M 82
waive it and to M 82
waiting to buy up M 82
waiting so that it M 82
waiting so long the M 82
waiting on for the M 82
water to him is M 80
water it was of M 80
water it was at M 80
water is that he M 80
water is far in M 80
water at him to M 80
watch the going of M 80
waste the day on M 80
warmth on that of M 80
warmth of air or M 80
warming it was to M 80
wares of both the M 80
wares if they be M 80
wants to say an M 80
wants the key of M 80
wanting to run or M 80
wanting to not be M 80
wanting it can be M 80
walls to hang it M 80
walking up for the M 80
walking the earth on M 80
wakes me with it M 80
waiting to read my M 80
warning if any of M 77
watch to hear the M 76
warning to you as M 71
waiting is not to M 70
walks as long as M 69
warning so far as M 68
wants to read as M 68
waiting is not so M 68
water it and it M 67
watch so you do M 66
water or air so M 63
warning on use of M 63
wants to lead as M 62
wants to add on M 62
wanting to die so M 62
warms the air so M 59
walls to get in M 58
warning to put us M 56
walks to get to M 56
waked up and the M 56
warning to see if M 55
warning on one of M 54
warning as may be M 54
watch by him to M 53
warmth in them as M 53
wanting in that in M 53
walks to get the M 53
waste the earth in M 52
watch he had on M 51
waste if they do M 51
wants it and so M 51
waked up and is M 51
warning to one or M 50
walks by one of M 50
water it and the M 49
water he put on M 49
watch on him so M 49
waste of heat as M 49
warning he had to M 49
walking on them as M 49
waits to hear of M 49
water to him as M 48
water the earth to M 48
watch as they do M 48
warning on how to M 48
wants he can be M 48
warning so that no M 47
wants me dead so M 47
warning in that it M 46
warming of air by M 46
wanting to say as M 46
walks on his or M 46
walking the dog as M 46
walking is easy to M 46
waits to get on M 46
water on top so M 45
watch on them so M 45
warning to bring the M 45
warning he had so M 45
walks on one of M 45
water to die in M 44
water the earth in M 44
watch up off the M 44
watch so they do M 44
watch by using the M 44
warning in all of M 44
warning if they do M 44
wants to head in M 44
wants as few as M 44
walks to all the M 44
water is then no M 43
watch to set it M 43
watch the one on M 43
watch the day of M 43
watch on any of M 43
warming of both the M 43
walking is not in M 43
waked us all up M 43
water it all the M 42
watch is due to M 42
watch if they do M 42
waste of war as M 42
waste of air in M 42
waste as low as M 42
waiting is all the M 42
watch we see the M 41
watch so far as M 41
watch by that of M 41
warning to use it M 41
warning to him by M 41
warning on top of M 41
warning he was on M 41
warning do not be M 41
wants to run by M 41
wants of man on M 41
wants is apt to M 41
wants by going to M 41
walking is one thing M 41
walking is apt to M 41
water to set on M 40
watch to see he M 40
watch by him at M 40
waste is low in M 40
wants to buy he M 40
wants of them in M 40
wants as you do M 40
walls so that as M 40
waiting on him so M 40
wages of sin is D 76027
water as hot as D 16692
wages as low as D 6136
waved to him as D 4670
wages of all the D 4660
waved to them as D 3950
water is fed to D 3648
waved to her as D 3225
waved an arm at D 2996
waved to him to D 2898
wards the end of D 2880
waved the gun at D 2668
wages as long as D 2481
waved at him as D 2225
waved an arm in D 2224
waist so that the D 2110
watch to his ear D 2109
waves so that the D 2104
waved at him to D 2104
waved at them as D 1941
wages of going on D 1932
wages so that the D 1896
waved an arm to D 1826
wages of men in D 1806
waved to them to D 1800
wages is one of D 1720
wages in all the D 1694
waved to one of D 1644
wants to hit the D 1610
wagon as far as D 1584
waves as far as D 1549
wages so low as D 1542
wages is due to D 1524
wales is one of D 1522
waves is that the D 1516
water or oil to D 1502
waved at her as D 1467
wages is not the D 1456
water to thin it D 1449
water or ice to D 1422
wages to pay the D 1418
water or oil is D 1416
wailing is for the D 1407
wants to sue the D 1393
wants to wear the D 1372
waved to her to D 1350
water to thin the D 1330
waged the war of D 1330
waves is due to D 1328
walls of mud or D 1316
waist as far as D 1269
waved the gun in D 1264
waved at her to D 1234
waist so that it D 1214
waves of all the D 1206
waist of one of D 1176
waste of oil or D 1160
waves as long as D 1116
wages so long as D 1112
water or oil in D 1108
water or ice in D 1084
waved me out of D 1056
waved at them to D 1042
waist so that he D 1040
wages to put it D 1038
wages is that the D 1030
waved at one of D 1020
walls as thin as D 1008
washing the car or D 1000
waves is one of D 988
wages in both the D 982
waves in air is D 980
water or ice is D 961
wages by way of D 946
wales as far as D 937
waved to him in D 928
wants to wear it D 905
water or hot tea D 886
wages of sin in D 884
water or oil or D 880
washing it with the D 878
water or gas or D 870
wager of law is D 860
wanna go with me D 854
washing is one of D 852
waves on top of D 844
wasting of all the D 842
wages in each of D 832
wages to all the D 824
waves in all the D 810
wages of one of D 806
wages of each of D 792
waved my hat to D 770
water to seal the D 768
wages to buy the D 764
wages as may be D 750
wages so that he D 744
waved us out of D 728
waiting to hit the D 718
washing it out of D 716
water is fed by D 714
waves of this sea D 703
waves in air or D 702
wagon on top of D 702
wales by way of D 696
wages as one of D 688
water of this sea D 678
waves is that of D 676
waves in both the D 668
wages of sin to D 666
wants to tear the D 656
wants to lean on D 645
watch to her ear D 639
wakings of men to D 636
washing up and the D 628
waves in air at D 626
waves of that sea D 624
waves as big as D 620
water is fed in D 606
waved to all the D 600
warning in his ear D 600
water to ice is D 592
wages to one or D 582
waved to them in D 580
waged by all the D 578
watch the tip of D 576
wagon so that the D 576
wages do not go D 572
wants to hit me D 568
water or gas is D 564
wants to rob me D 562
waves in one or D 556
wants to dig up D 551
wages or for the D 550
wager of law in D 550
wages as far as D 547
waves is not the D 544
waged the war in D 544
water or gas in D 534
water or gas to D 530
wants to tie up D 529
waves so that it D 526
waved at him in D 526
wagon to get the D 522
wants to tie the D 521
wants to see ye D 520
wages to that of D 514
waves so long as D 512
wants to rob us D 510
wanting to hit the D 510
wages is not an D 510
wagging the dog of D 506
waste of gas in D 504
water or oil as D 501
wants to tear it D 498
wager is that the D 493
wanting to wear the D 484
wales is that of D 484
wagon so that it D 484
water in his ear D 482
wager of law or D 482
wales to see the D 478
waved as long as D 474
wages of any of D 474
water is hot or D 472
wants to tax the D 472
wagon to see if D 472
water or oil on D 470
wagon so that he D 470
waves by using the D 468
washing it off in D 468
wages of one or D 466
wages the sum of D 462
wages he was to D 454
waves to that of D 452
wants to rub my D 444
wales as one of D 444
waves of one sea D 442
wants to rob the D 442
wages he had to D 440
waiting to rob the D 438
waves in each of D 436
waved it off as D 434
wages is that of D 434
waved the car on D 432
wages is not to D 432
wales is not so D 430
waist of each of D 430
waves in that the D 428
water or ice on D 426
water so hot it D 420
wages is not so D 420
wages by act of D 418
waded in with the D 418
wales is that the D 416
wages of all of D 416
water of that sea D 410
wages to get the D 410
wants to see ya D 407
wages he has to D 406
wants the car to D 402
wages so far as D 402
wages in one of D 402
wales by act of D 400
waded as far as D 400
wagon to bring the D 396
wants to tap the D 393
water to ice at D 392
wagon to bring in D 391
wales to that of D 386
waste of ink to D 385
water or mud in D 384
wages to each of D 384
waged on them by D 384
wages as per the D 378
waved to her in D 376
washing the earth in D 376
waves is set up D 374
water as per the D 374
wants to sue me D 372
wants to spy on D 371
waved my arm in D 370
wanting to tear the D 370
washing of all the D 367
wards in each of D 364
wagon to see the D 358
waves it may be D 356
wanting to tear it D 356
watts is one of D 354
wants to tear up D 354
watch the nod of D 350
wales it was the D 350
warning in her ear D 349
waged the war on D 344
water or mud to D 342
waste the wax on D 342
wasting is due to D 340
wants to hug me D 339
water on tap in D 338
wales is not the D 338
wards as far as D 337
walls of wax on D 336
wages is that it D 336
waive the fee if D 334
waved it out of D 332
wales is going to D 332
wages in all of D 332
wards of one of D 328
water or oil at D 326
wafer so that the D 326
wards so that the D 325
waves it can be D 324
waves go out in D 324
wages of both the D 324
waved at all the D 322
waved an arm as D 322
wages as they do D 322
waves of heat in D 318
water in oil is D 318
wanting to tie up D 318
waste is fed to D 317
washing it out in D 317
wanna be with me D 314
washing so that the D 313
wages is not in D 308
waves in one of D 306
water to hit the D 306
waved my arm to D 304
water is fed at D 300
wagon so that we D 298
washing the head of D 296
waved to all of D 294
water or ice at D 294
wasting the day in D 294
warming the oil in D 292
watch the fun as D 291
wages of them to D 290
washing up for the D 288
water or ice or D 287
waved the men to D 286
water to pan to D 286
waste of gas is D 286
water or oil of D 282
wages in any of D 280
waves do not go D 278
water in oil or D 276
washing the gas in D 274
wanting in zeal as D 274
waist to see if D 274
waves of air of D 272
washing it off the D 272
wales as long as D 272
water or ice as D 271
water in one ear D 268
watch the swing of D 268
waged in all the D 268
water to dam up D 266
wanting to rob the D 266
waves of air in D 264
waves by use of D 264
waive the tax on D 264
wagon to get to D 264
wages of two or D 262
waves in air to D 260
waved to get the D 260
waved at them in D 260
water in oil in D 260
wagon as long as D 260
wages it may be D 260
waved at her in D 259
waved me off to D 258
water or mud or D 258
waves as they go D 256
waved my arm at D 256
watch the car go D 256
wages of fin is D 256
waves to get the D 254
waves of air or D 254
wagon to get it D 254
waves in two or D 252
waist up and the D 252
wagon up out of D 252
waves is not so D 250
water is met by D 250
wanna go out to D 248
water to thin to D 246
waist by one of D 246
wagon to one of D 246
waves so that we D 244
water in this sea D 244
wanting in zeal to D 244
wailing in all the D 243
waves of heat to D 242
wanting to wear it D 242
wages to any of D 242
waged by both the D 242
water so hot as D 240
wards to see the D 240
wages of sin by D 240
wages as can be D 240
wages so that we D 238
washing to dry on D 237
waves we saw the D 236
washing the gel in D 236
waved my hat at D 234
wanting to rip the D 234
waiting to tear the D 234
wagon is one of D 232
wages by using the D 232
waves of heat or D 230
waves of both the D 230
waiting to pop up D 230
waves of one of D 228
waves of men in D 228
waved me off as D 228
wanna be one of D 228
wafer on each of D 228
waved on all the D 226
watch the beam of D 226
wagging the dog in D 224
waves so far we D 223
waved the end of D 222
waves by way of D 220
water to thaw the D 220
waltz is one of D 220
wales is due to D 218
wagon in one of D 218
wages of sin as D 217
wants to rub it D 216
water to ice or D 215
water to leak in D 214
waged the war to D 214
wants to dig in D 213
wafer on top of D 213
waves in any of D 212
waste of gas or D 212
wanting to fan the D 212
waits the nod of D 212
wants the art of D 210
walls of ice on D 210
waved the two of D 208
wasting is one of D 208
wants to hit it D 208
wales to act as D 208
wages do not in D 208
wages at all to D 208
wager it was the D 208
waved the man to D 206
waved my hat in D 206
watch to see thy D 206
watch it hit the D 206
washing up all the D 206
washing it with an D 206
wales or any of D 206
washing to dry in D 205
wailing of all the D 205
waves as does the D 204
washing the car in D 204
wales in each of D 204
waves at each of D 202
waved to him on D 202
wages is going to D 202
waved the men on D 200
waved the fan to D 200
wants to pin the D 200
wales so far as D 200
water to oil in D 198
washing is not to D 198
wants to rip the D 198
wanna go and do D 198
wales so that the D 198
wagon is going to D 198
waves of two or D 196
washing or use of D 196
warding it off by D 196
wants the fun of D 196
wages to one of D 196
waged by men of D 196
watch the lion king D 195
walking on ice or D 194
wages or that the D 194
wages is set by D 194
waves to see if D 192
water or mud is D 192
washing as long as D 191
waste of oil in D 190
wages so that it D 190
water or mud of D 188
waste of gas by D 188
washing the head in D 188
wages it has to D 188
waxed as that of D 186
wages of sin or D 186
wages is one thing D 186
wages as did the D 186
waded so far in D 186
wants to tie me D 185
waves of air to D 184
wanting to hug the D 184
wages of sin be D 184
waved my cap to D 182
wasting of one or D 182
washing the top of D 182
wards as may be D 182
wanting to spy on D 182
wanting in zeal or D 182
wages to all of D 182
wages on top of D 182
wages of men on D 182
wanting to lean on D 181
waves in air in D 180
wants to hug the D 180
wanting to dig up D 180
wages of men as D 180
waved at both of D 178
water to bead up D 178
wales in one of D 178
wagon to get my D 178
wages we mean the D 178
waged by one of D 178
washing to get the D 177
waves to hit the D 176
waves is that it D 176
wants to rub the D 176
wanting to hit me D 176
wales it may be D 176
waged in both the D 176
water the gas is D 175
washing is not the D 175
waved in all the D 174
watch at his ear D 174
wards in one of D 174
wants to hog the D 174
wales is that it D 174
water an ass at D 173
washing is going on D 173
water to thin if D 172
wales is not an D 172
waves so far as D 170
water in pan to D 170
waist to try to D 170
waist on top of D 170
wants to wear to D 169
waves to get to D 168
waves is not as D 168
waved the gun to D 168
waved me out the D 168
water is hot in D 168
water in that sea D 168
washing up and so D 168
washing in one of D 168
warping the wings to D 168
wants to wear an D 168
wanna go see the D 168
wages of sin the D 168
waged no war of D 168
waved the man on D 166
waved me off the D 166
water in her ear D 166
wages to try to D 166
waged to win the D 166
waved at all of D 164
wales to try to D 164
waves to one of D 162
watch the car as D 162
warmth of zeal in D 162
wants to ken if D 162
wanna go with us D 162
wages of men to D 162
water to thaw it D 160
wants to get re D 160
wales is now the D 160
wales is now in D 160
wagon of one of D 160
wages if you do D 160
wages is not as D 159
waves to all the D 158
waves is not an D 158
waves in air the D 158
water it with thy D 158
washing up with the D 158
wards of all the D 158
wales to one of D 158
waist to get the D 158
wagon on one of D 158
wages by law or D 158
wager of law as D 158
warps so that the D 157
waved to them on D 156
waved it out the D 156
wales to set up D 156
wages to act as D 156
waves to act on D 155
wanting to tear up D 154
walking ad for the D 154
washing to one of D 153
washing it with sea D 153
waves or rings on D 152
waved to both of D 152
waved the car to D 152
washing is that it D 152
wants to tear us D 152
waist as low as D 152
wages to pay to D 152
water of any sea D 151
waves at all the D 150
waved the tip of D 150
water the oil is D 150
washing the car by D 150
wanna go all the D 150
walking the rim of D 150
waist by way of D 150
wages so low in D 150
wages as was the D 150
waded in for the D 150
waves of heat as D 149
waves an arm at D 148
waved it off on D 148
watch the art of D 148
wants to tip the D 148
wanting to sue the D 148
waved me off in D 146
water he dug up D 146
watch the ads in D 146
watch by art is D 146
washing in with the D 146
wards in all the D 146
waive the tax if D 146
wadding on top of D 146
warning is ringing in D 144
wages if they do D 144
wages be set up D 144
waved us off as D 143
washing is that the D 143
waves in air by D 142
watts in one of D 142
waste the earl of D 142
wants to sue in D 142
walls of ice in D 142
wales is not to D 142
waves of one or D 140
waves as one of D 140
washing is not so D 140
wards on men of D 140
wants to sue us D 140
wants to dig it D 140
waist to get to D 140
waist is not the D 140
wagon at all the D 140
wages to get it D 140
wages to bring the D 140
waves the son of D 138
waved the box in D 138
waved it two or D 138
watch the fun of D 138
washing the car is D 138
wangle it out of D 138
wagon to use as D 138
wager of law by D 138
waves so that he D 136
waves of air as D 136
waves is that in D 136
waves in that it D 136
waved the air in D 136
water to oil is D 136
wants to pin it D 136
wanting to tie the D 136
wanting to rip it D 136
wages as men if D 136
waves to them as D 134
waves the gun at D 134
waves or see the D 134
waves of two to D 134
water to ice in D 134
water of our sea D 134
waste of gas to D 134
wages of men at D 134
wages at all in D 134
watch the car in D 132
wasps as big as D 132
washing it may be D 132
wards to see if D 132
wages the war of D 132
wages in one or D 132
wager is that it D 132
wafting the wings of D 132
waste of oil is D 131
waxed so dim in D 130
waves the ark of D 130
washing the car on D 130
walking on ice in D 130
waged is that of D 130
waves on both the D 128
waves by oil is D 128
watts is going to D 128
water to pan if D 128
wales to see if D 128
waist is one of D 128
wages of men of D 128
wages of men is D 128
waves of each of D 126
water the bed of D 126
wasting it all on D 126
washing of both the D 126
waiting to tie the D 126
waist as long as D 126
wages or with the D 126
waged no war on D 126
walks he met the D 125
waves of heat on D 124
waves as low as D 124
washing up out of D 124
washing is not as D 124
wants to hit us D 124
wales in that it D 124
waive the fee in D 124
wafting up out of D 124
wasps in that the D 123
wager of law to D 123
waved it for the D 122
watch the bed of D 122
washing it out by D 122
wanting in zeal in D 122
walks the mead in D 122
wales the sum of D 122
wales on one of D 122
wagon to bring it D 122
wagon by way of D 122
wages or out of D 122
waxed so that the D 121
waxed on and on D 120
waved so long to D 120
watch the row of D 120
washing the ore in D 120
wanting to hug me D 120
walking on tip toe D 120
wales is not in D 120
waist is not so D 120
wages of men by D 120
wages is apt to D 120
wages as for the D 120
waged to bring the D 120
water is fed on D 119
washing or for the D 119
waiting to rip the D 119
waves to map the D 118
waves the mean or D 118
waves of his sea D 118
waves is not in D 118
watch the fun in D 118
washing is not an D 118
wanting to rub it D 118
wagon to try to D 118
wages to buy it D 118
waged by them in D 118
waged by him in D 118
waged by any of D 118
waded in with an D 118
waded as long as D 118
waves in air as D 117
wagon to run on D 117
waves to wet the D 116
waves to bring the D 116
waved it with the D 116
water or ice of D 116
water on tap at D 116
waiting to tap the D 116
wagon is out of D 116
wages to pay in D 116
wages of sin on D 116
wages no war of D 116
wages is low in D 116
waves to her as D 114
waves of fear in D 114
waves in all of D 114
waves as this is D 114
waved to him at D 114
waved the wad of D 114
waved the bus on D 114
water or oil by D 114
water is not re D 114
washing is for the D 114
wagon or two to D 114
wagon by one of D 114
wafting to them the D 114
water or gas as D 113
waves or for the D 112
waves as can be D 112
waves an arm in D 112
waved to them or D 112
wants to seal the D 112
wanting to tap the D 112
walls of ice or D 112
waist up and to D 112
waist as thin as D 112
wadding of one of D 112
waves to him as D 110
waves on all the D 110
waves of joy or D 110
waved the bag in D 110
watch to spy the D 110
wards as long as D 110
wants to wear on D 110
wanting to hog the D 110
wages up and the D 110
wages in two or D 110
wages do for the D 110
wager the pay of D 110
waves to try to D 108
waves as may be D 108
waved the hat in D 108
waved the boy to D 108
waved the bag of D 108
waved on him as D 108
waved it with an D 108
waved at him the D 108
washing the car at D 108
wards to see to D 108
walking in mud or D 108
wales the use of D 108
wales is for the D 108
wales in all the D 108
waist as you do D 108
wages of ten to D 108
wages of its or D 108
waded in for it D 108
wales is not as D 107
waves to set up D 106
waves on one of D 106
waved the gun as D 106
water the tip of D 106
water or oil the D 106
water be hot or D 106
washing me out of D 106
wanting to seal the D 106
waiting to tear me D 106
wages is that in D 106
wages is now the D 106
wages is for the D 106
waxed so that it D 104
waves of six to D 104
waves by one of D 104
waved to him by D 104
watts as one of D 104
washing the key of D 104
walking on ice is D 104
waist in one of D 104
wagon as one of D 104
wagging the tip of D 104
wages on all the D 104
waves be weak as D 102
waved to them at D 102
water as mud in D 102
waste of wax in D 102
washing the gas by D 102
wanting to ape the D 102
wales is not at D 102
waist to wear to D 102
waist to one of D 102
wages at all or D 102
waded on and on D 102
water is then re D 101
washing so that it D 101
waves to one or D 100
waved us off to D 100
waved me off on D 100
waved me off at D 100
waved at him he D 100
water or mud at D 100
washing the car to D 100
washing it out to D 100
washing it for the D 100
washing it and the D 100
warding it off or D 100
wants to tear my D 100
wales the law of D 100
waiting to tie up D 100
wailing as they go D 100
wages at one of D 100
waged the war as D 99
waved to her on D 98
waved the bit of D 98
water to lap the D 98
water or oil be D 98
warping is due to D 98
wanting to rob us D 98
wanting to mar the D 98
waist to ease the D 98
waist to bring the D 98
waist is that of D 98
wagon to put on D 98
wagon to act as D 98
wages of two to D 98
wages in that it D 98
waged it with the D 98
waded in mud up D 98
wager it was my D 97
waged as long as D 97
waves of one to D 96
waves as that of D 96
waves as for the D 96
waved to you in D 96
water is hot it D 96
washing up had to D 96
washing up can be D 96
washing the air in D 96
wants to tear me D 96
wants to git to D 96
wants of all thy D 96
walking on mud or D 96
waist the arm of D 96
wages he has so D 96
waged to get the D 96
wants to sue an D 95
waves we use the D 94
waves to see the D 94
washing is apt to D 94
washing in off the D 94
warping the wings of D 94
wants to wear my D 94
wanna do that to D 94
waist is not as D 94
wages do not or D 94
wager my head on D 94
waves or may be D 92
waves of air by D 92
water is hot to D 92
watch the guy in D 92
washing the area of D 92
warring on men of D 92
wards to that of D 92
wants to dig the D 92
wants the guy to D 92
wants ta see ya D 92
wales so that he D 92
wales or one of D 92
waiting to nab me D 92
waiting to hit us D 92
wailing the death of D 92
wages to men in D 92
wages or for an D 92
wages of men or D 92
wards the use of D 91
wants to tie us D 91
waves do not in D 90
waved the men in D 90
water to row up D 90
water or oil it D 90
water on rye or D 90
water in each ear D 90
waste is fed by D 90
washing the tip of D 90
wants to rip it D 90
wants an art to D 90
walls to tie the D 90
walls to seal the D 90
wales so long as D 90
wagon is not in D 90
wages or pay of D 90
wages of two of D 90
waged on all the D 90
waged by one or D 90
wants to hit on D 89
waiting to row us D 89
waves in air of D 88
waves at one of D 88
waved to him or D 88
waved to her at D 88
waved the bag at D 88
watch to sow the D 88
waste of heath in D 88
wards is one of D 88
wants to dam the D 88
wants to ape the D 88
wants the seal of D 88
wanting to wring the D 88
waiting to pop the D 88
waist up with the D 88
wagging the dog if D 88
wages of this or D 88
wages of fear is D 88
wager is that we D 88
wager is that if D 88
waged by all of D 88
waves or rings of D 86
waves is and the D 86
waves at all in D 86
waved the beam of D 86
water or rub it D 86
washing it can be D 86
washing in two or D 86
wants to jam the D 86
wanna be with my D 86
walls of ice to D 86
wales to use the D 86
wagon to bring us D 86
wages we pay to D 86
wages of sin it D 86
wages is out of D 86
wages is not at D 86
wages in that the D 86
wages he may be D 86
waged the war at D 86
waged on both the D 86
waged by way of D 86
washing or going to D 85
waves to him to D 84
waves of death to D 84
waves at him as D 84
waved to get my D 84
waved it and the D 84
water to lap at D 84
water is hot the D 84
waste of all thy D 84
washing is out of D 84
washing as far as D 84
wants to sow the D 84
wants by tying up D 84
wanting to tear me D 84
wanna go out on D 84
wanna do with it D 84
wales to bring the D 84
wales it was no D 84
waiting to tear us D 84
wagon if you do D 84
wages to his or D 84
wages of ten or D 84
wages of one to D 84
wages if she is D 84
wages by two or D 84
wages at all is D 84
wafer is cut up D 84
water to seal it D 83
waved us off the D 82
waved by way of D 82
water to mop the D 82
water or fat in D 82
water on tap to D 82
warts as big as D 82
wants to pin me D 82
wants to hit or D 82
wales the age of D 82
waiting to hit me D 82
wages to run the D 82
wages at all if D 82
wages as being the D 82
waves so that in D 80
waved to each of D 80
water as thin as D 80
warping it out of D 80
wanting to tip my D 80
waiting to mop up D 80
waiting to fling the D 80
waist to let the D 80
wagon is not the D 80
wages as all the D 80
wafer so that it D 80
waded up out of D 80
wager on any of D 61
waved my hat as D 59
walks on his toe D 56
washing is due to D 55
water or oil so D 54
wanting to dig in D 53
walls of ice as D 50
wailing on and on D 50
wager on one of D 49
wards it off by D 47
wants to hop on D 47
waste of gas as D 46
wadding to fit the D 44
water is hot as D 43
wants to see yo D 43
walls so thin as D 42
waves we hear as D 41
wants to tie it D 41
wagging the dog as D 41
wages to put in D 41
watts so that the D 40
watch the dial of D 40
watch the ads on D 40
