water , " he M 63725
water , " the M 27999
watch , " he M 18777
waiting , " he M 17419
water , " as M 11720
water , " in M 10763
water , " or M 10634
warning : " the M 9568
watch , " the M 8290
wants , " he M 8180
warning : " if M 7447
warning , " he M 7103
water , " is M 6850
waste , " he M 6363
warning , " the M 6149
walking , " he M 6093
walls , " he M 5968
walls , " the M 5887
warning : " do M 5624
warns , " the M 5374
waiting , " the M 4480
watch , " it M 4322
water , " to M 4296
warning , " do M 4260
water , " it M 4142
warning : " we M 3802
waste , " the M 3709
water , " by M 3706
warning : " it M 3547
warning , " if M 3418
water , " so M 3015
wants , " the M 2974
warns , " if M 2964
water , " we M 2852
warns , " do M 2668
watch , " we M 2587
warns : " the M 2464
water : " the M 2434
wanting , " he M 2080
warns , " we M 2056
warns , " it M 2024
watch , " in M 1852
warning , " it M 1848
walking , " the M 1811
waste , " in M 1752
walls , " in M 1702
warning : " in M 1676
warning , " we M 1649
water , " an M 1608
warning : " be M 1560
watch , " or M 1436
walls , " as M 1405
warning , " be M 1398
walking , " in M 1370
water , " of M 1364
warns : " if M 1362
warning , " in M 1342
watch , " as M 1326
warmth , " he M 1258
waste , " or M 1240
walks , " he M 1220
water , " if M 1208
waste , " as M 1172
warning : " no M 1156
warns , " is M 1128
waiting , " as M 976
warmth , " the M 960
warns : " it M 934
watch , " to M 922
warning , " no M 901
water , " on M 899
water , " my M 893
warning : " he M 893
water : " it M 890
warning : " to M 886
warmth , " it M 866
watch , " is M 860
water , " at M 848
walls , " is M 848
warmth , " we M 838
warns : " do M 834
wants , " or M 818
warning , " or M 814
walls : " the M 808
warns : " we M 802
walls , " by M 798
wants , " in M 777
watch , " if M 762
warming , " the M 757
warns , " in M 734
warning , " to M 732
walking , " or M 724
waiting , " in M 692
warns , " be M 676
walks , " the M 668
warns , " to M 664
wants , " as M 662
walls , " or M 662
walls , " to M 640
walking , " as M 612
warning : " as M 611
wants , " it M 596
warming , " in M 594
wanting , " the M 592
water , " no M 585
warning , " as M 545
warns , " he M 534
water , " do M 532
waste , " is M 523
watch : " the M 518
waste , " by M 515
watch : " it M 508
waste , " it M 500
walls , " it M 496
waiting , " or M 485
waits , " he M 481
water : " in M 474
watch , " my M 472
warns , " no M 464
warning : " my M 459
wants , " is M 456
warmth , " as M 444
waits , " the M 443
warming , " he M 438
water : " we M 428
walks , " or M 426
warmth , " do M 424
watch , " by M 418
wares , " he M 414
wakes , " he M 411
watch : " we M 400
warns : " in M 388
wants , " to M 388
waiting , " it M 388
waste , " to M 383
warmth , " is M 380
water : " if M 378
warmth , " if M 358
walks , " as M 348
water : " he M 344
warning : " so M 342
warmth , " to M 336
wakes , " the M 335
warns , " as M 332
walks , " in M 324
warning , " woe M 320
watch , " so M 315
warns : " be M 310
walls , " we M 310
watch , " an M 285
warning , " is M 284
walls , " so M 284
warns : " no M 281
warning : " woe M 272
walking , " it M 268
wares , " in M 266
warmth , " or M 264
waste , " so M 260
walls , " of M 260
waiting : " the M 259
watch , " at M 258
warmth , " in M 258
wares , " the M 254
warns : " to M 252
waste , " we M 247
water : " oh M 246
waiting , " to M 241
warmth : " my M 238
waiting , " is M 236
water , " am M 234
watch , " oh M 232
wants : " the M 232
warning : " by M 227
walls : " we M 224
warning : " at M 223
wanting , " as M 221
waver , " he M 217
warmth : " it M 214
warning , " go M 211
wants , " we M 211
warning : " go M 204
warns , " an M 202
warning , " my M 201
wants , " my M 199
walls , " an M 196
water : " as M 194
waste : " the M 192
warning , " by M 192
wares , " as M 192
watch , " no M 191
warns , " or M 190
warmth , " no M 186
wanting : " the M 184
warning : " an M 180
walls : " if M 176
walking , " is M 176
waiting , " we M 176
warns , " woe M 174
watch , " do M 173
warmth : " do M 172
water : " to M 170
warmth : " no M 167
warns : " he M 166
warns : " as M 162
warning : " on M 162
warmth : " the M 162
walls , " no M 162
waste , " of M 157
water , " oh M 152
warning : " oh M 151
walking , " we M 142
walking , " by M 142
waiting , " so M 142
waiting , " an M 142
warns , " so M 140
warmth , " oh M 138
walls , " on M 138
wanting , " to M 136
waste , " an M 133
warmth : " if M 132
wanting , " is M 132
walks , " is M 131
walls : " it M 130
walls : " do M 130
waiting : " if M 130
waiting , " my M 129
walls : " in M 128
warmth , " of M 124
warming , " as M 124
waiting : " it M 123
warning , " oh M 122
water : " is M 120
walks , " we M 119
waiting , " of M 119
water : " do M 118
waned , " he M 118
watch : " if M 117
walls : " no M 117
watch , " on M 111
warming , " or M 111
warning , " so M 110
warmth : " he M 110
warmth , " my M 110
warmth : " oh M 108
wanting , " it M 108
walks , " to M 108
warning : " of M 107
water : " on M 106
water , " king M 106
walking , " to M 105
water : " so M 104
water : " my M 102
wants : " we M 102
water , " be M 100
wants : " it M 100
walls : " he M 98
wakes , " in M 97
warns , " by M 96
walking : " it M 96
warns , " my M 94
wanting , " or M 94
wanting , " in M 94
walks , " it M 94
wants , " by M 93
watch : " oh M 90
wares , " or M 90
warning , " an M 84
wanes , " he M 84
wants : " if M 83
warmth , " an M 80
walls : " my M 80
wants , " so M 79
waiting , " by M 79
wakes , " as M 62
walking , " so M 55
water : " no M 46
waiting , " at M 46
walking : " the M 45
waits , " or M 45
warns : " woe M 43
walks , " by M 43
watch , " of M 42
waste , " at M 42
warming , " to M 41
walking , " an M 41
