swing a pick or D 328
swing a pair of D 186
swing a club at D 154
swing a pick in D 148
swing a pail of D 148
swing a club or D 141
swing a fist at D 126
swing a club in D 126
swing a ship of D 90
swing a baby on D 82
