swore that i was M 2066
sworn that i had M 1640
swore that i had M 1594
sworn that i saw M 1140
sworn that i was M 986
sweet for a long M 684
sweet way i was M 622
sweet for a day M 346
sweet that i can M 344
sweet and i was M 308
sweet and a bit M 305
sweet for a man M 300
sworn that i did M 266
swore that i did M 266
sweet that i was M 222
sweet for a few M 208
sweet that i had M 194
swore that a man M 190
sworn for a year M 136
sweet for a year M 114
sweet and i did M 114
sweet that a man M 108
swore that a wet M 106
sweet that i did M 104
sworn and i did M 100
swore that i and M 98
sweet and i can M 98
swims for a few M 90
sweet but a bit M 88
sweet with a few M 86
sworn that a man M 82
swore that i saw M 82
swore that a few M 82
swearing that i was D 1073
swift was a man D 870
sword and a long D 792
sword and a gun D 648
swept her a bow D 626
sword and a bow D 606
sword that i had D 523
sword with a long D 501
sword and a few D 322
sword with a man D 295
sword and a hat D 290
swept her a low D 286
sword that i may D 276
sweating and i was D 269
swept him a low D 256
sword and a red D 248
swearing that i had D 227
sword for a long D 222
sword and a tin D 222
sword and a bag D 222
swarm for a few D 215
sweep and a new D 214
sword for a pen D 213
sword and a cap D 202
sword and a man D 188
sword with a red D 180
swept for a long D 180
swamp for a long D 171
swell for a few D 170
swell with a new D 169
swept with a new D 164
sword and a cup D 160
sweep that i had D 156
swamp for a few D 156
sword and a pen D 153
swine men i had D 150
sword and a head D 144
swamp with a few D 143
sword and i was D 132
swirl for a few D 130
swept him a bow D 130
sweep for a few D 130
sweaty and i was D 130
swaying for a few D 130
sword and a big D 122
sword for a day D 120
swish and a thud D 120
swift for a man D 118
sword was a long D 116
sword and a set D 114
swept with a long D 112
sword for a few D 110
swami was a man D 110
swears that i was D 108
sweats and a tee D 107
sword that i can D 104
swearing that i did D 102
sweating for a few D 99
sword than a pen D 96
swamp and a few D 96
sword has a long D 94
sword for a man D 92
sword with a two D 91
swine and a few D 90
sword with a ton D 86
sword and a dog D 86
swipe with a wet D 86
swearing for a long D 86
swift was a poet D 84
swift that i was D 84
swamp and i was D 82
sword for a bow D 80
swine than a man D 80
sweating and i had D 80
swell and i was D 64
sweep with a two D 56
swamp that i had D 53
sweep with a new D 49
swell and i had D 45
sword was a two D 44
sword that i was D 41
