queen was in a M 3706
quiet all of a M 3056
quite that of a M 2516
quiet and in a M 1754
quick eye of a M 1606
quote this as a M 1250
queen and as a M 1110
quite near to a M 950
quick fix to a M 910
quick fix or a M 852
queen sat on a M 826
quick cut to a M 733
quite out of a M 693
quick end to a M 682
queen was of a M 648
quote him as a M 644
queen who is a M 554
quite low in a M 522
quiet air of a M 522
quiet man in a M 510
quite easy in a M 498
quick wit of a M 492
quick and in a M 476
queen out of a M 466
query can be a M 465
quote them as a M 448
quick dip in a M 424
queen sat at a M 420
quick fix of a M 414
quote them in a M 402
queen but as a M 402
quick way to a M 398
quiet and of a M 388
quite fit in a M 374
queen sat in a M 372
quiet day in a M 366
quite low as a M 352
quick meal at a M 352
quite mad if i M 338
quiet and at a M 316
queen was on a M 316
quest may be a M 290
queen and of a M 290
quite new in a M 282
queen may be a M 278
quite dry in a M 276
quiet and be a M 274
quick death in a M 268
quote him in a M 262
quite new to a M 262
quite dead in a M 262
quick use of a M 256
quiet and go a M 248
quiet meal in a M 244
quick beat of a M 244
quick death of a M 240
queen put on a M 240
quoting him as a M 236
queen was at a M 234
quite ill as a M 230
query may be a M 230
quiet end of a M 222
quiet ease of a M 220
quick fix on a M 218
quite low on a M 210
quick meal in a M 208
queen and in a M 204
quick death or a M 200
query that is a M 198
quick death to a M 194
quite new as a M 190
quiet and on a M 184
quick and of a M 184
quoting this as a M 182
quiet one in a M 182
quick meal or a M 182
quoting them in a M 180
quite all of a M 174
quiet eye of a M 172
quiet end to a M 172
queen going to a M 170
quiet job in a M 166
quiet death in a M 164
quiet joy of a M 160
quest led to a M 158
quiet them by a M 157
quick aim at a M 156
quick fix in a M 154
queen had in a M 154
quite easy on a M 152
quiet than in a M 152
quick fix is a M 152
quote that as a M 148
quick run to a M 148
queen than by a M 148
quiet way as a M 146
queen was as a M 146
quoting him in a M 144
quick wit is a M 139
quite far in a M 136
quiet man is a M 136
quite real in a M 134
quiet and as a M 130
quote that of a M 126
quite put in a M 126
quiet way in a M 126
quite hid as i M 122
quick all on a M 122
queen that in a M 122
quite long in a M 120
quite ill in a M 118
quiet and as i M 118
quest can be a M 118
quite yet in a M 116
quiet but in a M 116
quick read of a M 116
quite fit on a M 112
quest that is a M 112
query led to a M 112
quiet death of a M 110
quite easy to a M 108
quest and as a M 108
quite apt as a M 106
quiet and is a M 105
quite real to a M 104
quiet and do a M 104
queen set up a M 104
quiet out of a M 103
quiet now as a M 102
quiet and so i M 102
quiet and if i M 102
quick path to a M 100
quoting them as a M 98
quote this as i M 98
quick death as a M 98
quite easy if i M 96
quite easy by a M 96
quote you as a M 94
quits for it a M 94
quite easy as a M 94
quiet way as i M 94
quite weak as a M 92
quite easy as i M 92
quite dead as a M 92
quiet was by a M 92
queen than as a M 92
queen being in a M 92
queen and he a M 92
quote one as a M 90
quiet meal at a M 90
quite off to a M 88
quest but as a M 88
queen can be a M 88
quits him as a M 86
quite odd in a M 86
quite new at a M 86
quiet area of a M 86
quick one or a M 86
quick death by a M 86
queen and to a M 86
quite easy if a M 84
quiet singing of a M 84
quick death is a M 84
queen had on a M 84
quite fit as a M 82
quick fear of a M 80
quote out of a M 60
quote may be a M 53
quiet can be a M 53
query one at a M 46
quote that is a M 43
queen bee in a D 738
quart out of a D 605
quill pen in a D 296
quiet hum of a D 280
quill pen on a D 247
queue one at a D 246
quite hot in a D 222
queen bee of a D 222
queer idea of a D 212
queen bee is a D 208
quill pen or a D 192
quilt can be a D 163
quiet inn in a D 158
queer things to a D 148
queer things in a D 146
quota may be a D 142
quark out of a D 142
quick tap of a D 134
queen bee to a D 132
quite fun in a D 128
quill end of a D 125
quick nap or a D 120
quilt top on a D 118
queer mop of a D 118
queue may be a D 117
queue can be a D 114
quick bath in a D 112
queer bit of a D 112
quick hug or a D 104
quick jab of a D 102
queer son of a D 92
queer man in a D 88
quilt out of a D 85
queer all of a D 78
queasy all of a D 43
