quite the same way M 85630
quite in line with M 30706
quite at odds with M 23260
quite at home with M 23016
quite the other way M 20308
quick to note that M 17010
quite as much for M 14941
quite in love with M 9548
queen of love and M 9064
quick to learn and M 8172
quite the same for M 7963
quite an early age M 7717
quite at their ease M 7682
quite as well for M 5598
quick to anger and M 5558
quite the same with M 5204
quite as much with M 4842
quite at home and M 4720
quite as well that M 4590
quick to tell you M 4520
quite the same man M 4326
quite so sure that M 3935
quite as well off M 3855
quest to find out M 3739
quick to make use M 3543
quote is from his M 3498
quick to learn that M 3103
quite as good for M 2989
quite the wrong way M 2844
quite as much out M 2693
quite as well with M 2576
quite as well and M 2454
quick to deny that M 2454
quiet the mind and M 2446
quite as good and M 2416
quite at your ease M 2400
quite so much for M 2382
queen to send for M 2196
quiet of their own M 2131
quite the case with M 2118
quite on their own M 2108
quite as true that M 2091
quite so clear that M 2083
quite as much and M 2076
quest of truth and M 2046
quite as much due M 1972
quite the same and M 1910
quick to make and M 1830
quite the word for M 1788
quite of their own M 1753
quite at peace with M 1744
quest to find his M 1722
quest of food and M 1720
quite so clear cut M 1708
quick to find out M 1629
quest to find her M 1598
quite so well with M 1584
quick to tell him M 1570
query to find all M 1527
quite so good for M 1486
quiet of your own M 1422
quite the same things M 1418
quite as clear and M 1412
quest to find and M 1404
quick to deny any M 1402
quite in vain that M 1388
quest of peace and M 1388
quiet in their own M 1362
queen to give her M 1362
quick to tell her M 1342
quote the fact that M 1331
quick to note and M 1324
quite as sure that M 1321
query the user for M 1300
quick to feel and M 1276
quite go along with M 1242
quite as eager for M 1228
quest of what was M 1226
quest of health and M 1224
queen to give him M 1222
quoting at length for M 1206
quite so clear and M 1202
quest of food for M 1178
quick of mind and M 1159
quick as ever you M 1159
quite so much now M 1124
queen at their head M 1118
quite so well for M 1106
quite the best way M 1065
quite as ready for M 1064
quick to call for M 1058
quite so well off M 1056
quite as much that M 1046
quick to note this M 1046
quick to think and M 1032
quite in vain for M 1030
quiet at home and M 1024
quick to look for M 1018
quick to show his M 1012
quest of their own M 1012
quick to lose his M 992
query to find out M 983
quick to think that M 980
quite the same but M 961
quite as great and M 956
quoting in full for M 952
quite the case that M 946
quite in step with M 946
quick to learn new M 932
quite as much his M 906
quick to learn how M 906
quite so much with M 902
quick to react and M 898
quick to show that M 890
quite as clear that M 889
quick to tell them M 880
quick to make his M 870
quite the same now M 846
quite as fine and M 844
quite as clear cut M 844
quick to take his M 844
quite as hard and M 838
quick to react with M 834
quick to give him M 824
queen to make her M 824
quest of some new M 814
quite in time for M 802
quick to find that M 796
quite so much and M 790
quick to reach for M 790
quite do away with M 782
queen to tell her M 780
quick to warn that M 776
queen of their own M 774
quite an hour and M 764
quest to know and M 760
quest to know god M 756
quite as many and M 746
quite of your way M 742
quite as many men M 742
quick to come and M 742
quite so hard and M 740
quote the last two M 739
quiet of mind and M 736
quoting the text and M 732
quiet the fears and M 725
quite the other end M 720
quite in your way M 716
quite the same idea M 710
quick to note any M 696
quite as well not M 692
quote it word for M 686
quick to feel that M 674
quite as high and M 670
quite so free with M 656
queen to make him M 652
quick to give them M 650
quick to give his M 650
quiet my mind and M 649
quest of what they M 646
quite as deep and M 642
queen the next day M 636
quick to leave you M 634
quest of some one M 632
quite as rich and M 630
quite as much owing M 628
quite as free and M 626
queen in their own M 622
quite the wrong idea M 616
quite in their own M 616
quick to side with M 614
quick to note how M 602
quick to feel for M 598
quite the young man M 595
quote in full his M 592
quiet the next day M 590
query by saying that M 590
quick to anger but M 584
quite at home now M 582
quest of those who M 582
quite so high and M 578
quite the same old M 576
quick to make this M 576
quite the time for M 567
quick to speak out M 558
queen to come and M 556
quite the best and M 554
quite so good and M 554
quite the best that M 552
quite the same that M 546
quite the case for M 546
quick to pick out M 536
queen to send her M 536
quest of love and M 535
quite as much real M 534
quiet as mice and M 534
quite as wild and M 526
quite as much use M 524
quite the best for M 521
quest to find new M 520
quite as other men M 518
quite as much was M 516
quick to note his M 516
quick to deny this M 514
quick to seek out M 510
queen to keep her M 508
quite as pure and M 506
quick to speak and M 500
quite up upon his M 498
quick to give her M 498
quite so hard for M 496
quick to love and M 494
quick to single out M 488
quite be said that M 487
quite so warm and M 486
quite as safe and M 482
quest of game and M 478
quite so ready with M 476
queen to take her M 472
quite so much out M 468
quick to turn this M 468
quick to take her M 466
quick to make that M 466
quite as well how M 462
quite as many who M 462
quite as much one M 460
quick to reach out M 458
quite as much now M 454
quick in mind and M 454
quite so well and M 452
quite as hard for M 452
quite so young and M 450
quite as much ease M 448
quick to rule out M 447
queen to come out M 444
quiet at home for M 442
quick to draw his M 442
quest to seek out M 442
quick to rise and M 440
quick to call him M 430
quest of wealth and M 430
quick to turn his M 426
quote is from her M 424
quite an early day M 420
quick the days are M 420
quest to find god M 419
quite to their own M 418
quite on your own M 416
quest to find him M 416
quite so well this M 414
quite so cold and M 414
quite as true and M 412
quick to take this M 412
quoting the fact that M 411
quick to show her M 410
quite the only one M 409
quest of work and M 408
quite to make out M 406
quiet in mind and M 404
quite so clear why M 402
quiet the last few M 399
quite so much that M 398
quite so free and M 398
quite so dark and M 398
quite as good but M 398
quite as true for M 390
quest of wood and M 390
queen of love was M 390
quote is from one M 389
quote in your own M 388
quick to learn but M 388
quite as good with M 382
quick of hand and M 380
quite in your own M 378
quest to find that M 378
quite the same set M 377
quite as wide and M 376
queen to have her M 376
quite as warm and M 374
queen so much that M 374
quick of hearing and M 372
quite so fast and M 368
quite so deep and M 368
queen to whom they M 368
quite as fast and M 366
quick to take him M 366
quite as full and M 362
quick to pull out M 355
quite as just and M 354
quiet of body and M 354
quest to save his M 354
quest to learn how M 354
query the need for M 354
quite be sure that M 350
quite as their own M 350
queen to know that M 349
quote is from new M 345
quite an open one M 342
queen to join him M 342
quote at length his M 340
quite as ready and M 340
quite as many are M 340
quick to take all M 336
quick to show its M 336
quick to hand out M 336
quick to find his M 336
queen of peace and M 336
quite the same one M 335
quite to have got M 330
quick to tell his M 330
queen to show her M 330
quite the best man M 329
quite as wise and M 328
queen is more than M 328
quick to learn all M 326
quite as young and M 324
quick to note her M 324
queen to make use M 324
quite the same any M 323
queen to send him M 322
quite so soft and M 318
queen to part with M 318
query to list all M 317
quote it here for M 314
quite as clean and M 314
quiet of those who M 314
quick to turn them M 314
quite to know how M 312
quite so full and M 312
quite as able and M 312
quick to speak his M 312
quest to find them M 312
quite of your own M 310
quick to take them M 308
quote no more than M 304
quite so loud and M 304
quite as much awe M 304
quoting the last two M 302
quite the great man M 302
quite so pure and M 302
quite as great for M 302
quite as good men M 302
quite as cool and M 302
quick to help her M 302
quite as ugly and M 298
quite so much can M 296
quite so clear how M 296
quite as ready with M 296
quite as loud and M 296
queen to save her M 296
quite up there with M 294
quite so sure now M 294
quick to know and M 292
quick to call them M 292
quiet in there and M 290
quick to find and M 290
quite so bold and M 288
quite as much our M 288
quick to learn this M 288
quick to give you M 288
quest of fish and M 288
quiet the pain and M 287
quite so rich and M 286
quite as much heat M 286
quote in full but M 285
quite as many for M 282
quiet of home and M 281
quiet the past few M 280
quest to learn and M 280
queen to leave her M 280
queen of what had M 280
quote at length and M 279
quite the wrong one M 278
quite the wrong man M 278
quite the same men M 278
quiet in your own M 278
queen of life and M 278
queen of land and M 278
quite at their own M 276
quite so angry with M 274
queen to give them M 274
quite as dark and M 272
quick to move and M 272
quick to feel any M 272
quite the same boy M 271
quite the rage for M 270
quite as cold and M 270
quick to help him M 270
quest to save her M 270
quote the last few M 268
quite as fair and M 268
quiet by giving them M 268
quick to take any M 268
queen to take this M 268
quite as good eating M 267
quiet by giving him M 266
quite so clear for M 264
quick to obey his M 264
queen to whom all M 264
quiet the body and M 263
quite the same ease M 262
quite the other day M 262
quite as open and M 262
quick to note its M 262
quick in coming and M 262
quite the same path M 260
quite so good with M 260
quick at seeing things M 260
quote to show that M 259
quite as much fear M 258
quick to load and M 258
queen as their head M 258
quiet the fact that M 257
quote in their own M 256
quite as well now M 254
quite as much may M 254
quick to show how M 254
quoting to show how M 252
quite to like him M 252
quite so many men M 252
quite as much her M 252
quiet to think out M 252
quick to learn his M 252
quick of step and M 252
quick to come out M 250
quest to find this M 250
quest to find one M 248
query the data and M 247
quite at peace and M 246
quite at home for M 246
quest to look for M 246
queen is young and M 246
quite as many things M 244
quick to part with M 244
quiet up till now M 243
quiet in body and M 243
quite so wide and M 242
quite as angry with M 242
quick to make its M 242
quite so much this M 240
quick to turn and M 240
quick to feel all M 240
quick of life and M 239
quote to show how M 238
quite so well how M 238
quite so great and M 238
quite so eager for M 238
quick to plan and M 238
quick to grow and M 238
quest to root out M 238
quite as much joy M 236
quite an aged man M 236
quick to make her M 236
quite as much has M 234
quits the sign and M 232
quite the fool you M 232
queen to whom this M 232
queen to make his M 232
queen the other day M 232
queen of your own M 232
quite so sure and M 230
quiet in their new M 230
quest to make his M 230
queen of gods and M 230
quote in full and M 228
quite the rule for M 228
quite as soft and M 228
quite as much had M 228
quick to work out M 228
quick to take off M 228
quick to join him M 228
quick to call this M 228
quite so true for M 226
quick to know that M 226
quick to help out M 226
quite the same age M 224
quite so open and M 224
quite as keen and M 224
quite as heavy and M 224
queen to help him M 224
quite so much his M 222
quick to give and M 222
quest of truth for M 222
quest of life and M 222
quote the saying that M 220
quiet the room was M 220
queen to thank her M 220
quite the same two M 219
quite so trim and M 218
quite so clear with M 218
quick to turn her M 216
quite so many things M 214
quite so good but M 214
quite an able man M 214
query to look for M 214
quite the form that M 213
quiet by giving her M 212
quiet is what you M 211
quote at length one M 210
quits the body and M 210
quote in full this M 208
quite an hour ago M 208
quite so much heat M 206
quite so fine and M 206
quite as poor and M 206
quest of arms and M 206
quest is more than M 206
queen in your own M 206
quite so soon and M 204
quite so much but M 204
quite as bold and M 204
quiet at last and M 204
quick to speak her M 204
quick to help and M 204
quoting at length and M 202
quite so sure how M 202
quite so ready for M 202
quite as many new M 202
quite as fast but M 202
quick to call out M 202
quite so hard now M 201
quote is from this M 200
quick to pick this M 200
query to show all M 200
quite as much can M 199
quite the same all M 198
quiet in fact that M 196
quick to pick them M 196
queen of love had M 196
queen is sure that M 196
quite to lose its M 194
quite so heavy and M 194
quiet to think and M 194
quick to move out M 194
quick to mark and M 194
quest to make this M 194
quest of union with M 194
quite the last man M 193
quite so dull and M 192
quite as like one M 192
quite as calm and M 192
quite an item for M 192
quick as ever she M 192
quoting my lord and M 190
quite the rage now M 190
quite so wild and M 190
quiet to those who M 190
quick to work with M 190
quest of land and M 190
quick to warn him M 188
queen it over them M 188
quite the best one M 186
quite so fair and M 186
quite so clean and M 186
quite in time with M 186
quick to help them M 186
quite so early and M 184
quick to find this M 184
quick as ever they M 184
quiet of those that M 182
quiet be nothing but M 182
quest of truth was M 182
quest of rest and M 182
quote is more than M 181
quote at length for M 181
quite the rage with M 180
quite so calm and M 180
quite as high for M 180
quite as dull and M 180
quiet at home with M 180
queen is very ill M 180
quite the same had M 178
quite as much its M 178
quick to show off M 178
quest to find our M 178
query is less than M 178
queen to tell him M 178
quite the same air M 177
quite the norm for M 177
quote the other day M 176
quick to work and M 176
quick to take and M 176
quick to obey and M 176
queen the same day M 176
quite as good now M 174
quite as clear for M 174
quiet the room had M 174
quick to take out M 174
quick to send his M 174
quick in making his M 174
quite at home yet M 173
quiet the fears that M 173
quite as true now M 172
quite as nice and M 172
quite as just may M 172
quite as eager and M 172
quick to feel this M 172
quick to draw and M 172
quest of truth are M 172
quest of more and M 172
quote it only for M 170
quite so poor and M 170
quite so cool and M 170
quite do what you M 170
quiet at once and M 170
quick to join with M 170
quick to form and M 170
quick to take its M 168
quick in dealing with M 168
quick in anger and M 168
queen in love with M 168
quite as safe for M 166
quiet as when they M 166
quick to lend his M 166
quick to call her M 166
quest of wealth who M 166
quite the word she M 164
quite as well had M 164
quite as safe with M 164
quick to give its M 164
quiet the baby and M 163
quite the same nor M 162
quite so good now M 162
quite at once that M 162
quite as much wit M 162
quiet as when she M 162
quick to make them M 162
quoting to show that M 161
quite as well out M 161
quoting at length his M 160
queen to break off M 160
queen it over her M 160
queen in peace and M 160
quite as free with M 158
quick to learn any M 158
quoting in full his M 156
quite the wrong end M 156
quite the mode for M 156
quiet on their own M 156
quick to show them M 156
quest to learn all M 156
quest is over and M 156
query is used for M 156
queen to whom she M 156
quite the same easy M 155
quite the same awe M 154
quite as early and M 154
quick to lose her M 154
quite as much this M 153
quick to take that M 153
quite to leave him M 152
quite to come off M 152
quite as well but M 152
quiet the heart and M 152
quick to help each M 152
quick to find them M 152
quick to fill them M 152
quick at such things M 152
quest to make things M 152
queen on their way M 152
queen no less than M 152
quick to urge that M 151
quote at length this M 150
quite to your own M 150
quite so high for M 150
quite be said for M 150
quite as great with M 150
quick to pick things M 150
quick to note them M 150
quick to learn her M 150
quest to show that M 150
quote no less than M 148
quite the name for M 148
quite do what they M 148
quite as sure and M 148
quite an angle with M 148
quiet in here and M 148
quick to tears and M 148
quick to join them M 148
quick to give way M 148
quick to find any M 148
quest to find its M 148
quest of other and M 148
quest of more than M 148
quick to give god M 147
quite so fast now M 146
quite an open and M 146
quick to show him M 146
quick to send out M 146
quick to form new M 146
quick to find new M 146
quest to make our M 146
quest of more things M 146
queen as their own M 146
quote in full one M 144
quite as much but M 144
quite as kind and M 144
quite an idle man M 144
quick to learn things M 144
quick to help with M 144
quest of those things M 144
quest of meaning and M 144
quite as great that M 143
quote in full for M 142
quite the same this M 142
quite the rage and M 142
quite the life and M 142
quite as rare and M 142
quite be made out M 141
quiet the mind thus M 141
quoting the saying that M 140
quite the word that M 140
quite the same then M 140
quite so much had M 140
quite an early one M 140
quest of your own M 140
queen to those who M 140
query the fact that M 139
quite the same each M 138
quite as busy with M 138
quiet to have his M 138
quick to save his M 138
quick to feel its M 138
quiet my heart and M 137
quick to help you M 136
quick to draw out M 136
quick in giving her M 136
quick he will not M 136
quest to know who M 136
quest to free his M 136
quest of health for M 136
quite the rule that M 135
quite so bleak and M 134
quite as well then M 134
quick to join her M 134
quick to deny his M 134
quest of truth has M 134
quite at home but M 132
quite as well this M 132
quiet the mind than M 132
quick to warn her M 132
quest in life was M 132
query is made for M 132
query is asking for M 132
quiet it down and M 131
quote the text and M 130
quite the ways that M 130
quite the kind that M 130
quite so high but M 130
quite at length and M 130
quite an ideal one M 130
quick to fill with M 130
quest to clear his M 130
quick in seeing that M 129
query on more than M 129
quote is from that M 128
quite so well now M 128
quite so much was M 128
quite so many new M 128
quick to call his M 128
quest to make her M 128
quest to break out M 128
quote the third and M 126
quote the poets and M 126
quite to lose his M 126
quite so sure she M 126
quite at your own M 126
quite at rest and M 126
quick to cast off M 126
quick at these things M 126
quest of game for M 126
queen to treat with M 126
queen to take him M 126
quiet we will not M 125
quiet of those old M 125
quite the same use M 124
quite so high with M 124
quite as high but M 124
quiet as there was M 124
quick to stop him M 124
quick to note all M 124
quick to feel his M 124
quick to cool off M 124
quest of peace with M 124
query the same way M 124
queen is among them M 124
quiet my heart with M 123
quite so well but M 122
quiet in there for M 122
quick to jump out M 122
quick to give out M 122
queen to urge her M 122
queen to thank you M 122
queen to take his M 122
queen to save him M 122
quits the sage and M 120
quite to shut out M 120
quiet up there and M 120
quiet in there now M 120
quick to warn his M 120
quick to sell out M 120
quick to leave his M 120
quick to help his M 120
quick to break out M 120
quick of cold death M 120
quest of truth with M 120
quest of jobs and M 120
queen to have all M 120
queen of love her M 120
quite to reach this M 118
quite to have won M 118
quite so sure they M 118
quite so much any M 118
quite in health and M 118
quite as much men M 118
quiet to think things M 118
quick to sort out M 118
quick to make new M 118
quick to fill this M 118
quick in their own M 118
quest to seek and M 118
quite the same can M 117
quiet up till then M 117
quoting at length not M 116
quite the same fear M 116
quite an item and M 116
quick or great with M 116
quest to reach out M 116
quest of gain and M 116
queen to trial was M 116
queen to call this M 116
quest of peace that M 115
quoting in full and M 114
quote it from that M 114
quite to reach that M 114
quite in pain for M 114
quite as much too M 114
quite as fast with M 114
quiet on their way M 114
quiet in case they M 114
quick to warn them M 114
quick to copy and M 114
query he said that M 114
queen to have him M 114
quiet the other two M 113
quoting if only for M 112
quote to those who M 112
quite in what way M 112
quick to make him M 112
quick to leave her M 112
quick to grab her M 112
quick to cite this M 112
query the user and M 112
quite to wrong her M 110
quite to make her M 110
quite so clear but M 110
quite of late that M 110
quick to find him M 110
quick or slow and M 110
queen to take all M 110
queen to give way M 110
quoting it word for M 108
quite the word you M 108
quite on fire with M 108
quiet to their own M 108
quick to send her M 108
quick to reach his M 108
quick to meet them M 108
quick to fill out M 108
queen to tell you M 108
queen of more than M 108
queen in case she M 108
quote in full all M 106
quite so good this M 106
quiet the town has M 106
quick to talk and M 106
quite so young any M 104
quite as slow and M 104
quite as keen for M 104
quite an able and M 104
quick to take things M 104
quick to pull his M 104
quick to open his M 104
quick to meet any M 104
quick to lose its M 104
quick to give all M 104
quick to fall for M 104
quest to keep her M 104
quest to have his M 104
quest of their meal M 104
quest of faith for M 104
queen to help her M 104
queen to have any M 104
queen of what was M 104
quiet of peace and M 103
quote the rate for M 102
quote it here with M 102
quote it from his M 102
quite to fill his M 102
quite so cold now M 102
quite in fact that M 102
quiet to make his M 102
quick to obey him M 102
quick to note with M 102
quick to find its M 102
quest to sort out M 102
queen is such that M 102
queen at home and M 102
quite the depth and M 101
quite so young now M 101
quite as well mean M 101
quote at length its M 100
quits the room and M 100
quite in their old M 100
quiet the city was M 100
quick to turn any M 100
quick to pity and M 100
quick to learn than M 100
quick to join you M 100
quest to have her M 100
queen to their own M 100
queen to find out M 100
quote of more than M 99
quote the great poet M 98
quote the date and M 98
quite to know who M 98
quite the fool that M 98
quite so safe and M 98
quite so great but M 98
quite as well you M 98
quite as vain and M 98
quite as ideal and M 98
quite as good use M 98
quite an hour had M 98
quick to turn its M 98
quick to turn him M 98
quick to think you M 98
quick to think they M 98
quest to keep his M 98
quest of food than M 98
query to work with M 98
queen to take any M 98
queen to have his M 98
quite or more than M 97
query is more than M 97
quite to know why M 96
quite the type for M 96
quite the fact that M 96
quite so open with M 96
quite so great for M 96
quite at rest with M 96
quite as well read M 96
quiet so deep that M 96
quick to play one M 96
quick to open and M 96
quick to cite his M 96
quest of gain with M 96
queen to keep him M 96
queen no more was M 96
quiet of life are M 95
quick to hold that M 95
queen to think that M 95
quote the next two M 94
quite so nice and M 94
quite so hard with M 94
quite in their way M 94
quite as much then M 94
quite as high now M 94
quick to send him M 94
quick to sell off M 94
quick to note our M 94
quick to move his M 94
quick to keep all M 94
quick to hate and M 94
quick to draw this M 94
quick to break off M 94
quick to back off M 94
quick as most men M 94
query is sent out M 94
queen in some way M 94
quite the same area M 93
quite the book that M 93
quiet up here and M 93
quite the truth but M 92
quite the best men M 92
quite so much ease M 92
quite is gone and M 92
quite do what was M 92
quite as much put M 92
quiet the mind for M 92
quiet the last two M 92
quick to tell all M 92
quick to hint that M 92
quick to help one M 92
quick to gain new M 92
quick to form his M 92
quick to find her M 92
quest to work out M 92
quest to know his M 92
quest of ways and M 92
query the data using M 92
queen to live with M 92
queen to lend her M 92
queen to lack due M 92
queen to keep his M 92
queen of hell and M 92
quoting in their own M 90
quite the leading man M 90
quite so high nor M 90
quite so fast but M 90
quite at home all M 90
quiet in heart and M 90
quick to hide his M 90
quick to anger with M 90
quite the best things M 89
quiet the young man M 89
quote the next few M 88
quite so much then M 88
quite so much red M 88
quite at rest out M 88
quite as bleak and M 88
quiet at home was M 88
quick to ward off M 88
quick to seek and M 88
quick to pass out M 88
quick to make any M 88
quick to fire off M 88
quick to drop out M 88
quick to break with M 88
query of those who M 88
queen so young and M 88
quite the same job M 86
quite be ready for M 86
quite as much why M 86
quiet at work was M 86
quick to tell our M 86
quick to take our M 86
quick to mark any M 86
quick to drop them M 86
quick to drop his M 86
quick to draw her M 86
quick to deny they M 86
quick to deny all M 86
quest to know how M 86
quest to gain and M 86
quest of help and M 86
queen of peace was M 86
queen he came too M 86
quite the sort that M 85
quiet he will not M 85
quest of these that M 85
quite to play with M 84
quite so keen and M 84
quite so bare and M 84
quite as well say M 84
quite an item with M 84
quick to turn off M 84
quick to stop and M 84
quick to lend its M 84
quick to hide her M 84
quick to call you M 84
quick in word and M 84
quest to meet his M 84
queen is laying her M 84
queen is fine and M 84
queen by making her M 84
queen at what they M 84
quoting the last few M 82
quits the ship and M 82
quite so true now M 82
quite so mild and M 82
quite so just and M 82
quite in time and M 82
quite in rule that M 82
quite at rest for M 82
quite at length with M 82
quite at home both M 82
quite as true with M 82
quite as daring and M 82
quite an hour with M 82
quiet me down and M 82
quick to show you M 82
quick in such things M 82
quest to seek for M 82
quest to find you M 82
quest of truth than M 82
queen to mate with M 82
queen to make one M 82
quote it from any M 80
quite to like her M 80
quite so young nor M 80
quite ring true and M 80
quite as well they M 80
quiet at home now M 80
quick to stop her M 80
quick to leave them M 80
quick or slow death M 80
quest of food with M 80
queen to meet him M 80
queen to know how M 80
queen do what she M 80
quite the same being M 66
quite so well that M 60
quite so much read M 53
quote is less than M 52
quote in full that M 52
quite the same mix M 51
quiet of mind that M 51
queen to make out M 51
quiet is good for M 50
quite the last few M 48
quite the same was M 47
quite the wrong path M 45
quite as good that M 45
quiet my fears and M 45
quick to step out M 45
quest of those that M 45
quite the same joy M 44
quite the form they M 44
quite the meaning that M 43
quite the best bit M 43
quite as much god M 43
quiet of their old M 43
quite the wrong things M 42
quiet of home had M 42
quick to find one M 42
quiet so much that M 41
quite the rage this M 40
quart of milk and D 6272
quite in tune with D 5686
quirk of fate that D 2846
quart of milk for D 2743
quite as much fun D 2700
quart of milk per D 1685
quest of gold and D 1644
queer to think that D 1271
quart of wheat for D 1177
quart of milk each D 1174
quite so much fun D 1142
quart of beer and D 1137
quilt up over her D 995
quirk of fate had D 937
quota by more than D 898
quart of wine and D 895
quote at least one D 894
quiet to ride and D 772
queue is full and D 762
quest of fame and D 728
queue to wait for D 719
quart of milk with D 718
quart of sack and D 698
quart of good ale D 692
quick to spot and D 642
quite an inch long D 614
quart of milk was D 608
quilt is more than D 607
quota of seats for D 598
quota is less than D 596
queue is used for D 594
quite in sync with D 578
quite as much zeal D 574
quilt to keep them D 568
quick to lash out D 554
quell the riots and D 537
quite as tall and D 536
quite an inch and D 534
quick to spot any D 532
quota of imps for D 518
queue is less than D 517
quart of wine for D 516
quota of less than D 508
quota of those who D 496
queer as folk and D 496
quite so sunk that D 495
quick to spot this D 488
quart of corn meal D 484
quick to spot that D 482
quirk of fate and D 474
quart of milk than D 468
quart of beer for D 457
quart of cream and D 439
quota of young men D 432
quilt up over his D 422
quart of milk that D 421
quota of more than D 414
quiet in tone and D 394
quill in hand and D 386
quart of corn per D 384
quick to make fun D 382
quick of foot and D 375
quite so tall and D 360
quiet at least for D 360
quota of work for D 354
queer to tell you D 336
quick to cook and D 328
queue of cars and D 326
quote the late sir D 322
quota in gold and D 318
quota of iron and D 308
quilt on your bed D 296
queue of more than D 296
quart of warm ale D 294
queue of those who D 288
quirk of fate was D 283
queen of arts and D 274
quota of their own D 264
quick to throw out D 264
quite as firm and D 260
quash the writ and D 256
quite as thick and D 248
quick to spot new D 244
quota of rice and D 240
quart of milk has D 240
quota of food and D 232
queen of rock and D 228
quoting at least one D 224
quota of work and D 222
quota of jobs for D 222
quest of nuts and D 220
quell the rioting and D 220
quill or reed pen D 218
quite so pious and D 216
quart of corn and D 212
queen of gems that D 210
quart of beer per D 210
quart of ginger ale D 208
quirk of fate they D 202
quick to poke fun D 200
quart of mind with D 198
quirk of fate has D 197
quirk of fate she D 194
quest of gold being D 192
queer as folk was D 192
quart of beer with D 188
quota of arms and D 184
quota is more than D 184
quote at least two D 178
quart of salt and D 178
quota of land tax D 176
quite so thick and D 176
quiet as bees and D 176
quart of milk are D 174
quest of miss mac D 172
quell the riots that D 171
queue of young men D 170
quart of wine being D 170
quite so firm and D 168
quart of very hot D 164
quart of milk add D 164
quick to spot his D 162
queer to think how D 156
quart of milk may D 156
queer to those who D 152
quick to mete out D 150
quart of milk you D 150
quite in tone with D 148
quart ring mold and D 147
quota in less than D 146
quick to spot them D 146
quiet in camp and D 144
quell the fears and D 144
quart of soup and D 142
quiet the pope and D 140
quest of bread and D 140
quart of milk can D 140
quota of time and D 138
quiet in your bed D 138
quick to spot its D 138
queer is more than D 138
quota to meet and D 136
quick to throw off D 136
quota to fill and D 134
queer in some way D 133
quite so raving mad D 132
quart of wine with D 132
quite in tune and D 130
quite as flat and D 130
quiet in camp all D 130
quite so spry and D 128
queue if there are D 128
quart of rice and D 128
quart of milk out D 128
quite to have hit D 126
quite as much art D 126
quite as cheap and D 126
quirk of fate this D 126
quest of furs and D 126
quota of work was D 124
quite as much per D 124
quite the same zeal D 123
quell the anger that D 123
quite as ripe for D 122
quick to vote for D 122
quick on your toes D 122
quota of arms for D 118
qualm of pity for D 118
quake to think that D 118
quite so ripe for D 116
quest of deer and D 116
quota of only one D 114
quest of eggs and D 114
quilt is made with D 113
queer to have him D 113
quota of food for D 112
quart or more and D 112
quota of wheat and D 110
quilt of your own D 110
quiet the soul and D 110
quest of seals and D 110
quart of fish oil D 110
quite so pale and D 108
quilt of rags and D 108
quest of loot and D 108
queer to feel that D 108
quart of milk she D 108
quart of cream with D 108
quart of bone meal D 108
quote is from sir D 106
quite as rude and D 106
quick in damp earth D 106
quilt on their bed D 104
queue to hold all D 104
quash the writ for D 104
quart of beans and D 104
quota of gold and D 102
quest of news and D 102
quack to take out D 102
quilt up over them D 101
quota of three per D 100
quilt up over him D 99
quite the full swing D 98
quite as lief see D 98
quiet of soul and D 98
quick to wrath and D 98
quick to throw his D 98
quest to cope with D 98
quell the rising fear D 98
queer in their own D 98
quart of oats and D 98
quote is from jean D 97
quota of pain and D 96
quota in their own D 96
quirk of fate you D 96
quilt of blue and D 96
queue to find out D 96
quart or more per D 96
quilt to keep her D 94
quart of wheat and D 94
quota of rice for D 92
quirk of fate his D 92
quick to bail out D 92
queue of cars was D 92
queue is very long D 92
quart of wine was D 92
quilt of more than D 90
quart of milk but D 90
quota of milk and D 88
quota of great men D 88
quite to suit his D 88
quite so rosy for D 88
quite as tame and D 88
quite as good fun D 88
quick to whip out D 88
quart of pure oil D 88
quite so rude and D 86
quick to spot him D 86
quite so cheap for D 84
quite so cheap and D 84
quite as well fed D 84
quick to scan and D 84
queue to wait its D 84
quart of corn for D 84
quilt of their own D 82
quiet by tearing his D 82
queue is full are D 82
queer thing when you D 82
quart of salt but D 82
quota of such men D 80
quite so glib with D 80
quite as grim and D 80
quite an outing for D 80
quick to throw them D 80
queen to dine with D 80
queer to think she D 52
quite the zest and D 47
quell the fears that D 47
quirk of mind that D 45
quick the teeth that D 45
quick to brag that D 42
queer to come out D 42
quell the pain that D 41
