range in size from M 197333
ranging in size from M 174254
range in length from M 38461
ranging in length from M 30167
rate is very high M 22852
ranging in date from M 15117
rate of bone loss M 15048
rare in those days M 12796
range of health care M 10386
range in date from M 9878
ranging in ages from M 7488
rate of mass loss M 6394
ranging in depth from M 6277
rate of work done M 6238
rate of flow from M 5722
rate of just over M 5694
range in width from M 5644
ratio is very high M 5558
ranging in width from M 5544
rare in these days M 5122
rate is very slow M 4880
range in cost from M 4862
ranging in time from M 4843
rare to find such M 4808
rate of mass flow M 4720
range in depth from M 4698
rate of flow into M 4558
rain is coming down M 3937
range is very wide M 3832
range of data from M 3525
range in time from M 3466
rate of flow will M 3434
ratio of their areas M 3432
rate is much less M 3371
rate of loss from M 3302
rare to find more M 3094
rate is much more M 2833
rate of cell loss M 2814
rate of well over M 2694
rain to fall upon M 2612
rate is also high M 2558
rate it will take M 2539
rate of deaths from M 2532
rate is very much M 2474
ranging in cost from M 2346
rage at having been M 2265
range to copy from M 2228
rate to have been M 2200
rain no rain upon M 2163
rain of your land M 2146
ratio of deaths from M 2108
ratio is much less M 2100
rate of from three M 2002
rare to find even M 1995
ratio of work done M 1926
range is much more M 1922
range of their work M 1882
rate of flow during M 1868
range is much less M 1829
range in form from M 1810
range of other areas M 1746
range of very high M 1710
rate of flow must M 1665
rain of ruin from M 1654
range of ages from M 1637
rate of three feet M 1616
rate of from four M 1613
rate is very fast M 1606
rare to find among M 1600
range in type from M 1542
rate of from five M 1534
rate of duty upon M 1506
ratio is much more M 1502
rate of pure time M 1498
range of high land M 1495
rate is also very M 1493
rate of living theory M 1458
rare in early life M 1446
range at will over M 1436
rain to wash away M 1424
rate of flow over M 1374
range of land uses M 1371
range of their ideas M 1346
ranging in type from M 1344
rate is even more M 1327
rate is high among M 1312
rare to find these M 1284
rate of exit from M 1283
ratio is even more M 1278
range is very great M 1274
range of ideas from M 1266
range of areas from M 1244
range of other health M 1242
range of just over M 1227
rain of fire from M 1222
range of areas such M 1213
rate we have been M 1212
rate of health care M 1210
rare or very rare M 1196
ratio of their cost M 1186
rate in these areas M 1173
range is very much M 1165
rate in those days M 1156
ranging in mass from M 1145
rate he sets upon M 1144
range of time from M 1144
rate to slow down M 1142
rate he must have M 1130
range of data sets M 1123
rate of gain from M 1110
rate of five feet M 1102
rain or snow will M 1100
range is from zero M 1091
rate or some other M 1090
range of jobs open M 1089
rate of saving will M 1078
rain to come down M 1062
rare to have more M 1045
ratio is very much M 1040
rain or snow from M 1028
rate in some areas M 1020
rate is also used M 998
rate of fire from M 994
rate it must have M 984
rare or well done M 982
range of data used M 977
range of work from M 974
ranging in form from M 952
rate of over three M 940
rate to rise from M 934
ratio of live load M 930
rate of four feet M 920
range of body size M 917
ratio of these three M 912
range of other uses M 900
rate of only three M 895
range of work done M 890
range of fire from M 878
ratio of just over M 876
ratio to their size M 866
ranging in years from M 858
rate is only half M 846
rate of some three M 841
rare thing these days M 836
range is from less M 826
rate of flow past M 821
range of well over M 820
range is only from M 806
rate of loss will M 798
rate of data flow M 798
rate of duty from M 792
range in mass from M 784
rate of only four M 776
rain or snow fell M 774
rare to have such M 770
range of heart rate M 770
rate of duty will M 764
range of other data M 757
rate of over five M 752
rate is high when M 750
range of flow rate M 749
ratio is more like M 744
rate the heart rate M 744
rare in most other M 744
rare to very rare M 742
range is even more M 741
rate of only five M 738
rate at five years M 734
rate to fall from M 733
rate we have seen M 727
range of these data M 725
ratio is also used M 724
range as seen from M 720
range of over three M 718
range of other ways M 715
range of from three M 708
rain to fall from M 700
range in ages from M 696
rate of saving from M 694
ratio or acid test M 692
rate in five years M 686
rain on your face M 683
ratio of these areas M 674
rare to find those M 666
rate of flow when M 663
range of jobs from M 663
rain on your land M 663
rate of hair loss M 662
range of view from M 660
rage in those days M 658
ratio of their mass M 657
range of other more M 656
rate of some five M 646
range of time over M 642
ratio of mass flow M 640
ratio of their length M 637
rate is just over M 636
rate is used when M 632
range of hearing loss M 630
rate he will have M 626
rate in those years M 620
ratio of body length M 618
rate of some four M 618
range of these three M 618
rate to have lost M 612
range of their fire M 610
range of time during M 608
rate is also much M 594
rate at some time M 592
range of meaning from M 592
rate of flow along M 590
rain or some other M 582
ratio of their ages M 576
range in body size M 576
rare in some areas M 570
rate of rise will M 568
rate is well over M 568
rare in most areas M 568
rare in many areas M 564
range of uses from M 562
rate of over four M 553
ratio of flow rate M 548
rate of aids among M 548
rate is high during M 548
range of three feet M 546
rain is very heavy M 546
rate of hearing loss M 544
range of much more M 544
ratio of those aged M 541
range of from four M 540
ratio is also very M 535
rate of gain during M 535
rate of those aged M 530
range of from five M 528
rate we will have M 526
range of only three M 526
rain or snow fall M 526
rain is very rare M 522
rare in very young M 518
range of body mass M 518
rate of rise during M 516
ratio is also high M 514
rate of loss during M 514
rate to make sure M 504
range of what were M 504
rain in three days M 503
range of mass flow M 501
range of home care M 501
range in meaning from M 500
rate it very high M 495
rare to find many M 492
rate of other poor M 490
rate of free fall M 482
rate in these years M 482
rain to your land M 482
rare to come upon M 480
range of early years M 478
range is from three M 478
range of their reading M 476
rate or heart rate M 475
rate in some other M 474
rain is much more M 474
range is very high M 470
range of many other M 468
range is also very M 466
ratio of body mass M 464
range of size from M 462
rate of gain will M 460
rate at time zero M 459
range of those used M 458
range to make sure M 457
range of test data M 457
rate to take into M 455
range of from zero M 455
rate we have here M 454
range of your data M 454
rate to vary from M 452
range of their heavy M 452
ranging in size down M 450
range of other work M 450
rate is more like M 446
rate it will have M 443
rate of land loss M 440
rate of fall will M 438
rare in other areas M 434
rate is zero when M 430
range of their bows M 428
range of ages among M 428
rate if there were M 427
rate is very poor M 426
rate the flow rate M 425
rain to pour down M 424
range of only five M 423
range of five years M 423
rate of deaths among M 422
ratio of length over M 420
rate of mass gain M 412
rate in many areas M 412
range of other food M 412
range of their life M 407
rate of flow were M 406
rare to find some M 406
rate of saving must M 398
rate in those areas M 397
rare of late years M 396
range of four years M 395
rare in these areas M 392
range of other less M 391
rain of early spring M 390
raging in full fury M 390
rate of these three M 389
rate is high even M 388
range of less well M 388
rate of some other M 384
ratio or odds ratio M 382
rare as great poets M 382
range of some tens M 382
rain or even snow M 381
rate of over half M 379
rate of work will M 378
range of time when M 378
rain is beating down M 378
ratio of these four M 376
ratio of health care M 374
rate or other term M 372
rare to find only M 371
rate is very good M 370
range of other means M 368
range of only four M 366
rage of those whom M 364
rate of their kind M 362
range of these ideas M 362
rate in early life M 360
range of cell size M 360
range in body length M 360
range of those from M 358
rain or snow when M 357
ranging at their will M 354
range of other jobs M 354
rain or snow upon M 353
rare in their kind M 352
rain or snow during M 352
rage in their eyes M 350
rate the birth rate M 348
rate of rise from M 348
ratio of tail length M 344
rain in your hair M 341
rare to find other M 340
rare to find much M 340
rate in three years M 338
range at will among M 338
rain in your face M 338
rate of fall from M 336
rate of three years M 334
rate or rate range M 332
range of from less M 332
range of over four M 331
range of three years M 329
ratio or such ratio M 328
ratio of these odds M 328
rate to take care M 328
ranging in meaning from M 328
rate of those living M 327
ratio of well over M 326
rate of fire made M 326
rate at very high M 326
rare to find three M 326
rain in some areas M 326
range of your work M 325
rate is down from M 324
range is also used M 324
range of living beings M 323
range of bird life M 322
rate as seen from M 320
ratio of mixing length M 319
rate is used here M 318
range in those days M 318
ratio of their size M 316
rare in those early M 316
range of data into M 316
ratio to their length M 314
ratio of these same M 312
range in size among M 311
rate of most other M 310
range of over five M 310
rate at zero time M 308
range to have been M 307
rate of flow down M 305
ratio of deaths among M 304
rate is nothing more M 304
rate is even less M 304
range of years from M 304
rate of turn will M 302
range of these four M 301
rate to drop from M 300
rate as their male M 299
range of some other M 299
rate in these days M 298
range of five feet M 298
rain of many years M 296
rate of wealth upon M 294
rare to find good M 294
rate of their male M 290
rate is coming down M 290
range of very good M 290
rain to fall when M 290
rain of fire upon M 290
range or range name M 288
rain or snow over M 288
range in body mass M 287
rare of their kind M 286
rate to come down M 284
rate of turn over M 284
rate of stem cell M 282
rate of heart beats M 282
rate by taking your M 282
range of their ages M 282
ratio or some other M 280
rate in other areas M 280
rate of time flow M 278
rate in health care M 278
rate to have made M 276
rate of fall during M 276
rate in many other M 276
rate of late years M 274
rate he must soon M 274
rate is very great M 272
ratio is used when M 270
rate of saving during M 270
ratio is very good M 268
rate of three days M 268
rate of only half M 268
range of other ideas M 268
rage at having lost M 268
rate of loss among M 266
range of some three M 265
ratio is used here M 264
rate we have used M 264
rate of cell mass M 264
rate in most other M 264
range in size down M 264
ratio is nothing more M 263
rate of fall when M 262
ranging at will from M 262
range of such work M 262
rash to make such M 261
ratio is very poor M 260
rate of moving from M 260
rate of loss over M 260
range of dark blue M 260
rate is used only M 258
range of their hearing M 258
rate me very high M 256
rate is kept down M 256
rate of reading will M 254
rate of feed must M 254
rate at their true M 254
range is from four M 253
rate in some years M 252
range of their eyes M 252
range of other such M 252
range of means from M 251
range of data will M 251
rate in their early M 250
rare to find young M 250
range of life from M 250
rain or high wind M 249
rate in these three M 248
rate in four years M 248
rare to well done M 248
rare to find true M 248
ratio in these areas M 246
rate to break even M 246
rate of feed will M 246
rate is only three M 246
rare as true love M 246
rain is coming from M 246
rate of from nine M 244
rate of four days M 244
rate of flow also M 244
ratio of bank debt M 242
rare to have been M 242
range of their data M 242
range of other life M 242
range of ever more M 242
rain in some years M 242
ratio of those over M 241
ratio of unit cost M 240
rate of unit cost M 240
rate in early years M 240
ranging at will upon M 240
range of most other M 240
range is from five M 240
range in some areas M 240
rain to fall over M 239
ratio in three ways M 238
rare in these early M 238
range of size among M 238
ratio is even less M 236
rate of sick leave M 236
rate is also seen M 236
rage in your heart M 236
rash on your face M 234
rare in many other M 234
rage he must have M 234
rage he felt when M 234
rating of very good M 232
rate of five days M 232
range of much less M 232
ratio of base width M 231
rate of much less M 231
rate in great part M 231
ratio to have been M 230
ratio is well over M 230
rating is very high M 230
rate of such duty M 230
range of depth from M 230
rain to make their M 230
range as those from M 229
ratio of line width M 228
rate in your town M 228
rain to fall during M 228
rain of fire fell M 228
range we have been M 227
rate as those from M 226
range of body form M 226
rain in these areas M 226
ratio of those living M 225
ratio to vary from M 224
rate by taking into M 224
rare to find pure M 224
rare as good poets M 224
range is very good M 224
rate of those over M 223
range of home health M 223
rate we have made M 222
ranging in kind from M 222
ranging at will over M 222
rate of much more M 221
rate of from half M 221
rate to make some M 220
rate as your will M 220
rare to find great M 220
range of life areas M 220
rain or snow into M 220
rare to find boys M 218
rare in those years M 218
range of ways from M 218
range of their meaning M 218
rain of three days M 218
rate is only five M 217
range to move from M 217
ratio of cell mass M 216
rate we must have M 216
rate to know what M 216
range in date over M 216
rate is held down M 215
ratio of these last M 214
rate in your city M 214
rate at full load M 214
range of jobs held M 214
range is also great M 214
rain to fall into M 214
ratio is just over M 212
rate he said nothing M 212
range of very fine M 212
ratio to some other M 210
ratio of over three M 210
rate of five years M 210
rare in late life M 210
range of data upon M 210
raging in some part M 210
rate of feed from M 208
rate of fall over M 208
rate is only part M 208
range of these early M 208
ratio of their half M 207
rate of fire will M 206
range of years during M 206
ratio the odds ratio M 204
rate on three month M 204
rate of cell birth M 204
rate it will give M 204
range of ages were M 204
ratio of wild type M 203
rate is seen when M 202
rare as time went M 202
range of food from M 202
range of ages over M 201
rate of many other M 200
range of wealth among M 200
range of time past M 200
range of body length M 200
rain is much less M 200
range of some four M 199
rage at seeing their M 199
rate is over three M 198
rare in those areas M 198
range of four feet M 198
rate of bone healing M 197
range of what have M 196
range of these other M 196
range as those used M 196
rate to vary over M 194
rate the rate used M 194
rate of work when M 194
rate of wild type M 194
rate of those from M 194
rate of those born M 194
rate of only some M 194
rate of duty were M 194
rate is less clear M 194
rate in their range M 194
rate in coming years M 194
range of what most M 194
rate is also less M 193
range of uses such M 193
rate of rise over M 192
rate is also zero M 192
rate in such areas M 192
range of their means M 192
ratio of heart rate M 190
rate of loss were M 190
rate of just less M 190
rate it will soon M 190
ratio of span length M 188
rate of gain when M 188
range or some other M 188
range of other acts M 188
rate so very high M 187
ratio of their depth M 186
rate is also more M 186
rate as will give M 186
range of hearing aids M 186
range of ages during M 186
rain in early spring M 186
range in kind from M 185
ratio is also much M 184
ratio at birth among M 184
rate to body size M 184
rate on gain from M 184
rate of four single M 184
rare in pure form M 184
range of their uses M 184
range of data were M 184
range in size over M 184
rate to some other M 183
rate in these early M 183
range or range rate M 183
rating is also used M 182
rate of your heart M 182
rate of feed into M 182
rate in some form M 182
range of what must M 182
rate we have done M 180
rate of loss must M 180
rate of heart rate M 180
rate of fare upon M 180
ratio of these sums M 178
ratio of face width M 178
rate or flow rate M 178
rate of gain over M 178
range of very great M 178
range of their home M 178
range of only some M 178
range of ideas into M 178
range is also wide M 178
rain is coming soon M 177
ratio of free acid M 176
ratio at full load M 176
rate in peace time M 176
range of your eyes M 176
range of mass loss M 176
rage or some other M 176
range of other high M 175
rain at some time M 175
rate of reading when M 174
rare in some other M 174
range in cell size M 174
rage or envy rise M 174
rain on their heads M 173
ratio to fall from M 172
rate we will soon M 172
range of your ideas M 172
ratio of some other M 170
rate we were moving M 170
rate or third rate M 170
rate of cell kill M 170
rate in past years M 170
rate in many ways M 170
rate at just over M 170
rash of some kind M 170
rare to find their M 170
range of these sets M 170
range of such data M 169
rain we have been M 169
rate of past month M 168
rate in very young M 168
ratio the debt ratio M 167
rain to make sure M 167
rate we know from M 166
rate of duty must M 166
rate he will know M 166
range of what will M 166
rain in those days M 166
range of band gaps M 165
ratio to make sure M 164
rate or time rate M 164
rate of three half M 164
rate of these four M 164
rate of reading from M 164
rate he will soon M 164
range of their other M 164
rare to have only M 163
ranging in date over M 163
ratio to take into M 162
ratio to rise from M 162
rate to range from M 162
rate of fare from M 162
rate of data from M 162
rate is kept high M 162
range of fast food M 162
range of ages when M 162
range of acts from M 162
range in their ages M 162
rain or heavy snow M 162
rain in many areas M 162
ratio of root length M 160
rating of some kind M 160
rate of work during M 160
rate at these ages M 160
range of those whom M 160
range of their food M 160
range of other cell M 160
range of data over M 160
range in mind when M 160
rage is even more M 160
range of some five M 159
range of many more M 159
range of even more M 159
rate of flow only M 158
range of tree ages M 158
range of these poems M 158
rash or some other M 157
range is more like M 157
ratio or risk ratio M 156
rate on your home M 156
rate of their loss M 156
rate of saving over M 156
rate of nine feet M 156
rate of loss when M 156
ranging in their ages M 156
rain or when there M 155
rate to just over M 154
rate of road deaths M 154
rate is only from M 154
rate at three years M 154
range in these areas M 154
rain of good will M 153
rain is very much M 153
rate of these same M 152
rate of beating must M 152
range to make their M 152
range of those seen M 152
range of their host M 152
range of past time M 152
range to open fire M 151
ratio is high when M 150
ratio at full term M 150
rating of their health M 150
rate we must take M 150
rate to meet their M 150
rate the next time M 150
rate of such loss M 150
rate of duty when M 150
rate in their case M 150
range of their size M 150
range is from none M 150
ratio of their wealth M 148
ratio if there were M 148
rate of some kind M 148
rate of gain were M 148
rare in health care M 148
range of work such M 148
range is used here M 148
range we came upon M 147
range of their most M 147
range of poets from M 147
range in full view M 147
ratio at birth from M 146
rate is high from M 146
range of years when M 146
range of their arms M 146
rate we have just M 144
rate in these same M 144
rate in most areas M 144
range of years over M 144
range of other early M 144
range of ideas upon M 144
rain in late spring M 144
rate of rise were M 143
rare to have much M 143
range of hair care M 143
range of free will M 143
ratio of data rate M 142
rate on some other M 142
rate of such deaths M 142
rate is laid down M 142
range of heavy duty M 142
rain or when snow M 142
rain is even more M 142
rain in five days M 142
ratio is only three M 141
range of your reading M 141
rate we were able M 140
rate of work from M 140
rate of fire when M 140
rate of fire were M 140
rate is high there M 140
range of life into M 140
range of ideas were M 140
range of flow from M 140
range of birth years M 140
range is from very M 140
range is used only M 139
ratio or rate ratio M 138
ratio is also seen M 138
rate on their debt M 138
rate of fire over M 138
rate is also slow M 138
rate he must risk M 138
rare or have been M 138
range of poor health M 138
range of host cell M 138
range of areas over M 138
ranging in body mass M 137
ratio of over four M 136
ratio of male deaths M 136
rate or even third M 136
rate on bank time M 136
rate of gain made M 136
rate of bone mass M 136
rate is only four M 136
rate is less when M 136
rain to save their M 136
rain me down from M 136
rate to make their M 135
rate is once more M 135
rare to find very M 135
range of data base M 135
range is also much M 135
ratio of data bits M 134
ratio is used only M 134
rate to well over M 134
rate or other rate M 134
rate of four years M 134
rate it will make M 134
rate in three ways M 134
rate in their home M 134
range of your home M 134
rain or snow were M 134
rate to body mass M 133
ratio of these time M 132
rating of their work M 132
rate or birth rate M 132
rate of very young M 132
rate of these young M 132
rate in most years M 132
range we have just M 132
range of your hearing M 132
range of work dealing M 132
range of view over M 132
range is used when M 132
rain or snow beating M 132
rain in your life M 132
rate as having been M 131
rate of work flow M 130
rate of these other M 130
range of their land M 130
range of jobs were M 130
range of heads from M 130
ratio in these three M 129
range of city size M 129
range is even less M 129
rating is used when M 128
rate to keep your M 128
rate so much more M 128
rate on such debt M 128
rate on clear days M 128
rate of those years M 128
rate of reading were M 128
rate of loss into M 128
rate of fall were M 128
rate is left free M 128
rate is among those M 128
range of their view M 128
range of reading from M 128
ratio of root mass M 127
rating is much more M 127
range is also more M 127
range in many areas M 127
ratio of some kind M 126
ratio of body size M 126
rate the great mass M 126
rate of birth among M 126
rate he will find M 126
rash to rely upon M 126
range we have seen M 126
range in most areas M 126
rate or even less M 125
range of wild food M 125
ratio of cell length M 124
rate on body size M 124
rate of saving among M 124
rate of rise must M 124
rate of flow have M 124
rate of duty during M 124
rate of back pain M 124
rate is slow when M 124
rate an army must M 124
range the other side M 124
range of reading upon M 124
range of poems from M 124
range of other well M 124
range of high risk M 124
range of data such M 124
range is free from M 124
rain of fire into M 124
range of over half M 123
ratio of full time M 122
rate we must make M 122
rate of work must M 122
rate of gain among M 122
rate it must come M 122
rare to find clear M 122
range of these there M 122
rain of tears fell M 122
range of these five M 121
ratio of birth rate M 120
rate we have gone M 120
rate to very high M 120
rate on debt will M 120
rate of these beats M 120
rate of some sort M 120
rate of duty only M 120
rate he will make M 120
rare to need more M 120
range to well over M 120
range of songs from M 120
range of other fish M 120
range of food eaten M 120
range of data must M 120
range in their size M 120
range of these high M 119
range of their anti M 119
ratio to rise over M 118
rate to rise during M 118
rate to fall back M 118
rate of saving were M 118
rate is used during M 118
rate be much less M 118
rate at some other M 118
rare to meet such M 118
rare as good food M 118
range of wild life M 118
range of ideas will M 118
range of best hearing M 118
rain in four days M 118
ratio of their width M 117
ratio is only half M 117
range of some kind M 117
range of seed size M 117
range is from nine M 117
rain or snow soon M 117
ratio to range from M 116
ratio of their rate M 116
ratio of land cost M 116
rating is very good M 116
rate to have some M 116
rate is made from M 116
rate in these four M 116
rate as wild type M 116
rate as laid down M 116
rash or other sign M 116
range to take care M 116
range of jobs such M 116
range of drop size M 116
range is seen from M 116
range is just over M 116
rain to come from M 116
rain at last fell M 116
ratio of their debt M 115
ratio of only three M 115
rate as other boys M 115
rash of good luck M 115
range of other risk M 115
rate to make good M 114
rate or even free M 114
rate in turn will M 114
ranging in body size M 114
range of such acts M 114
range in seed size M 114
rain so much here M 114
rain at last came M 114
rare to find four M 113
rain or cold wind M 113
ratio of their means M 112
ratio of rise time M 112
ratio of much less M 112
ratio of land used M 112
ratio is kept high M 112
ratio is also less M 112
rate or base rate M 112
rate of these fish M 112
rate of lost time M 112
rate in their main M 112
rate in many years M 112
rash of rain upon M 112
ranging in span from M 112
ranging in body length M 112
range of work areas M 112
range of their love M 112
range of their great M 112
range is less wide M 112
raging in your life M 112
rage or into tears M 112
rate the last three M 111
range is only half M 111
ratio of those having M 110
ratio of stem length M 110
rate of young male M 110
rate of only once M 110
range of tree size M 110
range of these songs M 110
range of their main M 110
range of some sort M 110
range of reading ages M 110
range of other anti M 110
range of means used M 110
range of form from M 110
rare in those over M 109
ratio of these rate M 108
ratio in most other M 108
rating of just over M 108
rate we were paying M 108
rate to have come M 108
rate the bank will M 108
rate is only just M 108
rate is made when M 108
rate is free from M 108
rate in other ways M 108
rare to find data M 108
range of uses will M 108
range of these will M 108
range of hearing from M 108
range of have been M 108
range is wide from M 108
rain or snow coming M 108
raging the dogs were M 108
raging in your heart M 108
rate or even more M 107
rate of food self M 107
rate is made more M 107
rate the pain from M 106
rate of those days M 106
rate of their fall M 106
rate it will only M 106
rate in past time M 106
rate as most other M 106
ranging in fact from M 106
range to show what M 106
range of such uses M 106
range of such ideas M 106
range of other heavy M 106
rash of some sort M 105
range of your life M 105
ratio is seen from M 104
ratio is down from M 104
ratio at birth will M 104
rate or bank rate M 104
rate of reading must M 104
rate of fare will M 104
rate of fall must M 104
rash to call these M 104
rare to have even M 104
range of what seem M 104
range is from just M 104
rage of having lost M 104
ratio of over five M 103
range of other land M 103
rain to wash down M 103
ratio of deaths during M 102
ratio is very great M 102
ratio is best used M 102
rate to make room M 102
rate the next step M 102
rate on body mass M 102
rate of host cell M 102
rate of full five M 102
rate at early ages M 102
rare to find single M 102
rare in these years M 102
rare in their pure M 102
range of void ratio M 102
range of uses made M 102
range of their time M 102
range of their reach M 102
range of home life M 102
range of depth over M 102
range of areas other M 102
rain of tears from M 102
rage the city turn M 102
rate to keep their M 101
rate of break down M 101
rate is also well M 101
range of what other M 101
ratio to their mass M 100
ratio to body size M 100
ratio of these will M 100
ratio of idle time M 100
ratio of cell size M 100
ratio is zero when M 100
ratio in these years M 100
rate we have heard M 100
rate of those having M 100
rate it will keep M 100
rare in such work M 100
range on range into M 100
range of load from M 100
range of help from M 100
range in other areas M 100
rain or other means M 100
rage of great pain M 100
rage in your eyes M 100
ratio of home runs M 99
rate of flow there M 99
rate by some means M 99
range of other self M 99
range at will from M 99
rate on cell size M 98
rate of your body M 98
rate of over nine M 98
rate of healing will M 98
rate of fire meant M 98
rate no anger there M 98
rate is very heavy M 98
rate is clear from M 98
rate as used here M 98
rash to speak from M 98
rash to draw from M 98
ranging at will among M 98
range of these areas M 98
range of their jobs M 98
range of other very M 98
range of meaning when M 98
range of many years M 98
range of life must M 98
range of jobs over M 98
range of ideas more M 98
range of areas like M 98
rate as time went M 97
range at some time M 97
rain in some part M 97
ratio of rise over M 96
rate on heart rate M 96
rate of very early M 96
rate of flow used M 96
rate of fare over M 96
rate of data loss M 96
rash to draw such M 96
rare thing among these M 96
range of meaning such M 96
range of late years M 96
range of ages will M 96
range at very high M 96
rain of fire over M 96
rain in most years M 96
raging in your hair M 96
rate to give rise M 95
rate to come back M 95
ratio we have used M 94
ratio of from three M 94
rate on miss snow M 94
rate of three boys M 94
range of only nine M 94
range of only half M 94
range of free play M 94
range is well over M 94
range is made from M 94
rain the high arch M 94
rain is coming into M 94
rain in most areas M 94
raging in their fury M 94
rate of only nine M 93
rate as their main M 93
range of their self M 93
rain we went back M 93
ratio we have been M 92
ratio of those born M 92
ratio of much more M 92
rate of young fish M 92
rate of days lost M 92
rate of body mass M 92
rate is just what M 92
rate be free from M 92
rash is much more M 92
range of work open M 92
range of these more M 92
range of such jobs M 92
range of good food M 92
range of feed rate M 92
range of data have M 92
rain or snow came M 92
rain on most days M 92
rain of their tears M 92
rain is loud upon M 92
range of ideas there M 91
ratio of some sort M 90
ratio of clear span M 90
ratio is very wide M 90
ratio in some areas M 90
rating of some sort M 90
rate of their rise M 90
rate of some nine M 90
rate of live birth M 90
rate of flow very M 90
rate of early deaths M 90
rate of base flow M 90
rate is only very M 90
rate in their more M 90
rate he made many M 90
rare to find high M 90
rare of their having M 90
rare in days when M 90
rare as were these M 90
range of these huge M 90
range of reading will M 90
range of jobs done M 90
range of beings from M 90
rain is soon over M 90
range of work will M 89
range is from north M 89
ratio of days lost M 88
ratio of bearing length M 88
ratio in their case M 88
rate we will find M 88
rate we must know M 88
rate the best bits M 88
rate of theft from M 88
rate of base pair M 88
rate of aids deaths M 88
rate is from three M 88
rate in unit time M 88
rate in other years M 88
rate in dogs during M 88
rare in very early M 88
range of those great M 88
range of care from M 88
rain to reach their M 88
rain or heavy mist M 88
rain is very great M 88
rain in their wake M 88
rain to fill their M 87
rage at having their M 87
ratio of their arms M 86
ratio of mass loss M 86
ratio of from five M 86
ratio of edge length M 86
ratio at very high M 86
rating at full load M 86
rate on these three M 86
rate of flow vary M 86
rate of fire must M 86
rate in those early M 86
rate he went away M 86
rate as will keep M 86
range of what these M 86
range of health plan M 86
range of data bearing M 86
range of ages have M 86
rain to pour into M 86
rage we feel when M 86
ratio of only five M 85
rare to have three M 85
ratio of full load M 84
ratio by taking into M 84
rate to move back M 84
rate on your last M 84
rate of your city M 84
rate of such flow M 84
rate of mixing will M 84
rate of giving birth M 84
rate is seen from M 84
rate is seen among M 84
rate is high only M 84
rate in years when M 84
rate he knew what M 84
rare to find less M 84
rare the land held M 84
rare in some years M 84
range to fire upon M 84
range of these same M 84
range of ideas open M 84
range of fair play M 84
range is from early M 84
rain or wind will M 84
raging in those days M 84
rate the main part M 83
rate we have ever M 82
rate or when there M 82
rate of some tens M 82
rate of fire during M 82
rate no such evil M 82
rate is made very M 82
rate is made high M 82
rate he will take M 82
range of work over M 82
range of what many M 82
range of view just M 82
range of these fish M 82
range of their faith M 82
range of other post M 82
range of jobs into M 82
range of ills from M 82
range of ideas held M 82
range of fish from M 82
range of deep blue M 82
range is only some M 82
rain of four days M 82
rain of fire down M 82
rain is also very M 82
rage in those eyes M 82
rate to rise over M 81
rage he felt over M 81
rating or some other M 80
rate we will take M 80
rate we must risk M 80
rate to jump from M 80
rate of reading have M 80
rate of half their M 80
rate of flow even M 80
rate is only some M 80
rate by some other M 80
rate at young ages M 80
rash to come here M 80
rare to find food M 80
range of very heavy M 80
range of most home M 80
rain or snow also M 80
range the host range M 78
rate of your video M 70
range of these means M 68
range the same size M 66
range in years from M 64
range of those taking M 58
rate so much less M 56
range on their left M 56
range in fact from M 56
rain to pass over M 55
range in time over M 53
rate the same kind M 52
rare to find well M 52
rash at some time M 51
ratio is also more M 50
rate in those aged M 50
ratio we have seen M 48
rate to rise more M 48
rain to fall down M 48
rate in those over M 47
range it must have M 47
range is size from M 47
range in rate from M 47
rate of your reading M 46
rate of some half M 46
ratio the acid test M 45
rash on your body M 45
range it will have M 45
ratio of their time M 44
range on their side M 43
range of high snow M 43
range by adding more M 43
rate so high among M 42
rain or hail from M 42
rate of their reading M 41
rate of flow more M 41
rare to find post M 41
range is much like M 41
rage in those very M 41
range to make room M 40
range of other side M 40
range as there were M 40
rain or snow just M 40
range of their guns D 8178
rate of soil loss D 2857
ratio of cash flow D 1963
ranging in rank from D 1922
race to have been D 1880
rate of oral reading D 1715
rate of steam flow D 1657
rate of gene flow D 1639
radio in those days D 1572
ratio of soil loss D 1520
rate of fuel flow D 1437
rate on your loan D 1351
ranging in tone from D 1279
rank as such from D 1233
rays of dawn were D 1228
race or some other D 1196
range of shear rate D 1189
range in tone from D 1132
rate of uric acid D 1126
race is much more D 1126
range of wave length D 1101
rail to keep from D 1012
race of beings from D 1006
rays to fall upon D 996
rate of cash flow D 996
rays of very high D 870
rate on wheat from D 862
rays of wave length D 831
rank in those days D 809
rank of life from D 806
range of these guns D 806
rate of bile acid D 797
radio at least once D 793
rate of milk flow D 781
range of other media D 772
ratio of uric acid D 765
rank of those whom D 760
rate to keep pace D 754
range of mass media D 732
radio or other means D 704
range of shot from D 698
rank at once among D 688
rate of rent paid D 686
rank the three most D 662
rate on coal from D 656
rags on their feet D 648
rate of firing when D 628
range of media from D 610
race is even more D 609
range of pore size D 608
rate of cell wall D 583
race of living beings D 580
rate of drying during D 574
race in many ways D 574
radio to make sure D 568
rank he held when D 560
rape at some time D 556
rate of bile flow D 555
ratio of wave length D 550
race of beings whom D 550
range of their shot D 546
race is very much D 538
range in rank from D 536
ranging at least from D 528
rash or other skin D 518
rape or some other D 518
rate at least three D 508
rate of fuel feed D 506
rain or snow melt D 499
rays to make sure D 496
rate of drying will D 491
ratio of cash plus D 486
rate of bile salt D 482
race in those days D 482
rate of duty paid D 478
race of your life D 468
race is just like D 462
rays or other high D 459
rate of three tons D 458
range at least from D 458
range of hues from D 452
rate of slip along D 448
race to keep ahead D 444
radio is also used D 440
racing of pens over D 440
rate of bulk flow D 433
ratio of three tall D 430
radio in your home D 424
rats to move away D 422
rate of tooth loss D 420
rash on your skin D 418
radio is much more D 415
rail or other means D 412
rats or from mice D 410
range of tone from D 406
raid on their camp D 406
rags on their heads D 406
raid to have been D 402
race to stay ahead D 402
range in mood from D 398
race to make their D 398
rate of heating will D 396
race of beings having D 396
rate of heating must D 388
race is much less D 386
rate of heating during D 384
rank of life have D 382
rate of five tons D 380
rays of hope were D 374
rank as high among D 369
race we have been D 366
rape at least once D 365
rank he held among D 362
race to make sure D 358
rays is much more D 356
raid on their home D 355
range of media used D 352
ratio of tube length D 350
radio or some other D 350
radio or tape deck D 348
race of beings must D 348
rain on acid soil D 346
rate of sand flow D 340
rail or road from D 340
rags do make their D 340
race of beings were D 340
rack of spring lamb D 338
rape is much more D 336
range of fuel flow D 336
rank it very high D 335
range of those guns D 334
rate of mass flux D 332
ranging in mood from D 330
range of your guns D 330
rain to soak into D 330
rain or heavy dews D 330
rack of your oven D 329
rays to pass from D 328
rank to date from D 325
rays is much less D 323
rate of auto theft D 322
rank of those great D 322
raft of some sort D 322
range of iron bars D 321
race to rule over D 320
rate of bile duct D 319
rate of snow melt D 318
rams to break down D 318
rate the bank pays D 317
rate of rent from D 316
rank in size among D 314
range of high peaks D 314
range of guns from D 314
rank the five most D 310
radio in your room D 310
rays of these fins D 309
rate of four tons D 308
rate of firing during D 306
rate of coal feed D 306
rail to look down D 306
race we must look D 306
rank of these three D 304
race is nothing more D 304
rays of some kind D 302
rats or mice were D 300
rays of great wave D 298
rate of wage paid D 298
rate of four mace D 298
rate the firm must D 297
radio in their cars D 296
rain of fine sand D 294
racing in those days D 294
rate of drug from D 292
range of farm size D 292
raft of logs down D 292
rate of land rent D 291
rake the moon from D 290
rags on your back D 290
racing to keep pace D 290
rape or date rape D 284
rank of living poets D 284
rack of baby lamb D 284
radio is even more D 283
rank of life were D 282
ranging in theme from D 278
rays of some sort D 276
rank of lord high D 276
ratio of cell wall D 275
rats or mice have D 274
rank of gems what D 274
rate of shear will D 273
rate of three pies D 272
range of skin care D 266
rail to cape town D 266
race in their stead D 266
race in holy writ D 266
rate of limb loss D 262
rank of those gods D 262
range of snow peaks D 261
rays or some other D 260
rank the data from D 259
rate of drop outs D 256
range of media such D 256
rays of their fins D 252
rape or other type D 252
raft of some kind D 252
race my feet have D 252
range at least once D 250
race to keep pace D 250
rays to pass into D 246
range of heavy guns D 242
race as having been D 242
rags to look like D 238
race of some kind D 238
rays of very great D 236
ratio of wage bill D 236
rate of iron loss D 236
rank of life into D 236
rank is much more D 236
rate of drug loss D 234
race of winged wise D 234
rank so high among D 233
range of data mining D 233
raid of some kind D 232
radio or other media D 232
rate of five mace D 230
rank to rank your D 230
ratio of wage rate D 228
raid of some sort D 228
rank by rank from D 227
rays or beta rays D 226
range of firing angle D 226
radio in their home D 226
race at some time D 226
rays of truth from D 224
rate of soil drying D 224
rank of some sort D 224
race or other race D 224
range of cash flow D 223
rays of early dawn D 222
rate of voting among D 222
rate of firing from D 222
ratio of loan loss D 220
rank it high among D 220
race in their time D 220
rank it among those D 219
rate of heating from D 218
range of cast iron D 218
race the slow sure D 218
rate of young rats D 214
rack of some kind D 214
race in other ways D 214
range of their prey D 210
rank of some kind D 209
rate at least once D 208
range of jack pine D 208
rate in oral reading D 206
range of fine arts D 206
race to come into D 202
race of wild dogs D 202
rate of germ cell D 200
rate of flow leaving D 200
race we have seen D 200
race is free from D 200
rate the firm will D 198
rate of sweat loss D 198
rank of these four D 198
rack or some other D 198
ratio of fuel flow D 196
range of these laws D 196
radio on when jack D 196
rays of dawn came D 194
rays is very much D 194
rats or mice from D 194
ratio of their cash D 194
rate on corn from D 194
rate of deep vein D 194
rape is even more D 194
rail in those days D 194
rain at least once D 193
rate the firm pays D 192
rate of wife beating D 192
rank in life were D 192
range in theme from D 192
race is well nigh D 192
rays or rays from D 190
rays or other means D 190
rays is very great D 190
rats to find their D 190
race if there were D 190
rank in their high D 189
race at least once D 188
ratio of slit width D 187
rays in their fins D 186
race of beings like D 186
ratio of shear span D 184
race to take their D 184
race of their poets D 184
race of stem rust D 184
race to take over D 183
rate of wire feed D 182
rank by some great D 182
rags to hide their D 182
rack of lamb from D 182
racing to keep ahead D 182
race to look upon D 182
race of some sort D 182
race is over when D 182
rate at least four D 179
racing of your heart D 179
rats in their home D 178
race of those whom D 178
rank in life will D 177
rays of your teeth D 176
rail on your side D 176
race of beings will D 176
race in past ages D 176
ratio of slot width D 174
rate is paid only D 174
rank is very high D 174
rank in life have D 174
rate on their loan D 173
rack of baby back D 173
range of time lags D 171
ratio of these peaks D 170
rate of five cent D 170
rape to have been D 170
rank of great poets D 170
race of beings living D 170
race to spring from D 169
rays of hope into D 168
race of young ones D 168
range of other laws D 166
raging sea grew calm D 166
race of beings upon D 166
race of beings more D 165
rating of your film D 164
rate of salt loss D 164
rape of their land D 164
rank to have been D 164
rank in some other D 164
rank he held during D 164
racing to stay ahead D 164
race of life must D 164
rank or great wealth D 162
race of life will D 162
race in their work D 162
rays of high heating D 160
ratio of pore size D 160
rate of skin cell D 160
range of news media D 160
race of airy beings D 160
rank in life from D 159
ratio of gage length D 158
rate the slew rate D 158
rank of their host D 158
ranging in wave length D 158
range of fuel oils D 158
rail or some other D 157
rank it bears among D 156
rain to sink into D 156
rate at least five D 155
ratio of bile salt D 154
range of very tall D 154
range of other fungi D 154
radio of some kind D 154
race to have done D 154
rate of those leaving D 152
rape of young boys D 152
rate or dose rate D 150
rate of five sous D 150
rank to rank till D 150
rank the four most D 150
rank is high among D 150
range of cars from D 150
rack of some sort D 150
race in five years D 150
ratio of bulk drug D 148
rate of five hops D 148
rate of cast iron D 148
rate in free cash D 148
range of prying eyes D 148
range of prey size D 148
rats in their hair D 146
ratio of their axes D 146
range of tall blue D 146
range of other soil D 146
radio as their main D 146
race to move into D 146
race to keep their D 146
rash of race riots D 145
rays of other wave D 144
rate is also rising D 144
ranging in bulk from D 144
range of media have D 144
range of high sand D 144
range of fees paid D 144
range of dose rate D 144
rain of these tiny D 144
range at spring tide D 143
rate of heating when D 142
race of such beings D 142
race is worth saving D 141
rats or mice will D 140
rats on their heads D 140
rate of your loan D 140
range of your radio D 140
rack is made from D 140
race of city life D 140
race is more like D 140
race in four days D 140
race by whom these D 140
rain on your skin D 139
rate of shear must D 138
range of blue peaks D 138
raid of last fall D 138
race to rise from D 138
race in some form D 138
race of those deer D 137
rate or baud rate D 136
range of rows from D 136
range of firm size D 136
radio in their room D 136
race to save their D 136
race to fall into D 136
rate on your card D 135
raft of pine logs D 135
rays of true love D 134
rate to suit your D 134
rank of their kind D 134
rank in their army D 134
ranging in tint from D 134
rain of loving care D 134
rail in tank cars D 134
rags by their work D 134
radio on very loud D 134
race of life upon D 134
race is most like D 133
rate of wage rate D 132
rare lea ever wrong D 132
rank it once held D 132
rank he ever held D 132
range of soil type D 132
range of mule deer D 132
raft of logs from D 132
race of eyes nose D 132
race in other areas D 132
radio is very much D 131
raps at your door D 130
rape the young girl D 130
rape or other acts D 130
radio at some time D 130
race is only skin D 130
race at palm beach D 130
rare as gold dust D 129
rack in your oven D 129
rays of giant size D 128
rats or from rats D 128
ratio of wage cost D 128
ratio of free drug D 128
ratio of axial load D 128
rate of iron from D 128
rate of drying must D 128
rain of shot from D 128
rail or boat from D 128
rack the wine into D 128
rays of hope have D 126
rate the wage rate D 126
rate of many tons D 126
rate in coal mining D 126
rank to make such D 126
rake the seed into D 126
rake or other tool D 126
race to have such D 126
race the rising wind D 126
rank it held among D 125
rank in life what D 125
rail is much less D 125
rats to jump from D 124
ratio of pipe length D 124
rare in these beds D 124
rank to take upon D 124
rail of their ship D 124
radio is much less D 124
race by some other D 124
rate of nine sous D 123
range of your lens D 123
range of uric acid D 123
rays of truth will D 122
range of fine sand D 122
rake the road leading D 122
radio of some sort D 122
race to fall back D 122
race is away from D 122
range of cell wall D 121
rays of such high D 120
rate of spin will D 120
rate of shear from D 120
rank as their full D 120
range of reading cues D 120
ramp to make sure D 120
rake the soil back D 120
race to find some D 120
race of other days D 120
race of beings born D 120
rays to come from D 118
rave at making laws D 118
rats or some other D 118
rate of beta cell D 118
rank to come into D 118
rank as those into D 118
range of pale pink D 118
rams to play upon D 118
rain of gold from D 118
rack of pool cues D 118
race the most idle D 118
rate of gene loss D 116
rate of free cash D 116
rain on bare soil D 116
rail to make sure D 116
radio as their most D 116
race in your mind D 116
race he came from D 116
range is from nova D 115
rail of some sort D 115
rail is laid down D 115
rays of your love D 114
rats to find food D 114
rate of nine tons D 114
range of slip from D 114
range of cues used D 114
raft of logs tied D 114
race of ideal beings D 114
race is also very D 114
race is also true D 114
rays as coming from D 112
ratio of axial length D 112
rate of such levy D 112
rank of these were D 112
range of great guns D 112
rail to salt lake D 112
race we have ever D 112
race the next week D 112
ratio of wall shear D 111
rate of wage rise D 111
rays of love dost D 110
rays of cold were D 110
rate of firing will D 110
raping the young girl D 110
rank me among those D 110
range in farm size D 110
rail is made from D 110
radio to learn what D 110
race to reach some D 110
race to find their D 110
rape is very rare D 108
range of beta rays D 108
rail to post those D 108
raid or some other D 108
rack of pork ribs D 108
racing is much more D 108
race of dogs bred D 108
race is wide open D 108
race in some ways D 108
race by their past D 108
race by other means D 108
rate of skin test D 107
rank in your army D 107
rank in these days D 107
range of wall shear D 107
rate of salt duty D 106
rate of heating used D 106
rape in palm beach D 106
range of their diet D 106
range of such rock D 106
race to make such D 106
race in these days D 106
race in some other D 106
rack of pain grow D 105
rays of love from D 104
ratio of farm debt D 104
rate of bony union D 104
rank to take into D 104
rank it among their D 104
rank in life made D 104
rank by some deed D 104
range of folk songs D 104
radio to help pass D 104
race we have just D 104
race to take care D 104
race of giant gods D 104
rank in size when D 103
rays of hope shot D 102
rays is very high D 102
rats is much more D 102
ratio of land rent D 102
rate on wood pulp D 102
rank to work much D 102
rank is heir also D 102
rank by hard work D 102
rack to make sure D 102
race to whom their D 102
race to make room D 102
race is only just D 102
race in those years D 102
ratio of tooth width D 101
rape is much less D 101
ratio of shear rate D 100
rate of young pigs D 100
rank to rank among D 100
rank of some great D 100
rank in their ideas D 100
race is sent down D 100
race in your life D 100
rate of sale will D 99
rate is rising more D 99
rats of three ages D 98
ratio of pure gold D 98
ratio of film shot D 98
rate of shear during D 98
rank to take part D 98
rank to rank like D 98
rank by taking part D 98
range of trap rock D 98
range of such guns D 98
race we must have D 98
race to take upon D 98
race to make more D 98
race to have their D 98
race of tiny beings D 98
race of life from D 98
race of gods will D 98
rank to make their D 97
rays we have seen D 96
rate of steam into D 96
rate of gold mining D 96
rank to these were D 96
rank me among your D 96
rags on their back D 96
rack to hold your D 96
race to have more D 96
race of lust from D 96
race is coming into D 96
race is clear from D 96
race in more ways D 96
race at their sowing D 96
range of paid work D 95
rats at very high D 94
rate of shear over D 94
rape is also used D 94
rank or some other D 94
rain on your roof D 94
raid is made upon D 94
race to hold such D 94
race by race have D 94
race in their home D 93
rats to have been D 92
ratio of fuel used D 92
rate of quit rent D 92
rate of mass leaving D 92
rate is rising among D 92
range of peaks from D 92
rail to rest upon D 92
rail at those whom D 92
rags or wood pulp D 92
raft of young ones D 92
radio to find some D 92
racing to make their D 92
race the same part D 92
race in just over D 92
rays to have been D 90
rats or mice when D 90
ratio of cash held D 90
rate on your bond D 90
rate of drying from D 90
rank is like those D 90
rank in most other D 90
range of these media D 90
range of other farm D 90
range of mood swings D 90
rake the soil over D 90
race to move from D 90
race or even their D 90
race is soon told D 90
rays on their heads D 88
rays of hope upon D 88
rank he once held D 88
range of prey from D 88
radio in many ways D 88
radio as their only D 88
race of time well D 88
race it must have D 88
race is just what D 88
rays on your skin D 86
rays of hope from D 86
rays at very high D 86
rats to feed upon D 86
ratio of three tons D 86
ratio of mass flux D 86
rate of drying when D 86
rank or their wealth D 86
rain to their cars D 86
rain of dust fell D 86
rage he flew into D 86
radio to know what D 86
rack to make their D 86
race of living poets D 86
race of life like D 86
race is much like D 86
race in four years D 86
range of media will D 85
rays of truth upon D 84
rays of fire from D 84
ratio in lawn mowing D 84
rate to suit their D 84
rank as there were D 84
race to their cars D 84
race of their time D 84
race in many other D 84
rays is sent into D 82
rate to take wine D 82
rank or wealth among D 82
rank of life know D 82
rank is held among D 82
raid in three days D 82
rags he wore were D 82
race to whom even D 82
race to have come D 82
race is very great D 82
race in these years D 82
race of life more D 81
rays in those days D 80
rate of spin must D 80
rate of rent much D 80
rate of heating also D 80
radio in case there D 80
rack to keep from D 80
race we know nothing D 80
race of beings into D 80
race by some bold D 80
rank in your high D 79
range in wave length D 78
race is nothing else D 71
rank to take over D 63
rate of cell firing D 61
ratio of their gold D 59
rate of four sous D 58
rank at last among D 56
rank he held till D 55
rate at least half D 54
rank by their side D 53
range of rock mass D 52
rake in even more D 49
ratio of bile acid D 47
rail to look over D 47
race is half over D 46
rank is much less D 45
race in their most D 45
racing at full tilt D 44
rays of your back D 43
racing is very much D 43
rapt in some wild D 42
race the term race D 42
rank in very good D 41
rank to have their D 40
