rarely if ever " M 696
raised to life " M 532
raised by these " M 284
raised the hill " M 276
rarely the word " M 148
raised on high " M 140
raised up from " M 106
raised by such " M 90
raised by their " M 84
raised the word " M 82
