raised a lot of M 14656
raised a cry of M 12660
raises a lot of M 5200
raised a sum of M 5020
raises a set of M 3146
raised a set of M 1388
raises a cry of M 912
raised a cup of M 908
raised a bit of M 712
rained a lot in M 692
random a few of M 654
raises a man in M 650
raised a song of M 636
raised a heap of M 624
raised a man to M 614
raises a man to M 584
rarely a man of M 524
raised a cry to M 394
raised a use in M 368
raised a cup to M 348
raised a few of M 322
raised a plea of M 278
raised a son to M 270
raised a cry in M 268
raised a leg to M 264
raised a dog in M 216
random a set of M 204
raised a bar of M 204
raised a fit of M 200
raised a war of M 186
raised i had no M 182
raised a can of M 180
raised a man of M 174
raises a bit of M 172
rarely a way to M 170
rarely a day in M 170
raises a cup of M 168
raises a cup to M 158
raises a plea of M 154
raised a son of M 152
raised a head of M 142
raised a cry so M 139
rarely a few of M 134
random a box of M 134
raised a war in M 134
raises a use by M 130
raised a year or M 130
raises a few of M 126
rarely a bit of M 124
raised a sum to M 120
raises a man up M 117
rained i had to M 114
raised a fear in M 108
rarely a year in M 100
rarely a set of M 100
raised a deal of M 100
rarely a day or M 98
raised a head to M 94
raises a sum of M 92
raised a key to M 92
raised a cry at M 92
raised a bar to M 92
rarely a bar to M 90
raised a bit to M 90
raised a song in M 84
raised a boy to M 82
rained a lot the M 80
radius a and the D 2542
radius a and an D 649
raised a riot in D 552
radius a can be D 533
rations a day in D 408
raised a gun to D 398
raised a paw to D 368
radius a and of D 341
raised a ray of D 286
radiate a lot of D 281
radius a with the D 264
raised a ton of D 254
radius a and is D 250
radius a that is D 228
radius a may be D 209
ranked a set of D 194
raised a mob at D 192
raised a tax on D 184
raised a tax of D 168
raised a pig or D 168
raised a riot at D 162
rations a day to D 155
raises a jet of D 154
rattling a bag of D 150
ratify a set of D 142
raised a mob of D 138
raised a cap of D 136
radius a due to D 136
raised a mug of D 134
raised a mob to D 132
raised a gang of D 132
rattling a box of D 130
radius a has an D 130
raised a riot of D 128
raised a paw in D 116
raised a hum of D 112
rallying a few of D 108
raised a din of D 108
rattle a bag of D 107
radius a for the D 107
raised a row in D 106
raised a fog of D 106
raised a row of D 104
raised a jug of D 102
radium a and the D 98
raised a peal of D 96
raised a gun at D 92
raised a mob in D 88
radius a with an D 86
radius a and at D 86
rattling a lot of D 82
ragged a bit of D 82
rammed a gun in D 80
raised a pot of D 80
