raised or lowered . M 23900
raised the question . M 7758
raised in protest . M 5911
raised the subject . M 3628
raised in question . M 2552
raises the question . M 2452
raised my spirits . M 1690
raised in poverty . M 1612
rarely go together . M 1312
raised or lowered ? M 1201
raised to sixteen . M 1002
raised as females . M 976
raised by borrowing . M 948
raised no protest . M 840
raised in triumph . M 779
raised to believe . M 762
raised to fifteen . M 758
raised in victory . M 720
rarity of species . M 670
raised by himself . M 620
raised by critics . M 592
raised at pleasure . M 558
raised in dissent . M 554
raised by parents . M 542
rarely be present . M 526
raised by animals . M 522
random or chaotic . M 520
raises no problem . M 518
raised by members . M 516
raised in defiance . M 464
raised the lantern . M 444
raised the barrier . M 434
raised the problem . M 410
raised in congress . M 398
raised in defense . M 397
rarely the reverse . M 394
raises my spirits . M 386
rarely the problem . M 374
raises the problem . M 346
rarely be applied . M 338
raised by counsel . M 334
raised by congress . M 316
rarely in question . M 302
rarely of benefit . M 290
rarely in females . M 290
rarely be granted . M 290
rarely be avoided . M 288
raised in welcome . M 284
rarely in history . M 278
raised up together . M 278
raised at present . M 268
raised no question . M 254
raised to thirteen . M 250
raised in gardens . M 242
raised in advance . M 242
raised in defence . M 234
rarely in animals . M 232
raised in worship . M 232
raises the spirits . M 228
raised to destroy . M 228
rarely be trusted . M 226
raised it himself . M 222
raised or reduced . M 220
raised to himself . M 212
rarely in dispute . M 210
raised the average . M 210
rarely be realized . M 202
raises the average . M 202
raises no question . M 202
rarely be checked . M 196
raises the subject . M 192
rarely of concern . M 188
random or ordered . M 188
raised or removed . M 188
rarely be ignored . M 182
raised in dispute . M 182
raised in concern . M 182
rarely be repeated . M 174
random or periodic . M 174
raised to position . M 174
raised the windows . M 174
rarely of service . M 172
rarely be secured . M 172
raised or decided . M 172
rarely in infancy . M 170
raised as follows . M 170
raised in command . M 168
raised by friends . M 166
rarely the culprit . M 164
rarely in between . M 164
rarely be noticed . M 164
raised as desired . M 162
raised to respect . M 160
raised to fortune . M 158
raised to command . M 156
raised no problem . M 156
raised it herself . M 154
rarely in balance . M 152
raised in protest ? M 152
raised by abortion . M 152
rarely is present . M 150
raised to seventy . M 150
raised by teachers . M 150
raised as brothers . M 150
raised in slavery . M 148
raised the question ? M 146
rarely be refused . M 142
raised by herself . M 140
raised in freedom . M 138
rarely be imposed . M 136
raised by religion . M 132
rarely be removed . M 128
raised in addition . M 126
raised by anybody . M 124
rarely eat together . M 122
rarely be measured . M 122
raised by degrees . M 122
rarely so extreme . M 118
rarely in contact . M 118
raised the capital . M 118
raised the balance . M 118
rarely be feasible . M 116
raised the spirits . M 114
raised in position . M 114
raised by slavery . M 114
raised in support . M 110
rarely in harmony . M 108
raised the highest . M 108
rarely be omitted . M 106
raised by parties . M 106
rarely at present . M 104
raised to dignity . M 104
raised the country . M 104
raised in outrage . M 104
raised in animals . M 104
raised by society . M 104
raises no jealousy . M 102
raised the question ! M 102
raised in dignity . M 102
rarely on display . M 100
rarely be perfect . M 100
raised up enemies . M 100
raised in numbers . M 100
raised as sisters . M 96
rarely so perfect . M 94
raised on columns . M 94
rarely the solution . M 92
random or regular . M 92
raised in society . M 92
rarely in trouble . M 90
rarely be adopted . M 90
raised by history . M 88
rarely the outcome . M 86
raised on occasion . M 86
rarely in private . M 80
raised in apology . M 80
