essay is also a M 1140
essay is only a M 756
essay to give a M 694
essay to make a M 576
essay in part i M 546
essay on such a M 532
essay in such a M 516
essay is like a M 476
essay or even a M 430
essay is from a M 312
essay is less a M 222
essay is such a M 194
essay on what i M 190
essay is more a M 182
essay of part i M 180
essay to have a M 172
essay we find a M 166
essay by making a M 158
essay we have a M 142
essay or make a M 138
essay to take a M 130
essay in what i M 124
essay is just a M 122
essay he made a M 120
essay to form a M 116
essay by giving a M 116
essay or give a M 102
essay on what a M 98
essay of only a M 92
essay of such a M 86
essay at such a M 82
essay as into a M 82
ester to form a D 342
ester to give a D 160
essay to glean a D 80
