to be given a M 325042
to be quite a M 141627
to the world a M 122091
to be found a M 114107
to be either a M 98125
to me while i M 66072
to be under a M 62160
to be rather a M 56388
to be about a M 53979
to the right a M 53926
to the reader a M 44972
to be within a M 44028
to me since i M 37008
to the house a M 36411
to the people a M 35758
to do anything i M 35204
to me about a M 30236
to me until i M 27126
to the point i M 26603
to be playing a M 25366
to the people i M 25343
to the house i M 25205
to go where i M 24734
to me after i M 24080
to the state a M 24034
to me which i M 23984
to the place i M 23292
to be where i M 22407
to be getting a M 22140
to do about a M 21052
to so large a M 20751
to so small a M 19756
to be really a M 19693
to me after a M 19518
to the point a M 18683
to the board a M 17425
to be still a M 17006
to be writing a M 16826
to be holding a M 16364
to it after a M 16004
to go after a M 15864
to me where i M 15794
to the class a M 14194
to the child a M 13564
to be added a M 12898
to the press a M 12820
to be running a M 12574
to as large a M 12549
to the world i M 12533
to be shown a M 12356
to be truly a M 12145
to do quite a M 11996
to be nearly a M 11142
to the whole a M 11076
to be seeking a M 10906
to the front a M 9856
to as small a M 9815
to me rather a M 9732
to be named a M 9714
to the first i M 9549
to the woman i M 9534
to do after a M 9348
to do while i M 9158
to the author a M 8962
to the crown a M 8847
to the queen a M 8600
to the right i M 8482
to the owner a M 8400
to be taken a M 8253
to be creating a M 8172
to the buyer a M 7928
to the class i M 7808
to me quite a M 7552
to the group a M 7499
to the table a M 7439
to the enemy a M 7238
to go about a M 7198
to the story i M 7166
to the water a M 6873
to the floor a M 6832
to my mother i M 6789
to my shame i M 6778
to be built a M 6742
to the point d M 6508
to be asked a M 6286
to be above a M 6214
to be reaching a M 5896
to the meeting a M 5870
to the words i M 5826
to my house i M 5724
to do after i M 5710
to my father i M 5690
to go round a M 5651
to us after a M 5564
to do since i M 5558
to the above i M 5377
to be again a M 5373
to the cause i M 5318
to the place a M 5302
to be where a M 5281
to so noble a M 5222
to do until i M 5192
to us about a M 5166
to be after a M 5106
to us under a M 5060
to the stage a M 5048
to be keeping a M 5018
to be known a M 4964
to be moved a M 4670
to my right i M 4610
to the table i M 4604
to go under a M 4522
to the others i M 4426
to be noted a M 4402
to the field a M 4339
to it under a M 4308
to be first a M 4275
to be sharing a M 4124
to it within a M 4102
to be drawing a M 4054
to do within a M 4040
to the reader i M 4015
to the river a M 3952
to it which i M 3944
to my father a M 3930
to the women i M 3904
to the worst i M 3886
to the light i M 3884
to be alone a M 3852
to the party a M 3793
to the above a M 3752
to be missing a M 3748
to the first a M 3724
to be gaining a M 3690
to the views i M 3664
to the light a M 3615
to be found i M 3581
to my house a M 3574
to be showing a M 3564
to me within a M 3526
to the group i M 3505
to it until i M 3470
to the method i M 3442
to the which i M 3436
to be finding a M 3426
to be causing a M 3424
to me under a M 3400
to the river i M 3348
to the judge a M 3305
to the front i M 3299
to the child i M 3238
to the value a M 3205
to do which i M 3156
to be forming a M 3142
to my mother a M 3124
to the model a M 3123
to the state i M 3116
to do under a M 3068
to be putting a M 3034
to so short a M 3029
to the others a M 3009
to be fully a M 3006
to go twice a M 3002
to the books i M 2986
to go within a M 2976
to go until i M 2954
to the lords a M 2936
to the reason i M 2922
to eat while i M 2918
to me though i M 2888
to the point s M 2864
to the altar a M 2830
to me again i M 2790
to be below a M 2788
to the plane a M 2784
to be valid a M 2704
to go quite a M 2692
to be feeling a M 2684
to be working a M 2672
to the father a M 2661
to be anything i M 2654
to so worthy a M 2652
to be sending a M 2632
to the money i M 2616
to my right a M 2612
to so cruel a M 2602
to the brain a M 2597
to the times a M 2569
to it while i M 2552
to the model t M 2490
to the coast a M 2490
to or within a M 2470
to the woman a M 2456
to the floor i M 2456
to the paper i M 2448
to the party i M 2434
to be passing a M 2432
to be lacking a M 2432
to it stood a M 2408
to be raising a M 2360
to the facts i M 2358
to the phase i M 2316
to as short a M 2316
to the story a M 2314
to the store i M 2288
to be drawn a M 2283
to the meeting i M 2272
to be speaking a M 2254
to the music i M 2228
to so happy a M 2197
to so strong a M 2195
to eat after a M 2184
to the rules i M 2182
to the mother a M 2180
to the field i M 2180
to be fixed a M 2180
to the pupil a M 2178
to it until a M 2138
to the feeling i M 2126
to the stage i M 2114
to the forming a M 2114
to be teaching a M 2084
to the devil i M 2078
to be often a M 2036
to the agent a M 2027
to the period i M 2024
to be until i M 2018
to us within a M 1998
to the words a M 1987
to do anything a M 1956
to the period t M 1954
to the image i M 1950
to the store a M 1944
to be happy i M 1944
to do until a M 1906
to the water i M 1904
to be learning a M 1904
to me until a M 1874
to be opening a M 1866
to be turning a M 1854
to the devil a M 1840
to be meeting a M 1828
to me seems a M 1822
to me twice a M 1804
to the press i M 1784
to as either a M 1773
to the touch a M 1750
to the limit a M 1740
to be walking a M 1724
to the count d M 1716
to the paper a M 1710
to be hoped a M 1704
to be sorry i M 1698
to the blood a M 1688
to the chair a M 1682
to the plant a M 1667
to the times i M 1646
to eat until i M 1642
to be alone i M 1640
to be about i M 1627
to us quite a M 1626
to the event a M 1626
to the night i M 1604
to the coast i M 1588
to the state s M 1577
to the point t M 1575
to the power a M 1567
to the model i M 1566
to the order a M 1562
to it since i M 1552
to go visit a M 1544
to the music a M 1534
to the order i M 1533
to be growing a M 1516
to so sweet a M 1505
to the value i M 1498
to be tried a M 1494
to the terms i M 1486
to so close a M 1478
to it about a M 1468
to the lines a M 1463
to the notes i M 1440
to the deity a M 1418
to my hands a M 1414
to go where a M 1410
to be taken i M 1404
to my place i M 1394
to the stand a M 1366
to go below a M 1350
to the chair i M 1346
to eat twice a M 1343
to or about a M 1330
to us seems a M 1314
to the sense i M 1314
to the action a M 1314
to or under a M 1304
to be wanting a M 1296
to the crowd a M 1290
to be while i M 1288
to do either a M 1280
to be pushing a M 1274
to it after i M 1268
to be selling a M 1268
to the opening a M 1266
to the woods i M 1264
to be casting a M 1258
to the sides a M 1243
to be nearer a M 1243
to us rather a M 1240
to the issue i M 1238
to the girls i M 1236
to be saved i M 1204
to the trust i M 1196
to be filling a M 1192
to me still a M 1180
to the cross a M 1179
to so plain a M 1178
to the cross i M 1176
to my people i M 1166
to the cause a M 1151
to the topic i M 1140
to be nursing a M 1138
to be happy a M 1135
to the fluid a M 1130
to the study i M 1120
to the works i M 1110
to the create a M 1108
to the study a M 1103
to my thinking a M 1098
to the power i M 1091
to the image a M 1089
to eat anything i M 1088
to us today a M 1080
to the women a M 1075
to the steps i M 1068
to be chasing a M 1064
to be twice a M 1059
to the queen i M 1052
to eat since i M 1052
to so gross a M 1042
to the value t M 1035
to the train i M 1034
to the sound a M 1032
to the cases i M 1032
to go above a M 1018
to as proud a M 1012
to be feared a M 998
to as close a M 996
to the woods a M 995
to my grief i M 994
to or below a M 982
to sing about a M 974
to be thinking a M 972
to the world s M 970
to be winning a M 968
to be saved a M 968
to be where t M 967
to in which a M 958
to the author s M 953
to the price i M 952
to be calling a M 948
to the hills i M 946
to so grand a M 944
to go while i M 940
to the author i M 938
to or above a M 938
to me could i M 932
to be breathing a M 932
to be needing a M 924
to the sound i M 922
to the raising a M 916
to be dated a M 916
to the count a M 910
to be pulling a M 908
to the notion i M 904
to the lines i M 904
to be cutting a M 900
to the phone i M 898
to the angles a M 898
to be quiet a M 896
to the voice a M 894
to the plans i M 894
to the stream a M 891
to be loved a M 886
to be sworn a M 880
to be where d M 879
to be since i M 862
to the period a M 859
to go after i M 858
to the price a M 856
to the monks a M 856
to the walls a M 848
to be helping a M 840
to the start i M 828
to the block a M 828
to the bearer a M 826
to the father i M 824
to the hills a M 820
to my getting a M 820
to so proud a M 818
to the route i M 816
to me holding a M 814
to be until a M 814
to the frame a M 810
to go fetch a M 800
to be after i M 800
to the mother i M 796
to my writing a M 796
to the input a M 794
to the danger i M 782
to or after a M 782
to an event a M 782
to me stood a M 780
to be given i M 780
to the kingdom a M 768
to me where a M 760
to the people s M 757
to so brave a M 754
to be beneath a M 752
to the vision i M 746
to the value s M 745
to the first s M 743
to do where i M 742
to be worthy a M 740
to be forcing a M 730
to be feared i M 730
to the space a M 725
to be brief i M 724
to the girls a M 723
to be hoped i M 720
to the enemy i M 718
to so vital a M 714
to so harsh a M 712
to or forming a M 712
to be looking a M 712
to it quite a M 710
to go since i M 710
to be short a M 709
to the trees a M 704
to the creating a M 696
to as phase i M 696
to us twice a M 694
to go nearly a M 692
to be right i M 692
to the human t M 690
to go catch a M 690
to do again i M 690
to be hanged a M 690
to the stuff i M 688
to the trust a M 686
to the force a M 686
to me either a M 686
to be waiting a M 684
to the actor a M 680
to as paper i M 680
to the lodge a M 676
to the action i M 672
to be burning a M 672
to the names i M 668
to as strong a M 664
to the first t M 662
to the board i M 662
to be known i M 658
to go watch a M 654
to as nearly a M 652
to the hours i M 648
to the claim i M 648
to eat within a M 648
to my hands i M 646
to the truths i M 642
to so brief a M 641
to do action a M 639
to the facts a M 638
to the piece a M 637
to so awful a M 636
to be quoting a M 636
to the night a M 634
to the slave a M 632
to the rocks a M 632
to the engine a M 632
to be hunting a M 628
to the track a M 626
to the weather a M 622
to the drive a M 622
to be blowing a M 622
to the vowel a M 620
to so exact a M 620
to the texts i M 616
to be hitting a M 616
to the feeling a M 614
to no avail i M 614
to it either a M 614
to be where s M 611
to me again a M 610
to be breaking a M 610
to the calling a M 606
to as class i M 606
to be longer a M 604
to my people a M 602
to it makes a M 602
to be joining a M 602
to be right a M 601
to the crown i M 600
to the wound a M 590
to the phone a M 586
to is really a M 586
to as forming a M 586
to the rocks i M 582
to be class i M 582
to the altar i M 580
to the train a M 577
to the plane i M 574
to eat quite a M 574
to us while i M 572
to go until a M 570
to an agent a M 570
to be treating a M 568
to the lodge i M 566
to eat after i M 566
to be testing a M 564
to be lifting a M 564
to be alive i M 564
to my table i M 562
to me while a M 562
to the whole i M 560
to the trees i M 560
to the event i M 560
to the limit t M 558
to my place a M 558
to the terms a M 557
to us until a M 556
to go spend a M 554
to so frail a M 550
to the writing i M 548
to the voice i M 548
to the human a M 548
to it twice a M 548
to be arguing a M 548
to as class a M 547
to the topic a M 546
to the parts i M 542
to be class a M 540
to be alive a M 539
to an action a M 538
to my alarm i M 530
to be obeying a M 530
to the total a M 528
to the quick a M 528
to the change i M 528
to the steps a M 524
to the final a M 523
to the motion a M 522
to the danger a M 518
to the queen s M 516
to be treading a M 516
to us where a M 514
to the value d M 514
to sing while i M 514
to go climb a M 514
to the ruler a M 512
to the tasks i M 510
to the sending a M 510
to as creating a M 510
to be minus a M 508
to the offer i M 504
to be loved i M 504
to be exact i M 502
to the rules a M 498
to the piece i M 498
to my power i M 498
to it gives a M 496
to the style i M 494
to the water s M 493
to the limit i M 492
to the frame s M 492
to so rough a M 492
to be seated a M 492
to the parts a M 491
to the class d M 491
to the phase a M 489
to the landing i M 488
to go fight a M 484
to as group a M 482
to an enemy a M 482
to be beaten a M 480
to the nurse a M 478
to the grief i M 476
to my notes i M 476
to the stand i M 474
to be quiet i M 474
to the proof a M 470
to do which a M 470
to my child i M 468
to us which i M 466
to the reason a M 464
to be hanged i M 462
to do while a M 460
to the fourth a M 456
to my study i M 456
to the space i M 454
to the items i M 454
to my lodging i M 454
to the array a M 453
to the track i M 452
to be picking a M 452
to an issue i M 452
to the crowd i M 450
to so hasty a M 450
to the forms a M 449
to so vague a M 448
to the stream i M 446
to is still a M 446
to me really a M 440
to the change a M 439
to the cases a M 437
to the writing a M 436
to the local a M 434
to me today i M 434
to the towns a M 432
to the goals i M 430
to the place d M 429
to the fourth i M 426
to or create a M 426
to it while a M 426
to eat about a M 426
to be maybe a M 426
to the group s M 424
to the plane t M 423
to me nearly a M 422
to be found t M 422
to the noise i M 420
to be spread a M 420
to the lower a M 418
to the leader a M 418
to or watch a M 418
to be smiling a M 416
to be people i M 416
to an essay i M 416
to eat under a M 414
to the money a M 412
to the issue a M 412
to the plant i M 410
to me above a M 410
to us lived a M 408
to be group a M 408
to be feeding a M 408
to the trail i M 406
to the shell a M 406
to the method a M 406
to the cells a M 406
to the guilt i M 404
to the scale a M 401
to us either a M 400
to so solid a M 400
to it again a M 400
to eat until a M 400
to be ruled a M 400
to the joint a M 395
to my reader a M 394
to it forms a M 394
to the motion i M 392
to to create a M 390
to the gates a M 390
to go though a M 390
to be sitting a M 390
to the grass a M 388
to the appeal i M 388
to the major a M 387
to an adult a M 386
to the shape i M 384
to the lands i M 384
to the finding a M 384
to be today a M 384
to the reply i M 382
to go still a M 382
to be killing a M 382
to as group i M 382
to the visit i M 380
to go hunting a M 380
to me thinking i M 376
to be short i M 374
to an author a M 374
to the power d M 372
to be clearing a M 372
to an image i M 372
to do twice a M 371
to me gives a M 370
to the poetry i M 364
to it where i M 364
to the fight i M 362
to my story i M 362
to my words i M 360
to my words a M 360
to be staying a M 360
to go build a M 358
to be thinking i M 358
to the hopes i M 356
to the birds i M 356
to the ships a M 355
to the where a M 354
to the labor i M 354
to the guard a M 352
to the evening i M 352
to do though i M 352
to be stage i M 352
to be proving a M 352
to as brief a M 352
to my father s M 351
to so wealthy a M 350
to the pages i M 348
to the child s M 348
to my study a M 348
to us still a M 346
to the plain a M 346
to the noise a M 346
to the drawing a M 346
to be which i M 346
to the risks i M 344
to the putting a M 344
to the pride i M 344
to be echoing a M 344
to the appeal a M 341
to the leaves a M 340
to the globe a M 340
to the dreams i M 340
to the worst a M 338
to the reader s M 338
to the given a M 338
to be never a M 338
to the goods a M 335
to the table d M 334
to it comes a M 334
to do right i M 334
to be strong i M 334
to the morning i M 332
to so basic a M 332
to me alone i M 332
to the frame i M 330
to the first d M 330
to so needy a M 330
to is either a M 330
to be backing a M 330
to or cause a M 328
to the birds a M 327
to us since i M 326
to the trunk a M 324
to sing after a M 324
to go write a M 324
to be false a M 324
to the right t M 323
to the style a M 322
to eat since a M 322
to to which i M 320
to so sorry a M 320
to the unions a M 318
to the force t M 318
to the users a M 316
to the adult a M 316
to the ideals i M 314
to in table i M 314
to the focus s M 313
to the state t M 311
to the lengths i M 310
to the crime i M 310
to or alter a M 310
to it though i M 310
to the notes a M 309
to eat where i M 308
to the vision a M 306
to the total i M 306
to be strong a M 305
to the verse a M 304
to the keeping a M 304
to me today a M 304
to an issue a M 304
to the wound i M 302
to the warning i M 300
to the proof i M 300
to the books a M 300
to it where a M 300
to be shaping a M 300
to be legal a M 300
to the final i M 299
to the short a M 298
to the guard i M 298
to the block i M 298
to me seeking a M 298
to me makes a M 298
to be false i M 298
to to build a M 296
to the upper a M 296
to do since a M 296
to do rather a M 296
to by either a M 296
to the works a M 294
to the tales i M 294
to the large t M 294
to the angels a M 294
to me maybe i M 294
to in quite a M 294
to do others a M 294
to be lending a M 294
to be faced a M 294
to the landing a M 292
to be aware i M 292
to so acute a M 291
to as showing a M 290
to so black a M 289
to the state d M 288
to so false a M 286
to as stage i M 286
to the heirs a M 284
to the hands a M 284
to the gifts i M 284
to the final s M 284
to me since a M 284
to me often a M 284
to in which i M 284
to be later a M 284
to the agony i M 282
to my forming a M 282
to be table i M 282
to as though i M 282
to the strong a M 280
to the ships i M 280
to the beauty i M 280
to he found a M 280
to the teaching i M 278
to the needy a M 276
to it again i M 276
to he given a M 276
to be drawn i M 276
to my putting a M 274
to be pouring a M 274
to the river s M 272
to me about i M 272
to be falling a M 272
to the roots a M 270
to eat which i M 270
to the weather i M 268
to the share i M 268
to the clearing i M 268
to the alien a M 268
to be stealing a M 268
to an order i M 268
to the towns i M 266
to the sense a M 266
to it which a M 266
to be exact a M 266
to the passing a M 264
to so light a M 264
to my vision a M 264
to the quick i M 262
to it shows a M 262
to is often a M 262
to go start a M 262
to the opening i M 260
to be moved i M 260
to us until i M 258
to the query i M 258
to the force i M 258
to the crime a M 258
to the usual a M 257
to us again a M 256
to the habit i M 256
to the chain a M 256
to the abuse i M 256
to or creating a M 256
to as noble a M 256
to the plain i M 254
to the holding a M 254
to the fight a M 254
to me comes a M 254
to the total s M 252
to the grant a M 252
to my keeping a M 252
to me cause i M 252
to do makes a M 252
to be mixed a M 252
to the signs i M 250
to the after a M 250
to be copying a M 250
to the trials i M 248
to the basic i M 248
to or change a M 248
to it found a M 248
to it forming a M 248
to the right d M 246
to the claim a M 246
to the basic a M 246
to it nearly a M 246
to the right s M 245
to the class s M 244
to be saved t M 244
to so quick a M 242
to be storing a M 242
to the essay i M 240
to the draft a M 240
to be grown a M 240
to eat either a M 239
to the major i M 238
to the drawing i M 238
to my sending a M 238
to my chair i M 238
to the plane s M 237
to be viable a M 236
to the input i M 235
to us gives a M 234
to the kingdom i M 234
to is rather a M 234
to go alone i M 234
to the forms i M 232
to be proud i M 232
to us stood a M 230
to the storm i M 230
to do stuff i M 230
to be alike a M 230
to the times t M 229
to the verse i M 228
to the games i M 228
to the abyss i M 228
to my guide i M 228
to the white i M 226
to the maker a M 226
to my books i M 226
to as model i M 226
to be about t M 225
to the forum a M 224
to the color i M 224
to is about a M 224
to as holding a M 224
to the doubt i M 222
to so deadly a M 222
to go seeking a M 222
to be lasting a M 222
to the depths i M 220
to the brain i M 220
to be based a M 220
to be burnt a M 219
to be signing a M 218
to my thinking i M 216
to my notion a M 216
to my class i M 216
to an event i M 216
to be bored a M 214
to the shame i M 212
to the gaining a M 212
to my writing i M 212
to go short a M 212
to be echoed a M 212
to an offer i M 212
to the wealthy a M 210
to the types i M 210
to the hints i M 210
to me truly a M 210
to as types i M 210
to as lending a M 208
to as healthy a M 208
to the joint d M 207
to my mother s M 207
to to write a M 206
to the judge i M 206
to the guest a M 206
to the group d M 206
to the close a M 206
to me which a M 206
to go beneath a M 206
to be beaten i M 206
to as quick a M 206
to the trail a M 205
to us nearly a M 204
to the small a M 204
to the gates i M 204
to the deity i M 204
to my class a M 204
to me anything i M 204
to by which a M 204
to the blind a M 203
to the giver a M 202
to so risky a M 202
to as exact a M 202
to the large a M 201
to the mother s M 200
to the draft i M 200
to us shows a M 198
to us makes a M 198
to the walls i M 198
to my habit i M 198
to do given a M 198
to be asked i M 198
to the grass i M 196
to me getting a M 196
to an action i M 196
to the which a M 194
to the touch i M 194
to go chasing a M 194
to be risking a M 194
to be resting a M 194
to as brave a M 194
to us reveal a M 192
to the thanks i M 192
to the favor i M 192
to or adopt a M 192
to me knowing i M 192
to the father s M 191
to the usual s M 190
to the edges a M 190
to my party i M 190
to do again a M 190
to be urged a M 190
to the where i M 188
to the evening a M 188
to me first a M 188
to it added a M 188
to is quite a M 188
to be round a M 188
to the logic i M 186
to the files i M 186
to the delay i M 186
to it seems a M 186
to do people a M 186
to by sending a M 186
to the space s M 185
to us holding a M 184
to go again i M 184
to do nearly a M 184
to be tried i M 184
to the usual t M 182
to the total t M 182
to the thrust t M 182
to the sites i M 182
to the scale i M 182
to the green i M 182
to so ample a M 182
to so amazing a M 182
to by quite a M 182
to be while a M 182
to be begging a M 182
to the enemy s M 181
to the tests i M 180
to my table a M 180
to go under i M 180
to be yours i M 180
to be hurting a M 180
to be closing a M 180
to be acted a M 180
to the hours a M 178
to my lodge a M 178
to us since a M 176
to the types a M 176
to the risks a M 176
to the bones a M 176
to be though i M 176
to be binding a M 176
to the tasks a M 174
to the power t M 174
to the graph a M 174
to my share i M 174
to my brain i M 174
to me first i M 174
to eat while a M 174
to be letting a M 174
to the watch i M 172
to the human i M 172
to so thriving a M 172
to be spent a M 172
to the table t M 171
to be cited a M 171
to us first a M 170
to the storm a M 170
to the season i M 170
to the getting a M 170
to so pleasing a M 170
to be cleaning a M 170
to the lower s M 169
to the shape a M 168
to the nurse i M 168
to the growth a M 168
to the cells i M 168
to tea since i M 168
to tea after a M 168
to sing since i M 168
to or where i M 168
to it takes a M 168
to do today i M 168
to be built i M 168
to as happy a M 168
to the readings i M 166
to the goals a M 166
to do where a M 166
to the short i M 165
to go hungry a M 165
to the visit a M 164
to the agent i M 164
to my holding a M 164
to my finding a M 164
to me shows a M 164
to in parts i M 164
to be dreaming a M 164
to the match i M 162
to the elder a M 162
to my visit a M 162
to it rises a M 162
to go though i M 162
to go round i M 162
to do about i M 162
to go right a M 161
to the wiser a M 160
to sing quite a M 160
to it since a M 160
to an agent i M 160
to the lengths a M 158
to the helps i M 158
to so quiet a M 158
to in forming a M 158
to be threading a M 158
to be named i M 158
to be failing a M 158
to be cured i M 158
to the linear a M 156
to the group t M 156
to the error i M 156
to my voice i M 156
to my kingdom i M 156
to he under a M 156
to the error a M 154
to the depths a M 154
to sing under a M 154
to me showing a M 154
to be abusing a M 154
to an author i M 154
to the local i M 153
to the final d M 153
to be about s M 153
to the ruins i M 152
to the meadow i M 152
to the marks a M 152
to the dates i M 152
to the angels i M 152
to my gaining a M 152
to is given a M 152
to he quite a M 152
to go rather a M 152
to the crack i M 150
to of which i M 150
to my sense a M 150
to do either i M 150
to as party a M 150
to as equal a M 150
to the meanings i M 148
to the folly i M 148
to or until a M 148
to or makes a M 148
to or forms a M 148
to by about a M 148
to the search i M 146
to the owner s M 146
to the owner i M 146
to the lords i M 146
to the drive i M 146
to the blood i M 146
to go marry a M 146
to be aware a M 146
to as worthy a M 146
to as total a M 146
to the lower d M 145
to the empty d M 145
to the label a M 144
to the essay a M 144
to the class t M 144
to the chase i M 144
to the calls i M 144
to so tried a M 144
to no worse a M 144
to my paper i M 144
to be since a M 144
to be added i M 144
to us after i M 142
to the ruins a M 142
to the needs i M 142
to the lower i M 142
to the elite a M 142
to my terms i M 142
to by putting a M 142
to be denying a M 142
to as opening a M 142
to the solid a M 141
to the route a M 140
to so place a M 140
to be freed a M 140
to the wreck i M 138
to the tools i M 138
to the lives i M 138
to me never a M 138
to go chase a M 138
to be drive a M 138
to be dawning a M 138
to an enemy i M 138
to the print a M 136
to the marks i M 136
to the grace i M 136
to it alone i M 136
to he within a M 136
to do later a M 136
to be shown i M 136
to be plain i M 136
to be guiding a M 136
to the ordeal i M 134
to the goods i M 134
to my maker i M 134
to be spent i M 134
to us forms a M 132
to the green a M 132
to the engine i M 132
to the cover a M 132
to so white a M 132
to be liked a M 132
to us really a M 130
to the trunk i M 130
to the months i M 130
to the honor i M 130
to so frame a M 130
to my feeling a M 130
to me wanting a M 130
to it first a M 130
to in writing a M 130
to go alone a M 130
to be upset a M 130
to an appeal i M 130
to the plane d M 129
to the action s M 129
to sing twice a M 129
to be given t M 129
to be equal a M 129
to as types a M 129
to the prize i M 128
to the meadow a M 128
to the lodging i M 128
to the closing a M 128
to the casting a M 128
to ring while i M 128
to or visit a M 128
to it rather a M 128
to be seated i M 128
to be judging a M 128
to be begun a M 128
to the entry a M 127
to be anything a M 127
to the short s M 126
to the costs a M 126
to so glaring a M 126
to me alone a M 126
to it place a M 126
to in about a M 126
to be healed i M 126
to be freed i M 126
to the space d M 125
to the tutor a M 124
to the season a M 124
to the caves i M 124
to so utter a M 124
to so apply a M 124
to me words i M 124
to it leaves a M 124
to be hungry a M 124
to the match a M 123
to the usage i M 122
to the clearing a M 122
to the chaos i M 122
to my visit i M 122
to me later i M 122
to be slowing a M 122
to be brave a M 122
to an array a M 121
to to raise a M 120
to the texts a M 120
to the pages a M 120
to my lodging a M 120
to my knock a M 120
to it reveal a M 120
to be cured a M 120
to be blown a M 120
to as drive a M 120
to the people t M 119
to the local s M 118
to the alarm i M 118
to sing until i M 118
to my humor i M 118
to go about i M 118
to be moral a M 118
to be healthy a M 117
to the monks i M 116
to the force s M 116
to so naked a M 116
to so lengthy a M 116
to or share a M 116
to or imply a M 116
to my pride i M 116
to go fully a M 116
to be wound a M 116
to be apart a M 116
to the woman s M 114
to the trend i M 114
to the games a M 114
to the cache i M 114
to the basic s M 114
to so equal a M 114
to my calling a M 114
to it write a M 114
to it create a M 114
to the lines d M 113
to the virus a M 112
to the loser a M 112
to the color a M 112
to the chase a M 112
to the bones i M 112
to so mixed a M 112
to or touch a M 112
to my views i M 112
to my knock i M 112
to it alone a M 112
to be working i M 112
to be evading a M 112
to an error i M 112
to the known a M 111
to the women s M 110
to the usual i M 110
to the thinking i M 110
to the strong t M 110
to the query a M 110
to the notion a M 110
to the blind i M 110
to ring after a M 110
to me shall i M 110
to go below i M 110
to do gives a M 110
to be evoking a M 110
to an alien a M 110
to the false a M 109
to us again i M 108
to the trick i M 108
to the demon a M 108
to so sound a M 108
to so healthy a M 108
to my passing a M 108
to my meeting a M 108
to my brain a M 108
to go cover a M 108
to be costing a M 108
to as playing a M 108
to do first i M 107
to the warmth i M 106
to the offer a M 106
to the cloud a M 106
to the clock a M 106
to the chain i M 106
to the blows i M 106
to so alien a M 106
to or given a M 106
to be noted i M 106
to be flown a M 106
to as human t M 106
to the lists i M 104
to the idols i M 104
to my reason i M 104
to it offer a M 104
to eat though i M 104
to be lived a M 104
to it under s M 103
to go again a M 103
to the links a M 102
to the deeds i M 102
to sing aloud a M 102
to sing again a M 102
to my plans i M 102
to go which i M 102
to be white i M 102
to be makes a M 102
to be either i M 102
to as tight a M 102
to as sending a M 102
to the wrist a M 100
to the warmth a M 100
to the though i M 100
to the start a M 100
to the shade i M 100
to the royal i M 100
to so naive a M 100
to my joining a M 100
to my child a M 100
to he either a M 100
to do cause i M 100
to be either t M 99
to to avoid a M 98
to the leader i M 98
to the debts i M 98
to the clock i M 98
to so total a M 98
to so steep a M 98
to so honor a M 98
to sing while a M 98
to my needs i M 98
to in creating a M 98
to be stuck a M 98
to the extra i M 97
to the white a M 96
to the upper i M 96
to the morning a M 96
to the layer a M 96
to the heaven i M 96
to so noted a M 96
to no avail a M 96
to me though a M 96
to me beneath a M 96
to it round a M 96
to do takes a M 96
to be though a M 96
to be loading a M 96
to be brave i M 96
to be avenging a M 96
to the sides i M 94
to the posts a M 94
to the poetry a M 94
to the final t M 94
to the close i M 94
to the calling i M 94
to so royal a M 94
to so loose a M 94
to sing within a M 94
to my signing a M 94
to my dreams i M 94
to go first i M 94
to be under i M 94
to be reaped a M 94
to be healthy i M 94
to be awake a M 94
to as rough a M 94
to as proving a M 94
to as ample a M 94
to the frame d M 93
to the roots i M 92
to the party s M 92
to ring until i M 92
to or beneath a M 92
to my wound i M 92
to my order a M 92
to it finds a M 92
to in finding a M 92
to eat beneath a M 92
to do seems a M 92
to by drawing a M 92
to be still i M 92
to be aimed a M 92
to as sweet a M 92
to as quiet a M 92
to an email i M 92
to be human a M 91
to be easily a M 91
to us seeking a M 90
to us lives a M 90
to the twice a M 90
to the share a M 90
to the lakes a M 90
to the killing a M 90
to the count i M 90
to the brave a M 90
to the award a M 90
to so vivid a M 90
to so human a M 90
to my floor i M 90
to me writing a M 90
to me stealing a M 90
to it later a M 90
to is again a M 90
to eat daily a M 90
to do create a M 90
to be human i M 90
to as writing a M 90
to the vowel i M 89
to the moral i M 89
to us showing a M 88
to the yearning i M 88
to the white t M 88
to the needs a M 88
to the learning i M 88
to the glory i M 88
to my trust i M 88
to my bones i M 88
to go hunting i M 88
to go aside a M 88
to be brief a M 88
to an owner a M 88
to the black a M 87
to be small a M 87
to the units a M 86
to the tools a M 86
to the meanings a M 86
to the guide i M 86
to the fable i M 86
to the cutting a M 86
to the boxes i M 86
to sing alone a M 86
to sing above a M 86
to or asked a M 86
to my playing a M 86
to my front i M 86
to in seeking a M 86
to in either a M 86
to he rather a M 86
to be stood a M 86
to be nasty i M 86
to be fixed i M 86
to be faced i M 86
to the notes d M 85
to the large s M 85
to the field s M 85
to to enter a M 84
to the thirty i M 84
to the sleep i M 84
to the plans a M 84
to the entry i M 84
to sing where i M 84
to or causing a M 84
to be sound a M 84
to be landing a M 84
to be hired a M 84
to be awake i M 84
to an image a M 84
to an actor a M 84
to the signs a M 83
to the joint i M 83
to the worse i M 82
to the warning a M 82
to the posts i M 82
to the piece t M 82
to the nurse s M 82
to the laugh a M 82
to the clothing i M 82
to no longer a M 82
to my appeal i M 82
to is where i M 82
to in reaching a M 82
to go check a M 82
to be takes a M 82
to be craving a M 82
to the items a M 81
to to cause a M 80
to the naive t M 80
to the brave i M 80
to so major a M 80
to ring about a M 80
to or start a M 80
to my gates i M 80
to it built a M 80
to do first a M 80
to by nearly a M 80
to be blind i M 80
to as though a M 80
to as quite a M 80
to the world t M 78
to in table a M 75
to the power s M 72
to be taken t M 68
to the basic t M 61
to the input s M 55
to the empty a M 55
to the place s M 54
to be within s M 51
to the limit s M 50
to the angles i M 50
to be added t M 49
to the judge s M 47
to the opening d M 44
to as model a M 42
to the hungry a M 41
to be about d M 40
to the court a D 28459
to the hotel i D 12758
to the throne a D 11930
to the nation a D 10052
to be driving a D 5902
to the scene a D 5812
to the grave a D 5370
to thy cross i D 4888
to be telling a D 4078
to the shore a D 3431
to the hotel a D 3373
to as broad a D 3278
to be serving a D 3124
to the clerk a D 3006
to be fined a D 2974
to my hotel i D 2818
to the grave i D 2440
to the urine a D 2357
to the region a D 2322
to the mayor a D 2150
to the scene i D 2142
to the plate a D 2126
to be frank i D 2094
to be setting a D 2076
to the level i D 2064
to so grave a D 1996
to be rated a D 1930
to the court i D 1918
to the cabin i D 1896
to the theater a D 1806
to the novel a D 1792
to the shore i D 1756
to the title i D 1738
to be thrown a D 1735
to so lofty a D 1710
to the shaft a D 1690
to the bench a D 1682
to the level a D 1642
to the dutch a D 1585
to the negro a D 1548
to the staff a D 1528
to the tower a D 1512
to the curve a D 1478
to the lipid a D 1448
to the polls a D 1428
to my knees i D 1350
to so broad a D 1348
to be talking a D 1318
to be stating a D 1308
to be filed a D 1288
to the bible a D 1268
to the bride a D 1258
to the studio i D 1234
to the studio a D 1224
to the widow a D 1215
to the throne i D 1213
to the wearer a D 1208
to be dancing a D 1204
to in annex i D 1184
to the skies a D 1165
to the wheel a D 1161
to the abbey a D 1156
to the sword a D 1142
to be placing a D 1128
to be smoking a D 1126
to the hotel d D 1118
to the thesis i D 1102
to the trade a D 1074
to the chief s D 1061
to so fatal a D 1050
to the flame a D 1042
to sea under a D 1036
to the ranch i D 1034
to the winds i D 1030
to the stake a D 1020
to the bench i D 1020
to be staging a D 1020
to the chief a D 1014
to so rigid a D 1014
to the gloom i D 1012
to the flask a D 1012
to the stars i D 1004
to the league a D 991
to be throwing a D 978
to the winds a D 970
to the glass a D 952
to the nation i D 948
to the anode a D 906
to the hearer a D 892
to the ranch a D 887
to the bureau a D 876
to my cabin i D 874
to my grave a D 866
to the stars a D 834
to the nation s D 819
to the fancy a D 818
to the treaty a D 816
to the sight a D 812
to the dealer a D 802
to be voted a D 780
to the opera a D 776
to be issuing a D 768
to the laity a D 766
to the heathen a D 754
to the synod a D 752
to the banks a D 737
to be digging a D 736
to the poles a D 730
to the theater i D 728
to so novel a D 728
to the fleet a D 723
to sea after a D 714
to so rapid a D 710
to the creek a D 691
to the stone a D 686
to my bosom i D 668
to the porch i D 658
to the drama a D 658
to the pains i D 656
to the cabin a D 655
to the organ a D 646
to the amide i D 642
to so sharp a D 642
to be withal a D 636
to the ceiling a D 630
to the themes i D 624
to the bower i D 620
to the truck i D 618
to my breast i D 614
to be forging a D 614
to the title a D 608
to the novel i D 608
to the bible i D 602
to my uncle i D 602
to my fancy a D 602
to the fingers a D 600
to my taste a D 596
to be hosting a D 596
to me would i D 592
to the villa i D 586
to the horse i D 584
to the taste a D 580
to my rooms i D 580
to the tower i D 576
to the rajah a D 576
to be borne a D 576
to the creek i D 574
to the rooms i D 562
to the index i D 561
to the opera i D 560
to the flesh a D 557
to the fence i D 556
to the shaft s D 553
to the saint a D 552
to the metal a D 552
to the panel a D 546
to the depot i D 540
to be taxed a D 538
to the roman a D 529
to the motel i D 526
to my horse i D 518
to so odious a D 514
to the donor a D 506
to be changing a D 502
to the trade i D 500
to the canal a D 500
to the shock i D 498
to the dance i D 496
to the tongue a D 492
to the tapes i D 492
to the payee a D 492
to the wharf a D 490
to be fired a D 484
to the tribe a D 478
to the salon a D 470
to as rapid a D 470
to so stern a D 469
to the seaman a D 464
to the peers a D 464
to my shock i D 464
to sea within a D 462
to the chord a D 459
to the region i D 456
to the wedding i D 452
to the lobby i D 450
to my sight a D 450
to as lofty a D 448
to the genus a D 445
to be viewing a D 444
to the villa d D 440
to my chest i D 440
to my grave i D 438
to my uncle a D 434
to my hotel a D 432
to be packing a D 432
to the curve s D 431
to my taste i D 428
to the baron a D 426
to the tonic a D 425
to be solving a D 424
to the plate i D 422
to the chest a D 420
to the horse a D 416
to the chief i D 416
to be wasting a D 414
to the lever a D 410
to be tuned a D 410
to be mending a D 410
to be rolling a D 406
to the steel a D 396
to sea where a D 396
to so lowly a D 390
to be renting a D 390
to the wharf i D 388
to the porch a D 388
to the skies i D 386
to the faces a D 385
to the liver a D 384
to the depot a D 380
to the fence a D 379
to in annex a D 378
to the atoms a D 374
to the genre a D 372
to the grade i D 368
to the folks i D 366
to be editing a D 362
to the region s D 361
to the skull a D 358
to the dance a D 358
to be funny i D 358
to the guild a D 354
to the abbot a D 354
to my stare a D 352
to be heated a D 348
to the voter a D 344
to la bible d D 342
to the films i D 340
to be tapping a D 340
to be reared a D 332
to the ridge a D 330
to the speed i D 328
to the wheel i D 324
to the breast a D 324
to be shaking a D 324
to the staff s D 323
to the level d D 323
to my throat i D 322
to the treaty i D 318
to the nabob a D 318
to my bosom a D 316
to the stone i D 314
to as smooth a D 308
to the waist a D 306
to the waves a D 302
to an ounce a D 302
to the shops i D 300
to the waist i D 298
to the pilot a D 298
to the ceiling i D 298
to go smoke a D 298
to go shoot a D 298
to be shewn a D 298
to the tonic d D 296
to the elect a D 294
to the staff i D 292
to the mines a D 292
to the couch i D 292
to so swift a D 292
to be tracing a D 292
to the setting a D 290
to the dress i D 290
to the villa a D 288
to the vicar a D 286
to be duped a D 286
to the dregs a D 284
to my studio i D 284
to be voicing a D 284
to the spacing d D 283
to the lover a D 282
to the plays i D 280
to the evils i D 280
to the annex i D 278
to so petty a D 276
to so crude a D 276
to be kissing a D 276
to the wedding a D 274
to my dance a D 274
to the drugs i D 272
to the court s D 271
to be towed a D 270
to the wagon i D 268
to go fishing a D 268
to be carving a D 268
to the valve a D 264
to be cooking a D 264
to the popes a D 262
to the glass i D 262
to be blazing a D 262
to so faint a D 261
to the index a D 260
to be humming a D 260
to the metal d D 255
to the lobby a D 254
to the grade a D 254
to the choir a D 254
to as sharp a D 254
to the races a D 252
to the envoy a D 252
to the docks a D 252
to the framing a D 248
to sea until i D 246
to be framing a D 246
to the wires a D 244
to the movie i D 244
to the curve t D 244
to be readying a D 244
to the alloy a D 242
to be sailing a D 242
to the polls i D 240
to the salon d D 238
to the attic i D 238
to be filming a D 238
to the canon a D 236
to sea about a D 234
to be marking a D 234
to the sight i D 232
to the mines i D 232
to the canal i D 232
to so dizzy a D 232
to the lever d D 231
to so sober a D 230
to sea until a D 230
to be chewing a D 230
to the sauce a D 228
to my breast a D 228
to the tumor a D 224
to the stock a D 224
to the coach i D 224
to be sweating a D 224
to the stern a D 222
to the camps a D 222
to the boats i D 222
to so minor a D 222
to the priory a D 220
to the pasha a D 220
to the flesh i D 220
to as swift a D 220
to as rigid a D 220
to the ferry i D 218
to the clerk i D 218
to the funds a D 216
to the falls a D 216
to the sword i D 214
to the chest i D 214
to my cabin a D 214
to be teased a D 214
to the slope a D 212
to the faces i D 212
to so smooth a D 212
to as level i D 212
to the races i D 210
to be bound a D 210
to the speed a D 208
to the roles i D 208
to the ridge i D 208
to the fruit a D 208
to the toast i D 206
to the chart i D 206
to the broad a D 206
to or viewing a D 206
to be drunk a D 206
to the stove a D 204
to be sipping a D 204
to the serum a D 203
to the serial i D 202
to be pleading a D 202
to the leather a D 200
to the fetus a D 200
to so loyal a D 200
to sea again a D 200
to be hauling a D 200
to the region d D 199
to the shack i D 198
to the miner a D 198
to the payer a D 197
to be slain a D 196
to be limping a D 196
to the talks i D 194
to the cornea a D 194
to thy people a D 192
to the truck a D 192
to the sport a D 192
to the rider a D 192
to the nerve a D 192
to the blade a D 192
to the doors a D 191
to be tired a D 191
to the yacht i D 190
to the rhythm i D 190
to the levying a D 190
to my waist i D 190
to my truck i D 190
to the shaft d D 188
to the pitch i D 188
to the mound i D 188
to be borne i D 188
to the vault a D 186
to the placing a D 186
to the brook i D 186
to my rooms a D 186
to be licking a D 186
to the tents i D 184
to the motor a D 184
to the coach a D 184
to the blush a D 184
to be raped a D 184
to the tribe i D 182
to the screw a D 182
to the arena a D 182
to king peter i D 182
to the slide a D 180
to the ovary a D 180
to the strings a D 178
to the sport i D 178
to the brook a D 178
to be baked a D 178
to the grain a D 177
to the robbing a D 176
to the gravy a D 176
to the cliff s D 175
to the spine a D 174
to the score a D 174
to the curve d D 174
to so manly a D 174
to my heels i D 174
to be dried a D 174
to the steel i D 172
to the ferry a D 172
to the sheep i D 170
to the level s D 170
to the foods i D 170
to the ranks a D 168
to the baker a D 168
to be sucking a D 168
to the stock i D 166
to the logos a D 166
to the jungle i D 166
to sea again i D 166
to be masking a D 166
to be lugging a D 166
to the junta a D 164
to sea where i D 164
to be staking a D 164
to the dough a D 162
to the rotor a D 160
to the paste a D 160
to the docks i D 160
to the diner a D 160
to it plays a D 160
to be kicking a D 160
to the lounge i D 158
to the lesion a D 158
to the whale i D 156
to the rooms a D 156
to the flour a D 156
to be thrice a D 156
to as marking a D 156
to the chart a D 154
to the abbey i D 154
to my fingers i D 154
to be tending a D 154
to my knees a D 153
to the wagon a D 152
to the movie a D 152
to the ledge i D 152
to the grove a D 152
to the friars a D 152
to the clubs a D 152
to the wheel d D 151
to thy power i D 150
to the taste i D 150
to the stick i D 150
to the piazza d D 150
to the mound a D 150
to the coils a D 150
to the cliff a D 150
to the crest a D 149
to thy hands i D 148
to the smoke a D 148
to the flock a D 148
to the doors i D 148
to the curve i D 148
to thy spell a D 146
to the jetty i D 146
to the attic a D 146
to so genial a D 146
to the suite i D 144
to the saint i D 144
to the padre a D 144
to the corps a D 144
to my mates i D 144
to be manning a D 144
to be hugging a D 144
to the waves i D 140
to the salon i D 140
to the groom a D 140
to so dreary a D 140
to the level t D 139
to the zenith a D 138
to the throat a D 138
to the stove i D 138
to the hirer a D 138
to the cliff i D 138
to sea quite a D 138
to my couch i D 138
to go dancing a D 138
to do thrice a D 137
to the issuing a D 136
to the clown a D 136
to the bills i D 136
to be lagging a D 136
to the plaza i D 134
to so penal a D 134
to be shining a D 134
to the shops a D 132
to be jogging a D 132
to be bidding a D 132
to the baron d D 131
to the thrill i D 130
to the stack a D 130
to the plays a D 130
to the cable a D 130
to the brink a D 130
to the basis a D 130
to so dense a D 130
to be cashing a D 130
to the syringe a D 128
to the pitch a D 128
to the limbs a D 128
to the gorge a D 128
to the ghost a D 128
to the corps d D 128
to the angler a D 128
to the alley a D 128
to sea while a D 128
to as setting a D 128
to the plebs a D 127
to the boats a D 127
to the siege a D 126
to the shaft i D 126
to the roads a D 126
to the pound a D 126
to the plaza a D 126
to the muses i D 126
to the genus i D 126
to the foyer i D 126
to so galling a D 126
to my studio a D 126
to my lover i D 126
to the knees i D 124
to the comet a D 124
to the brush a D 124
to be ceded a D 124
to the violin a D 122
to the fiber a D 122
to the camps i D 122
to the bureau i D 122
to so silly a D 122
to it poses a D 122
to be waged a D 122
to be grade a D 122
to be fleeing a D 122
to be fishing a D 122
to be exuding a D 122
to the roads i D 120
to the mills i D 120
to the honey a D 120
to the cable i D 120
to go drink a D 120
to be aired a D 120
to the region t D 119
to the yolks a D 118
to the tubes a D 118
to the torch a D 118
to the skill i D 118
to the nodes a D 118
to the minor a D 118
to the lever i D 118
to the juice a D 118
to the falls i D 118
to the ditch i D 118
to be swaying a D 118
to be milking a D 118
to the prism a D 116
to the crest i D 116
to the couch a D 116
to my waist a D 116
to by placing a D 116
to be scoring a D 116
to be mingled a D 116
to be grade i D 116
to the piazza i D 114
to the glaze a D 114
to the bride i D 114
to so stout a D 114
to my staff i D 114
to go thither i D 114
to be trading a D 114
to be tossing a D 114
to be burying a D 114
toe to catch a D 112
to the wages i D 112
to the stern i D 112
to the shelf a D 112
to the funds i D 112
to the elbow a D 112
to the drama i D 112
to be brewing a D 112
to be abating a D 112
to the bride s D 111
to the wages a D 110
to the pinch i D 110
to the patch a D 110
to the horse s D 110
to the bases a D 110
to the arrow a D 110
to sea while i D 110
to it throws a D 110
to it thrice a D 110
to in title i D 110
to the weapon a D 108
to the tidings i D 108
to the stake i D 108
to the roles a D 108
to the knife i D 108
to the fleet i D 108
to the creed i D 108
to the crank d D 108
to the charm i D 108
to my smoking a D 108
to go camping a D 108
to be sinking a D 108
to be minding a D 108
to the twins a D 106
to the springs a D 106
to the shock a D 106
to the paint a D 106
to the knife a D 106
to the grange i D 106
to the craft a D 106
to be sensing a D 106
to the plate d D 105
to the rates i D 104
to the penis a D 104
to the diner i D 104
to sea level a D 104
to go fishing i D 104
to be glowing a D 104
to the social a D 102
to the rumor i D 102
to the penny a D 102
to the manse i D 102
to me would a D 102
to eat foods i D 102
to the suite a D 100
to the negro i D 100
to the hangar i D 100
to the gland a D 100
to the fiend i D 100
to be weeping a D 100
to be washing a D 100
to be thinning a D 100
to be sagging a D 100
to be cocking a D 100
to be chock a D 100
to the valet a D 98
to the reeds a D 98
to the motel a D 98
to the liver i D 98
to the grove i D 98
to the craft i D 98
to the coins a D 98
to the cards i D 98
to so frank a D 98
to my tower i D 98
to my sight i D 98
to be smart i D 98
to be dunning a D 98
to as merry a D 98
to the tapes a D 96
to the spots i D 96
to the shack a D 96
to the photo i D 96
to the moors a D 96
to the genre i D 96
to the films a D 96
to the fever i D 96
to the ankle a D 96
to my fancy i D 96
to my chest a D 96
to in framing a D 96
to be listing a D 96
to be handing a D 96
to the stump a D 94
to the sheet a D 94
to the rates a D 94
to the lounge a D 94
to the homes i D 94
to the dealer i D 94
to the alley i D 94
to or telling a D 94
to the coals i D 93
to the sewer a D 92
to the pulse a D 92
to the organ i D 92
to the mouse i D 92
to the mills a D 92
to the jetty a D 92
to the flute i D 92
to the dunes i D 92
to my tongue i D 92
to be liable a D 92
to be drunk i D 92
to an uncle i D 92
to the wrongs i D 90
to the ulcer a D 90
to the troop i D 90
to the syrup a D 90
to the stile i D 90
to the sponge a D 90
to the ledge a D 90
to the heater a D 90
to the chill i D 90
to my cheek i D 90
to king carol i D 90
to be woken a D 90
to be hurling a D 90
to be batting a D 90
to the roman i D 89
to the widow i D 88
to the manor a D 88
to the basin a D 88
to the anvil a D 88
to my trade i D 88
to be woven a D 88
to be robbing a D 88
to be pumping a D 88
to be mocking a D 88
to as annex i D 88
to the valve d D 87
to the spell i D 86
to the robot a D 86
to the jungle a D 86
to the creed a D 86
to my shirt i D 86
to go thrice a D 86
to be dodging a D 86
to the tunes i D 84
to the shots i D 84
to the rifle i D 84
to the rabbi a D 84
to the oxide a D 84
to the fowls a D 84
to the cooling a D 84
to my nation i D 84
to be rowed a D 84
to be massing a D 84
to be housing a D 84
to be fired i D 84
to as title i D 84
to thy court a D 82
to the trout a D 82
to the probe a D 82
to the muses a D 82
to the kinds i D 82
to the hedge i D 82
to the crank a D 82
to the brute a D 82
to so godly a D 82
to me smoking a D 82
to be plowing a D 82
to be funding a D 82
to be cooling a D 82
to us thrice a D 80
to the stick a D 80
to the spacing a D 80
to the flame i D 80
to so menial a D 80
to an index i D 63
to the hardy s D 50
to the slope s D 44
