too a kind of M 1078
too i want to M 682
too a part of M 636
too a sort of M 474
too i have to M 366
top a pair of M 356
tor i know the M 318
too a form of M 314
top a sort of M 313
tor a list of M 312
too i have no M 284
tor a term of M 276
top a kind of M 264
too a word of M 254
too i wish to M 252
top a band of M 248
too i think it M 246
too i used to M 234
too i came to M 224
too i think the M 222
too i think we M 192
top a view of M 180
top a mass of M 179
too a case of M 176
too i hope to M 174
too i heard the M 172
too a sign of M 172
too a pair of M 164
too i think of M 160
too i think is M 158
tor a week or M 156
too i will be M 154
top a list of M 146
too a breath of M 144
top i heard the M 143
tor a copy of M 140
too a means of M 136
too i think he M 134
too i seem to M 134
too a host of M 130
tor a time in M 128
tor a range of M 128
too a copy of M 128
top a pile of M 127
tor a time the M 122
too a lack of M 122
too i went to M 120
too a hint of M 120
too i must be M 114
too a body of M 114
too i made up M 112
too a lady of M 112
too i have the M 108
too a note of M 108
top a line of M 107
tor a part of M 100
too a flaw in M 100
too a theory of M 98
too i think as M 97
too i have my M 96
too i have an M 94
too i felt the M 94
tor a length of M 92
too i feel the M 92
tor a pair of M 91
too a work of M 90
tor a time at M 88
too a range of M 88
too i leave to M 82
tor a time to M 80
tow a pair of M 40
ton a unit of D 201
tow a boat or D 190
ton a mile in D 172
tom a copy of D 142
top a tuft of D 133
tom a look of D 132
tow a string of D 126
tow a boat at D 106
tom i want to D 106
top a foot or D 104
ton a mile on D 96
ton i take at D 86
tom a mile up D 86
toes i step on D 46
tow a raft of D 45
tow a boat by D 41
