today it is the M 66737
today as in the M 24502
today is in the M 20056
today it is an M 13167
today is to be M 11512
today it is no M 11144
towns or in the M 9868
tools to do the M 9720
today or in the M 8781
today he is the M 8617
today it is in M 7887
total of up to M 7483
today to be the M 6965
touch it to the M 6238
today is on the M 6106
tools to do so M 5888
tough it is to M 5550
topic is to be M 5514
tools to do it M 4388
today as it is M 3989
towns as in the M 3570
touch me in the M 3232
today as to the M 3088
today is at the M 3078
today it is as M 3062
total is to be M 2945
today he is an M 2875
today he is in M 2806
touch me on the M 2760
total up to the M 2685
touch it in the M 2574
today is of the M 2442
touch of it in M 2426
tough thing to do M 2382
tough as it is M 2341
today it is so M 2301
today as if it M 2254
towns or on the M 2238
tools so as to M 1950
today to be an M 1904
today is by no M 1866
today as at the M 1849
towns or to the M 1848
today it is my M 1833
touch is to be M 1799
towns so as to M 1798
today to go to M 1744
today it is to M 1699
today if it is M 1684
today so as to M 1618
total is in the M 1592
touch as if it M 1588
today we go to M 1576
towns is to be M 1554
today it is at M 1548
today it is of M 1543
today to be in M 1530
touch of the king M 1528
today it is on M 1521
touch me to the M 1388
topic is in the M 1370
touch on it in M 1334
touch on in the M 1307
touch it on the M 1243
touch it at the M 1228
today is in no M 1207
topic so as to M 1168
tough as he is M 1158
topic as it is M 1144
touch us in the M 1130
touch of it on M 1128
tools is to be M 1104
tombs on the via M 1086
tools of the king M 1044
today it is by M 1027
tough as to be M 1024
total as of the M 995
towns it is the M 994
touch as if he M 985
today as on the M 983
touch is in the M 973
touch us to the M 966
today is the so M 931
towns of up to M 928
touch in it of M 920
today in the so M 913
touch so or so M 908
tough go of it M 898
today to do the M 893
total as in the M 862
today is to go M 844
today is in an M 838
today as if the M 823
today is to the M 822
today as to be M 809
today is to do M 792
today he is no M 780
touch on is the M 770
towns up to the M 764
toiling up to the M 763
touch it as it M 762
topic is on the M 760
today or of the M 754
today go to the M 750
today to be of M 740
today to be as M 692
touch so as to M 689
today be in the M 680
touch as to the M 678
towns or of the M 676
towns as to the M 672
touch of it is M 668
touch or by the M 653
tools is in the M 650
tools up to the M 648
towns or by the M 630
towns to go to M 628
today he is at M 628
tombs of the king M 622
topping up of the M 612
touch it if it M 608
touch it is to M 589
today he is on M 581
total as it is M 578
today if we do M 563
today as is the M 561
tough to be the M 558
towns as it is M 556
tough to be in M 552
today he is as M 549
touch it or to M 548
topic or to the M 548
towns to the king M 544
touch or to be M 536
towns or at the M 532
topic is at the M 532
today to be so M 515
touch it if he M 510
touch as it is M 510
tombs or in the M 510
today the king of M 505
tombs of the via M 504
topic as if it M 502
tools as in the M 496
towns is in the M 490
today is by the M 490
topic of the king M 488
total is of the M 486
topic up to the M 484
topic to be the M 482
topic is by no M 480
tools or in the M 478
total as to be M 476
today is at an M 474
touch as in the M 468
today he is to M 461
towns to be the M 454
tough to be an M 452
topic or in the M 452
tools as it is M 450
tough to do in M 448
towns to do so M 440
today or at the M 440
today is as it M 440
touch me or my M 438
today if he is M 435
today is of no M 432
touch me in my M 430
towns to do the M 428
touch me on my M 422
total if it is M 405
towns of the king M 404
today is as an M 404
topic is of the M 402
touch us at the M 400
today we in the M 397
touch or to the M 390
toiling on in the M 390
topic if it is M 388
today as if he M 386
touch it or go M 385
today it is up M 380
touch if it is M 378
topic it is to M 378
today he is my M 377
touch of it to M 376
today is of an M 376
touch us if we M 372
tools to be an M 372
today to do it M 370
touch us on the M 368
total or in the M 368
today to do so M 368
today to be at M 367
tours of up to M 364
today as he is M 361
total of the so M 355
touch of the thing M 354
touch it to be M 350
touch on it at M 344
topic of the so M 342
today or is it M 340
tough is it to M 336
tools to be the M 330
today it is we M 328
topic as in the M 326
today or as it M 323
touch is on the M 320
today to be on M 320
touch the king of M 318
today is as the M 318
today to go on M 316
topic to be of M 314
today up to the M 313
tools to go to M 312
touch is at the M 311
total as at the M 311
total up to an M 308
tombs or on the M 308
towns to be on M 306
tough to be me M 304
tough to do if M 302
touch is to the M 298
today we do it M 298
today as if we M 298
towns is on the M 296
touch us in so M 294
touch me as if M 294
touch it to my M 294
total of in the M 288
total of it is M 287
touch it as if M 286
touch is of the M 286
total is on the M 284
today or to the M 284
towns is by no M 282
topic or by the M 280
today go by the M 278
touch us as we M 272
today by the so M 270
touch it by the M 264
tough to do it M 260
tools is on the M 260
total to to to M 258
today he is so M 258
touch me at the M 256
tools or by the M 256
touch of it at M 252
tools to be in M 250
touch to be the M 249
touch it or the M 248
towns up in the M 244
total so as to M 244
tools if it is M 244
tolls so as to M 242
tough as in the M 240
today do so in M 239
touch on in my M 237
touch it as he M 232
topic is to the M 232
touch the ring of M 230
touch me or to M 230
total of the king M 230
today as of the M 229
today or on the M 227
tough to go to M 226
touch at in the M 221
total to be in M 219
touch me or the M 218
topping is to be M 216
tough so as to M 214
touch as to be M 214
total up to at M 214
tough to be on M 212
touch of the ring M 212
topic or on the M 212
tools as if he M 212
towns by the king M 208
towns go in the M 206
tough if it is M 206
total of of the M 206
towns it is an M 204
tombs is to be M 204
touch or so of M 202
tools of by the M 202
toils so as to M 202
today is as to M 202
towns of the so M 200
tough to do the M 200
tools he is to M 200
today is in my M 200
total as to the M 198
touch on it as M 196
topic is of no M 196
tombs of the so M 194
topic or of the M 192
tools or to the M 190
towns to be in M 188
tools is by no M 188
tough to do so M 187
touch as if the M 187
tools to do an M 186
today or to be M 186
towns to be as M 184
tools or of the M 184
tools of the so M 183
tools on to the M 182
today is up to M 182
tough on me as M 180
touch to it by M 180
topic it is the M 180
today as we do M 179
total ca in the M 178
tools is of the M 178
touch it up in M 176
touch it or be M 176
touch up to the M 175
touch in us the M 174
touch it or it M 173
touch the king in M 172
topic is up to M 172
today to be no M 172
touch it is the M 171
towns go to the M 170
tours go to the M 170
tough as if the M 170
touch me in an M 170
touch me if he M 170
touch it as the M 170
total is up to M 170
topic as to the M 170
touch it if the M 169
touch be of the M 169
total to be the M 169
tough thing to go M 168
tough on me to M 168
total of of of M 167
today be on the M 167
touch us by the M 166
tools to be of M 166
towns as on the M 164
touch me as he M 164
touch on at the M 162
towns is of the M 160
tough it is on M 160
today so it is M 159
today as the king M 159
towns as of the M 158
tools of in the M 158
total or it is M 157
tools to be as M 155
today as we go M 154
today we do the M 153
towns to be so M 152
tours so as to M 152
tough to do at M 152
touch the wing of M 152
touch of the wing M 152
topic or if the M 152
tools to do my M 152
tools or on the M 152
tools is at the M 152
towns is to go M 150
tombs is in the M 150
tools if he is M 148
tough to be so M 146
tough to do on M 145
total or of the M 145
total is by no M 144
topic is the so M 144
touch of it as M 142
touch it up to M 142
topic up in the M 142
tools as we go M 142
touch or eat the M 141
topic is in an M 140
toiling on to the M 140
today as do the M 140
touch to it in M 138
touch as if to M 136
tombs in the via M 136
touch as of the M 134
tools to go on M 133
topic or as an M 132
today or it is M 132
today is on an M 132
touch the thing at M 130
today or if it M 130
towns it is of M 128
tough it is in M 128
total is at the M 128
touch it up or M 126
touch it so as M 126
today if he or M 126
touch or of the M 125
touch it in my M 125
tours up to the M 123
touch us as the M 122
towns it is no M 120
tough to go it M 120
touch up in the M 120
tools is up to M 120
toils on to the M 120
touch to be an M 118
touch in it is M 118
tools as he is M 118
tombs to be the M 118
touch or eat it M 116
touch or be in M 116
touch me as it M 116
today is or is M 116
today is as if M 116
today if in the M 116
towns as if by M 114
touch on by the M 114
touch of it the M 114
touch it if we M 114
topic is to do M 114
touch or in the M 113
today be at the M 112
towns on the via M 110
topic to go to M 110
today or if he M 110
tours is to be M 108
touch as is the M 108
touch as by the M 108
tools as is the M 108
towns is at the M 106
tours is on the M 106
touring it in the M 106
tough on us as M 106
total or on the M 106
topic to be in M 106
topic to be an M 106
toils on is the M 106
today up in the M 106
today as the so M 105
towns it is in M 104
today to be my M 103
touch or to eat M 102
total of to the M 102
today as by the M 102
tolls to the king M 100
today of the so M 100
towns on to the M 98
tough it is at M 98
touch it or we M 98
touch is on my M 98
topic is by the M 98
tools as to the M 98
tombs or of the M 98
touch or eat of M 97
touch is of no M 97
touch is as it M 96
today to do an M 96
today to go up M 95
touch to be in M 94
touch me if it M 94
topic as if he M 94
towns to go on M 92
towns if it is M 92
tough to us as M 92
topic as if the M 92
tombs so as to M 92
tombs is to go M 92
toils of the king M 92
today on to the M 91
touch it as we M 90
topic he is to M 90
today is via the M 90
towns is by the M 88
touch it as an M 88
total or to the M 88
total of the thing M 88
topic to me in M 88
tools or as the M 88
today is to me M 88
touch it or eat M 87
tours of the king M 86
tough thing to be M 86
tough on me at M 86
touch or on the M 86
touch me as the M 86
touch it or do M 86
touch is by the M 86
total to go to M 86
tools is to the M 86
toiling up in the M 86
tough to go up M 85
total as is the M 85
touch or so to M 84
touch of it he M 84
touch it to an M 84
touch is by no M 84
topping up to the M 84
topic is of an M 84
topic as of the M 84
tombs up to the M 84
today to do my M 84
towns up on the M 82
towns to be of M 82
touch it at so M 82
total to be at M 82
topic up at the M 82
topic is to go M 82
today is at or M 82
towns as if the M 80
touch of in the M 80
touch it in an M 80
total of at the M 80
tools as do the M 80
touch up on the M 64
toils on in the M 59
tough to go on M 56
touch on it to M 55
touch as if we M 51
toils up to the M 51
today to go in M 51
touch it up so M 50
total up in the M 49
touch in it the M 47
towns it is as M 44
today we go on M 44
today go on to M 44
total as if it M 43
touch to be as M 42
touch on the so M 42
touch on it is M 42
total to be as M 42
tossing it in the D 6000
towns on the sea D 5390
tossing it on the D 4538
tossing it to the D 4154
tongue is in the D 4064
tongue is to be D 3663
tongue or in the D 3521
toast to the king D 3446
tower is to be D 3408
tower is in the D 3078
tongue so as to D 2610
touch of the sea D 2420
tower is of the D 2316
towed it to the D 2290
tower is on the D 2240
tongue in my ear D 2148
tower up to the D 1930
tongue as if it D 1901
tower is at the D 1692
tongue or of the D 1683
tongue as if he D 1644
tossing of the sea D 1604
tossing on the sea D 1560
tower by the sea D 1519
towed up to the D 1374
tongue of the sea D 1304
token of the king D 1302
torch on to the D 1280
tongue up to the D 1163
tongue as it is D 1133
tower of the king D 1120
tones so as to D 1062
torch in my ear D 1039
towed in by the D 1022
tossing it up in D 996
toast of the king D 976
tongue or on the D 974
tower by the king D 956
token on the ring D 946
tongue as if to D 904
towns by the sea D 872
tongue of an ox D 804
tongue is to the D 794
token on to the D 791
tongue to be the D 772
tongue as in the D 764
tongue is at the D 760
tongue is on the D 754
tongue is of the D 754
tower or on the D 750
tower so as to D 722
token it is the D 711
torch is at thy D 696
towns of the sea D 678
tower up in the D 678
tower on the sea D 678
today the sea is D 660
tower on to the D 650
tower or in the D 644
tossing it on to D 634
tones of the sea D 628
token ring is the D 624
tower as it is D 622
tones as in the D 586
tones as if he D 558
token is to be D 530
touch of the toe D 528
tossing it to me D 528
torch so as to D 527
tower to the king D 524
tongue or to the D 521
tongue is in my D 494
tower or to the D 488
tongue to the sea D 484
toxic if it is D 462
tongue to do it D 462
tones up to the D 460
towed us to the D 458
towed to sea by D 458
token is in the D 454
tongue or by the D 448
tongue of the ox D 448
tower is to the D 440
tossing up of the D 435
tower as if it D 434
tones as if it D 434
towel so as to D 426
toned up by the D 420
tower in the sea D 419
tossing it at the D 412
tongue at me in D 408
touch the sea at D 394
tower to be the D 384
tossing in the sea D 380
tongue as to the D 372
torch up to the D 363
touting it as the D 362
touch the toe of D 350
tongue is as the D 350
toast it in the D 350
toxin is in the D 348
touch the ear of D 345
toast is to the D 334
tones is to be D 332
tower to ring the D 328
toast is to be D 326
torch is to be D 322
tower or at the D 320
token is on the D 320
tongue of the king D 316
tones of the king D 316
tower in the re D 312
token of it in D 308
toned up to the D 307
tongue as to be D 306
tones to the ear D 306
towed me to the D 304
tones as to be D 302
tossing up in the D 300
tongue if it is D 300
toils of the sea D 296
towel as if it D 292
tones in the ear D 292
today it is rs D 290
today is to re D 284
tongue at me as D 282
tossing it up to D 276
tower up on the D 272
tossing me in the D 272
tones as to the D 272
torso up to the D 271
tooling is to be D 269
toxic to be of D 268
tonic of the sea D 268
tongue on to the D 268
towed up by the D 258
tossing so as to D 258
towed in to the D 255
toxin is on the D 254
tongue to do so D 254
towel is to be D 252
tower in the via D 246
tongue to do the D 244
tongue is by no D 244
tongue or at the D 242
tongue as he is D 240
tongue as if in D 238
tower to go to D 236
towed us up to D 236
toxin is to be D 234
tongue to my ear D 232
tongue is as an D 230
toast is in the D 230
tough as an ox D 228
torso is in the D 228
torch is in the D 228
tower as in the D 226
towel on to the D 226
tongue to be an D 226
totem is in the D 222
towed it up to D 214
tongue in the ear D 214
token to the king D 213
toted it to the D 212
tower as if to D 210
toxic to the ear D 206
tower at the king D 204
touch the toe to D 204
toxin as it is D 202
touch the ear to D 202
token if it is D 202
token as it is D 201
toxic as it is D 200
tones as if the D 200
token ring is an D 198
toady up to the D 197
towel as if he D 192
tones on the ear D 192
tonic is to be D 191
tonic up to the D 190
tongue as in my D 190
tongue is of no D 188
tongue as if the D 188
tones is in the D 186
token of it is D 182
towel up to the D 180
tones to be the D 180
torso as if it D 179
towed it up the D 176
toast it on the D 176
towed on to the D 174
token to us of D 174
totting up of the D 171
towed us up the D 170
tongue to be so D 168
torch as if it D 164
toxic as to be D 162
totem is of the D 158
tongue or in my D 158
token ring in the D 158
torso as if he D 157
torch to it by D 156
tongue it is the D 156
totem is to be D 154
tongue as on the D 154
tower is to me D 152
tongue to be in D 152
tones as if in D 152
token of it to D 152
touch the sea in D 150
touch of the hoe D 150
tonic as in the D 150
towns to the sea D 148
tones or in the D 148
tones as of the D 148
tones as it is D 148
token it is an D 148
tossing me to the D 146
tower is of an D 144
toiling on the sea D 144
token it is to D 143
toxin or of the D 142
towel if it is D 142
tossing up to the D 142
tongue up in the D 142
tongue to sing the D 142
toxin or to the D 140
towed it to sea D 140
tongue or as an D 140
tones as if to D 140
tongue as to my D 139
torso or of the D 138
tongue to the ear D 138
toast as if it D 138
tower or of the D 136
tossing it up on D 136
today in the sea D 136
torso so as to D 135
torch of the foe D 134
towed to sea in D 130
token to me of D 130
torch as it is D 129
tower is in an D 128
tongue or the ear D 128
towel is on the D 126
token of it he D 124
toxin so as to D 122
tower to the sea D 121
tower to be of D 120
tower is by an D 120
towed it so as D 120
token up by the D 120
tossing it at me D 118
torso as if to D 118
tongue is as it D 118
tower up by the D 116
tongue up on the D 116
tower he is on D 114
token is of the D 114
torch on to it D 112
token to be the D 112
total up to rs D 111
towel up on the D 110
touting it as an D 110
tones of up to D 110
totem or of the D 108
torus is to be D 108
tongue or ear at D 108
token he is the D 108
token an ear of D 108
toxin is of the D 106
touch on the ear D 106
tongue is in no D 106
tones is at the D 106
tonic as it is D 104
tongue to be of D 104
tones by the ear D 104
today is the re D 104
tower as if he D 102
towed it in to D 102
tongue at us in D 102
tongue as of the D 102
tones or of the D 102
token of it by D 102
tower is by no D 100
towed in on the D 100
tonic or on the D 100
tongue to it by D 100
tones of the so D 100
toxin or by the D 98
toxin if it is D 98
towel in the ring D 98
torch up at the D 98
tongue is by the D 98
today on the sea D 97
towel as if to D 96
tossing sea of the D 96
tossing as if in D 96
tongue it is to D 95
tongue up at the D 94
token as in the D 94
tower to be on D 92
towel is in the D 92
tonguing it as he D 92
token of the thing D 92
toast it at the D 92
torch in the sea D 91
tonic is in the D 91
tower of up to D 90
tower of it is D 90
tower is of no D 90
tongue if he is D 90
tongue as we do D 90
token it is no D 90
toxin of the sea D 88
torch or by the D 88
tongue as do the D 88
toned as it is D 88
torch is on the D 86
tongue of it is D 86
tongue be to be D 86
token of it the D 86
toxic as in the D 84
touch the sea or D 84
torch if it is D 84
tonic or of the D 84
tower to be as D 83
towed us in to D 82
tossing up as to D 82
torts it is the D 82
topic of the ad D 82
tongue as if by D 82
tower to be an D 80
tower if it is D 80
tower as on the D 80
towel as it is D 80
tools as the hoe D 80
tones as if of D 80
token ring to the D 57
tonic is on the D 54
torus is in the D 47
torso as it is D 47
touch on the toe D 44
tongue or as the D 43
tonne or so of D 40
tongue it is an D 40
