do unto me . M 11439
do unto us . M 10948
do their thing . M 10566
do tell me . M 9490
do your thing . M 8658
do know it . M 8290
do like it . M 6806
do hope so . M 5950
do think so . M 5712
do have it . M 4395
do need it . M 4118
do tell me ! M 4078
do love me . M 4014
do want it . M 3635
do love me ? M 3524
do come in ! M 2960
do want to . M 2958
do unto me ? M 2550
do tell us . M 2423
do find it . M 2250
do love it . M 2218
do feel it . M 2076
do come up . M 1906
do wish it . M 1716
do deny it . M 1686
do help me . M 1685
do like me . M 1604
do take it . M 1547
do love me ! M 1486
do tell us ! M 1390
do shut up . M 1347
do make it . M 1322
do know me . M 1297
do more of . M 1286
do show up . M 1218
do think it . M 1164
do help me ! M 1152
do more of ? M 1146
do join us . M 1071
do shut up ! M 1004
do grow up . M 978
do have to . M 967
do like it ? M 898
do miss it . M 896
do hope so ! M 868
do some thing . M 832
do need me . M 804
do your thing ! M 750
do unto us ? M 750
do good to . M 742
do among us . M 737
do hate it . M 731
do wake up . M 716
do come on . M 712
do turn up . M 690
do upon it . M 662
do know it ! M 648
do like it ! M 646
do from us . M 558
do want me . M 555
do from me . M 534
do well on . M 518
do like me ? M 500
do keep it . M 486
do have it ? M 474
do know it ? M 453
do just so . M 450
do tell me ? M 448
do lose it . M 448
do learn it . M 446
do stop it . M 437
do give it . M 424
do speak up . M 422
do will it . M 400
do help us . M 398
do wake up ! M 392
do even so . M 390
do less of ? M 384
do hate me . M 381
do think so ? M 380
do such thing . M 366
do show it . M 362
do play it ? M 354
do over it . M 353
do well to . M 352
do move on . M 351
do take me . M 348
do these go ? M 346
do their thing ? M 346
do come on ! M 342
do well at . M 336
do love it ! M 336
do less of . M 336
do stop it ! M 330
do mind it . M 326
do call it . M 324
do give up . M 316
do reach it . M 312
do well by . M 308
do take me ! M 290
do hold it . M 290
do want me ? M 288
do like me ! M 284
do sell it . M 280
do your thing ? M 278
do think me . M 270
do like us . M 270
do want to ! M 267
do call me . M 266
do well in ? M 264
do want it ! M 261
do unto it . M 254
do think so ! M 254
do feel it ! M 254
do these do ? M 244
do break up . M 244
do leave us . M 242
do join me . M 242
do find it ? M 242
do unto me ! M 240
do deny it ! M 238
do good thing ? M 232
do need to . M 218
do wish it ! M 216
do swear it . M 216
do love us . M 216
do same thing . M 212
do open up . M 208
do live on . M 202
do leave it . M 202
do best in ? M 202
do know me ? M 200
do speak it . M 198
do help us ! M 198
do think of . M 196
do fail me ! M 196
do feel so . M 194
do live in ! M 192
do leave me . M 192
do obey it . M 190
do kill me . M 188
do hate it ! M 188
do grow up ! M 186
do early on . M 186
do take it ! M 184
do need us . M 184
do teach it . M 182
do have it ! M 182
do seek it . M 181
do look it . M 178
do pick up . M 176
do want it ? M 174
do show up ? M 174
do spring up . M 172
do want to ? M 170
do show me . M 170
do come up ! M 168
do need it ! M 164
do their thing ! M 162
do during it . M 158
do such thing ? M 156
do make it ? M 156
do tell it . M 154
do unto us ! M 152
do send it . M 152
do from it . M 152
do swear it ! M 150
do said he . M 150
do know of . M 144
do think it ! M 142
do among us ? M 142
do look up . M 140
do need it ? M 138
do dread it . M 138
do hurt me . M 134
do know me ! M 132
do teach us . M 130
do what he . M 128
do come by . M 128
do seem to . M 126
do line up . M 126
do hate us . M 126
do give it ! M 126
do show it ! M 124
do open it . M 124
do hurt us . M 124
do fish eat ? M 124
do break it . M 124
do what is . M 122
do feel so ? M 122
do hate me ! M 121
do think of ! M 120
do meet it . M 120
do more so . M 118
do hold up . M 118
do have me . M 118
do come in ? M 118
do give us . M 116
do most of . M 114
do take on . M 112
do keep up . M 112
do wish to . M 110
do play it . M 110
do omit it . M 110
do much of . M 110
do good in ? M 108
do find me . M 108
do hope it . M 107
do face it . M 107
do drop it . M 106
do dogs eat ? M 104
do take up . M 102
do stop me . M 100
do pile up . M 100
do save me ! M 98
do hold on . M 98
do feel it ? M 98
do pity me . M 96
do nothing to . M 96
do come up ? M 96
do upon us . M 94
do sign it . M 94
do will be . M 92
do fail me . M 92
do dogs do ? M 92
do kill me ! M 88
do have to ! M 88
do boys do ? M 88
do well on ? M 86
do save me . M 86
do pass on . M 86
do good by . M 84
do take it ? M 82
do lend it . M 82
do blow up . M 82
do know us . M 80
do harm to . M 80
do fill up . M 80
do stop by . M 47
do beats me . M 40
