ago , " he M 133103
ago , " the M 48823
age , " he M 41516
age , " the M 34813
age , " in M 33378
ago : " the M 17575
age , " as M 11400
ago , " it M 7775
age , " or M 7524
aging , " in M 6607
ago , " is M 6586
ago , " in M 6075
age : " the M 5878
ago : " it M 5562
ago , " we M 5384
age , " is M 5343
age , " to M 4759
age , " it M 4750
ago : " we M 4514
age , " by M 4430
ago : " if M 4064
ago , " if M 3638
ago , " to M 3320
ago : " in M 3257
age , " we M 2960
ago , " or M 2715
age , " an M 2660
ago , " as M 2591
aging , " the M 2219
ago , " my M 2183
age , " of M 1992
age , " so M 1768
age : " it M 1704
ago : " to M 1648
ago , " by M 1462
ago , " an M 1418
ago : " he M 1368
age : " in M 1368
ago , " no M 1329
ago , " do M 1184
age , " if M 1093
age : " we M 1092
ago : " no M 1078
age , " my M 1071
ago , " so M 1047
age , " at M 1022
age : " he M 972
ago : " as M 958
age : " if M 902
ago : " do M 832
ago : " my M 790
ago , " at M 718
age , " on M 693
aging , " by M 646
ago , " of M 638
ago , " on M 570
age : " my M 552
ago : " an M 530
ago : " of M 460
ago : " on M 432
age : " to M 421
ago : " at M 418
age : " as M 399
age , " no M 384
ago : " is M 346
ago , " be M 346
age , " do M 333
aging , " he M 316
ago : " oh M 288
ago : " be M 280
age : " at M 274
ago , " oh M 266
age : " do M 266
age : " no M 258
aging , " or M 256
aging , " as M 253
age : " an M 247
ago : " by M 246
ago : " so M 216
aging : " the M 206
aging , " is M 184
age , " am M 182
age : " oh M 178
age : " is M 174
age : " on M 158
ago : " go M 142
age , " be M 134
ago , " go M 128
ago , " king M 114
age : " so M 111
age : " of M 110
age : " be M 96
age : " by M 86
aging , " it M 41
