aged three months . M 714
aged nine months . M 554
aged four months . M 516
aged five months . M 414
aged three weeks . M 276
aged over sixty . M 246
aged over fifty . M 244
ages have known . M 232
ages ever since . M 232
aged five weeks . M 181
ages will enjoy . M 180
ages were found . M 178
aged only thirty . M 178
ages were known . M 172
aged over forty . M 160
ages into hours . M 154
ages only dreams ? M 142
aged young people . M 132
aged over thirty . M 114
ages were given . M 112
aged only forty . M 107
ages were passing . M 86
ages were built . M 86
ages have begun . M 82
ages were taken . M 80
aged only fifty . M 80
aged four weeks . M 50
